Clock Speed: 3.498670
Num threads: 24
Trotterisation: 1
Graph Size: 5
Num Qubits: 7
Space Dimension: 128
Run-Type: 0
Num_samples: 1
Optimiser Method: 28
1 Isomorphic
Graph 1:
1 0 1 1 0 
1 1 0 0 1 
1 1 0 0 0 
0 0 0 0 1 
1 1 1 1 0 
Graph 2:
1 0 1 1 0 
1 1 0 0 1 
1 1 0 0 0 
0 0 0 0 1 
1 1 1 1 0 
Solution: 0 0
Expectation: -13.093750
Final Parameters:
Gammas:
[ 3.141593 ]
Betas:
[ 1.570796 ]
Aggregate results:
[ 0 8 12 10 14 6 18 16 25 ]
[ 0.007813 0.062500 0.296875 0.187500 0.218750 0.015625 0.031250 0.117187 0.062500 ]
-2
Num Evals 0
GenUC: 2.313305e-02
GenUB: 5.719350e-04
Optimisation 1.330348e-05
Total Time: 2.704730e-02
2 Flipped
Graph 1:
1 0 1 1 0 
1 1 0 0 1 
1 1 0 0 0 
0 0 0 0 1 
1 1 1 1 0 
Graph 2:
0 1 1 0 1 
1 0 0 1 1 
0 0 0 1 1 
1 0 0 0 0 
0 1 1 1 1 
Solution: -6 26
Expectation: -10.104892
Final Parameters:
Gammas:
[ 3.456828 ]
Betas:
[ 2.914732 ]
Aggregate results:
[ 14 12 10 8 16 6 18 25 ]
[ 0.049499 0.169471 0.420645 0.227073 0.025015 0.090898 0.003626 0.013773 ]
3
Num Evals 88
GenUC: 5.579242e-04
GenUB: 5.673184e-04
Optimisation 1.949099e-01
Total Time: 1.963974e-01
3 Add 5
Graph 1:
1 0 1 1 0 
1 1 0 0 1 
1 1 0 0 0 
0 0 0 0 1 
1 1 1 1 0 
Graph 2:
1 0 1 1 1 
1 1 0 0 1 
1 1 1 0 0 
0 1 0 1 1 
1 1 1 1 1 
Solution: -5 0
Expectation: -13.468750
Final Parameters:
Gammas:
[ 3.141593 ]
Betas:
[ 2.356194 ]
Aggregate results:
[ 5 11 9 15 13 7 19 17 25 ]
[ 0.007813 0.296875 0.054687 0.218750 0.289062 0.015625 0.015625 0.039063 0.062500 ]
3
Num Evals 3
GenUC: 4.301732e-05
GenUB: 2.743304e-05
Optimisation 7.789112e-04
Total Time: 1.163837e-03
4 Rem 5
Graph 1:
1 0 1 1 0 
1 1 0 0 1 
1 1 0 0 0 
0 0 0 0 1 
1 1 1 1 0 
Graph 2:
0 0 1 0 0 
1 1 0 0 0 
1 1 0 0 0 
0 0 0 0 1 
1 1 1 0 0 
Solution: -4 0
Expectation: -12.719398
Final Parameters:
Gammas:
[ 4.752005 ]
Betas:
[ 1.998308 ]
Aggregate results:
[ 4 8 10 6 14 12 16 18 25 ]
[ 0.020647 0.072519 0.198142 0.026812 0.352989 0.197398 0.071849 0.005276 0.054368 ]
3
Num Evals 88
GenUC: 4.460802e-05
GenUB: 3.026845e-05
Optimisation 2.679488e-02
Total Time: 2.718831e-02
5 Add/Rem 5
Graph 1:
1 0 1 1 0 
1 1 0 0 1 
1 1 0 0 0 
0 0 0 0 1 
1 1 1 1 0 
Graph 2:
0 1 1 1 0 
1 0 1 0 0 
1 1 0 0 0 
0 1 1 0 1 
0 0 1 1 0 
Solution: -7 78
Expectation: -12.625000
Final Parameters:
Gammas:
[ 3.141593 ]
Betas:
[ 2.356194 ]
Aggregate results:
[ 9 11 15 13 17 7 25 ]
[ 0.148437 0.296875 0.101562 0.328125 0.023437 0.039062 0.062500 ]
3
Num Evals 3
GenUC: 4.256191e-05
GenUB: 2.915971e-05
Optimisation 7.791240e-04
Total Time: 1.183102e-03
