Clock Speed: 3.498687
Num threads: 24
Trotterisation: 2
Graph Size: 5
Num Qubits: 7
Space Dimension: 128
Run-Type: 0
Num_samples: 1
Optimiser Method: 28
1 Isomorphic
Graph 1:
1 0 1 0 0 
0 1 1 0 1 
0 0 0 0 0 
1 0 0 1 0 
1 1 0 1 1 
Graph 2:
1 0 1 0 0 
0 1 1 0 1 
0 0 0 0 0 
1 0 0 1 0 
1 1 0 1 1 
Solution: 0 0
Expectation: -11.593750
Final Parameters:
Gammas:
[ 3.141593 3.141593 ]
Betas:
[ 1.570796 1.570796 ]
Aggregate results:
[ 0 4 12 10 8 6 14 16 25 ]
[ 0.007812 0.015625 0.328125 0.250000 0.117188 0.062500 0.140625 0.015625 0.062500 ]
-2
Num Evals 0
GenUC: 9.231687e-02
GenUB: 1.181336e-04
Optimisation 1.870329e-05
Total Time: 9.311620e-02
2 Flipped
Graph 1:
1 0 1 0 0 
0 1 1 0 1 
0 0 0 0 0 
1 0 0 1 0 
1 1 0 1 1 
Graph 2:
0 0 1 0 1 
1 0 1 1 0 
0 0 0 0 0 
0 1 0 0 1 
1 1 0 1 1 
Solution: -6 1
Expectation: -11.792240
Final Parameters:
Gammas:
[ 2.762833 3.141212 ]
Betas:
[ 1.052943 2.372398 ]
Aggregate results:
[ 10 6 14 16 12 8 18 20 25 ]
[ 0.292529 0.025721 0.147313 0.059934 0.333926 0.091351 0.035138 0.006260 0.007827 ]
3
Num Evals 218
GenUC: 4.504062e-05
GenUB: 2.707308e-05
Optimisation 1.109590e-01
Total Time: 1.115546e-01
3 Add 5
Graph 1:
1 0 1 0 0 
0 1 1 0 1 
0 0 0 0 0 
1 0 0 1 0 
1 1 0 1 1 
Graph 2:
1 0 1 0 0 
0 1 1 0 1 
0 1 1 0 1 
1 1 0 1 0 
1 1 0 1 1 
Solution: -4 0
Expectation: -10.860816
Final Parameters:
Gammas:
[ 4.817089 4.973150 ]
Betas:
[ 1.145718 2.209997 ]
Aggregate results:
[ 4 6 12 8 10 14 16 25 ]
[ 0.005617 0.009427 0.244300 0.139215 0.482829 0.084243 0.014494 0.019875 ]
3
Num Evals 209
GenUC: 4.336331e-05
GenUB: 2.637971e-05
Optimisation 1.088948e-01
Total Time: 1.094890e-01
4 Rem 5
Graph 1:
1 0 1 0 0 
0 1 1 0 1 
0 0 0 0 0 
1 0 0 1 0 
1 1 0 1 1 
Graph 2:
1 0 1 0 0 
0 0 0 0 1 
0 0 0 0 0 
0 0 0 1 0 
0 1 0 1 1 
Solution: -4 0
Expectation: -10.332071
Final Parameters:
Gammas:
[ 5.863255 5.884397 ]
Betas:
[ 3.141593 2.410953 ]
Aggregate results:
[ 4 6 10 8 12 14 25 ]
[ 0.055401 0.071794 0.263435 0.228246 0.221985 0.129355 0.029784 ]
3
Num Evals 224
GenUC: 4.081987e-05
GenUB: 2.943445e-05
Optimisation 1.543516e-01
Total Time: 1.551345e-01
5 Add/Rem 5
Graph 1:
1 0 1 0 0 
0 1 1 0 1 
0 0 0 0 0 
1 0 0 1 0 
1 1 0 1 1 
Graph 2:
0 1 0 1 0 
0 0 1 0 0 
0 0 0 1 0 
1 1 1 1 0 
1 1 0 0 1 
Solution: -6 109
Expectation: -12.117771
Final Parameters:
Gammas:
[ 5.750082 3.763538 ]
Betas:
[ 1.798427 1.512002 ]
Aggregate results:
[ 10 12 14 8 16 18 6 25 ]
[ 0.339375 0.231836 0.083907 0.146894 0.078225 0.064755 0.010539 0.044468 ]
5
Num Evals 250
GenUC: 4.371395e-05
GenUB: 2.536876e-05
Optimisation 1.277317e-01
Total Time: 1.283377e-01
