Clock Speed: 3.498619
Num threads: 24
Trotterisation: 2
Graph Size: 5
Num Qubits: 7
Space Dimension: 128
Run-Type: 0
Num_samples: 1
1 Isomorphic
Graph 1:
1 1 1 0 1 
1 0 0 0 0 
0 0 1 1 0 
0 0 0 1 0 
1 1 1 0 0 
Graph 2:
1 1 1 0 1 
1 0 0 0 0 
0 0 1 1 0 
0 0 0 1 0 
1 1 1 0 0 
Solution: 0 0
Expectation: -9.720983
Final Parameters:
Gammas:
[ 3.467032 3.133985 ]
Betas:
[ 1.194526 1.181434 1.706936 ]
Aggregate results:
[ 0 6 10 14 12 16 4 8 18 25 ]
[ 0.064042 0.125284 0.313869 0.099831 0.259982 0.015887 0.053976 0.044250 0.011843 0.011036 ]
3
Num Evals 315
GenUC: 8.906526e-03
GenUB: 1.686257e-04
Optimisation 2.856327e-01
Total Time: 2.954121e-01
2 Flipped
Graph 1:
1 1 1 0 1 
1 0 0 0 0 
0 0 1 1 0 
0 0 0 1 0 
1 1 1 0 0 
Graph 2:
1 0 1 1 1 
0 0 0 0 1 
0 1 1 0 0 
0 1 0 0 0 
0 0 1 1 1 
Solution: -6 15
Expectation: -10.428910
Final Parameters:
Gammas:
[ 3.459271 3.491972 ]
Betas:
[ 1.103414 1.348259 1.539300 ]
Aggregate results:
[ 12 16 14 10 8 6 18 25 ]
[ 0.284977 0.007537 0.042209 0.389586 0.172393 0.072481 0.026093 0.004724 ]
3
Num Evals 579
GenUC: 4.568743e-05
GenUB: 2.683187e-05
Optimisation 1.809580e-01
Total Time: 1.817361e-01
3 Add 5
Graph 1:
1 1 1 0 1 
1 0 0 0 0 
0 0 1 1 0 
0 0 0 1 0 
1 1 1 0 0 
Graph 2:
1 1 1 0 1 
1 0 0 0 0 
1 0 1 1 0 
1 1 1 1 0 
1 1 1 0 1 
Solution: -5 0
Expectation: -13.375000
Final Parameters:
Gammas:
[ 3.141593 3.141593 ]
Betas:
[ 2.356194 1.570796 1.570796 ]
Aggregate results:
[ 5 11 13 9 15 17 7 25 ]
[ 0.007812 0.265625 0.367187 0.070312 0.164062 0.054687 0.007812 0.062500 ]
3
Num Evals 585
GenUC: 4.366599e-05
GenUB: 2.737949e-05
Optimisation 4.467067e-03
Total Time: 5.332769e-03
4 Rem 5
Graph 1:
1 1 1 0 1 
1 0 0 0 0 
0 0 1 1 0 
0 0 0 1 0 
1 1 1 0 0 
Graph 2:
1 1 1 0 1 
1 0 0 0 0 
0 0 1 1 0 
0 0 0 0 0 
0 0 1 0 0 
Solution: -3 0
Expectation: -12.625000
Final Parameters:
Gammas:
[ 3.141593 3.141593 ]
Betas:
[ 2.356194 1.570796 1.570796 ]
Aggregate results:
[ 3 9 13 11 17 15 5 7 25 ]
[ 0.007812 0.148437 0.312500 0.281250 0.031250 0.117187 0.007812 0.031250 0.062500 ]
3
Num Evals 591
GenUC: 4.289066e-05
GenUB: 3.003608e-05
Optimisation 4.365789e-03
Total Time: 5.188647e-03
5 Add/Rem 5
Graph 1:
1 1 1 0 1 
1 0 0 0 0 
0 0 1 1 0 
0 0 0 1 0 
1 1 1 0 0 
Graph 2:
1 0 0 0 1 
1 0 0 0 1 
1 0 1 1 0 
0 0 1 1 1 
0 0 1 1 0 
Solution: -7 18
Expectation: -13.000000
Final Parameters:
Gammas:
[ 3.141593 3.141593 ]
Betas:
[ 2.356194 1.570796 1.570796 ]
Aggregate results:
[ 9 11 15 13 7 17 19 25 ]
[ 0.140625 0.257812 0.140625 0.312500 0.031250 0.046875 0.007812 0.062500 ]
3
Num Evals 597
GenUC: 4.579639e-05
GenUB: 2.656179e-05
Optimisation 4.491201e-03
Total Time: 5.336156e-03
