Clock Speed: 3.498904
Num threads: 24
Trotterisation: 3
Graph Size: 5
Num Qubits: 7
Space Dimension: 128
Run-Type: 1
Num_samples: 1
1 Isomorphic
Graph 1:
0 0 0 1 1 
0 1 1 0 0 
0 0 0 1 1 
1 0 0 0 0 
0 1 1 0 0 
Graph 2:
0 0 0 1 1 
0 1 1 0 0 
0 0 0 1 1 
1 0 0 0 0 
0 1 1 0 0 
Solution: 0 0
Expectation: -10.657437
Final Parameters:
Gammas:
[ 3.610733 3.846500 3.715331 ]
Betas:
[ 1.005274 0.988479 1.375002 1.495126 ]
Aggregate results:
[ 0 12 8 6 10 14 4 16 18 25 ]
[ 0.042921 0.236044 0.179455 0.006725 0.311240 0.117906 0.034621 0.029240 0.009524 0.032323 ]
5
Num Evals 500
GenUC: 3.758661e-03
GenUB: 7.578055e-04
Optimisation 5.517268e-01
Total Time: 5.572145e-01
