Clock Speed: 3.498630
Num threads: 24
Trotterisation: 3
Graph Size: 5
Num Qubits: 7
Space Dimension: 128
Run-Type: 0
Num_samples: 1
1 Isomorphic
Graph 1:
0 1 0 1 1 
0 0 1 0 0 
1 0 1 0 0 
1 0 0 1 0 
0 0 0 1 0 
Graph 2:
0 1 0 1 1 
0 0 1 0 0 
1 0 1 0 0 
1 0 0 1 0 
0 0 0 1 0 
Solution: 0 0
Expectation: -9.701327
Final Parameters:
Gammas:
[ 3.077703 3.443438 3.623516 ]
Betas:
[ 1.932255 1.919837 1.365828 1.500244 ]
Aggregate results:
[ 0 12 8 14 10 6 16 4 2 18 25 ]
[ 0.062460 0.344811 0.296091 0.047884 0.168186 0.028639 0.020085 0.007513 0.011697 0.002838 0.009797 ]
3
Num Evals 462
GenUC: 1.175683e-03
GenUB: 1.648827e-04
Optimisation 5.901299e-01
Total Time: 5.925828e-01
2 Flipped
Graph 1:
0 1 0 1 1 
0 0 1 0 0 
1 0 1 0 0 
1 0 0 1 0 
0 0 0 1 0 
Graph 2:
1 1 0 1 0 
0 0 1 0 0 
0 0 1 0 1 
0 1 0 0 1 
0 1 0 0 0 
Solution: -6 21
Expectation: -9.793439
Final Parameters:
Gammas:
[ 3.271153 3.450607 3.859027 ]
Betas:
[ 1.653474 1.458601 1.343641 1.540368 ]
Aggregate results:
[ 10 14 12 16 8 6 18 25 ]
[ 0.363128 0.028151 0.140843 0.020080 0.322921 0.098759 0.010316 0.015801 ]
5
Num Evals 962
GenUC: 4.852703e-05
GenUB: 2.753967e-05
Optimisation 5.116843e-01
Total Time: 5.128112e-01
3 Add 5
Graph 1:
0 1 0 1 1 
0 0 1 0 0 
1 0 1 0 0 
1 0 0 1 0 
0 0 0 1 0 
Graph 2:
0 1 1 1 1 
1 0 1 0 0 
1 0 1 0 0 
1 1 0 1 0 
0 0 0 1 1 
Solution: -4 0
Expectation: -12.109917
Final Parameters:
Gammas:
[ 2.796744 4.996878 3.744169 ]
Betas:
[ 2.083639 1.089533 2.176080 2.111448 ]
Aggregate results:
[ 4 10 12 8 14 16 18 25 ]
[ 0.070121 0.187644 0.257877 0.125584 0.195784 0.083945 0.029489 0.049556 ]
3
Num Evals 1427
GenUC: 4.626857e-05
GenUB: 3.129989e-05
Optimisation 4.931358e-01
Total Time: 4.943318e-01
4 Rem 5
Graph 1:
0 1 0 1 1 
0 0 1 0 0 
1 0 1 0 0 
1 0 0 1 0 
0 0 0 1 0 
Graph 2:
0 0 0 0 1 
0 0 0 0 0 
1 0 1 0 0 
1 0 0 1 0 
0 0 0 0 0 
Solution: -4 0
Expectation: -8.601673
Final Parameters:
Gammas:
[ 3.213825 3.468038 3.060268 ]
Betas:
[ 1.447635 0.977784 1.270312 1.611663 ]
Aggregate results:
[ 4 10 8 12 14 25 ]
[ 0.188564 0.368698 0.311556 0.107379 0.019604 0.004200 ]
5
Num Evals 1927
GenUC: 4.069740e-05
GenUB: 2.764165e-05
Optimisation 4.475082e-01
Total Time: 4.485315e-01
5 Add/Rem 5
Graph 1:
0 1 0 1 1 
0 0 1 0 0 
1 0 1 0 0 
1 0 0 1 0 
0 0 0 1 0 
Graph 2:
0 1 1 1 0 
0 0 1 0 0 
1 0 0 0 1 
0 0 1 1 0 
0 0 1 1 1 
Solution: -6 2
Expectation: -11.502198
Final Parameters:
Gammas:
[ 3.951471 3.910488 3.734719 ]
Betas:
[ 0.870744 2.040245 1.488022 0.324215 ]
Aggregate results:
[ 8 14 6 12 10 18 16 25 ]
[ 0.128907 0.199709 0.041721 0.215864 0.321336 0.000631 0.076244 0.015588 ]
3
Num Evals 2397
GenUC: 4.796172e-05
GenUB: 2.991222e-05
Optimisation 4.261047e-01
Total Time: 4.271276e-01
