Clock Speed: 3.498642
Num threads: 24
Trotterisation: 4
Graph Size: 5
Num Qubits: 7
Space Dimension: 128
Run-Type: 1
Num_samples: 1
1 Isomorphic
Graph 1:
0 0 0 1 0 
0 0 0 1 1 
1 0 0 1 0 
1 0 1 0 0 
1 1 1 0 1 
Graph 2:
0 0 0 1 0 
0 0 0 1 1 
1 0 0 1 0 
1 0 1 0 0 
1 1 1 0 1 
Solution: 0 0
Expectation: -8.152631
Final Parameters:
Gammas:
[ 3.455978 3.490060 3.428181 3.806450 ]
Betas:
[ 0.715710 0.717517 1.926503 1.370845 1.476599 ]
Aggregate results:
[ 0 6 2 12 10 14 16 8 25 ]
[ 0.141020 0.244392 0.134218 0.149944 0.101573 0.107615 0.036404 0.035714 0.049120 ]
5
Num Evals 500
GenUC: 4.458307e-03
GenUB: 4.347805e-04
Optimisation 6.606197e-01
Total Time: 6.667550e-01
