Clock Speed: 3.498778
Num threads: 24
Trotterisation: 4
Graph Size: 5
Num Qubits: 7
Space Dimension: 128
Run-Type: 1
Num_samples: 1
1 Isomorphic
Graph 1:
1 1 1 0 0 
1 0 0 1 1 
1 1 0 0 0 
1 1 1 0 1 
0 0 0 1 1 
Graph 2:
1 1 1 0 0 
1 0 0 1 1 
1 1 0 0 0 
1 1 1 0 1 
0 0 0 1 1 
Solution: 0 0
Expectation: -9.836764
Final Parameters:
Gammas:
[ 3.483533 3.430962 2.416380 1.687045 ]
Betas:
[ 1.440684 0.864628 1.901685 1.358056 1.377702 ]
Aggregate results:
[ 0 8 6 4 12 10 14 18 16 25 ]
[ 0.100355 0.166342 0.065157 0.078694 0.216418 0.133338 0.104173 0.043480 0.074692 0.017351 ]
5
Num Evals 500
GenUC: 2.941515e-03
GenUB: 1.599998e-04
Optimisation 6.425521e-01
Total Time: 6.468870e-01
