Clock Speed: 3.498499
Num threads: 24
Trotterisation: 4
Graph Size: 5
Num Qubits: 7
Space Dimension: 128
Run-Type: 0
Num_samples: 1
1 Isomorphic
Graph 1:
0 1 1 1 1 
1 0 1 0 1 
0 1 0 1 0 
0 0 0 0 1 
0 0 1 0 1 
Graph 2:
0 1 1 1 1 
1 0 1 0 1 
0 1 0 1 0 
0 0 0 0 1 
0 0 1 0 1 
Solution: 0 0
Expectation: -7.905904
Final Parameters:
Gammas:
[ 3.448520 3.009445 3.481293 4.284915 ]
Betas:
[ 1.289751 1.255662 1.505315 1.320652 1.569072 ]
Aggregate results:
[ 0 4 8 6 12 10 16 14 25 ]
[ 0.090665 0.125381 0.198232 0.161915 0.128485 0.238052 0.011524 0.036667 0.009079 ]
5
Num Evals 500
GenUC: 3.375906e-03
GenUB: 5.222210e-04
Optimisation 7.934018e-01
Total Time: 7.985614e-01
2 Flipped
Graph 1:
0 1 1 1 1 
1 0 1 0 1 
0 1 0 1 0 
0 0 0 0 1 
0 0 1 0 1 
Graph 2:
1 1 1 1 0 
1 0 1 0 1 
0 1 0 1 0 
1 0 0 0 0 
1 0 1 0 0 
Solution: -4 119
Expectation: -8.861219
Final Parameters:
Gammas:
[ 3.371294 3.311227 3.466968 3.425001 ]
Betas:
[ 1.353915 1.248760 1.624325 1.358466 1.619750 ]
Aggregate results:
[ 6 10 14 8 12 18 16 4 25 ]
[ 0.143918 0.330412 0.036432 0.312507 0.106952 0.001619 0.000102 0.063436 0.004621 ]
5
Num Evals 1000
GenUC: 4.909560e-05
GenUB: 2.844166e-05
Optimisation 6.209039e-01
Total Time: 6.222251e-01
3 Add 5
Graph 1:
0 1 1 1 1 
1 0 1 0 1 
0 1 0 1 0 
0 0 0 0 1 
0 0 1 0 1 
Graph 2:
1 1 1 1 1 
1 0 1 1 1 
0 1 0 1 0 
0 0 1 0 1 
1 1 1 0 1 
Solution: -5 0
Expectation: -12.531250
Final Parameters:
Gammas:
[ 3.141593 3.141593 3.141593 3.141593 ]
Betas:
[ 2.356194 2.356194 2.356194 1.570796 1.570796 ]
Aggregate results:
[ 5 7 9 11 13 15 17 25 ]
[ 0.007812 0.046875 0.125000 0.320312 0.312500 0.117187 0.007813 0.062500 ]
3
Num Evals 1010
GenUC: 4.532421e-05
GenUB: 3.099162e-05
Optimisation 1.333113e-02
Total Time: 1.487851e-02
4 Rem 5
Graph 1:
0 1 1 1 1 
1 0 1 0 1 
0 1 0 1 0 
0 0 0 0 1 
0 0 1 0 1 
Graph 2:
0 1 1 0 1 
1 0 0 0 1 
0 0 0 1 0 
0 0 0 0 1 
0 0 1 0 0 
Solution: -4 0
Expectation: -8.579319
Final Parameters:
Gammas:
[ 3.419032 3.329026 3.485431 3.521502 ]
Betas:
[ 1.006341 1.321950 1.474215 1.324721 1.602905 ]
Aggregate results:
[ 4 8 12 10 6 14 16 25 ]
[ 0.183184 0.173987 0.155001 0.284444 0.153438 0.035878 0.002709 0.011358 ]
5
Num Evals 1510
GenUC: 4.496286e-05
GenUB: 2.676249e-05
Optimisation 5.697125e-01
Total Time: 5.708998e-01
5 Add/Rem 5
Graph 1:
0 1 1 1 1 
1 0 1 0 1 
0 1 0 1 0 
0 0 0 0 1 
0 0 1 0 1 
Graph 2:
0 1 1 1 0 
0 0 1 1 1 
0 1 0 1 1 
0 0 1 0 0 
1 0 1 0 0 
Solution: -6 64
Expectation: -9.816782
Final Parameters:
Gammas:
[ 3.428872 3.246909 3.398722 3.342502 ]
Betas:
[ 1.492092 1.461533 0.836395 1.701753 2.075457 ]
Aggregate results:
[ 8 10 12 14 16 6 25 ]
[ 0.332743 0.402973 0.116320 0.029216 0.017709 0.078372 0.022667 ]
5
Num Evals 2010
GenUC: 4.510256e-05
GenUB: 3.060373e-05
Optimisation 6.379602e-01
Total Time: 6.393490e-01
