Clock Speed: 3.498636
Num threads: 24
Trotterisation: 6
Graph Size: 5
Num Qubits: 7
Space Dimension: 128
Run-Type: 1
Num_samples: 1
1 Isomorphic
Graph 1:
0 0 0 1 0 
0 0 0 1 1 
1 0 0 1 0 
1 0 1 0 0 
1 1 1 0 1 
Graph 2:
0 0 0 1 0 
0 0 0 1 1 
1 0 0 1 0 
1 0 1 0 0 
1 1 1 0 1 
Solution: 0 0
Expectation: -7.273206
Final Parameters:
Gammas:
[ 3.037283 3.151233 3.123776 3.085861 3.277191 4.818063 ]
Betas:
[ 2.096339 2.060889 1.148280 2.227987 1.447185 1.251012 1.679523 ]
Aggregate results:
[ 0 6 2 12 10 14 16 8 25 ]
[ 0.102803 0.410901 0.123442 0.131553 0.095651 0.067385 0.024017 0.024005 0.020243 ]
5
Num Evals 500
GenUC: 2.533851e-02
GenUB: 4.803562e-04
Optimisation 9.341225e-01
Total Time: 9.619236e-01
