Clock Speed: 3.498601
Num threads: 24
Trotterisation: 6
Graph Size: 5
Num Qubits: 7
Space Dimension: 128
Run-Type: 0
Num_samples: 1
1 Isomorphic
Graph 1:
0 0 0 0 0 
1 1 1 1 1 
0 0 1 1 0 
0 0 0 0 0 
1 1 0 0 1 
Graph 2:
0 0 0 0 0 
1 1 1 1 1 
0 0 1 1 0 
0 0 0 0 0 
1 1 0 0 1 
Solution: 0 0
Expectation: -8.017824
Final Parameters:
Gammas:
[ 3.354833 3.179588 3.222891 3.079367 3.210163 4.342527 ]
Betas:
[ 1.913823 1.239312 1.632195 1.679761 1.607569 1.409100 1.565657 ]
Aggregate results:
[ 0 10 12 8 6 16 14 4 18 2 25 ]
[ 0.040111 0.151021 0.106799 0.255379 0.225454 0.024488 0.022115 0.097116 0.022782 0.045133 0.009602 ]
5
Num Evals 500
GenUC: 1.617124e-03
GenUB: 5.595291e-04
Optimisation 1.023472e+00
Total Time: 1.027559e+00
2 Flipped
Graph 1:
0 0 0 0 0 
1 1 1 1 1 
0 0 1 1 0 
0 0 0 0 0 
1 1 0 0 1 
Graph 2:
0 0 0 0 0 
1 1 1 1 1 
0 1 1 0 0 
0 0 0 0 0 
1 0 0 1 1 
Solution: -2 58
Expectation: -8.645718
Final Parameters:
Gammas:
[ 3.209814 3.189894 3.284182 3.610200 4.549889 3.811589 ]
Betas:
[ 1.761391 1.358932 2.009012 1.271720 1.611230 1.593714 1.608071 ]
Aggregate results:
[ 4 14 12 8 6 16 10 2 18 25 ]
[ 0.043030 0.055166 0.114201 0.228591 0.197485 0.028807 0.242110 0.077567 0.006569 0.006473 ]
5
Num Evals 1000
GenUC: 4.299413e-05
GenUB: 2.788569e-05
Optimisation 8.615554e-01
Total Time: 8.635162e-01
3 Add 5
Graph 1:
0 0 0 0 0 
1 1 1 1 1 
0 0 1 1 0 
0 0 0 0 0 
1 1 0 0 1 
Graph 2:
1 1 0 0 0 
1 1 1 1 1 
0 0 1 1 1 
1 0 0 0 0 
1 1 0 0 1 
Solution: -4 0
Expectation: -8.216965
Final Parameters:
Gammas:
[ 3.413480 3.180025 3.469202 3.126402 3.489360 3.390230 ]
Betas:
[ 1.410994 1.346120 1.474218 1.471316 1.385607 1.390547 1.623203 ]
Aggregate results:
[ 4 10 12 8 16 14 18 6 25 ]
[ 0.057803 0.097036 0.071094 0.461734 0.018009 0.037985 0.001222 0.250077 0.005040 ]
5
Num Evals 1500
GenUC: 4.701721e-05
GenUB: 3.236684e-05
Optimisation 7.935704e-01
Total Time: 7.953168e-01
4 Rem 5
Graph 1:
0 0 0 0 0 
1 1 1 1 1 
0 0 1 1 0 
0 0 0 0 0 
1 1 0 0 1 
Graph 2:
0 0 0 0 0 
1 1 1 0 1 
0 0 0 0 0 
0 0 0 0 0 
0 0 0 0 1 
Solution: -5 0
Expectation: -11.406250
Final Parameters:
Gammas:
[ 3.141593 3.141593 3.141593 3.141593 3.141593 3.141593 ]
Betas:
[ 2.356194 2.356194 1.570796 1.570796 1.570796 1.570796 1.570796 ]
Aggregate results:
[ 5 13 11 9 7 15 25 ]
[ 0.093750 0.296875 0.156250 0.156250 0.140625 0.093750 0.062500 ]
3
Num Evals 1514
GenUC: 3.865259e-05
GenUB: 3.144224e-05
Optimisation 2.480237e-02
Total Time: 2.687441e-02
5 Add/Rem 5
Graph 1:
0 0 0 0 0 
1 1 1 1 1 
0 0 1 1 0 
0 0 0 0 0 
1 1 0 0 1 
Graph 2:
1 0 0 0 1 
1 1 0 1 1 
0 1 1 0 0 
0 0 0 1 0 
0 1 0 0 0 
Solution: -4 49
Expectation: -9.613613
Final Parameters:
Gammas:
[ 3.141149 3.110341 3.197533 3.159999 3.280274 4.535905 ]
Betas:
[ 2.240901 2.147353 1.830693 1.672870 1.697913 1.240818 1.587251 ]
Aggregate results:
[ 8 12 14 16 10 4 6 25 ]
[ 0.365555 0.225578 0.079758 0.003295 0.201986 0.011864 0.108080 0.003885 ]
5
Num Evals 2014
GenUC: 4.499065e-05
GenUB: 2.768225e-05
Optimisation 9.054575e-01
Total Time: 9.075305e-01
