Clock Speed: 3.688845
Num threads: 4
Trotterisation: 4
Num Qubits: 10
Space Dimension: 1024
Run-Type: 0
Num_samples: 32399
Optimiser Method: 0
1 Isomorphic
Graph 1:
0 0 1 1 1 1 
1 0 0 0 0 1 
1 1 0 0 1 1 
0 0 0 1 0 1 
1 1 1 0 0 0 
1 1 1 0 0 0 
Graph 2:
0 0 1 1 1 1 
1 0 0 0 0 1 
1 1 0 0 1 1 
0 0 0 1 0 1 
1 1 1 0 0 0 
1 1 1 0 0 0 
Solution: 36 0
Classic Expectation: 19.600000
Initial Expecation: 13.781250
Gbest: 36.000000
Expectation: 16.714681
Final Parameters:
Gammas:
[ 5.248910 0.120659 3.168880 5.237418 ]
Betas:
[ 0.729359 0.698123 1.590180 1.085992 ]
Aggregate results:
[ 36 32 24 22 18 20 28 26 30 16 14 12 10 0 ]
[ 0.001123 0.005242 0.106549 0.113233 0.187815 0.190553 0.013223 0.043229 0.005226 0.119416 0.037205 0.012056 0.003932 0.161199 ]
3
Num Evals 3081
GenUC: 2.607181e-04
GenUB: 8.938130e-05
Optimisation 6.441289e+00
Total Time: 6.441665e+00
2 Flipped
Graph 1:
0 0 1 1 1 1 
1 0 0 0 0 1 
1 1 0 0 1 1 
0 0 0 1 0 1 
1 1 1 0 0 0 
1 1 1 0 0 0 
Graph 2:
1 1 1 1 0 0 
1 0 0 0 0 1 
1 1 0 0 1 1 
1 0 1 0 0 0 
0 0 0 1 1 1 
0 0 0 1 1 1 
Solution: 26 106
Classic Expectation: 18.000000
Initial Expecation: 12.656250
Gbest: 26.000000
Expectation: 12.854264
Final Parameters:
Gammas:
[ 1.047198 1.047198 3.141593 3.141593 ]
Betas:
[ 0.523599 1.570796 1.570796 1.570796 ]
Aggregate results:
[ 16 14 22 20 18 12 24 26 10 0 ]
[ 0.154174 0.057666 0.060951 0.150165 0.237939 0.022881 0.021122 0.004542 0.005343 0.285216 ]
3
Num Evals 27
GenUC: 2.805221e-04
GenUB: 3.937329e-05
Optimisation 5.958962e-02
Total Time: 5.991278e-02
3 Add 6
Graph 1:
0 0 1 1 1 1 
1 0 0 0 0 1 
1 1 0 0 1 1 
0 0 0 1 0 1 
1 1 1 0 0 0 
1 1 1 0 0 0 
Graph 2:
0 0 1 1 1 1 
1 0 1 0 1 1 
1 1 1 0 1 1 
1 0 0 1 1 1 
1 1 1 0 0 0 
1 1 1 0 0 0 
Solution: 31 0
Classic Expectation: 19.466667
Initial Expecation: 13.687500
Gbest: 31.000000
Expectation: 14.518400
Final Parameters:
Gammas:
[ 3.141593 5.235988 3.141593 5.235988 ]
Betas:
[ 1.570796 1.570796 0.523599 1.570796 ]
Aggregate results:
[ 31 21 19 25 23 27 29 17 15 13 0 ]
[ 0.002439 0.135893 0.203065 0.065083 0.082244 0.017525 0.005274 0.133657 0.074662 0.014914 0.265244 ]
3
Num Evals 33
GenUC: 3.446213e-04
GenUB: 5.404954e-05
Optimisation 7.499557e-02
Total Time: 7.539677e-02
4 Rem 6
Graph 1:
0 0 1 1 1 1 
1 0 0 0 0 1 
1 1 0 0 1 1 
0 0 0 1 0 1 
1 1 1 0 0 0 
1 1 1 0 0 0 
Graph 2:
0 0 0 1 0 1 
1 0 0 0 0 1 
1 1 0 0 1 0 
0 0 0 1 0 1 
1 1 1 0 0 0 
0 0 1 0 0 0 
Solution: 31 0
Classic Expectation: 18.933333
Initial Expecation: 13.312500
Gbest: 29.000000
Expectation: 13.941749
Final Parameters:
Gammas:
[ 3.141593 1.047198 3.141593 3.141593 ]
Betas:
[ 1.570796 1.570796 0.523599 1.570796 ]
Aggregate results:
[ 31 27 19 17 23 21 15 29 25 13 11 0 ]
[ 0.000022 0.001318 0.188568 0.199357 0.075620 0.131757 0.082676 0.000185 0.034702 0.022515 0.001972 0.261307 ]
3
Num Evals 27
GenUC: 2.797622e-04
GenUB: 5.105202e-05
Optimisation 6.323241e-02
Total Time: 6.356590e-02
5 Add/Rem 6
Graph 1:
0 0 1 1 1 1 
1 0 0 0 0 1 
1 1 0 0 1 1 
0 0 0 1 0 1 
1 1 1 0 0 0 
1 1 1 0 0 0 
Graph 2:
0 1 0 1 1 1 
1 1 0 1 0 0 
1 0 0 0 0 1 
1 1 0 1 0 1 
1 1 1 0 0 0 
1 1 1 0 0 0 
Solution: 29 24
Classic Expectation: 18.933333
Initial Expecation: 13.312500
Gbest: 29.000000
Expectation: 13.880528
Final Parameters:
Gammas:
[ 3.141593 5.235988 3.141593 3.141593 ]
Betas:
[ 1.570796 1.570796 0.523599 1.570796 ]
Aggregate results:
[ 27 25 21 23 19 17 29 13 15 9 11 0 ]
[ 0.004359 0.024692 0.163679 0.092217 0.184910 0.135448 0.002135 0.031870 0.072373 0.000878 0.018333 0.269106 ]
3
Num Evals 27
GenUC: 2.800821e-04
GenUB: 5.659118e-05
Optimisation 6.198828e-02
Total Time: 6.232812e-02
