Clock Speed: 3.688737
Num threads: 4
Trotterisation: 5
Graph Size: 5
Num Qubits: 7
Space Dimension: 128
Run-Type: 0
Num_samples: 10
1 Isomorphic
Graph 1:
0 0 0 1 1 
1 1 0 1 0 
1 0 0 0 1 
0 1 1 1 1 
0 1 0 1 0 
Graph 2:
0 0 0 1 1 
1 1 0 1 0 
1 0 0 0 1 
0 1 1 1 1 
0 1 0 1 0 
Solution: 0 0
Gbest: -12.000000
Expectation: -11.841501
Final Parameters:
Gammas:
[ 5.726992 5.575754 2.195913 1.818297 4.367857 ]
Betas:
[ 0.958604 1.662649 0.673886 2.321941 0.520978 3.137323 ]
Aggregate results:
[ -1 11 13 7 17 5 9 15 21 19 24 ]
[ 0.026831 0.373801 0.185455 0.073005 0.050466 0.056474 0.162805 0.049095 0.004978 0.004419 0.012672 ]
5
Num Evals 500
GenUC: 1.811196e-04
GenUB: 2.927092e-05
Optimisation 3.520898e-01
Total Time: 3.531755e-01
2 Flipped
Graph 1:
0 0 0 1 1 
1 1 0 1 0 
1 0 0 0 1 
0 1 1 1 1 
0 1 0 1 0 
Graph 2:
1 1 0 0 0 
0 1 0 1 1 
1 0 0 0 1 
1 1 1 1 0 
0 1 0 1 0 
Solution: -4 15
Gbest: -8.000000
Expectation: -9.813343
Final Parameters:
Gammas:
[ 3.136562 3.379810 3.098473 3.462316 3.868391 ]
Betas:
[ 1.340204 1.590611 1.482302 1.377143 1.362840 1.590240 ]
Aggregate results:
[ 7 11 13 9 17 3 15 19 24 ]
[ 0.273872 0.125108 0.064854 0.384226 0.007634 0.098876 0.029625 0.006236 0.009569 ]
5
Num Evals 1000
GenUC: 2.543654e-05
GenUB: 1.705237e-05
Optimisation 3.673297e-01
Total Time: 3.680467e-01
3 Add 5
Graph 1:
0 0 0 1 1 
1 1 0 1 0 
1 0 0 0 1 
0 1 1 1 1 
0 1 0 1 0 
Graph 2:
1 1 0 1 1 
1 1 0 1 0 
1 0 1 0 1 
1 1 1 1 1 
1 1 0 1 0 
Solution: -5 0
Gbest: -7.000000
Expectation: -11.813236
Final Parameters:
Gammas:
[ 6.195892 4.471512 2.953544 4.039047 3.690773 ]
Betas:
[ 0.425109 2.410000 0.812662 0.764228 1.513535 0.652374 ]
Aggregate results:
[ 4 8 12 10 14 6 16 18 24 ]
[ 0.004903 0.202473 0.270148 0.264471 0.133429 0.071058 0.036140 0.000388 0.016991 ]
5
Num Evals 1500
GenUC: 2.394890e-05
GenUB: 2.247063e-05
Optimisation 3.068240e-01
Total Time: 3.074522e-01
4 Rem 5
Graph 1:
0 0 0 1 1 
1 1 0 1 0 
1 0 0 0 1 
0 1 1 1 1 
0 1 0 1 0 
Graph 2:
0 0 0 1 1 
1 0 0 1 0 
1 0 0 0 1 
0 1 0 0 1 
0 0 0 1 0 
Solution: -4 0
Gbest: -4.000000
Expectation: -11.234365
Final Parameters:
Gammas:
[ 1.606798 4.285003 1.451886 1.101788 3.269314 ]
Betas:
[ 0.980016 2.942092 0.498234 3.140548 0.805424 1.259035 ]
Aggregate results:
[ 3 11 7 13 9 17 15 5 24 ]
[ 0.093237 0.365312 0.079111 0.141979 0.240997 0.017408 0.012395 0.015977 0.033583 ]
5
Num Evals 2000
GenUC: 2.268542e-05
GenUB: 1.672257e-05
Optimisation 3.600284e-01
Total Time: 3.607631e-01
5 Add/Rem 5
Graph 1:
0 0 0 1 1 
1 1 0 1 0 
1 0 0 0 1 
0 1 1 1 1 
0 1 0 1 0 
Graph 2:
0 0 0 0 0 
1 0 0 1 0 
1 0 1 0 0 
0 1 1 1 1 
1 1 1 1 1 
Solution: -6 82
Gbest: -8.000000
Expectation: -12.275945
Final Parameters:
Gammas:
[ 5.556252 2.735051 6.186738 4.675621 5.438581 ]
Betas:
[ 3.053408 2.081276 1.266513 1.243110 0.341785 2.549895 ]
Aggregate results:
[ 7 13 15 11 9 5 17 24 ]
[ 0.107843 0.273981 0.093170 0.347631 0.143937 0.018867 0.000238 0.014332 ]
5
Num Evals 2500
GenUC: 2.378045e-05
GenUB: 1.775540e-05
Optimisation 3.616379e-01
Total Time: 3.623947e-01
