Clock Speed: 3.688312
Num threads: 4
Trotterisation: 5
Graph Size: 5
Num Qubits: 7
Space Dimension: 128
Run-Type: 0
Num_samples: 10
1 Isomorphic
Graph 1:
0 0 0 0 1 
0 1 0 1 1 
1 0 0 0 0 
0 0 1 1 1 
0 1 1 0 1 
Graph 2:
0 0 0 0 1 
0 1 0 1 1 
1 0 0 0 0 
0 0 1 1 1 
0 1 1 0 1 
Solution: 0 0
Gbest: -6.000000
Expectation: -10.927054
Final Parameters:
Gammas:
[ 2.817134 3.328690 2.695339 5.517219 1.133357 ]
Betas:
[ 2.260895 0.055464 3.059815 0.991492 0.924151 0.530865 ]
Aggregate results:
[ -1 7 11 9 15 5 13 17 24 ]
[ 0.062764 0.099240 0.227041 0.313396 0.034790 0.045591 0.161215 0.030228 0.025736 ]
5
Num Evals 500
GenUC: 1.480214e-04
GenUB: 2.950919e-05
Optimisation 3.203236e-01
Total Time: 3.211334e-01
2 Flipped
Graph 1:
0 0 0 0 1 
0 1 0 1 1 
1 0 0 0 0 
0 0 1 1 1 
0 1 1 0 1 
Graph 2:
1 0 0 0 0 
1 1 0 1 0 
0 0 0 0 1 
1 1 1 0 0 
1 0 1 1 0 
Solution: -6 88
Gbest: -8.000000
Expectation: -12.329265
Final Parameters:
Gammas:
[ 0.026987 5.680936 4.415666 1.025051 5.175596 ]
Betas:
[ 1.971342 1.433972 3.048328 0.287861 2.668649 0.722916 ]
Aggregate results:
[ 13 11 15 9 7 5 24 ]
[ 0.316326 0.337027 0.047769 0.222356 0.050357 0.009920 0.016246 ]
5
Num Evals 1000
GenUC: 2.449055e-05
GenUB: 1.776539e-05
Optimisation 3.795724e-01
Total Time: 3.804284e-01
3 Add 5
Graph 1:
0 0 0 0 1 
0 1 0 1 1 
1 0 0 0 0 
0 0 1 1 1 
0 1 1 0 1 
Graph 2:
0 0 1 0 1 
0 1 0 1 1 
1 1 1 0 0 
1 1 1 1 1 
0 1 1 0 1 
Solution: -5 0
Gbest: -11.000000
Expectation: -11.984959
Final Parameters:
Gammas:
[ 1.073359 2.563033 5.025019 3.473076 2.248483 ]
Betas:
[ 0.587573 1.663667 2.106917 3.128170 3.007625 1.240134 ]
Aggregate results:
[ 4 10 14 12 8 16 6 18 24 ]
[ 0.034225 0.357713 0.147869 0.232680 0.116461 0.035666 0.046656 0.010532 0.018197 ]
5
Num Evals 1500
GenUC: 2.485790e-05
GenUB: 2.247945e-05
Optimisation 3.810104e-01
Total Time: 3.818245e-01
4 Rem 5
Graph 1:
0 0 0 0 1 
0 1 0 1 1 
1 0 0 0 0 
0 0 1 1 1 
0 1 1 0 1 
Graph 2:
0 0 0 0 1 
0 1 0 1 1 
0 0 0 0 0 
0 0 0 0 1 
0 1 1 0 1 
Solution: -3 0
Gbest: -9.000000
Expectation: -11.163268
Final Parameters:
Gammas:
[ 4.836285 0.782445 0.224591 3.762399 5.031377 ]
Betas:
[ 2.874886 1.909387 1.607765 3.136806 2.384449 0.970471 ]
Aggregate results:
[ 2 8 10 6 12 4 14 16 24 ]
[ 0.023674 0.292217 0.241042 0.077277 0.183648 0.000008 0.150109 0.021228 0.010796 ]
5
Num Evals 2000
GenUC: 2.123712e-05
GenUB: 1.678712e-05
Optimisation 3.907839e-01
Total Time: 3.916393e-01
5 Add/Rem 5
Graph 1:
0 0 0 0 1 
0 1 0 1 1 
1 0 0 0 0 
0 0 1 1 1 
0 1 1 0 1 
Graph 2:
1 0 0 0 1 
0 0 1 1 0 
1 0 1 1 0 
0 1 0 1 1 
0 1 1 0 1 
Solution: -6 3
Gbest: -6.000000
Expectation: -11.685543
Final Parameters:
Gammas:
[ 5.523548 2.498920 2.272124 5.755215 2.822040 ]
Betas:
[ 1.308126 0.926686 0.559889 0.265802 1.527788 2.139633 ]
Aggregate results:
[ 7 11 5 13 9 15 17 24 ]
[ 0.119365 0.294881 0.089936 0.154035 0.188120 0.128128 0.010527 0.015009 ]
5
Num Evals 2500
GenUC: 2.458622e-05
GenUB: 1.738747e-05
Optimisation 2.955883e-01
Total Time: 2.962341e-01
