Clock Speed: 3.689080
Num threads: 4
Trotterisation: 4
Graph Size: 8
Num Qubits: 16
Space Dimension: 65536
Run-Type: 0
Num_samples: 10
1 Isomorphic
Graph 1:
1 1 0 0 1 1 1 1 
0 1 0 0 0 1 1 1 
0 0 1 0 0 1 0 0 
1 1 1 1 1 0 0 0 
0 1 0 0 1 0 0 1 
1 0 1 0 1 0 1 0 
0 1 1 1 0 1 1 0 
1 1 0 1 0 0 1 1 
Graph 2:
1 1 0 0 1 1 1 1 
0 1 0 0 0 1 1 1 
0 0 1 0 0 1 0 0 
1 1 1 1 1 0 0 0 
0 1 0 0 1 0 0 1 
1 0 1 0 1 0 1 0 
0 1 1 1 0 1 1 0 
1 1 0 1 0 0 1 1 
Solution: 0 0
Gbest: -22.000000
Expectation: -29.403335
Final Parameters:
Gammas:
[ 3.283937 3.196330 2.920397 3.239282 ]
Betas:
[ 2.085275 2.017176 1.751169 1.627774 1.639644 ]
Aggregate results:
[ -1 9 15 11 19 25 21 23 13 17 27 31 29 7 35 33 37 41 39 43 63 ]
[ 0.000013 0.000151 0.002945 0.000587 0.032855 0.203926 0.082508 0.152310 0.002051 0.012252 0.198816 0.056491 0.121632 0.000035 0.019584 0.026329 0.014627 0.001750 0.005532 0.000243 0.065364 ]
5
Num Evals 800
GenUC: 3.523140e-03
GenUB: 1.740384e-02
Optimisation 2.836256e+02
Total Time: 2.839969e+02
2 Flipped
Graph 1:
1 1 0 0 1 1 1 1 
0 1 0 0 0 1 1 1 
0 0 1 0 0 1 0 0 
1 1 1 1 1 0 0 0 
0 1 0 0 1 0 0 1 
1 0 1 0 1 0 1 0 
0 1 1 1 0 1 1 0 
1 1 0 1 0 0 1 1 
Graph 2:
1 1 1 1 0 0 1 1 
1 1 1 0 0 0 1 0 
0 0 1 0 0 1 0 0 
0 0 0 1 1 1 1 1 
1 0 0 1 0 0 1 0 
0 1 0 1 0 1 0 1 
0 1 1 0 1 1 1 0 
1 1 0 0 1 0 1 1 
Solution: -10 26927
Gbest: -24.000000
Expectation: -32.275736
Final Parameters:
Gammas:
[ 3.281735 3.368106 3.238914 4.304837 ]
Betas:
[ 1.945999 2.047115 1.821272 1.851766 1.616221 ]
Aggregate results:
[ 31 29 35 33 37 41 27 21 23 25 39 19 17 15 43 9 13 63 ]
[ 0.145397 0.180386 0.047878 0.094288 0.017943 0.001295 0.169662 0.031646 0.073912 0.134140 0.006020 0.010396 0.003243 0.000569 0.000119 0.000021 0.000030 0.083054 ]
5
Num Evals 1600
GenUC: 2.416143e-03
GenUB: 1.681073e-02
Optimisation 2.870795e+02
Total Time: 2.874497e+02
3 Add 8
Graph 1:
1 1 0 0 1 1 1 1 
0 1 0 0 0 1 1 1 
0 0 1 0 0 1 0 0 
1 1 1 1 1 0 0 0 
0 1 0 0 1 0 0 1 
1 0 1 0 1 0 1 0 
0 1 1 1 0 1 1 0 
1 1 0 1 0 0 1 1 
Graph 2:
1 1 0 1 1 1 1 1 
1 1 0 0 0 1 1 1 
1 0 1 1 1 1 0 0 
1 1 1 1 1 0 1 0 
0 1 0 0 1 1 0 1 
1 0 1 1 1 0 1 0 
0 1 1 1 0 1 1 0 
1 1 0 1 0 0 1 1 
Solution: -8 0
Gbest: -22.000000
Expectation: -33.040016
Final Parameters:
Gammas:
[ 6.056340 5.775290 6.088967 5.589412 ]
Betas:
[ 1.917964 2.142674 1.534219 1.649604 1.607989 ]
Aggregate results:
[ 7 15 19 23 17 25 21 13 27 29 31 33 35 39 37 43 41 45 63 ]
[ 0.000033 0.001175 0.013745 0.099710 0.005146 0.153711 0.048790 0.000291 0.180145 0.157998 0.105138 0.056476 0.028634 0.004556 0.011913 0.000417 0.000967 0.000042 0.131112 ]
5
Num Evals 2400
GenUC: 2.893583e-03
GenUB: 1.678863e-02
Optimisation 2.794884e+02
Total Time: 2.798499e+02
4 Rem 8
Graph 1:
1 1 0 0 1 1 1 1 
0 1 0 0 0 1 1 1 
0 0 1 0 0 1 0 0 
1 1 1 1 1 0 0 0 
0 1 0 0 1 0 0 1 
1 0 1 0 1 0 1 0 
0 1 1 1 0 1 1 0 
1 1 0 1 0 0 1 1 
Graph 2:
1 1 0 0 0 1 1 1 
0 1 0 0 0 1 1 1 
0 0 0 0 0 1 0 0 
1 1 1 1 0 0 0 0 
0 0 0 0 1 0 0 1 
1 0 1 0 1 0 0 0 
0 1 1 1 0 0 1 0 
1 0 0 0 0 0 1 1 
Solution: -8 0
Gbest: -24.000000
Expectation: -29.789822
Final Parameters:
Gammas:
[ 3.287507 3.138398 2.927756 3.423652 ]
Betas:
[ 2.042359 1.862760 1.707336 1.694403 1.565463 ]
Aggregate results:
[ 7 13 17 15 19 25 27 23 21 29 31 33 37 39 35 41 43 63 ]
[ 0.000069 0.000502 0.008069 0.001900 0.023350 0.211199 0.217013 0.147707 0.068072 0.138772 0.061634 0.021572 0.009641 0.004135 0.013345 0.001027 0.000111 0.071881 ]
5
Num Evals 3200
GenUC: 2.896898e-03
GenUB: 1.681700e-02
Optimisation 2.786503e+02
Total Time: 2.790104e+02
5 Add/Rem 8
Graph 1:
1 1 0 0 1 1 1 1 
0 1 0 0 0 1 1 1 
0 0 1 0 0 1 0 0 
1 1 1 1 1 0 0 0 
0 1 0 0 1 0 0 1 
1 0 1 0 1 0 1 0 
0 1 1 1 0 1 1 0 
1 1 0 1 0 0 1 1 
Graph 2:
1 1 0 0 0 0 1 1 
1 0 0 0 1 1 1 1 
0 0 1 0 0 1 0 0 
1 0 1 1 1 0 0 0 
1 1 0 0 1 0 0 1 
1 0 1 0 1 0 1 0 
0 0 1 0 0 0 1 1 
1 0 0 1 1 1 1 1 
Solution: -12 37622
Gbest: -22.000000
Expectation: -32.901137
Final Parameters:
Gammas:
[ 3.284551 3.362494 3.241003 3.420188 ]
Betas:
[ 2.082863 2.058178 1.795576 1.823718 1.650199 ]
Aggregate results:
[ 13 23 29 31 27 25 21 33 35 15 17 39 37 41 19 43 45 11 63 ]
[ 0.000404 0.056678 0.187215 0.161078 0.161826 0.107074 0.021635 0.111915 0.061010 0.000437 0.002751 0.009735 0.025096 0.002589 0.007341 0.000388 0.000023 0.000019 0.082786 ]
5
Num Evals 4000
GenUC: 2.894644e-03
GenUB: 1.684895e-02
Optimisation 2.870134e+02
Total Time: 2.873873e+02
