Clock Speed: 3.498681
Num threads: 16
Trotterisation: 3
Num Qubits: 16
Space Dimension: 65536
Run-Type: 0
Num_samples: 64
Optimiser Method: 12
1 Isomorphic
Graph 1:
0 1 0 1 1 0 1 1 
0 0 0 0 1 0 0 0 
0 0 1 0 1 1 1 1 
0 1 0 1 0 1 0 1 
0 1 1 1 0 0 0 0 
1 1 1 0 1 1 1 1 
0 0 0 0 0 1 1 1 
0 1 0 1 1 1 1 1 
Graph 2:
0 1 0 1 1 0 1 1 
0 0 0 0 1 0 0 0 
0 0 1 0 1 1 1 1 
0 1 0 1 0 1 0 1 
0 1 1 1 0 0 0 0 
1 1 1 0 1 1 1 1 
0 0 0 0 0 1 1 1 
0 1 0 1 1 1 1 1 
Solution: 64 0
Classic Expectation: 32.285714
Initial Expecation: 19.863281
Gbest: 40.000000
Expectation: 25.498005
Final Parameters:
Gammas:
[ 2.315669 2.058799 2.999352 ]
Betas:
[ 2.917370 1.123660 0.441910 ]
Aggregate results:
[ 64 56 52 50 44 38 42 40 46 48 36 34 30 32 54 28 26 24 22 20 18 16 0 ]
[ 0.000023 0.000069 0.000160 0.000388 0.005306 0.046798 0.009931 0.022067 0.001871 0.000531 0.086183 0.128834 0.147769 0.156057 0.000032 0.107810 0.056029 0.022312 0.004888 0.000520 0.000061 0.000023 0.202339 ]
3
Num Evals 498
GenUC: 1.876615e-02
GenUB: 1.297615e-02
Optimisation 1.325408e+02
Total Time: 1.325726e+02
2 Flipped
Graph 1:
0 1 0 1 1 0 1 1 
0 0 0 0 1 0 0 0 
0 0 1 0 1 1 1 1 
0 1 0 1 0 1 0 1 
0 1 1 1 0 0 0 0 
1 1 1 0 1 1 1 1 
0 0 0 0 0 1 1 1 
0 1 0 1 1 1 1 1 
Graph 2:
1 1 0 1 1 0 1 0 
0 0 0 1 0 0 0 0 
1 1 1 1 0 1 0 0 
1 0 1 0 1 0 1 0 
0 0 0 0 1 1 1 0 
1 1 1 1 0 1 1 1 
1 1 1 0 0 0 0 0 
1 1 1 1 1 0 1 0 
Solution: 52 39929
Classic Expectation: 32.071429
Initial Expecation: 19.731445
Gbest: 38.000000
Expectation: 25.973040
Final Parameters:
Gammas:
[ 1.831188 1.938579 2.529002 ]
Betas:
[ 0.000020 3.040140 0.698448 ]
Aggregate results:
[ 28 26 32 30 36 34 42 40 38 24 44 22 20 18 16 46 48 50 52 0 ]
[ 0.090087 0.051698 0.143965 0.125709 0.103188 0.133628 0.014637 0.031104 0.065170 0.022858 0.005517 0.007349 0.002061 0.000365 0.000016 0.002192 0.000466 0.000182 0.000029 0.199781 ]
3
Num Evals 736
GenUC: 2.376463e-02
GenUB: 1.366629e-02
Optimisation 1.686443e+02
Total Time: 1.686818e+02
3 Add 8
Graph 1:
0 1 0 1 1 0 1 1 
0 0 0 0 1 0 0 0 
0 0 1 0 1 1 1 1 
0 1 0 1 0 1 0 1 
0 1 1 1 0 0 0 0 
1 1 1 0 1 1 1 1 
0 0 0 0 0 1 1 1 
0 1 0 1 1 1 1 1 
Graph 2:
0 1 0 1 1 1 1 1 
0 0 1 0 1 0 0 0 
0 0 1 0 1 1 1 1 
0 1 0 1 0 1 0 1 
0 1 1 1 0 0 1 0 
1 1 1 0 1 1 1 1 
0 0 1 0 0 1 1 1 
1 1 0 1 1 1 1 1 
Solution: 59 0
Classic Expectation: 32.464286
Initial Expecation: 19.973145
Gbest: 53.000000
Expectation: 21.741315
Final Parameters:
Gammas:
[ 1.534889 2.357298 1.485626 ]
Betas:
[ 2.383556 1.424360 1.470788 ]
Aggregate results:
[ 59 51 49 55 43 37 39 41 47 45 35 33 53 31 29 27 25 23 21 19 0 ]
[ 0.000008 0.000257 0.000139 0.000017 0.006115 0.058173 0.030023 0.015192 0.000723 0.002438 0.107219 0.140362 0.000032 0.126822 0.090137 0.060621 0.026185 0.005618 0.000581 0.000134 0.329202 ]
3
Num Evals 315
GenUC: 2.385967e-02
GenUB: 1.381099e-02
Optimisation 9.248349e+01
Total Time: 9.252117e+01
4 Rem 8
Graph 1:
0 1 0 1 1 0 1 1 
0 0 0 0 1 0 0 0 
0 0 1 0 1 1 1 1 
0 1 0 1 0 1 0 1 
0 1 1 1 0 0 0 0 
1 1 1 0 1 1 1 1 
0 0 0 0 0 1 1 1 
0 1 0 1 1 1 1 1 
Graph 2:
0 1 0 1 1 0 0 0 
0 0 0 0 1 0 0 0 
0 0 1 0 1 1 1 1 
0 1 0 1 0 0 0 1 
0 1 1 1 0 0 0 0 
1 1 1 0 1 0 1 1 
0 0 0 0 0 0 1 1 
0 1 0 1 0 1 1 0 
Solution: 57 0
Classic Expectation: 31.607143
Initial Expecation: 19.445801
Gbest: 41.000000
Expectation: 25.008911
Final Parameters:
Gammas:
[ 2.326213 2.985675 1.502596 ]
Betas:
[ 1.763921 1.234127 1.257611 ]
Aggregate results:
[ 57 51 49 47 43 35 41 37 39 45 33 31 29 27 25 23 21 19 17 0 ]
[ 0.000010 0.000017 0.000161 0.000162 0.003423 0.107820 0.009381 0.056690 0.026469 0.000884 0.146626 0.158465 0.133294 0.084756 0.042781 0.017980 0.004991 0.001236 0.000030 0.204825 ]
3
Num Evals 596
GenUC: 2.385924e-02
GenUB: 1.359515e-02
Optimisation 1.529100e+02
Total Time: 1.529474e+02
5 Add/Rem 8
Graph 1:
0 1 0 1 1 0 1 1 
0 0 0 0 1 0 0 0 
0 0 1 0 1 1 1 1 
0 1 0 1 0 1 0 1 
0 1 1 1 0 0 0 0 
1 1 1 0 1 1 1 1 
0 0 0 0 0 1 1 1 
0 1 0 1 1 1 1 1 
Graph 2:
0 1 1 1 1 0 1 1 
0 0 1 1 1 1 0 0 
0 0 1 0 1 1 1 1 
0 0 0 1 0 1 0 1 
0 1 1 1 1 0 0 1 
1 1 1 1 0 0 1 1 
0 0 0 0 0 1 0 0 
0 1 0 1 0 1 0 1 
Solution: 50 0
Classic Expectation: 32.071429
Initial Expecation: 19.731445
Gbest: 40.000000
Expectation: 24.746465
Final Parameters:
Gammas:
[ 2.014149 3.396627 1.717066 ]
Betas:
[ 1.454438 1.809935 2.031543 ]
Aggregate results:
[ 50 44 40 38 42 36 34 32 46 30 48 28 26 24 22 20 18 16 0 ]
[ 0.000016 0.002404 0.019238 0.045376 0.007475 0.091339 0.131543 0.155122 0.000475 0.140141 0.000157 0.098311 0.052160 0.022376 0.007621 0.002689 0.000352 0.000016 0.223188 ]
3
Num Evals 419
GenUC: 2.389499e-02
GenUB: 1.375497e-02
Optimisation 1.264525e+02
Total Time: 1.264902e+02
