Clock Speed: 3.498630
Num threads: 16
Trotterisation: 1
Num Qubits: 5
Space Dimension: 32
Run-Type: 0
Num_samples: 16
Optimiser Method: 0
1 Isomorphic
Graph 1:
1 1 1 0 
1 0 1 1 
0 1 1 0 
1 1 1 0 
Graph 2:
1 1 1 0 
1 0 1 1 
0 1 1 0 
1 1 1 0 
Solution: 16 0
Classic Expectation: 9.500000
Initial Expecation: 7.125000
Gbest: 12.000000
Expectation: 8.738566
Final Parameters:
Gammas:
[ 4.537856 ]
Betas:
[ 0.872665 ]
Aggregate results:
[ 16 8 10 12 6 14 0 ]
[ 0.007111 0.177106 0.300564 0.237518 0.191300 0.014592 0.071809 ]
3
Num Evals 43
GenUC: 9.680633e-06
GenUB: 1.386181e-05
Optimisation 1.854959e-03
Total Time: 1.886659e-03
2 Flipped
Graph 1:
1 1 1 0 
1 0 1 1 
0 1 1 0 
1 1 1 0 
Graph 2:
0 1 1 1 
1 1 0 1 
0 1 1 0 
0 1 1 1 
Solution: 14 21
Classic Expectation: 9.000000
Initial Expecation: 6.750000
Gbest: 14.000000
Expectation: 9.289969
Final Parameters:
Gammas:
[ 0.170365 ]
Betas:
[ 0.612474 ]
Aggregate results:
[ 10 8 6 12 14 0 ]
[ 0.332150 0.220181 0.147578 0.153003 0.106108 0.040980 ]
3
Num Evals 869
GenUC: 9.311363e-06
GenUB: 2.318528e-06
Optimisation 2.956119e-02
Total Time: 2.957426e-02
3 Add 4
Graph 1:
1 1 1 0 
1 0 1 1 
0 1 1 0 
1 1 1 0 
Graph 2:
1 1 1 1 
1 0 1 1 
0 1 1 1 
1 1 1 0 
Solution: 14 0
Classic Expectation: 10.500000
Initial Expecation: 7.875000
Gbest: 14.000000
Expectation: 9.694502
Final Parameters:
Gammas:
[ 2.413947 ]
Betas:
[ 2.639374 ]
Aggregate results:
[ 14 10 8 12 0 ]
[ 0.132238 0.150245 0.097312 0.463519 0.156686 ]
3
Num Evals 587
GenUC: 9.266660e-06
GenUB: 1.658918e-05
Optimisation 2.288267e-02
Total Time: 2.291002e-02
4 Rem 4
Graph 1:
1 1 1 0 
1 0 1 1 
0 1 1 0 
1 1 1 0 
Graph 2:
1 1 1 0 
1 0 1 0 
0 1 0 0 
1 1 0 0 
Solution: 13 0
Classic Expectation: 8.500000
Initial Expecation: 6.375000
Gbest: 13.000000
Expectation: 8.794593
Final Parameters:
Gammas:
[ 2.587979 ]
Betas:
[ 2.617755 ]
Aggregate results:
[ 13 9 11 7 5 0 ]
[ 0.129760 0.302434 0.274423 0.185169 0.014194 0.094020 ]
3
Num Evals 657
GenUC: 9.151176e-06
GenUB: 1.114933e-05
Optimisation 2.391891e-02
Total Time: 2.394053e-02
5 Add/Rem 4
Graph 1:
1 1 1 0 
1 0 1 1 
0 1 1 0 
1 1 1 0 
Graph 2:
1 1 1 1 
0 1 1 1 
0 1 1 0 
0 1 0 1 
Solution: 12 15
Classic Expectation: 8.500000
Initial Expecation: 6.375000
Gbest: 12.000000
Expectation: 8.799822
Final Parameters:
Gammas:
[ 0.192337 ]
Betas:
[ 0.632835 ]
Aggregate results:
[ 10 8 6 12 0 ]
[ 0.290085 0.385355 0.123557 0.172900 0.028104 ]
3
Num Evals 451
GenUC: 9.331852e-06
GenUB: 1.196191e-05
Optimisation 1.490711e-02
Total Time: 1.492976e-02
