Clock Speed: 3.688755
Num threads: 4
Trotterisation: 5
Num Qubits: 5
Space Dimension: 32
Run-Type: 0
Num_samples: 4
Optimiser Method: 20
1 Isomorphic
Graph 1:
0 1 1 0 
1 0 0 1 
1 0 0 0 
0 1 0 0 
Graph 2:
0 1 1 0 
1 0 0 1 
1 0 0 0 
0 1 0 0 
Solution: 16 0
Classic Expectation: 10.000000
Initial Expecation: 7.500000
Gbest: 16.000000
Expectation: 11.910103
Final Parameters:
Gammas:
[ 0.868386 3.411996 2.959081 4.029146 2.023083 ]
Betas:
[ 0.876615 0.950522 1.811499 0.310006 2.856044 ]
Aggregate results:
[ 16 8 12 4 0 ]
[ 0.260576 0.158674 0.536946 0.007037 0.036767 ]
5
Num Evals 4000
GenUC: 8.282048e-06
GenUB: 9.001509e-06
Optimisation 5.311498e+01
Total Time: 5.311502e+01
2 Flipped
Graph 1:
0 1 1 0 
1 0 0 1 
1 0 0 0 
0 1 0 0 
Graph 2:
0 1 1 0 
1 0 0 1 
0 0 0 1 
0 0 1 0 
Solution: 14 2
Classic Expectation: 10.000000
Initial Expecation: 7.500000
Gbest: 14.000000
Expectation: 11.572620
Final Parameters:
Gammas:
[ 4.196709 3.883484 0.142507 3.481725 5.753851 ]
Betas:
[ 0.664438 0.445985 0.089162 0.026179 2.305866 ]
Aggregate results:
[ 12 8 14 6 0 ]
[ 0.520252 0.071265 0.326522 0.031361 0.050600 ]
5
Num Evals 4000
GenUC: 9.504438e-06
GenUB: 1.905471e-06
Optimisation 3.506190e+01
Total Time: 3.506192e+01
3 Add 4
Graph 1:
0 1 1 0 
1 0 0 1 
1 0 0 0 
0 1 0 0 
Graph 2:
1 1 1 1 
1 1 1 1 
1 1 0 0 
1 1 0 0 
Solution: 10 0
Classic Expectation: 8.000000
Initial Expecation: 6.000000
Gbest: 10.000000
Expectation: 9.525642
Final Parameters:
Gammas:
[ 1.856540 6.231582 6.210720 0.499643 3.569887 ]
Betas:
[ 2.674353 3.137441 3.076132 0.547044 0.288510 ]
Aggregate results:
[ 10 6 0 ]
[ 0.894195 0.097283 0.008523 ]
5
Num Evals 4000
GenUC: 9.383555e-06
GenUB: 1.652530e-06
Optimisation 6.281106e+01
Total Time: 6.281108e+01
4 Rem 4
Graph 1:
0 1 1 0 
1 0 0 1 
1 0 0 0 
0 1 0 0 
Graph 2:
0 0 0 0 
0 0 0 0 
0 0 0 0 
0 0 0 0 
Solution: 10 0
Classic Expectation: 10.000000
Initial Expecation: 7.500000
Gbest: 10.000000
Expectation: 10.000000
Final Parameters:
Gammas:
[ 3.844720 4.598666 2.374073 3.133223 3.160980 ]
Betas:
[ 1.573935 2.347691 1.799223 1.556121 1.511418 ]
Aggregate results:
[ 10 0 ]
[ 1.000000 0.000000 ]
5
Num Evals 4000
GenUC: 8.674062e-06
GenUB: 1.552777e-06
Optimisation 5.770482e+01
Total Time: 5.770483e+01
5 Add/Rem 4
Graph 1:
0 1 1 0 
1 0 0 1 
1 0 0 0 
0 1 0 0 
Graph 2:
0 0 0 1 
0 1 1 0 
0 1 0 0 
1 0 0 0 
Solution: 13 1
Classic Expectation: 9.000000
Initial Expecation: 6.750000
Gbest: 13.000000
Expectation: 11.016957
Final Parameters:
Gammas:
[ 3.830958 0.148089 5.270867 4.202440 6.168416 ]
Betas:
[ 0.901743 1.525510 2.865119 2.853418 0.830864 ]
Aggregate results:
[ 5 13 9 0 ]
[ 0.083574 0.704149 0.160572 0.051705 ]
5
Num Evals 4000
GenUC: 9.594820e-06
GenUB: 1.457709e-06
Optimisation 5.865177e+01
Total Time: 5.865179e+01
