Clock Speed: 3.498795
Num threads: 16
Trotterisation: 6
Num Qubits: 7
Space Dimension: 128
Run-Type: 0
Num_samples: 25
Optimiser Method: 29
1 Isomorphic
Graph 1:
1 0 0 0 1 
1 1 0 0 0 
1 0 1 0 1 
1 1 1 1 0 
0 1 0 0 0 
Graph 2:
1 0 0 0 1 
1 1 0 0 0 
1 0 1 0 1 
1 1 1 1 0 
0 1 0 0 0 
Solution: 25 0
Classic Expectation: 13.800000
Initial Expecation: 12.937500
Gbest: 19.000000
Expectation: 15.546983
Final Parameters:
Gammas:
[ 4.609870 3.153965 4.501494 3.142325 3.606285 2.986172 ]
Betas:
[ 1.461489 1.717745 1.540145 1.397848 1.572311 1.670517 ]
Aggregate results:
[ 25 15 19 13 21 17 11 9 0 ]
[ 0.027258 0.351947 0.146796 0.178143 0.049762 0.148635 0.067094 0.019060 0.011307 ]
3
Num Evals 7524
GenUC: 6.936071e-05
GenUB: 2.448400e-05
Optimisation 4.590175e+00
Total Time: 4.590280e+00
2 Flipped
Graph 1:
1 0 0 0 1 
1 1 0 0 0 
1 0 1 0 1 
1 1 1 1 0 
0 1 0 0 0 
Graph 2:
1 0 0 0 1 
0 0 0 1 1 
1 0 1 0 1 
0 1 1 1 1 
0 0 0 1 0 
Solution: 17 0
Classic Expectation: 13.000000
Initial Expecation: 12.187500
Gbest: 17.000000
Expectation: 14.064556
Final Parameters:
Gammas:
[ 4.323719 1.919525 1.650499 4.290774 2.058473 3.307581 ]
Betas:
[ 1.618711 1.546737 2.616065 2.039060 1.243767 1.839599 ]
Aggregate results:
[ 17 9 13 11 15 7 0 ]
[ 0.220297 0.050016 0.222271 0.085109 0.395934 0.014947 0.011426 ]
3
Num Evals 9719
GenUC: 5.164510e-05
GenUB: 1.026364e-05
Optimisation 6.156673e+00
Total Time: 6.156737e+00
3 Add 5
Graph 1:
1 0 0 0 1 
1 1 0 0 0 
1 0 1 0 1 
1 1 1 1 0 
0 1 0 0 0 
Graph 2:
1 0 0 0 1 
1 1 0 1 0 
1 0 1 0 1 
1 1 1 1 1 
0 1 0 1 0 
Solution: 22 0
Classic Expectation: 13.200000
Initial Expecation: 12.375000
Gbest: 22.000000
Expectation: 14.293967
Final Parameters:
Gammas:
[ 5.812555 4.236885 3.522308 2.872270 2.134845 2.810042 ]
Betas:
[ 1.653295 2.765260 1.029385 0.429925 2.248024 1.482771 ]
Aggregate results:
[ 22 12 18 14 16 20 10 8 0 ]
[ 0.064060 0.137244 0.131955 0.400780 0.109816 0.007073 0.131836 0.004343 0.012893 ]
3
Num Evals 6106
GenUC: 5.227420e-05
GenUB: 1.016958e-05
Optimisation 3.556039e+00
Total Time: 3.556103e+00
4 Rem 5
Graph 1:
1 0 0 0 1 
1 1 0 0 0 
1 0 1 0 1 
1 1 1 1 0 
0 1 0 0 0 
Graph 2:
1 0 0 0 0 
0 1 0 0 0 
0 0 1 0 1 
1 1 1 0 0 
0 1 0 0 0 
Solution: 21 0
Classic Expectation: 13.800000
Initial Expecation: 12.937500
Gbest: 21.000000
Expectation: 14.438735
Final Parameters:
Gammas:
[ 4.969352 3.345978 4.067895 2.814439 2.005902 2.093096 ]
Betas:
[ 1.237917 2.556702 1.902390 1.643903 0.645483 1.317727 ]
Aggregate results:
[ 21 15 13 17 11 19 9 0 ]
[ 0.072610 0.372409 0.304388 0.084848 0.122373 0.029401 0.002624 0.011348 ]
3
Num Evals 11092
GenUC: 5.184673e-05
GenUB: 9.059906e-06
Optimisation 6.374597e+00
Total Time: 6.374661e+00
5 Add/Rem 5
Graph 1:
1 0 0 0 1 
1 1 0 0 0 
1 0 1 0 1 
1 1 1 1 0 
0 1 0 0 0 
Graph 2:
1 0 0 0 1 
1 1 1 0 1 
0 1 0 0 0 
0 1 1 1 1 
0 1 0 0 0 
Solution: 19 45
Classic Expectation: 13.000000
Initial Expecation: 12.187500
Gbest: 19.000000
Expectation: 14.879333
Final Parameters:
Gammas:
[ 4.584293 3.399645 4.613054 2.966051 2.687080 3.468906 ]
Betas:
[ 1.503197 1.599380 1.485793 0.196672 1.469866 1.439313 ]
Aggregate results:
[ 17 11 15 9 13 7 19 0 ]
[ 0.302802 0.058599 0.374351 0.019853 0.182966 0.007798 0.045263 0.008366 ]
3
Num Evals 6118
GenUC: 5.196268e-05
GenUB: 1.051789e-05
Optimisation 3.133542e+00
Total Time: 3.133606e+00
