Clock Speed: 3.688420
Num threads: 4
Trotterisation: 4
Graph Size: 6
Num Qubits: 10
Space Dimension: 1024
Run-Type: 0
Num_samples: 10
1 Isomorphic
Graph 1:
1 0 0 1 0 0 
0 1 1 1 1 1 
0 0 0 0 0 0 
0 0 0 1 1 0 
0 1 1 0 1 1 
1 0 1 1 0 1 
Graph 2:
1 0 0 1 0 0 
0 1 1 1 1 1 
0 0 0 0 0 0 
0 0 0 1 1 0 
0 1 1 0 1 1 
1 0 1 1 0 1 
Solution: 0 0
Gbest: -12.000000
Expectation: -13.604951
Final Parameters:
Gammas:
[ 1.082542 2.116290 3.244189 2.893252 ]
Betas:
[ 1.671201 3.141268 2.805267 3.037857 0.126094 ]
Aggregate results:
[ -1 9 13 11 7 15 17 5 3 19 23 21 25 35 ]
[ 0.009486 0.122991 0.258471 0.240866 0.067105 0.144423 0.067629 0.021981 0.012598 0.014733 0.001591 0.005992 0.000261 0.031872 ]
5
Num Evals 600
GenUC: 2.830310e-04
GenUB: 1.980944e-04
Optimisation 1.407181e+00
Total Time: 1.409871e+00
2 Flipped
Graph 1:
1 0 0 1 0 0 
0 1 1 1 1 1 
0 0 0 0 0 0 
0 0 0 1 1 0 
0 1 1 0 1 1 
1 0 1 1 0 1 
Graph 2:
0 0 1 0 0 1 
1 1 1 1 1 0 
0 0 0 0 0 0 
0 1 1 0 0 0 
1 1 0 1 1 0 
1 0 1 1 0 1 
Solution: -8 630
Gbest: -12.000000
Expectation: -18.035967
Final Parameters:
Gammas:
[ 0.258345 0.243282 6.183535 3.818018 ]
Betas:
[ 2.202209 0.462156 1.497079 1.508471 3.140969 ]
Aggregate results:
[ 13 15 19 23 11 9 17 21 25 7 35 ]
[ 0.171222 0.161841 0.122690 0.018978 0.155619 0.042988 0.157020 0.064992 0.000776 0.006179 0.097696 ]
5
Num Evals 1200
GenUC: 1.287794e-04
GenUB: 1.526249e-04
Optimisation 1.255956e+00
Total Time: 1.258487e+00
3 Add 6
Graph 1:
1 0 0 1 0 0 
0 1 1 1 1 1 
0 0 0 0 0 0 
0 0 0 1 1 0 
0 1 1 0 1 1 
1 0 1 1 0 1 
Graph 2:
1 1 0 1 0 0 
0 1 1 1 1 1 
1 0 0 1 0 0 
0 1 0 1 1 0 
0 1 1 0 1 1 
1 0 1 1 0 1 
Solution: -4 0
Gbest: -12.000000
Expectation: -15.281835
Final Parameters:
Gammas:
[ 2.074954 1.019155 5.958808 3.390307 ]
Betas:
[ 1.470542 0.004964 0.679370 3.037535 0.267414 ]
Aggregate results:
[ 3 13 9 19 17 11 15 7 5 23 21 25 35 ]
[ 0.008082 0.275084 0.060461 0.051187 0.126555 0.210819 0.185559 0.013100 0.006359 0.006496 0.022900 0.001180 0.032220 ]
5
Num Evals 1800
GenUC: 1.342886e-04
GenUB: 1.689743e-04
Optimisation 9.001522e-01
Total Time: 9.019416e-01
4 Rem 6
Graph 1:
1 0 0 1 0 0 
0 1 1 1 1 1 
0 0 0 0 0 0 
0 0 0 1 1 0 
0 1 1 0 1 1 
1 0 1 1 0 1 
Graph 2:
1 0 0 1 0 0 
0 0 1 0 0 1 
0 0 0 0 0 0 
0 0 0 1 1 0 
0 1 1 0 1 0 
1 0 0 1 0 1 
Solution: -5 0
Gbest: -15.000000
Expectation: -16.904548
Final Parameters:
Gammas:
[ 1.488627 2.493571 4.553209 3.784769 ]
Betas:
[ 0.236411 1.555077 1.562546 1.566388 1.108213 ]
Aggregate results:
[ 4 12 8 14 16 18 6 10 20 22 35 ]
[ 0.001768 0.165849 0.022628 0.237059 0.247516 0.136304 0.004782 0.071489 0.043510 0.002954 0.066141 ]
5
Num Evals 2400
GenUC: 1.219045e-04
GenUB: 1.657390e-04
Optimisation 1.004595e+00
Total Time: 1.006558e+00
5 Add/Rem 6
Graph 1:
1 0 0 1 0 0 
0 1 1 1 1 1 
0 0 0 0 0 0 
0 0 0 1 1 0 
0 1 1 0 1 1 
1 0 1 1 0 1 
Graph 2:
1 1 0 1 1 0 
0 1 0 0 1 1 
0 1 0 0 0 1 
0 0 0 1 1 0 
0 0 1 0 1 0 
0 0 1 1 1 0 
Solution: -9 311
Gbest: -9.000000
Expectation: -15.896353
Final Parameters:
Gammas:
[ 2.822771 3.404153 2.659040 6.249955 ]
Betas:
[ 3.128634 3.020508 0.341549 0.065331 3.131913 ]
Aggregate results:
[ 10 12 14 18 16 22 20 24 8 35 ]
[ 0.097467 0.253334 0.325758 0.059440 0.162633 0.008344 0.024940 0.004819 0.013455 0.049810 ]
5
Num Evals 3000
GenUC: 1.351149e-04
GenUB: 1.787076e-04
Optimisation 1.215608e+00
Total Time: 1.218014e+00
