Clock Speed: 3.688774
Num threads: 4
Trotterisation: 3
Num Qubits: 16
Space Dimension: 65536
Run-Type: 0
Num_samples: 102399
Optimiser Method: 29
1 Isomorphic
Graph 1:
1 0 1 0 1 1 0 1 
1 0 0 1 1 0 0 0 
0 0 1 1 0 0 1 0 
1 1 1 1 0 0 1 1 
0 1 0 0 1 0 0 1 
0 0 1 1 1 1 0 1 
1 0 0 1 0 1 1 0 
0 1 1 1 1 1 0 0 
Graph 2:
1 0 1 0 1 1 0 1 
1 0 0 1 1 0 0 0 
0 0 1 1 0 0 1 0 
1 1 1 1 0 0 1 1 
0 1 0 0 1 0 0 1 
0 0 1 1 1 1 0 1 
1 0 0 1 0 1 1 0 
0 1 1 1 1 1 0 0 
Solution: 64 0
Classic Expectation: 33.000000
Initial Expecation: 20.302734
Gbest: 54.000000
Expectation: 25.494481
Final Parameters:
Gammas:
[ 3.381142 4.868532 1.510206 ]
Betas:
[ 2.641341 2.210506 1.980029 ]
Aggregate results:
[ 64 46 42 54 52 36 38 48 40 34 44 30 32 28 50 26 24 22 18 16 20 0 ]
[ 0.000011 0.001105 0.011506 0.000071 0.000246 0.116581 0.064748 0.000388 0.032385 0.152311 0.003831 0.117165 0.151363 0.071522 0.000235 0.031595 0.013825 0.003650 0.000072 0.000046 0.000802 0.226542 ]
3
Num Evals 991
GenUC: 1.693856e-02
GenUB: 5.470131e-03
Optimisation 3.939125e+02
Total Time: 3.939349e+02
2 Flipped
Graph 1:
1 0 1 0 1 1 0 1 
1 0 0 1 1 0 0 0 
0 0 1 1 0 0 1 0 
1 1 1 1 0 0 1 1 
0 1 0 0 1 0 0 1 
0 0 1 1 1 1 0 1 
1 0 0 1 0 1 1 0 
0 1 1 1 1 1 0 0 
Graph 2:
1 0 1 1 0 1 0 1 
0 0 0 1 1 0 0 1 
0 1 0 0 1 1 0 0 
1 1 0 0 1 1 1 1 
1 0 0 1 0 0 1 0 
1 0 1 1 1 1 0 0 
0 1 1 0 1 0 0 1 
0 0 1 1 1 1 1 0 
Solution: 46 10429
Classic Expectation: 31.000000
Initial Expecation: 19.072266
Gbest: 46.000000
Expectation: 25.409246
Final Parameters:
Gammas:
[ 3.304441 3.311380 5.937462 ]
Betas:
[ 2.860934 0.841955 1.940017 ]
Aggregate results:
[ 32 34 36 28 40 30 38 42 26 24 22 44 20 18 16 46 0 ]
[ 0.155825 0.128261 0.082456 0.118231 0.013708 0.147074 0.042489 0.004261 0.068792 0.033187 0.012420 0.000662 0.005012 0.001730 0.000296 0.000118 0.185478 ]
3
Num Evals 1590
GenUC: 1.788004e-02
GenUB: 5.026493e-03
Optimisation 5.183706e+02
Total Time: 5.183935e+02
3 Add 8
Graph 1:
1 0 1 0 1 1 0 1 
1 0 0 1 1 0 0 0 
0 0 1 1 0 0 1 0 
1 1 1 1 0 0 1 1 
0 1 0 0 1 0 0 1 
0 0 1 1 1 1 0 1 
1 0 0 1 0 1 1 0 
0 1 1 1 1 1 0 0 
Graph 2:
1 1 1 1 1 1 0 1 
1 0 0 1 1 0 0 0 
0 0 1 1 1 0 1 0 
1 1 1 1 1 0 1 1 
0 1 0 0 1 0 1 1 
0 0 1 1 1 1 1 1 
1 0 1 1 0 1 1 0 
0 1 1 1 1 1 0 0 
Solution: 57 0
Classic Expectation: 33.000000
Initial Expecation: 20.302734
Gbest: 51.000000
Expectation: 25.099017
Final Parameters:
Gammas:
[ 3.337942 3.337942 0.000000 ]
Betas:
[ 2.403199 1.964083 1.276860 ]
Aggregate results:
[ 57 45 43 39 47 35 37 41 33 51 31 27 29 49 25 23 21 19 0 ]
[ 0.000008 0.003503 0.011965 0.093710 0.001137 0.158499 0.145092 0.045936 0.124257 0.000156 0.070592 0.015514 0.032410 0.000450 0.006683 0.002454 0.000716 0.000154 0.286765 ]
3
Num Evals 167
GenUC: 1.809458e-02
GenUB: 4.982608e-03
Optimisation 5.399475e+01
Total Time: 5.401783e+01
4 Rem 8
Graph 1:
1 0 1 0 1 1 0 1 
1 0 0 1 1 0 0 0 
0 0 1 1 0 0 1 0 
1 1 1 1 0 0 1 1 
0 1 0 0 1 0 0 1 
0 0 1 1 1 1 0 1 
1 0 0 1 0 1 1 0 
0 1 1 1 1 1 0 0 
Graph 2:
0 0 1 0 1 1 0 1 
1 0 0 1 1 0 0 0 
0 0 1 1 0 0 1 0 
1 1 0 1 0 0 1 1 
0 1 0 0 0 0 0 1 
0 0 1 0 0 1 0 1 
0 0 0 1 0 1 1 0 
0 1 1 0 1 1 0 0 
Solution: 57 0
Classic Expectation: 32.000000
Initial Expecation: 19.687500
Gbest: 57.000000
Expectation: 31.310678
Final Parameters:
Gammas:
[ 3.187969 3.271283 0.085802 ]
Betas:
[ 2.361036 2.206485 1.053515 ]
Aggregate results:
[ 57 41 43 37 39 47 49 35 45 33 29 31 27 25 51 23 21 17 19 0 ]
[ 0.000078 0.037328 0.013811 0.146734 0.086949 0.001385 0.000892 0.189929 0.004555 0.182772 0.068049 0.133207 0.029776 0.011605 0.000114 0.004948 0.001820 0.000152 0.000616 0.085281 ]
3
Num Evals 1199
GenUC: 1.803885e-02
GenUB: 5.283691e-03
Optimisation 3.819041e+02
Total Time: 3.819274e+02
5 Add/Rem 8
Graph 1:
1 0 1 0 1 1 0 1 
1 0 0 1 1 0 0 0 
0 0 1 1 0 0 1 0 
1 1 1 1 0 0 1 1 
0 1 0 0 1 0 0 1 
0 0 1 1 1 1 0 1 
1 0 0 1 0 1 1 0 
0 1 1 1 1 1 0 0 
Graph 2:
1 0 1 1 0 1 1 1 
1 0 0 1 1 0 1 0 
0 0 1 0 0 0 1 0 
0 0 1 1 1 1 0 1 
1 1 0 0 0 0 0 1 
0 0 1 1 0 1 0 1 
1 1 1 1 0 1 1 0 
0 1 1 1 1 1 0 0 
Solution: 51 2280
Classic Expectation: 32.500000
Initial Expecation: 19.995117
Gbest: 51.000000
Expectation: 29.243781
Final Parameters:
Gammas:
[ 3.183436 3.444129 0.052902 ]
Betas:
[ 2.410518 2.205903 1.048208 ]
Aggregate results:
[ 49 37 41 35 39 29 31 33 43 45 47 27 25 23 21 19 51 15 17 0 ]
[ 0.000166 0.186500 0.045820 0.198537 0.107387 0.024955 0.057913 0.133063 0.012698 0.002964 0.000454 0.026165 0.023780 0.012511 0.004722 0.000931 0.000033 0.000013 0.000084 0.161306 ]
3
Num Evals 2306
GenUC: 1.794191e-02
GenUB: 4.981447e-03
Optimisation 7.415688e+02
Total Time: 7.415917e+02
