Clock Speed: 3.498636
Num threads: 16
Trotterisation: 3
Num Qubits: 16
Space Dimension: 65536
Run-Type: 0
Num_samples: 64
Optimiser Method: 29
1 Isomorphic
Graph 1:
0 1 1 0 1 0 0 1 
1 0 1 0 1 1 1 0 
1 1 0 1 0 0 1 0 
0 0 1 1 0 1 0 0 
1 1 0 0 1 0 1 0 
0 1 0 1 0 0 0 0 
0 1 1 0 1 0 1 1 
1 0 0 0 0 0 1 1 
Graph 2:
0 1 1 0 1 0 0 1 
1 0 1 0 1 1 1 0 
1 1 0 1 0 0 1 0 
0 0 1 1 0 1 0 0 
1 1 0 0 1 0 1 0 
0 1 0 1 0 0 0 0 
0 1 1 0 1 0 1 1 
1 0 0 0 0 0 1 1 
Solution: 64 0
Classic Expectation: 32.142857
Initial Expecation: 19.775391
Gbest: 44.000000
Expectation: 25.369601
Final Parameters:
Gammas:
[ 3.297820 3.309583 5.504538 ]
Betas:
[ 2.797658 1.263942 1.533970 ]
Aggregate results:
[ 64 48 46 38 50 42 52 60 44 32 30 34 40 36 54 28 26 58 56 24 20 22 18 16 14 62 0 ]
[ 0.000017 0.001873 0.006436 0.073235 0.000837 0.030533 0.000169 0.000018 0.014457 0.110850 0.074313 0.092871 0.059823 0.104227 0.000068 0.077188 0.048821 0.000026 0.000034 0.033617 0.008658 0.025760 0.007490 0.001536 0.000442 0.000002 0.226698 ]
3
Num Evals 1282
GenUC: 1.828911e-02
GenUB: 1.297675e-02
Optimisation 3.485917e+02
Total Time: 3.486230e+02
2 Flipped
Graph 1:
0 1 1 0 1 0 0 1 
1 0 1 0 1 1 1 0 
1 1 0 1 0 0 1 0 
0 0 1 1 0 1 0 0 
1 1 0 0 1 0 1 0 
0 1 0 1 0 0 0 0 
0 1 1 0 1 0 1 1 
1 0 0 0 0 0 1 1 
Graph 2:
1 0 0 1 0 1 1 0 
0 1 1 1 0 1 0 1 
0 1 0 0 1 0 1 1 
0 0 1 0 1 1 0 0 
0 1 0 1 0 0 1 1 
0 0 0 0 1 0 1 0 
1 1 0 1 0 1 1 0 
1 1 0 0 0 0 0 1 
Solution: 46 17555
Classic Expectation: 32.142857
Initial Expecation: 19.775391
Gbest: 38.000000
Expectation: 28.440022
Final Parameters:
Gammas:
[ 3.379209 2.811592 6.233684 ]
Betas:
[ 2.797201 1.839751 2.395902 ]
Aggregate results:
[ 28 32 24 30 34 36 26 38 40 22 20 42 44 46 0 ]
[ 0.104469 0.187289 0.022802 0.161042 0.155690 0.105490 0.054886 0.060326 0.023707 0.006075 0.000963 0.005043 0.000439 0.000006 0.111772 ]
3
Num Evals 931
GenUC: 2.304062e-02
GenUB: 1.361425e-02
Optimisation 2.854816e+02
Total Time: 2.855183e+02
3 Add 8
Graph 1:
0 1 1 0 1 0 0 1 
1 0 1 0 1 1 1 0 
1 1 0 1 0 0 1 0 
0 0 1 1 0 1 0 0 
1 1 0 0 1 0 1 0 
0 1 0 1 0 0 0 0 
0 1 1 0 1 0 1 1 
1 0 0 0 0 0 1 1 
Graph 2:
0 1 1 1 1 1 1 1 
1 0 1 1 1 1 1 1 
1 1 1 1 1 0 1 1 
1 1 1 1 0 1 1 0 
1 1 1 0 1 0 1 0 
1 1 0 1 0 0 0 0 
1 1 1 1 1 0 1 1 
1 1 1 0 0 0 1 1 
Solution: 47 0
Classic Expectation: 31.000000
Initial Expecation: 19.072266
Gbest: 41.000000
Expectation: 26.164902
Final Parameters:
Gammas:
[ 3.355549 3.293589 5.968727 ]
Betas:
[ 2.176415 1.082794 2.320760 ]
Aggregate results:
[ 47 43 33 37 29 39 41 35 25 31 45 27 23 19 21 17 15 0 ]
[ 0.000929 0.006743 0.127360 0.079699 0.106957 0.034938 0.022300 0.089590 0.057954 0.133949 0.002547 0.108778 0.042297 0.009185 0.015870 0.001609 0.000294 0.159002 ]
3
Num Evals 1257
GenUC: 2.309411e-02
GenUB: 1.361437e-02
Optimisation 3.439127e+02
Total Time: 3.439495e+02
4 Rem 8
Graph 1:
0 1 1 0 1 0 0 1 
1 0 1 0 1 1 1 0 
1 1 0 1 0 0 1 0 
0 0 1 1 0 1 0 0 
1 1 0 0 1 0 1 0 
0 1 0 1 0 0 0 0 
0 1 1 0 1 0 1 1 
1 0 0 0 0 0 1 1 
Graph 2:
0 0 0 0 0 0 0 0 
0 0 0 0 0 0 0 0 
0 0 0 0 0 0 1 0 
0 0 0 0 0 1 0 0 
0 0 0 0 1 0 1 0 
0 0 0 1 0 0 0 0 
0 0 1 0 1 0 1 1 
0 0 0 0 0 0 1 1 
Solution: 45 0
Classic Expectation: 33.428571
Initial Expecation: 20.566406
Gbest: 45.000000
Expectation: 30.474289
Final Parameters:
Gammas:
[ 3.188334 3.272818 4.863327 ]
Betas:
[ 2.376583 2.226014 1.067765 ]
Aggregate results:
[ 45 37 27 35 31 33 29 39 41 43 25 23 0 ]
[ 0.000804 0.154638 0.035415 0.180684 0.108481 0.175408 0.080852 0.090487 0.038104 0.007279 0.019642 0.001954 0.106251 ]
3
Num Evals 961
GenUC: 2.306217e-02
GenUB: 1.340037e-02
Optimisation 2.659278e+02
Total Time: 2.659643e+02
5 Add/Rem 8
Graph 1:
0 1 1 0 1 0 0 1 
1 0 1 0 1 1 1 0 
1 1 0 1 0 0 1 0 
0 0 1 1 0 1 0 0 
1 1 0 0 1 0 1 0 
0 1 0 1 0 0 0 0 
0 1 1 0 1 0 1 1 
1 0 0 0 0 0 1 1 
Graph 2:
0 0 0 1 0 1 1 0 
0 1 1 1 0 0 0 1 
0 1 1 0 1 0 1 0 
1 1 0 1 1 1 1 1 
0 0 1 1 1 0 1 0 
1 0 0 1 0 0 0 0 
1 0 1 1 1 0 1 1 
0 1 0 1 0 0 1 1 
Solution: 50 1447
Classic Expectation: 32.000000
Initial Expecation: 19.687500
Gbest: 42.000000
Expectation: 28.885164
Final Parameters:
Gammas:
[ 3.100078 3.079712 4.727379 ]
Betas:
[ 2.171446 0.702452 1.963078 ]
Aggregate results:
[ 28 14 22 30 26 34 18 32 36 40 38 42 46 24 44 20 50 48 16 0 ]
[ 0.093109 0.000634 0.031274 0.140094 0.090297 0.133037 0.006433 0.120475 0.086630 0.036423 0.078001 0.029420 0.006241 0.037135 0.008520 0.005898 0.000983 0.000794 0.000170 0.094432 ]
3
Num Evals 1147
GenUC: 2.306203e-02
GenUB: 1.374642e-02
Optimisation 2.973609e+02
Total Time: 2.973977e+02
