Clock Speed: 3.689106
Num threads: 4
Trotterisation: 6
Graph Size: 4
Num Qubits: 5
Space Dimension: 32
Run-Type: 0
Num_samples: 10
1 Isomorphic
Graph 1:
1 1 0 1 
1 0 0 1 
0 0 1 1 
1 1 1 1 
Graph 2:
1 1 0 1 
1 0 0 1 
0 0 1 1 
1 1 1 1 
Solution: 0 0
Gbest: 0.000000
Expectation: -4.974028
Final Parameters:
Gammas:
[ 5.497787 3.740558 3.141593 5.944780 0.498104 3.018874 ]
Betas:
[ 2.550830 0.000000 0.317227 1.682772 1.580342 1.763769 1.250528 ]
Aggregate results:
[ -1 1 5 3 7 9 15 ]
[ 0.190864 0.130656 0.365900 0.111144 0.084906 0.078495 0.038033 ]
5
Num Evals 400
GenUC: 1.610851e-04
GenUB: 1.163933e-05
Optimisation 2.203877e-01
Total Time: 2.209968e-01
2 Flipped
Graph 1:
1 1 0 1 
1 0 0 1 
0 0 1 1 
1 1 1 1 
Graph 2:
1 0 1 1 
1 0 0 1 
1 1 0 0 
1 1 1 1 
Solution: -4 3
Gbest: -4.000000
Expectation: -6.426122
Final Parameters:
Gammas:
[ 5.661062 4.810564 5.046746 3.473897 0.276984 3.541117 ]
Betas:
[ 2.752478 0.327719 1.362519 2.292799 1.606236 2.748131 1.794879 ]
Aggregate results:
[ 5 7 3 9 15 ]
[ 0.412826 0.115053 0.352170 0.049860 0.070091 ]
5
Num Evals 800
GenUC: 2.932646e-03
GenUB: 9.250318e-06
Optimisation 2.520328e-01
Total Time: 2.554703e-01
3 Add 4
Graph 1:
1 1 0 1 
1 0 0 1 
0 0 1 1 
1 1 1 1 
Graph 2:
1 1 0 1 
1 1 0 1 
0 1 1 1 
1 1 1 1 
Solution: -2 0
Gbest: -2.000000
Expectation: -4.162645
Final Parameters:
Gammas:
[ 5.145374 4.736933 4.421565 3.548596 0.000000 3.733709 ]
Betas:
[ 3.051401 1.539354 1.506545 2.405927 1.223429 2.318903 2.171296 ]
Aggregate results:
[ 1 5 3 7 15 ]
[ 0.617964 0.066541 0.115930 0.141161 0.058404 ]
5
Num Evals 1200
GenUC: 1.009888e-05
GenUB: 8.138850e-06
Optimisation 2.011366e-01
Total Time: 2.016853e-01
4 Rem 4
Graph 1:
1 1 0 1 
1 0 0 1 
0 0 1 1 
1 1 1 1 
Graph 2:
0 1 0 1 
1 0 0 1 
0 0 1 1 
0 0 1 1 
Solution: -3 0
Gbest: -3.000000
Expectation: -7.849625
Final Parameters:
Gammas:
[ 4.712389 3.141593 3.141593 3.141593 5.942909 4.055018 ]
Betas:
[ 2.112457 1.520514 1.707845 0.822224 1.886079 1.754001 1.591028 ]
Aggregate results:
[ 2 6 8 10 15 ]
[ 0.228506 0.328048 0.249338 0.096400 0.097708 ]
5
Num Evals 1600
GenUC: 9.218624e-06
GenUB: 8.344243e-06
Optimisation 1.822307e-01
Total Time: 1.827118e-01
5 Add/Rem 4
Graph 1:
1 1 0 1 
1 0 0 1 
0 0 1 1 
1 1 1 1 
Graph 2:
0 1 1 1 
1 0 1 1 
1 0 1 1 
1 1 1 0 
Solution: -5 0
Gbest: -5.000000
Expectation: -6.842869
Final Parameters:
Gammas:
[ 4.712389 3.141593 3.145010 3.593523 2.996742 4.880430 ]
Betas:
[ 1.628564 1.836115 1.463713 1.125730 1.595581 2.022554 2.223868 ]
Aggregate results:
[ 4 6 8 15 ]
[ 0.279452 0.642161 0.043387 0.035000 ]
5
Num Evals 2000
GenUC: 8.449868e-06
GenUB: 8.401163e-06
Optimisation 1.842369e-01
Total Time: 1.847255e-01
