Clock Speed: 3.689198
Num threads: 4
Trotterisation: 5
Num Qubits: 10
Space Dimension: 1024
Run-Type: 0
Num_samples: 32399
Optimiser Method: 29
1 Isomorphic
Graph 1:
0 0 1 0 0 1 
1 1 1 0 0 0 
1 1 0 0 0 0 
0 0 1 0 0 1 
1 0 1 1 1 1 
0 0 0 1 0 0 
Graph 2:
0 0 1 0 0 1 
1 1 1 0 0 0 
1 1 0 0 0 0 
0 0 1 0 0 1 
1 0 1 1 1 1 
0 0 0 1 0 0 
Solution: 36 0
Classic Expectation: 18.600000
Initial Expecation: 13.078125
Gbest: 36.000000
Expectation: 20.024561
Final Parameters:
Gammas:
[ 6.221392 4.378708 3.150546 1.765832 3.097595 ]
Betas:
[ 2.657763 2.068379 1.031622 2.386879 0.563742 ]
Aggregate results:
[ 36 24 28 32 22 14 18 16 20 26 12 30 10 0 ]
[ 0.004457 0.143379 0.023116 0.003820 0.169409 0.050704 0.143024 0.076198 0.220503 0.088452 0.008297 0.020439 0.000053 0.048149 ]
3
Num Evals 2790
GenUC: 2.598331e-04
GenUB: 1.018945e-04
Optimisation 1.275342e+01
Total Time: 1.275380e+01
2 Flipped
Graph 1:
0 0 1 0 0 1 
1 1 1 0 0 0 
1 1 0 0 0 0 
0 0 1 0 0 1 
1 0 1 1 1 1 
0 0 0 1 0 0 
Graph 2:
1 0 0 1 0 0 
0 0 0 1 1 1 
0 0 0 0 1 1 
1 0 0 1 0 0 
1 1 1 1 0 1 
0 0 1 0 0 0 
Solution: 28 126
Classic Expectation: 18.600000
Initial Expecation: 13.078125
Gbest: 28.000000
Expectation: 16.974933
Final Parameters:
Gammas:
[ 6.283185 5.902584 3.058623 1.764286 3.132158 ]
Betas:
[ 1.443537 2.399847 1.230141 2.391967 2.380682 ]
Aggregate results:
[ 14 10 18 24 20 22 16 8 12 28 26 0 ]
[ 0.057921 0.000593 0.243817 0.049675 0.245740 0.137993 0.126334 0.000441 0.007458 0.002568 0.016935 0.110527 ]
3
Num Evals 4091
GenUC: 2.799006e-04
GenUB: 5.064998e-05
Optimisation 1.391215e+01
Total Time: 1.391248e+01
3 Add 6
Graph 1:
0 0 1 0 0 1 
1 1 1 0 0 0 
1 1 0 0 0 0 
0 0 1 0 0 1 
1 0 1 1 1 1 
0 0 0 1 0 0 
Graph 2:
0 1 1 1 0 1 
1 1 1 0 0 1 
1 1 0 0 0 0 
1 1 1 0 0 1 
1 0 1 1 1 1 
0 0 1 1 0 0 
Solution: 30 0
Classic Expectation: 17.800000
Initial Expecation: 12.515625
Gbest: 30.000000
Expectation: 18.557454
Final Parameters:
Gammas:
[ 6.201907 5.116953 3.154829 1.311235 4.427677 ]
Betas:
[ 2.794387 2.613291 0.535075 1.753477 1.538793 ]
Aggregate results:
[ 30 20 24 22 16 18 26 14 10 12 28 0 ]
[ 0.009457 0.169083 0.128616 0.247269 0.082121 0.126417 0.067241 0.023058 0.003995 0.004622 0.021766 0.116355 ]
3
Num Evals 5248
GenUC: 2.804828e-04
GenUB: 5.220628e-05
Optimisation 1.703926e+01
Total Time: 1.703959e+01
4 Rem 6
Graph 1:
0 0 1 0 0 1 
1 1 1 0 0 0 
1 1 0 0 0 0 
0 0 1 0 0 1 
1 0 1 1 1 1 
0 0 0 1 0 0 
Graph 2:
0 0 0 0 0 0 
0 1 1 0 0 0 
1 1 0 0 0 0 
0 0 1 0 0 0 
0 0 1 1 1 1 
0 0 0 1 0 0 
Solution: 31 0
Classic Expectation: 19.266667
Initial Expecation: 13.546875
Gbest: 31.000000
Expectation: 17.579984
Final Parameters:
Gammas:
[ 5.018149 3.895077 3.282813 3.385020 3.272450 ]
Betas:
[ 0.036752 1.403520 1.744008 1.680701 2.195386 ]
Aggregate results:
[ 31 25 23 29 21 17 19 15 13 27 0 ]
[ 0.000364 0.040905 0.091812 0.005971 0.146042 0.216416 0.279243 0.106162 0.028155 0.009305 0.075625 ]
5
Num Evals 6000
GenUC: 2.799153e-04
GenUB: 5.100266e-05
Optimisation 2.156469e+01
Total Time: 2.156502e+01
5 Add/Rem 6
Graph 1:
0 0 1 0 0 1 
1 1 1 0 0 0 
1 1 0 0 0 0 
0 0 1 0 0 1 
1 0 1 1 1 1 
0 0 0 1 0 0 
Graph 2:
1 0 0 0 0 0 
1 1 1 1 1 0 
1 1 0 0 0 1 
0 0 1 0 1 1 
0 0 1 0 1 1 
0 0 0 1 0 1 
Solution: 26 0
Classic Expectation: 17.933333
Initial Expecation: 12.609375
Gbest: 26.000000
Expectation: 18.316612
Final Parameters:
Gammas:
[ 6.208173 4.570388 3.866904 1.700722 2.284088 ]
Betas:
[ 0.958114 1.676919 1.534446 1.563822 2.930202 ]
Aggregate results:
[ 26 22 24 18 16 20 14 12 10 0 ]
[ 0.012007 0.109336 0.095611 0.236368 0.161265 0.283707 0.047489 0.009757 0.001345 0.043115 ]
3
Num Evals 2574
GenUC: 2.792592e-04
GenUB: 4.912243e-05
Optimisation 1.125511e+01
Total Time: 1.125544e+01
