Clock Speed: 3.688139
Num threads: 4
Trotterisation: 5
Num Qubits: 10
Space Dimension: 1024
Run-Type: 0
Num_samples: 32399
Optimiser Method: 29
1 Isomorphic
Graph 1:
0 0 0 1 0 1 
0 0 0 1 1 0 
0 0 1 0 1 0 
1 0 0 1 0 0 
0 0 0 0 1 0 
0 1 1 1 1 1 
Graph 2:
0 0 0 1 0 1 
0 0 0 1 1 0 
0 0 1 0 1 0 
1 0 0 1 0 0 
0 0 0 0 1 0 
0 1 1 1 1 1 
Solution: 36 0
Classic Expectation: 20.000000
Initial Expecation: 14.062500
Gbest: 36.000000
Expectation: 17.907456
Final Parameters:
Gammas:
[ 5.906468 5.705470 2.770073 3.087922 3.100525 ]
Betas:
[ 1.341526 1.492926 2.172554 2.016938 1.940586 ]
Aggregate results:
[ 36 22 30 20 24 28 16 18 32 26 14 0 ]
[ 0.000094 0.236563 0.000030 0.169631 0.158208 0.029278 0.061588 0.083630 0.003859 0.073358 0.011992 0.171771 ]
3
Num Evals 3564
GenUC: 2.597636e-04
GenUB: 9.320758e-05
Optimisation 1.023803e+01
Total Time: 1.023841e+01
2 Flipped
Graph 1:
0 0 0 1 0 1 
0 0 0 1 1 0 
0 0 1 0 1 0 
1 0 0 1 0 0 
0 0 0 0 1 0 
0 1 1 1 1 1 
Graph 2:
1 0 1 0 0 0 
0 1 1 0 0 0 
0 1 0 1 0 0 
0 0 1 0 0 1 
0 1 0 0 0 0 
1 1 1 1 1 0 
Solution: 28 374
Classic Expectation: 18.666667
Initial Expecation: 13.125000
Gbest: 28.000000
Expectation: 17.130162
Final Parameters:
Gammas:
[ 6.203319 4.628243 3.654328 3.000872 3.283193 ]
Betas:
[ 2.636515 1.649446 1.702552 1.712841 1.630127 ]
Aggregate results:
[ 16 10 18 12 14 20 22 24 8 26 28 0 ]
[ 0.118255 0.000067 0.232291 0.015090 0.047804 0.263375 0.152134 0.045982 0.000094 0.018264 0.000436 0.106208 ]
3
Num Evals 1792
GenUC: 2.798552e-04
GenUB: 5.332782e-05
Optimisation 5.280282e+00
Total Time: 5.280622e+00
3 Add 6
Graph 1:
0 0 0 1 0 1 
0 0 0 1 1 0 
0 0 1 0 1 0 
1 0 0 1 0 0 
0 0 0 0 1 0 
0 1 1 1 1 1 
Graph 2:
0 0 0 1 1 1 
1 1 0 1 1 0 
0 0 1 0 1 1 
1 0 0 1 0 0 
0 0 1 0 1 0 
1 1 1 1 1 1 
Solution: 30 0
Classic Expectation: 18.666667
Initial Expecation: 13.125000
Gbest: 30.000000
Expectation: 18.396293
Final Parameters:
Gammas:
[ 6.206178 4.606419 3.936654 4.550917 1.951862 ]
Betas:
[ 0.975356 1.708020 1.627758 1.567855 2.933151 ]
Aggregate results:
[ 30 22 26 18 20 14 24 12 28 16 10 0 ]
[ 0.003593 0.187576 0.021679 0.191416 0.270141 0.032933 0.109348 0.015214 0.009179 0.076034 0.000835 0.082052 ]
3
Num Evals 2662
GenUC: 2.802038e-04
GenUB: 5.262828e-05
Optimisation 8.003784e+00
Total Time: 8.004120e+00
4 Rem 6
Graph 1:
0 0 0 1 0 1 
0 0 0 1 1 0 
0 0 1 0 1 0 
1 0 0 1 0 0 
0 0 0 0 1 0 
0 1 1 1 1 1 
Graph 2:
0 0 0 1 0 1 
0 0 0 0 1 0 
0 0 1 0 0 0 
0 0 0 0 0 0 
0 0 0 0 1 0 
0 1 0 1 1 1 
Solution: 31 0
Classic Expectation: 21.000000
Initial Expecation: 14.765625
Gbest: 31.000000
Expectation: 18.733791
Final Parameters:
Gammas:
[ 6.203042 5.080593 5.003741 3.129824 2.096716 ]
Betas:
[ 2.629935 1.576845 1.784421 1.763829 1.557143 ]
Aggregate results:
[ 31 21 29 23 25 19 27 17 15 0 ]
[ 0.001042 0.329974 0.008151 0.170340 0.074457 0.197802 0.014637 0.081725 0.014244 0.107629 ]
3
Num Evals 4896
GenUC: 2.799749e-04
GenUB: 5.116354e-05
Optimisation 1.647578e+01
Total Time: 1.647611e+01
5 Add/Rem 6
Graph 1:
0 0 0 1 0 1 
0 0 0 1 1 0 
0 0 1 0 1 0 
1 0 0 1 0 0 
0 0 0 0 1 0 
0 1 1 1 1 1 
Graph 2:
0 1 0 1 0 1 
0 1 1 1 1 0 
0 0 0 0 0 1 
1 0 0 0 0 1 
0 0 0 1 1 0 
0 1 1 1 0 1 
Solution: 26 0
Classic Expectation: 18.666667
Initial Expecation: 13.125000
Gbest: 26.000000
Expectation: 18.743199
Final Parameters:
Gammas:
[ 6.204464 4.611472 4.954057 1.632610 4.834002 ]
Betas:
[ 0.955463 1.644734 1.575536 1.502638 0.198050 ]
Aggregate results:
[ 26 20 22 18 16 24 14 12 0 ]
[ 0.045838 0.280262 0.250920 0.173732 0.056523 0.076700 0.031544 0.009331 0.075150 ]
3
Num Evals 2191
GenUC: 2.799151e-04
GenUB: 4.934432e-05
Optimisation 5.109453e+00
Total Time: 5.109785e+00
