Clock Speed: 3.498915
Num threads: 16
Trotterisation: 6
Num Qubits: 10
Space Dimension: 1024
Run-Type: 0
Num_samples: 36
Optimiser Method: 33
1 Isomorphic
Graph 1:
0 1 0 0 0 0 
0 0 0 1 1 1 
0 0 1 1 0 1 
1 1 1 0 1 1 
1 0 1 1 0 0 
1 1 1 1 1 0 
Graph 2:
0 1 0 0 0 0 
0 0 0 1 1 1 
0 0 1 1 0 1 
1 1 1 0 1 1 
1 0 1 1 0 0 
1 1 1 1 1 0 
Solution: 36 0
Classic Expectation: 20.400000
Initial Expecation: 14.343750
Gbest: 24.000000
Expectation: 14.343750
Final Parameters:
Gammas:
[ 3.141593 3.141593 3.141593 3.141593 3.141593 3.141593 ]
Betas:
[ 1.570796 1.570796 1.570796 1.570796 1.570796 1.570796 ]
Aggregate results:
[ 36 30 34 26 22 24 28 20 18 16 14 12 0 ]
[ 0.000977 0.007812 0.000977 0.047852 0.156250 0.071289 0.005859 0.184570 0.107422 0.092773 0.023437 0.003906 0.296875 ]
4
Num Evals 3
GenUC: 5.965130e-04
GenUB: 1.449608e-04
Optimisation 1.923229e-02
Total Time: 1.998348e-02
2 Flipped
Graph 1:
0 1 0 0 0 0 
0 0 0 1 1 1 
0 0 1 1 0 1 
1 1 1 0 1 1 
1 0 1 1 0 0 
1 1 1 1 1 0 
Graph 2:
0 0 0 0 1 0 
1 1 1 0 0 0 
1 0 1 1 0 0 
1 1 0 1 1 1 
0 0 1 1 0 1 
0 1 1 1 1 1 
Solution: 26 74
Classic Expectation: 17.600000
Initial Expecation: 12.375000
Gbest: 24.000000
Expectation: 15.789336
Final Parameters:
Gammas:
[ 5.437936 3.141593 5.437936 3.141593 4.941558 3.419243 ]
Betas:
[ 1.570796 1.570796 1.570796 1.570796 2.292224 1.570796 ]
Aggregate results:
[ 20 18 16 22 14 24 26 12 10 8 0 ]
[ 0.205307 0.256444 0.177802 0.076781 0.095065 0.026016 0.006074 0.028462 0.006674 0.001458 0.119916 ]
3
Num Evals 23
GenUC: 3.637900e-04
GenUB: 1.287931e-04
Optimisation 1.420285e-01
Total Time: 1.425237e-01
3 Add 6
Graph 1:
0 1 0 0 0 0 
0 0 0 1 1 1 
0 0 1 1 0 1 
1 1 1 0 1 1 
1 0 1 1 0 0 
1 1 1 1 1 0 
Graph 2:
1 1 1 0 0 0 
0 1 0 1 1 1 
1 0 1 1 0 1 
1 1 1 0 1 1 
1 0 1 1 0 0 
1 1 1 1 1 1 
Solution: 31 0
Classic Expectation: 18.933333
Initial Expecation: 13.312500
Gbest: 23.000000
Expectation: 13.312500
Final Parameters:
Gammas:
[ 3.141593 3.141593 3.141593 3.141593 3.141593 3.141593 ]
Betas:
[ 1.570796 1.570796 1.570796 1.570796 1.570796 1.570796 ]
Aggregate results:
[ 31 25 29 23 19 21 27 17 15 13 11 0 ]
[ 0.000977 0.023437 0.000977 0.073242 0.187500 0.138672 0.004883 0.166016 0.082031 0.022461 0.002930 0.296875 ]
4
Num Evals 3
GenUC: 3.642421e-04
GenUB: 1.217253e-04
Optimisation 1.793533e-02
Total Time: 1.842360e-02
4 Rem 6
Graph 1:
0 1 0 0 0 0 
0 0 0 1 1 1 
0 0 1 1 0 1 
1 1 1 0 1 1 
1 0 1 1 0 0 
1 1 1 1 1 0 
Graph 2:
0 1 0 0 0 0 
0 0 0 0 1 1 
0 0 1 1 0 1 
1 0 1 0 0 1 
1 0 0 1 0 0 
1 1 1 1 0 0 
Solution: 31 0
Classic Expectation: 19.066667
Initial Expecation: 13.406250
Gbest: 25.000000
Expectation: 13.826378
Final Parameters:
Gammas:
[ 3.219821 3.219821 5.429754 5.429754 5.429754 5.429754 ]
Betas:
[ 2.575951 2.575951 2.410477 2.410477 2.410477 2.410464 ]
Aggregate results:
[ 31 27 25 29 23 21 19 17 15 13 11 0 ]
[ 0.000810 0.005060 0.025224 0.006096 0.070124 0.168809 0.202291 0.129734 0.096831 0.014320 0.001072 0.279629 ]
3
Num Evals 54
GenUC: 3.637439e-04
GenUB: 1.185378e-04
Optimisation 4.173533e-01
Total Time: 4.178378e-01
5 Add/Rem 6
Graph 1:
0 1 0 0 0 0 
0 0 0 1 1 1 
0 0 1 1 0 1 
1 1 1 0 1 1 
1 0 1 1 0 0 
1 1 1 1 1 0 
Graph 2:
0 1 0 0 0 1 
1 0 1 1 1 0 
1 0 0 1 1 1 
1 1 1 0 0 1 
0 0 1 1 1 0 
1 1 1 0 1 0 
Solution: 29 13
Classic Expectation: 20.666667
Initial Expecation: 14.531250
Gbest: 25.000000
Expectation: 14.531250
Final Parameters:
Gammas:
[ 3.141593 3.141593 3.141593 3.141593 3.141593 3.141593 ]
Betas:
[ 1.570796 1.570796 1.570796 1.570796 1.570796 1.570796 ]
Aggregate results:
[ 25 21 23 19 29 27 17 15 13 0 ]
[ 0.064453 0.192383 0.125977 0.178711 0.003906 0.020508 0.085937 0.026367 0.004883 0.296875 ]
4
Num Evals 3
GenUC: 3.653467e-04
GenUB: 1.195418e-04
Optimisation 1.765418e-02
Total Time: 1.814136e-02
