Clock Speed: 3.689313
Num threads: 4
Trotterisation: 4
Graph Size: 3
Num Qubits: 3
Space Dimension: 8
Run-Type: 0
Num_samples: 10
1 Isomorphic
Graph 1:
0 0 0 
0 1 1 
0 1 1 
Graph 2:
0 0 0 
0 1 1 
0 1 1 
Solution: 0 0
Gbest: 0.000000
Expectation: -0.999351
Final Parameters:
Gammas:
[ 4.954291 4.489146 2.785145 3.434728 ]
Betas:
[ 2.387211 1.408903 1.296177 2.478168 1.707406 ]
Aggregate results:
[ -1 5 8 ]
[ 0.850262 0.116097 0.033641 ]
5
Num Evals 300
GenUC: 1.429991e-04
GenUB: 7.777373e-06
Optimisation 8.066493e-02
Total Time: 8.110122e-02
2 Flipped
Graph 1:
0 0 0 
0 1 1 
0 1 1 
Graph 2:
0 0 0 
1 1 0 
1 1 0 
Solution: -4 0
Gbest: -4.000000
Expectation: -4.201383
Final Parameters:
Gammas:
[ 3.624272 4.514591 2.970056 3.047311 ]
Betas:
[ 1.609094 2.179157 2.066574 1.523758 2.010556 ]
Aggregate results:
[ 3 5 8 ]
[ 0.921263 0.064101 0.014636 ]
5
Num Evals 600
GenUC: 6.490431e-06
GenUB: 5.371330e-06
Optimisation 9.179393e-02
Total Time: 9.222505e-02
3 Add 3
Graph 1:
0 0 0 
0 1 1 
0 1 1 
Graph 2:
1 1 1 
0 1 1 
0 1 1 
Solution: -3 0
Gbest: -3.000000
Expectation: -3.273522
Final Parameters:
Gammas:
[ 6.064338 5.320961 3.394596 2.379972 ]
Betas:
[ 2.851911 0.661266 1.307117 0.723595 1.026723 ]
Aggregate results:
[ 2 4 8 ]
[ 0.878821 0.113388 0.007791 ]
5
Num Evals 900
GenUC: 7.767987e-06
GenUB: 5.626614e-06
Optimisation 7.126452e-02
Total Time: 7.150644e-02
4 Rem 3
Graph 1:
0 0 0 
0 1 1 
0 1 1 
Graph 2:
0 0 0 
0 0 0 
0 0 1 
Solution: -3 0
Gbest: -3.000000
Expectation: -3.000005
Final Parameters:
Gammas:
[ 6.152635 4.712162 2.629283 2.623255 ]
Betas:
[ 1.900484 0.377034 1.132615 0.981380 1.411538 ]
Aggregate results:
[ 2 4 8 ]
[ 0.999998 0.000002 0.000000 ]
5
Num Evals 1200
GenUC: 6.826696e-06
GenUB: 5.448208e-06
Optimisation 6.589681e-02
Total Time: 6.613877e-02
5 Add/Rem 3
Graph 1:
0 0 0 
0 1 1 
0 1 1 
Graph 2:
0 0 1 
1 1 1 
0 0 0 
Solution: -4 0
Gbest: -4.000000
Expectation: -4.201383
Final Parameters:
Gammas:
[ 3.624272 4.514591 2.970056 3.047311 ]
Betas:
[ 1.609094 2.179157 2.066574 1.523758 2.010556 ]
Aggregate results:
[ 3 5 8 ]
[ 0.921263 0.064101 0.014636 ]
5
Num Evals 1500
GenUC: 6.121903e-06
GenUB: 5.320282e-06
Optimisation 7.669282e-02
Total Time: 7.696341e-02
