Clock Speed: 3.688873
Num threads: 4
Trotterisation: 4
Graph Size: 3
Num Qubits: 3
Space Dimension: 8
Run-Type: 0
Num_samples: 10
1 Isomorphic
Graph 1:
0 1 1 
1 0 0 
0 1 0 
Graph 2:
0 1 1 
1 0 0 
0 1 0 
Solution: 0 0
Gbest: 0.000000
Expectation: -1.379923
Final Parameters:
Gammas:
[ 4.660165 3.278390 3.351322 3.447764 ]
Betas:
[ 2.208369 1.650547 1.330394 2.028882 0.839882 ]
Aggregate results:
[ -1 3 1 8 ]
[ 0.664988 0.261346 0.046922 0.026744 ]
5
Num Evals 300
GenUC: 1.420954e-04
GenUB: 7.474562e-06
Optimisation 7.725811e-02
Total Time: 7.768085e-02
2 Flipped
Graph 1:
0 1 1 
1 0 0 
0 1 0 
Graph 2:
1 1 0 
0 0 1 
0 1 0 
Solution: -2 5
Gbest: -2.000000
Expectation: -3.595531
Final Parameters:
Gammas:
[ 4.739644 5.160703 4.469758 5.165188 ]
Betas:
[ 1.941159 2.340148 2.985062 2.236591 1.669801 ]
Aggregate results:
[ 3 5 1 8 ]
[ 0.495784 0.105463 0.372737 0.026016 ]
5
Num Evals 600
GenUC: 6.733972e-06
GenUB: 5.089067e-06
Optimisation 9.812593e-02
Total Time: 9.843886e-02
3 Add 3
Graph 1:
0 1 1 
1 0 0 
0 1 0 
Graph 2:
0 1 1 
1 1 1 
0 1 1 
Solution: -3 0
Gbest: -3.000000
Expectation: -3.174219
Final Parameters:
Gammas:
[ 4.588717 3.622009 2.746416 4.965208 ]
Betas:
[ 1.785451 2.775591 1.379887 2.228759 0.881847 ]
Aggregate results:
[ 2 4 8 ]
[ 0.927119 0.065767 0.007114 ]
5
Num Evals 900
GenUC: 8.276184e-06
GenUB: 5.399503e-06
Optimisation 7.867993e-02
Total Time: 7.895485e-02
4 Rem 3
Graph 1:
0 1 1 
1 0 0 
0 1 0 
Graph 2:
0 0 1 
1 0 0 
0 0 0 
Solution: -2 0
Gbest: -2.000000
Expectation: -2.592303
Final Parameters:
Gammas:
[ 5.244132 4.889627 4.761223 3.279971 ]
Betas:
[ 2.539648 1.485483 1.344564 2.513928 2.334876 ]
Aggregate results:
[ 1 3 5 8 ]
[ 0.729050 0.254515 0.010590 0.005845 ]
5
Num Evals 1200
GenUC: 6.948161e-06
GenUB: 5.557959e-06
Optimisation 8.056780e-02
Total Time: 8.086124e-02
5 Add/Rem 3
Graph 1:
0 1 1 
1 0 0 
0 1 0 
Graph 2:
0 1 0 
0 1 1 
0 1 1 
Solution: -3 5
Gbest: -3.000000
Expectation: -4.291324
Final Parameters:
Gammas:
[ 5.215075 2.332685 3.067141 2.778301 ]
Betas:
[ 1.408807 2.272541 1.322643 1.297649 1.332950 ]
Aggregate results:
[ 4 6 2 8 ]
[ 0.528372 0.008222 0.429790 0.033615 ]
5
Num Evals 1500
GenUC: 6.235161e-06
GenUB: 5.343754e-06
Optimisation 7.478479e-02
Total Time: 7.504443e-02
