Clock Speed: 3.688958
Num threads: 4
Trotterisation: 6
Graph Size: 6
Num Qubits: 10
Space Dimension: 1024
Run-Type: 0
Num_samples: 10
1 Isomorphic
Graph 1:
1 1 1 1 1 0 
0 0 0 0 1 1 
0 0 0 1 1 1 
1 0 0 1 0 1 
0 1 1 1 0 1 
0 0 0 0 1 0 
Graph 2:
1 1 1 1 1 0 
0 0 0 0 1 1 
0 0 0 1 1 1 
1 0 0 1 0 1 
0 1 1 1 0 1 
0 0 0 0 1 0 
Solution: 0 0
Gbest: -12.000000
Expectation: -20.116345
Final Parameters:
Gammas:
[ 3.103641 4.647121 0.107682 0.547702 0.099562 3.134352 ]
Betas:
[ 1.360308 2.016295 0.112924 1.614143 1.988253 0.990958 0.240851 ]
Aggregate results:
[ -1 13 1 11 17 7 19 15 5 9 21 23 25 35 ]
[ 0.002902 0.095067 0.000870 0.034659 0.247982 0.020137 0.192193 0.167457 0.000781 0.008198 0.060471 0.020824 0.004153 0.144307 ]
5
Num Evals 600
GenUC: 2.773162e-04
GenUB: 1.964265e-04
Optimisation 1.673726e+00
Total Time: 1.676764e+00
2 Flipped
Graph 1:
1 1 1 1 1 0 
0 0 0 0 1 1 
0 0 0 1 1 1 
1 0 0 1 0 1 
0 1 1 1 0 1 
0 0 0 0 1 0 
Graph 2:
0 1 1 1 1 1 
1 1 0 0 0 0 
1 1 1 0 0 0 
1 0 1 0 0 1 
1 0 1 1 1 0 
0 1 0 0 0 0 
Solution: -8 341
Gbest: -14.000000
Expectation: -21.740975
Final Parameters:
Gammas:
[ 0.169703 6.144193 5.730728 0.612092 5.863042 0.730778 ]
Betas:
[ 0.420715 2.985405 2.216003 0.044100 1.599462 3.073768 0.903369 ]
Aggregate results:
[ 19 17 15 13 21 11 9 23 25 27 7 35 ]
[ 0.181296 0.219254 0.150406 0.085874 0.082849 0.024786 0.010005 0.029173 0.005363 0.001094 0.003108 0.206791 ]
5
Num Evals 1200
GenUC: 1.285328e-04
GenUB: 1.492429e-04
Optimisation 1.658308e+00
Total Time: 1.661291e+00
3 Add 6
Graph 1:
1 1 1 1 1 0 
0 0 0 0 1 1 
0 0 0 1 1 1 
1 0 0 1 0 1 
0 1 1 1 0 1 
0 0 0 0 1 0 
Graph 2:
1 1 1 1 1 1 
1 0 0 0 1 1 
0 1 0 1 1 1 
1 0 0 1 0 1 
0 1 1 1 0 1 
1 0 0 1 1 0 
Solution: -5 0
Gbest: -13.000000
Expectation: -20.858365
Final Parameters:
Gammas:
[ 2.877855 5.195563 5.346972 3.021185 4.074689 6.181092 ]
Betas:
[ 2.895787 1.753324 0.302110 3.043100 2.966170 3.071828 1.731311 ]
Aggregate results:
[ 4 14 6 12 16 18 10 8 20 22 26 24 35 ]
[ 0.005402 0.132653 0.006599 0.083762 0.240425 0.158756 0.028765 0.010855 0.093118 0.020946 0.000642 0.010598 0.207479 ]
5
Num Evals 1800
GenUC: 1.208964e-04
GenUB: 1.704107e-04
Optimisation 1.663019e+00
Total Time: 1.666534e+00
4 Rem 6
Graph 1:
1 1 1 1 1 0 
0 0 0 0 1 1 
0 0 0 1 1 1 
1 0 0 1 0 1 
0 1 1 1 0 1 
0 0 0 0 1 0 
Graph 2:
1 1 1 0 1 0 
0 0 0 0 1 1 
0 0 0 1 0 1 
0 0 0 1 0 1 
0 1 1 1 0 0 
0 0 0 0 0 0 
Solution: -5 0
Gbest: -17.000000
Expectation: -20.308631
Final Parameters:
Gammas:
[ 0.088263 3.064958 2.981848 3.441849 0.342674 3.037997 ]
Betas:
[ 0.790905 2.448525 0.798144 1.705754 1.122109 0.427038 1.090449 ]
Aggregate results:
[ 4 14 6 16 12 8 18 10 20 22 24 26 28 35 ]
[ 0.001294 0.154518 0.000910 0.219384 0.040505 0.006956 0.201767 0.019413 0.146397 0.053469 0.017419 0.010435 0.000048 0.127486 ]
5
Num Evals 2400
GenUC: 1.298032e-04
GenUB: 1.679213e-04
Optimisation 1.676960e+00
Total Time: 1.679617e+00
5 Add/Rem 6
Graph 1:
1 1 1 1 1 0 
0 0 0 0 1 1 
0 0 0 1 1 1 
1 0 0 1 0 1 
0 1 1 1 0 1 
0 0 0 0 1 0 
Graph 2:
1 0 1 1 1 0 
0 1 0 0 1 1 
0 0 0 1 1 0 
1 0 0 0 1 1 
1 1 0 0 1 1 
0 1 1 0 1 0 
Solution: -11 0
Gbest: -15.000000
Expectation: -21.183184
Final Parameters:
Gammas:
[ 6.190481 0.422493 3.807461 5.970848 4.059765 1.700110 ]
Betas:
[ 1.244322 0.636975 1.756448 2.665389 1.969332 1.371159 1.575445 ]
Aggregate results:
[ 10 18 16 12 14 20 22 24 35 ]
[ 0.015555 0.275460 0.154774 0.057026 0.107818 0.157195 0.056677 0.012175 0.163321 ]
5
Num Evals 3000
GenUC: 1.395278e-04
GenUB: 1.784239e-04
Optimisation 1.625372e+00
Total Time: 1.628524e+00
