Clock Speed: 3.688731
Num threads: 4
Trotterisation: 1
Num Qubits: 7
Space Dimension: 128
Run-Type: 0
Num_samples: 5
Optimiser Method: 29
1 Isomorphic
Graph 1:
0 1 1 1 1 
1 0 1 1 0 
1 1 0 1 1 
1 1 1 0 1 
1 0 1 1 0 
Graph 2:
0 1 1 1 1 
1 0 1 1 0 
1 1 0 1 1 
1 1 1 0 1 
1 0 1 1 0 
Solution: 25 0
Classic Expectation: 21.400000
Initial Expecation: 20.062500
Gbest: 25.000000
Expectation: 20.446714
Final Parameters:
Gammas:
[ 2.694567 ]
Betas:
[ 1.946573 ]
Aggregate results:
[ 25 21 0 ]
[ 0.109805 0.842932 0.047262 ]
4
Num Evals 172
GenUC: 4.110863e-05
GenUB: 1.285646e-05
Optimisation 4.986210e-01
Total Time: 4.986985e-01
2 Flipped
Graph 1:
0 1 1 1 1 
1 0 1 1 0 
1 1 0 1 1 
1 1 1 0 1 
1 0 1 1 0 
Graph 2:
1 1 1 1 0 
0 1 1 0 1 
1 1 0 1 1 
1 0 1 1 1 
0 1 1 0 1 
Solution: 17 1
Classic Expectation: 14.200000
Initial Expecation: 13.312500
Gbest: 17.000000
Expectation: 13.366216
Final Parameters:
Gammas:
[ 4.354580 ]
Betas:
[ 1.664851 ]
Aggregate results:
[ 13 17 15 0 ]
[ 0.567454 0.189364 0.184675 0.058507 ]
4
Num Evals 190
GenUC: 4.419012e-05
GenUB: 2.835019e-06
Optimisation 7.482404e-01
Total Time: 7.482896e-01
3 Add 5
Graph 1:
0 1 1 1 1 
1 0 1 1 0 
1 1 0 1 1 
1 1 1 0 1 
1 0 1 1 0 
Graph 2:
0 1 1 1 1 
1 1 1 1 1 
1 1 1 1 1 
1 1 1 1 1 
1 1 1 1 0 
Solution: 20 0
Classic Expectation: 20.000000
Initial Expecation: 18.750000
Gbest: 20.000000
Expectation: 18.763690
Final Parameters:
Gammas:
[ 1.601879 ]
Betas:
[ 1.881623 ]
Aggregate results:
[ 20 0 ]
[ 0.938185 0.061815 ]
4
Num Evals 208
GenUC: 4.454105e-05
GenUB: 6.661205e-06
Optimisation 7.209816e-01
Total Time: 7.210351e-01
4 Rem 5
Graph 1:
0 1 1 1 1 
1 0 1 1 0 
1 1 0 1 1 
1 1 1 0 1 
1 0 1 1 0 
Graph 2:
0 0 0 0 0 
0 0 1 0 0 
0 1 0 1 1 
0 0 1 0 1 
0 0 1 1 0 
Solution: 15 0
Classic Expectation: 13.400000
Initial Expecation: 12.562500
Gbest: 15.000000
Expectation: 13.457729
Final Parameters:
Gammas:
[ 2.502191 ]
Betas:
[ 2.238932 ]
Aggregate results:
[ 15 11 0 ]
[ 0.695283 0.275317 0.029400 ]
4
Num Evals 204
GenUC: 4.568010e-05
GenUB: 6.103121e-06
Optimisation 5.460584e-01
Total Time: 5.461129e-01
5 Add/Rem 5
Graph 1:
0 1 1 1 1 
1 0 1 1 0 
1 1 0 1 1 
1 1 1 0 1 
1 0 1 1 0 
Graph 2:
1 0 0 0 0 
0 1 0 1 1 
0 0 1 1 1 
0 1 1 1 1 
0 1 1 1 0 
Solution: 13 3
Classic Expectation: 11.000000
Initial Expecation: 10.312500
Gbest: 13.000000
Expectation: 10.354576
Final Parameters:
Gammas:
[ 4.269578 ]
Betas:
[ 1.281811 ]
Aggregate results:
[ 9 13 0 ]
[ 0.552530 0.413985 0.033485 ]
4
Num Evals 184
GenUC: 4.529807e-05
GenUB: 7.940514e-06
Optimisation 3.780502e-01
Total Time: 3.781056e-01
