Clock Speed: 1.518964
Num threads: 12
Trotterisation: 6
Graph Size: 8
Num Qubits: 16
Space Dimension: 65536
Run-Type: 0
Num_samples: 1
1 Isomorphic
Graph 1:
0 1 0 0 0 1 1 0 
1 0 1 0 1 0 0 0 
0 0 1 0 1 1 1 0 
1 1 1 1 0 1 0 0 
0 1 0 0 1 0 1 0 
0 0 1 0 1 1 0 0 
1 0 0 1 1 0 0 1 
1 1 1 1 1 0 0 0 
Graph 2:
0 1 0 0 0 1 1 0 
1 0 1 0 1 0 0 0 
0 0 1 0 1 1 1 0 
1 1 1 1 0 1 0 0 
0 1 0 0 1 0 1 0 
0 0 1 0 1 1 0 0 
1 0 0 1 1 0 0 1 
1 1 1 1 1 0 0 0 
Solution: 0 0
Expectation: -44.224609
Final Parameters:
Gammas:
[ 3.141593 3.141593 3.141593 3.141593 3.141593 3.141593 ]
Betas:
[ 2.356194 2.356194 1.570796 1.570796 1.570796 1.570796 1.570796 ]
Aggregate results:
[ 0 12 18 16 10 26 22 24 14 28 20 30 32 34 8 36 38 40 42 44 46 64 ]
[ 0.000015 0.000122 0.001236 0.000641 0.000076 0.042313 0.007858 0.021942 0.000153 0.072891 0.003220 0.101135 0.115051 0.107010 0.000031 0.072510 0.042374 0.019882 0.005280 0.001434 0.000061 0.384766 ]
3
Num Evals 14
GenUC: 1.459981e-02
GenUB: 3.090341e-02
Optimisation 7.454555e+00
Total Time: 8.047054e+00
2 Flipped
Graph 1:
0 1 0 0 0 1 1 0 
1 0 1 0 1 0 0 0 
0 0 1 0 1 1 1 0 
1 1 1 1 0 1 0 0 
0 1 0 0 1 0 1 0 
0 0 1 0 1 1 0 0 
1 0 0 1 1 0 0 1 
1 1 1 1 1 0 0 0 
Graph 2:
0 1 1 0 0 0 1 0 
0 0 0 1 0 1 0 1 
0 1 1 1 0 1 0 0 
0 0 1 0 1 1 1 1 
0 1 0 1 0 0 1 0 
0 0 1 1 0 1 0 0 
1 0 0 1 1 0 0 1 
0 0 0 1 1 1 1 1 
Solution: -18 2765
Expectation: -44.268555
Final Parameters:
Gammas:
[ 3.141593 3.141593 3.141593 3.141593 3.141593 3.141593 ]
Betas:
[ 2.356194 2.356194 1.570796 1.570796 1.570796 1.570796 1.570796 ]
Aggregate results:
[ 28 30 34 32 36 22 26 24 38 40 20 44 42 46 18 48 50 64 ]
[ 0.074753 0.109650 0.106308 0.121964 0.073593 0.005600 0.042206 0.018036 0.038147 0.016800 0.001221 0.001434 0.005081 0.000290 0.000076 0.000061 0.000015 0.384766 ]
3
Num Evals 28
GenUC: 6.567376e-03
GenUB: 2.933320e-02
Optimisation 6.823388e+00
Total Time: 7.361517e+00
3 Add 8
Graph 1:
0 1 0 0 0 1 1 0 
1 0 1 0 1 0 0 0 
0 0 1 0 1 1 1 0 
1 1 1 1 0 1 0 0 
0 1 0 0 1 0 1 0 
0 0 1 0 1 1 0 0 
1 0 0 1 1 0 0 1 
1 1 1 1 1 0 0 0 
Graph 2:
0 1 0 0 0 1 1 0 
1 1 1 0 1 0 0 0 
1 0 1 0 1 1 1 1 
1 1 1 1 1 1 0 0 
0 1 0 1 1 0 1 0 
0 0 1 0 1 1 0 0 
1 0 1 1 1 0 0 1 
1 1 1 1 1 1 0 0 
Solution: -7 0
Expectation: -30.598813
Final Parameters:
Gammas:
[ 3.199552 4.869775 3.151525 3.114603 2.906307 4.595817 ]
Betas:
[ 1.702486 2.063094 1.555803 1.597429 1.541403 1.591990 1.694241 ]
Aggregate results:
[ 7 19 23 15 21 25 27 17 29 33 13 31 11 35 39 37 41 43 45 47 49 64 ]
[ 0.000095 0.008038 0.063650 0.000998 0.025462 0.116317 0.174497 0.004051 0.190791 0.101751 0.000433 0.163306 0.000125 0.048318 0.016886 0.024572 0.010767 0.004314 0.000868 0.000329 0.000042 0.044391 ]
5
Num Evals 828
GenUC: 7.864445e-03
GenUB: 2.893635e-02
Optimisation 3.954832e+02
Total Time: 3.960080e+02
4 Rem 8
Graph 1:
0 1 0 0 0 1 1 0 
1 0 1 0 1 0 0 0 
0 0 1 0 1 1 1 0 
1 1 1 1 0 1 0 0 
0 1 0 0 1 0 1 0 
0 0 1 0 1 1 0 0 
1 0 0 1 1 0 0 1 
1 1 1 1 1 0 0 0 
Graph 2:
0 1 0 0 0 1 1 0 
0 0 1 0 1 0 0 0 
0 0 0 0 0 1 1 0 
1 1 1 1 0 0 0 0 
0 1 0 0 1 0 1 0 
0 0 0 0 1 0 0 0 
1 0 0 1 1 0 0 1 
1 1 0 1 1 0 0 0 
Solution: -7 0
Expectation: -31.196747
Final Parameters:
Gammas:
[ 3.191605 4.474067 3.337982 2.940594 4.262252 3.229273 ]
Betas:
[ 1.593436 2.120614 1.517639 1.498227 1.525926 1.559422 1.582208 ]
Aggregate results:
[ 7 19 17 11 21 25 29 27 23 15 31 33 35 13 37 39 41 43 45 64 ]
[ 0.000159 0.010222 0.002924 0.000172 0.024452 0.110787 0.174955 0.163269 0.057074 0.001372 0.151722 0.107475 0.069462 0.000581 0.042270 0.020479 0.007427 0.001574 0.000218 0.053406 ]
5
Num Evals 1628
GenUC: 7.527650e-03
GenUB: 2.916921e-02
Optimisation 4.053434e+02
Total Time: 4.058872e+02
5 Add/Rem 8
Graph 1:
0 1 0 0 0 1 1 0 
1 0 1 0 1 0 0 0 
0 0 1 0 1 1 1 0 
1 1 1 1 0 1 0 0 
0 1 0 0 1 0 1 0 
0 0 1 0 1 1 0 0 
1 0 0 1 1 0 0 1 
1 1 1 1 1 0 0 0 
Graph 2:
0 1 0 0 0 1 1 0 
1 0 1 1 1 0 0 0 
0 0 0 0 1 1 1 0 
1 1 1 1 0 1 0 1 
0 1 1 1 0 0 1 1 
1 0 0 1 0 1 0 0 
1 0 0 0 1 0 0 0 
1 0 1 1 0 1 0 0 
Solution: -14 2925
Expectation: -44.312500
Final Parameters:
Gammas:
[ 3.141593 3.141593 3.141593 3.141593 3.141593 3.141593 ]
Betas:
[ 2.356194 2.356194 1.570796 1.570796 1.570796 1.570796 1.570796 ]
Aggregate results:
[ 16 28 30 26 20 32 38 36 24 34 22 18 42 40 14 44 46 64 ]
[ 0.000137 0.070938 0.106171 0.040207 0.001907 0.118393 0.040375 0.077728 0.017914 0.110596 0.006790 0.000458 0.005508 0.016663 0.000015 0.001251 0.000183 0.384766 ]
3
Num Evals 1642
GenUC: 7.604947e-03
GenUB: 2.924390e-02
Optimisation 6.871997e+00
Total Time: 7.414208e+00
