Clock Speed: 3.688901
Num threads: 4
Trotterisation: 3
Num Qubits: 10
Space Dimension: 1024
Run-Type: 0
Num_samples: 32399
Optimiser Method: 20
1 Isomorphic
Graph 1:
0 0 0 0 1 1 
1 1 0 0 0 0 
1 0 0 0 0 0 
1 1 0 1 0 0 
1 1 1 1 0 1 
0 1 1 0 1 1 
Graph 2:
0 0 0 0 1 1 
1 1 0 0 0 0 
1 0 0 0 0 0 
1 1 0 1 0 0 
1 1 1 1 0 1 
0 1 1 0 1 1 
Solution: 36 0
Classic Expectation: 18.066667
Initial Expecation: 12.703125
Gbest: 36.000000
Expectation: 17.310667
Final Parameters:
Gammas:
[ 3.037015 3.308110 1.499517 ]
Betas:
[ 1.063859 1.843511 0.083265 ]
Aggregate results:
[ 36 30 24 28 26 22 20 18 16 14 32 12 10 0 ]
[ 0.002692 0.010867 0.082770 0.007792 0.023879 0.113576 0.188460 0.205712 0.160686 0.063986 0.008869 0.023813 0.005521 0.101377 ]
5
Num Evals 3600
GenUC: 2.606876e-04
GenUB: 9.211717e-05
Optimisation 4.478547e+00
Total Time: 4.478927e+00
2 Flipped
Graph 1:
0 0 0 0 1 1 
1 1 0 0 0 0 
1 0 0 0 0 0 
1 1 0 1 0 0 
1 1 1 1 0 1 
0 1 1 0 1 1 
Graph 2:
1 1 0 0 0 0 
0 0 0 0 1 1 
0 0 0 0 0 1 
0 0 1 0 1 1 
1 0 1 1 1 1 
1 1 0 1 1 0 
Solution: 26 121
Classic Expectation: 18.000000
Initial Expecation: 12.656250
Gbest: 26.000000
Expectation: 14.904355
Final Parameters:
Gammas:
[ 2.746451 6.283185 1.446680 ]
Betas:
[ 2.026938 0.889021 3.117969 ]
Aggregate results:
[ 14 16 18 12 10 20 22 26 24 8 0 ]
[ 0.044558 0.057420 0.116333 0.038023 0.015863 0.183688 0.172285 0.027467 0.102785 0.000988 0.240589 ]
5
Num Evals 3600
GenUC: 2.803543e-04
GenUB: 5.045929e-05
Optimisation 6.661265e+00
Total Time: 6.661598e+00
3 Add 6
Graph 1:
0 0 0 0 1 1 
1 1 0 0 0 0 
1 0 0 0 0 0 
1 1 0 1 0 0 
1 1 1 1 0 1 
0 1 1 0 1 1 
Graph 2:
0 0 0 1 1 1 
1 1 1 0 1 0 
1 0 1 0 0 0 
1 1 0 1 0 1 
1 1 1 1 0 1 
0 1 1 0 1 1 
Solution: 31 0
Classic Expectation: 17.800000
Initial Expecation: 12.515625
Gbest: 31.000000
Expectation: 16.012532
Final Parameters:
Gammas:
[ 2.532013 0.691359 1.642472 ]
Betas:
[ 3.141593 0.948066 1.721955 ]
Aggregate results:
[ 31 25 23 27 17 21 19 15 29 13 11 9 0 ]
[ 0.000183 0.021500 0.065856 0.009009 0.223816 0.120747 0.199314 0.148065 0.001838 0.067996 0.033384 0.006497 0.101796 ]
5
Num Evals 3600
GenUC: 2.794218e-04
GenUB: 5.085947e-05
Optimisation 6.445998e+00
Total Time: 6.446331e+00
4 Rem 6
Graph 1:
0 0 0 0 1 1 
1 1 0 0 0 0 
1 0 0 0 0 0 
1 1 0 1 0 0 
1 1 1 1 0 1 
0 1 1 0 1 1 
Graph 2:
0 0 0 0 1 1 
0 1 0 0 0 0 
1 0 0 0 0 0 
1 0 0 1 0 0 
1 0 1 1 0 1 
0 1 0 0 1 1 
Solution: 32 0
Classic Expectation: 18.333333
Initial Expecation: 12.890625
Gbest: 32.000000
Expectation: 17.016632
Final Parameters:
Gammas:
[ 3.230269 1.546948 4.023237 ]
Betas:
[ 2.308066 2.985322 1.368103 ]
Aggregate results:
[ 32 26 20 22 30 24 18 16 14 12 28 10 0 ]
[ 0.001836 0.010738 0.186318 0.128868 0.007194 0.058390 0.242964 0.142578 0.098858 0.032766 0.002012 0.001192 0.086286 ]
5
Num Evals 3600
GenUC: 2.801566e-04
GenUB: 5.132548e-05
Optimisation 7.119481e+00
Total Time: 7.119815e+00
5 Add/Rem 6
Graph 1:
0 0 0 0 1 1 
1 1 0 0 0 0 
1 0 0 0 0 0 
1 1 0 1 0 0 
1 1 1 1 0 1 
0 1 1 0 1 1 
Graph 2:
1 0 0 0 1 1 
0 1 0 0 1 1 
1 0 0 0 1 1 
0 1 0 0 0 0 
1 1 0 1 0 0 
1 1 1 0 0 1 
Solution: 26 351
Classic Expectation: 18.066667
Initial Expecation: 12.703125
Gbest: 26.000000
Expectation: 16.239406
Final Parameters:
Gammas:
[ 6.031433 1.713751 0.884843 ]
Betas:
[ 2.128756 1.469456 3.141593 ]
Aggregate results:
[ 24 20 22 18 16 14 12 10 26 0 ]
[ 0.024653 0.239162 0.113504 0.237823 0.188538 0.062551 0.014398 0.000558 0.000613 0.118201 ]
5
Num Evals 3600
GenUC: 2.798244e-04
GenUB: 5.006319e-05
Optimisation 6.142654e+00
Total Time: 6.142987e+00
