Clock Speed: 3.689309
Num threads: 4
Trotterisation: 3
Num Qubits: 10
Space Dimension: 1024
Run-Type: 0
Num_samples: 32399
Optimiser Method: 20
1 Isomorphic
Graph 1:
1 0 0 0 1 1 
1 0 1 1 1 0 
0 0 0 0 0 0 
0 0 0 1 1 1 
0 1 1 0 1 1 
1 0 1 0 0 1 
Graph 2:
1 0 0 0 1 1 
1 0 1 1 1 0 
0 0 0 0 0 0 
0 0 0 1 1 1 
0 1 1 0 1 1 
1 0 1 0 0 1 
Solution: 36 0
Classic Expectation: 18.600000
Initial Expecation: 13.078125
Gbest: 36.000000
Expectation: 16.677059
Final Parameters:
Gammas:
[ 3.226647 5.717146 4.083078 ]
Betas:
[ 2.423230 1.209270 3.097143 ]
Aggregate results:
[ 36 28 22 26 18 24 20 16 14 12 34 0 ]
[ 0.000631 0.002974 0.096094 0.024200 0.248128 0.032781 0.219981 0.181159 0.073519 0.016441 0.001472 0.102620 ]
5
Num Evals 3600
GenUC: 2.611665e-04
GenUB: 9.187456e-05
Optimisation 1.052016e+01
Total Time: 1.052053e+01
2 Flipped
Graph 1:
1 0 0 0 1 1 
1 0 1 1 1 0 
0 0 0 0 0 0 
0 0 0 1 1 1 
0 1 1 0 1 1 
1 0 1 0 0 1 
Graph 2:
1 1 0 0 0 1 
0 1 1 1 0 1 
0 0 0 0 0 0 
1 1 1 0 0 0 
1 1 0 1 1 0 
1 0 0 1 0 1 
Solution: 30 56
Classic Expectation: 18.600000
Initial Expecation: 13.078125
Gbest: 30.000000
Expectation: 16.623478
Final Parameters:
Gammas:
[ 0.087512 4.541127 5.082489 ]
Betas:
[ 0.305369 1.556005 1.519988 ]
Aggregate results:
[ 18 22 16 14 20 26 24 30 12 28 10 0 ]
[ 0.191828 0.120810 0.143222 0.062250 0.215865 0.025311 0.077013 0.004307 0.007281 0.010627 0.001188 0.140298 ]
5
Num Evals 3600
GenUC: 2.796382e-04
GenUB: 5.328970e-05
Optimisation 5.293422e+00
Total Time: 5.293758e+00
3 Add 6
Graph 1:
1 0 0 0 1 1 
1 0 1 1 1 0 
0 0 0 0 0 0 
0 0 0 1 1 1 
0 1 1 0 1 1 
1 0 1 0 0 1 
Graph 2:
1 0 0 1 1 1 
1 0 1 1 1 1 
0 1 0 0 1 0 
0 0 0 1 1 1 
0 1 1 0 1 1 
1 0 1 1 0 1 
Solution: 31 0
Classic Expectation: 17.933333
Initial Expecation: 12.609375
Gbest: 31.000000
Expectation: 14.542148
Final Parameters:
Gammas:
[ 2.372834 5.443196 0.093901 ]
Betas:
[ 3.026220 1.044276 0.354726 ]
Aggregate results:
[ 31 25 23 19 21 17 13 15 11 9 0 ]
[ 0.002688 0.017764 0.068284 0.197810 0.135049 0.174774 0.053811 0.139143 0.007758 0.000732 0.202187 ]
5
Num Evals 3600
GenUC: 3.052518e-04
GenUB: 5.190301e-05
Optimisation 5.524196e+00
Total Time: 5.524556e+00
4 Rem 6
Graph 1:
1 0 0 0 1 1 
1 0 1 1 1 0 
0 0 0 0 0 0 
0 0 0 1 1 1 
0 1 1 0 1 1 
1 0 1 0 0 1 
Graph 2:
1 0 0 0 1 0 
1 0 1 1 0 0 
0 0 0 0 0 0 
0 0 0 0 1 0 
0 1 1 0 0 1 
1 0 1 0 0 1 
Solution: 31 0
Classic Expectation: 18.333333
Initial Expecation: 12.890625
Gbest: 31.000000
Expectation: 15.399916
Final Parameters:
Gammas:
[ 0.448436 0.500052 5.402609 ]
Betas:
[ 2.239756 0.263529 0.942833 ]
Aggregate results:
[ 31 25 23 19 21 17 15 13 27 11 29 0 ]
[ 0.000532 0.037026 0.077141 0.210179 0.195521 0.130671 0.102821 0.049812 0.002376 0.008812 0.000407 0.184701 ]
5
Num Evals 3600
GenUC: 2.798360e-04
GenUB: 5.109375e-05
Optimisation 4.813112e+00
Total Time: 4.813446e+00
5 Add/Rem 6
Graph 1:
1 0 0 0 1 1 
1 0 1 1 1 0 
0 0 0 0 0 0 
0 0 0 1 1 1 
0 1 1 0 1 1 
1 0 1 0 0 1 
Graph 2:
1 0 0 0 0 0 
1 0 1 1 1 0 
0 0 1 0 0 0 
1 0 0 1 1 1 
0 0 1 1 1 0 
1 1 1 1 1 0 
Solution: 27 221
Classic Expectation: 18.466667
Initial Expecation: 12.984375
Gbest: 27.000000
Expectation: 17.093857
Final Parameters:
Gammas:
[ 0.712435 6.238073 2.546171 ]
Betas:
[ 0.520186 2.660418 2.552632 ]
Aggregate results:
[ 25 23 21 19 17 15 13 11 27 0 ]
[ 0.044961 0.114665 0.172700 0.150632 0.213071 0.150398 0.035550 0.010789 0.014253 0.092981 ]
5
Num Evals 3600
GenUC: 2.798290e-04
GenUB: 4.963786e-05
Optimisation 6.405037e+00
Total Time: 6.405370e+00
