Clock Speed: 3.688403
Num threads: 4
Trotterisation: 3
Graph Size: 8
Num Qubits: 16
Space Dimension: 65536
Run-Type: 0
Num_samples: 10
1 Isomorphic
Graph 1:
1 0 0 0 0 0 1 0 
0 1 1 1 0 1 1 1 
1 0 1 1 1 1 0 0 
1 0 1 0 0 1 0 1 
1 0 0 0 1 0 0 0 
1 0 1 0 0 0 1 1 
0 1 1 0 0 1 1 0 
0 0 1 0 1 1 0 1 
Graph 2:
1 0 0 0 0 0 1 0 
0 1 1 1 0 1 1 1 
1 0 1 1 1 1 0 0 
1 0 1 0 0 1 0 1 
1 0 0 0 1 0 0 0 
1 0 1 0 0 0 1 1 
0 1 1 0 0 1 1 0 
0 0 1 0 1 1 0 1 
Solution: 0 0
Gbest: -24.000000
Expectation: -39.248217
Final Parameters:
Gammas:
[ 2.619142 3.369702 3.094361 ]
Betas:
[ 2.474038 2.447381 1.745300 1.207730 ]
Aggregate results:
[ -1 17 21 15 23 25 19 27 29 11 31 33 13 9 35 37 7 39 41 43 63 ]
[ 0.000010 0.003823 0.027525 0.001737 0.055938 0.091080 0.011143 0.124156 0.130221 0.000344 0.118938 0.079683 0.000683 0.000084 0.047114 0.019390 0.000032 0.006132 0.000983 0.000147 0.280839 ]
3
Num Evals 619
GenUC: 5.434003e-03
GenUB: 2.758240e-02
Optimisation 2.014436e+02
Total Time: 2.018283e+02
2 Flipped
Graph 1:
1 0 0 0 0 0 1 0 
0 1 1 1 0 1 1 1 
1 0 1 1 1 1 0 0 
1 0 1 0 0 1 0 1 
1 0 0 0 1 0 0 0 
1 0 1 0 0 0 1 1 
0 1 1 0 0 1 1 0 
0 0 1 0 1 1 0 1 
Graph 2:
0 1 0 0 0 0 0 1 
1 1 1 0 1 1 1 0 
0 0 1 1 1 1 0 1 
1 0 1 0 0 1 0 1 
0 0 0 1 0 0 0 1 
1 1 0 0 0 1 0 1 
0 1 1 0 0 1 1 0 
1 0 1 1 0 1 0 0 
Solution: -18 2607
Gbest: -26.000000
Expectation: -37.317660
Final Parameters:
Gammas:
[ 2.797721 2.897625 3.088506 ]
Betas:
[ 2.344376 2.550285 1.604285 1.655224 ]
Aggregate results:
[ 21 27 29 23 25 33 31 37 39 35 41 19 43 45 47 17 63 ]
[ 0.012846 0.142037 0.160338 0.048423 0.095838 0.087015 0.143209 0.027987 0.015873 0.048285 0.006309 0.003055 0.001935 0.000544 0.000094 0.000485 0.205728 ]
5
Num Evals 1419
GenUC: 2.771074e-03
GenUB: 1.701489e-02
Optimisation 3.253754e+02
Total Time: 3.256903e+02
3 Add 8
Graph 1:
1 0 0 0 0 0 1 0 
0 1 1 1 0 1 1 1 
1 0 1 1 1 1 0 0 
1 0 1 0 0 1 0 1 
1 0 0 0 1 0 0 0 
1 0 1 0 0 0 1 1 
0 1 1 0 0 1 1 0 
0 0 1 0 1 1 0 1 
Graph 2:
1 0 0 0 1 0 1 0 
0 1 1 1 0 1 1 1 
1 0 1 1 1 1 0 0 
1 0 1 0 0 1 0 1 
1 1 0 0 1 0 0 0 
1 0 1 0 0 1 1 1 
0 1 1 0 1 1 1 1 
0 1 1 0 1 1 0 1 
Solution: -6 0
Gbest: -22.000000
Expectation: -33.148927
Final Parameters:
Gammas:
[ 2.815111 2.952965 3.325852 ]
Betas:
[ 2.298178 2.447959 0.689902 2.562044 ]
Aggregate results:
[ 5 21 25 19 23 27 31 33 17 29 35 37 13 15 39 41 11 9 43 63 ]
[ 0.000045 0.033285 0.145744 0.013238 0.083005 0.181828 0.124909 0.064944 0.003720 0.174147 0.029301 0.013224 0.000339 0.001295 0.005894 0.001515 0.000105 0.000020 0.000079 0.123364 ]
5
Num Evals 2219
GenUC: 3.145258e-03
GenUB: 1.687121e-02
Optimisation 2.296153e+02
Total Time: 2.299366e+02
4 Rem 8
Graph 1:
1 0 0 0 0 0 1 0 
0 1 1 1 0 1 1 1 
1 0 1 1 1 1 0 0 
1 0 1 0 0 1 0 1 
1 0 0 0 1 0 0 0 
1 0 1 0 0 0 1 1 
0 1 1 0 0 1 1 0 
0 0 1 0 1 1 0 1 
Graph 2:
1 0 0 0 0 0 1 0 
0 0 0 1 0 1 1 1 
1 0 1 0 1 1 0 0 
1 0 1 0 0 0 0 1 
1 0 0 0 1 0 0 0 
1 0 0 0 0 0 1 1 
0 1 1 0 0 1 1 0 
0 0 1 0 0 1 0 1 
Solution: -6 0
Gbest: -22.000000
Expectation: -37.398548
Final Parameters:
Gammas:
[ 2.730307 2.913478 3.020132 ]
Betas:
[ 2.581848 0.531955 1.670456 1.635733 ]
Aggregate results:
[ 5 21 25 17 23 19 29 31 15 27 13 33 35 37 39 41 11 43 45 63 ]
[ 0.000041 0.023814 0.127716 0.002012 0.072680 0.009257 0.138232 0.101472 0.000590 0.156368 0.000352 0.063178 0.035736 0.020517 0.009154 0.002489 0.000126 0.000268 0.000038 0.235959 ]
3
Num Evals 2750
GenUC: 3.029453e-03
GenUB: 1.694740e-02
Optimisation 2.252016e+02
Total Time: 2.254848e+02
5 Add/Rem 8
Graph 1:
1 0 0 0 0 0 1 0 
0 1 1 1 0 1 1 1 
1 0 1 1 1 1 0 0 
1 0 1 0 0 1 0 1 
1 0 0 0 1 0 0 0 
1 0 1 0 0 0 1 1 
0 1 1 0 0 1 1 0 
0 0 1 0 1 1 0 1 
Graph 2:
0 0 0 0 0 1 1 0 
0 1 1 1 0 1 1 0 
1 1 1 1 1 0 0 0 
1 0 1 0 0 1 1 1 
0 0 0 0 1 0 0 1 
1 0 1 0 0 0 1 0 
0 1 0 0 1 1 1 0 
0 0 1 1 1 0 1 1 
Solution: -14 0
Gbest: -28.000000
Expectation: -34.941935
Final Parameters:
Gammas:
[ 2.817991 2.914120 3.501272 ]
Betas:
[ 2.095758 1.873340 1.227068 2.027365 ]
Aggregate results:
[ 13 23 25 29 27 31 21 33 35 37 39 19 15 41 17 43 45 63 ]
[ 0.000058 0.074170 0.134404 0.162678 0.168706 0.113116 0.032312 0.064340 0.036168 0.021334 0.010179 0.009439 0.000434 0.002841 0.002834 0.001341 0.000113 0.165534 ]
3
Num Evals 3346
GenUC: 3.191273e-03
GenUB: 1.732182e-02
Optimisation 1.671850e+02
Total Time: 1.675404e+02
