Clock Speed: 3.498807
Num threads: 16
Trotterisation: 2
Num Qubits: 10
Space Dimension: 1024
Run-Type: 0
Num_samples: 36
Optimiser Method: 12
1 Isomorphic
Graph 1:
0 0 0 1 0 0 
1 1 0 0 1 0 
1 1 0 1 1 0 
1 0 1 0 0 1 
1 0 0 0 1 0 
0 0 1 0 1 1 
Graph 2:
0 0 0 1 0 0 
1 1 0 0 1 0 
1 1 0 1 1 0 
1 0 1 0 0 1 
1 0 0 0 1 0 
0 0 1 0 1 1 
Solution: 36 0
Classic Expectation: 18.266667
Initial Expecation: 12.843750
Gbest: 28.000000
Expectation: 18.297525
Final Parameters:
Gammas:
[ 3.205884 3.053704 ]
Betas:
[ 0.877376 2.930179 ]
Aggregate results:
[ 36 24 22 26 20 18 16 32 28 14 12 10 0 ]
[ 0.004349 0.079827 0.177115 0.029246 0.208753 0.220039 0.135879 0.003342 0.007648 0.045842 0.022435 0.002627 0.062898 ]
3
Num Evals 294
GenUC: 4.521199e-04
GenUB: 1.309831e-04
Optimisation 6.609669e-01
Total Time: 6.615605e-01
2 Flipped
Graph 1:
0 0 0 1 0 0 
1 1 0 0 1 0 
1 1 0 1 1 0 
1 0 1 0 0 1 
1 0 0 0 1 0 
0 0 1 0 1 1 
Graph 2:
0 0 1 0 0 0 
0 1 0 0 1 1 
0 1 1 0 1 1 
1 0 0 1 0 1 
0 1 0 0 0 1 
1 1 0 1 0 0 
Solution: 26 63
Classic Expectation: 18.266667
Initial Expecation: 12.843750
Gbest: 24.000000
Expectation: 14.359302
Final Parameters:
Gammas:
[ 3.843483 3.570068 ]
Betas:
[ 2.338960 1.178803 ]
Aggregate results:
[ 16 18 20 14 22 24 26 12 10 8 0 ]
[ 0.162551 0.168895 0.155533 0.064662 0.110028 0.075151 0.007718 0.020038 0.003433 0.000344 0.231647 ]
3
Num Evals 166
GenUC: 3.650752e-04
GenUB: 1.387764e-04
Optimisation 3.493416e-01
Total Time: 3.498477e-01
3 Add 6
Graph 1:
0 0 0 1 0 0 
1 1 0 0 1 0 
1 1 0 1 1 0 
1 0 1 0 0 1 
1 0 0 0 1 0 
0 0 1 0 1 1 
Graph 2:
1 0 1 1 0 0 
1 1 0 0 1 1 
1 1 0 1 1 0 
1 0 1 1 0 1 
1 0 0 0 1 0 
1 0 1 1 1 1 
Solution: 30 0
Classic Expectation: 17.733333
Initial Expecation: 12.468750
Gbest: 30.000000
Expectation: 15.093595
Final Parameters:
Gammas:
[ 3.570625 2.931170 ]
Betas:
[ 2.000461 1.352374 ]
Aggregate results:
[ 30 22 20 24 16 18 14 26 12 10 8 6 0 ]
[ 0.001495 0.127521 0.225866 0.063394 0.094141 0.166721 0.048925 0.016877 0.039747 0.007466 0.000963 0.002366 0.204519 ]
3
Num Evals 190
GenUC: 3.649485e-04
GenUB: 1.339824e-04
Optimisation 3.931767e-01
Total Time: 3.936779e-01
4 Rem 6
Graph 1:
0 0 0 1 0 0 
1 1 0 0 1 0 
1 1 0 1 1 0 
1 0 1 0 0 1 
1 0 0 0 1 0 
0 0 1 0 1 1 
Graph 2:
0 0 0 0 0 0 
1 1 0 0 1 0 
0 0 0 1 0 0 
1 0 1 0 0 0 
1 0 0 0 1 0 
0 0 1 0 1 1 
Solution: 31 0
Classic Expectation: 18.933333
Initial Expecation: 13.312500
Gbest: 25.000000
Expectation: 17.182031
Final Parameters:
Gammas:
[ 3.231836 2.853189 ]
Betas:
[ 0.895103 1.798976 ]
Aggregate results:
[ 31 23 19 29 21 25 17 27 15 13 11 0 ]
[ 0.000114 0.084764 0.247566 0.001616 0.153720 0.031691 0.234504 0.003103 0.131371 0.029607 0.002918 0.079025 ]
3
Num Evals 170
GenUC: 3.689639e-04
GenUB: 1.221197e-04
Optimisation 3.119296e-01
Total Time: 3.124227e-01
5 Add/Rem 6
Graph 1:
0 0 0 1 0 0 
1 1 0 0 1 0 
1 1 0 1 1 0 
1 0 1 0 0 1 
1 0 0 0 1 0 
0 0 1 0 1 1 
Graph 2:
0 0 0 1 1 1 
1 1 0 0 0 1 
0 1 0 1 1 0 
0 1 0 1 0 0 
1 1 0 0 1 0 
0 0 1 0 1 1 
Solution: 27 174
Classic Expectation: 18.266667
Initial Expecation: 12.843750
Gbest: 23.000000
Expectation: 14.014825
Final Parameters:
Gammas:
[ 2.381635 2.715477 ]
Betas:
[ 2.233439 1.379223 ]
Aggregate results:
[ 25 19 23 21 17 15 13 11 27 9 0 ]
[ 0.013129 0.188441 0.087353 0.142380 0.170032 0.090273 0.047417 0.015969 0.001713 0.002684 0.240609 ]
3
Num Evals 190
GenUC: 3.646840e-04
GenUB: 1.119021e-04
Optimisation 4.071261e-01
Total Time: 4.076046e-01
