Clock Speed: 3.689263
Num threads: 4
Trotterisation: 5
Graph Size: 3
Num Qubits: 3
Space Dimension: 8
Run-Type: 0
Num_samples: 10
1 Isomorphic
Graph 1:
0 1 0 
1 0 0 
1 1 1 
Graph 2:
0 1 0 
1 0 0 
1 1 1 
Solution: 0 0
Gbest: 0.000000
Expectation: -0.006654
Final Parameters:
Gammas:
[ 5.441887 4.718602 3.850992 1.767146 0.707123 ]
Betas:
[ 3.097100 3.034318 2.344840 1.665999 1.968349 1.917504 ]
Aggregate results:
[ -1 5 8 ]
[ 0.999210 0.000152 0.000638 ]
5
Num Evals 300
GenUC: 1.147655e-04
GenUB: 7.954019e-06
Optimisation 1.005489e-01
Total Time: 1.010362e-01
2 Flipped
Graph 1:
0 1 0 
1 0 0 
1 1 1 
Graph 2:
0 1 0 
0 0 1 
1 1 1 
Solution: -2 0
Gbest: -2.000000
Expectation: -2.020547
Final Parameters:
Gammas:
[ 0.911104 5.025562 3.141593 3.926991 3.923997 ]
Betas:
[ 3.141593 1.699930 1.956426 2.014365 2.679780 1.332005 ]
Aggregate results:
[ 1 5 3 8 ]
[ 0.992401 0.002320 0.005137 0.000142 ]
5
Num Evals 600
GenUC: 6.422342e-06
GenUB: 5.493988e-06
Optimisation 1.114394e-01
Total Time: 1.118013e-01
3 Add 3
Graph 1:
0 1 0 
1 0 0 
1 1 1 
Graph 2:
1 1 1 
1 0 0 
1 1 1 
Solution: -2 0
Gbest: -2.000000
Expectation: -2.020547
Final Parameters:
Gammas:
[ 0.911104 5.025562 3.141593 3.926991 3.923997 ]
Betas:
[ 3.141593 1.699930 1.956426 2.014365 2.679780 1.332005 ]
Aggregate results:
[ 1 5 3 8 ]
[ 0.992401 0.002320 0.005137 0.000142 ]
5
Num Evals 900
GenUC: 8.125324e-06
GenUB: 5.312031e-06
Optimisation 9.776282e-02
Total Time: 9.811104e-02
4 Rem 3
Graph 1:
0 1 0 
1 0 0 
1 1 1 
Graph 2:
0 0 0 
1 0 0 
0 1 1 
Solution: -2 0
Gbest: -2.000000
Expectation: -2.244596
Final Parameters:
Gammas:
[ 3.534292 5.890486 4.712389 3.960702 2.742874 ]
Betas:
[ 3.024445 1.575493 1.923612 1.570796 0.786412 1.511867 ]
Aggregate results:
[ 1 5 8 ]
[ 0.965004 0.000125 0.034871 ]
5
Num Evals 1200
GenUC: 6.486895e-06
GenUB: 5.271577e-06
Optimisation 9.138033e-02
Total Time: 9.170840e-02
5 Add/Rem 3
Graph 1:
0 1 0 
1 0 0 
1 1 1 
Graph 2:
1 0 0 
1 1 0 
0 1 0 
Solution: -5 0
Gbest: -5.000000
Expectation: -5.000022
Final Parameters:
Gammas:
[ 4.908739 3.534292 4.319690 1.683917 5.697788 ]
Betas:
[ 1.692585 2.136131 1.024699 1.805208 0.487222 1.308963 ]
Aggregate results:
[ 4 8 ]
[ 0.999994 0.000006 ]
5
Num Evals 1500
GenUC: 6.511575e-06
GenUB: 5.517446e-06
Optimisation 8.665330e-02
Total Time: 8.695119e-02
