Clock Speed: 3.498824
Num threads: 16
Trotterisation: 3
Num Qubits: 16
Space Dimension: 65536
Run-Type: 0
Num_samples: 64
Optimiser Method: 0
1 Isomorphic
Graph 1:
1 1 1 0 0 1 0 1 
0 0 0 1 0 1 0 0 
1 1 0 1 0 1 1 0 
1 1 0 0 1 1 0 1 
0 0 0 1 0 0 0 0 
1 1 1 1 1 0 1 0 
1 1 1 0 1 1 0 0 
1 1 1 0 0 0 0 1 
Graph 2:
1 1 1 0 0 1 0 1 
0 0 0 1 0 1 0 0 
1 1 0 1 0 1 1 0 
1 1 0 0 1 1 0 1 
0 0 0 1 0 0 0 0 
1 1 1 1 1 0 1 0 
1 1 1 0 1 1 0 0 
1 1 1 0 0 0 0 1 
Solution: 64 0
Classic Expectation: 33.321429
Initial Expecation: 20.500488
Gbest: 56.000000
Expectation: 25.300262
Final Parameters:
Gammas:
[ 1.771985 1.073532 2.912566 ]
Betas:
[ 2.753741 1.702236 2.495175 ]
Aggregate results:
[ 64 50 56 46 48 36 44 38 42 40 34 52 30 28 32 26 22 24 18 54 20 16 14 0 ]
[ 0.000001 0.000371 0.000126 0.002103 0.000989 0.118203 0.005019 0.072695 0.015865 0.035667 0.148303 0.000184 0.110819 0.064447 0.140380 0.029607 0.003119 0.011246 0.000070 0.000047 0.000605 0.000096 0.000005 0.240035 ]
3
Num Evals 867
GenUC: 1.835937e-02
GenUB: 1.272284e-02
Optimisation 2.575652e+02
Total Time: 2.575963e+02
2 Flipped
Graph 1:
1 1 1 0 0 1 0 1 
0 0 0 1 0 1 0 0 
1 1 0 1 0 1 1 0 
1 1 0 0 1 1 0 1 
0 0 0 1 0 0 0 0 
1 1 1 1 1 0 1 0 
1 1 1 0 1 1 0 0 
1 1 1 0 0 0 0 1 
Graph 2:
1 0 1 0 0 1 1 1 
0 0 1 0 1 0 0 0 
0 1 1 0 1 0 1 1 
1 0 1 1 0 0 1 1 
0 0 0 0 1 0 0 0 
0 1 0 1 1 1 1 1 
0 0 1 1 0 1 1 1 
1 0 0 0 0 1 1 1 
Solution: 46 34934
Classic Expectation: 30.285714
Initial Expecation: 18.632812
Gbest: 42.000000
Expectation: 25.890094
Final Parameters:
Gammas:
[ 6.168938 0.129290 2.908516 ]
Betas:
[ 2.792528 1.121419 2.740816 ]
Aggregate results:
[ 30 32 28 26 24 34 36 38 22 20 18 40 16 42 44 46 0 ]
[ 0.180086 0.159224 0.149522 0.094663 0.042134 0.105890 0.056004 0.027897 0.015892 0.003589 0.000793 0.010305 0.000046 0.003780 0.000967 0.000151 0.149059 ]
3
Num Evals 875
GenUC: 2.306359e-02
GenUB: 1.366367e-02
Optimisation 2.574022e+02
Total Time: 2.574389e+02
3 Add 8
Graph 1:
1 1 1 0 0 1 0 1 
0 0 0 1 0 1 0 0 
1 1 0 1 0 1 1 0 
1 1 0 0 1 1 0 1 
0 0 0 1 0 0 0 0 
1 1 1 1 1 0 1 0 
1 1 1 0 1 1 0 0 
1 1 1 0 0 0 0 1 
Graph 2:
1 1 1 0 0 1 1 1 
0 0 0 1 1 1 1 1 
1 1 0 1 0 1 1 0 
1 1 0 0 1 1 0 1 
0 0 0 1 0 1 0 0 
1 1 1 1 1 0 1 0 
1 1 1 0 1 1 0 0 
1 1 1 0 0 1 0 1 
Solution: 58 0
Classic Expectation: 33.964286
Initial Expecation: 20.895996
Gbest: 42.000000
Expectation: 30.712620
Final Parameters:
Gammas:
[ 1.043314 5.233274 3.107193 ]
Betas:
[ 3.025237 1.202337 2.598600 ]
Aggregate results:
[ 58 48 54 44 46 38 40 42 32 36 34 50 52 30 28 26 24 22 20 0 ]
[ 0.000022 0.000878 0.000021 0.006547 0.002196 0.107437 0.055993 0.022049 0.164320 0.165366 0.186038 0.000255 0.000287 0.108001 0.054353 0.020364 0.006249 0.001049 0.000090 0.098485 ]
3
Num Evals 877
GenUC: 2.296092e-02
GenUB: 1.356164e-02
Optimisation 2.614894e+02
Total Time: 2.615259e+02
4 Rem 8
Graph 1:
1 1 1 0 0 1 0 1 
0 0 0 1 0 1 0 0 
1 1 0 1 0 1 1 0 
1 1 0 0 1 1 0 1 
0 0 0 1 0 0 0 0 
1 1 1 1 1 0 1 0 
1 1 1 0 1 1 0 0 
1 1 1 0 0 0 0 1 
Graph 2:
1 1 1 0 0 1 0 1 
0 0 0 1 0 1 0 0 
0 0 0 1 0 1 1 0 
0 1 0 0 1 1 0 1 
0 0 0 1 0 0 0 0 
1 1 0 1 0 0 1 0 
1 1 1 0 1 1 0 0 
1 1 0 0 0 0 0 1 
Solution: 58 0
Classic Expectation: 32.678571
Initial Expecation: 20.104980
Gbest: 42.000000
Expectation: 26.750056
Final Parameters:
Gammas:
[ 4.992264 1.081833 2.913405 ]
Betas:
[ 2.986452 1.396263 2.521031 ]
Aggregate results:
[ 58 44 50 42 40 46 34 36 38 32 30 48 28 26 24 54 52 22 20 18 16 0 ]
[ 0.000002 0.005158 0.000200 0.013555 0.031274 0.001406 0.150619 0.116870 0.067724 0.161403 0.126938 0.000594 0.079513 0.038639 0.015093 0.000007 0.000094 0.004607 0.001062 0.000164 0.000034 0.185042 ]
3
Num Evals 1175
GenUC: 2.294179e-02
GenUB: 1.358646e-02
Optimisation 3.450308e+02
Total Time: 3.450673e+02
5 Add/Rem 8
Graph 1:
1 1 1 0 0 1 0 1 
0 0 0 1 0 1 0 0 
1 1 0 1 0 1 1 0 
1 1 0 0 1 1 0 1 
0 0 0 1 0 0 0 0 
1 1 1 1 1 0 1 0 
1 1 1 0 1 1 0 0 
1 1 1 0 0 0 0 1 
Graph 2:
0 1 1 0 0 1 0 1 
0 1 1 1 0 1 0 0 
1 1 1 0 0 1 1 1 
0 1 0 0 1 1 0 1 
0 0 0 1 1 0 0 0 
1 1 1 0 0 1 1 0 
0 1 1 0 0 1 1 0 
1 1 1 0 1 0 0 0 
Solution: 50 25951
Classic Expectation: 31.500000
Initial Expecation: 19.379883
Gbest: 40.000000
Expectation: 26.407040
Final Parameters:
Gammas:
[ 6.165702 0.133219 2.906147 ]
Betas:
[ 2.792527 1.279909 2.644568 ]
Aggregate results:
[ 48 44 42 46 34 32 30 36 38 40 26 28 22 20 24 18 14 16 50 0 ]
[ 0.000084 0.001453 0.005457 0.000427 0.132665 0.156523 0.157200 0.087271 0.045786 0.019641 0.071112 0.116364 0.011029 0.003421 0.031442 0.000484 0.000004 0.000157 0.000070 0.159408 ]
3
Num Evals 1111
GenUC: 2.295109e-02
GenUB: 1.355381e-02
Optimisation 3.320587e+02
Total Time: 3.320952e+02
