Clock Speed: 3.687967
Num threads: 4
Trotterisation: 5
Graph Size: 5
Num Qubits: 7
Space Dimension: 128
Run-Type: 0
Num_samples: 10
1 Isomorphic
Graph 1:
0 0 1 1 1 
1 0 1 1 0 
0 0 1 1 0 
0 0 1 0 1 
0 1 0 0 1 
Graph 2:
0 0 1 1 1 
1 0 1 1 0 
0 0 1 1 0 
0 0 1 0 1 
0 1 0 0 1 
Solution: 0 0
Gbest: -6.000000
Expectation: -10.206272
Final Parameters:
Gammas:
[ 3.122948 3.283584 3.176829 3.133378 2.810707 ]
Betas:
[ 3.122471 1.783701 1.559331 1.598685 1.324538 1.522194 ]
Aggregate results:
[ -1 5 11 7 13 9 3 17 15 19 24 ]
[ 0.059821 0.052651 0.256165 0.205805 0.129518 0.181863 0.036303 0.000847 0.057797 0.005579 0.013651 ]
5
Num Evals 500
GenUC: 1.306702e-04
GenUB: 2.982997e-05
Optimisation 3.836181e-01
Total Time: 3.846422e-01
2 Flipped
Graph 1:
0 0 1 1 1 
1 0 1 1 0 
0 0 1 1 0 
0 0 1 0 1 
0 1 0 0 1 
Graph 2:
1 1 1 0 0 
0 1 1 0 1 
0 1 1 0 0 
1 0 1 0 0 
1 0 0 1 0 
Solution: -6 15
Gbest: -8.000000
Expectation: -10.679775
Final Parameters:
Gammas:
[ 3.138494 3.167652 3.159115 3.296963 3.310178 ]
Betas:
[ 3.136124 1.499604 1.703928 1.576451 1.336708 1.590255 ]
Aggregate results:
[ 15 9 13 17 7 11 5 19 24 ]
[ 0.027998 0.322197 0.093347 0.004850 0.146202 0.316081 0.083155 0.000020 0.006151 ]
5
Num Evals 1000
GenUC: 2.538244e-05
GenUB: 1.784763e-05
Optimisation 3.521386e-01
Total Time: 3.528899e-01
3 Add 5
Graph 1:
0 0 1 1 1 
1 0 1 1 0 
0 0 1 1 0 
0 0 1 0 1 
0 1 0 0 1 
Graph 2:
0 0 1 1 1 
1 1 1 1 0 
1 0 1 1 0 
0 0 1 1 1 
0 1 1 0 1 
Solution: -4 0
Gbest: -8.000000
Expectation: -11.065568
Final Parameters:
Gammas:
[ 3.290997 3.046951 3.000657 3.406676 3.348639 ]
Betas:
[ 2.962590 1.594305 1.489941 1.695652 1.359990 1.581234 ]
Aggregate results:
[ 3 9 13 11 15 5 19 7 17 24 ]
[ 0.038863 0.311908 0.121356 0.213376 0.070298 0.084222 0.002015 0.117918 0.011903 0.028142 ]
5
Num Evals 1500
GenUC: 2.423344e-05
GenUB: 2.050183e-05
Optimisation 4.319398e-01
Total Time: 4.327119e-01
4 Rem 5
Graph 1:
0 0 1 1 1 
1 0 1 1 0 
0 0 1 1 0 
0 0 1 0 1 
0 1 0 0 1 
Graph 2:
0 0 1 0 0 
1 0 0 0 0 
0 0 1 1 0 
0 0 1 0 1 
0 1 0 0 1 
Solution: -4 0
Gbest: -4.000000
Expectation: -9.643828
Final Parameters:
Gammas:
[ 3.123185 3.476609 3.107694 3.591108 6.283185 ]
Betas:
[ 2.833403 1.941100 1.385731 1.440732 1.374721 1.614799 ]
Aggregate results:
[ 3 7 11 13 9 15 5 17 24 ]
[ 0.056617 0.370421 0.161227 0.047468 0.310456 0.018463 0.021035 0.004184 0.010129 ]
5
Num Evals 2000
GenUC: 2.509724e-05
GenUB: 1.763990e-05
Optimisation 3.599314e-01
Total Time: 3.606890e-01
5 Add/Rem 5
Graph 1:
0 0 1 1 1 
1 0 1 1 0 
0 0 1 1 0 
0 0 1 0 1 
0 1 0 0 1 
Graph 2:
0 0 1 1 0 
1 0 1 1 0 
0 0 1 0 0 
0 0 1 1 0 
0 0 1 1 0 
Solution: -6 50
Gbest: -8.000000
Expectation: -11.563201
Final Parameters:
Gammas:
[ 3.097022 3.652606 1.469849 4.532617 3.101135 ]
Betas:
[ 2.940279 1.749948 0.538320 1.708513 1.990012 1.731500 ]
Aggregate results:
[ 7 9 15 13 11 17 19 5 24 ]
[ 0.238550 0.184376 0.085525 0.133457 0.231995 0.046647 0.013042 0.051074 0.015335 ]
5
Num Evals 2500
GenUC: 2.140789e-05
GenUB: 1.683008e-05
Optimisation 3.667035e-01
Total Time: 3.674559e-01
