Clock Speed: 3.688800
Num threads: 4
Trotterisation: 5
Graph Size: 5
Num Qubits: 7
Space Dimension: 128
Run-Type: 0
Num_samples: 10
1 Isomorphic
Graph 1:
1 0 0 1 0 
1 1 0 1 0 
1 1 1 1 1 
0 1 1 0 0 
1 1 0 1 0 
Graph 2:
1 0 0 1 0 
1 1 0 1 0 
1 1 1 1 1 
0 1 1 0 0 
1 1 0 1 0 
Solution: 0 0
Gbest: 0.000000
Expectation: -8.956292
Final Parameters:
Gammas:
[ 3.213973 3.351250 3.274499 3.082619 2.893550 ]
Betas:
[ 0.000078 1.004634 1.429256 1.752622 1.368901 1.434490 ]
Aggregate results:
[ -1 3 9 5 11 13 7 15 17 19 24 ]
[ 0.126552 0.078928 0.152716 0.127368 0.298119 0.058530 0.090338 0.032884 0.020158 0.003897 0.010509 ]
5
Num Evals 454
GenUC: 1.583104e-04
GenUB: 2.991295e-05
Optimisation 2.915810e-01
Total Time: 2.923574e-01
2 Flipped
Graph 1:
1 0 0 1 0 
1 1 0 1 0 
1 1 1 1 1 
0 1 1 0 0 
1 1 0 1 0 
Graph 2:
0 1 0 0 1 
0 1 0 1 1 
1 1 1 1 1 
0 0 1 1 0 
0 1 0 1 1 
Solution: -4 118
Gbest: -6.000000
Expectation: -10.268038
Final Parameters:
Gammas:
[ 3.019425 3.156737 3.056734 3.286580 1.584956 ]
Betas:
[ 1.590523 1.165308 1.614453 1.676698 1.297852 1.504281 ]
Aggregate results:
[ 9 7 17 13 11 15 5 3 24 ]
[ 0.302094 0.137081 0.002643 0.121754 0.286208 0.016828 0.045581 0.084485 0.003326 ]
5
Num Evals 955
GenUC: 2.393543e-05
GenUB: 1.777126e-05
Optimisation 3.481221e-01
Total Time: 3.488219e-01
3 Add 5
Graph 1:
1 0 0 1 0 
1 1 0 1 0 
1 1 1 1 1 
0 1 1 0 0 
1 1 0 1 0 
Graph 2:
1 0 0 1 0 
1 1 1 1 1 
1 1 1 1 1 
1 1 1 1 0 
1 1 1 1 0 
Solution: -5 0
Gbest: -5.000000
Expectation: -7.424860
Final Parameters:
Gammas:
[ 3.249177 3.016889 3.227560 2.805269 3.940174 ]
Betas:
[ 2.316861 2.229934 1.381059 2.119326 1.867115 1.517389 ]
Aggregate results:
[ 4 6 10 8 14 12 24 ]
[ 0.300894 0.367251 0.063569 0.232754 0.007940 0.021111 0.006482 ]
5
Num Evals 1456
GenUC: 1.910454e-05
GenUB: 2.018083e-05
Optimisation 3.920998e-01
Total Time: 3.928918e-01
4 Rem 5
Graph 1:
1 0 0 1 0 
1 1 0 1 0 
1 1 1 1 1 
0 1 1 0 0 
1 1 0 1 0 
Graph 2:
1 0 0 1 0 
0 0 0 1 0 
1 1 1 1 1 
0 1 1 0 0 
1 1 0 1 0 
Solution: -2 0
Gbest: -2.000000
Expectation: -9.485306
Final Parameters:
Gammas:
[ 3.225341 3.167274 2.947875 3.283855 3.285506 ]
Betas:
[ 1.348686 0.812876 1.675240 1.626269 1.676435 1.195025 ]
Aggregate results:
[ 1 3 11 7 9 13 5 15 17 19 24 ]
[ 0.083551 0.062628 0.292787 0.157535 0.166524 0.074660 0.108727 0.037030 0.009466 0.001814 0.005279 ]
5
Num Evals 1957
GenUC: 2.509737e-05
GenUB: 1.830468e-05
Optimisation 3.288024e-01
Total Time: 3.294948e-01
5 Add/Rem 5
Graph 1:
1 0 0 1 0 
1 1 0 1 0 
1 1 1 1 1 
0 1 1 0 0 
1 1 0 1 0 
Graph 2:
1 0 1 1 1 
1 1 1 1 0 
1 0 1 1 0 
0 0 1 1 0 
0 1 0 1 0 
Solution: -6 6
Gbest: -6.000000
Expectation: -10.317031
Final Parameters:
Gammas:
[ 3.439609 3.362591 3.561616 3.237232 1.473610 ]
Betas:
[ 2.357157 2.178828 1.366661 1.958655 1.159911 1.656681 ]
Aggregate results:
[ 7 9 5 11 13 15 17 24 ]
[ 0.289303 0.169605 0.137331 0.249076 0.093477 0.026487 0.015263 0.019459 ]
5
Num Evals 2458
GenUC: 2.460027e-05
GenUB: 1.754824e-05
Optimisation 3.549468e-01
Total Time: 3.557259e-01
