Clock Speed: 3.689394
Num threads: 4
Trotterisation: 5
Graph Size: 5
Num Qubits: 7
Space Dimension: 128
Run-Type: 0
Num_samples: 10
1 Isomorphic
Graph 1:
0 0 0 0 0 
1 1 0 1 0 
1 0 0 1 1 
0 0 0 0 1 
0 1 1 1 0 
Graph 2:
0 0 0 0 0 
1 1 0 1 0 
1 0 0 1 1 
0 0 0 0 1 
0 1 1 1 0 
Solution: 0 0
Gbest: -4.000000
Expectation: -8.499185
Final Parameters:
Gammas:
[ 3.171293 2.902919 3.480031 2.853841 2.798351 ]
Betas:
[ 1.702184 1.231172 1.815965 1.619699 1.497738 1.814411 ]
Aggregate results:
[ -1 9 11 3 13 5 15 7 24 ]
[ 0.070453 0.315578 0.150021 0.051470 0.048356 0.229909 0.013037 0.115126 0.006049 ]
5
Num Evals 501
GenUC: 1.612591e-04
GenUB: 3.033713e-05
Optimisation 4.178903e-01
Total Time: 4.187791e-01
2 Flipped
Graph 1:
0 0 0 0 0 
1 1 0 1 0 
1 0 0 1 1 
0 0 0 0 1 
0 1 1 1 0 
Graph 2:
0 0 0 0 0 
0 1 0 1 1 
1 1 0 0 1 
1 0 0 0 0 
0 1 1 1 0 
Solution: -4 15
Gbest: -6.000000
Expectation: -8.849044
Final Parameters:
Gammas:
[ 3.201341 3.435588 3.182671 3.482095 3.064125 ]
Betas:
[ 1.553803 1.216304 1.304179 1.476793 1.496463 1.407762 ]
Aggregate results:
[ 5 11 7 13 9 3 15 17 24 ]
[ 0.227102 0.123080 0.317856 0.037577 0.251588 0.027373 0.006179 0.002116 0.007129 ]
5
Num Evals 1002
GenUC: 2.386374e-05
GenUB: 1.734996e-05
Optimisation 4.067459e-01
Total Time: 4.074275e-01
3 Add 5
Graph 1:
0 0 0 0 0 
1 1 0 1 0 
1 0 0 1 1 
0 0 0 0 1 
0 1 1 1 0 
Graph 2:
0 0 0 0 1 
1 1 1 1 0 
1 0 1 1 1 
1 0 0 0 1 
1 1 1 1 0 
Solution: -5 0
Gbest: -9.000000
Expectation: -10.945484
Final Parameters:
Gammas:
[ 3.749347 2.935478 3.093842 3.269805 2.637871 ]
Betas:
[ 1.671259 1.694338 1.228628 2.171839 1.241701 1.787437 ]
Aggregate results:
[ 4 12 6 10 8 14 16 24 ]
[ 0.069757 0.200427 0.101105 0.261873 0.237956 0.088002 0.010100 0.030778 ]
5
Num Evals 1503
GenUC: 2.340309e-05
GenUB: 2.235675e-05
Optimisation 4.553922e-01
Total Time: 4.686939e-01
4 Rem 5
Graph 1:
0 0 0 0 0 
1 1 0 1 0 
1 0 0 1 1 
0 0 0 0 1 
0 1 1 1 0 
Graph 2:
0 0 0 0 0 
0 1 0 1 0 
0 0 0 1 0 
0 0 0 0 1 
0 1 0 1 0 
Solution: -4 0
Gbest: -4.000000
Expectation: -8.693920
Final Parameters:
Gammas:
[ 3.045030 3.445856 2.890541 3.527268 1.700395 ]
Betas:
[ 0.048212 2.288489 1.284320 1.492886 1.446566 1.534760 ]
Aggregate results:
[ 3 9 7 5 13 11 24 ]
[ 0.113556 0.365522 0.224447 0.153336 0.023354 0.111744 0.008040 ]
5
Num Evals 1972
GenUC: 3.797783e-04
GenUB: 3.735526e-04
Optimisation 3.171741e-01
Total Time: 3.185395e-01
5 Add/Rem 5
Graph 1:
0 0 0 0 0 
1 1 0 1 0 
1 0 0 1 1 
0 0 0 0 1 
0 1 1 1 0 
Graph 2:
0 0 0 0 0 
1 0 0 1 0 
1 1 0 0 1 
0 1 1 0 0 
1 1 1 0 0 
Solution: -6 21
Gbest: -6.000000
Expectation: -9.503885
Final Parameters:
Gammas:
[ 3.462410 2.106904 3.763627 3.330098 3.484198 ]
Betas:
[ 1.685921 1.332367 1.671264 2.302221 2.385370 1.644057 ]
Aggregate results:
[ 7 11 13 9 5 17 15 24 ]
[ 0.286784 0.150990 0.040290 0.343287 0.157281 0.004478 0.005080 0.011809 ]
5
Num Evals 2472
GenUC: 2.260914e-05
GenUB: 1.717685e-05
Optimisation 4.103370e-01
Total Time: 4.395057e-01
