Clock Speed: 3.689097
Num threads: 4
Trotterisation: 5
Graph Size: 8
Num Qubits: 16
Space Dimension: 65536
Run-Type: 0
Num_samples: 10
1 Isomorphic
Graph 1:
1 1 0 1 1 0 1 1 
1 0 0 1 1 0 1 1 
0 1 1 1 0 0 0 1 
0 1 1 0 1 1 1 0 
1 0 0 0 0 0 0 0 
1 1 1 0 1 0 1 1 
0 0 1 0 1 1 1 0 
1 0 0 0 1 1 1 0 
Graph 2:
1 1 0 1 1 0 1 1 
1 0 0 1 1 0 1 1 
0 1 1 1 0 0 0 1 
0 1 1 0 1 1 1 0 
1 0 0 0 0 0 0 0 
1 1 1 0 1 0 1 1 
0 0 1 0 1 1 1 0 
1 0 0 0 1 1 1 0 
Solution: 0 0
Gbest: -22.000000
Expectation: -41.251182
Final Parameters:
Gammas:
[ 4.334664 3.197778 3.776832 2.679560 2.661243 ]
Betas:
[ 2.129633 2.548063 1.285903 1.602074 1.581934 1.647485 ]
Aggregate results:
[ -1 9 17 13 23 19 27 15 21 33 29 25 31 37 35 11 39 41 43 45 7 63 ]
[ 0.000037 0.000083 0.002118 0.000279 0.033024 0.004585 0.102258 0.000731 0.016129 0.098299 0.127968 0.063255 0.124034 0.033856 0.062403 0.000164 0.012994 0.003624 0.000614 0.000065 0.000005 0.313473 ]
5
Num Evals 800
GenUC: 4.443688e-03
GenUB: 2.736475e-02
Optimisation 3.789665e+02
Total Time: 3.797974e+02
2 Flipped
Graph 1:
1 1 0 1 1 0 1 1 
1 0 0 1 1 0 1 1 
0 1 1 1 0 0 0 1 
0 1 1 0 1 1 1 0 
1 0 0 0 0 0 0 0 
1 1 1 0 1 0 1 1 
0 0 1 0 1 1 1 0 
1 0 0 0 1 1 1 0 
Graph 2:
1 1 0 1 1 0 1 1 
1 1 0 1 1 0 0 1 
1 0 0 0 1 1 1 0 
0 1 1 1 0 1 1 0 
0 0 0 0 0 0 0 1 
1 1 0 1 0 1 1 1 
0 1 1 1 0 1 0 0 
0 1 1 1 0 0 0 1 
Solution: -16 14262
Gbest: -28.000000
Expectation: -33.386458
Final Parameters:
Gammas:
[ 3.159667 3.187775 3.882496 3.777703 3.142657 ]
Betas:
[ 2.017602 2.520435 1.163433 1.696550 1.771950 1.410226 ]
Aggregate results:
[ 29 27 33 25 31 37 35 23 39 45 41 19 21 17 43 49 47 15 63 ]
[ 0.161565 0.107492 0.181005 0.058904 0.184004 0.065558 0.128072 0.024043 0.029171 0.000780 0.010199 0.001791 0.007886 0.000520 0.003222 0.000049 0.000059 0.000067 0.035613 ]
5
Num Evals 1600
GenUC: 3.849760e-03
GenUB: 3.166689e-02
Optimisation 4.146012e+02
Total Time: 4.150505e+02
3 Add 8
Graph 1:
1 1 0 1 1 0 1 1 
1 0 0 1 1 0 1 1 
0 1 1 1 0 0 0 1 
0 1 1 0 1 1 1 0 
1 0 0 0 0 0 0 0 
1 1 1 0 1 0 1 1 
0 0 1 0 1 1 1 0 
1 0 0 0 1 1 1 0 
Graph 2:
1 1 0 1 1 0 1 1 
1 0 0 1 1 0 1 1 
0 1 1 1 0 0 1 1 
0 1 1 0 1 1 1 0 
1 1 0 0 1 1 1 0 
1 1 1 0 1 0 1 1 
0 0 1 0 1 1 1 0 
1 0 1 1 1 1 1 0 
Solution: -7 0
Gbest: -21.000000
Expectation: -30.091395
Final Parameters:
Gammas:
[ 3.078041 3.199710 3.337641 2.944968 3.515658 ]
Betas:
[ 1.732690 1.328165 2.365824 1.556370 1.593139 1.667786 ]
Aggregate results:
[ 6 14 20 18 16 26 24 30 22 32 28 34 36 38 40 42 12 10 44 46 63 ]
[ 0.000227 0.001945 0.039508 0.014172 0.003639 0.212973 0.154470 0.119064 0.090525 0.050799 0.195457 0.020709 0.012757 0.009255 0.004183 0.001162 0.000433 0.000188 0.000096 0.000068 0.068370 ]
5
Num Evals 2400
GenUC: 2.964379e-03
GenUB: 1.689406e-02
Optimisation 4.148658e+02
Total Time: 4.153268e+02
4 Rem 8
Graph 1:
1 1 0 1 1 0 1 1 
1 0 0 1 1 0 1 1 
0 1 1 1 0 0 0 1 
0 1 1 0 1 1 1 0 
1 0 0 0 0 0 0 0 
1 1 1 0 1 0 1 1 
0 0 1 0 1 1 1 0 
1 0 0 0 1 1 1 0 
Graph 2:
1 0 0 1 1 0 0 1 
0 0 0 1 1 0 1 1 
0 1 1 1 0 0 0 1 
0 0 1 0 1 1 1 0 
1 0 0 0 0 0 0 0 
0 1 1 0 1 0 1 1 
0 0 1 0 0 0 1 0 
1 0 0 0 1 1 1 0 
Solution: -7 0
Gbest: -27.000000
Expectation: -30.905309
Final Parameters:
Gammas:
[ 3.127361 3.127663 3.057289 3.000994 3.208254 ]
Betas:
[ 1.481468 1.615144 2.395296 1.576369 1.564289 1.706918 ]
Aggregate results:
[ 6 14 22 16 26 24 20 30 32 28 18 34 36 38 40 42 44 46 12 63 ]
[ 0.000007 0.000064 0.049604 0.002214 0.173793 0.102417 0.021109 0.186234 0.123337 0.199372 0.004357 0.057107 0.019390 0.007338 0.003419 0.001308 0.000338 0.000004 0.000040 0.048547 ]
5
Num Evals 3200
GenUC: 3.041905e-03
GenUB: 1.784595e-02
Optimisation 4.149343e+02
Total Time: 4.153624e+02
5 Add/Rem 8
Graph 1:
1 1 0 1 1 0 1 1 
1 0 0 1 1 0 1 1 
0 1 1 1 0 0 0 1 
0 1 1 0 1 1 1 0 
1 0 0 0 0 0 0 0 
1 1 1 0 1 0 1 1 
0 0 1 0 1 1 1 0 
1 0 0 0 1 1 1 0 
Graph 2:
1 1 0 1 1 0 0 1 
1 1 0 1 1 0 0 1 
0 1 0 0 0 0 0 1 
1 1 1 0 1 1 1 0 
1 0 0 0 1 0 0 1 
1 0 1 1 1 0 1 0 
1 1 1 0 0 1 1 0 
1 0 1 0 1 1 1 0 
Solution: -15 0
Gbest: -25.000000
Expectation: -33.700463
Final Parameters:
Gammas:
[ 3.145963 3.139808 3.125411 3.157811 3.146278 ]
Betas:
[ 1.575247 1.586459 2.356530 1.563196 1.582101 1.566015 ]
Aggregate results:
[ 14 20 22 28 34 26 24 18 30 32 16 38 36 40 42 44 63 ]
[ 0.000011 0.007201 0.022829 0.147697 0.123388 0.101754 0.051855 0.001486 0.177168 0.168896 0.000282 0.037083 0.076816 0.012426 0.003029 0.000295 0.067787 ]
5
Num Evals 4000
GenUC: 3.075573e-03
GenUB: 1.730978e-02
Optimisation 4.126840e+02
Total Time: 4.131032e+02
