Clock Speed: 3.689031
Num threads: 4
Trotterisation: 2
Num Qubits: 7
Space Dimension: 128
Run-Type: 0
Num_samples: 5
Optimiser Method: 20
1 Isomorphic
Graph 1:
0 0 1 0 0 
0 0 0 1 0 
1 0 0 0 1 
0 1 0 0 0 
0 0 1 0 0 
Graph 2:
0 0 1 0 0 
0 0 0 1 0 
1 0 0 0 1 
0 1 0 0 0 
0 0 1 0 0 
Solution: 25 0
Classic Expectation: 16.600000
Initial Expecation: 15.562500
Gbest: 21.000000
Expectation: 16.959299
Final Parameters:
Gammas:
[ 4.810036 0.624235 ]
Betas:
[ 0.951027 0.455046 ]
Aggregate results:
[ 25 17 13 21 0 ]
[ 0.079496 0.463441 0.255991 0.179311 0.021762 ]
5
Num Evals 2000
GenUC: 4.102575e-05
GenUB: 1.517910e-05
Optimisation 3.767620e-01
Total Time: 3.768457e-01
2 Flipped
Graph 1:
0 0 1 0 0 
0 0 0 1 0 
1 0 0 0 1 
0 1 0 0 0 
0 0 1 0 0 
Graph 2:
0 0 1 0 0 
0 1 0 0 0 
1 0 0 0 1 
0 0 0 1 0 
0 0 1 0 0 
Solution: 21 0
Classic Expectation: 15.400000
Initial Expecation: 14.437500
Gbest: 21.000000
Expectation: 17.121285
Final Parameters:
Gammas:
[ 2.025305 1.392116 ]
Betas:
[ 3.021052 0.354230 ]
Aggregate results:
[ 21 17 13 0 ]
[ 0.137022 0.800028 0.049489 0.013461 ]
5
Num Evals 2000
GenUC: 4.459254e-05
GenUB: 3.039837e-06
Optimisation 5.387179e-01
Total Time: 5.387680e-01
3 Add 5
Graph 1:
0 0 1 0 0 
0 0 0 1 0 
1 0 0 0 1 
0 1 0 0 0 
0 0 1 0 0 
Graph 2:
1 1 1 1 1 
1 0 1 1 1 
1 1 0 0 1 
1 1 0 0 0 
1 1 1 0 0 
Solution: 14 0
Classic Expectation: 11.600000
Initial Expecation: 10.875000
Gbest: 14.000000
Expectation: 12.888506
Final Parameters:
Gammas:
[ 4.755462 1.931169 ]
Betas:
[ 1.318286 0.219366 ]
Aggregate results:
[ 14 10 6 0 ]
[ 0.798748 0.156391 0.023688 0.021174 ]
5
Num Evals 2000
GenUC: 4.440360e-05
GenUB: 5.020935e-06
Optimisation 3.808219e-01
Total Time: 3.808740e-01
4 Rem 5
Graph 1:
0 0 1 0 0 
0 0 0 1 0 
1 0 0 0 1 
0 1 0 0 0 
0 0 1 0 0 
Graph 2:
0 0 0 0 0 
0 0 0 0 0 
0 0 0 0 0 
0 0 0 0 0 
0 0 0 0 0 
Solution: 19 0
Classic Expectation: 19.000000
Initial Expecation: 17.812500
Gbest: 19.000000
Expectation: 19.000000
Final Parameters:
Gammas:
[ 5.549050 5.672338 ]
Betas:
[ 1.879548 0.891678 ]
Aggregate results:
[ 19 0 ]
[ 1.000000 0.000000 ]
5
Num Evals 2000
GenUC: 4.350219e-05
GenUB: 5.324371e-06
Optimisation 6.375378e-01
Total Time: 6.375889e-01
5 Add/Rem 5
Graph 1:
0 0 1 0 0 
0 0 0 1 0 
1 0 0 0 1 
0 1 0 0 0 
0 0 1 0 0 
Graph 2:
1 1 0 1 1 
1 0 1 0 0 
0 1 0 0 0 
1 0 0 0 0 
1 0 0 0 0 
Solution: 22 78
Classic Expectation: 14.800000
Initial Expecation: 13.875000
Gbest: 18.000000
Expectation: 16.595847
Final Parameters:
Gammas:
[ 4.436908 3.161227 ]
Betas:
[ 1.517376 1.385826 ]
Aggregate results:
[ 10 18 14 22 0 ]
[ 0.036162 0.578175 0.257575 0.100956 0.027132 ]
5
Num Evals 2000
GenUC: 4.388310e-05
GenUB: 2.637797e-06
Optimisation 5.276641e-01
Total Time: 5.277129e-01
