Clock Speed: 3.498795
Num threads: 24
Trotterisation: 2
Graph Size: 7
Num Qubits: 13
Space Dimension: 8192
Run-Type: 0
Num_samples: 1
Optimiser Method: 28
1 Isomorphic
Graph 1:
0 0 0 1 1 1 1 
1 0 0 0 1 0 0 
1 1 1 1 0 0 1 
1 1 0 0 1 0 1 
0 0 1 1 1 1 1 
0 1 0 1 1 0 0 
0 0 0 1 1 0 0 
Graph 2:
0 0 0 1 1 1 1 
1 0 0 0 1 0 0 
1 1 1 1 0 0 1 
1 1 0 0 1 0 1 
0 0 1 1 1 1 1 
0 1 0 1 1 0 0 
0 0 0 1 1 0 0 
Solution: 0 0
Expectation: -33.414062
Final Parameters:
Gammas:
[ 3.141593 3.141593 ]
Betas:
[ 1.570796 1.570796 ]
Aggregate results:
[ 0 10 20 16 18 22 12 24 30 26 28 14 32 36 34 6 8 49 ]
[ 0.000122 0.001465 0.078247 0.011353 0.031860 0.130615 0.004028 0.134399 0.029907 0.101074 0.071533 0.005981 0.011230 0.000488 0.002563 0.000244 0.000122 0.384766 ]
-2
Num Evals 0
GenUC: 1.557590e-02
GenUB: 4.639573e-03
Optimisation 1.584552e-05
Total Time: 6.527798e-02
2 Flipped
Graph 1:
0 0 0 1 1 1 1 
1 0 0 0 1 0 0 
1 1 1 1 0 0 1 
1 1 0 0 1 0 1 
0 0 1 1 1 1 1 
0 1 0 1 1 0 0 
0 0 0 1 1 0 0 
Graph 2:
1 1 1 1 0 0 0 
0 0 1 0 0 0 1 
1 0 0 1 1 1 1 
1 0 1 0 0 1 1 
1 1 1 1 1 0 0 
0 0 1 1 0 1 0 
0 0 1 1 0 0 0 
Solution: -12 60
Expectation: -31.540566
Final Parameters:
Gammas:
[ 3.916238 3.151634 ]
Betas:
[ 2.126752 2.116921 ]
Aggregate results:
[ 28 26 20 22 18 30 24 14 16 12 32 34 36 49 ]
[ 0.094688 0.133835 0.078962 0.122081 0.043011 0.051796 0.144584 0.002552 0.014365 0.000685 0.014783 0.002133 0.000204 0.296322 ]
3
Num Evals 202
GenUC: 1.727803e-03
GenUB: 1.716863e-03
Optimisation 1.560698e+00
Total Time: 1.571885e+00
3 Add 7
Graph 1:
0 0 0 1 1 1 1 
1 0 0 0 1 0 0 
1 1 1 1 0 0 1 
1 1 0 0 1 0 1 
0 0 1 1 1 1 1 
0 1 0 1 1 0 0 
0 0 0 1 1 0 0 
Graph 2:
0 0 0 1 1 1 1 
1 0 0 0 1 1 0 
1 1 1 1 0 1 1 
1 1 0 1 1 0 1 
0 0 1 1 1 1 1 
0 1 0 1 1 1 0 
1 0 0 1 1 0 1 
Solution: -6 0
Expectation: -25.804777
Final Parameters:
Gammas:
[ 3.208824 2.433009 ]
Betas:
[ 2.034996 1.529852 ]
Aggregate results:
[ 6 14 24 22 20 26 28 16 18 30 32 34 36 10 12 49 ]
[ 0.000297 0.006988 0.224307 0.162353 0.083871 0.192366 0.132499 0.014826 0.035064 0.067062 0.018290 0.004091 0.001391 0.000933 0.000820 0.054843 ]
3
Num Evals 217
GenUC: 1.942733e-03
GenUB: 1.646188e-03
Optimisation 1.472423e+00
Total Time: 1.482830e+00
4 Rem 7
Graph 1:
0 0 0 1 1 1 1 
1 0 0 0 1 0 0 
1 1 1 1 0 0 1 
1 1 0 0 1 0 1 
0 0 1 1 1 1 1 
0 1 0 1 1 0 0 
0 0 0 1 1 0 0 
Graph 2:
0 0 0 1 0 1 0 
1 0 0 0 0 0 0 
1 1 1 1 0 0 1 
0 1 0 0 1 0 1 
0 0 0 1 1 1 1 
0 1 0 1 0 0 0 
0 0 0 1 1 0 0 
Solution: -6 0
Expectation: -28.225981
Final Parameters:
Gammas:
[ 3.456762 2.576399 ]
Betas:
[ 2.015099 1.537831 ]
Aggregate results:
[ 6 14 20 18 16 22 24 26 30 28 32 12 36 34 10 38 49 ]
[ 0.000335 0.003040 0.107262 0.044186 0.014940 0.173943 0.191004 0.148225 0.040049 0.076381 0.017922 0.000709 0.000388 0.006048 0.000086 0.000374 0.175107 ]
3
Num Evals 296
GenUC: 1.952368e-03
GenUB: 1.942310e-03
Optimisation 1.993642e+00
Total Time: 2.004344e+00
5 Add/Rem 7
Graph 1:
0 0 0 1 1 1 1 
1 0 0 0 1 0 0 
1 1 1 1 0 0 1 
1 1 0 0 1 0 1 
0 0 1 1 1 1 1 
0 1 0 1 1 0 0 
0 0 0 1 1 0 0 
Graph 2:
1 0 0 1 0 1 0 
1 0 0 0 0 0 1 
1 1 1 1 0 0 1 
1 1 0 0 1 0 1 
0 0 1 1 1 1 1 
1 0 0 0 1 1 0 
1 1 0 1 1 0 0 
Solution: -11 0
Expectation: -28.933188
Final Parameters:
Gammas:
[ 3.331978 3.534537 ]
Betas:
[ 1.881700 1.161338 ]
Aggregate results:
[ 11 13 21 23 25 17 27 15 29 31 19 35 33 37 49 ]
[ 0.000662 0.001400 0.105906 0.192211 0.196550 0.021985 0.137456 0.007541 0.063019 0.021286 0.053122 0.001638 0.004192 0.000010 0.193024 ]
3
Num Evals 278
GenUC: 1.932574e-03
GenUB: 1.630711e-03
Optimisation 1.715891e+00
Total Time: 1.725691e+00
