Clock Speed: 3.499343
Num threads: 24
Trotterisation: 3
Graph Size: 7
Num Qubits: 13
Space Dimension: 8192
Run-Type: 0
Num_samples: 1
1 Isomorphic
Graph 1:
1 1 1 0 0 1 1 
1 1 1 0 0 0 0 
1 1 1 0 1 1 0 
1 0 0 0 1 0 0 
1 0 0 0 0 0 1 
0 1 1 0 0 0 0 
1 1 1 0 0 0 1 
Graph 2:
1 1 1 0 0 1 1 
1 1 1 0 0 0 0 
1 1 1 0 1 1 0 
1 0 0 0 1 0 0 
1 0 0 0 0 0 1 
0 1 1 0 0 0 0 
1 1 1 0 0 0 1 
Solution: 0 0
Expectation: -29.712566
Final Parameters:
Gammas:
[ 3.618683 2.848769 2.696741 ]
Betas:
[ 1.302197 1.526747 1.635801 1.059177 ]
Aggregate results:
[ 0 10 12 4 22 16 24 14 26 30 28 32 18 20 34 6 8 40 36 38 49 ]
[ 0.000385 0.000970 0.003351 0.000125 0.122739 0.036094 0.118480 0.016634 0.100735 0.053480 0.090966 0.034283 0.057158 0.107749 0.015172 0.000105 0.000845 0.000035 0.003557 0.001440 0.235696 ]
3
Num Evals 587
GenUC: 4.724375e-03
GenUB: 2.789947e-03
Optimisation 7.349552e+00
Total Time: 7.369404e+00
2 Flipped
Graph 1:
1 1 1 0 0 1 1 
1 1 1 0 0 0 0 
1 1 1 0 1 1 0 
1 0 0 0 1 0 0 
1 0 0 0 0 0 1 
0 1 1 0 0 0 0 
1 1 1 0 0 0 1 
Graph 2:
1 1 0 0 1 1 1 
0 0 0 0 1 1 1 
0 1 1 0 1 1 1 
0 0 1 0 0 0 1 
1 0 0 0 0 0 1 
0 0 0 0 1 1 0 
1 0 0 0 1 1 1 
Solution: -12 1560
Expectation: -32.077116
Final Parameters:
Gammas:
[ 5.254227 5.564623 5.218376 ]
Betas:
[ 1.427382 2.853840 2.185080 1.598160 ]
Aggregate results:
[ 22 24 28 26 30 20 18 16 32 34 14 36 12 49 ]
[ 0.100373 0.121308 0.088238 0.119103 0.052583 0.089610 0.048872 0.021388 0.024815 0.006213 0.006309 0.000990 0.000551 0.319646 ]
5
Num Evals 1287
GenUC: 1.956292e-03
GenUB: 1.872814e-03
Optimisation 1.030650e+01
Total Time: 1.032517e+01
3 Add 7
Graph 1:
1 1 1 0 0 1 1 
1 1 1 0 0 0 0 
1 1 1 0 1 1 0 
1 0 0 0 1 0 0 
1 0 0 0 0 0 1 
0 1 1 0 0 0 0 
1 1 1 0 0 0 1 
Graph 2:
1 1 1 0 0 1 1 
1 1 1 0 1 1 0 
1 1 1 1 1 1 0 
1 0 0 0 1 0 1 
1 0 0 0 1 0 1 
0 1 1 1 0 0 0 
1 1 1 0 0 0 1 
Solution: -6 0
Expectation: -24.833950
Final Parameters:
Gammas:
[ 6.100377 6.098612 5.889414 ]
Betas:
[ 1.878338 2.660128 1.691471 1.577408 ]
Aggregate results:
[ 6 14 16 24 22 18 28 32 20 26 30 8 10 12 34 36 38 49 ]
[ 0.001413 0.023516 0.054565 0.138284 0.184321 0.128937 0.037366 0.014648 0.198673 0.068039 0.022932 0.000587 0.000425 0.003614 0.003246 0.002278 0.000212 0.116946 ]
3
Num Evals 1956
GenUC: 1.973527e-03
GenUB: 1.846505e-03
Optimisation 9.707731e+00
Total Time: 9.726363e+00
4 Rem 7
Graph 1:
1 1 1 0 0 1 1 
1 1 1 0 0 0 0 
1 1 1 0 1 1 0 
1 0 0 0 1 0 0 
1 0 0 0 0 0 1 
0 1 1 0 0 0 0 
1 1 1 0 0 0 1 
Graph 2:
1 0 1 0 0 1 1 
1 0 1 0 0 0 0 
1 1 1 0 1 1 0 
1 0 0 0 0 0 0 
1 0 0 0 0 0 0 
0 0 0 0 0 0 0 
1 1 1 0 0 0 1 
Solution: -6 0
Expectation: -26.276467
Final Parameters:
Gammas:
[ 4.556766 4.712019 4.945773 ]
Betas:
[ 1.488446 3.076304 1.858793 1.442354 ]
Aggregate results:
[ 6 14 16 10 24 22 18 26 20 12 28 32 30 34 8 36 38 49 ]
[ 0.000649 0.046195 0.078562 0.002949 0.094138 0.131472 0.132857 0.074946 0.128396 0.012416 0.049003 0.023927 0.040547 0.009085 0.000686 0.005371 0.000222 0.168581 ]
3
Num Evals 2638
GenUC: 1.803711e-03
GenUB: 1.867939e-03
Optimisation 9.940808e+00
Total Time: 9.959344e+00
5 Add/Rem 7
Graph 1:
1 1 1 0 0 1 1 
1 1 1 0 0 0 0 
1 1 1 0 1 1 0 
1 0 0 0 1 0 0 
1 0 0 0 0 0 1 
0 1 1 0 0 0 0 
1 1 1 0 0 0 1 
Graph 2:
0 0 1 0 1 1 1 
1 1 1 1 0 1 0 
1 0 1 0 1 1 0 
1 0 1 0 1 0 0 
1 0 0 0 1 0 1 
0 1 1 1 0 0 0 
0 0 0 0 1 0 1 
Solution: -13 0
Expectation: -25.874369
Final Parameters:
Gammas:
[ 3.353407 3.378189 3.469307 ]
Betas:
[ 2.334170 0.272757 1.924508 1.615609 ]
Aggregate results:
[ 13 21 15 19 27 25 29 17 23 31 33 35 49 ]
[ 0.000431 0.166916 0.006736 0.089483 0.127806 0.178735 0.075815 0.034295 0.194398 0.029883 0.011970 0.001720 0.081812 ]
5
Num Evals 3338
GenUC: 2.003904e-03
GenUB: 1.853832e-03
Optimisation 8.927874e+00
Total Time: 8.944412e+00
