Clock Speed: 3.498813
Num threads: 24
Trotterisation: 4
Graph Size: 7
Num Qubits: 13
Space Dimension: 8192
Run-Type: 0
Num_samples: 1
1 Isomorphic
Graph 1:
0 0 0 1 0 0 1 
1 0 1 0 1 0 0 
1 0 0 0 1 0 0 
1 1 1 1 1 1 0 
1 1 1 0 1 1 1 
0 1 0 1 0 1 0 
1 0 1 1 1 1 1 
Graph 2:
0 0 0 1 0 0 1 
1 0 1 0 1 0 0 
1 0 0 0 1 0 0 
1 1 1 1 1 1 0 
1 1 1 0 1 1 1 
0 1 0 1 0 1 0 
1 0 1 1 1 1 1 
Solution: 0 0
Expectation: -32.621642
Final Parameters:
Gammas:
[ 4.731857 4.568332 4.165455 4.215524 ]
Betas:
[ 1.456474 2.124170 1.662821 1.671369 1.650345 ]
Aggregate results:
[ 0 16 14 6 8 18 20 24 22 12 26 28 32 30 34 10 38 36 49 ]
[ 0.000149 0.019686 0.006877 0.000009 0.000332 0.039336 0.074939 0.145120 0.107041 0.003041 0.108358 0.091217 0.016468 0.034563 0.004644 0.000253 0.000340 0.001210 0.346418 ]
5
Num Evals 700
GenUC: 4.727599e-03
GenUB: 2.880095e-03
Optimisation 1.196108e+01
Total Time: 1.198593e+01
2 Flipped
Graph 1:
0 0 0 1 0 0 1 
1 0 1 0 1 0 0 
1 0 0 0 1 0 0 
1 1 1 1 1 1 0 
1 1 1 0 1 1 1 
0 1 0 1 0 1 0 
1 0 1 1 1 1 1 
Graph 2:
1 0 0 1 0 0 0 
0 0 1 0 1 0 1 
0 0 1 0 0 0 1 
0 1 1 1 1 1 1 
1 1 1 0 1 1 1 
0 1 0 1 0 1 0 
1 1 1 1 1 0 1 
Solution: -10 643
Expectation: -25.459869
Final Parameters:
Gammas:
[ 6.223191 5.414367 5.421885 4.744626 ]
Betas:
[ 1.763394 2.115105 1.595472 1.680836 1.701560 ]
Aggregate results:
[ 12 18 14 16 22 24 26 20 28 30 32 10 34 49 ]
[ 0.002742 0.058320 0.006598 0.019692 0.175428 0.211071 0.181785 0.105877 0.115261 0.045205 0.009164 0.000377 0.002355 0.066126 ]
5
Num Evals 1400
GenUC: 1.862815e-03
GenUB: 1.681025e-03
Optimisation 1.225441e+01
Total Time: 1.227572e+01
3 Add 7
Graph 1:
0 0 0 1 0 0 1 
1 0 1 0 1 0 0 
1 0 0 0 1 0 0 
1 1 1 1 1 1 0 
1 1 1 0 1 1 1 
0 1 0 1 0 1 0 
1 0 1 1 1 1 1 
Graph 2:
0 0 0 1 1 1 1 
1 0 1 1 1 1 0 
1 0 0 0 1 0 0 
1 1 1 1 1 1 0 
1 1 1 0 1 1 1 
0 1 1 1 1 1 0 
1 0 1 1 1 1 1 
Solution: -6 0
Expectation: -21.961206
Final Parameters:
Gammas:
[ 6.229526 6.071657 2.963286 5.867431 ]
Betas:
[ 1.662546 2.203276 1.627831 1.730178 1.591859 ]
Aggregate results:
[ 6 18 10 14 12 22 20 24 16 28 26 30 32 34 49 ]
[ 0.002140 0.170919 0.003718 0.042369 0.005605 0.188055 0.214352 0.127609 0.091925 0.027286 0.063285 0.011039 0.002969 0.000451 0.048278 ]
5
Num Evals 2100
GenUC: 1.870435e-03
GenUB: 1.658404e-03
Optimisation 1.224348e+01
Total Time: 1.226434e+01
4 Rem 7
Graph 1:
0 0 0 1 0 0 1 
1 0 1 0 1 0 0 
1 0 0 0 1 0 0 
1 1 1 1 1 1 0 
1 1 1 0 1 1 1 
0 1 0 1 0 1 0 
1 0 1 1 1 1 1 
Graph 2:
0 0 0 1 0 0 0 
0 0 1 0 1 0 0 
1 0 0 0 1 0 0 
1 1 0 0 1 1 0 
1 1 0 0 1 1 1 
0 1 0 1 0 1 0 
1 0 1 0 1 1 1 
Solution: -6 0
Expectation: -28.990289
Final Parameters:
Gammas:
[ 5.963824 5.493797 4.907417 1.857485 ]
Betas:
[ 1.870703 2.230100 1.588346 1.604060 1.601635 ]
Aggregate results:
[ 6 18 16 12 14 22 20 24 28 30 26 32 34 36 38 49 ]
[ 0.000072 0.039722 0.013242 0.000443 0.003857 0.143685 0.082601 0.176083 0.111364 0.061026 0.153844 0.021077 0.006615 0.000567 0.000765 0.185037 ]
5
Num Evals 2800
GenUC: 2.024196e-03
GenUB: 1.842864e-03
Optimisation 1.210830e+01
Total Time: 1.212969e+01
5 Add/Rem 7
Graph 1:
0 0 0 1 0 0 1 
1 0 1 0 1 0 0 
1 0 0 0 1 0 0 
1 1 1 1 1 1 0 
1 1 1 0 1 1 1 
0 1 0 1 0 1 0 
1 0 1 1 1 1 1 
Graph 2:
0 1 0 1 0 1 1 
1 0 1 0 0 0 0 
1 0 1 0 1 0 0 
1 0 0 1 1 0 1 
1 1 1 0 1 1 1 
1 1 0 1 1 1 0 
1 0 0 0 0 1 1 
Solution: -13 0
Expectation: -26.462726
Final Parameters:
Gammas:
[ 3.330816 3.466457 4.028024 3.619274 ]
Betas:
[ 1.183112 2.035239 1.516548 1.586548 1.564220 ]
Aggregate results:
[ 13 23 17 21 25 19 27 29 31 15 35 33 37 49 ]
[ 0.001649 0.203986 0.029711 0.163563 0.173917 0.084529 0.128713 0.066939 0.023811 0.006261 0.001239 0.006249 0.000384 0.109049 ]
5
Num Evals 3500
GenUC: 2.012812e-03
GenUB: 1.669188e-03
Optimisation 1.139132e+01
Total Time: 1.141130e+01
