Clock Speed: 3.498733
Num threads: 24
Trotterisation: 5
Graph Size: 7
Num Qubits: 13
Space Dimension: 8192
Run-Type: 0
Num_samples: 1
Optimiser Method: 28
1 Isomorphic
Graph 1:
0 0 1 0 1 1 1 
0 1 0 0 0 0 0 
0 0 1 1 0 0 0 
1 0 0 1 1 0 1 
1 0 1 1 1 0 0 
0 0 0 1 0 0 1 
0 1 0 0 1 1 0 
Graph 2:
0 0 1 0 1 1 1 
0 1 0 0 0 0 0 
0 0 1 1 0 0 0 
1 0 0 1 1 0 1 
1 0 1 1 1 0 0 
0 0 0 1 0 0 1 
0 1 0 0 1 1 0 
Solution: 0 0
Expectation: -30.780708
Final Parameters:
Gammas:
[ 3.824770 3.612605 3.604065 2.780083 2.799671 ]
Betas:
[ 2.159832 1.532138 1.673239 1.604773 2.190328 ]
Aggregate results:
[ 0 16 18 8 14 10 22 24 12 20 26 28 30 32 34 49 ]
[ 0.000017 0.027022 0.064056 0.000626 0.008169 0.001379 0.127241 0.131784 0.002374 0.101257 0.121275 0.083085 0.028310 0.008102 0.000770 0.294534 ]
5
Num Evals 350
GenUC: 5.135322e-03
GenUB: 3.711447e-03
Optimisation 5.842256e+00
Total Time: 5.868044e+00
2 Flipped
Graph 1:
0 0 1 0 1 1 1 
0 1 0 0 0 0 0 
0 0 1 1 0 0 0 
1 0 0 1 1 0 1 
1 0 1 1 1 0 0 
0 0 0 1 0 0 1 
0 1 0 0 1 1 0 
Graph 2:
1 1 1 0 1 0 0 
0 0 0 0 0 1 0 
0 0 0 1 1 0 0 
1 0 1 1 0 0 1 
0 0 1 1 1 0 1 
1 0 0 1 0 0 0 
0 1 1 0 0 1 0 
Solution: -12 49
Expectation: -26.476060
Final Parameters:
Gammas:
[ 4.752574 3.245129 4.701894 3.165125 3.153815 ]
Betas:
[ 1.807411 1.391837 2.178998 1.046940 2.938162 ]
Aggregate results:
[ 16 20 22 18 24 26 28 14 12 30 32 34 49 ]
[ 0.021242 0.114107 0.195790 0.061116 0.201922 0.150601 0.086563 0.003327 0.003842 0.029446 0.009758 0.001287 0.121000 ]
5
Num Evals 350
GenUC: 1.954993e-03
GenUB: 1.690187e-03
Optimisation 5.852916e+00
Total Time: 5.873709e+00
3 Add 7
Graph 1:
0 0 1 0 1 1 1 
0 1 0 0 0 0 0 
0 0 1 1 0 0 0 
1 0 0 1 1 0 1 
1 0 1 1 1 0 0 
0 0 0 1 0 0 1 
0 1 0 0 1 1 0 
Graph 2:
0 0 1 1 1 1 1 
1 1 0 1 0 0 0 
1 0 1 1 0 0 0 
1 0 0 1 1 0 1 
1 0 1 1 1 0 1 
0 0 0 1 0 1 1 
0 1 0 1 1 1 0 
Solution: -7 0
Expectation: -28.344259
Final Parameters:
Gammas:
[ 6.105340 3.060992 5.615018 2.772295 3.552967 ]
Betas:
[ 2.499506 1.370564 1.755206 1.803630 1.684979 ]
Aggregate results:
[ 7 23 13 21 17 25 19 29 15 27 31 11 33 35 37 49 ]
[ 0.000033 0.128585 0.003056 0.111027 0.038766 0.153625 0.072813 0.113798 0.010002 0.139094 0.054680 0.000173 0.016835 0.002393 0.000896 0.154226 ]
5
Num Evals 350
GenUC: 1.915118e-03
GenUB: 1.853206e-03
Optimisation 5.797162e+00
Total Time: 5.817790e+00
4 Rem 7
Graph 1:
0 0 1 0 1 1 1 
0 1 0 0 0 0 0 
0 0 1 1 0 0 0 
1 0 0 1 1 0 1 
1 0 1 1 1 0 0 
0 0 0 1 0 0 1 
0 1 0 0 1 1 0 
Graph 2:
0 0 1 0 1 0 1 
0 1 0 0 0 0 0 
0 0 1 0 0 0 0 
0 0 0 0 0 0 1 
1 0 1 1 0 0 0 
0 0 0 1 0 0 1 
0 1 0 0 1 1 0 
Solution: -6 0
Expectation: -32.740234
Final Parameters:
Gammas:
[ 3.141593 3.141593 3.141593 3.141593 3.141593 ]
Betas:
[ 1.570796 1.570796 1.570796 1.570796 1.570796 ]
Aggregate results:
[ 6 18 12 14 20 16 22 10 24 26 28 30 32 49 ]
[ 0.000122 0.065063 0.002563 0.007568 0.095581 0.027588 0.126953 0.000366 0.131836 0.093262 0.047607 0.014282 0.002441 0.384766 ]
-2
Num Evals 0
GenUC: 1.734658e-03
GenUB: 1.633999e-03
Optimisation 1.687510e-05
Total Time: 1.849972e-02
5 Add/Rem 7
Graph 1:
0 0 1 0 1 1 1 
0 1 0 0 0 0 0 
0 0 1 1 0 0 0 
1 0 0 1 1 0 1 
1 0 1 1 1 0 0 
0 0 0 1 0 0 1 
0 1 0 0 1 1 0 
Graph 2:
1 0 1 0 1 1 1 
0 1 0 1 0 0 0 
1 0 0 0 0 0 1 
1 0 0 1 1 0 0 
1 0 1 1 0 0 1 
0 0 0 1 0 0 0 
1 1 0 1 0 0 0 
Solution: -12 364
Expectation: -33.384766
Final Parameters:
Gammas:
[ 3.141593 3.141593 3.141593 3.141593 3.141593 ]
Betas:
[ 1.570796 1.570796 1.570796 1.570796 1.570796 ]
Aggregate results:
[ 14 26 20 18 28 22 24 16 30 32 12 34 36 49 ]
[ 0.006104 0.109985 0.079224 0.039307 0.067627 0.122192 0.129517 0.016968 0.033081 0.009033 0.001099 0.000854 0.000244 0.384766 ]
-2
Num Evals 0
GenUC: 1.913463e-03
GenUB: 1.636242e-03
Optimisation 4.527159e-06
Total Time: 1.874278e-02
