Clock Speed: 3.498602
Num threads: 24
Trotterisation: 5
Graph Size: 7
Num Qubits: 13
Space Dimension: 8192
Run-Type: 1
Num_samples: 1
1 Isomorphic
Graph 1:
0 0 0 1 0 0 0 
1 1 1 0 0 1 0 
0 1 1 1 0 1 0 
0 1 1 0 1 0 0 
0 0 1 1 0 1 1 
1 1 1 1 1 0 1 
1 0 0 0 0 0 1 
Graph 2:
0 0 0 1 0 0 0 
1 1 1 0 0 1 0 
0 1 1 1 0 1 0 
0 1 1 0 1 0 0 
0 0 1 1 0 1 1 
1 1 1 1 1 0 1 
1 0 0 0 0 0 1 
Solution: 0 0
Expectation: -25.785324
Final Parameters:
Gammas:
[ 6.078252 6.207539 6.221762 5.577998 4.416650 ]
Betas:
[ 1.151648 2.482310 1.688176 1.583327 1.572140 1.588204 ]
Aggregate results:
[ 0 16 6 12 18 20 14 10 22 26 24 28 30 34 32 38 36 49 ]
[ 0.001768 0.038096 0.001934 0.007517 0.067633 0.125079 0.019901 0.005693 0.162058 0.139883 0.175289 0.088824 0.037450 0.003737 0.014615 0.000290 0.000573 0.109660 ]
5
Num Evals 700
GenUC: 4.570255e-03
GenUB: 2.252130e-03
Optimisation 1.358167e+01
Total Time: 1.360822e+01
