Clock Speed: 3.498643
Num threads: 24
Trotterisation: 5
Graph Size: 7
Num Qubits: 13
Space Dimension: 8192
Run-Type: 0
Num_samples: 1
1 Isomorphic
Graph 1:
1 0 1 0 0 1 0 
0 0 0 0 1 1 0 
0 1 1 1 0 0 1 
0 0 1 0 0 1 0 
0 1 0 1 1 0 0 
0 1 0 1 0 1 1 
1 0 0 1 1 1 0 
Graph 2:
1 0 1 0 0 1 0 
0 0 0 0 1 1 0 
0 1 1 1 0 0 1 
0 0 1 0 0 1 0 
0 1 0 1 1 0 0 
0 1 0 1 0 1 1 
1 0 0 1 1 1 0 
Solution: 0 0
Expectation: -22.983704
Final Parameters:
Gammas:
[ 4.453987 4.825392 3.060220 2.954258 5.301926 ]
Betas:
[ 1.301446 3.078412 2.033098 1.839042 1.710055 1.583325 ]
Aggregate results:
[ 0 14 20 18 22 26 16 6 8 24 12 30 10 28 32 4 34 49 ]
[ 0.000883 0.024220 0.185616 0.154083 0.178700 0.075947 0.058923 0.004279 0.004828 0.144106 0.017314 0.013763 0.019586 0.030244 0.005999 0.001223 0.000468 0.079818 ]
5
Num Evals 700
GenUC: 4.720864e-03
GenUB: 2.614089e-03
Optimisation 1.476778e+01
Total Time: 1.479689e+01
2 Flipped
Graph 1:
1 0 1 0 0 1 0 
0 0 0 0 1 1 0 
0 1 1 1 0 0 1 
0 0 1 0 0 1 0 
0 1 0 1 1 0 0 
0 1 0 1 0 1 1 
1 0 0 1 1 1 0 
Graph 2:
0 1 0 0 1 0 1 
0 1 1 0 0 0 0 
1 0 0 1 1 1 0 
0 1 0 0 1 0 0 
0 0 1 1 0 1 0 
1 1 0 1 0 1 0 
0 1 1 1 0 0 1 
Solution: -12 1848
Expectation: -31.724211
Final Parameters:
Gammas:
[ 4.706448 2.969669 4.897697 2.919410 3.367260 ]
Betas:
[ 1.471611 2.352503 1.728950 1.571585 1.595442 1.615652 ]
Aggregate results:
[ 32 22 24 26 30 28 34 20 16 18 14 12 36 49 ]
[ 0.011908 0.148443 0.125261 0.113490 0.030932 0.059828 0.001286 0.095940 0.016271 0.059151 0.008360 0.000232 0.000475 0.328424 ]
5
Num Evals 1400
GenUC: 2.048205e-03
GenUB: 1.814439e-03
Optimisation 1.415377e+01
Total Time: 1.417800e+01
3 Add 7
Graph 1:
1 0 1 0 0 1 0 
0 0 0 0 1 1 0 
0 1 1 1 0 0 1 
0 0 1 0 0 1 0 
0 1 0 1 1 0 0 
0 1 0 1 0 1 1 
1 0 0 1 1 1 0 
Graph 2:
1 0 1 1 1 1 0 
0 0 0 0 1 1 0 
0 1 1 1 0 0 1 
0 1 1 0 1 1 0 
0 1 1 1 1 0 1 
0 1 0 1 1 1 1 
1 0 0 1 1 1 0 
Solution: -7 0
Expectation: -22.763521
Final Parameters:
Gammas:
[ 3.202794 2.885651 2.919430 6.003279 3.603152 ]
Betas:
[ 1.656201 2.383543 1.743278 1.578114 1.653473 1.616218 ]
Aggregate results:
[ 7 19 23 27 29 17 21 25 11 15 33 31 13 35 49 ]
[ 0.000401 0.197393 0.137713 0.057722 0.032851 0.109827 0.230825 0.078933 0.018017 0.027652 0.009631 0.008925 0.024741 0.006301 0.059068 ]
5
Num Evals 2100
GenUC: 1.996222e-03
GenUB: 1.667323e-03
Optimisation 1.382734e+01
Total Time: 1.385140e+01
4 Rem 7
Graph 1:
1 0 1 0 0 1 0 
0 0 0 0 1 1 0 
0 1 1 1 0 0 1 
0 0 1 0 0 1 0 
0 1 0 1 1 0 0 
0 1 0 1 0 1 1 
1 0 0 1 1 1 0 
Graph 2:
1 0 0 0 0 0 0 
0 0 0 0 1 1 0 
0 1 1 1 0 0 1 
0 0 0 0 0 0 0 
0 1 0 1 1 0 0 
0 1 0 1 0 1 1 
1 0 0 0 1 0 0 
Solution: -6 0
Expectation: -27.565230
Final Parameters:
Gammas:
[ 3.556924 2.985204 2.353961 2.339417 0.565275 ]
Betas:
[ 1.838552 2.350009 1.724296 1.562841 1.576576 1.589107 ]
Aggregate results:
[ 6 18 22 14 20 28 26 16 8 24 32 12 10 30 49 ]
[ 0.000488 0.097938 0.184145 0.017563 0.155654 0.036137 0.086865 0.034702 0.003298 0.138802 0.001382 0.010629 0.004178 0.010013 0.218207 ]
5
Num Evals 2800
GenUC: 1.795790e-03
GenUB: 1.649632e-03
Optimisation 1.406898e+01
Total Time: 1.409262e+01
5 Add/Rem 7
Graph 1:
1 0 1 0 0 1 0 
0 0 0 0 1 1 0 
0 1 1 1 0 0 1 
0 0 1 0 0 1 0 
0 1 0 1 1 0 0 
0 1 0 1 0 1 1 
1 0 0 1 1 1 0 
Graph 2:
1 0 1 0 1 1 0 
0 0 0 0 0 1 1 
0 1 1 1 0 0 0 
0 1 1 1 0 1 0 
0 1 0 1 1 0 0 
0 1 1 1 1 0 1 
1 0 0 1 1 0 0 
Solution: -10 0
Expectation: -32.397069
Final Parameters:
Gammas:
[ 4.478022 2.470475 4.980705 3.599231 2.858200 ]
Betas:
[ 1.336436 2.356582 1.501485 1.672806 1.624543 1.652528 ]
Aggregate results:
[ 10 20 24 22 26 18 14 16 28 30 32 12 36 34 49 ]
[ 0.000110 0.092021 0.128596 0.128111 0.120725 0.042579 0.007637 0.015269 0.075865 0.030003 0.008731 0.000969 0.000196 0.002552 0.346636 ]
5
Num Evals 3500
GenUC: 2.009797e-03
GenUB: 1.666800e-03
Optimisation 1.395376e+01
Total Time: 1.397767e+01
