Clock Speed: 3.498647
Num threads: 24
Trotterisation: 6
Graph Size: 7
Num Qubits: 13
Space Dimension: 8192
Run-Type: 1
Num_samples: 1
1 Isomorphic
Graph 1:
0 1 1 1 1 0 1 
0 1 0 1 0 1 1 
1 0 0 1 0 0 1 
0 1 0 1 0 0 1 
1 0 0 1 0 0 1 
1 0 0 1 0 1 1 
0 0 0 0 0 1 1 
Graph 2:
0 1 1 1 1 0 1 
0 1 0 1 0 1 1 
1 0 0 1 0 0 1 
0 1 0 1 0 0 1 
1 0 0 1 0 0 1 
1 0 0 1 0 1 1 
0 0 0 0 0 1 1 
Solution: 0 0
Expectation: -31.600942
Final Parameters:
Gammas:
[ 4.598265 3.162214 4.597804 3.340603 3.126779 4.439553 ]
Betas:
[ 1.616271 2.171461 2.287589 1.492720 1.643779 1.709917 1.624907 ]
Aggregate results:
[ 0 18 16 8 20 14 22 10 26 24 12 28 6 30 32 34 36 49 ]
[ 0.000606 0.044095 0.022816 0.002320 0.058723 0.007368 0.100775 0.000945 0.110557 0.122553 0.007150 0.115437 0.000241 0.076637 0.033694 0.006323 0.000483 0.289277 ]
5
Num Evals 700
GenUC: 1.218967e-02
GenUB: 2.459463e-03
Optimisation 1.687097e+01
Total Time: 1.691012e+01
