Clock Speed: 3.498573
Num threads: 24
Trotterisation: 6
Graph Size: 7
Num Qubits: 13
Space Dimension: 8192
Run-Type: 1
Num_samples: 1
1 Isomorphic
Graph 1:
0 1 0 0 1 1 1 
0 0 1 0 1 1 0 
0 0 0 1 0 1 1 
1 1 1 0 0 0 0 
1 0 1 1 1 0 0 
1 1 1 1 1 1 1 
1 1 0 1 0 0 1 
Graph 2:
0 1 0 0 1 1 1 
0 0 1 0 1 1 0 
0 0 0 1 0 1 1 
1 1 1 0 0 0 0 
1 0 1 1 1 0 0 
1 1 1 1 1 1 1 
1 1 0 1 0 0 1 
Solution: 0 0
Expectation: -31.203788
Final Parameters:
Gammas:
[ 4.624561 3.158311 4.467806 3.284238 3.164525 4.385026 ]
Betas:
[ 1.510974 2.140154 2.126431 1.466063 1.671584 1.591807 1.645236 ]
Aggregate results:
[ 0 8 12 14 10 16 18 22 26 24 20 28 32 30 34 36 6 49 ]
[ 0.000319 0.001182 0.001760 0.007757 0.000392 0.019663 0.043664 0.128442 0.131418 0.140535 0.093046 0.083497 0.011627 0.035907 0.001670 0.000542 0.000233 0.298344 ]
5
Num Evals 700
GenUC: 2.667867e-02
GenUB: 3.471501e-03
Optimisation 1.698978e+01
Total Time: 1.704422e+01
