Clock Speed: 3.689421
Num threads: 4
Trotterisation: 6
Graph Size: 5
Num Qubits: 7
Space Dimension: 128
Run-Type: 0
Num_samples: 10
1 Isomorphic
Graph 1:
0 1 0 0 1 
0 0 1 1 0 
0 0 0 1 0 
0 1 1 0 0 
1 1 1 1 0 
Graph 2:
0 1 0 0 1 
0 0 1 1 0 
0 0 0 1 0 
0 1 1 0 0 
1 1 1 1 0 
Solution: 0 0
Gbest: 0.000000
Expectation: -5.878255
Final Parameters:
Gammas:
[ 3.459706 3.142608 2.728410 3.131160 2.801240 2.607320 ]
Betas:
[ 2.546136 1.478057 1.544556 1.456938 1.977341 1.855556 1.550801 ]
Aggregate results:
[ -1 9 7 3 1 5 11 13 24 ]
[ 0.140931 0.208864 0.087892 0.222681 0.095041 0.176514 0.046848 0.013301 0.007928 ]
5
Num Evals 500
GenUC: 1.509800e-04
GenUB: 3.341981e-05
Optimisation 5.411085e-01
Total Time: 5.421728e-01
2 Flipped
Graph 1:
0 1 0 0 1 
0 0 1 1 0 
0 0 0 1 0 
0 1 1 0 0 
1 1 1 1 0 
Graph 2:
1 0 0 1 0 
0 1 1 0 0 
0 1 0 0 0 
0 0 1 1 0 
0 1 1 1 1 
Solution: -8 8
Gbest: -10.000000
Expectation: -12.957291
Final Parameters:
Gammas:
[ 3.521358 0.861801 1.788007 4.479415 3.010392 3.307493 ]
Betas:
[ 2.618479 1.357726 1.556588 1.613192 1.482903 1.499486 1.704083 ]
Aggregate results:
[ 11 13 9 7 15 17 24 ]
[ 0.364722 0.334544 0.123898 0.049627 0.061233 0.052588 0.013388 ]
5
Num Evals 1000
GenUC: 2.319354e-05
GenUB: 1.975009e-05
Optimisation 4.688733e-01
Total Time: 4.698886e-01
3 Add 5
Graph 1:
0 1 0 0 1 
0 0 1 1 0 
0 0 0 1 0 
0 1 1 0 0 
1 1 1 1 0 
Graph 2:
0 1 0 0 1 
1 0 1 1 1 
0 0 1 1 0 
0 1 1 0 1 
1 1 1 1 1 
Solution: -5 0
Gbest: -5.000000
Expectation: -8.855638
Final Parameters:
Gammas:
[ 3.250331 3.089320 3.250669 2.718736 3.747649 3.178115 ]
Betas:
[ 2.875802 1.857853 1.874175 2.475585 0.189077 1.897700 1.119821 ]
Aggregate results:
[ 4 10 12 8 6 14 24 ]
[ 0.180965 0.207674 0.062775 0.392864 0.131033 0.021992 0.002698 ]
5
Num Evals 1500
GenUC: 2.391718e-05
GenUB: 1.780281e-05
Optimisation 4.632468e-01
Total Time: 4.641244e-01
4 Rem 5
Graph 1:
0 1 0 0 1 
0 0 1 1 0 
0 0 0 1 0 
0 1 1 0 0 
1 1 1 1 0 
Graph 2:
0 1 0 0 1 
0 0 1 0 0 
0 0 0 1 0 
0 1 1 0 0 
1 0 0 0 0 
Solution: -4 0
Gbest: -4.000000
Expectation: -11.218750
Final Parameters:
Gammas:
[ 3.298672 3.141593 3.141593 3.141593 3.141593 3.141593 ]
Betas:
[ 2.434734 1.570796 1.570796 1.570796 1.570796 1.570796 1.570796 ]
Aggregate results:
[ 3 11 7 9 13 5 24 ]
[ 0.023438 0.289062 0.140625 0.296875 0.109375 0.078125 0.062500 ]
3
Num Evals 1530
GenUC: 2.249936e-05
GenUB: 1.768675e-05
Optimisation 2.303759e-02
Total Time: 2.389027e-02
5 Add/Rem 5
Graph 1:
0 1 0 0 1 
0 0 1 1 0 
0 0 0 1 0 
0 1 1 0 0 
1 1 1 1 0 
Graph 2:
0 1 1 0 0 
0 1 1 0 0 
1 0 0 1 1 
0 0 1 1 0 
1 1 0 1 0 
Solution: -9 0
Gbest: -9.000000
Expectation: -10.133760
Final Parameters:
Gammas:
[ 3.280816 3.067970 3.483500 3.475068 3.157297 3.267605 ]
Betas:
[ 2.990462 2.317483 0.570834 1.413066 0.950696 2.117058 1.589085 ]
Aggregate results:
[ 8 10 14 12 16 24 ]
[ 0.573460 0.338076 0.015663 0.064632 0.003199 0.004969 ]
5
Num Evals 2030
GenUC: 2.192543e-05
GenUB: 1.669372e-05
Optimisation 4.693095e-01
Total Time: 4.701791e-01
