Clock Speed: 3.688891
Num threads: 4
Trotterisation: 4
Num Qubits: 7
Space Dimension: 128
Run-Type: 0
Num_samples: 5
Optimiser Method: 0
1 Isomorphic
Graph 1:
0 0 0 0 0 
0 0 0 1 1 
0 0 0 0 0 
0 1 0 0 0 
0 1 0 0 0 
Graph 2:
0 0 0 0 0 
0 0 0 1 1 
0 0 0 0 0 
0 1 0 0 0 
0 1 0 0 0 
Solution: 25 0
Classic Expectation: 18.600000
Initial Expecation: 17.437500
Gbest: 25.000000
Expectation: 20.340585
Final Parameters:
Gammas:
[ 3.219163 5.235988 5.235988 1.512619 ]
Betas:
[ 1.803507 0.523599 1.803507 1.570796 ]
Aggregate results:
[ 25 21 17 0 ]
[ 0.121301 0.626978 0.243619 0.008102 ]
5
Num Evals 4000
GenUC: 4.099830e-05
GenUB: 1.303192e-05
Optimisation 5.167876e+01
Total Time: 5.167884e+01
2 Flipped
Graph 1:
0 0 0 0 0 
0 0 0 1 1 
0 0 0 0 0 
0 1 0 0 0 
0 1 0 0 0 
Graph 2:
0 0 0 0 0 
1 1 0 0 0 
0 0 0 0 0 
0 0 0 1 0 
0 0 0 1 0 
Solution: 19 12
Classic Expectation: 17.800000
Initial Expecation: 16.687500
Gbest: 19.000000
Expectation: 18.486601
Final Parameters:
Gammas:
[ 3.257948 0.969042 3.257948 3.166439 ]
Betas:
[ 1.396263 1.525281 1.560023 0.349214 ]
Aggregate results:
[ 17 19 0 ]
[ 0.213635 0.781832 0.004533 ]
5
Num Evals 4000
GenUC: 4.451699e-05
GenUB: 2.922454e-06
Optimisation 5.395033e+01
Total Time: 5.395038e+01
3 Add 5
Graph 1:
0 0 0 0 0 
0 0 0 1 1 
0 0 0 0 0 
0 1 0 0 0 
0 1 0 0 0 
Graph 2:
1 1 1 1 1 
1 0 1 1 1 
1 1 0 0 0 
1 1 0 0 0 
1 1 0 0 0 
Solution: 14 0
Classic Expectation: 11.600000
Initial Expecation: 10.875000
Gbest: 14.000000
Expectation: 12.365886
Final Parameters:
Gammas:
[ 5.559197 1.076406 2.917980 3.076951 ]
Betas:
[ 1.482453 0.659347 1.745329 1.745329 ]
Aggregate results:
[ 14 6 10 0 ]
[ 0.674547 0.063176 0.254317 0.007960 ]
5
Num Evals 4000
GenUC: 4.448647e-05
GenUB: 2.878442e-06
Optimisation 4.921153e+01
Total Time: 4.921158e+01
4 Rem 5
Graph 1:
0 0 0 0 0 
0 0 0 1 1 
0 0 0 0 0 
0 1 0 0 0 
0 1 0 0 0 
Graph 2:
0 0 0 0 0 
0 0 0 0 0 
0 0 0 0 0 
0 0 0 0 0 
0 0 0 0 0 
Solution: 21 0
Classic Expectation: 21.000000
Initial Expecation: 19.687500
Gbest: 21.000000
Expectation: 21.000000
Final Parameters:
Gammas:
[ 3.141593 5.235988 4.537857 5.235986 ]
Betas:
[ 0.562437 2.605118 1.573669 2.501691 ]
Aggregate results:
[ 21 0 ]
[ 1.000000 0.000000 ]
5
Num Evals 4000
GenUC: 4.428636e-05
GenUB: 2.905435e-06
Optimisation 5.809790e+01
Total Time: 5.809795e+01
5 Add/Rem 5
Graph 1:
0 0 0 0 0 
0 0 0 1 1 
0 0 0 0 0 
0 1 0 0 0 
0 1 0 0 0 
Graph 2:
0 1 1 1 1 
1 0 1 0 0 
1 1 0 0 0 
1 0 0 0 0 
1 0 0 0 0 
Solution: 19 24
Classic Expectation: 15.000000
Initial Expecation: 14.062500
Gbest: 19.000000
Expectation: 16.079586
Final Parameters:
Gammas:
[ 5.168879 1.008413 3.163614 1.077364 ]
Betas:
[ 0.581777 0.504206 2.637386 0.568848 ]
Aggregate results:
[ 11 15 19 0 ]
[ 0.116988 0.455847 0.418685 0.008480 ]
5
Num Evals 4000
GenUC: 4.440548e-05
GenUB: 2.854969e-06
Optimisation 4.820686e+01
Total Time: 4.820691e+01
