Clock Speed: 3.689275
Num threads: 4
Trotterisation: 5
Graph Size: 6
Num Qubits: 10
Space Dimension: 1024
Run-Type: 0
Num_samples: 10
1 Isomorphic
Graph 1:
1 0 1 1 1 0 
0 0 1 1 1 1 
0 1 0 1 1 1 
0 1 1 1 1 0 
0 0 1 0 1 1 
1 0 0 1 0 1 
Graph 2:
1 0 1 1 1 0 
0 0 1 1 1 1 
0 1 0 1 1 1 
0 1 1 1 1 0 
0 0 1 0 1 1 
1 0 0 1 0 1 
Solution: 0 0
Gbest: -18.000000
Expectation: -22.116455
Final Parameters:
Gammas:
[ 3.141593 5.235988 3.141593 1.047198 3.141593 ]
Betas:
[ 1.570796 1.570796 1.570796 0.523599 1.570796 1.570796 ]
Aggregate results:
[ -1 9 13 3 15 19 17 7 11 21 23 25 5 35 ]
[ 0.000984 0.026275 0.116971 0.001254 0.128340 0.126407 0.198836 0.009274 0.040324 0.065553 0.014339 0.001615 0.001657 0.268171 ]
3
Num Evals 75
GenUC: 2.587588e-04
GenUB: 1.963883e-04
Optimisation 1.884889e-01
Total Time: 1.911188e-01
2 Flipped
Graph 1:
1 0 1 1 1 0 
0 0 1 1 1 1 
0 1 0 1 1 1 
0 1 1 1 1 0 
0 0 1 0 1 1 
1 0 0 1 0 1 
Graph 2:
0 1 1 1 0 1 
1 1 1 1 0 0 
1 1 1 0 1 0 
0 1 1 1 1 0 
1 1 0 1 0 0 
1 0 1 0 0 1 
Solution: -8 542
Gbest: -16.000000
Expectation: -21.083435
Final Parameters:
Gammas:
[ 5.934119 3.141593 3.141593 2.443461 2.443461 ]
Betas:
[ 1.570796 1.570796 1.570796 0.523599 1.570796 1.570796 ]
Aggregate results:
[ 19 15 17 13 11 21 23 25 9 7 35 ]
[ 0.130371 0.203386 0.223986 0.118151 0.031189 0.063743 0.016795 0.004898 0.009236 0.000009 0.198236 ]
3
Num Evals 278
GenUC: 1.319390e-04
GenUB: 1.492059e-04
Optimisation 4.814313e-01
Total Time: 4.841384e-01
3 Add 6
Graph 1:
1 0 1 1 1 0 
0 0 1 1 1 1 
0 1 0 1 1 1 
0 1 1 1 1 0 
0 0 1 0 1 1 
1 0 0 1 0 1 
Graph 2:
1 0 1 1 1 1 
0 1 1 1 1 1 
1 1 0 1 1 1 
1 1 1 1 1 0 
0 1 1 1 1 1 
1 0 0 1 0 1 
Solution: -6 0
Gbest: -12.000000
Expectation: -20.757778
Final Parameters:
Gammas:
[ 5.235988 1.047198 1.047198 3.141593 1.047198 ]
Betas:
[ 1.570796 0.523599 1.570796 1.570796 1.570796 1.570796 ]
Aggregate results:
[ 5 7 13 11 15 17 19 9 21 35 ]
[ 0.002205 0.006341 0.142712 0.102411 0.205699 0.217430 0.059161 0.015200 0.002250 0.246591 ]
3
Num Evals 357
GenUC: 1.081033e-04
GenUB: 1.649110e-04
Optimisation 1.820771e-01
Total Time: 1.845341e-01
4 Rem 6
Graph 1:
1 0 1 1 1 0 
0 0 1 1 1 1 
0 1 0 1 1 1 
0 1 1 1 1 0 
0 0 1 0 1 1 
1 0 0 1 0 1 
Graph 2:
1 0 1 0 0 0 
0 0 1 1 0 1 
0 1 0 1 1 1 
0 1 0 1 1 0 
0 0 1 0 1 0 
1 0 0 1 0 0 
Solution: -6 0
Gbest: -14.000000
Expectation: -23.123531
Final Parameters:
Gammas:
[ 5.235988 1.047198 1.047198 3.141593 3.141593 ]
Betas:
[ 1.570796 1.570796 0.523599 1.570796 1.570796 1.570796 ]
Aggregate results:
[ 5 15 17 9 19 25 13 23 11 21 29 27 35 ]
[ 0.000299 0.124692 0.166554 0.008834 0.164119 0.012306 0.070362 0.039404 0.032925 0.112245 0.000638 0.001348 0.266275 ]
3
Num Evals 404
GenUC: 1.389979e-04
GenUB: 1.596529e-04
Optimisation 1.083719e-01
Total Time: 1.109976e-01
5 Add/Rem 6
Graph 1:
1 0 1 1 1 0 
0 0 1 1 1 1 
0 1 0 1 1 1 
0 1 1 1 1 0 
0 0 1 0 1 1 
1 0 0 1 0 1 
Graph 2:
1 0 1 0 1 1 
0 0 1 1 1 1 
0 0 0 1 1 0 
1 1 1 1 1 1 
1 0 1 0 1 1 
0 1 0 0 0 0 
Solution: -9 177
Gbest: -15.000000
Expectation: -20.881302
Final Parameters:
Gammas:
[ 3.141593 3.141593 5.235988 3.141593 3.141593 ]
Betas:
[ 1.570796 1.570796 2.617994 1.570796 1.570796 1.570796 ]
Aggregate results:
[ 10 16 14 12 18 20 22 8 24 35 ]
[ 0.026424 0.222439 0.166561 0.051659 0.201694 0.116081 0.025005 0.000141 0.004265 0.185730 ]
3
Num Evals 437
GenUC: 1.270270e-04
GenUB: 1.590049e-04
Optimisation 7.655357e-02
Total Time: 7.928961e-02
