Clock Speed: 3.689194
Num threads: 4
Trotterisation: 5
Graph Size: 6
Num Qubits: 10
Space Dimension: 1024
Run-Type: 0
Num_samples: 10
1 Isomorphic
Graph 1:
1 1 0 0 0 1 
0 1 0 0 1 1 
1 1 1 1 1 1 
1 0 0 1 1 0 
0 0 1 0 1 0 
1 1 1 0 1 0 
Graph 2:
1 1 0 0 0 1 
0 1 0 0 1 1 
1 1 1 1 1 1 
1 0 0 1 1 0 
0 0 1 0 1 0 
1 1 1 0 1 0 
Solution: 0 0
Gbest: -10.000000
Expectation: -21.893588
Final Parameters:
Gammas:
[ 5.235988 3.141593 3.141593 3.141593 3.141593 ]
Betas:
[ 2.617994 1.570796 1.570796 1.570796 1.570796 0.523599 ]
Aggregate results:
[ -1 5 11 9 13 7 15 17 19 21 23 35 ]
[ 0.003195 0.001804 0.069488 0.017251 0.104703 0.005706 0.147533 0.226778 0.107603 0.039593 0.004094 0.272249 ]
3
Num Evals 59
GenUC: 2.996854e-04
GenUB: 1.900867e-04
Optimisation 1.418452e-01
Total Time: 1.447679e-01
2 Flipped
Graph 1:
1 1 0 0 0 1 
0 1 0 0 1 1 
1 1 1 1 1 1 
1 0 0 1 1 0 
0 0 1 0 1 0 
1 1 1 0 1 0 
Graph 2:
1 0 0 0 1 1 
1 1 0 0 1 0 
1 1 1 1 1 1 
0 1 1 0 0 1 
0 1 0 1 0 0 
0 1 0 1 1 1 
Solution: -8 209
Gbest: -12.000000
Expectation: -22.235884
Final Parameters:
Gammas:
[ 5.235988 3.141593 3.141593 3.141593 3.141593 ]
Betas:
[ 2.617994 1.570796 1.570796 1.570796 1.570796 0.523599 ]
Aggregate results:
[ 17 13 15 19 21 11 23 9 7 25 35 ]
[ 0.226714 0.104965 0.159095 0.099347 0.058162 0.060207 0.009045 0.005413 0.002865 0.001383 0.272803 ]
3
Num Evals 140
GenUC: 1.303384e-04
GenUB: 1.418890e-04
Optimisation 2.286598e-01
Total Time: 2.314191e-01
3 Add 6
Graph 1:
1 1 0 0 0 1 
0 1 0 0 1 1 
1 1 1 1 1 1 
1 0 0 1 1 0 
0 0 1 0 1 0 
1 1 1 0 1 0 
Graph 2:
1 1 1 1 0 1 
1 1 1 0 1 1 
1 1 1 1 1 1 
1 1 0 1 1 0 
1 0 1 0 1 0 
1 1 1 0 1 0 
Solution: -6 0
Gbest: -10.000000
Expectation: -21.572637
Final Parameters:
Gammas:
[ 5.235988 5.235988 3.141593 3.141593 3.141593 ]
Betas:
[ 1.570796 0.523599 1.570796 1.570796 1.570796 1.570796 ]
Aggregate results:
[ 5 7 13 9 11 15 17 19 21 35 ]
[ 0.000604 0.002999 0.126674 0.008324 0.065350 0.194601 0.254474 0.064256 0.018070 0.264648 ]
3
Num Evals 177
GenUC: 1.251054e-04
GenUB: 1.734961e-04
Optimisation 8.408216e-02
Total Time: 8.655410e-02
4 Rem 6
Graph 1:
1 1 0 0 0 1 
0 1 0 0 1 1 
1 1 1 1 1 1 
1 0 0 1 1 0 
0 0 1 0 1 0 
1 1 1 0 1 0 
Graph 2:
1 0 0 0 0 1 
0 1 0 0 1 1 
0 1 0 0 1 1 
1 0 0 0 1 0 
0 0 0 0 1 0 
1 1 1 0 1 0 
Solution: -6 0
Gbest: -12.000000
Expectation: -23.122149
Final Parameters:
Gammas:
[ 1.047198 3.141593 3.141593 3.141593 3.141593 ]
Betas:
[ 1.570796 0.523599 1.570796 1.570796 1.570796 1.570796 ]
Aggregate results:
[ 5 9 11 7 15 13 17 19 21 23 25 27 35 ]
[ 0.003097 0.011184 0.032558 0.002926 0.151080 0.057335 0.183814 0.130616 0.108608 0.029917 0.006534 0.000560 0.281770 ]
3
Num Evals 210
GenUC: 1.235357e-04
GenUB: 1.641501e-04
Optimisation 7.944697e-02
Total Time: 8.202256e-02
5 Add/Rem 6
Graph 1:
1 1 0 0 0 1 
0 1 0 0 1 1 
1 1 1 1 1 1 
1 0 0 1 1 0 
0 0 1 0 1 0 
1 1 1 0 1 0 
Graph 2:
1 1 1 1 0 1 
1 1 0 1 1 1 
1 1 0 1 1 1 
1 0 0 1 1 0 
0 0 0 0 0 0 
1 0 1 0 1 1 
Solution: -7 392
Gbest: -13.000000
Expectation: -20.568512
Final Parameters:
Gammas:
[ 3.141593 3.141593 1.047198 3.141593 3.141593 ]
Betas:
[ 1.570796 1.570796 2.617994 1.570796 1.570796 1.570796 ]
Aggregate results:
[ 8 12 14 10 16 18 20 22 24 6 26 35 ]
[ 0.006378 0.101479 0.176208 0.033749 0.176128 0.181976 0.079628 0.045429 0.009739 0.000851 0.002705 0.185730 ]
3
Num Evals 243
GenUC: 1.205857e-04
GenUB: 1.641689e-04
Optimisation 7.653293e-02
Total Time: 7.929741e-02
