Clock Speed: 3.688668
Num threads: 4
Trotterisation: 5
Graph Size: 6
Num Qubits: 10
Space Dimension: 1024
Run-Type: 0
Num_samples: 10
1 Isomorphic
Graph 1:
1 1 0 1 1 1 
1 1 1 0 0 0 
0 0 1 1 0 1 
1 0 0 0 0 1 
1 1 1 0 1 1 
1 1 1 1 1 1 
Graph 2:
1 1 0 1 1 1 
1 1 1 0 0 0 
0 0 1 1 0 1 
1 0 0 0 0 1 
1 1 1 0 1 1 
1 1 1 1 1 1 
Solution: 0 0
Gbest: -8.000000
Expectation: -21.218617
Final Parameters:
Gammas:
[ 5.235988 3.141593 5.235988 3.141593 3.141593 ]
Betas:
[ 1.570796 1.570796 1.570796 1.570796 1.570796 0.523599 ]
Aggregate results:
[ -1 9 11 5 13 15 17 3 7 19 21 23 35 ]
[ 0.001376 0.036335 0.099834 0.006852 0.133224 0.190475 0.187009 0.000473 0.003290 0.049443 0.012201 0.000821 0.278668 ]
3
Num Evals 67
GenUC: 2.881675e-04
GenUB: 1.935246e-04
Optimisation 1.772522e-01
Total Time: 1.800887e-01
2 Flipped
Graph 1:
1 1 0 1 1 1 
1 1 1 0 0 0 
0 0 1 1 0 1 
1 0 0 0 0 1 
1 1 1 0 1 1 
1 1 1 1 1 1 
Graph 2:
1 1 1 0 1 1 
0 0 0 1 1 1 
1 0 1 1 0 0 
1 0 0 0 0 1 
1 1 0 1 1 1 
1 1 1 1 1 1 
Solution: -8 3
Gbest: -12.000000
Expectation: -21.509748
Final Parameters:
Gammas:
[ 5.235988 3.141593 5.235988 3.141593 3.141593 ]
Betas:
[ 1.570796 1.570796 1.570796 1.570796 1.570796 0.523599 ]
Aggregate results:
[ 11 9 7 17 13 15 19 21 23 35 ]
[ 0.088233 0.028804 0.007624 0.168401 0.145231 0.183820 0.070924 0.017149 0.011058 0.278755 ]
3
Num Evals 140
GenUC: 1.248957e-04
GenUB: 1.489061e-04
Optimisation 1.746337e-01
Total Time: 1.771519e-01
3 Add 6
Graph 1:
1 1 0 1 1 1 
1 1 1 0 0 0 
0 0 1 1 0 1 
1 0 0 0 0 1 
1 1 1 0 1 1 
1 1 1 1 1 1 
Graph 2:
1 1 1 1 1 1 
1 1 1 0 1 1 
0 0 1 1 1 1 
1 0 0 0 1 1 
1 1 1 0 1 1 
1 1 1 1 1 1 
Solution: -5 0
Gbest: -9.000000
Expectation: -18.688019
Final Parameters:
Gammas:
[ 3.141593 3.141593 5.235988 3.141593 3.141593 ]
Betas:
[ 1.570796 1.570796 2.617994 1.570796 1.570796 1.570796 ]
Aggregate results:
[ 4 8 10 12 14 16 6 18 35 ]
[ 0.003189 0.019787 0.068317 0.164257 0.286640 0.202751 0.011894 0.057434 0.185730 ]
3
Num Evals 173
GenUC: 1.040705e-04
GenUB: 1.696356e-04
Optimisation 7.996133e-02
Total Time: 8.275517e-02
4 Rem 6
Graph 1:
1 1 0 1 1 1 
1 1 1 0 0 0 
0 0 1 1 0 1 
1 0 0 0 0 1 
1 1 1 0 1 1 
1 1 1 1 1 1 
Graph 2:
1 1 0 1 1 1 
0 0 1 0 0 0 
0 0 1 1 0 1 
0 0 0 0 0 1 
1 0 1 0 0 1 
1 1 1 1 0 1 
Solution: -6 0
Gbest: -12.000000
Expectation: -23.014807
Final Parameters:
Gammas:
[ 1.047198 1.047198 5.235988 3.141593 3.141593 ]
Betas:
[ 1.570796 0.523599 1.570796 1.570796 1.570796 1.570796 ]
Aggregate results:
[ 5 13 9 17 19 15 11 7 21 23 25 35 ]
[ 0.000247 0.069780 0.007878 0.194526 0.138713 0.149566 0.032601 0.000273 0.096998 0.027616 0.004615 0.277186 ]
3
Num Evals 222
GenUC: 1.293069e-04
GenUB: 1.606945e-04
Optimisation 1.149730e-01
Total Time: 1.175960e-01
5 Add/Rem 6
Graph 1:
1 1 0 1 1 1 
1 1 1 0 0 0 
0 0 1 1 0 1 
1 0 0 0 0 1 
1 1 1 0 1 1 
1 1 1 1 1 1 
Graph 2:
1 1 0 1 1 0 
1 1 1 0 1 0 
1 0 1 1 0 0 
0 0 0 1 0 0 
1 1 1 1 0 1 
1 0 1 1 1 1 
Solution: -8 223
Gbest: -16.000000
Expectation: -21.117265
Final Parameters:
Gammas:
[ 5.235988 1.124768 3.839724 3.141593 1.047198 ]
Betas:
[ 1.570796 1.609581 1.609581 0.135748 1.570796 2.268928 ]
Aggregate results:
[ 9 13 15 17 11 19 21 7 23 35 ]
[ 0.020457 0.166610 0.236739 0.163419 0.062696 0.076570 0.016536 0.000325 0.003224 0.253424 ]
5
Num Evals 822
GenUC: 1.202208e-04
GenUB: 1.614005e-04
Optimisation 1.422876e+00
Total Time: 1.425384e+00
