Clock Speed: 3.688385
Num threads: 4
Trotterisation: 1
Graph Size: 5
Num Qubits: 7
Space Dimension: 128
Run-Type: 0
Num_samples: 10
1 Isomorphic
Graph 1:
1 1 1 0 1 
0 1 0 0 0 
0 1 1 1 1 
1 1 1 1 0 
1 1 0 1 1 
Graph 2:
1 1 1 0 1 
0 1 0 0 0 
0 1 1 1 1 
1 1 1 1 0 
1 1 0 1 1 
Solution: 0 0
Gbest: 0.000000
Expectation: -10.562500
Final Parameters:
Gammas:
[ 3.141593 ]
Betas:
[ 3.141593 1.570796 ]
Aggregate results:
[ -1 7 9 5 11 24 ]
[ 0.031250 0.156250 0.250000 0.125000 0.375000 0.062500 ]
3
Num Evals 8
GenUC: 1.606935e-04
GenUB: 3.072747e-05
Optimisation 1.917382e-03
Total Time: 2.390883e-03
2 Flipped
Graph 1:
1 1 1 0 1 
0 1 0 0 0 
0 1 1 1 1 
1 1 1 1 0 
1 1 0 1 1 
Graph 2:
1 0 1 1 1 
0 0 0 1 0 
1 1 1 1 0 
0 1 1 1 1 
1 1 0 1 1 
Solution: -6 11
Gbest: -8.000000
Expectation: -11.312500
Final Parameters:
Gammas:
[ 3.298672 ]
Betas:
[ 2.277655 1.570796 ]
Aggregate results:
[ 7 11 9 5 24 ]
[ 0.187500 0.500000 0.187500 0.062500 0.062500 ]
3
Num Evals 18
GenUC: 2.052997e-05
GenUB: 1.708641e-05
Optimisation 2.189704e-03
Total Time: 2.463654e-03
3 Add 5
Graph 1:
1 1 1 0 1 
0 1 0 0 0 
0 1 1 1 1 
1 1 1 1 0 
1 1 0 1 1 
Graph 2:
1 1 1 0 1 
0 1 0 1 1 
0 1 1 1 1 
1 1 1 1 1 
1 1 1 1 1 
Solution: -4 0
Gbest: -4.000000
Expectation: -9.812500
Final Parameters:
Gammas:
[ 3.141593 ]
Betas:
[ 3.141593 1.570796 ]
Aggregate results:
[ 3 9 7 5 11 24 ]
[ 0.031250 0.437500 0.281250 0.125000 0.062500 0.062500 ]
3
Num Evals 26
GenUC: 1.875713e-05
GenUB: 1.856583e-05
Optimisation 1.718621e-03
Total Time: 2.024319e-03
4 Rem 5
Graph 1:
1 1 1 0 1 
0 1 0 0 0 
0 1 1 1 1 
1 1 1 1 0 
1 1 0 1 1 
Graph 2:
0 0 1 0 1 
0 1 0 0 0 
0 0 1 1 1 
1 1 1 1 0 
0 0 0 1 1 
Solution: -5 0
Gbest: -5.000000
Expectation: -12.250000
Final Parameters:
Gammas:
[ 3.141593 ]
Betas:
[ 3.140783 1.535133 ]
Aggregate results:
[ 4 8 10 12 14 24 ]
[ 0.031250 0.250000 0.218750 0.343750 0.093750 0.062500 ]
3
Num Evals 34
GenUC: 2.193252e-05
GenUB: 1.695378e-05
Optimisation 1.729375e-03
Total Time: 2.037656e-03
5 Add/Rem 5
Graph 1:
1 1 1 0 1 
0 1 0 0 0 
0 1 1 1 1 
1 1 1 1 0 
1 1 0 1 1 
Graph 2:
1 0 1 1 0 
0 1 1 1 0 
0 1 0 1 0 
1 1 0 1 0 
1 1 1 1 1 
Solution: -7 15
Gbest: -7.000000
Expectation: -11.500000
Final Parameters:
Gammas:
[ 3.141593 ]
Betas:
[ 2.399563 1.557439 ]
Aggregate results:
[ 8 10 6 14 12 16 24 ]
[ 0.375000 0.343750 0.062500 0.093750 0.031250 0.031250 0.062500 ]
3
Num Evals 43
GenUC: 2.075415e-05
GenUB: 1.681586e-05
Optimisation 1.962433e-03
Total Time: 2.247817e-03
