Clock Speed: 3.689395
Num threads: 4
Trotterisation: 6
Graph Size: 6
Num Qubits: 10
Space Dimension: 1024
Run-Type: 0
Num_samples: 10
1 Isomorphic
Graph 1:
0 0 0 1 1 1 
1 0 1 0 1 0 
0 0 0 1 0 0 
0 1 1 0 1 1 
0 1 0 1 1 0 
1 0 0 1 0 0 
Graph 2:
0 0 0 1 1 1 
1 0 1 0 1 0 
0 0 0 1 0 0 
0 1 1 0 1 1 
0 1 0 1 1 0 
1 0 0 1 0 0 
Solution: 0 0
Gbest: -10.000000
Expectation: -17.155765
Final Parameters:
Gammas:
[ 2.813263 3.196202 3.419255 3.078144 3.961491 3.133871 ]
Betas:
[ 1.835485 1.503746 1.645595 2.566882 1.322437 1.532910 1.758484 ]
Aggregate results:
[ -1 13 15 9 7 17 11 21 19 5 23 35 ]
[ 0.007459 0.115913 0.239217 0.037621 0.004376 0.246004 0.104280 0.053163 0.141072 0.003292 0.009136 0.038467 ]
5
Num Evals 600
GenUC: 2.886910e-04
GenUB: 2.038702e-04
Optimisation 1.774659e+00
Total Time: 1.777979e+00
2 Flipped
Graph 1:
0 0 0 1 1 1 
1 0 1 0 1 0 
0 0 0 1 0 0 
0 1 1 0 1 1 
0 1 0 1 1 0 
1 0 0 1 0 0 
Graph 2:
1 1 1 0 0 0 
0 1 0 1 0 1 
0 0 1 0 0 0 
1 1 0 1 1 0 
0 1 1 0 1 0 
0 0 1 0 0 1 
Solution: -14 36
Gbest: -16.000000
Expectation: -20.901693
Final Parameters:
Gammas:
[ 2.840978 2.144945 3.350275 3.151209 3.524640 2.780983 ]
Betas:
[ 0.340817 1.096075 1.488828 2.209007 2.455733 1.473706 3.141593 ]
Aggregate results:
[ 23 17 15 21 19 13 25 27 35 ]
[ 0.076611 0.259023 0.158883 0.127620 0.257969 0.012654 0.009832 0.006000 0.091407 ]
5
Num Evals 1200
GenUC: 1.172078e-04
GenUB: 1.508712e-04
Optimisation 1.755991e+00
Total Time: 1.759112e+00
3 Add 6
Graph 1:
0 0 0 1 1 1 
1 0 1 0 1 0 
0 0 0 1 0 0 
0 1 1 0 1 1 
0 1 0 1 1 0 
1 0 0 1 0 0 
Graph 2:
0 0 0 1 1 1 
1 0 1 0 1 0 
0 1 1 1 0 0 
0 1 1 1 1 1 
0 1 0 1 1 1 
1 0 0 1 0 1 
Solution: -5 0
Gbest: -11.000000
Expectation: -17.480788
Final Parameters:
Gammas:
[ 3.163836 3.093392 2.931180 3.170196 4.877132 3.105972 ]
Betas:
[ 1.619921 1.478792 2.366856 1.667716 1.658335 1.589644 1.556848 ]
Aggregate results:
[ 4 18 20 12 22 16 14 6 10 24 26 8 35 ]
[ 0.013711 0.206295 0.064301 0.106828 0.011659 0.272993 0.188986 0.008661 0.056690 0.007215 0.002097 0.003400 0.057164 ]
5
Num Evals 1800
GenUC: 1.342871e-04
GenUB: 1.682809e-04
Optimisation 1.734618e+00
Total Time: 1.737807e+00
4 Rem 6
Graph 1:
0 0 0 1 1 1 
1 0 1 0 1 0 
0 0 0 1 0 0 
0 1 1 0 1 1 
0 1 0 1 1 0 
1 0 0 1 0 0 
Graph 2:
0 0 0 1 1 0 
0 0 1 0 1 0 
0 0 0 1 0 0 
0 0 1 0 1 1 
0 1 0 1 1 0 
0 0 0 0 0 0 
Solution: -5 0
Gbest: -13.000000
Expectation: -16.310732
Final Parameters:
Gammas:
[ 2.900992 3.257681 3.067086 3.236330 3.197375 3.052351 ]
Betas:
[ 1.547824 1.291323 2.423535 1.455749 1.510613 1.409983 1.479534 ]
Aggregate results:
[ 4 10 14 12 8 16 18 20 22 24 6 35 ]
[ 0.005192 0.087207 0.273605 0.250024 0.028034 0.181154 0.066173 0.021820 0.012335 0.001319 0.000893 0.072243 ]
5
Num Evals 2400
GenUC: 1.288589e-04
GenUB: 1.722150e-04
Optimisation 1.686723e+00
Total Time: 1.689948e+00
5 Add/Rem 6
Graph 1:
0 0 0 1 1 1 
1 0 1 0 1 0 
0 0 0 1 0 0 
0 1 1 0 1 1 
0 1 0 1 1 0 
1 0 0 1 0 0 
Graph 2:
0 0 0 1 1 1 
1 0 0 0 1 1 
0 0 0 1 0 0 
0 0 0 1 1 1 
1 0 0 1 1 0 
0 0 1 1 0 0 
Solution: -9 0
Gbest: -11.000000
Expectation: -17.026419
Final Parameters:
Gammas:
[ 2.895623 3.251041 3.060185 3.244717 3.214309 3.031250 ]
Betas:
[ 1.642595 1.293515 2.440841 1.410954 1.503899 1.438061 1.476219 ]
Aggregate results:
[ 8 10 12 14 16 18 20 22 24 26 35 ]
[ 0.013061 0.085603 0.177671 0.285907 0.229003 0.078677 0.026712 0.015003 0.008077 0.001917 0.078370 ]
5
Num Evals 3000
GenUC: 1.347026e-04
GenUB: 1.702450e-04
Optimisation 1.721804e+00
Total Time: 1.724876e+00
