Clock Speed: 3.498801
Num threads: 16
Trotterisation: 4
Num Qubits: 10
Space Dimension: 1024
Run-Type: 0
Num_samples: 36
Optimiser Method: 25
1 Isomorphic
Graph 1:
0 1 1 0 1 1 
1 0 0 1 0 0 
1 0 0 1 1 1 
0 1 1 1 0 0 
1 0 0 1 1 1 
1 1 1 1 0 1 
Graph 2:
0 1 1 0 1 1 
1 0 0 1 0 0 
1 0 0 1 1 1 
0 1 1 1 0 0 
1 0 0 1 1 1 
1 1 1 1 0 1 
Solution: 36 0
Classic Expectation: 19.066667
Initial Expecation: 13.406250
Gbest: 24.000000
Expectation: 16.905327
Final Parameters:
Gammas:
[ 4.863628 3.396632 3.058055 4.607380 ]
Betas:
[ 2.884684 1.347973 1.900954 0.939790 ]
Aggregate results:
[ 36 30 20 22 28 16 18 26 32 24 14 12 0 ]
[ 0.000882 0.003417 0.250788 0.101950 0.007378 0.174538 0.213586 0.020346 0.000946 0.054024 0.048026 0.011707 0.112413 ]
3
Num Evals 63979
GenUC: 3.526746e-04
GenUB: 1.421473e-04
Optimisation 2.627113e+02
Total Time: 2.627118e+02
2 Flipped
Graph 1:
0 1 1 0 1 1 
1 0 0 1 0 0 
1 0 0 1 1 1 
0 1 1 1 0 0 
1 0 0 1 1 1 
1 1 1 1 0 1 
Graph 2:
1 1 0 1 1 0 
0 0 1 0 0 1 
1 1 1 0 0 1 
0 0 1 1 1 0 
1 1 1 0 0 1 
1 0 1 1 1 1 
Solution: 28 18
Classic Expectation: 18.800000
Initial Expecation: 13.218750
Gbest: 28.000000
Expectation: 18.111503
Final Parameters:
Gammas:
[ 4.124182 3.187463 2.707979 2.568163 ]
Betas:
[ 1.911802 1.226129 0.096973 2.470391 ]
Aggregate results:
[ 16 18 20 22 24 28 14 10 26 12 0 ]
[ 0.152825 0.260940 0.219647 0.177529 0.066621 0.001286 0.040874 0.001972 0.013373 0.008019 0.056913 ]
3
Num Evals 121087
GenUC: 3.645010e-04
GenUB: 1.408793e-04
Optimisation 4.317876e+02
Total Time: 4.317881e+02
3 Add 6
Graph 1:
0 1 1 0 1 1 
1 0 0 1 0 0 
1 0 0 1 1 1 
0 1 1 1 0 0 
1 0 0 1 1 1 
1 1 1 1 0 1 
Graph 2:
1 1 1 0 1 1 
1 0 1 1 0 0 
1 1 1 1 1 1 
0 1 1 1 0 0 
1 0 0 1 1 1 
1 1 1 1 1 1 
Solution: 31 0
Classic Expectation: 19.866667
Initial Expecation: 13.968750
Gbest: 25.000000
Expectation: 17.427263
Final Parameters:
Gammas:
[ 5.223384 3.195398 3.802721 3.052496 ]
Betas:
[ 1.416811 1.762310 1.171074 2.407675 ]
Aggregate results:
[ 31 27 17 19 23 21 15 25 13 0 ]
[ 0.003175 0.028842 0.140288 0.189966 0.140777 0.200967 0.073556 0.068293 0.022075 0.132059 ]
3
Num Evals 61156
GenUC: 3.632423e-04
GenUB: 1.323740e-04
Optimisation 2.466213e+02
Total Time: 2.466218e+02
4 Rem 6
Graph 1:
0 1 1 0 1 1 
1 0 0 1 0 0 
1 0 0 1 1 1 
0 1 1 1 0 0 
1 0 0 1 1 1 
1 1 1 1 0 1 
Graph 2:
0 1 0 0 1 0 
1 0 0 1 0 0 
0 0 0 1 1 1 
0 1 1 1 0 0 
0 0 0 1 1 1 
1 1 1 1 0 1 
Solution: 32 0
Classic Expectation: 18.000000
Initial Expecation: 12.656250
Gbest: 24.000000
Expectation: 14.525803
Final Parameters:
Gammas:
[ 4.498623 3.262227 2.735326 2.766035 ]
Betas:
[ 2.757353 1.031087 2.095891 0.836903 ]
Aggregate results:
[ 32 26 18 20 16 22 24 28 12 14 10 0 ]
[ 0.001715 0.002877 0.214419 0.157583 0.157329 0.105075 0.047428 0.004153 0.009906 0.082256 0.003101 0.214159 ]
3
Num Evals 82993
GenUC: 3.644624e-04
GenUB: 1.245961e-04
Optimisation 3.361417e+02
Total Time: 3.361422e+02
5 Add/Rem 6
Graph 1:
0 1 1 0 1 1 
1 0 0 1 0 0 
1 0 0 1 1 1 
0 1 1 1 0 0 
1 0 0 1 1 1 
1 1 1 1 0 1 
Graph 2:
1 1 1 0 1 0 
1 0 1 1 0 1 
1 0 1 1 1 1 
1 1 1 0 1 0 
0 0 0 0 1 1 
1 1 0 0 0 1 
Solution: 30 232
Classic Expectation: 18.800000
Initial Expecation: 13.218750
Gbest: 22.000000
Expectation: 15.248286
Final Parameters:
Gammas:
[ 5.026335 3.321954 3.063953 3.020851 ]
Betas:
[ 2.794821 1.114962 1.944059 0.987697 ]
Aggregate results:
[ 24 20 18 22 16 14 12 26 28 30 10 0 ]
[ 0.052211 0.177855 0.235135 0.116270 0.147985 0.054995 0.016448 0.009055 0.000601 0.001754 0.000784 0.186909 ]
3
Num Evals 36729
GenUC: 3.647623e-04
GenUB: 1.134910e-04
Optimisation 1.489856e+02
Total Time: 1.489861e+02
