Clock Speed: 3.688909
Num threads: 4
Trotterisation: 2
Graph Size: 7
Num Qubits: 13
Space Dimension: 8192
Run-Type: 0
Num_samples: 10
1 Isomorphic
Graph 1:
1 0 1 1 1 0 0 
0 0 1 1 0 1 1 
1 0 1 0 0 0 0 
0 1 0 0 1 1 1 
1 1 0 1 1 1 0 
0 0 0 1 1 0 0 
0 1 0 0 0 1 0 
Graph 2:
1 0 1 1 1 0 0 
0 0 1 1 0 1 1 
1 0 1 0 0 0 0 
0 1 0 0 1 1 1 
1 1 0 1 1 1 0 
0 0 0 1 1 0 0 
0 1 0 0 0 1 0 
Solution: 0 0
Gbest: -22.000000
Expectation: -28.049929
Final Parameters:
Gammas:
[ 3.141593 3.141593 ]
Betas:
[ 0.523599 1.570796 2.617994 ]
Aggregate results:
[ -1 13 19 7 25 21 23 15 9 17 27 29 11 31 33 35 5 48 ]
[ 0.000082 0.006300 0.072725 0.000138 0.179788 0.136277 0.162175 0.023572 0.001165 0.038108 0.136635 0.067636 0.003215 0.024667 0.002329 0.000556 0.000055 0.144577 ]
3
Num Evals 21
GenUC: 4.015358e-03
GenUB: 1.899059e-03
Optimisation 1.768751e-01
Total Time: 1.897381e-01
2 Flipped
Graph 1:
1 0 1 1 1 0 0 
0 0 1 1 0 1 1 
1 0 1 0 0 0 0 
0 1 0 0 1 1 1 
1 1 0 1 1 1 0 
0 0 0 1 1 0 0 
0 1 0 0 0 1 0 
Graph 2:
0 0 1 1 1 0 1 
1 1 0 1 1 0 0 
0 0 0 0 1 0 1 
1 1 1 0 0 1 0 
0 1 1 1 0 1 1 
0 0 1 1 0 0 0 
0 1 0 0 0 1 0 
Solution: -12 1522
Gbest: -18.000000
Expectation: -27.686232
Final Parameters:
Gammas:
[ 3.141593 3.141593 ]
Betas:
[ 0.523599 1.570796 2.617994 ]
Aggregate results:
[ 21 19 23 17 27 25 13 31 29 15 33 35 11 48 ]
[ 0.165576 0.095243 0.197564 0.042361 0.109974 0.163641 0.001451 0.014563 0.044117 0.017024 0.003097 0.000800 0.000011 0.144577 ]
3
Num Evals 42
GenUC: 1.808556e-03
GenUB: 2.328811e-03
Optimisation 1.510891e-01
Total Time: 1.617112e-01
3 Add 7
Graph 1:
1 0 1 1 1 0 0 
0 0 1 1 0 1 1 
1 0 1 0 0 0 0 
0 1 0 0 1 1 1 
1 1 0 1 1 1 0 
0 0 0 1 1 0 0 
0 1 0 0 0 1 0 
Graph 2:
1 0 1 1 1 0 0 
0 0 1 1 0 1 1 
1 0 1 0 0 1 0 
1 1 0 0 1 1 1 
1 1 0 1 1 1 0 
0 0 1 1 1 0 0 
0 1 0 1 1 1 0 
Solution: -5 0
Gbest: -15.000000
Expectation: -33.568293
Final Parameters:
Gammas:
[ 1.047198 3.141593 ]
Betas:
[ 1.570796 0.523599 1.570796 ]
Aggregate results:
[ 4 16 22 12 18 20 24 14 30 26 28 10 32 34 8 36 48 ]
[ 0.000270 0.024624 0.111316 0.002195 0.041301 0.074501 0.125707 0.009291 0.033954 0.117391 0.078231 0.001444 0.010773 0.000711 0.000120 0.000024 0.368146 ]
3
Num Evals 59
GenUC: 3.980624e-03
GenUB: 1.598196e-03
Optimisation 1.160142e-01
Total Time: 1.273439e-01
4 Rem 7
Graph 1:
1 0 1 1 1 0 0 
0 0 1 1 0 1 1 
1 0 1 0 0 0 0 
0 1 0 0 1 1 1 
1 1 0 1 1 1 0 
0 0 0 1 1 0 0 
0 1 0 0 0 1 0 
Graph 2:
0 0 1 1 0 0 0 
0 0 1 1 0 1 1 
1 0 1 0 0 0 0 
0 0 0 0 1 0 1 
0 1 0 1 1 1 0 
0 0 0 0 1 0 0 
0 1 0 0 0 1 0 
Solution: -6 0
Gbest: -14.000000
Expectation: -27.464877
Final Parameters:
Gammas:
[ 3.141593 3.141593 ]
Betas:
[ 0.523599 1.570796 2.617994 ]
Aggregate results:
[ 5 13 19 23 9 15 25 21 17 29 27 11 31 33 48 ]
[ 0.000082 0.007244 0.094626 0.187164 0.000082 0.021134 0.183827 0.158717 0.050789 0.039324 0.097394 0.001169 0.011297 0.002575 0.144577 ]
3
Num Evals 80
GenUC: 1.143231e-03
GenUB: 1.621927e-03
Optimisation 1.937520e-01
Total Time: 2.059239e-01
5 Add/Rem 7
Graph 1:
1 0 1 1 1 0 0 
0 0 1 1 0 1 1 
1 0 1 0 0 0 0 
0 1 0 0 1 1 1 
1 1 0 1 1 1 0 
0 0 0 1 1 0 0 
0 1 0 0 0 1 0 
Graph 2:
1 0 1 1 1 0 0 
0 0 0 1 0 1 0 
1 0 1 0 0 0 0 
0 1 1 0 0 1 1 
0 1 0 0 1 1 0 
0 0 1 1 1 0 0 
1 1 1 0 0 1 0 
Solution: -9 0
Gbest: -23.000000
Expectation: -33.403924
Final Parameters:
Gammas:
[ 1.047198 3.141593 ]
Betas:
[ 0.523599 2.617994 1.570796 ]
Aggregate results:
[ 8 18 24 20 12 22 16 30 28 26 10 14 32 34 48 ]
[ 0.000043 0.045865 0.144612 0.093484 0.001374 0.114226 0.019235 0.025003 0.070913 0.106001 0.000486 0.004704 0.006347 0.001072 0.366635 ]
3
Num Evals 101
GenUC: 1.333017e-03
GenUB: 2.471975e-03
Optimisation 1.565166e-01
Total Time: 1.669114e-01
