Clock Speed: 3.689394
Num threads: 4
Trotterisation: 2
Graph Size: 7
Num Qubits: 13
Space Dimension: 8192
Run-Type: 0
Num_samples: 10
1 Isomorphic
Graph 1:
1 1 0 1 0 0 1 
1 0 1 0 1 0 0 
0 0 0 1 1 0 1 
0 1 1 1 1 0 0 
0 1 1 1 0 1 0 
1 1 0 0 1 0 1 
1 0 1 0 1 1 0 
Graph 2:
1 1 0 1 0 0 1 
1 0 1 0 1 0 0 
0 0 0 1 1 0 1 
0 1 1 1 1 0 0 
0 1 1 1 0 1 0 
1 1 0 0 1 0 1 
1 0 1 0 1 1 0 
Solution: 0 0
Gbest: -20.000000
Expectation: -27.137370
Final Parameters:
Gammas:
[ 3.141593 3.141593 ]
Betas:
[ 0.523599 1.570796 2.617994 ]
Aggregate results:
[ -1 15 19 13 11 21 17 9 23 25 7 27 29 31 35 37 33 48 ]
[ 0.000082 0.033314 0.108138 0.009521 0.002097 0.161267 0.076330 0.000556 0.167875 0.132000 0.000583 0.086768 0.051768 0.018566 0.001385 0.000863 0.004310 0.144577 ]
3
Num Evals 21
GenUC: 1.414662e-03
GenUB: 1.131728e-02
Optimisation 1.712300e-01
Total Time: 1.908641e-01
2 Flipped
Graph 1:
1 1 0 1 0 0 1 
1 0 1 0 1 0 0 
0 0 0 1 1 0 1 
0 1 1 1 1 0 0 
0 1 1 1 0 1 0 
1 1 0 0 1 0 1 
1 0 1 0 1 1 0 
Graph 2:
1 0 0 1 0 1 1 
0 0 1 0 1 0 1 
1 0 1 1 0 0 0 
0 0 1 1 1 1 0 
0 1 0 1 1 1 0 
1 0 1 0 0 1 1 
0 1 1 0 1 0 1 
Solution: -12 268
Gbest: -24.000000
Expectation: -29.037031
Final Parameters:
Gammas:
[ 3.141593 3.141593 ]
Betas:
[ 0.523599 1.570796 2.617994 ]
Aggregate results:
[ 19 27 17 23 21 31 25 33 29 35 11 13 15 48 ]
[ 0.059287 0.142612 0.024308 0.161784 0.118039 0.043591 0.187538 0.016301 0.094111 0.004223 0.000011 0.000924 0.002693 0.144577 ]
3
Num Evals 42
GenUC: 1.158698e-03
GenUB: 1.602200e-03
Optimisation 1.467456e-01
Total Time: 1.560206e-01
3 Add 7
Graph 1:
1 1 0 1 0 0 1 
1 0 1 0 1 0 0 
0 0 0 1 1 0 1 
0 1 1 1 1 0 0 
0 1 1 1 0 1 0 
1 1 0 0 1 0 1 
1 0 1 0 1 1 0 
Graph 2:
1 1 0 1 0 1 1 
1 0 1 0 1 0 0 
0 0 0 1 1 0 1 
0 1 1 1 1 0 0 
0 1 1 1 1 1 1 
1 1 0 1 1 1 1 
1 0 1 0 1 1 0 
Solution: -5 0
Gbest: -23.000000
Expectation: -33.126829
Final Parameters:
Gammas:
[ 5.235988 1.047198 ]
Betas:
[ 1.570796 2.617994 1.570796 ]
Aggregate results:
[ 4 20 24 18 16 22 26 12 10 28 30 32 14 34 36 48 ]
[ 0.000117 0.094289 0.121392 0.056683 0.031436 0.128025 0.091607 0.001646 0.001373 0.061373 0.024164 0.007055 0.010458 0.001096 0.000536 0.368749 ]
3
Num Evals 59
GenUC: 1.145460e-03
GenUB: 1.587752e-03
Optimisation 1.167452e-01
Total Time: 1.270574e-01
4 Rem 7
Graph 1:
1 1 0 1 0 0 1 
1 0 1 0 1 0 0 
0 0 0 1 1 0 1 
0 1 1 1 1 0 0 
0 1 1 1 0 1 0 
1 1 0 0 1 0 1 
1 0 1 0 1 1 0 
Graph 2:
1 1 0 1 0 0 0 
1 0 0 0 1 0 0 
0 0 0 1 1 0 1 
0 1 1 0 1 0 0 
0 0 1 1 0 1 0 
0 1 0 0 1 0 0 
1 0 1 0 0 1 0 
Solution: -7 0
Gbest: -23.000000
Expectation: -33.019649
Final Parameters:
Gammas:
[ 1.047198 3.141593 ]
Betas:
[ 1.570796 0.523599 1.570796 ]
Aggregate results:
[ 6 16 22 18 26 14 20 24 28 12 34 30 32 36 10 8 48 ]
[ 0.000200 0.031947 0.123810 0.055949 0.097865 0.012107 0.099586 0.115673 0.060162 0.001998 0.002423 0.025031 0.007793 0.001433 0.000203 0.000340 0.363479 ]
3
Num Evals 76
GenUC: 1.184148e-03
GenUB: 1.585218e-03
Optimisation 1.222066e-01
Total Time: 1.308550e-01
5 Add/Rem 7
Graph 1:
1 1 0 1 0 0 1 
1 0 1 0 1 0 0 
0 0 0 1 1 0 1 
0 1 1 1 1 0 0 
0 1 1 1 0 1 0 
1 1 0 0 1 0 1 
1 0 1 0 1 1 0 
Graph 2:
1 1 0 1 0 1 1 
1 1 1 0 1 0 0 
0 1 0 1 1 1 1 
0 1 1 0 0 0 0 
0 0 0 1 0 1 0 
1 0 1 0 1 1 0 
1 0 1 0 1 1 1 
Solution: -11 4000
Gbest: -17.000000
Expectation: -33.777610
Final Parameters:
Gammas:
[ 1.047198 3.141593 ]
Betas:
[ 1.570796 0.523599 1.570796 ]
Aggregate results:
[ 12 24 26 20 18 28 22 14 30 16 32 34 10 36 48 ]
[ 0.001639 0.128690 0.102919 0.082927 0.045426 0.069342 0.117791 0.006680 0.030815 0.020007 0.010725 0.003771 0.000571 0.000699 0.377999 ]
3
Num Evals 93
GenUC: 1.149846e-03
GenUB: 1.602944e-03
Optimisation 1.328179e-01
Total Time: 1.413079e-01
