Clock Speed: 3.498505
Num threads: 16
Trotterisation: 5
Num Qubits: 10
Space Dimension: 1024
Run-Type: 0
Num_samples: 36
Optimiser Method: 12
1 Isomorphic
Graph 1:
1 0 0 0 0 1 
0 0 0 0 0 1 
0 0 0 0 1 0 
0 1 1 1 1 1 
1 1 1 0 0 1 
1 0 1 1 0 1 
Graph 2:
1 0 0 0 0 1 
0 0 0 0 0 1 
0 0 0 0 1 0 
0 1 1 1 1 1 
1 1 1 0 0 1 
1 0 1 1 0 1 
Solution: 36 0
Classic Expectation: 18.066667
Initial Expecation: 12.703125
Gbest: 30.000000
Expectation: 19.288926
Final Parameters:
Gammas:
[ 3.237349 3.440111 3.185114 2.698731 3.312759 ]
Betas:
[ 0.306077 2.273733 0.936796 1.393796 1.622254 ]
Aggregate results:
[ 36 22 26 24 16 20 18 28 30 14 12 10 6 0 ]
[ 0.004512 0.259379 0.048133 0.101748 0.055962 0.184687 0.185647 0.034459 0.013527 0.024852 0.005602 0.000991 0.000041 0.080459 ]
3
Num Evals 1033
GenUC: 3.483240e-04
GenUB: 1.485026e-04
Optimisation 4.633328e+00
Total Time: 4.633835e+00
2 Flipped
Graph 1:
1 0 0 0 0 1 
0 0 0 0 0 1 
0 0 0 0 1 0 
0 1 1 1 1 1 
1 1 1 0 0 1 
1 0 1 1 0 1 
Graph 2:
1 0 0 0 0 1 
1 0 0 0 0 0 
0 1 0 0 0 0 
1 1 1 1 1 0 
1 0 0 1 1 1 
1 0 1 1 0 1 
Solution: 28 80
Classic Expectation: 18.133333
Initial Expecation: 12.750000
Gbest: 24.000000
Expectation: 17.014024
Final Parameters:
Gammas:
[ 3.225825 2.242960 3.977457 3.673172 3.303824 ]
Betas:
[ 0.623948 1.548126 1.579920 1.472384 1.486758 ]
Aggregate results:
[ 26 22 24 20 16 18 10 14 28 12 0 ]
[ 0.015355 0.173477 0.082449 0.191426 0.155440 0.173674 0.010595 0.058194 0.004132 0.028455 0.106802 ]
3
Num Evals 758
GenUC: 3.655576e-04
GenUB: 1.373263e-04
Optimisation 3.354035e+00
Total Time: 3.354540e+00
3 Add 6
Graph 1:
1 0 0 0 0 1 
0 0 0 0 0 1 
0 0 0 0 1 0 
0 1 1 1 1 1 
1 1 1 0 0 1 
1 0 1 1 0 1 
Graph 2:
1 0 0 1 0 1 
0 1 0 1 0 1 
0 0 0 0 1 1 
0 1 1 1 1 1 
1 1 1 0 0 1 
1 0 1 1 0 1 
Solution: 32 0
Classic Expectation: 17.866667
Initial Expecation: 12.562500
Gbest: 24.000000
Expectation: 15.639181
Final Parameters:
Gammas:
[ 2.690396 2.358252 3.037573 3.107797 3.075874 ]
Betas:
[ 0.914350 0.344747 2.215948 0.607674 1.981734 ]
Aggregate results:
[ 32 20 22 24 18 14 16 26 28 12 10 0 ]
[ 0.004858 0.202432 0.075346 0.035543 0.255990 0.064017 0.186987 0.003826 0.001020 0.017585 0.008953 0.143443 ]
3
Num Evals 1041
GenUC: 3.629345e-04
GenUB: 1.320252e-04
Optimisation 4.376184e+00
Total Time: 4.376682e+00
4 Rem 6
Graph 1:
1 0 0 0 0 1 
0 0 0 0 0 1 
0 0 0 0 1 0 
0 1 1 1 1 1 
1 1 1 0 0 1 
1 0 1 1 0 1 
Graph 2:
1 0 0 0 0 1 
0 0 0 0 0 1 
0 0 0 0 1 0 
0 0 1 1 0 1 
1 0 1 0 0 1 
1 0 0 0 0 1 
Solution: 31 0
Classic Expectation: 18.400000
Initial Expecation: 12.937500
Gbest: 25.000000
Expectation: 19.276681
Final Parameters:
Gammas:
[ 3.124302 3.122270 3.024837 3.404999 3.571801 ]
Betas:
[ 3.141581 2.016099 0.532241 1.736927 1.573195 ]
Aggregate results:
[ 31 21 25 19 23 15 27 17 13 11 9 0 ]
[ 0.003928 0.271561 0.031875 0.298564 0.148032 0.029429 0.020716 0.142780 0.005101 0.003418 0.005098 0.039498 ]
3
Num Evals 1221
GenUC: 3.643795e-04
GenUB: 1.280671e-04
Optimisation 6.218846e+00
Total Time: 6.219341e+00
5 Add/Rem 6
Graph 1:
1 0 0 0 0 1 
0 0 0 0 0 1 
0 0 0 0 1 0 
0 1 1 1 1 1 
1 1 1 0 0 1 
1 0 1 1 0 1 
Graph 2:
0 1 0 0 0 1 
1 0 1 1 0 0 
0 0 0 0 1 0 
0 1 1 1 0 1 
1 1 1 1 1 1 
0 0 1 0 0 0 
Solution: 28 105
Classic Expectation: 18.000000
Initial Expecation: 12.656250
Gbest: 26.000000
Expectation: 15.657509
Final Parameters:
Gammas:
[ 3.842145 3.040680 4.004164 3.381495 4.063861 ]
Betas:
[ 1.649357 0.963510 1.850730 1.584849 1.736132 ]
Aggregate results:
[ 24 20 22 16 14 12 18 28 10 26 8 0 ]
[ 0.115952 0.172749 0.124801 0.125410 0.078686 0.018869 0.157443 0.002815 0.006126 0.012900 0.003752 0.180497 ]
3
Num Evals 1007
GenUC: 3.657192e-04
GenUB: 1.197644e-04
Optimisation 4.780334e+00
Total Time: 4.780822e+00
