Clock Speed: 3.689393
Num threads: 4
Trotterisation: 3
Graph Size: 5
Num Qubits: 7
Space Dimension: 128
Run-Type: 0
Num_samples: 10
1 Isomorphic
Graph 1:
0 0 0 0 0 
1 1 1 0 1 
0 1 1 0 0 
0 0 0 1 0 
0 0 1 1 0 
Graph 2:
0 0 0 0 0 
1 1 1 0 1 
0 1 1 0 0 
0 0 0 1 0 
0 0 1 1 0 
Solution: 0 0
Gbest: -8.000000
Expectation: -10.165785
Final Parameters:
Gammas:
[ 0.944719 4.681702 2.080723 ]
Betas:
[ 2.898416 2.590313 2.525964 1.972682 ]
Aggregate results:
[ -1 9 5 7 11 3 13 15 24 ]
[ 0.036474 0.395122 0.036263 0.168448 0.198865 0.042664 0.074383 0.015944 0.031836 ]
5
Num Evals 500
GenUC: 1.849909e-04
GenUB: 3.016525e-05
Optimisation 2.966577e-01
Total Time: 2.975460e-01
2 Flipped
Graph 1:
0 0 0 0 0 
1 1 1 0 1 
0 1 1 0 0 
0 0 0 1 0 
0 0 1 1 0 
Graph 2:
0 0 0 0 0 
1 0 1 1 1 
0 0 1 1 0 
0 1 0 0 0 
0 1 1 0 0 
Solution: -6 11
Gbest: -6.000000
Expectation: -11.975629
Final Parameters:
Gammas:
[ 2.773790 0.312322 2.282814 ]
Betas:
[ 1.342552 2.325027 1.253803 0.760618 ]
Aggregate results:
[ 7 13 11 15 9 5 17 24 ]
[ 0.145051 0.171887 0.218212 0.085617 0.315892 0.005734 0.030445 0.027162 ]
5
Num Evals 1000
GenUC: 2.395708e-05
GenUB: 1.701186e-05
Optimisation 2.152638e-01
Total Time: 2.157375e-01
3 Add 5
Graph 1:
0 0 0 0 0 
1 1 1 0 1 
0 1 1 0 0 
0 0 0 1 0 
0 0 1 1 0 
Graph 2:
1 0 0 0 0 
1 1 1 0 1 
0 1 1 0 0 
1 1 0 1 1 
0 0 1 1 1 
Solution: -5 0
Gbest: -5.000000
Expectation: -10.972527
Final Parameters:
Gammas:
[ 6.144092 0.343825 5.597426 ]
Betas:
[ 3.096624 2.452705 3.141593 0.924523 ]
Aggregate results:
[ 4 12 10 8 6 14 16 24 ]
[ 0.067082 0.214647 0.301266 0.286997 0.039847 0.051781 0.008169 0.030212 ]
5
Num Evals 1500
GenUC: 2.241784e-05
GenUB: 1.691093e-05
Optimisation 2.924146e-01
Total Time: 2.930227e-01
4 Rem 5
Graph 1:
0 0 0 0 0 
1 1 1 0 1 
0 1 1 0 0 
0 0 0 1 0 
0 0 1 1 0 
Graph 2:
0 0 0 0 0 
1 0 1 0 0 
0 0 0 0 0 
0 0 0 1 0 
0 0 1 1 0 
Solution: -4 0
Gbest: -8.000000
Expectation: -10.515116
Final Parameters:
Gammas:
[ 0.948011 6.137889 1.329953 ]
Betas:
[ 2.322712 3.141588 2.777096 2.501045 ]
Aggregate results:
[ 3 7 9 5 11 13 24 ]
[ 0.005071 0.192825 0.374906 0.043980 0.330610 0.031202 0.021406 ]
5
Num Evals 2000
GenUC: 2.151585e-05
GenUB: 2.249118e-05
Optimisation 3.098081e-01
Total Time: 3.105745e-01
5 Add/Rem 5
Graph 1:
0 0 0 0 0 
1 1 1 0 1 
0 1 1 0 0 
0 0 0 1 0 
0 0 1 1 0 
Graph 2:
0 0 0 1 0 
0 0 0 1 0 
0 1 1 0 0 
0 0 0 1 0 
1 0 1 1 1 
Solution: -6 30
Gbest: -6.000000
Expectation: -8.586667
Final Parameters:
Gammas:
[ 3.448378 0.022764 5.678365 ]
Betas:
[ 0.198680 2.342280 0.657955 0.140541 ]
Aggregate results:
[ 7 9 13 11 5 15 24 ]
[ 0.373127 0.258613 0.025953 0.079268 0.255229 0.002852 0.004958 ]
5
Num Evals 2500
GenUC: 2.239199e-05
GenUB: 1.695318e-05
Optimisation 1.644645e-01
Total Time: 1.648545e-01
