Clock Speed: 3.688913
Num threads: 4
Trotterisation: 3
Graph Size: 5
Num Qubits: 7
Space Dimension: 128
Run-Type: 0
Num_samples: 10
1 Isomorphic
Graph 1:
0 1 0 1 0 
1 1 0 0 0 
0 1 0 1 0 
1 0 1 1 1 
0 1 1 0 0 
Graph 2:
0 1 0 1 0 
1 1 0 0 0 
0 1 0 1 0 
1 0 1 1 1 
0 1 1 0 0 
Solution: 0 0
Gbest: -4.000000
Expectation: -11.729636
Final Parameters:
Gammas:
[ 1.641469 2.776313 4.754292 ]
Betas:
[ 0.721571 0.886104 0.188896 2.408845 ]
Aggregate results:
[ -1 9 11 3 13 17 5 7 15 19 24 ]
[ 0.007163 0.150083 0.249809 0.088358 0.288156 0.032473 0.067622 0.026026 0.063997 0.007350 0.018962 ]
5
Num Evals 500
GenUC: 1.756113e-04
GenUB: 2.850438e-05
Optimisation 1.898969e-01
Total Time: 1.904915e-01
2 Flipped
Graph 1:
0 1 0 1 0 
1 1 0 0 0 
0 1 0 1 0 
1 0 1 1 1 
0 1 1 0 0 
Graph 2:
0 1 0 1 0 
0 0 0 1 1 
0 1 0 1 0 
1 1 1 0 1 
0 0 1 1 0 
Solution: -8 0
Gbest: -10.000000
Expectation: -11.811531
Final Parameters:
Gammas:
[ 5.924388 5.763615 2.079502 ]
Betas:
[ 2.623834 0.697027 0.963472 0.666280 ]
Aggregate results:
[ 7 9 13 11 15 24 ]
[ 0.141957 0.217266 0.184162 0.407224 0.021834 0.027556 ]
5
Num Evals 1000
GenUC: 2.231033e-05
GenUB: 1.789673e-05
Optimisation 1.979156e-01
Total Time: 1.983491e-01
3 Add 5
Graph 1:
0 1 0 1 0 
1 1 0 0 0 
0 1 0 1 0 
1 0 1 1 1 
0 1 1 0 0 
Graph 2:
0 1 0 1 1 
1 1 1 0 0 
0 1 0 1 1 
1 1 1 1 1 
1 1 1 0 0 
Solution: -5 0
Gbest: -5.000000
Expectation: -12.097031
Final Parameters:
Gammas:
[ 1.551458 3.783640 4.841761 ]
Betas:
[ 2.853635 2.644446 0.957405 0.173425 ]
Aggregate results:
[ 4 10 12 14 8 16 6 24 ]
[ 0.040508 0.159363 0.263255 0.141931 0.239772 0.062934 0.052419 0.039818 ]
5
Num Evals 1500
GenUC: 2.089958e-05
GenUB: 1.743491e-05
Optimisation 2.262120e-01
Total Time: 2.266957e-01
4 Rem 5
Graph 1:
0 1 0 1 0 
1 1 0 0 0 
0 1 0 1 0 
1 0 1 1 1 
0 1 1 0 0 
Graph 2:
0 1 0 1 0 
1 1 0 0 0 
0 1 0 0 0 
0 0 1 1 1 
0 0 0 0 0 
Solution: -4 0
Gbest: -4.000000
Expectation: -12.017916
Final Parameters:
Gammas:
[ 3.481430 2.539403 5.206607 ]
Betas:
[ 0.647465 0.176683 1.026252 2.673210 ]
Aggregate results:
[ 3 9 11 13 5 15 7 17 24 ]
[ 0.041205 0.139020 0.249565 0.287856 0.071433 0.088840 0.079032 0.017201 0.025849 ]
5
Num Evals 2000
GenUC: 2.370760e-05
GenUB: 1.980629e-05
Optimisation 2.170454e-01
Total Time: 2.174659e-01
5 Add/Rem 5
Graph 1:
0 1 0 1 0 
1 1 0 0 0 
0 1 0 1 0 
1 0 1 1 1 
0 1 1 0 0 
Graph 2:
1 0 1 1 0 
1 1 0 0 0 
0 1 1 0 0 
0 1 1 1 0 
0 1 0 0 1 
Solution: -8 88
Gbest: -8.000000
Expectation: -12.932246
Final Parameters:
Gammas:
[ 4.312648 3.690232 5.706470 ]
Betas:
[ 3.077936 2.864271 0.574750 1.664684 ]
Aggregate results:
[ 9 13 11 15 17 7 24 ]
[ 0.129159 0.225550 0.407159 0.113479 0.018922 0.070734 0.034996 ]
5
Num Evals 2500
GenUC: 2.321057e-05
GenUB: 1.761917e-05
Optimisation 2.482700e-01
Total Time: 2.488108e-01
