Clock Speed: 3.687995
Num threads: 4
Trotterisation: 3
Graph Size: 5
Num Qubits: 7
Space Dimension: 128
Run-Type: 0
Num_samples: 10
1 Isomorphic
Graph 1:
1 1 0 1 1 
0 1 1 0 1 
1 1 1 0 0 
0 1 0 1 1 
0 0 0 0 0 
Graph 2:
1 1 0 1 1 
0 1 1 0 1 
1 1 1 0 0 
0 1 0 1 1 
0 0 0 0 0 
Solution: 0 0
Gbest: -6.000000
Expectation: -10.664628
Final Parameters:
Gammas:
[ 5.272720 0.444096 1.479717 ]
Betas:
[ 0.327608 3.075563 0.345524 3.033369 ]
Aggregate results:
[ -1 7 5 9 3 13 11 15 19 24 ]
[ 0.000164 0.137940 0.122845 0.278250 0.023669 0.112192 0.244965 0.059632 0.005219 0.015125 ]
5
Num Evals 500
GenUC: 1.820417e-04
GenUB: 2.889824e-05
Optimisation 2.412120e-01
Total Time: 2.419312e-01
2 Flipped
Graph 1:
1 1 0 1 1 
0 1 1 0 1 
1 1 1 0 0 
0 1 0 1 1 
0 0 0 0 0 
Graph 2:
1 1 0 1 1 
1 0 1 1 0 
0 0 1 1 1 
1 1 0 1 0 
0 0 0 0 0 
Solution: -6 2
Gbest: -6.000000
Expectation: -10.261890
Final Parameters:
Gammas:
[ 3.018972 3.554419 2.925401 ]
Betas:
[ 2.949352 0.658144 1.315824 1.469542 ]
Aggregate results:
[ 9 11 5 7 15 13 17 24 ]
[ 0.251466 0.240462 0.215302 0.132079 0.055284 0.087829 0.005767 0.011812 ]
5
Num Evals 1000
GenUC: 2.547994e-05
GenUB: 1.716567e-05
Optimisation 2.221111e-01
Total Time: 2.225934e-01
3 Add 5
Graph 1:
1 1 0 1 1 
0 1 1 0 1 
1 1 1 0 0 
0 1 0 1 1 
0 0 0 0 0 
Graph 2:
1 1 1 1 1 
1 1 1 0 1 
1 1 1 0 1 
1 1 0 1 1 
0 0 0 1 0 
Solution: -5 0
Gbest: -5.000000
Expectation: -10.151498
Final Parameters:
Gammas:
[ 5.469843 3.075188 0.629496 ]
Betas:
[ 1.997612 2.800486 0.510391 0.875352 ]
Aggregate results:
[ 4 6 8 10 16 12 14 24 ]
[ 0.107183 0.224067 0.238644 0.121952 0.014071 0.191857 0.073114 0.029111 ]
5
Num Evals 1500
GenUC: 2.037256e-05
GenUB: 1.693203e-05
Optimisation 2.348174e-01
Total Time: 2.353002e-01
4 Rem 5
Graph 1:
1 1 0 1 1 
0 1 1 0 1 
1 1 1 0 0 
0 1 0 1 1 
0 0 0 0 0 
Graph 2:
0 1 0 1 1 
0 1 1 0 1 
0 1 0 0 0 
0 1 0 0 1 
0 0 0 0 0 
Solution: -4 0
Gbest: -10.000000
Expectation: -11.856232
Final Parameters:
Gammas:
[ 3.447327 1.476154 5.340765 ]
Betas:
[ 3.134338 2.071765 3.141592 2.890053 ]
Aggregate results:
[ 3 11 9 7 13 5 15 17 19 24 ]
[ 0.012762 0.351592 0.263401 0.050388 0.143258 0.052979 0.084654 0.021249 0.000878 0.018839 ]
5
Num Evals 2000
GenUC: 2.476212e-05
GenUB: 3.749179e-05
Optimisation 3.205057e-01
Total Time: 3.211752e-01
5 Add/Rem 5
Graph 1:
1 1 0 1 1 
0 1 1 0 1 
1 1 1 0 0 
0 1 0 1 1 
0 0 0 0 0 
Graph 2:
0 1 1 1 1 
0 0 1 1 1 
1 0 1 0 0 
0 1 0 1 0 
0 0 1 1 0 
Solution: -8 0
Gbest: -10.000000
Expectation: -12.434333
Final Parameters:
Gammas:
[ 3.687726 5.846751 0.324892 ]
Betas:
[ 2.496745 1.304836 1.959934 2.723603 ]
Aggregate results:
[ 7 11 13 9 15 17 24 ]
[ 0.040231 0.389496 0.215531 0.233671 0.093658 0.014208 0.013205 ]
5
Num Evals 2500
GenUC: 2.193416e-05
GenUB: 1.686683e-05
Optimisation 2.623162e-01
Total Time: 2.629500e-01
