Clock Speed: 3.688924
Num threads: 4
Trotterisation: 3
Graph Size: 8
Num Qubits: 16
Space Dimension: 65536
Run-Type: 0
Num_samples: 10
1 Isomorphic
Graph 1:
1 1 1 0 0 1 1 0 
1 0 1 1 1 0 0 1 
0 1 1 1 0 1 0 0 
0 0 0 0 1 0 1 1 
1 1 1 0 1 1 1 0 
1 0 0 0 0 1 0 0 
0 0 0 0 1 0 1 0 
0 0 0 1 0 0 0 0 
Graph 2:
1 1 1 0 0 1 1 0 
1 0 1 1 1 0 0 1 
0 1 1 1 0 1 0 0 
0 0 0 0 1 0 1 1 
1 1 1 0 1 1 1 0 
1 0 0 0 0 1 0 0 
0 0 0 0 1 0 1 0 
0 0 0 1 0 0 0 0 
Solution: 0 0
Gbest: -20.000000
Expectation: -32.334830
Final Parameters:
Gammas:
[ 3.187239 4.298877 2.328315 ]
Betas:
[ 2.364695 2.496487 1.544882 1.571951 ]
Aggregate results:
[ -1 15 9 7 19 25 21 29 31 23 13 27 17 35 33 37 11 39 41 43 45 5 47 63 ]
[ 0.000025 0.001696 0.000365 0.000193 0.010839 0.099486 0.023990 0.175178 0.164764 0.053450 0.000955 0.148392 0.004115 0.077142 0.125273 0.036818 0.000295 0.013842 0.004063 0.001148 0.000196 0.000021 0.000061 0.057694 ]
5
Num Evals 800
GenUC: 3.685266e-03
GenUB: 1.740849e-02
Optimisation 2.423253e+02
Total Time: 2.426420e+02
2 Flipped
Graph 1:
1 1 1 0 0 1 1 0 
1 0 1 1 1 0 0 1 
0 1 1 1 0 1 0 0 
0 0 0 0 1 0 1 1 
1 1 1 0 1 1 1 0 
1 0 0 0 0 1 0 0 
0 0 0 0 1 0 1 0 
0 0 0 1 0 0 0 0 
Graph 2:
0 1 1 0 0 1 1 1 
1 0 0 1 1 1 0 1 
0 0 1 0 1 1 1 0 
1 1 0 1 0 0 0 0 
0 1 1 1 0 1 1 1 
0 0 1 0 0 0 0 1 
0 1 0 1 0 0 0 0 
0 0 0 0 1 0 0 0 
Solution: -16 1510
Gbest: -26.000000
Expectation: -41.403296
Final Parameters:
Gammas:
[ 1.550010 3.259049 3.076438 ]
Betas:
[ 2.126668 2.358637 1.450113 2.064263 ]
Aggregate results:
[ 27 33 37 23 29 25 31 19 21 17 35 39 43 41 15 45 47 63 ]
[ 0.086867 0.115937 0.047018 0.021080 0.121113 0.050416 0.133086 0.001991 0.006446 0.000210 0.083501 0.026588 0.002467 0.010438 0.000035 0.000434 0.000046 0.292328 ]
5
Num Evals 1600
GenUC: 2.650515e-03
GenUB: 1.729875e-02
Optimisation 2.410532e+02
Total Time: 2.413648e+02
3 Add 8
Graph 1:
1 1 1 0 0 1 1 0 
1 0 1 1 1 0 0 1 
0 1 1 1 0 1 0 0 
0 0 0 0 1 0 1 1 
1 1 1 0 1 1 1 0 
1 0 0 0 0 1 0 0 
0 0 0 0 1 0 1 0 
0 0 0 1 0 0 0 0 
Graph 2:
1 1 1 0 0 1 1 0 
1 0 1 1 1 1 0 1 
0 1 1 1 1 1 0 0 
0 1 0 0 1 0 1 1 
1 1 1 0 1 1 1 0 
1 0 1 1 0 1 0 0 
0 1 1 0 1 0 1 0 
0 0 0 1 0 0 0 1 
Solution: -8 0
Gbest: -24.000000
Expectation: -32.288611
Final Parameters:
Gammas:
[ 2.988251 3.391461 3.176125 ]
Betas:
[ 2.366483 2.525260 1.457805 1.565982 ]
Aggregate results:
[ 7 21 19 13 27 23 29 35 25 33 31 17 37 15 39 11 41 43 45 47 63 ]
[ 0.000007 0.036678 0.011017 0.000396 0.187299 0.086604 0.175866 0.029928 0.157344 0.055287 0.112099 0.004400 0.023335 0.000947 0.015507 0.000027 0.006142 0.002366 0.000333 0.000016 0.094403 ]
5
Num Evals 2400
GenUC: 2.990306e-03
GenUB: 1.752449e-02
Optimisation 2.376952e+02
Total Time: 2.380055e+02
4 Rem 8
Graph 1:
1 1 1 0 0 1 1 0 
1 0 1 1 1 0 0 1 
0 1 1 1 0 1 0 0 
0 0 0 0 1 0 1 1 
1 1 1 0 1 1 1 0 
1 0 0 0 0 1 0 0 
0 0 0 0 1 0 1 0 
0 0 0 1 0 0 0 0 
Graph 2:
0 0 1 0 0 1 1 0 
1 0 1 0 0 0 0 1 
0 1 1 1 0 1 0 0 
0 0 0 0 1 0 1 1 
1 0 1 0 0 1 0 0 
1 0 0 0 0 0 0 0 
0 0 0 0 1 0 1 0 
0 0 0 1 0 0 0 0 
Solution: -8 0
Gbest: -24.000000
Expectation: -32.383534
Final Parameters:
Gammas:
[ 3.186175 4.316816 2.365388 ]
Betas:
[ 2.356361 2.507933 1.567332 1.568302 ]
Aggregate results:
[ 7 17 19 15 27 29 31 35 23 25 33 21 39 37 11 41 43 45 13 63 ]
[ 0.000041 0.001157 0.004965 0.000638 0.156747 0.196756 0.182856 0.073924 0.045987 0.096756 0.130003 0.016327 0.007760 0.027538 0.000059 0.001993 0.000175 0.000032 0.000055 0.056231 ]
5
Num Evals 3200
GenUC: 2.974277e-03
GenUB: 1.717692e-02
Optimisation 2.390969e+02
Total Time: 2.394165e+02
5 Add/Rem 8
Graph 1:
1 1 1 0 0 1 1 0 
1 0 1 1 1 0 0 1 
0 1 1 1 0 1 0 0 
0 0 0 0 1 0 1 1 
1 1 1 0 1 1 1 0 
1 0 0 0 0 1 0 0 
0 0 0 0 1 0 1 0 
0 0 0 1 0 0 0 0 
Graph 2:
0 1 1 0 1 0 1 1 
1 0 0 0 0 0 0 1 
0 1 1 1 0 1 0 0 
0 0 0 1 0 0 1 1 
1 1 1 0 1 1 1 0 
1 0 0 0 0 1 0 0 
0 0 0 0 1 0 1 0 
0 0 0 1 1 1 1 0 
Solution: -12 0
Gbest: -24.000000
Expectation: -40.670618
Final Parameters:
Gammas:
[ 1.295206 3.065122 3.258140 ]
Betas:
[ 2.370156 2.376784 1.402399 1.980737 ]
Aggregate results:
[ 11 15 19 23 27 33 31 25 21 29 35 37 39 17 43 41 45 13 63 ]
[ 0.000066 0.000427 0.005435 0.036871 0.105648 0.098016 0.128883 0.071091 0.016362 0.131381 0.060764 0.029573 0.010235 0.001505 0.000585 0.002905 0.000119 0.000098 0.300036 ]
5
Num Evals 4000
GenUC: 3.066811e-03
GenUB: 1.721200e-02
Optimisation 2.442457e+02
Total Time: 2.445613e+02
