Clock Speed: 3.689201
Num threads: 4
Trotterisation: 3
Graph Size: 8
Num Qubits: 16
Space Dimension: 65536
Run-Type: 0
Num_samples: 10
1 Isomorphic
Graph 1:
0 1 1 0 0 0 0 1 
1 1 1 1 1 0 0 0 
0 0 0 1 0 1 0 0 
1 0 1 1 0 1 1 1 
1 0 1 0 0 1 1 0 
1 1 1 1 1 0 1 0 
0 0 0 1 1 0 1 1 
1 1 0 0 0 0 1 1 
Graph 2:
0 1 1 0 0 0 0 1 
1 1 1 1 1 0 0 0 
0 0 0 1 0 1 0 0 
1 0 1 1 0 1 1 1 
1 0 1 0 0 1 1 0 
1 1 1 1 1 0 1 0 
0 0 0 1 1 0 1 1 
1 1 0 0 0 0 1 1 
Solution: 0 0
Gbest: -22.000000
Expectation: -33.830950
Final Parameters:
Gammas:
[ 3.188004 4.199380 3.050071 ]
Betas:
[ 2.224133 2.468653 1.566445 1.499606 ]
Aggregate results:
[ -1 11 19 15 17 23 25 21 13 29 33 27 31 5 35 37 39 41 43 45 47 63 ]
[ 0.000048 0.000276 0.005235 0.001066 0.002638 0.035843 0.067432 0.014834 0.000223 0.155350 0.151485 0.119799 0.176917 0.000095 0.105636 0.055479 0.027056 0.009407 0.001929 0.000895 0.000073 0.068284 ]
5
Num Evals 800
GenUC: 3.782338e-03
GenUB: 1.729852e-02
Optimisation 2.361805e+02
Total Time: 2.364894e+02
2 Flipped
Graph 1:
0 1 1 0 0 0 0 1 
1 1 1 1 1 0 0 0 
0 0 0 1 0 1 0 0 
1 0 1 1 0 1 1 1 
1 0 1 0 0 1 1 0 
1 1 1 1 1 0 1 0 
0 0 0 1 1 0 1 1 
1 1 0 0 0 0 1 1 
Graph 2:
1 0 0 0 0 1 1 0 
0 0 0 1 1 1 1 1 
0 0 1 0 1 0 0 0 
1 1 1 0 1 1 0 1 
0 1 1 0 0 1 0 1 
0 1 0 1 1 1 1 1 
1 1 0 1 1 0 0 0 
1 1 0 0 0 0 1 1 
Solution: -16 4762
Gbest: -28.000000
Expectation: -41.794020
Final Parameters:
Gammas:
[ 1.425521 2.899024 3.099297 ]
Betas:
[ 2.747716 2.408444 1.545441 1.757809 ]
Aggregate results:
[ 31 29 35 33 37 25 27 23 39 21 19 41 17 15 43 45 47 63 ]
[ 0.112337 0.124531 0.058173 0.087413 0.033485 0.071844 0.104951 0.035774 0.014538 0.014472 0.003956 0.005290 0.000582 0.000121 0.001498 0.000253 0.000110 0.330672 ]
5
Num Evals 1600
GenUC: 2.638360e-03
GenUB: 1.682425e-02
Optimisation 2.496421e+02
Total Time: 2.499757e+02
3 Add 8
Graph 1:
0 1 1 0 0 0 0 1 
1 1 1 1 1 0 0 0 
0 0 0 1 0 1 0 0 
1 0 1 1 0 1 1 1 
1 0 1 0 0 1 1 0 
1 1 1 1 1 0 1 0 
0 0 0 1 1 0 1 1 
1 1 0 0 0 0 1 1 
Graph 2:
0 1 1 0 1 0 1 1 
1 1 1 1 1 0 0 1 
1 0 0 1 0 1 0 0 
1 0 1 1 1 1 1 1 
1 0 1 0 1 1 1 0 
1 1 1 1 1 0 1 1 
0 0 0 1 1 0 1 1 
1 1 1 0 0 0 1 1 
Solution: -8 0
Gbest: -18.000000
Expectation: -30.269143
Final Parameters:
Gammas:
[ 3.183624 3.378844 2.752271 ]
Betas:
[ 2.366666 2.493692 1.511642 1.503356 ]
Aggregate results:
[ 7 15 21 19 23 25 27 31 33 29 35 17 11 37 39 41 43 45 13 63 ]
[ 0.000031 0.001503 0.049815 0.019662 0.105853 0.180498 0.209677 0.095484 0.041658 0.173603 0.023944 0.006051 0.000083 0.018365 0.011657 0.005257 0.000949 0.000182 0.000046 0.055684 ]
5
Num Evals 2400
GenUC: 2.990018e-03
GenUB: 1.682642e-02
Optimisation 2.382940e+02
Total Time: 2.386044e+02
4 Rem 8
Graph 1:
0 1 1 0 0 0 0 1 
1 1 1 1 1 0 0 0 
0 0 0 1 0 1 0 0 
1 0 1 1 0 1 1 1 
1 0 1 0 0 1 1 0 
1 1 1 1 1 0 1 0 
0 0 0 1 1 0 1 1 
1 1 0 0 0 0 1 1 
Graph 2:
0 1 0 0 0 0 0 1 
0 1 1 1 0 0 0 0 
0 0 0 0 0 1 0 0 
1 0 1 1 0 1 1 1 
1 0 0 0 0 1 1 0 
1 1 1 1 0 0 1 0 
0 0 0 0 1 0 1 1 
1 0 0 0 0 0 1 1 
Solution: -8 0
Gbest: -26.000000
Expectation: -42.193749
Final Parameters:
Gammas:
[ 1.361933 3.208985 2.609281 ]
Betas:
[ 2.199226 2.476528 1.298585 1.656819 ]
Aggregate results:
[ 7 17 19 15 21 23 27 25 33 29 31 11 35 37 39 41 43 45 47 13 63 ]
[ 0.000038 0.000793 0.002830 0.000353 0.008352 0.018887 0.079524 0.043040 0.120426 0.114660 0.125230 0.000024 0.085973 0.051019 0.023141 0.007367 0.001917 0.000506 0.000117 0.000022 0.315779 ]
5
Num Evals 3200
GenUC: 2.960339e-03
GenUB: 1.675336e-02
Optimisation 2.346544e+02
Total Time: 2.349582e+02
5 Add/Rem 8
Graph 1:
0 1 1 0 0 0 0 1 
1 1 1 1 1 0 0 0 
0 0 0 1 0 1 0 0 
1 0 1 1 0 1 1 1 
1 0 1 0 0 1 1 0 
1 1 1 1 1 0 1 0 
0 0 0 1 1 0 1 1 
1 1 0 0 0 0 1 1 
Graph 2:
0 1 1 1 0 0 0 0 
1 0 1 0 1 0 1 1 
0 0 0 1 0 1 0 1 
0 0 1 0 0 1 1 0 
1 1 0 0 0 1 1 1 
1 1 1 1 1 0 1 0 
0 1 0 1 1 0 1 1 
0 1 1 0 0 0 1 1 
Solution: -14 1
Gbest: -24.000000
Expectation: -33.720080
Final Parameters:
Gammas:
[ 3.187550 5.069218 2.804481 ]
Betas:
[ 2.360954 2.479142 1.555298 1.584703 ]
Aggregate results:
[ 15 13 21 23 17 25 19 27 31 29 35 33 37 39 41 43 45 47 63 ]
[ 0.000306 0.000086 0.015412 0.037433 0.001407 0.072319 0.005410 0.118768 0.169313 0.161540 0.103886 0.151242 0.058459 0.027044 0.009234 0.002605 0.000442 0.000073 0.065021 ]
5
Num Evals 4000
GenUC: 3.051315e-03
GenUB: 1.696774e-02
Optimisation 2.441158e+02
Total Time: 2.444356e+02
