Clock Speed: 3.688993
Num threads: 4
Trotterisation: 2
Graph Size: 6
Num Qubits: 10
Space Dimension: 1024
Run-Type: 0
Num_samples: 10
1 Isomorphic
Graph 1:
1 0 1 0 0 1 
0 1 0 0 1 1 
1 0 1 0 1 0 
1 0 1 0 0 0 
1 1 1 0 1 0 
0 1 1 1 1 0 
Graph 2:
1 0 1 0 0 1 
0 1 0 0 1 1 
1 0 1 0 1 0 
1 0 1 0 0 0 
1 1 1 0 1 0 
0 1 1 1 1 0 
Solution: 0 0
Gbest: -12.000000
Expectation: -17.787016
Final Parameters:
Gammas:
[ 3.054808 5.620475 ]
Betas:
[ 3.141593 1.893253 1.480601 ]
Aggregate results:
[ -1 9 11 7 5 13 17 15 23 21 19 25 27 35 ]
[ 0.005134 0.014063 0.077169 0.016070 0.002875 0.159754 0.235639 0.208451 0.019723 0.072338 0.128718 0.003306 0.000900 0.055861 ]
3
Num Evals 502
GenUC: 3.615308e-04
GenUB: 2.001120e-04
Optimisation 7.017276e-01
Total Time: 7.037017e-01
2 Flipped
Graph 1:
1 0 1 0 0 1 
0 1 0 0 1 1 
1 0 1 0 1 0 
1 0 1 0 0 0 
1 1 1 0 1 0 
0 1 1 1 1 0 
Graph 2:
1 0 0 1 0 1 
1 1 0 0 1 0 
0 1 0 1 0 1 
0 0 0 1 0 1 
0 1 0 1 1 1 
0 1 1 1 1 0 
Solution: -8 8
Gbest: -14.000000
Expectation: -18.143124
Final Parameters:
Gammas:
[ 3.056823 4.917929 ]
Betas:
[ 0.229419 1.881750 1.491806 ]
Aggregate results:
[ 17 19 15 13 11 7 9 21 23 25 35 ]
[ 0.217637 0.140503 0.241612 0.162623 0.046423 0.006762 0.023703 0.068970 0.029083 0.004707 0.057977 ]
5
Num Evals 1102
GenUC: 1.331349e-04
GenUB: 1.445137e-04
Optimisation 6.110688e-01
Total Time: 6.123589e-01
3 Add 6
Graph 1:
1 0 1 0 0 1 
0 1 0 0 1 1 
1 0 1 0 1 0 
1 0 1 0 0 0 
1 1 1 0 1 0 
0 1 1 1 1 0 
Graph 2:
1 1 1 1 0 1 
0 1 0 1 1 1 
1 0 1 0 1 0 
1 1 1 0 0 0 
1 1 1 0 1 1 
0 1 1 1 1 1 
Solution: -6 0
Gbest: -16.000000
Expectation: -21.987396
Final Parameters:
Gammas:
[ 4.411988 4.456566 ]
Betas:
[ 2.095134 2.063781 1.533099 ]
Aggregate results:
[ 5 13 15 9 11 17 21 19 23 7 25 35 ]
[ 0.000241 0.104840 0.228793 0.004669 0.046241 0.157653 0.060366 0.128699 0.011887 0.000123 0.000371 0.256117 ]
5
Num Evals 1702
GenUC: 1.269350e-04
GenUB: 1.665407e-04
Optimisation 7.689842e-01
Total Time: 7.705861e-01
4 Rem 6
Graph 1:
1 0 1 0 0 1 
0 1 0 0 1 1 
1 0 1 0 1 0 
1 0 1 0 0 0 
1 1 1 0 1 0 
0 1 1 1 1 0 
Graph 2:
1 0 1 0 0 1 
0 1 0 0 0 1 
1 0 1 0 0 0 
0 0 0 0 0 0 
1 1 1 0 0 0 
0 1 1 0 1 0 
Solution: -6 0
Gbest: -12.000000
Expectation: -18.850845
Final Parameters:
Gammas:
[ 3.432433 6.210868 ]
Betas:
[ 1.195873 2.425084 1.163578 ]
Aggregate results:
[ 5 11 13 9 15 17 23 19 21 7 25 35 ]
[ 0.002865 0.057759 0.150511 0.024799 0.176421 0.196018 0.026449 0.165887 0.105579 0.004718 0.008243 0.080750 ]
5
Num Evals 2302
GenUC: 1.254691e-04
GenUB: 1.644123e-04
Optimisation 7.418496e-01
Total Time: 7.433024e-01
5 Add/Rem 6
Graph 1:
1 0 1 0 0 1 
0 1 0 0 1 1 
1 0 1 0 1 0 
1 0 1 0 0 0 
1 1 1 0 1 0 
0 1 1 1 1 0 
Graph 2:
1 0 1 0 1 0 
0 1 1 0 1 1 
0 0 1 1 1 1 
1 0 1 0 0 0 
0 1 1 0 1 0 
0 1 1 1 0 0 
Solution: -8 0
Gbest: -14.000000
Expectation: -22.133314
Final Parameters:
Gammas:
[ 4.790983 4.371528 ]
Betas:
[ 0.824745 1.958033 1.787049 ]
Aggregate results:
[ 7 11 15 21 19 17 13 23 27 25 9 35 ]
[ 0.004421 0.053017 0.173616 0.067682 0.136528 0.167260 0.107446 0.027145 0.001994 0.007922 0.002722 0.250247 ]
5
Num Evals 2902
GenUC: 1.381160e-04
GenUB: 1.575738e-04
Optimisation 7.090724e-01
Total Time: 7.104864e-01
