Clock Speed: 3.688770
Num threads: 4
Trotterisation: 2
Graph Size: 6
Num Qubits: 10
Space Dimension: 1024
Run-Type: 0
Num_samples: 10
1 Isomorphic
Graph 1:
0 0 0 0 0 1 
1 1 0 0 1 1 
1 1 1 1 1 0 
1 1 0 1 1 0 
0 0 1 0 0 0 
1 0 1 0 1 0 
Graph 2:
0 0 0 0 0 1 
1 1 0 0 1 1 
1 1 1 1 1 0 
1 1 0 1 1 0 
0 0 1 0 0 0 
1 0 1 0 1 0 
Solution: 0 0
Gbest: -14.000000
Expectation: -20.407480
Final Parameters:
Gammas:
[ 5.855999 2.688155 ]
Betas:
[ 0.270007 1.860511 1.475914 ]
Aggregate results:
[ -1 7 17 11 15 9 13 5 3 21 19 23 25 27 35 ]
[ 0.001248 0.015535 0.101443 0.083631 0.200436 0.035647 0.152483 0.001894 0.000502 0.073255 0.065202 0.064534 0.007043 0.000349 0.196798 ]
5
Num Evals 600
GenUC: 2.845246e-04
GenUB: 1.967025e-04
Optimisation 6.202429e-01
Total Time: 6.218503e-01
2 Flipped
Graph 1:
0 0 0 0 0 1 
1 1 0 0 1 1 
1 1 1 1 1 0 
1 1 0 1 1 0 
0 0 1 0 0 0 
1 0 1 0 1 0 
Graph 2:
1 0 0 0 0 0 
1 1 0 0 1 1 
0 1 1 1 1 1 
0 1 1 0 1 1 
0 0 0 1 0 0 
0 1 0 1 0 1 
Solution: -8 500
Gbest: -12.000000
Expectation: -19.362053
Final Parameters:
Gammas:
[ 6.010442 3.231700 ]
Betas:
[ 0.040273 1.154989 1.517929 ]
Aggregate results:
[ 15 17 19 13 11 21 23 9 7 25 35 ]
[ 0.198802 0.233889 0.151867 0.115259 0.040045 0.104471 0.036136 0.020655 0.002930 0.000998 0.094949 ]
5
Num Evals 1200
GenUC: 1.266028e-04
GenUB: 1.682789e-04
Optimisation 5.426522e-01
Total Time: 5.438010e-01
3 Add 6
Graph 1:
0 0 0 0 0 1 
1 1 0 0 1 1 
1 1 1 1 1 0 
1 1 0 1 1 0 
0 0 1 0 0 0 
1 0 1 0 1 0 
Graph 2:
0 0 1 0 0 1 
1 1 0 0 1 1 
1 1 1 1 1 0 
1 1 1 1 1 1 
0 0 1 0 0 0 
1 0 1 1 1 0 
Solution: -4 0
Gbest: -12.000000
Expectation: -22.270771
Final Parameters:
Gammas:
[ 4.046756 4.055504 ]
Betas:
[ 0.363963 2.168663 1.813944 ]
Aggregate results:
[ 3 11 17 13 15 5 9 19 21 23 7 25 35 ]
[ 0.000010 0.035519 0.181387 0.106546 0.144217 0.004436 0.018122 0.108246 0.100393 0.027064 0.007965 0.009370 0.256727 ]
3
Num Evals 1779
GenUC: 1.272143e-04
GenUB: 1.606635e-04
Optimisation 6.483131e-01
Total Time: 6.497215e-01
4 Rem 6
Graph 1:
0 0 0 0 0 1 
1 1 0 0 1 1 
1 1 1 1 1 0 
1 1 0 1 1 0 
0 0 1 0 0 0 
1 0 1 0 1 0 
Graph 2:
0 0 0 0 0 0 
0 1 0 0 1 0 
1 1 1 0 0 0 
1 0 0 1 1 0 
0 0 1 0 0 0 
1 0 1 0 1 0 
Solution: -6 0
Gbest: -14.000000
Expectation: -18.286339
Final Parameters:
Gammas:
[ 3.055821 4.454132 ]
Betas:
[ 3.132221 1.866976 1.492000 ]
Aggregate results:
[ 5 11 15 17 19 9 13 21 23 7 25 35 ]
[ 0.006055 0.073549 0.205963 0.234663 0.135537 0.023044 0.121703 0.089968 0.034345 0.009099 0.005196 0.060877 ]
5
Num Evals 2379
GenUC: 1.274661e-04
GenUB: 1.696586e-04
Optimisation 8.372006e-01
Total Time: 8.388845e-01
5 Add/Rem 6
Graph 1:
0 0 0 0 0 1 
1 1 0 0 1 1 
1 1 1 1 1 0 
1 1 0 1 1 0 
0 0 1 0 0 0 
1 0 1 0 1 0 
Graph 2:
0 0 0 0 0 1 
1 1 1 0 0 1 
0 0 1 1 0 0 
1 1 0 1 1 1 
0 0 1 1 0 0 
0 0 1 1 0 0 
Solution: -8 50
Gbest: -16.000000
Expectation: -18.562386
Final Parameters:
Gammas:
[ 3.072054 3.211460 ]
Betas:
[ 1.471090 1.811757 1.962061 ]
Aggregate results:
[ 9 13 17 23 19 21 15 11 7 25 27 35 ]
[ 0.015191 0.118466 0.216266 0.019677 0.211867 0.103862 0.203714 0.052833 0.002490 0.004907 0.000311 0.050416 ]
5
Num Evals 2979
GenUC: 1.283651e-04
GenUB: 1.704033e-04
Optimisation 7.400275e-01
Total Time: 7.416340e-01
