Clock Speed: 3.689187
Num threads: 4
Trotterisation: 5
Graph Size: 7
Num Qubits: 13
Space Dimension: 8192
Run-Type: 0
Num_samples: 10
1 Isomorphic
Graph 1:
0 1 1 0 1 0 0 
1 0 1 0 0 0 0 
1 1 1 1 0 0 0 
1 1 0 0 0 1 0 
1 1 0 1 0 0 1 
1 0 1 0 0 1 1 
1 0 0 0 1 1 0 
Graph 2:
0 1 1 0 1 0 0 
1 0 1 0 0 0 0 
1 1 1 1 0 0 0 
1 1 0 0 0 1 0 
1 1 0 1 0 0 1 
1 0 1 0 0 1 1 
1 0 0 0 1 1 0 
Solution: 0 0
Gbest: -22.000000
Expectation: -26.416559
Final Parameters:
Gammas:
[ 4.738333 3.024921 4.756252 3.049371 2.978245 ]
Betas:
[ 1.928411 2.305671 0.890754 1.223651 1.218523 1.381726 ]
Aggregate results:
[ -1 5 13 9 11 15 17 19 7 21 23 25 27 31 33 29 48 ]
[ 0.000294 0.000447 0.013714 0.001054 0.003732 0.028675 0.055759 0.100859 0.000885 0.178876 0.173188 0.158872 0.111217 0.013081 0.003484 0.043738 0.112125 ]
5
Num Evals 700
GenUC: 1.553234e-03
GenUB: 2.036594e-03
Optimisation 1.050959e+01
Total Time: 1.052741e+01
2 Flipped
Graph 1:
0 1 1 0 1 0 0 
1 0 1 0 0 0 0 
1 1 1 1 0 0 0 
1 1 0 0 0 1 0 
1 1 0 1 0 0 1 
1 0 1 0 0 1 1 
1 0 0 0 1 1 0 
Graph 2:
0 0 1 0 1 1 0 
0 0 0 0 1 0 1 
0 0 0 1 1 1 1 
0 1 0 0 0 1 1 
1 0 0 1 0 1 1 
1 1 0 0 1 0 1 
0 1 1 0 0 0 1 
Solution: -12 304
Gbest: -16.000000
Expectation: -25.421607
Final Parameters:
Gammas:
[ 3.141656 3.183242 5.161233 3.147060 3.062679 ]
Betas:
[ 1.147897 2.832239 0.680964 1.300452 1.432865 1.439460 ]
Aggregate results:
[ 25 23 27 29 31 33 19 21 17 15 13 11 35 48 ]
[ 0.161716 0.222120 0.100069 0.032211 0.007965 0.002447 0.119597 0.201343 0.058746 0.015417 0.004569 0.000668 0.000097 0.073035 ]
5
Num Evals 1400
GenUC: 1.239442e-03
GenUB: 1.731752e-03
Optimisation 1.010539e+01
Total Time: 1.012372e+01
3 Add 7
Graph 1:
0 1 1 0 1 0 0 
1 0 1 0 0 0 0 
1 1 1 1 0 0 0 
1 1 0 0 0 1 0 
1 1 0 1 0 0 1 
1 0 1 0 0 1 1 
1 0 0 0 1 1 0 
Graph 2:
0 1 1 1 1 0 0 
1 0 1 0 0 0 1 
1 1 1 1 0 0 0 
1 1 0 0 0 1 0 
1 1 1 1 0 0 1 
1 0 1 0 0 1 1 
1 1 1 0 1 1 0 
Solution: -5 0
Gbest: -19.000000
Expectation: -21.822196
Final Parameters:
Gammas:
[ 3.075748 3.112768 3.077318 2.897587 3.164407 ]
Betas:
[ 1.077224 0.863919 1.355622 1.212178 1.622197 1.675355 ]
Aggregate results:
[ 4 8 14 12 10 16 18 20 22 24 26 28 30 32 36 34 48 ]
[ 0.002151 0.001463 0.051154 0.019098 0.008756 0.122735 0.201971 0.224273 0.179496 0.087314 0.031432 0.012575 0.010821 0.005301 0.000759 0.000338 0.040364 ]
5
Num Evals 2100
GenUC: 1.252796e-03
GenUB: 1.945989e-03
Optimisation 9.618732e+00
Total Time: 9.635243e+00
4 Rem 7
Graph 1:
0 1 1 0 1 0 0 
1 0 1 0 0 0 0 
1 1 1 1 0 0 0 
1 1 0 0 0 1 0 
1 1 0 1 0 0 1 
1 0 1 0 0 1 1 
1 0 0 0 1 1 0 
Graph 2:
0 1 1 0 1 0 0 
1 0 1 0 0 0 0 
0 0 1 0 0 0 0 
0 1 0 0 0 1 0 
0 1 0 1 0 0 1 
1 0 0 0 0 0 1 
1 0 0 0 1 1 0 
Solution: -7 0
Gbest: -17.000000
Expectation: -24.022603
Final Parameters:
Gammas:
[ 3.096309 3.155060 3.102477 3.078152 3.183118 ]
Betas:
[ 1.351066 1.229482 1.556268 0.868355 1.540650 1.250197 ]
Aggregate results:
[ 6 12 18 16 14 20 22 24 26 28 30 32 34 48 ]
[ 0.000422 0.004835 0.110624 0.043031 0.011503 0.188980 0.220828 0.188238 0.121373 0.052403 0.020599 0.003303 0.000441 0.033418 ]
5
Num Evals 2800
GenUC: 1.212823e-03
GenUB: 1.742578e-03
Optimisation 9.836785e+00
Total Time: 9.853313e+00
5 Add/Rem 7
Graph 1:
0 1 1 0 1 0 0 
1 0 1 0 0 0 0 
1 1 1 1 0 0 0 
1 1 0 0 0 1 0 
1 1 0 1 0 0 1 
1 0 1 0 0 1 1 
1 0 0 0 1 1 0 
Graph 2:
1 1 1 0 1 0 0 
0 0 1 0 0 0 1 
1 1 0 1 1 0 1 
1 1 0 0 0 1 1 
0 1 0 1 0 1 0 
0 0 1 0 0 1 1 
0 0 0 0 1 1 1 
Solution: -13 0
Gbest: -17.000000
Expectation: -22.209803
Final Parameters:
Gammas:
[ 3.112259 3.165041 3.106692 3.339243 3.285833 ]
Betas:
[ 1.043336 1.322302 1.326590 1.155920 1.516962 1.474905 ]
Aggregate results:
[ 12 14 18 20 22 24 26 16 28 30 32 34 36 48 ]
[ 0.006639 0.021973 0.165710 0.263427 0.244063 0.144784 0.043822 0.070724 0.011027 0.007994 0.002501 0.000301 0.000042 0.016994 ]
5
Num Evals 3500
GenUC: 1.198379e-03
GenUB: 1.751616e-03
Optimisation 9.840323e+00
Total Time: 9.856752e+00
