Clock Speed: 3.688877
Num threads: 4
Trotterisation: 5
Graph Size: 8
Num Qubits: 16
Space Dimension: 65536
Run-Type: 0
Num_samples: 10
1 Isomorphic
Graph 1:
0 0 1 0 1 0 1 0 
1 0 0 1 0 1 0 0 
1 1 0 0 0 1 0 0 
0 1 1 1 0 0 1 1 
1 1 1 0 1 1 1 1 
1 0 0 0 0 0 0 1 
0 0 0 1 0 0 1 0 
1 1 0 0 1 0 1 0 
Graph 2:
0 0 1 0 1 0 1 0 
1 0 0 1 0 1 0 0 
1 1 0 0 0 1 0 0 
0 1 1 1 0 0 1 1 
1 1 1 0 1 1 1 1 
1 0 0 0 0 0 0 1 
0 0 0 1 0 0 1 0 
1 1 0 0 1 0 1 0 
Solution: 0 0
Gbest: -22.000000
Expectation: -32.666616
Final Parameters:
Gammas:
[ 3.171933 4.287147 3.503496 0.982787 3.528696 ]
Betas:
[ 0.443870 2.567967 0.013193 0.008841 0.115586 0.092336 ]
Aggregate results:
[ -1 15 7 25 27 19 21 17 29 31 33 23 35 11 13 37 39 9 41 43 45 63 ]
[ 0.000009 0.000743 0.000016 0.129124 0.173800 0.015312 0.036653 0.004306 0.186620 0.131922 0.065049 0.069342 0.037397 0.000130 0.000347 0.029782 0.017602 0.000058 0.006280 0.000921 0.000111 0.094474 ]
5
Num Evals 800
GenUC: 3.634406e-03
GenUB: 1.778813e-02
Optimisation 2.220959e+02
Total Time: 2.223081e+02
2 Flipped
Graph 1:
0 0 1 0 1 0 1 0 
1 0 0 1 0 1 0 0 
1 1 0 0 0 1 0 0 
0 1 1 1 0 0 1 1 
1 1 1 0 1 1 1 1 
1 0 0 0 0 0 0 1 
0 0 0 1 0 0 1 0 
1 1 0 0 1 0 1 0 
Graph 2:
0 1 0 1 0 1 0 0 
0 0 1 0 1 0 0 1 
0 0 1 0 0 0 1 1 
1 1 0 0 1 1 1 0 
1 1 1 1 0 1 1 1 
1 0 0 0 0 0 0 1 
0 1 0 0 1 0 0 0 
0 1 0 1 0 0 1 1 
Solution: -16 6529
Gbest: -24.000000
Expectation: -34.516594
Final Parameters:
Gammas:
[ 3.277912 0.186044 3.300474 3.146776 3.629627 ]
Betas:
[ 1.619558 0.691703 1.189613 1.608367 1.634547 1.744535 ]
Aggregate results:
[ 33 25 27 31 29 17 19 23 21 35 37 39 41 43 45 47 15 63 ]
[ 0.082614 0.122310 0.157335 0.129630 0.168862 0.002078 0.009427 0.067874 0.028960 0.045801 0.024808 0.012207 0.004239 0.001186 0.000131 0.000032 0.000454 0.142052 ]
5
Num Evals 1600
GenUC: 2.600431e-03
GenUB: 1.673997e-02
Optimisation 2.623614e+02
Total Time: 2.627357e+02
3 Add 8
Graph 1:
0 0 1 0 1 0 1 0 
1 0 0 1 0 1 0 0 
1 1 0 0 0 1 0 0 
0 1 1 1 0 0 1 1 
1 1 1 0 1 1 1 1 
1 0 0 0 0 0 0 1 
0 0 0 1 0 0 1 0 
1 1 0 0 1 0 1 0 
Graph 2:
0 0 1 1 1 0 1 0 
1 0 1 1 0 1 0 0 
1 1 0 0 0 1 0 0 
1 1 1 1 0 1 1 1 
1 1 1 1 1 1 1 1 
1 0 1 0 0 1 0 1 
0 0 0 1 0 0 1 1 
1 1 0 0 1 0 1 0 
Solution: -8 0
Gbest: -28.000000
Expectation: -34.693354
Final Parameters:
Gammas:
[ 0.138510 3.499520 5.621745 3.531142 3.291762 ]
Betas:
[ 0.104640 0.451428 0.015477 1.582609 1.670562 0.024845 ]
Aggregate results:
[ 7 17 15 13 21 25 29 23 27 19 31 33 35 39 37 41 45 43 47 63 ]
[ 0.000010 0.001222 0.000397 0.000060 0.021451 0.098965 0.168742 0.055987 0.142558 0.006653 0.149106 0.095395 0.060003 0.023623 0.038727 0.009751 0.000193 0.002944 0.000039 0.124175 ]
5
Num Evals 2400
GenUC: 2.802823e-03
GenUB: 1.630920e-02
Optimisation 2.513132e+02
Total Time: 2.515415e+02
4 Rem 8
Graph 1:
0 0 1 0 1 0 1 0 
1 0 0 1 0 1 0 0 
1 1 0 0 0 1 0 0 
0 1 1 1 0 0 1 1 
1 1 1 0 1 1 1 1 
1 0 0 0 0 0 0 1 
0 0 0 1 0 0 1 0 
1 1 0 0 1 0 1 0 
Graph 2:
0 0 1 0 1 0 1 0 
1 0 0 1 0 1 0 0 
1 0 0 0 0 0 0 0 
0 1 1 0 0 0 1 1 
1 0 1 0 1 1 0 1 
1 0 0 0 0 0 0 1 
0 0 0 0 0 0 1 0 
1 0 0 0 1 0 1 0 
Solution: -7 0
Gbest: -19.000000
Expectation: -32.636426
Final Parameters:
Gammas:
[ 6.235992 3.252354 5.896889 0.415394 0.191431 ]
Betas:
[ 0.037504 2.206388 1.843387 1.695516 1.573483 0.034385 ]
Aggregate results:
[ 6 22 18 10 26 24 20 16 28 30 32 34 36 38 14 40 42 44 12 63 ]
[ 0.000057 0.057923 0.005340 0.000076 0.184709 0.123868 0.017893 0.000854 0.190989 0.128368 0.066346 0.049397 0.040459 0.021157 0.000284 0.008148 0.001376 0.000162 0.000038 0.102557 ]
5
Num Evals 3200
GenUC: 2.881574e-03
GenUB: 1.697937e-02
Optimisation 2.603164e+02
Total Time: 2.606494e+02
5 Add/Rem 8
Graph 1:
0 0 1 0 1 0 1 0 
1 0 0 1 0 1 0 0 
1 1 0 0 0 1 0 0 
0 1 1 1 0 0 1 1 
1 1 1 0 1 1 1 1 
1 0 0 0 0 0 0 1 
0 0 0 1 0 0 1 0 
1 1 0 0 1 0 1 0 
Graph 2:
0 0 1 1 1 0 1 1 
1 0 0 1 1 1 0 0 
0 0 0 0 1 0 0 0 
0 1 1 1 0 0 0 0 
1 1 1 0 1 0 1 1 
0 0 0 0 0 0 0 1 
1 0 0 1 1 0 0 0 
1 1 0 0 1 0 1 0 
Solution: -14 0
Gbest: -24.000000
Expectation: -34.880930
Final Parameters:
Gammas:
[ 0.121626 0.142592 3.810328 0.855049 0.358492 ]
Betas:
[ 0.154316 0.352141 1.145246 1.611658 1.651537 1.594777 ]
Aggregate results:
[ 13 23 19 21 31 27 25 33 29 35 37 17 15 41 39 43 63 ]
[ 0.000036 0.031711 0.001993 0.010484 0.186763 0.142274 0.076656 0.134578 0.190569 0.068657 0.025430 0.000549 0.000031 0.001288 0.006305 0.000148 0.122529 ]
5
Num Evals 4000
GenUC: 3.034338e-03
GenUB: 1.686870e-02
Optimisation 2.234459e+02
Total Time: 2.237708e+02
