Clock Speed: 1.519078
Num threads: 12
Trotterisation: 3
Graph Size: 7
Num Qubits: 13
Space Dimension: 8192
Run-Type: 0
Num_samples: 1
1 Isomorphic
Graph 1:
0 0 1 0 0 1 1 
0 0 1 0 1 0 1 
0 1 1 0 0 0 0 
1 1 1 0 1 1 1 
1 1 1 1 0 1 0 
1 1 0 1 1 1 0 
0 1 0 1 0 1 1 
Graph 2:
0 0 1 0 0 1 1 
0 0 1 0 1 0 1 
0 1 1 0 0 0 0 
1 1 1 0 1 1 1 
1 1 1 1 0 1 0 
1 1 0 1 1 1 0 
0 1 0 1 0 1 1 
Solution: 0 0
Expectation: -28.665894
Final Parameters:
Gammas:
[ 3.554249 3.333539 3.444803 ]
Betas:
[ 0.909926 2.510587 1.382867 1.569541 ]
Aggregate results:
[ 0 8 16 12 14 20 22 24 26 18 28 30 6 10 32 34 36 49 ]
[ 0.000447 0.002420 0.040632 0.006609 0.020795 0.142789 0.150146 0.132239 0.092569 0.085195 0.048152 0.019399 0.000675 0.001526 0.005756 0.003789 0.000448 0.246413 ]
5
Num Evals 700
GenUC: 1.401098e-02
GenUB: 5.137226e-03
Optimisation 1.411298e+01
Total Time: 1.415225e+01
2 Flipped
Graph 1:
0 0 1 0 0 1 1 
0 0 1 0 1 0 1 
0 1 1 0 0 0 0 
1 1 1 0 1 1 1 
1 1 1 1 0 1 0 
1 1 0 1 1 1 0 
0 1 0 1 0 1 1 
Graph 2:
1 1 0 0 1 0 0 
1 0 1 0 1 0 0 
0 0 0 0 1 1 0 
1 1 1 0 1 1 1 
0 1 0 1 1 1 1 
0 1 1 1 0 1 1 
1 1 0 1 0 1 0 
Solution: -6 3426
Expectation: -24.912457
Final Parameters:
Gammas:
[ 4.523094 4.970865 1.853351 ]
Betas:
[ 0.863130 3.128857 2.032179 1.531746 ]
Aggregate results:
[ 22 18 20 14 24 28 32 30 26 16 34 12 10 8 6 36 49 ]
[ 0.186232 0.066476 0.115768 0.009161 0.213521 0.100141 0.010199 0.032570 0.180603 0.021974 0.001808 0.003890 0.000430 0.000178 0.000198 0.000366 0.056485 ]
5
Num Evals 1400
GenUC: 2.115665e-03
GenUB: 2.764671e-03
Optimisation 1.521608e+01
Total Time: 1.524295e+01
3 Add 7
Graph 1:
0 0 1 0 0 1 1 
0 0 1 0 1 0 1 
0 1 1 0 0 0 0 
1 1 1 0 1 1 1 
1 1 1 1 0 1 0 
1 1 0 1 1 1 0 
0 1 0 1 0 1 1 
Graph 2:
0 0 1 1 0 1 1 
0 0 1 0 1 0 1 
0 1 1 0 0 0 0 
1 1 1 1 1 1 1 
1 1 1 1 1 1 1 
1 1 0 1 1 1 0 
0 1 1 1 1 1 1 
Solution: -6 0
Expectation: -24.418275
Final Parameters:
Gammas:
[ 4.569997 4.921964 2.077999 ]
Betas:
[ 2.675544 3.133426 2.054056 1.543509 ]
Aggregate results:
[ 6 14 22 16 20 24 28 26 18 12 30 8 32 10 34 49 ]
[ 0.000229 0.010289 0.206240 0.025649 0.134827 0.214020 0.078005 0.166692 0.070376 0.003725 0.031610 0.000229 0.005571 0.000942 0.000229 0.051367 ]
5
Num Evals 2100
GenUC: 2.146370e-03
GenUB: 2.763978e-03
Optimisation 1.669777e+01
Total Time: 1.672737e+01
4 Rem 7
Graph 1:
0 0 1 0 0 1 1 
0 0 1 0 1 0 1 
0 1 1 0 0 0 0 
1 1 1 0 1 1 1 
1 1 1 1 0 1 0 
1 1 0 1 1 1 0 
0 1 0 1 0 1 1 
Graph 2:
0 0 1 0 0 1 1 
0 0 1 0 1 0 1 
0 0 0 0 0 0 0 
1 1 1 0 1 1 0 
0 1 1 1 0 1 0 
1 1 0 0 1 0 0 
0 1 0 1 0 1 0 
Solution: -7 0
Expectation: -25.232774
Final Parameters:
Gammas:
[ 5.120486 4.265541 4.424112 ]
Betas:
[ 0.007242 3.096837 2.107651 1.590968 ]
Aggregate results:
[ 7 13 21 17 19 25 27 29 23 15 31 33 11 35 49 ]
[ 0.000481 0.002053 0.141048 0.027306 0.078929 0.204839 0.150437 0.079273 0.218612 0.008726 0.028651 0.008017 0.000688 0.001440 0.049500 ]
5
Num Evals 2800
GenUC: 2.192374e-03
GenUB: 2.742324e-03
Optimisation 1.410099e+01
Total Time: 1.412526e+01
5 Add/Rem 7
Graph 1:
0 0 1 0 0 1 1 
0 0 1 0 1 0 1 
0 1 1 0 0 0 0 
1 1 1 0 1 1 1 
1 1 1 1 0 1 0 
1 1 0 1 1 1 0 
0 1 0 1 0 1 1 
Graph 2:
0 0 0 0 0 1 1 
1 0 1 0 0 0 1 
1 1 1 0 1 1 0 
1 1 1 0 1 0 1 
1 0 1 1 0 1 1 
1 0 0 1 1 1 0 
0 1 0 0 0 1 1 
Solution: -9 1778
Expectation: -26.793376
Final Parameters:
Gammas:
[ 3.074119 3.271674 3.054584 ]
Betas:
[ 1.553013 1.309995 1.558141 0.946662 ]
Aggregate results:
[ 11 15 17 19 23 21 25 27 29 13 31 33 35 9 49 ]
[ 0.001228 0.012712 0.039557 0.072109 0.176039 0.129420 0.188716 0.148815 0.077662 0.003445 0.024989 0.009439 0.000993 0.000069 0.114806 ]
5
Num Evals 3500
GenUC: 2.240526e-03
GenUB: 2.767701e-03
Optimisation 1.256176e+01
Total Time: 1.258488e+01
