Clock Speed: 1.519056
Num threads: 12
Trotterisation: 4
Graph Size: 7
Num Qubits: 13
Space Dimension: 8192
Run-Type: 0
Num_samples: 1
1 Isomorphic
Graph 1:
1 0 0 0 0 0 0 
0 1 0 0 1 1 0 
0 0 0 0 0 1 1 
1 1 1 0 1 0 0 
1 1 0 1 0 0 1 
1 1 1 1 1 0 0 
0 0 1 0 1 1 0 
Graph 2:
1 0 0 0 0 0 0 
0 1 0 0 1 1 0 
0 0 0 0 0 1 1 
1 1 1 0 1 0 0 
1 1 0 1 0 0 1 
1 1 1 1 1 0 0 
0 0 1 0 1 1 0 
Solution: 0 0
Expectation: -27.654768
Final Parameters:
Gammas:
[ 3.228379 5.647228 3.654930 5.217134 ]
Betas:
[ 2.275449 0.779389 2.978814 1.979135 1.881469 ]
Aggregate results:
[ 0 4 12 10 18 20 16 28 22 26 14 24 8 32 30 34 36 6 49 ]
[ 0.000199 0.000278 0.004854 0.002190 0.059128 0.089825 0.036856 0.117116 0.137621 0.143131 0.013954 0.153679 0.000915 0.020513 0.057769 0.006573 0.000787 0.000315 0.154297 ]
5
Num Evals 700
GenUC: 1.432544e-02
GenUB: 3.799656e-03
Optimisation 1.968345e+01
Total Time: 1.973042e+01
2 Flipped
Graph 1:
1 0 0 0 0 0 0 
0 1 0 0 1 1 0 
0 0 0 0 0 1 1 
1 1 1 0 1 0 0 
1 1 0 1 0 0 1 
1 1 1 1 1 0 0 
0 0 1 0 1 1 0 
Graph 2:
0 0 0 0 0 0 1 
0 1 1 0 0 1 0 
1 1 0 0 0 0 0 
0 0 1 0 1 1 1 
1 0 0 1 0 1 1 
0 0 1 1 1 1 1 
0 1 1 0 1 0 0 
Solution: -12 922
Expectation: -24.993652
Final Parameters:
Gammas:
[ 4.799182 1.820823 2.878089 6.102292 ]
Betas:
[ 1.469726 3.128209 3.139756 2.082055 1.668861 ]
Aggregate results:
[ 20 22 24 18 26 28 32 30 16 14 34 36 12 49 ]
[ 0.122470 0.202158 0.212060 0.050576 0.181534 0.104477 0.019519 0.040886 0.016170 0.001897 0.002415 0.000453 0.000189 0.045195 ]
5
Num Evals 1400
GenUC: 2.118065e-03
GenUB: 2.797235e-03
Optimisation 2.163678e+01
Total Time: 2.167326e+01
3 Add 7
Graph 1:
1 0 0 0 0 0 0 
0 1 0 0 1 1 0 
0 0 0 0 0 1 1 
1 1 1 0 1 0 0 
1 1 0 1 0 0 1 
1 1 1 1 1 0 0 
0 0 1 0 1 1 0 
Graph 2:
1 0 0 0 0 0 1 
0 1 1 0 1 1 0 
0 1 0 1 0 1 1 
1 1 1 0 1 1 0 
1 1 0 1 0 0 1 
1 1 1 1 1 1 0 
0 0 1 0 1 1 0 
Solution: -6 0
Expectation: -24.980994
Final Parameters:
Gammas:
[ 6.259034 2.029856 4.217980 4.327697 ]
Betas:
[ 0.115796 2.687100 3.108655 2.281200 1.533957 ]
Aggregate results:
[ 6 10 18 16 14 22 20 12 26 24 28 30 32 34 36 49 ]
[ 0.000530 0.001208 0.061216 0.028449 0.012006 0.153544 0.105565 0.004261 0.174276 0.193937 0.118688 0.067912 0.032116 0.008201 0.001470 0.036621 ]
5
Num Evals 2100
GenUC: 2.194948e-03
GenUB: 2.769379e-03
Optimisation 2.210718e+01
Total Time: 2.214006e+01
4 Rem 7
Graph 1:
1 0 0 0 0 0 0 
0 1 0 0 1 1 0 
0 0 0 0 0 1 1 
1 1 1 0 1 0 0 
1 1 0 1 0 0 1 
1 1 1 1 1 0 0 
0 0 1 0 1 1 0 
Graph 2:
1 0 0 0 0 0 0 
0 1 0 0 1 1 0 
0 0 0 0 0 0 0 
1 1 1 0 0 0 0 
1 1 0 0 0 0 1 
1 1 1 1 1 0 0 
0 0 1 0 0 1 0 
Solution: -5 0
Expectation: -25.614146
Final Parameters:
Gammas:
[ 3.329356 3.192979 3.939256 3.539540 ]
Betas:
[ 1.146919 2.017770 1.612809 1.547516 1.546238 ]
Aggregate results:
[ 5 9 13 15 11 17 21 19 25 23 27 31 29 33 35 49 ]
[ 0.000081 0.000241 0.006875 0.021161 0.001614 0.057849 0.160254 0.094645 0.177289 0.192320 0.110015 0.015824 0.056426 0.003888 0.001110 0.100407 ]
5
Num Evals 2800
GenUC: 2.149799e-03
GenUB: 2.747843e-03
Optimisation 1.812941e+01
Total Time: 1.816008e+01
5 Add/Rem 7
Graph 1:
1 0 0 0 0 0 0 
0 1 0 0 1 1 0 
0 0 0 0 0 1 1 
1 1 1 0 1 0 0 
1 1 0 1 0 0 1 
1 1 1 1 1 0 0 
0 0 1 0 1 1 0 
Graph 2:
1 1 1 0 0 0 0 
0 1 0 0 1 1 0 
0 0 1 1 0 1 1 
0 1 1 0 0 0 1 
0 1 0 1 1 0 1 
1 1 0 1 0 0 0 
0 0 1 0 0 1 0 
Solution: -12 0
Expectation: -25.909307
Final Parameters:
Gammas:
[ 3.326298 2.794125 3.335178 3.007874 ]
Betas:
[ 2.519395 1.024492 1.561426 1.810043 1.234782 ]
Aggregate results:
[ 12 16 22 20 18 26 24 14 28 30 32 34 36 49 ]
[ 0.001189 0.015748 0.217395 0.130551 0.054710 0.137821 0.227638 0.002873 0.076375 0.022908 0.008483 0.001789 0.000293 0.102227 ]
5
Num Evals 3500
GenUC: 2.244133e-03
GenUB: 2.797344e-03
Optimisation 1.761920e+01
Total Time: 1.765026e+01
