Clock Speed: 1.519071
Num threads: 12
Trotterisation: 5
Graph Size: 7
Num Qubits: 13
Space Dimension: 8192
Run-Type: 0
Num_samples: 1
1 Isomorphic
Graph 1:
0 1 0 1 1 1 0 
0 0 1 1 0 0 1 
1 1 1 1 0 0 0 
0 1 1 0 0 1 1 
1 1 0 1 0 1 1 
0 0 1 1 1 0 1 
1 1 1 1 0 1 1 
Graph 2:
0 1 0 1 1 1 0 
0 0 1 1 0 0 1 
1 1 1 1 0 0 0 
0 1 1 0 0 1 1 
1 1 0 1 0 1 1 
0 0 1 1 1 0 1 
1 1 1 1 0 1 1 
Solution: 0 0
Expectation: -27.581941
Final Parameters:
Gammas:
[ 4.168182 4.921639 4.789224 2.675459 5.192960 ]
Betas:
[ 1.261991 2.983349 2.068511 1.726147 1.867684 1.771377 ]
Aggregate results:
[ 0 12 16 18 14 20 4 26 24 22 8 28 10 30 6 49 ]
[ 0.000040 0.005190 0.042387 0.110589 0.013519 0.176047 0.000266 0.070237 0.141471 0.188942 0.000970 0.019387 0.001964 0.001511 0.000016 0.227464 ]
5
Num Evals 700
GenUC: 1.294305e-02
GenUB: 3.785578e-03
Optimisation 2.350716e+01
Total Time: 2.355761e+01
2 Flipped
Graph 1:
0 1 0 1 1 1 0 
0 0 1 1 0 0 1 
1 1 1 1 0 0 0 
0 1 1 0 0 1 1 
1 1 0 1 0 1 1 
0 0 1 1 1 0 1 
1 1 1 1 0 1 1 
Graph 2:
0 1 1 1 0 1 0 
1 0 0 1 1 0 0 
0 0 0 1 1 1 1 
1 1 0 0 1 1 0 
1 1 0 1 0 1 1 
1 0 1 1 1 0 0 
1 1 0 1 1 1 1 
Solution: -10 679
Expectation: -27.964092
Final Parameters:
Gammas:
[ 4.388191 4.600577 4.667707 3.096195 2.971204 ]
Betas:
[ 1.438309 2.967582 0.892217 1.541120 1.638260 1.695479 ]
Aggregate results:
[ 20 18 14 22 24 16 26 12 10 28 30 49 ]
[ 0.193121 0.136286 0.018541 0.162483 0.109306 0.064878 0.039058 0.005656 0.000558 0.007603 0.000629 0.261882 ]
5
Num Evals 1400
GenUC: 2.039498e-03
GenUB: 2.937348e-03
Optimisation 2.294215e+01
Total Time: 2.297948e+01
3 Add 7
Graph 1:
0 1 0 1 1 1 0 
0 0 1 1 0 0 1 
1 1 1 1 0 0 0 
0 1 1 0 0 1 1 
1 1 0 1 0 1 1 
0 0 1 1 1 0 1 
1 1 1 1 0 1 1 
Graph 2:
0 1 0 1 1 1 0 
0 0 1 1 1 0 1 
1 1 1 1 1 0 0 
0 1 1 1 1 1 1 
1 1 0 1 0 1 1 
1 0 1 1 1 0 1 
1 1 1 1 0 1 1 
Solution: -5 0
Expectation: -28.241178
Final Parameters:
Gammas:
[ 4.897790 3.012240 6.166984 5.784452 5.679643 ]
Betas:
[ 1.519840 2.926161 1.959999 1.956430 1.678637 1.546214 ]
Aggregate results:
[ 5 15 19 17 23 21 9 13 25 27 11 7 29 49 ]
[ 0.000038 0.032218 0.194680 0.099667 0.123127 0.191198 0.000434 0.006831 0.050600 0.017280 0.003019 0.000555 0.004062 0.276290 ]
5
Num Evals 2100
GenUC: 2.355425e-03
GenUB: 2.927321e-03
Optimisation 2.323117e+01
Total Time: 2.327097e+01
4 Rem 7
Graph 1:
0 1 0 1 1 1 0 
0 0 1 1 0 0 1 
1 1 1 1 0 0 0 
0 1 1 0 0 1 1 
1 1 0 1 0 1 1 
0 0 1 1 1 0 1 
1 1 1 1 0 1 1 
Graph 2:
0 1 0 0 1 0 0 
0 0 1 1 0 0 1 
1 0 1 1 0 0 0 
0 1 1 0 0 0 1 
1 1 0 1 0 1 0 
0 0 1 1 1 0 1 
0 1 1 1 0 1 1 
Solution: -6 0
Expectation: -29.140815
Final Parameters:
Gammas:
[ 4.497984 3.012959 4.005613 2.949366 4.227850 ]
Betas:
[ 1.952613 2.416227 0.757011 1.744201 1.513306 1.799785 ]
Aggregate results:
[ 6 16 18 20 22 14 8 24 26 28 30 12 10 32 34 49 ]
[ 0.000611 0.040551 0.085779 0.136479 0.156167 0.016219 0.001520 0.133821 0.086831 0.041719 0.020224 0.006507 0.002356 0.004952 0.000756 0.265507 ]
5
Num Evals 2800
GenUC: 2.248836e-03
GenUB: 2.861350e-03
Optimisation 2.200696e+01
Total Time: 2.204420e+01
5 Add/Rem 7
Graph 1:
0 1 0 1 1 1 0 
0 0 1 1 0 0 1 
1 1 1 1 0 0 0 
0 1 1 0 0 1 1 
1 1 0 1 0 1 1 
0 0 1 1 1 0 1 
1 1 1 1 0 1 1 
Graph 2:
0 1 0 1 1 1 0 
0 1 1 0 1 1 0 
0 1 1 1 1 0 1 
0 1 1 0 0 1 0 
1 1 1 1 0 1 1 
1 0 1 1 0 0 1 
1 1 0 1 0 1 1 
Solution: -11 628
Expectation: -29.522733
Final Parameters:
Gammas:
[ 4.234682 3.034319 3.988233 3.614858 3.841323 ]
Betas:
[ 1.733818 2.214912 0.993223 2.100041 1.907603 1.688518 ]
Aggregate results:
[ 13 19 21 15 17 23 29 25 27 11 31 49 ]
[ 0.003486 0.117832 0.173220 0.023862 0.051733 0.158962 0.017339 0.110167 0.060757 0.000611 0.000901 0.281130 ]
5
Num Evals 3500
GenUC: 2.233584e-03
GenUB: 2.865728e-03
Optimisation 2.176908e+01
Total Time: 2.180587e+01
