Clock Speed: 1.519744
Num threads: 12
Trotterisation: 6
Graph Size: 7
Num Qubits: 13
Space Dimension: 8192
Run-Type: 0
Num_samples: 1
1 Isomorphic
Graph 1:
0 0 0 1 1 1 0 
0 1 0 0 1 1 0 
0 0 1 0 0 0 1 
0 1 0 1 1 0 0 
0 0 1 1 0 1 1 
0 1 0 0 0 0 0 
1 0 1 0 0 1 1 
Graph 2:
0 0 0 1 1 1 0 
0 1 0 0 1 1 0 
0 0 1 0 0 0 1 
0 1 0 1 1 0 0 
0 0 1 1 0 1 1 
0 1 0 0 0 0 0 
1 0 1 0 0 1 1 
Solution: 0 0
Expectation: -28.047741
Final Parameters:
Gammas:
[ 3.147422 4.712420 4.688082 4.775400 4.813364 4.735681 ]
Betas:
[ 1.752924 1.460604 2.345476 1.404615 1.635166 1.521873 2.286128 ]
Aggregate results:
[ 0 10 18 14 12 16 20 24 28 26 22 30 32 8 4 34 49 ]
[ 0.000094 0.001406 0.051948 0.009523 0.002660 0.017602 0.102959 0.165886 0.075229 0.160589 0.186080 0.036044 0.007846 0.000225 0.000179 0.000257 0.181473 ]
5
Num Evals 700
GenUC: 7.683250e-03
GenUB: 3.840572e-03
Optimisation 2.694740e+01
Total Time: 2.699742e+01
2 Flipped
Graph 1:
0 0 0 1 1 1 0 
0 1 0 0 1 1 0 
0 0 1 0 0 0 1 
0 1 0 1 1 0 0 
0 0 1 1 0 1 1 
0 1 0 0 0 0 0 
1 0 1 0 0 1 1 
Graph 2:
0 1 1 1 0 0 0 
0 1 1 0 0 1 0 
1 0 0 0 1 0 0 
0 0 1 1 0 1 0 
1 1 0 1 1 0 0 
0 0 0 0 0 1 0 
1 1 0 0 1 0 1 
Solution: -12 304
Expectation: -28.257800
Final Parameters:
Gammas:
[ 4.612796 3.171903 2.957283 3.130868 4.692444 4.376711 ]
Betas:
[ 1.489876 2.090786 2.001675 1.539903 1.858249 1.529882 1.541217 ]
Aggregate results:
[ 26 30 20 22 24 28 32 16 18 14 12 34 49 ]
[ 0.093975 0.015194 0.155837 0.173637 0.150585 0.042046 0.006664 0.039855 0.088977 0.004932 0.001943 0.000380 0.225974 ]
5
Num Evals 1400
GenUC: 2.099085e-03
GenUB: 2.993227e-03
Optimisation 2.663274e+01
Total Time: 2.667591e+01
3 Add 7
Graph 1:
0 0 0 1 1 1 0 
0 1 0 0 1 1 0 
0 0 1 0 0 0 1 
0 1 0 1 1 0 0 
0 0 1 1 0 1 1 
0 1 0 0 0 0 0 
1 0 1 0 0 1 1 
Graph 2:
0 0 0 1 1 1 0 
1 1 1 0 1 1 0 
1 0 1 1 0 0 1 
1 1 0 1 1 0 0 
0 0 1 1 0 1 1 
0 1 0 0 1 0 0 
1 0 1 0 0 1 1 
Solution: -6 0
Expectation: -26.658553
Final Parameters:
Gammas:
[ 5.074147 4.265460 4.415136 5.258971 3.208192 2.815320 ]
Betas:
[ 2.159110 1.619770 1.504377 1.617587 1.005692 2.669086 1.369406 ]
Aggregate results:
[ 6 14 20 24 16 22 18 26 28 32 36 30 12 34 8 10 38 49 ]
[ 0.000793 0.006092 0.099276 0.184498 0.017026 0.165181 0.041978 0.185018 0.119419 0.020273 0.001750 0.055780 0.000645 0.002783 0.000232 0.000302 0.000208 0.098746 ]
5
Num Evals 2100
GenUC: 2.199086e-03
GenUB: 2.885628e-03
Optimisation 2.635956e+01
Total Time: 2.640237e+01
4 Rem 7
Graph 1:
0 0 0 1 1 1 0 
0 1 0 0 1 1 0 
0 0 1 0 0 0 1 
0 1 0 1 1 0 0 
0 0 1 1 0 1 1 
0 1 0 0 0 0 0 
1 0 1 0 0 1 1 
Graph 2:
0 0 0 1 1 1 0 
0 1 0 0 1 1 0 
0 0 1 0 0 0 1 
0 1 0 0 1 0 0 
0 0 0 0 0 0 1 
0 0 0 0 0 0 0 
1 0 1 0 0 0 0 
Solution: -7 0
Expectation: -20.809632
Final Parameters:
Gammas:
[ 3.188440 3.180475 3.478664 3.278265 4.098335 3.143111 ]
Betas:
[ 1.984249 0.640049 1.973982 1.535586 1.450274 1.870522 1.277038 ]
Aggregate results:
[ 7 15 21 17 19 13 23 29 27 25 11 31 9 49 ]
[ 0.000008 0.075686 0.232189 0.150401 0.262557 0.020740 0.119638 0.017806 0.036323 0.052306 0.001804 0.004709 0.000120 0.025714 ]
5
Num Evals 2800
GenUC: 2.157884e-03
GenUB: 2.909684e-03
Optimisation 2.498616e+01
Total Time: 2.502685e+01
5 Add/Rem 7
Graph 1:
0 0 0 1 1 1 0 
0 1 0 0 1 1 0 
0 0 1 0 0 0 1 
0 1 0 1 1 0 0 
0 0 1 1 0 1 1 
0 1 0 0 0 0 0 
1 0 1 0 0 1 1 
Graph 2:
0 0 1 0 0 1 0 
0 1 0 0 1 1 0 
0 0 1 0 0 1 1 
0 1 1 1 0 0 0 
0 0 0 1 0 1 0 
1 1 1 0 0 0 0 
1 0 0 1 0 1 1 
Solution: -12 0
Expectation: -28.088907
Final Parameters:
Gammas:
[ 3.106984 4.683814 3.093152 3.111939 4.545466 3.181183 ]
Betas:
[ 1.482239 1.434158 2.231802 1.564140 2.522793 1.751909 1.813079 ]
Aggregate results:
[ 12 18 22 16 24 14 20 28 26 30 32 34 49 ]
[ 0.001026 0.052238 0.154973 0.017947 0.207483 0.004602 0.125562 0.097569 0.116073 0.031689 0.009664 0.000188 0.180987 ]
5
Num Evals 3500
GenUC: 2.236485e-03
GenUB: 2.864718e-03
Optimisation 2.727385e+01
Total Time: 2.731808e+01
