Clock Speed: 3.688891
Num threads: 4
Trotterisation: 4
Num Qubits: 5
Space Dimension: 32
Run-Type: 0
Num_samples: 6399
Optimiser Method: 20
1 Isomorphic
Graph 1:
1 0 0 1 
0 1 1 0 
0 1 0 1 
1 0 0 0 
Graph 2:
1 0 0 1 
0 1 1 0 
0 1 0 1 
1 0 0 0 
Solution: 16 0
Classic Expectation: 8.166667
Initial Expecation: 6.125000
Gbest: 16.000000
Expectation: 9.274721
Final Parameters:
Gammas:
[ 4.797613 5.527517 1.365276 1.504258 ]
Betas:
[ 1.558788 2.107834 2.919871 0.799179 ]
Aggregate results:
[ 16 6 12 8 14 10 2 0 ]
[ 0.130727 0.132132 0.384562 0.100792 0.025859 0.041542 0.095884 0.088502 ]
5
Num Evals 3200
GenUC: 8.284987e-06
GenUB: 8.873001e-06
Optimisation 1.131488e+00
Total Time: 1.131531e+00
2 Flipped
Graph 1:
1 0 0 1 
0 1 1 0 
0 1 0 1 
1 0 0 0 
Graph 2:
1 0 0 1 
0 1 1 0 
1 0 1 0 
0 0 0 1 
Solution: 12 21
Classic Expectation: 8.500000
Initial Expecation: 6.375000
Gbest: 12.000000
Expectation: 9.617957
Final Parameters:
Gammas:
[ 6.283185 0.302887 6.125720 0.702266 ]
Betas:
[ 1.253618 2.786311 0.789619 0.250186 ]
Aggregate results:
[ 10 8 6 12 0 ]
[ 0.657230 0.146527 0.039836 0.136202 0.020205 ]
5
Num Evals 3200
GenUC: 9.289070e-06
GenUB: 2.279237e-06
Optimisation 9.449325e-01
Total Time: 9.449467e-01
3 Add 4
Graph 1:
1 0 0 1 
0 1 1 0 
0 1 0 1 
1 0 0 0 
Graph 2:
1 1 1 1 
0 1 1 0 
1 1 1 1 
1 0 0 0 
Solution: 12 0
Classic Expectation: 7.666667
Initial Expecation: 5.750000
Gbest: 12.000000
Expectation: 8.240868
Final Parameters:
Gammas:
[ 5.599476 6.153629 4.288101 5.187658 ]
Betas:
[ 2.139076 0.492500 0.653621 1.193716 ]
Aggregate results:
[ 12 6 10 8 4 0 ]
[ 0.168521 0.235078 0.366701 0.129425 0.026437 0.073839 ]
5
Num Evals 3200
GenUC: 1.283357e-05
GenUB: 5.698763e-06
Optimisation 9.170094e-01
Total Time: 9.170308e-01
4 Rem 4
Graph 1:
1 0 0 1 
0 1 1 0 
0 1 0 1 
1 0 0 0 
Graph 2:
1 0 0 1 
0 0 1 0 
0 1 0 1 
0 0 0 0 
Solution: 14 0
Classic Expectation: 8.333333
Initial Expecation: 6.250000
Gbest: 14.000000
Expectation: 9.397797
Final Parameters:
Gammas:
[ 0.488348 0.930119 2.491160 3.455718 ]
Betas:
[ 0.669583 1.376809 1.016491 0.824189 ]
Aggregate results:
[ 14 6 12 8 10 4 0 ]
[ 0.065571 0.081805 0.099525 0.055847 0.628414 0.015939 0.052899 ]
5
Num Evals 3200
GenUC: 9.286159e-06
GenUB: 1.582142e-06
Optimisation 8.620680e-01
Total Time: 8.620813e-01
5 Add/Rem 4
Graph 1:
1 0 0 1 
0 1 1 0 
0 1 0 1 
1 0 0 0 
Graph 2:
1 1 0 1 
0 0 1 0 
0 1 1 1 
0 1 0 0 
Solution: 13 13
Classic Expectation: 8.000000
Initial Expecation: 6.000000
Gbest: 13.000000
Expectation: 8.931659
Final Parameters:
Gammas:
[ 1.818102 2.154298 1.262517 0.168748 ]
Betas:
[ 2.446176 1.866349 1.935273 0.492302 ]
Aggregate results:
[ 11 5 7 9 13 0 ]
[ 0.339305 0.028982 0.212774 0.151718 0.169194 0.098028 ]
5
Num Evals 3200
GenUC: 9.421725e-06
GenUB: 1.623819e-06
Optimisation 1.108575e+00
Total Time: 1.108589e+00
