Clock Speed: 3.498681
Num threads: 16
Trotterisation: 2
Num Qubits: 10
Space Dimension: 1024
Run-Type: 0
Num_samples: 36
Optimiser Method: 29
1 Isomorphic
Graph 1:
1 1 0 1 1 0 
0 1 1 0 1 0 
0 1 1 0 0 0 
1 1 1 0 1 1 
1 0 1 0 1 1 
1 0 0 1 0 1 
Graph 2:
1 1 0 1 1 0 
0 1 1 0 1 0 
0 1 1 0 0 0 
1 1 1 0 1 1 
1 0 1 0 1 1 
1 0 0 1 0 1 
Solution: 36 0
Classic Expectation: 19.400000
Initial Expecation: 13.640625
Gbest: 24.000000
Expectation: 15.475127
Final Parameters:
Gammas:
[ 4.962539 3.227249 ]
Betas:
[ 0.988112 0.336540 ]
Aggregate results:
[ 36 26 24 18 16 22 28 20 30 12 14 6 0 ]
[ 0.002864 0.033995 0.080644 0.185559 0.103322 0.096512 0.017710 0.203800 0.003066 0.003981 0.051654 0.000236 0.216657 ]
3
Num Evals 326
GenUC: 3.232281e-04
GenUB: 1.451457e-04
Optimisation 5.236943e-01
Total Time: 5.241725e-01
2 Flipped
Graph 1:
1 1 0 1 1 0 
0 1 1 0 1 0 
0 1 1 0 0 0 
1 1 1 0 1 1 
1 0 1 0 1 1 
1 0 0 1 0 1 
Graph 2:
0 1 1 0 1 1 
0 1 0 1 1 0 
0 0 0 1 1 0 
1 1 0 1 1 1 
1 1 0 1 0 1 
1 0 1 0 0 1 
Solution: 26 6
Classic Expectation: 18.200000
Initial Expecation: 12.796875
Gbest: 24.000000
Expectation: 16.474373
Final Parameters:
Gammas:
[ 5.070514 4.313349 ]
Betas:
[ 0.107026 2.481619 ]
Aggregate results:
[ 18 20 22 16 26 24 14 12 10 0 ]
[ 0.251422 0.168224 0.132684 0.156163 0.007674 0.049072 0.098822 0.028273 0.006660 0.101006 ]
3
Num Evals 594
GenUC: 3.582579e-04
GenUB: 1.139799e-04
Optimisation 1.001101e+00
Total Time: 1.001576e+00
3 Add 6
Graph 1:
1 1 0 1 1 0 
0 1 1 0 1 0 
0 1 1 0 0 0 
1 1 1 0 1 1 
1 0 1 0 1 1 
1 0 0 1 0 1 
Graph 2:
1 1 0 1 1 1 
0 1 1 1 1 0 
1 1 1 0 0 0 
1 1 1 0 1 1 
1 0 1 0 1 1 
1 0 0 1 1 1 
Solution: 32 0
Classic Expectation: 19.666667
Initial Expecation: 13.828125
Gbest: 26.000000
Expectation: 17.727907
Final Parameters:
Gammas:
[ 6.039079 6.057940 ]
Betas:
[ 2.329029 1.313613 ]
Aggregate results:
[ 32 26 22 24 18 20 16 12 14 28 30 10 0 ]
[ 0.001744 0.059020 0.151574 0.093464 0.165493 0.233413 0.135619 0.006319 0.023809 0.003098 0.007173 0.003166 0.116106 ]
3
Num Evals 342
GenUC: 3.583864e-04
GenUB: 1.162263e-04
Optimisation 7.361393e-01
Total Time: 7.366161e-01
4 Rem 6
Graph 1:
1 1 0 1 1 0 
0 1 1 0 1 0 
0 1 1 0 0 0 
1 1 1 0 1 1 
1 0 1 0 1 1 
1 0 0 1 0 1 
Graph 2:
0 1 0 1 1 0 
0 0 0 0 1 0 
0 1 1 0 0 0 
0 1 1 0 1 0 
1 0 1 0 0 1 
1 0 0 1 0 1 
Solution: 30 0
Classic Expectation: 17.200000
Initial Expecation: 12.093750
Gbest: 30.000000
Expectation: 15.340546
Final Parameters:
Gammas:
[ 3.588527 5.737721 ]
Betas:
[ 0.001329 2.879138 ]
Aggregate results:
[ 30 20 22 18 16 14 10 24 12 26 6 0 ]
[ 0.003494 0.198023 0.115556 0.192290 0.157786 0.090167 0.012952 0.038159 0.032064 0.002049 0.000256 0.157204 ]
3
Num Evals 298
GenUC: 3.617858e-04
GenUB: 1.307395e-04
Optimisation 4.595683e-01
Total Time: 4.600631e-01
5 Add/Rem 6
Graph 1:
1 1 0 1 1 0 
0 1 1 0 1 0 
0 1 1 0 0 0 
1 1 1 0 1 1 
1 0 1 0 1 1 
1 0 0 1 0 1 
Graph 2:
0 1 0 1 0 0 
1 1 1 1 1 0 
1 1 1 0 0 1 
1 1 0 0 1 1 
0 0 1 1 1 1 
0 0 1 1 0 1 
Solution: 29 215
Classic Expectation: 18.866667
Initial Expecation: 13.265625
Gbest: 25.000000
Expectation: 16.704032
Final Parameters:
Gammas:
[ 3.391835 1.081709 ]
Betas:
[ 2.177126 1.256465 ]
Aggregate results:
[ 25 21 19 15 17 13 23 7 11 9 29 27 0 ]
[ 0.054413 0.204355 0.242472 0.067272 0.146227 0.028236 0.105103 0.000767 0.003501 0.002568 0.000213 0.003434 0.141438 ]
3
Num Evals 303
GenUC: 3.581950e-04
GenUB: 1.234524e-04
Optimisation 6.305326e-01
Total Time: 6.310164e-01
