Clock Speed: 3.688818
Num threads: 4
Trotterisation: 3
Num Qubits: 7
Space Dimension: 128
Run-Type: 0
Num_samples: 15624
Optimiser Method: 29
1 Isomorphic
Graph 1:
1 0 1 1 0 
0 0 1 1 0 
1 0 0 1 1 
0 0 0 1 1 
0 1 1 1 1 
Graph 2:
1 0 1 1 0 
0 0 1 1 0 
1 0 0 1 1 
0 0 0 1 1 
0 1 1 1 1 
Solution: 25 0
Classic Expectation: 12.700000
Initial Expecation: 11.906250
Gbest: 25.000000
Expectation: 15.884347
Final Parameters:
Gammas:
[ 5.748556 3.419488 2.835761 ]
Betas:
[ 0.042778 2.658638 2.816704 ]
Aggregate results:
[ 25 17 19 13 11 15 9 7 21 0 ]
[ 0.065498 0.138495 0.088027 0.228598 0.115370 0.194172 0.020743 0.005868 0.135179 0.008049 ]
3
Num Evals 1708
GenUC: 4.170474e-05
GenUB: 1.366570e-05
Optimisation 6.896051e-01
Total Time: 6.896902e-01
2 Flipped
Graph 1:
1 0 1 1 0 
0 0 1 1 0 
1 0 0 1 1 
0 0 0 1 1 
0 1 1 1 1 
Graph 2:
0 1 1 0 1 
0 1 1 0 0 
1 1 0 0 1 
1 1 0 0 0 
1 1 1 1 0 
Solution: 19 60
Classic Expectation: 12.500000
Initial Expecation: 11.718750
Gbest: 19.000000
Expectation: 12.711211
Final Parameters:
Gammas:
[ 4.151559 3.137202 0.735007 ]
Betas:
[ 1.907884 1.993521 2.482710 ]
Aggregate results:
[ 11 7 9 13 15 17 19 0 ]
[ 0.235695 0.018481 0.064260 0.415045 0.134495 0.058449 0.052853 0.020721 ]
3
Num Evals 1326
GenUC: 4.764530e-05
GenUB: 2.886052e-06
Optimisation 6.265086e-01
Total Time: 6.265615e-01
3 Add 5
Graph 1:
1 0 1 1 0 
0 0 1 1 0 
1 0 0 1 1 
0 0 0 1 1 
0 1 1 1 1 
Graph 2:
1 0 1 1 0 
0 0 1 1 1 
1 0 1 1 1 
1 0 1 1 1 
1 1 1 1 1 
Solution: 20 0
Classic Expectation: 13.300000
Initial Expecation: 12.468750
Gbest: 20.000000
Expectation: 13.571959
Final Parameters:
Gammas:
[ 4.911556 5.365541 2.992076 ]
Betas:
[ 1.378585 1.562311 0.771365 ]
Aggregate results:
[ 20 16 14 10 12 8 18 0 ]
[ 0.066299 0.276973 0.238450 0.130612 0.214775 0.023586 0.022444 0.026860 ]
3
Num Evals 1359
GenUC: 4.785304e-05
GenUB: 2.727611e-06
Optimisation 4.893228e-01
Total Time: 4.893762e-01
4 Rem 5
Graph 1:
1 0 1 1 0 
0 0 1 1 0 
1 0 0 1 1 
0 0 0 1 1 
0 1 1 1 1 
Graph 2:
1 0 0 1 0 
0 0 1 0 0 
1 0 0 0 1 
0 0 0 1 1 
0 0 1 1 0 
Solution: 20 0
Classic Expectation: 12.100000
Initial Expecation: 11.343750
Gbest: 20.000000
Expectation: 12.308229
Final Parameters:
Gammas:
[ 4.864531 4.124919 4.995472 ]
Betas:
[ 1.264343 2.043716 1.058068 ]
Aggregate results:
[ 20 16 12 14 10 8 18 6 0 ]
[ 0.005128 0.169307 0.325089 0.189700 0.183333 0.077363 0.025229 0.005590 0.019261 ]
3
Num Evals 645
GenUC: 4.607614e-05
GenUB: 2.496410e-06
Optimisation 2.571461e-01
Total Time: 2.571968e-01
5 Add/Rem 5
Graph 1:
1 0 1 1 0 
0 0 1 1 0 
1 0 0 1 1 
0 0 0 1 1 
0 1 1 1 1 
Graph 2:
1 0 0 1 1 
0 1 1 1 0 
1 0 0 0 1 
0 0 1 1 1 
1 0 0 0 1 
Solution: 20 39
Classic Expectation: 12.700000
Initial Expecation: 11.906250
Gbest: 20.000000
Expectation: 12.807598
Final Parameters:
Gammas:
[ 5.053255 3.473232 0.889936 ]
Betas:
[ 2.651304 2.419134 1.813897 ]
Aggregate results:
[ 16 14 12 10 8 18 20 0 ]
[ 0.237913 0.262794 0.225656 0.199238 0.021408 0.020747 0.003845 0.028398 ]
3
Num Evals 801
GenUC: 4.611723e-05
GenUB: 2.558576e-06
Optimisation 4.024790e-01
Total Time: 4.025303e-01
