Clock Speed: 3.688745
Num threads: 4
Trotterisation: 3
Num Qubits: 7
Space Dimension: 128
Run-Type: 0
Num_samples: 15624
Optimiser Method: 29
1 Isomorphic
Graph 1:
0 1 0 1 0 
0 1 0 1 1 
1 1 1 0 1 
0 1 0 0 1 
1 1 0 0 0 
Graph 2:
0 1 0 1 0 
0 1 0 1 1 
1 1 1 0 1 
0 1 0 0 1 
1 1 0 0 0 
Solution: 25 0
Classic Expectation: 12.700000
Initial Expecation: 11.906250
Gbest: 25.000000
Expectation: 16.157255
Final Parameters:
Gammas:
[ 6.185533 2.882705 0.026752 ]
Betas:
[ 2.823209 1.193891 1.717906 ]
Aggregate results:
[ 25 17 13 7 9 11 19 15 21 0 ]
[ 0.054052 0.314234 0.088959 0.005196 0.009687 0.080497 0.041212 0.292544 0.101301 0.012319 ]
3
Num Evals 1404
GenUC: 4.119944e-05
GenUB: 1.451245e-05
Optimisation 6.471327e-01
Total Time: 6.472090e-01
2 Flipped
Graph 1:
0 1 0 1 0 
0 1 0 1 1 
1 1 1 0 1 
0 1 0 0 1 
1 1 0 0 0 
Graph 2:
0 1 0 1 0 
1 1 0 1 0 
1 0 1 1 1 
1 0 0 1 0 
0 0 0 1 1 
Solution: 19 119
Classic Expectation: 12.100000
Initial Expecation: 11.343750
Gbest: 19.000000
Expectation: 12.591941
Final Parameters:
Gammas:
[ 5.334599 5.301706 5.965078 ]
Betas:
[ 3.141593 2.570281 1.117127 ]
Aggregate results:
[ 13 15 9 11 17 7 19 0 ]
[ 0.270300 0.169519 0.153634 0.142818 0.161175 0.052632 0.024902 0.025019 ]
3
Num Evals 550
GenUC: 4.495343e-05
GenUB: 3.002235e-06
Optimisation 2.740066e-01
Total Time: 2.740576e-01
3 Add 5
Graph 1:
0 1 0 1 0 
0 1 0 1 1 
1 1 1 0 1 
0 1 0 0 1 
1 1 0 0 0 
Graph 2:
0 1 0 1 1 
0 1 1 1 1 
1 1 1 0 1 
1 1 0 0 1 
1 1 0 1 0 
Solution: 21 0
Classic Expectation: 13.100000
Initial Expecation: 12.281250
Gbest: 21.000000
Expectation: 13.418476
Final Parameters:
Gammas:
[ 4.511563 4.075624 3.382377 ]
Betas:
[ 2.374211 1.558194 1.997319 ]
Aggregate results:
[ 21 19 17 15 11 13 9 7 0 ]
[ 0.004034 0.015226 0.264154 0.188068 0.203096 0.223982 0.055247 0.012826 0.033367 ]
3
Num Evals 700
GenUC: 4.450156e-05
GenUB: 2.653105e-06
Optimisation 3.289504e-01
Total Time: 3.289999e-01
4 Rem 5
Graph 1:
0 1 0 1 0 
0 1 0 1 1 
1 1 1 0 1 
0 1 0 0 1 
1 1 0 0 0 
Graph 2:
0 1 0 0 0 
0 1 0 1 0 
0 0 1 0 1 
0 0 0 0 1 
1 1 0 0 0 
Solution: 20 0
Classic Expectation: 12.200000
Initial Expecation: 11.437500
Gbest: 20.000000
Expectation: 15.069185
Final Parameters:
Gammas:
[ 6.144998 5.966253 1.858419 ]
Betas:
[ 2.820066 1.343784 1.551270 ]
Aggregate results:
[ 20 14 16 10 12 8 6 18 0 ]
[ 0.116247 0.353067 0.284471 0.020825 0.122568 0.012501 0.000446 0.081557 0.008318 ]
3
Num Evals 495
GenUC: 4.366005e-05
GenUB: 2.816843e-06
Optimisation 2.274724e-01
Total Time: 2.275214e-01
5 Add/Rem 5
Graph 1:
0 1 0 1 0 
0 1 0 1 1 
1 1 1 0 1 
0 1 0 0 1 
1 1 0 0 0 
Graph 2:
1 0 0 0 0 
1 1 0 1 1 
0 0 1 1 1 
0 1 0 1 1 
1 1 0 0 1 
Solution: 18 95
Classic Expectation: 11.900000
Initial Expecation: 11.156250
Gbest: 18.000000
Expectation: 13.172164
Final Parameters:
Gammas:
[ 5.820550 3.419476 6.204806 ]
Betas:
[ 3.040626 2.312127 0.662333 ]
Aggregate results:
[ 16 12 14 8 10 6 18 0 ]
[ 0.116920 0.238737 0.425870 0.018316 0.125416 0.005780 0.057725 0.011236 ]
5
Num Evals 3000
GenUC: 4.334137e-05
GenUB: 2.932444e-06
Optimisation 1.417017e+00
Total Time: 1.417065e+00
