Clock Speed: 3.688907
Num threads: 4
Trotterisation: 3
Num Qubits: 7
Space Dimension: 128
Run-Type: 0
Num_samples: 15624
Optimiser Method: 29
1 Isomorphic
Graph 1:
1 0 1 0 0 
1 0 1 0 1 
0 1 0 0 0 
0 1 1 0 1 
0 0 0 1 1 
Graph 2:
1 0 1 0 0 
1 0 1 0 1 
0 1 0 0 0 
0 1 1 0 1 
0 0 0 1 1 
Solution: 25 0
Classic Expectation: 12.700000
Initial Expecation: 11.906250
Gbest: 25.000000
Expectation: 13.214793
Final Parameters:
Gammas:
[ 6.135789 3.929476 2.488146 ]
Betas:
[ 2.326285 1.771752 2.180793 ]
Aggregate results:
[ 25 17 15 13 19 11 5 7 9 0 ]
[ 0.017203 0.085865 0.240174 0.306190 0.053152 0.168833 0.000087 0.044015 0.062925 0.021555 ]
3
Num Evals 602
GenUC: 4.149420e-05
GenUB: 1.372560e-05
Optimisation 2.827785e-01
Total Time: 2.828544e-01
2 Flipped
Graph 1:
1 0 1 0 0 
1 0 1 0 1 
0 1 0 0 0 
0 1 1 0 1 
0 0 0 1 1 
Graph 2:
0 0 1 0 1 
1 0 1 0 1 
0 0 0 1 0 
1 0 1 1 0 
1 1 0 0 0 
Solution: 19 74
Classic Expectation: 12.800000
Initial Expecation: 12.000000
Gbest: 19.000000
Expectation: 12.778441
Final Parameters:
Gammas:
[ 3.926991 1.963495 0.000000 ]
Betas:
[ 1.000643 1.531162 1.531162 ]
Aggregate results:
[ 13 9 17 7 11 15 19 0 ]
[ 0.218565 0.083224 0.133117 0.017293 0.229771 0.254549 0.024122 0.039358 ]
3
Num Evals 170
GenUC: 4.475995e-05
GenUB: 2.960034e-06
Optimisation 6.544061e-02
Total Time: 6.549045e-02
3 Add 5
Graph 1:
1 0 1 0 0 
1 0 1 0 1 
0 1 0 0 0 
0 1 1 0 1 
0 0 0 1 1 
Graph 2:
1 0 1 1 0 
1 0 1 1 1 
1 1 0 1 0 
1 1 1 0 1 
0 0 0 1 1 
Solution: 20 0
Classic Expectation: 12.200000
Initial Expecation: 11.437500
Gbest: 20.000000
Expectation: 12.651710
Final Parameters:
Gammas:
[ 4.005280 4.387179 2.497811 ]
Betas:
[ 2.191010 1.366486 1.211793 ]
Aggregate results:
[ 20 14 16 12 10 18 8 6 0 ]
[ 0.037335 0.246482 0.160524 0.237065 0.169236 0.032952 0.091564 0.003850 0.020993 ]
3
Num Evals 579
GenUC: 4.481099e-05
GenUB: 2.420158e-06
Optimisation 2.457773e-01
Total Time: 2.458261e-01
4 Rem 5
Graph 1:
1 0 1 0 0 
1 0 1 0 1 
0 1 0 0 0 
0 1 1 0 1 
0 0 0 1 1 
Graph 2:
0 0 1 0 0 
1 0 1 0 1 
0 1 0 0 0 
0 0 1 0 0 
0 0 0 1 1 
Solution: 22 0
Classic Expectation: 13.100000
Initial Expecation: 12.281250
Gbest: 22.000000
Expectation: 12.591653
Final Parameters:
Gammas:
[ 5.890486 4.123340 0.000000 ]
Betas:
[ 1.280287 1.781808 1.708177 ]
Aggregate results:
[ 22 16 14 12 10 8 18 6 0 ]
[ 0.023767 0.115537 0.271642 0.381511 0.115951 0.007614 0.030924 0.010334 0.042719 ]
3
Num Evals 141
GenUC: 4.335737e-05
GenUB: 2.551533e-06
Optimisation 5.771273e-02
Total Time: 5.776038e-02
5 Add/Rem 5
Graph 1:
1 0 1 0 0 
1 0 1 0 1 
0 1 0 0 0 
0 1 1 0 1 
0 0 0 1 1 
Graph 2:
1 0 1 1 0 
1 1 1 0 1 
0 0 0 0 0 
1 0 0 1 0 
0 0 0 1 1 
Solution: 17 0
Classic Expectation: 12.500000
Initial Expecation: 11.718750
Gbest: 17.000000
Expectation: 13.957647
Final Parameters:
Gammas:
[ 4.695271 4.398638 5.278756 ]
Betas:
[ 3.138688 1.331588 1.561785 ]
Aggregate results:
[ 17 15 13 11 7 9 0 ]
[ 0.165424 0.373003 0.347987 0.073199 0.020148 0.008926 0.011313 ]
3
Num Evals 899
GenUC: 4.333688e-05
GenUB: 2.553337e-06
Optimisation 4.153198e-01
Total Time: 4.153674e-01
