Clock Speed: 3.688612
Num threads: 4
Trotterisation: 3
Num Qubits: 7
Space Dimension: 128
Run-Type: 0
Num_samples: 15624
Optimiser Method: 29
1 Isomorphic
Graph 1:
0 1 0 0 0 
0 1 1 1 0 
0 1 1 1 0 
1 0 0 0 1 
1 0 0 1 0 
Graph 2:
0 1 0 0 0 
0 1 1 1 0 
0 1 1 1 0 
1 0 0 0 1 
1 0 0 1 0 
Solution: 25 0
Classic Expectation: 12.700000
Initial Expecation: 11.906250
Gbest: 25.000000
Expectation: 13.311728
Final Parameters:
Gammas:
[ 4.774897 0.755275 0.755850 ]
Betas:
[ 1.952442 2.484521 0.201784 ]
Aggregate results:
[ 25 21 13 15 23 19 11 9 7 17 0 ]
[ 0.006747 0.010407 0.208271 0.238978 0.021117 0.072200 0.286423 0.069681 0.003141 0.057356 0.025679 ]
3
Num Evals 495
GenUC: 4.129339e-05
GenUB: 1.612038e-05
Optimisation 1.918224e-01
Total Time: 1.919071e-01
2 Flipped
Graph 1:
0 1 0 0 0 
0 1 1 1 0 
0 1 1 1 0 
1 0 0 0 1 
1 0 0 1 0 
Graph 2:
0 0 0 1 0 
0 1 1 1 0 
0 1 1 1 0 
1 0 0 0 1 
0 1 0 0 1 
Solution: 23 105
Classic Expectation: 12.600000
Initial Expecation: 11.812500
Gbest: 23.000000
Expectation: 13.757005
Final Parameters:
Gammas:
[ 3.615418 2.795177 0.000000 ]
Betas:
[ 0.000000 2.287797 1.110177 ]
Aggregate results:
[ 19 15 9 11 13 7 17 23 21 0 ]
[ 0.051948 0.245120 0.065753 0.203765 0.281422 0.002652 0.095180 0.023212 0.020526 0.010424 ]
3
Num Evals 528
GenUC: 4.480500e-05
GenUB: 2.830930e-06
Optimisation 1.578058e-01
Total Time: 1.578558e-01
3 Add 5
Graph 1:
0 1 0 0 0 
0 1 1 1 0 
0 1 1 1 0 
1 0 0 0 1 
1 0 0 1 0 
Graph 2:
0 1 0 1 1 
0 1 1 1 1 
0 1 1 1 0 
1 1 0 0 1 
1 0 1 1 0 
Solution: 20 0
Classic Expectation: 12.200000
Initial Expecation: 11.437500
Gbest: 20.000000
Expectation: 13.442232
Final Parameters:
Gammas:
[ 5.762194 5.737985 0.095244 ]
Betas:
[ 2.777804 1.714166 1.185329 ]
Aggregate results:
[ 20 18 12 14 16 10 8 6 0 ]
[ 0.005070 0.084551 0.134014 0.326312 0.253568 0.120372 0.042046 0.007532 0.026534 ]
3
Num Evals 1048
GenUC: 4.494708e-05
GenUB: 2.595596e-06
Optimisation 4.692587e-01
Total Time: 4.693084e-01
4 Rem 5
Graph 1:
0 1 0 0 0 
0 1 1 1 0 
0 1 1 1 0 
1 0 0 0 1 
1 0 0 1 0 
Graph 2:
0 1 0 0 0 
0 1 0 1 0 
0 1 1 1 0 
0 0 0 0 0 
1 0 0 0 0 
Solution: 21 0
Classic Expectation: 13.100000
Initial Expecation: 12.281250
Gbest: 21.000000
Expectation: 14.917259
Final Parameters:
Gammas:
[ 4.708088 4.409941 3.482149 ]
Betas:
[ 0.063494 1.252367 1.595457 ]
Aggregate results:
[ 21 17 15 13 19 9 11 7 0 ]
[ 0.037429 0.202827 0.436181 0.229914 0.031500 0.010061 0.041325 0.001139 0.009624 ]
3
Num Evals 956
GenUC: 4.352571e-05
GenUB: 2.616143e-06
Optimisation 2.950354e-01
Total Time: 2.950840e-01
5 Add/Rem 5
Graph 1:
0 1 0 0 0 
0 1 1 1 0 
0 1 1 1 0 
1 0 0 0 1 
1 0 0 1 0 
Graph 2:
0 1 0 0 0 
1 1 0 0 0 
1 0 1 1 0 
1 1 1 0 1 
1 0 1 0 0 
Solution: 18 112
Classic Expectation: 12.600000
Initial Expecation: 11.812500
Gbest: 18.000000
Expectation: 12.780806
Final Parameters:
Gammas:
[ 5.019703 3.394030 3.271272 ]
Betas:
[ 1.678920 2.412068 2.569318 ]
Aggregate results:
[ 16 14 12 10 8 18 6 0 ]
[ 0.161994 0.389433 0.200381 0.151647 0.062705 0.012633 0.014462 0.006745 ]
3
Num Evals 1135
GenUC: 4.341127e-05
GenUB: 2.648390e-06
Optimisation 5.537274e-01
Total Time: 5.537758e-01
