Clock Speed: 3.688448
Num threads: 4
Trotterisation: 3
Num Qubits: 7
Space Dimension: 128
Run-Type: 0
Num_samples: 15624
Optimiser Method: 29
1 Isomorphic
Graph 1:
0 0 1 1 1 
0 1 0 1 1 
0 1 1 0 1 
1 1 0 0 1 
0 1 0 1 0 
Graph 2:
0 0 1 1 1 
0 1 0 1 1 
0 1 1 0 1 
1 1 0 0 1 
0 1 0 1 0 
Solution: 25 0
Classic Expectation: 13.000000
Initial Expecation: 12.187500
Gbest: 25.000000
Expectation: 13.335865
Final Parameters:
Gammas:
[ 4.241642 2.926303 4.408573 ]
Betas:
[ 0.927887 1.218110 1.760133 ]
Aggregate results:
[ 25 21 17 15 13 11 9 7 19 0 ]
[ 0.025071 0.033381 0.075855 0.283254 0.203293 0.228251 0.050260 0.027856 0.035202 0.037577 ]
3
Num Evals 692
GenUC: 4.183332e-05
GenUB: 1.441862e-05
Optimisation 2.566227e-01
Total Time: 2.566993e-01
2 Flipped
Graph 1:
0 0 1 1 1 
0 1 0 1 1 
0 1 1 0 1 
1 1 0 0 1 
0 1 0 1 0 
Graph 2:
1 1 1 0 0 
1 1 0 1 0 
1 0 1 1 0 
1 0 0 1 1 
0 1 0 1 0 
Solution: 17 14
Classic Expectation: 12.200000
Initial Expecation: 11.437500
Gbest: 17.000000
Expectation: 12.657670
Final Parameters:
Gammas:
[ 5.408213 4.661795 0.969609 ]
Betas:
[ 0.903353 0.842057 1.799142 ]
Aggregate results:
[ 13 9 5 11 15 17 7 0 ]
[ 0.324097 0.099943 0.009812 0.238305 0.164739 0.138286 0.007510 0.017309 ]
3
Num Evals 947
GenUC: 4.467595e-05
GenUB: 2.700603e-06
Optimisation 3.355082e-01
Total Time: 3.355574e-01
3 Add 5
Graph 1:
0 0 1 1 1 
0 1 0 1 1 
0 1 1 0 1 
1 1 0 0 1 
0 1 0 1 0 
Graph 2:
1 0 1 1 1 
1 1 0 1 1 
0 1 1 0 1 
1 1 0 1 1 
0 1 0 1 0 
Solution: 22 0
Classic Expectation: 12.800000
Initial Expecation: 12.000000
Gbest: 22.000000
Expectation: 14.069635
Final Parameters:
Gammas:
[ 5.797950 3.788274 0.000000 ]
Betas:
[ 0.011917 0.809010 2.594325 ]
Aggregate results:
[ 22 18 16 14 12 10 8 0 ]
[ 0.030074 0.106727 0.194692 0.352913 0.223366 0.068653 0.008017 0.015557 ]
3
Num Evals 551
GenUC: 4.447531e-05
GenUB: 2.561545e-06
Optimisation 1.841005e-01
Total Time: 1.841493e-01
4 Rem 5
Graph 1:
0 0 1 1 1 
0 1 0 1 1 
0 1 1 0 1 
1 1 0 0 1 
0 1 0 1 0 
Graph 2:
0 0 1 1 1 
0 1 0 1 1 
0 0 0 0 1 
0 1 0 0 1 
0 1 0 1 0 
Solution: 22 0
Classic Expectation: 12.800000
Initial Expecation: 12.000000
Gbest: 22.000000
Expectation: 15.558861
Final Parameters:
Gammas:
[ 6.118187 5.971336 4.679130 ]
Betas:
[ 2.748552 1.305504 1.556743 ]
Aggregate results:
[ 22 20 18 16 14 12 10 8 0 ]
[ 0.058693 0.033278 0.186031 0.293566 0.271792 0.122380 0.024364 0.004896 0.005001 ]
3
Num Evals 1251
GenUC: 4.336203e-05
GenUB: 2.566841e-06
Optimisation 5.464530e-01
Total Time: 5.465007e-01
5 Add/Rem 5
Graph 1:
0 0 1 1 1 
0 1 0 1 1 
0 1 1 0 1 
1 1 0 0 1 
0 1 0 1 0 
Graph 2:
0 0 1 1 0 
1 0 0 0 1 
1 0 1 0 1 
1 0 0 0 1 
0 1 1 1 1 
Solution: 18 20
Classic Expectation: 12.800000
Initial Expecation: 12.000000
Gbest: 18.000000
Expectation: 13.413188
Final Parameters:
Gammas:
[ 5.030461 3.716230 1.587390 ]
Betas:
[ 0.432817 1.849097 1.906775 ]
Aggregate results:
[ 16 12 14 10 8 18 6 0 ]
[ 0.288203 0.173782 0.293006 0.102538 0.033753 0.067101 0.018543 0.023075 ]
3
Num Evals 691
GenUC: 4.325405e-05
GenUB: 2.452929e-06
Optimisation 2.601666e-01
Total Time: 2.602140e-01
