Clock Speed: 3.689472
Num threads: 4
Trotterisation: 3
Num Qubits: 7
Space Dimension: 128
Run-Type: 0
Num_samples: 15624
Optimiser Method: 29
1 Isomorphic
Graph 1:
0 0 1 0 1 
1 1 0 0 0 
1 0 0 0 1 
1 1 0 0 1 
0 1 0 1 0 
Graph 2:
0 0 1 0 1 
1 1 0 0 0 
1 0 0 0 1 
1 1 0 0 1 
0 1 0 1 0 
Solution: 25 0
Classic Expectation: 13.400000
Initial Expecation: 12.562500
Gbest: 25.000000
Expectation: 14.012124
Final Parameters:
Gammas:
[ 4.669182 2.474776 3.926738 ]
Betas:
[ 2.561593 1.791063 1.255667 ]
Aggregate results:
[ 25 19 15 11 13 17 21 9 0 ]
[ 0.022884 0.136149 0.270268 0.298760 0.202563 0.034703 0.007640 0.014345 0.012688 ]
3
Num Evals 1329
GenUC: 4.112913e-05
GenUB: 1.363573e-05
Optimisation 6.037845e-01
Total Time: 6.038608e-01
2 Flipped
Graph 1:
0 0 1 0 1 
1 1 0 0 0 
1 0 0 0 1 
1 1 0 0 1 
0 1 0 1 0 
Graph 2:
1 0 1 0 0 
0 0 0 1 1 
1 0 0 0 1 
1 0 0 1 1 
0 1 0 1 0 
Solution: 21 14
Classic Expectation: 12.800000
Initial Expecation: 12.000000
Gbest: 21.000000
Expectation: 13.109106
Final Parameters:
Gammas:
[ 4.607478 3.471254 3.271916 ]
Betas:
[ 1.777506 1.075487 1.715692 ]
Aggregate results:
[ 17 13 11 7 9 15 21 19 0 ]
[ 0.059781 0.242299 0.226183 0.036071 0.079233 0.247503 0.012696 0.079483 0.016751 ]
3
Num Evals 585
GenUC: 4.460319e-05
GenUB: 2.794492e-06
Optimisation 2.423703e-01
Total Time: 2.424196e-01
3 Add 5
Graph 1:
0 0 1 0 1 
1 1 0 0 0 
1 0 0 0 1 
1 1 0 0 1 
0 1 0 1 0 
Graph 2:
1 0 1 0 1 
1 1 0 0 0 
1 1 0 1 1 
1 1 1 0 1 
0 1 0 1 1 
Solution: 20 0
Classic Expectation: 12.200000
Initial Expecation: 11.437500
Gbest: 20.000000
Expectation: 12.779925
Final Parameters:
Gammas:
[ 4.127142 4.413838 0.566576 ]
Betas:
[ 1.654698 1.845129 0.569318 ]
Aggregate results:
[ 20 16 14 12 8 10 6 18 0 ]
[ 0.018733 0.082640 0.227217 0.317346 0.052194 0.127214 0.028278 0.124138 0.022241 ]
3
Num Evals 497
GenUC: 4.440127e-05
GenUB: 2.546236e-06
Optimisation 1.940975e-01
Total Time: 1.941462e-01
4 Rem 5
Graph 1:
0 0 1 0 1 
1 1 0 0 0 
1 0 0 0 1 
1 1 0 0 1 
0 1 0 1 0 
Graph 2:
0 0 0 0 0 
1 1 0 0 0 
1 0 0 0 1 
0 0 0 0 0 
0 1 0 1 0 
Solution: 20 0
Classic Expectation: 13.400000
Initial Expecation: 12.562500
Gbest: 20.000000
Expectation: 14.589209
Final Parameters:
Gammas:
[ 6.233100 3.688342 2.634273 ]
Betas:
[ 1.222284 1.867313 1.567374 ]
Aggregate results:
[ 20 18 16 12 14 10 8 0 ]
[ 0.029606 0.094728 0.355190 0.063816 0.366435 0.043599 0.034633 0.011992 ]
3
Num Evals 1076
GenUC: 4.332216e-05
GenUB: 2.524001e-06
Optimisation 4.453554e-01
Total Time: 4.454029e-01
5 Add/Rem 5
Graph 1:
0 0 1 0 1 
1 1 0 0 0 
1 0 0 0 1 
1 1 0 0 1 
0 1 0 1 0 
Graph 2:
0 0 1 1 0 
0 1 0 0 0 
1 0 0 1 1 
0 1 0 0 1 
0 0 1 1 0 
Solution: 22 55
Classic Expectation: 13.400000
Initial Expecation: 12.562500
Gbest: 22.000000
Expectation: 14.870391
Final Parameters:
Gammas:
[ 5.797581 4.088711 0.031990 ]
Betas:
[ 2.963489 1.411741 1.935817 ]
Aggregate results:
[ 18 20 16 14 12 8 10 22 0 ]
[ 0.167760 0.020881 0.416280 0.200132 0.147305 0.000567 0.019030 0.000376 0.027669 ]
3
Num Evals 1070
GenUC: 4.311843e-05
GenUB: 2.462941e-06
Optimisation 5.137064e-01
Total Time: 5.137536e-01
