Clock Speed: 3.688260
Num threads: 4
Trotterisation: 3
Num Qubits: 7
Space Dimension: 128
Run-Type: 0
Num_samples: 15624
Optimiser Method: 29
1 Isomorphic
Graph 1:
1 0 0 1 0 
1 0 1 0 1 
0 1 1 1 0 
1 0 0 0 1 
0 1 0 0 1 
Graph 2:
1 0 0 1 0 
1 0 1 0 1 
0 1 1 1 0 
1 0 0 0 1 
0 1 0 0 1 
Solution: 25 0
Classic Expectation: 12.700000
Initial Expecation: 11.906250
Gbest: 25.000000
Expectation: 12.944040
Final Parameters:
Gammas:
[ 4.875297 3.911014 0.996934 ]
Betas:
[ 1.166829 2.860113 0.083023 ]
Aggregate results:
[ 25 11 13 21 15 19 9 5 7 17 23 0 ]
[ 0.008490 0.382545 0.215155 0.082802 0.092164 0.086254 0.061514 0.000734 0.019950 0.011099 0.003523 0.035771 ]
3
Num Evals 477
GenUC: 4.137261e-05
GenUB: 1.443212e-05
Optimisation 1.672459e-01
Total Time: 1.673216e-01
2 Flipped
Graph 1:
1 0 0 1 0 
1 0 1 0 1 
0 1 1 1 0 
1 0 0 0 1 
0 1 0 0 1 
Graph 2:
0 1 0 0 1 
1 0 1 0 1 
0 1 1 1 0 
1 0 0 0 1 
1 0 0 1 0 
Solution: 21 105
Classic Expectation: 12.100000
Initial Expecation: 11.343750
Gbest: 21.000000
Expectation: 13.487628
Final Parameters:
Gammas:
[ 4.629597 3.438511 1.565674 ]
Betas:
[ 1.658644 1.521729 1.819516 ]
Aggregate results:
[ 17 15 5 7 9 13 19 11 21 0 ]
[ 0.182274 0.321659 0.020682 0.025056 0.024575 0.254495 0.010319 0.098323 0.022763 0.039852 ]
5
Num Evals 3000
GenUC: 4.450278e-05
GenUB: 2.731162e-06
Optimisation 1.270117e+00
Total Time: 1.270166e+00
3 Add 5
Graph 1:
1 0 0 1 0 
1 0 1 0 1 
0 1 1 1 0 
1 0 0 0 1 
0 1 0 0 1 
Graph 2:
1 0 1 1 1 
1 0 1 1 1 
0 1 1 1 0 
1 0 0 0 1 
1 1 1 0 1 
Solution: 20 0
Classic Expectation: 12.200000
Initial Expecation: 11.437500
Gbest: 20.000000
Expectation: 12.527603
Final Parameters:
Gammas:
[ 4.849765 1.969985 1.585497 ]
Betas:
[ 2.340695 1.705919 1.203186 ]
Aggregate results:
[ 20 12 10 16 14 8 18 0 ]
[ 0.008645 0.266655 0.200550 0.154029 0.236058 0.058493 0.050674 0.024897 ]
3
Num Evals 799
GenUC: 4.462781e-05
GenUB: 2.695888e-06
Optimisation 3.507910e-01
Total Time: 3.508404e-01
4 Rem 5
Graph 1:
1 0 0 1 0 
1 0 1 0 1 
0 1 1 1 0 
1 0 0 0 1 
0 1 0 0 1 
Graph 2:
0 0 0 1 0 
0 0 1 0 0 
0 0 1 1 0 
1 0 0 0 0 
0 1 0 0 1 
Solution: 20 0
Classic Expectation: 12.900000
Initial Expecation: 12.093750
Gbest: 20.000000
Expectation: 14.250860
Final Parameters:
Gammas:
[ 5.812031 2.632357 1.704896 ]
Betas:
[ 2.780348 1.282356 1.488175 ]
Aggregate results:
[ 20 10 12 18 14 8 16 0 ]
[ 0.032960 0.098018 0.113736 0.246028 0.220987 0.028797 0.218373 0.041102 ]
3
Num Evals 412
GenUC: 4.320353e-05
GenUB: 2.560962e-06
Optimisation 1.864001e-01
Total Time: 1.864476e-01
5 Add/Rem 5
Graph 1:
1 0 0 1 0 
1 0 1 0 1 
0 1 1 1 0 
1 0 0 0 1 
0 1 0 0 1 
Graph 2:
1 0 0 1 0 
0 1 0 0 1 
1 1 1 1 0 
1 0 1 0 1 
0 0 1 0 0 
Solution: 19 37
Classic Expectation: 12.700000
Initial Expecation: 11.906250
Gbest: 19.000000
Expectation: 14.123804
Final Parameters:
Gammas:
[ 3.162311 2.801876 3.989105 ]
Betas:
[ 1.285695 1.320278 1.586917 ]
Aggregate results:
[ 17 7 9 11 15 13 19 0 ]
[ 0.293818 0.042251 0.030911 0.106790 0.215069 0.223915 0.065439 0.021808 ]
3
Num Evals 708
GenUC: 4.313077e-05
GenUB: 2.409506e-06
Optimisation 2.743209e-01
Total Time: 2.743679e-01
