Clock Speed: 3.689395
Num threads: 4
Trotterisation: 3
Graph Size: 3
Num Qubits: 3
Space Dimension: 8
Run-Type: 0
Num_samples: 10
1 Isomorphic
Graph 1:
0 1 0 
0 0 0 
0 1 1 
Graph 2:
0 1 0 
0 0 0 
0 1 1 
Solution: 0 0
Gbest: 0.000000
Expectation: -5.250000
Final Parameters:
Gammas:
[ 1.047198 3.141593 3.141593 ]
Betas:
[ 0.523599 1.570796 1.570796 1.570796 ]
Aggregate results:
[ -1 3 5 1 8 ]
[ 0.125000 0.125000 0.375000 0.125000 0.250000 ]
3
Num Evals 27
GenUC: 1.277036e-04
GenUB: 7.783761e-06
Optimisation 5.182288e-03
Total Time: 5.536487e-03
2 Flipped
Graph 1:
0 1 0 
0 0 0 
0 1 1 
Graph 2:
0 1 0 
0 0 0 
1 1 0 
Solution: -2 0
Gbest: -2.000000
Expectation: -4.757812
Final Parameters:
Gammas:
[ 1.047198 5.235988 5.235988 ]
Betas:
[ 1.570796 1.570796 0.523599 1.570796 ]
Aggregate results:
[ 1 3 5 8 ]
[ 0.285156 0.214844 0.390625 0.109375 ]
3
Num Evals 72
GenUC: 6.877701e-06
GenUB: 5.439389e-06
Optimisation 8.424112e-03
Total Time: 8.621512e-03
3 Add 3
Graph 1:
0 1 0 
0 0 0 
0 1 1 
Graph 2:
1 1 0 
0 1 1 
0 1 1 
Solution: -3 0
Gbest: -3.000000
Expectation: -6.000000
Final Parameters:
Gammas:
[ 5.235988 5.235988 3.141593 ]
Betas:
[ 1.570796 1.570796 1.570796 1.570796 ]
Aggregate results:
[ 2 6 4 8 ]
[ 0.250000 0.250000 0.250000 0.250000 ]
3
Num Evals 93
GenUC: 6.198185e-06
GenUB: 5.734502e-06
Optimisation 3.944946e-03
Total Time: 4.154762e-03
4 Rem 3
Graph 1:
0 1 0 
0 0 0 
0 1 1 
Graph 2:
0 1 0 
0 0 0 
0 0 0 
Solution: -2 0
Gbest: -2.000000
Expectation: -4.750000
Final Parameters:
Gammas:
[ 5.235988 5.235988 1.047198 ]
Betas:
[ 1.570796 1.570796 1.570796 1.570796 ]
Aggregate results:
[ 1 3 8 ]
[ 0.250000 0.500000 0.250000 ]
3
Num Evals 120
GenUC: 5.995156e-06
GenUB: 5.796785e-06
Optimisation 5.299920e-03
Total Time: 5.512103e-03
5 Add/Rem 3
Graph 1:
0 1 0 
0 0 0 
0 1 1 
Graph 2:
0 0 0 
1 0 0 
0 0 1 
Solution: -1 1
Gbest: -1.000000
Expectation: -5.000000
Final Parameters:
Gammas:
[ 1.047198 3.141593 3.141593 ]
Betas:
[ 0.523599 1.570796 1.570796 1.570796 ]
Aggregate results:
[ 2 0 4 8 ]
[ 0.250000 0.125000 0.375000 0.250000 ]
3
Num Evals 137
GenUC: 6.453367e-06
GenUB: 5.427748e-06
Optimisation 3.125706e-03
Total Time: 3.325433e-03
