Clock Speed: 3.688957
Num threads: 4
Trotterisation: 3
Graph Size: 3
Num Qubits: 3
Space Dimension: 8
Run-Type: 0
Num_samples: 10
1 Isomorphic
Graph 1:
0 1 1 
0 1 0 
0 0 1 
Graph 2:
0 1 1 
0 1 0 
0 0 1 
Solution: 0 0
Gbest: -6.000000
Expectation: -5.250000
Final Parameters:
Gammas:
[ 1.047198 3.141593 3.141593 ]
Betas:
[ 1.570796 1.570796 0.523599 1.570796 ]
Aggregate results:
[ -1 5 8 ]
[ 0.250000 0.500000 0.250000 ]
3
Num Evals 17
GenUC: 1.403001e-04
GenUB: 7.890631e-06
Optimisation 3.303936e-03
Total Time: 3.663622e-03
2 Flipped
Graph 1:
0 1 1 
0 1 0 
0 0 1 
Graph 2:
1 1 0 
0 1 0 
1 0 0 
Solution: -2 2
Gbest: -2.000000
Expectation: -5.250000
Final Parameters:
Gammas:
[ 1.047198 3.141593 3.141593 ]
Betas:
[ 0.523599 1.570796 1.570796 1.570796 ]
Aggregate results:
[ 3 5 1 8 ]
[ 0.250000 0.250000 0.250000 0.250000 ]
3
Num Evals 56
GenUC: 6.435905e-06
GenUB: 5.652430e-06
Optimisation 7.517882e-03
Total Time: 7.721359e-03
3 Add 3
Graph 1:
0 1 1 
0 1 0 
0 0 1 
Graph 2:
0 1 1 
0 1 0 
1 1 1 
Solution: -2 0
Gbest: -2.000000
Expectation: -5.750000
Final Parameters:
Gammas:
[ 5.235988 3.141593 3.141593 ]
Betas:
[ 0.523599 1.570796 1.570796 1.570796 ]
Aggregate results:
[ 1 7 3 8 ]
[ 0.250000 0.250000 0.250000 0.250000 ]
3
Num Evals 91
GenUC: 6.191665e-06
GenUB: 5.339039e-06
Optimisation 6.535803e-03
Total Time: 6.735001e-03
4 Rem 3
Graph 1:
0 1 1 
0 1 0 
0 0 1 
Graph 2:
0 1 0 
0 0 0 
0 0 1 
Solution: -2 0
Gbest: -2.000000
Expectation: -5.250000
Final Parameters:
Gammas:
[ 1.047198 5.235988 3.141593 ]
Betas:
[ 0.523599 1.570796 1.570796 1.570796 ]
Aggregate results:
[ 1 3 5 8 ]
[ 0.250000 0.250000 0.250000 0.250000 ]
3
Num Evals 124
GenUC: 5.802605e-06
GenUB: 6.026821e-06
Optimisation 6.304354e-03
Total Time: 6.502500e-03
5 Add/Rem 3
Graph 1:
0 1 1 
0 1 0 
0 0 1 
Graph 2:
1 1 0 
1 1 0 
0 0 1 
Solution: -3 0
Gbest: -3.000000
Expectation: -5.000000
Final Parameters:
Gammas:
[ 1.047198 3.141593 3.141593 ]
Betas:
[ 0.523599 1.570796 1.570796 1.570796 ]
Aggregate results:
[ 2 4 8 ]
[ 0.500000 0.250000 0.250000 ]
3
Num Evals 151
GenUC: 6.044400e-06
GenUB: 5.443464e-06
Optimisation 5.128081e-03
Total Time: 5.323312e-03
