Clock Speed: 3.689061
Num threads: 4
Trotterisation: 5
Num Qubits: 3
Space Dimension: 8
Run-Type: 0
Num_samples: 2024
Optimiser Method: 20
1 Isomorphic
Graph 1:
0 1 1 
1 1 1 
1 0 0 
Graph 2:
0 1 1 
1 1 1 
1 0 0 
Solution: 9 0
Classic Expectation: 6.000000
Initial Expecation: 4.500000
Gbest: 9.000000
Expectation: 7.954575
Final Parameters:
Gammas:
[ 3.973190 2.764821 6.191679 3.623623 5.211060 ]
Betas:
[ 1.042572 2.772082 2.357672 2.851163 0.898002 ]
Aggregate results:
[ 9 5 7 0 ]
[ 0.496424 0.018186 0.485119 0.000272 ]
5
Num Evals 3000
GenUC: 2.623186e-06
GenUB: 8.134753e-06
Optimisation 9.656072e-01
Total Time: 9.656374e-01
2 Flipped
Graph 1:
0 1 1 
1 1 1 
1 0 0 
Graph 2:
1 1 0 
1 1 1 
0 0 1 
Solution: 5 0
Classic Expectation: 4.000000
Initial Expecation: 3.000000
Gbest: 5.000000
Expectation: 4.000000
Final Parameters:
Gammas:
[ 2.901389 1.788692 2.756984 5.525175 2.461522 ]
Betas:
[ 2.532978 1.736332 0.899759 2.991113 2.441382 ]
Aggregate results:
[ 5 3 0 ]
[ 0.500000 0.500000 0.000000 ]
5
Num Evals 3000
GenUC: 2.837332e-06
GenUB: 1.001114e-06
Optimisation 9.878383e-01
Total Time: 9.878443e-01
3 Add 3
Graph 1:
0 1 1 
1 1 1 
1 0 0 
Graph 2:
0 1 1 
1 1 1 
1 1 1 
Solution: 7 0
Classic Expectation: 6.333333
Initial Expecation: 4.750000
Gbest: 7.000000
Expectation: 6.990771
Final Parameters:
Gammas:
[ 0.854304 4.706282 2.617335 5.873587 1.655908 ]
Betas:
[ 0.156822 0.387779 1.462249 1.471191 0.646310 ]
Aggregate results:
[ 7 5 0 ]
[ 0.995702 0.004172 0.000126 ]
5
Num Evals 3000
GenUC: 2.945308e-06
GenUB: 9.471551e-07
Optimisation 6.550280e-01
Total Time: 6.550339e-01
4 Rem 3
Graph 1:
0 1 1 
1 1 1 
1 0 0 
Graph 2:
0 1 1 
1 0 1 
0 0 0 
Solution: 7 0
Classic Expectation: 5.666667
Initial Expecation: 4.250000
Gbest: 7.000000
Expectation: 6.000000
Final Parameters:
Gammas:
[ 4.724198 2.237638 3.429204 5.352778 1.405674 ]
Betas:
[ 3.091307 1.805555 0.377598 1.081091 2.321726 ]
Aggregate results:
[ 7 5 0 ]
[ 0.500000 0.500000 0.000000 ]
5
Num Evals 3000
GenUC: 2.653687e-06
GenUB: 8.092611e-07
Optimisation 9.142504e-01
Total Time: 9.142557e-01
5 Add/Rem 3
Graph 1:
0 1 1 
1 1 1 
1 0 0 
Graph 2:
1 0 0 
1 1 0 
1 1 1 
Solution: 5 1
Classic Expectation: 4.000000
Initial Expecation: 3.000000
Gbest: 5.000000
Expectation: 4.998629
Final Parameters:
Gammas:
[ 0.940971 2.161548 2.387292 4.861497 3.383347 ]
Betas:
[ 2.775941 2.698185 2.429164 2.165836 1.294698 ]
Aggregate results:
[ 3 5 0 ]
[ 0.000624 0.999352 0.000025 ]
5
Num Evals 3000
GenUC: 2.696528e-06
GenUB: 8.268980e-07
Optimisation 1.056820e+00
Total Time: 1.056825e+00
