Clock Speed: 3.689353
Num threads: 4
Trotterisation: 5
Num Qubits: 3
Space Dimension: 8
Run-Type: 0
Num_samples: 2024
Optimiser Method: 20
1 Isomorphic
Graph 1:
0 0 1 
1 1 0 
1 0 1 
Graph 2:
0 0 1 
1 1 0 
1 0 1 
Solution: 9 0
Classic Expectation: 4.666667
Initial Expecation: 3.500000
Gbest: 9.000000
Expectation: 6.396552
Final Parameters:
Gammas:
[ 3.810374 1.230262 0.979186 1.706160 1.116973 ]
Betas:
[ 3.102773 1.722463 0.835610 3.137564 2.709989 ]
Aggregate results:
[ 9 7 1 3 5 0 ]
[ 0.374736 0.112762 0.001252 0.103640 0.384484 0.023126 ]
5
Num Evals 3000
GenUC: 2.614339e-06
GenUB: 7.458148e-06
Optimisation 1.113891e+00
Total Time: 1.113928e+00
2 Flipped
Graph 1:
0 0 1 
1 1 0 
1 0 1 
Graph 2:
1 0 0 
0 1 1 
1 0 1 
Solution: 7 5
Classic Expectation: 5.000000
Initial Expecation: 3.750000
Gbest: 7.000000
Expectation: 5.936554
Final Parameters:
Gammas:
[ 5.448585 5.471430 0.562386 5.128973 6.283185 ]
Betas:
[ 3.138755 0.012412 2.310712 2.872920 2.722169 ]
Aggregate results:
[ 5 3 7 0 ]
[ 0.508741 0.003838 0.483048 0.004373 ]
5
Num Evals 3000
GenUC: 2.889021e-06
GenUB: 1.093897e-06
Optimisation 1.042796e+00
Total Time: 1.042802e+00
3 Add 3
Graph 1:
0 0 1 
1 1 0 
1 0 1 
Graph 2:
0 1 1 
1 1 1 
1 1 1 
Solution: 6 0
Classic Expectation: 4.666667
Initial Expecation: 3.500000
Gbest: 6.000000
Expectation: 4.866612
Final Parameters:
Gammas:
[ 1.537481 3.186655 4.221360 0.111235 6.261459 ]
Betas:
[ 0.251676 0.246414 0.723397 0.971650 0.675021 ]
Aggregate results:
[ 6 4 0 ]
[ 0.440156 0.556418 0.003425 ]
5
Num Evals 3000
GenUC: 2.870220e-06
GenUB: 8.690986e-07
Optimisation 6.118551e-01
Total Time: 6.118610e-01
4 Rem 3
Graph 1:
0 0 1 
1 1 0 
1 0 1 
Graph 2:
0 0 1 
1 0 0 
1 0 1 
Solution: 8 0
Classic Expectation: 4.333333
Initial Expecation: 3.250000
Gbest: 8.000000
Expectation: 5.658610
Final Parameters:
Gammas:
[ 5.963611 4.030024 0.475966 5.444712 2.121593 ]
Betas:
[ 2.367010 3.141593 3.141593 0.042908 2.720114 ]
Aggregate results:
[ 8 6 2 4 0 ]
[ 0.410258 0.076317 0.051301 0.454010 0.008113 ]
5
Num Evals 3000
GenUC: 2.961140e-06
GenUB: 1.025212e-06
Optimisation 1.020042e+00
Total Time: 1.020048e+00
5 Add/Rem 3
Graph 1:
0 0 1 
1 1 0 
1 0 1 
Graph 2:
1 1 0 
1 0 0 
0 0 1 
Solution: 8 3
Classic Expectation: 4.666667
Initial Expecation: 3.500000
Gbest: 8.000000
Expectation: 5.000000
Final Parameters:
Gammas:
[ 4.020876 4.820316 5.590225 5.411838 2.881263 ]
Betas:
[ 1.395605 0.088872 2.054507 0.417283 1.736161 ]
Aggregate results:
[ 4 6 8 2 0 ]
[ 0.000000 0.000000 0.500000 0.500000 0.000000 ]
5
Num Evals 3000
GenUC: 2.606132e-06
GenUB: 9.582727e-07
Optimisation 9.380086e-01
Total Time: 9.380141e-01
