Clock Speed: 3.686811
Num threads: 4
Trotterisation: 1
Num Qubits: 7
Space Dimension: 128
Run-Type: 0
Num_samples: 5
Optimiser Method: 20
1 Isomorphic
Graph 1:
0 1 0 0 1 
1 0 1 1 1 
0 1 0 0 1 
0 1 0 0 1 
1 1 1 1 0 
Graph 2:
0 1 0 0 1 
1 0 1 1 1 
0 1 0 0 1 
0 1 0 0 1 
1 1 1 1 0 
Solution: 25 0
Classic Expectation: 16.600000
Initial Expecation: 15.562500
Gbest: 25.000000
Expectation: 19.051606
Final Parameters:
Gammas:
[ 1.910646 ]
Betas:
[ 0.371641 ]
Aggregate results:
[ 25 17 13 0 ]
[ 0.364054 0.499376 0.112375 0.024196 ]
5
Num Evals 1000
GenUC: 4.135026e-05
GenUB: 1.376017e-05
Optimisation 1.061582e-01
Total Time: 1.062403e-01
2 Flipped
Graph 1:
0 1 0 0 1 
1 0 1 1 1 
0 1 0 0 1 
0 1 0 0 1 
1 1 1 1 0 
Graph 2:
1 0 0 1 0 
1 1 1 0 1 
1 0 0 1 0 
1 0 0 1 0 
0 1 1 1 1 
Solution: 13 1
Classic Expectation: 11.000000
Initial Expecation: 10.312500
Gbest: 13.000000
Expectation: 11.743028
Final Parameters:
Gammas:
[ 5.613399 ]
Betas:
[ 2.876915 ]
Aggregate results:
[ 9 13 11 0 ]
[ 0.074439 0.502346 0.412962 0.010253 ]
5
Num Evals 1000
GenUC: 4.490354e-05
GenUB: 3.183552e-06
Optimisation 1.073031e-01
Total Time: 1.073531e-01
3 Add 5
Graph 1:
0 1 0 0 1 
1 0 1 1 1 
0 1 0 0 1 
0 1 0 0 1 
1 1 1 1 0 
Graph 2:
1 1 1 1 1 
1 1 1 1 1 
1 1 0 0 1 
1 1 0 0 1 
1 1 1 1 1 
Solution: 18 0
Classic Expectation: 15.200000
Initial Expecation: 14.250000
Gbest: 18.000000
Expectation: 16.606749
Final Parameters:
Gammas:
[ 3.646703 ]
Betas:
[ 0.304893 ]
Aggregate results:
[ 18 14 0 ]
[ 0.707261 0.276861 0.015878 ]
5
Num Evals 1000
GenUC: 4.437717e-05
GenUB: 2.786866e-06
Optimisation 1.777267e-01
Total Time: 1.777757e-01
4 Rem 5
Graph 1:
0 1 0 0 1 
1 0 1 1 1 
0 1 0 0 1 
0 1 0 0 1 
1 1 1 1 0 
Graph 2:
0 0 0 0 0 
0 0 0 0 0 
0 0 0 0 1 
0 0 0 0 1 
0 0 1 1 0 
Solution: 15 0
Classic Expectation: 12.600000
Initial Expecation: 11.812500
Gbest: 15.000000
Expectation: 13.888968
Final Parameters:
Gammas:
[ 3.481256 ]
Betas:
[ 0.255051 ]
Aggregate results:
[ 15 11 7 0 ]
[ 0.797692 0.160103 0.023208 0.018997 ]
5
Num Evals 1000
GenUC: 4.319643e-05
GenUB: 4.736939e-06
Optimisation 1.003239e-01
Total Time: 1.003735e-01
5 Add/Rem 5
Graph 1:
0 1 0 0 1 
1 0 1 1 1 
0 1 0 0 1 
0 1 0 0 1 
1 1 1 1 0 
Graph 2:
1 0 1 1 0 
0 1 0 0 0 
1 0 0 0 1 
1 0 0 0 1 
0 0 1 1 1 
Solution: 16 7
Classic Expectation: 11.200000
Initial Expecation: 10.500000
Gbest: 16.000000
Expectation: 13.028444
Final Parameters:
Gammas:
[ 0.177760 ]
Betas:
[ 0.248450 ]
Aggregate results:
[ 8 12 16 0 ]
[ 0.110913 0.424831 0.440198 0.024058 ]
5
Num Evals 1000
GenUC: 4.313426e-05
GenUB: 4.754518e-06
Optimisation 1.761976e-01
Total Time: 1.762471e-01
