Clock Speed: 3.688890
Num threads: 4
Trotterisation: 1
Num Qubits: 7
Space Dimension: 128
Run-Type: 0
Num_samples: 5
Optimiser Method: 20
1 Isomorphic
Graph 1:
0 0 1 1 1 
0 0 1 0 0 
1 1 0 1 1 
1 0 1 0 1 
1 0 1 1 0 
Graph 2:
0 0 1 1 1 
0 0 1 0 0 
1 1 0 1 1 
1 0 1 0 1 
1 0 1 1 0 
Solution: 25 0
Classic Expectation: 16.600000
Initial Expecation: 15.562500
Gbest: 25.000000
Expectation: 18.563909
Final Parameters:
Gammas:
[ 1.834912 ]
Betas:
[ 2.422767 ]
Aggregate results:
[ 25 21 13 17 0 ]
[ 0.255938 0.253247 0.170998 0.272018 0.047799 ]
5
Num Evals 1000
GenUC: 4.113026e-05
GenUB: 1.308108e-05
Optimisation 3.717476e+00
Total Time: 3.717556e+00
2 Flipped
Graph 1:
0 0 1 1 1 
0 0 1 0 0 
1 1 0 1 1 
1 0 1 0 1 
1 0 1 1 0 
Graph 2:
1 1 1 0 0 
0 0 1 0 0 
1 1 0 1 1 
1 0 1 0 1 
0 1 1 0 1 
Solution: 17 0
Classic Expectation: 13.800000
Initial Expecation: 12.937500
Gbest: 15.000000
Expectation: 14.975894
Final Parameters:
Gammas:
[ 6.150037 ]
Betas:
[ 2.874002 ]
Aggregate results:
[ 17 13 15 9 0 ]
[ 0.338004 0.141949 0.468463 0.039728 0.011857 ]
5
Num Evals 1000
GenUC: 4.509553e-05
GenUB: 3.013571e-06
Optimisation 3.273868e+00
Total Time: 3.273919e+00
3 Add 5
Graph 1:
0 0 1 1 1 
0 0 1 0 0 
1 1 0 1 1 
1 0 1 0 1 
1 0 1 1 0 
Graph 2:
0 1 1 1 1 
1 1 1 1 1 
1 1 1 1 1 
1 1 1 0 1 
1 1 1 1 0 
Solution: 17 0
Classic Expectation: 17.000000
Initial Expecation: 15.937500
Gbest: 17.000000
Expectation: 17.000000
Final Parameters:
Gammas:
[ 5.101238 ]
Betas:
[ 2.825249 ]
Aggregate results:
[ 17 0 ]
[ 1.000000 0.000000 ]
5
Num Evals 1000
GenUC: 4.456921e-05
GenUB: 5.115900e-06
Optimisation 3.596025e+00
Total Time: 3.596077e+00
4 Rem 5
Graph 1:
0 0 1 1 1 
0 0 1 0 0 
1 1 0 1 1 
1 0 1 0 1 
1 0 1 1 0 
Graph 2:
0 0 0 0 0 
0 0 0 0 0 
0 0 0 0 1 
0 0 0 0 1 
0 0 1 1 0 
Solution: 15 0
Classic Expectation: 12.600000
Initial Expecation: 11.812500
Gbest: 15.000000
Expectation: 12.398060
Final Parameters:
Gammas:
[ 5.480919 ]
Betas:
[ 2.281490 ]
Aggregate results:
[ 15 11 7 0 ]
[ 0.518137 0.376772 0.068788 0.036303 ]
5
Num Evals 1000
GenUC: 4.334994e-05
GenUB: 7.313298e-06
Optimisation 2.873466e+00
Total Time: 2.873520e+00
5 Add/Rem 5
Graph 1:
0 0 1 1 1 
0 0 1 0 0 
1 1 0 1 1 
1 0 1 0 1 
1 0 1 1 0 
Graph 2:
1 1 0 0 0 
1 0 0 1 1 
0 0 1 0 1 
0 1 0 0 1 
0 1 1 1 0 
Solution: 19 10
Classic Expectation: 13.000000
Initial Expecation: 12.187500
Gbest: 19.000000
Expectation: 14.396652
Final Parameters:
Gammas:
[ 3.433622 ]
Betas:
[ 0.269570 ]
Aggregate results:
[ 7 11 15 19 0 ]
[ 0.067979 0.107409 0.555749 0.231740 0.037123 ]
5
Num Evals 1000
GenUC: 4.401064e-05
GenUB: 9.052426e-06
Optimisation 1.817352e+00
Total Time: 1.817407e+00
