Clock Speed: 3.688723
Num threads: 4
Trotterisation: 5
Graph Size: 7
Num Qubits: 13
Space Dimension: 8192
Run-Type: 0
Num_samples: 10
1 Isomorphic
Graph 1:
0 0 1 0 0 1 0 
0 1 1 1 0 1 0 
1 0 0 1 1 0 0 
1 0 0 0 0 1 1 
0 1 0 0 1 1 1 
1 1 0 1 0 0 1 
1 0 1 0 0 0 1 
Graph 2:
0 0 1 0 0 1 0 
0 1 1 1 0 1 0 
1 0 0 1 1 0 0 
1 0 0 0 0 1 1 
0 1 0 0 1 1 1 
1 1 0 1 0 0 1 
1 0 1 0 0 0 1 
Solution: 0 0
Gbest: -20.000000
Expectation: -28.275615
Final Parameters:
Gammas:
[ 3.141593 3.141593 3.141593 3.141593 3.141593 ]
Betas:
[ 0.523599 1.570796 2.617994 1.570796 1.570796 1.570796 ]
Aggregate results:
[ -1 11 19 17 13 21 23 15 9 27 25 29 31 35 33 7 41 48 ]
[ 0.000082 0.000701 0.086723 0.033644 0.002922 0.139388 0.163089 0.012041 0.000343 0.131375 0.177710 0.067914 0.028478 0.003017 0.007849 0.000120 0.000026 0.144577 ]
3
Num Evals 65
GenUC: 1.431019e-03
GenUB: 1.884883e-03
Optimisation 9.009322e-01
Total Time: 9.174551e-01
2 Flipped
Graph 1:
0 0 1 0 0 1 0 
0 1 1 1 0 1 0 
1 0 0 1 1 0 0 
1 0 0 0 0 1 1 
0 1 0 0 1 1 1 
1 1 0 1 0 0 1 
1 0 1 0 0 0 1 
Graph 2:
0 1 0 0 1 0 0 
0 1 0 1 1 1 0 
0 0 1 1 0 0 1 
1 1 0 0 0 0 1 
1 1 1 0 0 1 0 
1 0 0 1 0 1 1 
1 0 0 0 1 0 1 
Solution: -6 562
Gbest: -22.000000
Expectation: -28.127417
Final Parameters:
Gammas:
[ 3.141593 3.141593 3.141593 3.141593 3.141593 ]
Betas:
[ 0.523599 1.570796 2.617994 1.570796 1.570796 1.570796 ]
Aggregate results:
[ 19 25 17 23 21 27 29 15 11 13 33 31 9 5 35 37 41 48 ]
[ 0.078819 0.161560 0.040646 0.169636 0.148813 0.130501 0.066975 0.014631 0.001850 0.005133 0.008118 0.025068 0.000481 0.000026 0.002803 0.000339 0.000026 0.144577 ]
3
Num Evals 124
GenUC: 1.168224e-03
GenUB: 1.591710e-03
Optimisation 8.297370e-01
Total Time: 8.460745e-01
3 Add 7
Graph 1:
0 0 1 0 0 1 0 
0 1 1 1 0 1 0 
1 0 0 1 1 0 0 
1 0 0 0 0 1 1 
0 1 0 0 1 1 1 
1 1 0 1 0 0 1 
1 0 1 0 0 0 1 
Graph 2:
0 0 1 1 1 1 1 
0 1 1 1 0 1 0 
1 0 0 1 1 0 1 
1 0 0 0 0 1 1 
1 1 0 0 1 1 1 
1 1 0 1 0 0 1 
1 1 1 0 0 1 1 
Solution: -7 0
Gbest: -19.000000
Expectation: -33.172237
Final Parameters:
Gammas:
[ 1.047198 3.141593 3.141593 3.141593 3.141593 ]
Betas:
[ 0.523599 1.570796 1.570796 1.570796 1.570796 0.523599 ]
Aggregate results:
[ 6 12 20 22 14 24 16 26 18 30 28 32 34 10 36 8 48 ]
[ 0.000114 0.001688 0.084472 0.109074 0.005248 0.141530 0.013591 0.141683 0.039314 0.039099 0.065363 0.012544 0.002056 0.000127 0.000038 0.000220 0.343841 ]
3
Num Evals 179
GenUC: 1.342714e-03
GenUB: 1.622578e-03
Optimisation 7.527410e-01
Total Time: 7.677944e-01
4 Rem 7
Graph 1:
0 0 1 0 0 1 0 
0 1 1 1 0 1 0 
1 0 0 1 1 0 0 
1 0 0 0 0 1 1 
0 1 0 0 1 1 1 
1 1 0 1 0 0 1 
1 0 1 0 0 0 1 
Graph 2:
0 0 1 0 0 1 0 
0 1 1 1 0 1 0 
1 0 0 1 0 0 0 
0 0 0 0 0 1 1 
0 1 0 0 0 0 0 
1 1 0 0 0 0 0 
1 0 1 0 0 0 1 
Solution: -7 0
Gbest: -21.000000
Expectation: -32.668290
Final Parameters:
Gammas:
[ 1.047198 3.141593 3.141593 3.141593 3.141593 ]
Betas:
[ 0.523599 1.570796 1.570796 1.570796 1.570796 0.523599 ]
Aggregate results:
[ 6 16 22 14 18 26 24 20 12 10 28 30 32 34 48 ]
[ 0.000007 0.015916 0.124371 0.007377 0.052410 0.108767 0.158522 0.113325 0.001681 0.000319 0.039598 0.023201 0.006598 0.000505 0.347404 ]
3
Num Evals 234
GenUC: 1.217706e-03
GenUB: 1.607224e-03
Optimisation 7.590399e-01
Total Time: 7.739385e-01
5 Add/Rem 7
Graph 1:
0 0 1 0 0 1 0 
0 1 1 1 0 1 0 
1 0 0 1 1 0 0 
1 0 0 0 0 1 1 
0 1 0 0 1 1 1 
1 1 0 1 0 0 1 
1 0 1 0 0 0 1 
Graph 2:
0 0 0 0 1 1 0 
0 1 0 1 0 0 1 
1 0 0 1 1 0 0 
1 1 1 0 0 1 1 
1 0 0 1 1 1 1 
0 0 0 1 0 0 1 
1 1 0 0 0 0 1 
Solution: -12 526
Gbest: -18.000000
Expectation: -28.033306
Final Parameters:
Gammas:
[ 3.141593 3.141593 1.047198 3.141593 3.141593 ]
Betas:
[ 1.570796 1.570796 2.617994 1.570796 1.570796 1.570796 ]
Aggregate results:
[ 13 17 19 21 23 15 25 29 27 31 33 11 35 37 48 ]
[ 0.002203 0.038881 0.094416 0.150204 0.189819 0.010034 0.158551 0.058959 0.120661 0.021636 0.006856 0.000044 0.003147 0.000011 0.144577 ]
3
Num Evals 267
GenUC: 1.219194e-03
GenUB: 1.680084e-03
Optimisation 4.637407e-01
Total Time: 4.835060e-01
