Clock Speed: 3.688979
Num threads: 4
Trotterisation: 1
Graph Size: 3
Num Qubits: 3
Space Dimension: 8
Run-Type: 0
Num_samples: 10
1 Isomorphic
Graph 1:
1 0 1 
1 1 1 
0 1 1 
Graph 2:
1 0 1 
1 1 1 
0 1 1 
Solution: 0 0
Gbest: 0.000000
Expectation: -1.604903
Final Parameters:
Gammas:
[ 3.915043 ]
Betas:
[ 0.122223 2.402796 ]
Aggregate results:
[ -1 3 1 8 ]
[ 0.660237 0.221849 0.049102 0.068811 ]
5
Num Evals 300
GenUC: 1.724707e-04
GenUB: 8.104835e-06
Optimisation 2.669297e-02
Total Time: 2.698559e-02
2 Flipped
Graph 1:
1 0 1 
1 1 1 
0 1 1 
Graph 2:
1 0 1 
1 1 1 
1 1 0 
Solution: -2 0
Gbest: -2.000000
Expectation: -2.860545
Final Parameters:
Gammas:
[ 3.890230 ]
Betas:
[ 1.707338 2.581121 ]
Aggregate results:
[ 1 3 8 ]
[ 0.693650 0.256782 0.049569 ]
5
Num Evals 600
GenUC: 7.716939e-06
GenUB: 5.625421e-06
Optimisation 2.858975e-02
Total Time: 2.871357e-02
3 Add 3
Graph 1:
1 0 1 
1 1 1 
0 1 1 
Graph 2:
1 1 1 
1 1 1 
1 1 1 
Solution: -2 0
Gbest: -2.000000
Expectation: -2.013308
Final Parameters:
Gammas:
[ 1.590309 ]
Betas:
[ 0.283800 0.428886 ]
Aggregate results:
[ 1 8 ]
[ 0.998099 0.001901 ]
5
Num Evals 900
GenUC: 6.823801e-06
GenUB: 5.308539e-06
Optimisation 2.495156e-02
Total Time: 2.503252e-02
4 Rem 3
Graph 1:
1 0 1 
1 1 1 
0 1 1 
Graph 2:
1 0 1 
1 0 1 
0 0 0 
Solution: -3 0
Gbest: -3.000000
Expectation: -3.974767
Final Parameters:
Gammas:
[ 0.524584 ]
Betas:
[ 1.615611 2.479431 ]
Aggregate results:
[ 2 4 6 8 ]
[ 0.616091 0.326868 0.010609 0.046432 ]
5
Num Evals 1200
GenUC: 7.948140e-06
GenUB: 5.353242e-06
Optimisation 2.557799e-02
Total Time: 2.570153e-02
5 Add/Rem 3
Graph 1:
1 0 1 
1 1 1 
0 1 1 
Graph 2:
1 1 1 
1 1 1 
1 0 0 
Solution: -2 1
Gbest: -2.000000
Expectation: -3.739151
Final Parameters:
Gammas:
[ 3.387549 ]
Betas:
[ 2.331620 0.361155 ]
Aggregate results:
[ 3 1 8 ]
[ 0.745927 0.218745 0.035328 ]
5
Num Evals 1500
GenUC: 6.927643e-06
GenUB: 5.060923e-06
Optimisation 2.569189e-02
Total Time: 2.579704e-02
