Clock Speed: 3.689022
Num threads: 4
Trotterisation: 1
Graph Size: 4
Num Qubits: 5
Space Dimension: 32
Run-Type: 0
Num_samples: 10
1 Isomorphic
Graph 1:
0 0 1 0 
1 1 0 0 
0 1 0 0 
1 0 0 1 
Graph 2:
0 0 1 0 
1 1 0 0 
0 1 0 0 
1 0 0 1 
Solution: 0 0
Gbest: 0.000000
Expectation: -9.500000
Final Parameters:
Gammas:
[ 3.141593 ]
Betas:
[ 2.617994 0.523599 ]
Aggregate results:
[ -1 9 3 7 5 1 11 15 ]
[ 0.031250 0.156250 0.062500 0.312500 0.125000 0.031250 0.031250 0.250000 ]
3
Num Evals 13
GenUC: 1.308123e-04
GenUB: 1.199736e-05
Optimisation 1.714890e-03
Total Time: 2.015653e-03
2 Flipped
Graph 1:
0 0 1 0 
1 1 0 0 
0 1 0 0 
1 0 0 1 
Graph 2:
0 1 0 0 
0 0 1 1 
0 0 1 0 
1 0 0 1 
Solution: -2 3
Gbest: -4.000000
Expectation: -6.794481
Final Parameters:
Gammas:
[ 3.839724 ]
Betas:
[ 2.967060 0.523599 ]
Aggregate results:
[ 7 5 9 1 3 15 ]
[ 0.167601 0.140022 0.209054 0.146764 0.262956 0.073603 ]
3
Num Evals 54
GenUC: 9.291427e-06
GenUB: 8.192845e-06
Optimisation 5.012263e-03
Total Time: 5.164124e-03
3 Add 4
Graph 1:
0 0 1 0 
1 1 0 0 
0 1 0 0 
1 0 0 1 
Graph 2:
0 1 1 0 
1 1 1 0 
1 1 0 1 
1 0 0 1 
Solution: -4 0
Gbest: -4.000000
Expectation: -8.647397
Final Parameters:
Gammas:
[ 1.305765 ]
Betas:
[ 0.536527 0.704596 ]
Aggregate results:
[ 3 7 5 9 11 15 ]
[ 0.135401 0.458688 0.161764 0.028386 0.067583 0.148178 ]
3
Num Evals 237
GenUC: 8.222181e-06
GenUB: 8.201081e-06
Optimisation 2.167565e-02
Total Time: 2.179130e-02
4 Rem 4
Graph 1:
0 0 1 0 
1 1 0 0 
0 1 0 0 
1 0 0 1 
Graph 2:
0 0 0 0 
1 0 0 0 
0 1 0 0 
1 0 0 0 
Solution: -3 0
Gbest: -5.000000
Expectation: -9.250000
Final Parameters:
Gammas:
[ 1.047198 ]
Betas:
[ 0.523599 1.570796 ]
Aggregate results:
[ 2 8 4 6 15 ]
[ 0.031250 0.218750 0.156250 0.343750 0.250000 ]
3
Num Evals 246
GenUC: 8.724543e-06
GenUB: 8.114235e-06
Optimisation 1.043500e-03
Total Time: 1.169220e-03
5 Add/Rem 4
Graph 1:
0 0 1 0 
1 1 0 0 
0 1 0 0 
1 0 0 1 
Graph 2:
0 0 0 0 
0 1 1 1 
0 0 0 0 
1 1 0 1 
Solution: -6 0
Gbest: -6.000000
Expectation: -9.500000
Final Parameters:
Gammas:
[ 3.141593 ]
Betas:
[ 2.656779 1.570796 ]
Aggregate results:
[ 5 9 7 15 ]
[ 0.375000 0.125000 0.250000 0.250000 ]
3
Num Evals 299
GenUC: 7.934053e-06
GenUB: 8.245086e-06
Optimisation 6.890672e-03
Total Time: 7.055133e-03
