Clock Speed: 3.688856
Num threads: 4
Trotterisation: 5
Num Qubits: 5
Space Dimension: 32
Run-Type: 0
Num_samples: 4
Optimiser Method: 0
1 Isomorphic
Graph 1:
0 0 1 1 
0 0 0 1 
1 0 0 1 
1 1 1 0 
Graph 2:
0 0 1 1 
0 0 0 1 
1 0 0 1 
1 1 1 0 
Solution: 16 0
Classic Expectation: 10.666667
Initial Expecation: 8.000000
Gbest: 16.000000
Expectation: 12.554980
Final Parameters:
Gammas:
[ 3.151642 3.137289 4.524934 3.154515 1.060120 ]
Betas:
[ 1.926323 1.577258 1.344541 1.228186 2.855723 ]
Aggregate results:
[ 16 12 8 0 ]
[ 0.329051 0.581723 0.038686 0.050540 ]
5
Num Evals 4000
GenUC: 8.458104e-06
GenUB: 8.979812e-06
Optimisation 5.450174e+01
Total Time: 5.450178e+01
2 Flipped
Graph 1:
0 0 1 1 
0 0 0 1 
1 0 0 1 
1 1 1 0 
Graph 2:
1 1 0 0 
1 0 0 0 
1 0 0 1 
0 1 1 1 
Solution: 10 2
Classic Expectation: 8.000000
Initial Expecation: 6.000000
Gbest: 10.000000
Expectation: 8.287909
Final Parameters:
Gammas:
[ 5.254660 1.042890 3.102810 2.447768 3.723375 ]
Betas:
[ 2.702031 2.559817 1.551407 1.551407 1.266977 ]
Aggregate results:
[ 8 6 10 0 ]
[ 0.235421 0.113920 0.572102 0.078557 ]
5
Num Evals 4000
GenUC: 9.239193e-06
GenUB: 1.840330e-06
Optimisation 5.719124e+01
Total Time: 5.719125e+01
3 Add 4
Graph 1:
0 0 1 1 
0 0 0 1 
1 0 0 1 
1 1 1 0 
Graph 2:
1 1 1 1 
1 1 1 1 
1 1 0 1 
1 1 1 1 
Solution: 9 0
Classic Expectation: 9.000000
Initial Expecation: 6.750000
Gbest: 9.000000
Expectation: 9.000000
Final Parameters:
Gammas:
[ 5.235988 1.047198 5.698536 0.271638 5.218750 ]
Betas:
[ 1.918585 1.531639 1.461623 1.213112 0.524078 ]
Aggregate results:
[ 9 0 ]
[ 1.000000 0.000000 ]
5
Num Evals 4000
GenUC: 9.387077e-06
GenUB: 1.802771e-06
Optimisation 5.376994e+01
Total Time: 5.376995e+01
4 Rem 4
Graph 1:
0 0 1 1 
0 0 0 1 
1 0 0 1 
1 1 1 0 
Graph 2:
0 0 0 0 
0 0 0 0 
0 0 0 1 
0 0 1 0 
Solution: 10 0
Classic Expectation: 8.666667
Initial Expecation: 6.500000
Gbest: 10.000000
Expectation: 9.484164
Final Parameters:
Gammas:
[ 1.085983 3.125791 0.378274 3.180378 3.257948 ]
Betas:
[ 2.585673 1.535602 1.590189 1.551404 1.978040 ]
Aggregate results:
[ 10 6 0 ]
[ 0.906611 0.069676 0.023713 ]
5
Num Evals 4000
GenUC: 9.138254e-06
GenUB: 1.503482e-06
Optimisation 5.258903e+01
Total Time: 5.258904e+01
5 Add/Rem 4
Graph 1:
0 0 1 1 
0 0 0 1 
1 0 0 1 
1 1 1 0 
Graph 2:
1 1 0 0 
1 0 1 0 
0 1 0 1 
0 0 1 1 
Solution: 12 4
Classic Expectation: 8.000000
Initial Expecation: 6.000000
Gbest: 12.000000
Expectation: 9.112139
Final Parameters:
Gammas:
[ 4.469366 4.138088 2.404694 2.999327 3.413035 ]
Betas:
[ 2.692478 1.292810 1.641610 1.607400 1.579202 ]
Aggregate results:
[ 4 8 12 0 ]
[ 0.016331 0.373686 0.504777 0.105206 ]
5
Num Evals 4000
GenUC: 8.984505e-06
GenUB: 1.752895e-06
Optimisation 5.497986e+01
Total Time: 5.497987e+01
