Clock Speed: 3.688813
Num threads: 4
Trotterisation: 5
Num Qubits: 5
Space Dimension: 32
Run-Type: 0
Num_samples: 4
Optimiser Method: 0
1 Isomorphic
Graph 1:
0 1 0 1 
1 0 0 1 
0 0 0 1 
1 1 1 0 
Graph 2:
0 1 0 1 
1 0 0 1 
0 0 0 1 
1 1 1 0 
Solution: 16 0
Classic Expectation: 10.666667
Initial Expecation: 8.000000
Gbest: 16.000000
Expectation: 12.290431
Final Parameters:
Gammas:
[ 4.524928 4.654211 3.180377 3.180377 1.085982 ]
Betas:
[ 2.327107 0.387852 1.590188 1.571514 2.852858 ]
Aggregate results:
[ 16 8 12 0 ]
[ 0.198660 0.020152 0.745888 0.035300 ]
5
Num Evals 4000
GenUC: 8.249517e-06
GenUB: 1.042839e-05
Optimisation 5.079879e+01
Total Time: 5.079884e+01
2 Flipped
Graph 1:
0 1 0 1 
1 0 0 1 
0 0 0 1 
1 1 1 0 
Graph 2:
1 0 1 0 
1 0 0 1 
1 0 0 0 
0 1 1 1 
Solution: 10 2
Classic Expectation: 8.000000
Initial Expecation: 6.000000
Gbest: 10.000000
Expectation: 9.357036
Final Parameters:
Gammas:
[ 5.266153 4.586218 4.524928 5.148363 3.490659 ]
Betas:
[ 2.676171 0.995484 2.094395 1.620355 1.262671 ]
Aggregate results:
[ 8 10 6 0 ]
[ 0.192475 0.760847 0.034795 0.011883 ]
5
Num Evals 4000
GenUC: 9.315190e-06
GenUB: 1.877241e-06
Optimisation 5.460050e+01
Total Time: 5.460051e+01
3 Add 4
Graph 1:
0 1 0 1 
1 0 0 1 
0 0 0 1 
1 1 1 0 
Graph 2:
0 1 1 1 
1 1 1 1 
1 1 0 1 
1 1 1 1 
Solution: 10 0
Classic Expectation: 10.000000
Initial Expecation: 7.500000
Gbest: 10.000000
Expectation: 10.000000
Final Parameters:
Gammas:
[ 5.235988 5.934119 3.839724 3.141593 3.862389 ]
Betas:
[ 0.562384 1.559251 1.570317 1.221736 1.609564 ]
Aggregate results:
[ 10 0 ]
[ 1.000000 0.000000 ]
5
Num Evals 4000
GenUC: 9.647920e-06
GenUB: 1.926535e-06
Optimisation 5.149616e+01
Total Time: 5.149618e+01
4 Rem 4
Graph 1:
0 1 0 1 
1 0 0 1 
0 0 0 1 
1 1 1 0 
Graph 2:
0 0 0 0 
0 0 0 0 
0 0 0 0 
0 0 0 0 
Solution: 8 0
Classic Expectation: 8.000000
Initial Expecation: 6.000000
Gbest: 8.000000
Expectation: 8.000000
Final Parameters:
Gammas:
[ 5.235988 3.141593 5.235988 1.047198 3.141593 ]
Betas:
[ 2.596447 1.540683 1.612295 1.570317 1.919862 ]
Aggregate results:
[ 8 0 ]
[ 1.000000 0.000000 ]
5
Num Evals 4000
GenUC: 8.975418e-06
GenUB: 1.644854e-06
Optimisation 5.547735e+01
Total Time: 5.547736e+01
5 Add/Rem 4
Graph 1:
0 1 0 1 
1 0 0 1 
0 0 0 1 
1 1 1 0 
Graph 2:
1 0 1 0 
0 1 1 0 
1 1 0 0 
0 0 0 1 
Solution: 9 1
Classic Expectation: 6.333333
Initial Expecation: 4.750000
Gbest: 9.000000
Expectation: 7.089606
Final Parameters:
Gammas:
[ 3.180325 5.274720 3.602651 3.150744 2.594345 ]
Betas:
[ 1.861658 0.956672 0.581803 0.581697 1.401291 ]
Aggregate results:
[ 1 9 5 0 ]
[ 0.000149 0.646371 0.254424 0.099056 ]
5
Num Evals 4000
GenUC: 8.807583e-06
GenUB: 1.677137e-06
Optimisation 5.098779e+01
Total Time: 5.098780e+01
