Clock Speed: 3.688888
Num threads: 4
Trotterisation: 4
Num Qubits: 7
Space Dimension: 128
Run-Type: 0
Num_samples: 5
Optimiser Method: 29
1 Isomorphic
Graph 1:
0 1 0 0 0 
1 0 1 1 1 
0 1 0 1 1 
0 1 1 0 1 
0 1 1 1 0 
Graph 2:
0 1 0 0 0 
1 0 1 1 1 
0 1 0 1 1 
0 1 1 0 1 
0 1 1 1 0 
Solution: 25 0
Classic Expectation: 16.600000
Initial Expecation: 15.562500
Gbest: 25.000000
Expectation: 18.744639
Final Parameters:
Gammas:
[ 5.331560 0.935550 3.977968 4.902321 ]
Betas:
[ 0.664814 1.791469 1.760718 1.320473 ]
Aggregate results:
[ 25 21 13 17 0 ]
[ 0.219924 0.115352 0.094378 0.564544 0.005803 ]
5
Num Evals 4000
GenUC: 4.117145e-05
GenUB: 1.299731e-05
Optimisation 5.287102e+01
Total Time: 5.287110e+01
2 Flipped
Graph 1:
0 1 0 0 0 
1 0 1 1 1 
0 1 0 1 1 
0 1 1 0 1 
0 1 1 1 0 
Graph 2:
0 0 0 1 0 
1 1 1 0 1 
1 1 0 1 0 
1 0 1 1 0 
0 1 1 1 0 
Solution: 17 12
Classic Expectation: 13.800000
Initial Expecation: 12.937500
Gbest: 17.000000
Expectation: 15.827263
Final Parameters:
Gammas:
[ 3.784861 2.870497 5.414237 3.782303 ]
Betas:
[ 0.563793 2.685839 2.879974 0.233644 ]
Aggregate results:
[ 15 17 13 11 0 ]
[ 0.343594 0.555995 0.077188 0.019818 0.003405 ]
5
Num Evals 4000
GenUC: 4.441491e-05
GenUB: 2.878445e-06
Optimisation 5.149987e+01
Total Time: 5.149992e+01
3 Add 5
Graph 1:
0 1 0 0 0 
1 0 1 1 1 
0 1 0 1 1 
0 1 1 0 1 
0 1 1 1 0 
Graph 2:
1 1 1 1 1 
1 1 1 1 1 
1 1 0 1 1 
1 1 1 0 1 
1 1 1 1 0 
Solution: 17 0
Classic Expectation: 17.000000
Initial Expecation: 15.937500
Gbest: 17.000000
Expectation: 17.000000
Final Parameters:
Gammas:
[ 3.876126 3.788617 4.713272 4.708496 ]
Betas:
[ 2.041523 1.033151 1.409728 2.034684 ]
Aggregate results:
[ 17 0 ]
[ 1.000000 0.000000 ]
4
Num Evals 676
GenUC: 4.465023e-05
GenUB: 6.256290e-06
Optimisation 8.971195e+00
Total Time: 8.971249e+00
4 Rem 5
Graph 1:
0 1 0 0 0 
1 0 1 1 1 
0 1 0 1 1 
0 1 1 0 1 
0 1 1 1 0 
Graph 2:
0 1 0 0 0 
1 0 0 0 0 
0 0 0 1 1 
0 0 1 0 1 
0 0 1 1 0 
Solution: 19 0
Classic Expectation: 14.200000
Initial Expecation: 13.312500
Gbest: 19.000000
Expectation: 16.551880
Final Parameters:
Gammas:
[ 2.897736 4.693695 2.818574 1.713821 ]
Betas:
[ 1.129330 1.583082 2.480518 0.379928 ]
Aggregate results:
[ 19 15 11 0 ]
[ 0.404935 0.578470 0.016460 0.000135 ]
5
Num Evals 4000
GenUC: 4.389966e-05
GenUB: 6.936436e-06
Optimisation 5.226167e+01
Total Time: 5.226173e+01
5 Add/Rem 5
Graph 1:
0 1 0 0 0 
1 0 1 1 1 
0 1 0 1 1 
0 1 1 0 1 
0 1 1 1 0 
Graph 2:
1 0 1 1 1 
0 1 0 0 0 
1 0 0 0 1 
1 0 0 0 1 
1 0 1 1 0 
Solution: 19 24
Classic Expectation: 13.000000
Initial Expecation: 12.187500
Gbest: 19.000000
Expectation: 14.681702
Final Parameters:
Gammas:
[ 2.409649 6.172807 3.195617 3.449473 ]
Betas:
[ 2.761275 1.053301 0.281896 2.260378 ]
Aggregate results:
[ 7 11 19 15 0 ]
[ 0.056120 0.270415 0.383209 0.268889 0.021367 ]
5
Num Evals 4000
GenUC: 4.412384e-05
GenUB: 6.687031e-06
Optimisation 4.726773e+01
Total Time: 4.726779e+01
