Clock Speed: 3.689126
Num threads: 4
Trotterisation: 4
Num Qubits: 7
Space Dimension: 128
Run-Type: 0
Num_samples: 5
Optimiser Method: 29
1 Isomorphic
Graph 1:
0 1 1 0 0 
1 0 1 1 0 
1 1 0 1 1 
0 1 1 0 0 
0 0 1 0 0 
Graph 2:
0 1 1 0 0 
1 0 1 1 0 
1 1 0 1 1 
0 1 1 0 0 
0 0 1 0 0 
Solution: 25 0
Classic Expectation: 15.400000
Initial Expecation: 14.437500
Gbest: 21.000000
Expectation: 17.930369
Final Parameters:
Gammas:
[ 0.070939 1.702534 4.733049 0.775204 ]
Betas:
[ 1.858972 2.990903 1.898273 1.493247 ]
Aggregate results:
[ 25 21 17 13 9 0 ]
[ 0.043642 0.381275 0.390083 0.157167 0.017551 0.010282 ]
5
Num Evals 4000
GenUC: 4.170422e-05
GenUB: 1.644850e-05
Optimisation 2.557211e+00
Total Time: 2.557296e+00
2 Flipped
Graph 1:
0 1 1 0 0 
1 0 1 1 0 
1 1 0 1 1 
0 1 1 0 0 
0 0 1 0 0 
Graph 2:
0 0 1 1 0 
0 1 1 0 1 
1 1 0 1 1 
0 0 1 1 0 
0 0 1 0 0 
Solution: 19 1
Classic Expectation: 13.000000
Initial Expecation: 12.187500
Gbest: 19.000000
Expectation: 15.839723
Final Parameters:
Gammas:
[ 4.518742 3.243494 4.644424 1.744645 ]
Betas:
[ 2.826678 0.257486 1.328722 1.608560 ]
Aggregate results:
[ 17 19 11 9 7 15 13 0 ]
[ 0.094138 0.400963 0.102566 0.026729 0.007792 0.269043 0.089392 0.009377 ]
5
Num Evals 4000
GenUC: 4.519004e-05
GenUB: 2.951187e-06
Optimisation 2.071634e+00
Total Time: 2.071685e+00
3 Add 5
Graph 1:
0 1 1 0 0 
1 0 1 1 0 
1 1 0 1 1 
0 1 1 0 0 
0 0 1 0 0 
Graph 2:
1 1 1 1 1 
1 1 1 1 0 
1 1 1 1 1 
1 1 1 0 0 
1 0 1 0 0 
Solution: 18 0
Classic Expectation: 13.200000
Initial Expecation: 12.375000
Gbest: 18.000000
Expectation: 15.978877
Final Parameters:
Gammas:
[ 4.498298 4.550637 3.310520 3.190153 ]
Betas:
[ 1.805000 0.705054 1.577256 1.914099 ]
Aggregate results:
[ 18 14 10 0 ]
[ 0.594266 0.323225 0.075694 0.006815 ]
5
Num Evals 4000
GenUC: 4.504505e-05
GenUB: 5.618378e-06
Optimisation 2.124956e+00
Total Time: 2.125010e+00
4 Rem 5
Graph 1:
0 1 1 0 0 
1 0 1 1 0 
1 1 0 1 1 
0 1 1 0 0 
0 0 1 0 0 
Graph 2:
0 0 0 0 0 
0 0 0 0 0 
0 0 0 1 0 
0 0 1 0 0 
0 0 0 0 0 
Solution: 15 0
Classic Expectation: 13.400000
Initial Expecation: 12.562500
Gbest: 15.000000
Expectation: 13.837503
Final Parameters:
Gammas:
[ 2.427131 4.357861 4.591882 2.594481 ]
Betas:
[ 2.761503 2.235574 0.717483 1.360365 ]
Aggregate results:
[ 15 11 0 ]
[ 0.726183 0.267705 0.006112 ]
5
Num Evals 4000
GenUC: 4.414667e-05
GenUB: 6.840157e-06
Optimisation 2.310239e+00
Total Time: 2.310293e+00
5 Add/Rem 5
Graph 1:
0 1 1 0 0 
1 0 1 1 0 
1 1 0 1 1 
0 1 1 0 0 
0 0 1 0 0 
Graph 2:
0 0 0 1 1 
0 1 1 0 1 
0 1 1 1 0 
1 0 1 0 0 
1 1 0 0 0 
Solution: 17 12
Classic Expectation: 13.000000
Initial Expecation: 12.187500
Gbest: 17.000000
Expectation: 14.785530
Final Parameters:
Gammas:
[ 4.861052 6.180125 2.783348 3.372841 ]
Betas:
[ 1.904194 1.323643 1.212344 1.736750 ]
Aggregate results:
[ 9 13 17 0 ]
[ 0.038053 0.459052 0.498551 0.004343 ]
5
Num Evals 4000
GenUC: 4.415191e-05
GenUB: 6.440561e-06
Optimisation 2.485219e+00
Total Time: 2.485273e+00
