Clock Speed: 3.688842
Num threads: 4
Trotterisation: 4
Num Qubits: 7
Space Dimension: 128
Run-Type: 0
Num_samples: 5
Optimiser Method: 29
1 Isomorphic
Graph 1:
0 0 0 0 1 
0 0 0 1 1 
0 0 0 1 0 
0 1 1 0 0 
1 1 0 0 0 
Graph 2:
0 0 0 0 1 
0 0 0 1 1 
0 0 0 1 0 
0 1 1 0 0 
1 1 0 0 0 
Solution: 25 0
Classic Expectation: 15.400000
Initial Expecation: 14.437500
Gbest: 21.000000
Expectation: 16.836639
Final Parameters:
Gammas:
[ 3.059535 3.265134 4.380830 3.946931 ]
Betas:
[ 3.025993 1.182276 1.339156 1.678324 ]
Aggregate results:
[ 25 17 21 13 9 0 ]
[ 0.027403 0.450413 0.292858 0.130083 0.072604 0.026638 ]
5
Num Evals 4000
GenUC: 4.104038e-05
GenUB: 1.273962e-05
Optimisation 5.611186e+01
Total Time: 5.611194e+01
2 Flipped
Graph 1:
0 0 0 0 1 
0 0 0 1 1 
0 0 0 1 0 
0 1 1 0 0 
1 1 0 0 0 
Graph 2:
1 0 0 0 0 
1 1 0 0 0 
0 1 0 0 0 
0 0 1 1 0 
0 0 0 1 1 
Solution: 17 11
Classic Expectation: 12.200000
Initial Expecation: 11.437500
Gbest: 15.000000
Expectation: 13.323246
Final Parameters:
Gammas:
[ 5.697907 4.164112 3.747635 2.809984 ]
Betas:
[ 1.265230 1.583901 1.519473 1.508898 ]
Aggregate results:
[ 11 9 13 15 17 0 ]
[ 0.132645 0.051204 0.329124 0.390972 0.074124 0.021930 ]
4
Num Evals 3179
GenUC: 4.437185e-05
GenUB: 2.892513e-06
Optimisation 4.324009e+01
Total Time: 4.324014e+01
3 Add 5
Graph 1:
0 0 0 0 1 
0 0 0 1 1 
0 0 0 1 0 
0 1 1 0 0 
1 1 0 0 0 
Graph 2:
0 1 1 1 1 
1 1 0 1 1 
1 0 0 1 1 
1 1 1 0 0 
1 1 1 0 0 
Solution: 16 0
Classic Expectation: 12.800000
Initial Expecation: 12.000000
Gbest: 16.000000
Expectation: 15.022906
Final Parameters:
Gammas:
[ 6.163295 3.094729 3.418572 3.095169 ]
Betas:
[ 1.414644 1.499696 1.898482 1.353498 ]
Aggregate results:
[ 16 12 8 0 ]
[ 0.783573 0.190651 0.024742 0.001035 ]
5
Num Evals 4000
GenUC: 4.464708e-05
GenUB: 6.198748e-06
Optimisation 5.220796e+01
Total Time: 5.220801e+01
4 Rem 5
Graph 1:
0 0 0 0 1 
0 0 0 1 1 
0 0 0 1 0 
0 1 1 0 0 
1 1 0 0 0 
Graph 2:
0 0 0 0 0 
0 0 0 0 0 
0 0 0 0 0 
0 0 0 0 0 
0 0 0 0 0 
Solution: 17 0
Classic Expectation: 17.000000
Initial Expecation: 15.937500
Gbest: 17.000000
Expectation: 17.000000
Final Parameters:
Gammas:
[ 3.876126 3.788617 4.713272 4.708496 ]
Betas:
[ 2.041523 1.033151 1.409728 2.034684 ]
Aggregate results:
[ 17 0 ]
[ 1.000000 0.000000 ]
4
Num Evals 676
GenUC: 4.372457e-05
GenUB: 7.177005e-06
Optimisation 8.225171e+00
Total Time: 8.225225e+00
5 Add/Rem 5
Graph 1:
0 0 0 0 1 
0 0 0 1 1 
0 0 0 1 0 
0 1 1 0 0 
1 1 0 0 0 
Graph 2:
1 1 1 1 0 
1 1 1 0 0 
1 1 0 0 1 
1 0 0 0 0 
0 0 1 0 0 
Solution: 21 83
Classic Expectation: 13.000000
Initial Expecation: 12.187500
Gbest: 17.000000
Expectation: 15.661076
Final Parameters:
Gammas:
[ 2.898249 1.791938 1.325552 4.529021 ]
Betas:
[ 1.206063 1.629189 1.476826 1.437223 ]
Aggregate results:
[ 5 13 9 17 21 0 ]
[ 0.004940 0.179370 0.084276 0.599904 0.111796 0.019714 ]
5
Num Evals 4000
GenUC: 4.384957e-05
GenUB: 6.433485e-06
Optimisation 5.199168e+01
Total Time: 5.199174e+01
