Clock Speed: 3.689318
Num threads: 4
Trotterisation: 4
Num Qubits: 7
Space Dimension: 128
Run-Type: 0
Num_samples: 5
Optimiser Method: 29
1 Isomorphic
Graph 1:
0 1 0 1 0 
1 0 0 0 0 
0 0 0 1 0 
1 0 1 0 0 
0 0 0 0 0 
Graph 2:
0 1 0 1 0 
1 0 0 0 0 
0 0 0 1 0 
1 0 1 0 0 
0 0 0 0 0 
Solution: 25 0
Classic Expectation: 16.600000
Initial Expecation: 15.562500
Gbest: 21.000000
Expectation: 18.945303
Final Parameters:
Gammas:
[ 4.514637 3.415236 3.273336 1.403734 ]
Betas:
[ 1.702829 1.308075 0.488271 1.619440 ]
Aggregate results:
[ 25 17 21 13 0 ]
[ 0.078123 0.435339 0.419206 0.060627 0.006706 ]
5
Num Evals 4000
GenUC: 4.117363e-05
GenUB: 1.303423e-05
Optimisation 4.910660e+01
Total Time: 4.910668e+01
2 Flipped
Graph 1:
0 1 0 1 0 
1 0 0 0 0 
0 0 0 1 0 
1 0 1 0 0 
0 0 0 0 0 
Graph 2:
0 1 0 1 0 
0 0 0 0 1 
0 1 0 0 0 
0 0 1 0 1 
0 0 0 0 0 
Solution: 19 0
Classic Expectation: 16.600000
Initial Expecation: 15.562500
Gbest: 19.000000
Expectation: 17.760706
Final Parameters:
Gammas:
[ 5.832735 3.114280 4.910516 3.309705 ]
Betas:
[ 2.859384 1.564486 2.368691 2.376847 ]
Aggregate results:
[ 19 15 17 0 ]
[ 0.509176 0.092914 0.393686 0.004225 ]
4
Num Evals 3998
GenUC: 4.494289e-05
GenUB: 2.907189e-06
Optimisation 6.221419e+01
Total Time: 6.221424e+01
3 Add 5
Graph 1:
0 1 0 1 0 
1 0 0 0 0 
0 0 0 1 0 
1 0 1 0 0 
0 0 0 0 0 
Graph 2:
0 1 1 1 1 
1 1 1 1 0 
1 1 0 1 0 
1 1 1 0 0 
1 0 0 0 0 
Solution: 16 0
Classic Expectation: 12.400000
Initial Expecation: 11.625000
Gbest: 16.000000
Expectation: 14.813277
Final Parameters:
Gammas:
[ 2.891606 4.797628 2.985582 2.669010 ]
Betas:
[ 0.203422 2.490773 0.903288 1.880915 ]
Aggregate results:
[ 16 12 8 0 ]
[ 0.741395 0.229723 0.024285 0.004597 ]
5
Num Evals 4000
GenUC: 4.508314e-05
GenUB: 6.378912e-06
Optimisation 4.964488e+01
Total Time: 4.964493e+01
4 Rem 5
Graph 1:
0 1 0 1 0 
1 0 0 0 0 
0 0 0 1 0 
1 0 1 0 0 
0 0 0 0 0 
Graph 2:
0 0 0 0 0 
0 0 0 0 0 
0 0 0 0 0 
0 0 0 0 0 
0 0 0 0 0 
Solution: 19 0
Classic Expectation: 19.000000
Initial Expecation: 17.812500
Gbest: 19.000000
Expectation: 19.000000
Final Parameters:
Gammas:
[ 5.038830 3.926991 3.041373 2.910772 ]
Betas:
[ 2.071728 2.785999 1.410396 1.828772 ]
Aggregate results:
[ 19 0 ]
[ 1.000000 0.000000 ]
4
Num Evals 789
GenUC: 4.408963e-05
GenUB: 7.290269e-06
Optimisation 1.173694e+01
Total Time: 1.173699e+01
5 Add/Rem 5
Graph 1:
0 1 0 1 0 
1 0 0 0 0 
0 0 0 1 0 
1 0 1 0 0 
0 0 0 0 0 
Graph 2:
1 0 1 0 1 
0 1 1 1 0 
1 1 0 0 0 
0 1 0 0 0 
1 0 0 0 0 
Solution: 21 18
Classic Expectation: 13.800000
Initial Expecation: 12.937500
Gbest: 13.000000
Expectation: 14.668462
Final Parameters:
Gammas:
[ 2.506611 4.160881 3.355158 2.576386 ]
Betas:
[ 2.364164 1.167577 1.799597 1.756673 ]
Aggregate results:
[ 9 13 17 21 0 ]
[ 0.089244 0.355667 0.452529 0.073743 0.028817 ]
4
Num Evals 3130
GenUC: 4.405735e-05
GenUB: 6.076694e-06
Optimisation 4.241268e+01
Total Time: 4.241274e+01
