Clock Speed: 3.688892
Num threads: 4
Trotterisation: 5
Graph Size: 6
Num Qubits: 10
Space Dimension: 1024
Run-Type: 0
Num_samples: 10
1 Isomorphic
Graph 1:
0 1 0 1 1 1 
0 1 0 1 0 0 
0 0 1 1 0 1 
0 1 1 1 0 0 
0 0 0 0 0 1 
0 1 0 1 0 0 
Graph 2:
0 1 0 1 1 1 
0 1 0 1 0 0 
0 0 1 1 0 1 
0 1 1 1 0 0 
0 0 0 0 0 1 
0 1 0 1 0 0 
Solution: 0 0
Gbest: 0.000000
Expectation: -14.137358
Final Parameters:
Gammas:
[ 3.074794 3.217643 2.967238 3.005986 3.120593 ]
Betas:
[ 1.549225 1.983109 2.004224 1.656129 1.030412 0.670115 ]
Aggregate results:
[ -1 11 5 7 15 13 9 21 19 3 17 23 35 ]
[ 0.029964 0.110401 0.042510 0.064165 0.175032 0.181965 0.142530 0.030169 0.054383 0.027012 0.087291 0.010384 0.044194 ]
5
Num Evals 600
GenUC: 2.659404e-04
GenUB: 2.003872e-04
Optimisation 1.401112e+00
Total Time: 1.403987e+00
2 Flipped
Graph 1:
0 1 0 1 1 1 
0 1 0 1 0 0 
0 0 1 1 0 1 
0 1 1 1 0 0 
0 0 0 0 0 1 
0 1 0 1 0 0 
Graph 2:
1 1 1 0 1 0 
0 0 1 0 1 0 
1 0 1 1 0 0 
0 0 1 1 1 0 
1 0 0 0 0 0 
0 0 1 0 1 0 
Solution: -6 158
Gbest: -10.000000
Expectation: -14.149083
Final Parameters:
Gammas:
[ 3.198749 3.161634 3.082074 3.159829 2.922003 ]
Betas:
[ 1.503135 0.962486 1.515592 1.351463 2.061775 0.171958 ]
Aggregate results:
[ 17 21 15 13 23 9 11 19 25 5 7 35 ]
[ 0.103796 0.008002 0.182334 0.265767 0.005632 0.130735 0.191042 0.026947 0.000774 0.028400 0.036944 0.019628 ]
5
Num Evals 1200
GenUC: 1.281010e-04
GenUB: 1.495352e-04
Optimisation 1.289419e+00
Total Time: 1.291832e+00
3 Add 6
Graph 1:
0 1 0 1 1 1 
0 1 0 1 0 0 
0 0 1 1 0 1 
0 1 1 1 0 0 
0 0 0 0 0 1 
0 1 0 1 0 0 
Graph 2:
0 1 0 1 1 1 
0 1 0 1 1 0 
0 0 1 1 0 1 
1 1 1 1 1 0 
0 1 0 0 0 1 
0 1 0 1 1 1 
Solution: -6 0
Gbest: -14.000000
Expectation: -19.658924
Final Parameters:
Gammas:
[ 2.722396 3.229234 3.411432 3.338127 3.163764 ]
Betas:
[ 1.550276 0.640638 1.526654 1.374380 1.614914 1.335401 ]
Aggregate results:
[ 5 13 15 11 19 17 23 9 21 25 27 29 35 ]
[ 0.007381 0.191152 0.161045 0.109932 0.108214 0.130602 0.039932 0.025026 0.055247 0.005625 0.000263 0.001853 0.163729 ]
5
Num Evals 1800
GenUC: 1.356618e-04
GenUB: 1.677078e-04
Optimisation 1.338894e+00
Total Time: 1.341357e+00
4 Rem 6
Graph 1:
0 1 0 1 1 1 
0 1 0 1 0 0 
0 0 1 1 0 1 
0 1 1 1 0 0 
0 0 0 0 0 1 
0 1 0 1 0 0 
Graph 2:
0 1 0 0 0 1 
0 0 0 1 0 0 
0 0 1 0 0 1 
0 0 1 1 0 0 
0 0 0 0 0 1 
0 1 0 1 0 0 
Solution: -5 0
Gbest: -5.000000
Expectation: -14.562776
Final Parameters:
Gammas:
[ 3.045661 3.238632 2.930938 2.885234 3.142523 ]
Betas:
[ 1.698798 1.516157 2.490890 1.334765 1.725688 1.629317 ]
Aggregate results:
[ 4 10 14 12 18 16 6 8 20 22 35 ]
[ 0.026507 0.249568 0.238874 0.133032 0.052633 0.123261 0.039053 0.059295 0.021317 0.000788 0.055673 ]
5
Num Evals 2400
GenUC: 1.199468e-04
GenUB: 1.684860e-04
Optimisation 1.503425e+00
Total Time: 1.506302e+00
5 Add/Rem 6
Graph 1:
0 1 0 1 1 1 
0 1 0 1 0 0 
0 0 1 1 0 1 
0 1 1 1 0 0 
0 0 0 0 0 1 
0 1 0 1 0 0 
Graph 2:
0 0 0 1 1 1 
0 1 1 1 0 1 
0 0 0 0 0 0 
0 1 1 1 1 1 
0 0 1 0 0 1 
0 1 0 0 0 0 
Solution: -10 0
Gbest: -14.000000
Expectation: -16.834484
Final Parameters:
Gammas:
[ 3.199586 3.181299 3.150141 3.185610 3.140124 ]
Betas:
[ 1.391102 0.884819 1.484193 1.242189 1.557176 0.881306 ]
Aggregate results:
[ 9 17 15 13 11 19 21 23 25 35 ]
[ 0.033725 0.194408 0.262186 0.167037 0.096548 0.157203 0.056298 0.020686 0.000198 0.011711 ]
5
Num Evals 3000
GenUC: 1.291666e-04
GenUB: 1.623899e-04
Optimisation 1.290801e+00
Total Time: 1.293153e+00
