Clock Speed: 3.689281
Num threads: 4
Trotterisation: 3
Graph Size: 6
Num Qubits: 10
Space Dimension: 1024
Run-Type: 0
Num_samples: 10
1 Isomorphic
Graph 1:
0 1 0 1 0 0 
0 0 1 1 1 1 
1 0 0 0 0 0 
0 1 1 1 0 1 
0 1 1 1 1 0 
0 1 1 0 1 0 
Graph 2:
0 1 0 1 0 0 
0 0 1 1 1 1 
1 0 0 0 0 0 
0 1 1 1 0 1 
0 1 1 1 1 0 
0 1 1 0 1 0 
Solution: 0 0
Gbest: -4.000000
Expectation: -18.744756
Final Parameters:
Gammas:
[ 3.927552 2.602559 3.087031 ]
Betas:
[ 2.798104 0.055851 2.232650 1.348782 ]
Aggregate results:
[ -1 15 11 13 17 19 5 21 7 9 23 3 25 27 35 ]
[ 0.000987 0.225080 0.025423 0.097177 0.234894 0.141560 0.006129 0.082689 0.017298 0.041204 0.030068 0.004422 0.007052 0.000880 0.085139 ]
5
Num Evals 600
GenUC: 2.545694e-04
GenUB: 2.018572e-04
Optimisation 9.492363e-01
Total Time: 9.512260e-01
2 Flipped
Graph 1:
0 1 0 1 0 0 
0 0 1 1 1 1 
1 0 0 0 0 0 
0 1 1 1 0 1 
0 1 1 1 1 0 
0 1 1 0 1 0 
Graph 2:
0 0 1 0 1 0 
1 1 1 1 0 0 
0 0 0 0 0 1 
1 0 1 1 1 0 
0 1 1 1 1 0 
0 1 0 1 1 0 
Solution: -4 638
Gbest: -12.000000
Expectation: -17.591428
Final Parameters:
Gammas:
[ 5.427432 3.933470 3.094081 ]
Betas:
[ 1.525679 3.141593 2.487010 0.924260 ]
Aggregate results:
[ 15 13 17 11 9 21 23 19 25 7 5 27 3 35 ]
[ 0.237214 0.130045 0.213659 0.074233 0.016468 0.069887 0.039702 0.157874 0.012212 0.014671 0.005046 0.000999 0.002330 0.025660 ]
5
Num Evals 1200
GenUC: 1.304830e-04
GenUB: 1.505400e-04
Optimisation 1.086764e+00
Total Time: 1.088967e+00
3 Add 6
Graph 1:
0 1 0 1 0 0 
0 0 1 1 1 1 
1 0 0 0 0 0 
0 1 1 1 0 1 
0 1 1 1 1 0 
0 1 1 0 1 0 
Graph 2:
1 1 0 1 0 0 
0 0 1 1 1 1 
1 0 0 1 0 1 
0 1 1 1 0 1 
0 1 1 1 1 0 
1 1 1 1 1 1 
Solution: -6 0
Gbest: -14.000000
Expectation: -18.874270
Final Parameters:
Gammas:
[ 3.538152 3.024756 3.142278 ]
Betas:
[ 0.769093 2.769390 1.695171 1.631365 ]
Aggregate results:
[ 5 19 13 11 15 17 9 23 21 25 7 27 35 ]
[ 0.000774 0.047643 0.265451 0.088514 0.239657 0.110018 0.020062 0.033840 0.030501 0.006641 0.005814 0.002323 0.148761 ]
5
Num Evals 1800
GenUC: 1.303345e-04
GenUB: 1.674890e-04
Optimisation 9.878083e-01
Total Time: 9.897435e-01
4 Rem 6
Graph 1:
0 1 0 1 0 0 
0 0 1 1 1 1 
1 0 0 0 0 0 
0 1 1 1 0 1 
0 1 1 1 1 0 
0 1 1 0 1 0 
Graph 2:
0 0 0 1 0 0 
0 0 1 0 1 1 
1 0 0 0 0 0 
0 1 1 0 0 1 
0 0 0 1 0 0 
0 1 1 0 1 0 
Solution: -6 0
Gbest: -10.000000
Expectation: -17.474669
Final Parameters:
Gammas:
[ 3.499908 3.063251 3.689859 ]
Betas:
[ 1.610692 2.708299 1.821992 1.558436 ]
Aggregate results:
[ 5 17 13 15 11 21 19 9 23 7 25 35 ]
[ 0.005475 0.080294 0.291097 0.236740 0.118363 0.026223 0.029257 0.049601 0.009880 0.023762 0.002737 0.126570 ]
5
Num Evals 2400
GenUC: 1.168243e-04
GenUB: 1.687953e-04
Optimisation 1.064942e+00
Total Time: 1.066968e+00
5 Add/Rem 6
Graph 1:
0 1 0 1 0 0 
0 0 1 1 1 1 
1 0 0 0 0 0 
0 1 1 1 0 1 
0 1 1 1 1 0 
0 1 1 0 1 0 
Graph 2:
1 1 0 0 0 1 
1 0 0 1 0 1 
1 0 0 0 1 0 
0 1 1 1 0 0 
1 1 1 1 1 0 
1 1 1 0 0 0 
Solution: -9 88
Gbest: -13.000000
Expectation: -19.766564
Final Parameters:
Gammas:
[ 3.367419 3.534733 3.590304 ]
Betas:
[ 1.625391 2.848788 1.891952 1.542007 ]
Aggregate results:
[ 10 14 12 18 20 16 22 24 8 35 ]
[ 0.034244 0.073653 0.061664 0.262886 0.194371 0.178005 0.078762 0.028415 0.011451 0.076550 ]
5
Num Evals 3000
GenUC: 1.386271e-04
GenUB: 1.722834e-04
Optimisation 1.083591e+00
Total Time: 1.085677e+00
