Clock Speed: 3.688745
Num threads: 4
Trotterisation: 2
Num Qubits: 7
Space Dimension: 128
Run-Type: 0
Num_samples: 5
Optimiser Method: 0
1 Isomorphic
Graph 1:
0 1 1 0 0 
1 0 1 0 0 
1 1 0 1 1 
0 0 1 0 1 
0 0 1 1 0 
Graph 2:
0 1 1 0 0 
1 0 1 0 0 
1 1 0 1 1 
0 0 1 0 1 
0 0 1 1 0 
Solution: 25 0
Classic Expectation: 15.400000
Initial Expecation: 14.437500
Gbest: 25.000000
Expectation: 17.595688
Final Parameters:
Gammas:
[ 3.144466 4.527322 ]
Betas:
[ 0.064562 2.849268 ]
Aggregate results:
[ 25 17 13 0 ]
[ 0.208117 0.544676 0.241021 0.006186 ]
5
Num Evals 2000
GenUC: 4.099304e-05
GenUB: 1.226787e-05
Optimisation 1.367512e+01
Total Time: 1.367519e+01
2 Flipped
Graph 1:
0 1 1 0 0 
1 0 1 0 0 
1 1 0 1 1 
0 0 1 0 1 
0 0 1 1 0 
Graph 2:
0 0 1 1 0 
0 0 1 0 1 
1 1 0 1 1 
1 0 1 0 0 
0 1 1 0 0 
Solution: 25 14
Classic Expectation: 15.400000
Initial Expecation: 14.437500
Gbest: 17.000000
Expectation: 17.921281
Final Parameters:
Gammas:
[ 1.055320 0.336155 ]
Betas:
[ 0.064651 2.792500 ]
Aggregate results:
[ 17 13 25 0 ]
[ 0.635615 0.151608 0.205797 0.006980 ]
5
Num Evals 2000
GenUC: 4.454107e-05
GenUB: 3.129026e-06
Optimisation 1.443084e+01
Total Time: 1.443089e+01
3 Add 5
Graph 1:
0 1 1 0 0 
1 0 1 0 0 
1 1 0 1 1 
0 0 1 0 1 
0 0 1 1 0 
Graph 2:
1 1 1 1 1 
1 1 1 1 0 
1 1 1 1 1 
1 1 1 0 1 
1 0 1 1 0 
Solution: 16 0
Classic Expectation: 13.600000
Initial Expecation: 12.750000
Gbest: 16.000000
Expectation: 15.503867
Final Parameters:
Gammas:
[ 1.048778 5.210608 ]
Betas:
[ 0.290427 2.674502 ]
Aggregate results:
[ 16 12 0 ]
[ 0.889004 0.106650 0.004346 ]
5
Num Evals 2000
GenUC: 4.469130e-05
GenUB: 2.865534e-06
Optimisation 1.227094e+01
Total Time: 1.227099e+01
4 Rem 5
Graph 1:
0 1 1 0 0 
1 0 1 0 0 
1 1 0 1 1 
0 0 1 0 1 
0 0 1 1 0 
Graph 2:
0 0 0 0 0 
0 0 0 0 0 
0 0 0 0 0 
0 0 0 0 1 
0 0 0 1 0 
Solution: 15 0
Classic Expectation: 13.400000
Initial Expecation: 12.562500
Gbest: 15.000000
Expectation: 14.682020
Final Parameters:
Gammas:
[ 1.146720 2.516722 ]
Betas:
[ 1.311429 1.598808 ]
Aggregate results:
[ 15 11 0 ]
[ 0.935869 0.058544 0.005587 ]
5
Num Evals 2000
GenUC: 4.325824e-05
GenUB: 2.876099e-06
Optimisation 1.240798e+01
Total Time: 1.240803e+01
5 Add/Rem 5
Graph 1:
0 1 1 0 0 
1 0 1 0 0 
1 1 0 1 1 
0 0 1 0 1 
0 0 1 1 0 
Graph 2:
0 0 0 1 1 
0 1 0 1 1 
0 0 1 0 0 
1 1 0 0 1 
1 1 0 1 0 
Solution: 17 8
Classic Expectation: 13.000000
Initial Expecation: 12.187500
Gbest: 17.000000
Expectation: 14.591549
Final Parameters:
Gammas:
[ 1.041611 5.227630 ]
Betas:
[ 0.465421 2.823203 ]
Aggregate results:
[ 5 13 17 9 0 ]
[ 0.035944 0.229968 0.621623 0.094960 0.017504 ]
5
Num Evals 2000
GenUC: 4.324063e-05
GenUB: 3.067405e-06
Optimisation 1.263215e+01
Total Time: 1.263220e+01
