Clock Speed: 3.689050
Num threads: 4
Trotterisation: 2
Graph Size: 7
Num Qubits: 13
Space Dimension: 8192
Run-Type: 0
Num_samples: 10
1 Isomorphic
Graph 1:
1 0 1 0 1 0 1 
1 0 1 0 0 0 1 
0 0 1 0 1 0 0 
1 0 1 1 1 0 1 
1 1 1 1 0 0 0 
1 0 1 0 0 1 1 
1 1 1 1 0 1 0 
Graph 2:
1 0 1 0 1 0 1 
1 0 1 0 0 0 1 
0 0 1 0 1 0 0 
1 0 1 1 1 0 1 
1 1 1 1 0 0 0 
1 0 1 0 0 1 1 
1 1 1 1 0 1 0 
Solution: 0 0
Gbest: -16.000000
Expectation: -25.563650
Final Parameters:
Gammas:
[ 3.174494 3.216070 ]
Betas:
[ 1.275677 0.896569 2.594759 ]
Aggregate results:
[ -1 9 13 15 3 19 11 7 5 23 21 17 27 29 25 31 33 48 ]
[ 0.000423 0.003782 0.009448 0.038801 0.001006 0.079517 0.002841 0.001335 0.000518 0.180548 0.120437 0.046040 0.145790 0.078426 0.215428 0.021829 0.003550 0.050280 ]
3
Num Evals 478
GenUC: 1.370905e-03
GenUB: 1.986052e-03
Optimisation 3.623069e+00
Total Time: 3.633710e+00
2 Flipped
Graph 1:
1 0 1 0 1 0 1 
1 0 1 0 0 0 1 
0 0 1 0 1 0 0 
1 0 1 1 1 0 1 
1 1 1 1 0 0 0 
1 0 1 0 0 1 1 
1 1 1 1 0 1 0 
Graph 2:
1 0 1 0 1 0 1 
1 0 0 0 1 0 1 
0 0 1 0 1 0 0 
1 0 1 1 1 0 1 
0 0 0 1 1 1 1 
1 1 0 0 1 0 1 
0 1 0 1 1 1 1 
Solution: -12 61
Gbest: -20.000000
Expectation: -24.982996
Final Parameters:
Gammas:
[ 3.147294 3.204132 ]
Betas:
[ 1.567912 0.588882 2.567628 ]
Aggregate results:
[ 15 21 23 19 27 25 17 11 13 29 31 33 35 48 ]
[ 0.019883 0.172516 0.205500 0.098538 0.126331 0.200545 0.051900 0.000324 0.005987 0.061061 0.021156 0.004393 0.002019 0.029848 ]
5
Num Evals 1178
GenUC: 1.171199e-03
GenUB: 1.872469e-03
Optimisation 5.332951e+00
Total Time: 5.343131e+00
3 Add 7
Graph 1:
1 0 1 0 1 0 1 
1 0 1 0 0 0 1 
0 0 1 0 1 0 0 
1 0 1 1 1 0 1 
1 1 1 1 0 0 0 
1 0 1 0 0 1 1 
1 1 1 1 0 1 0 
Graph 2:
1 0 1 0 1 1 1 
1 0 1 1 0 0 1 
0 0 1 0 1 1 0 
1 0 1 1 1 1 1 
1 1 1 1 0 0 1 
1 0 1 0 0 1 1 
1 1 1 1 0 1 1 
Solution: -6 0
Gbest: -22.000000
Expectation: -24.516508
Final Parameters:
Gammas:
[ 3.148127 3.203917 ]
Betas:
[ 1.640133 0.526375 2.601556 ]
Aggregate results:
[ 5 15 19 21 9 13 25 23 17 27 29 11 31 33 35 48 ]
[ 0.000200 0.023806 0.116373 0.190132 0.000206 0.009324 0.195623 0.218049 0.052757 0.099678 0.042069 0.001384 0.015469 0.003165 0.000481 0.031282 ]
3
Num Evals 1724
GenUC: 1.130644e-03
GenUB: 1.759069e-03
Optimisation 4.128701e+00
Total Time: 4.143961e+00
4 Rem 7
Graph 1:
1 0 1 0 1 0 1 
1 0 1 0 0 0 1 
0 0 1 0 1 0 0 
1 0 1 1 1 0 1 
1 1 1 1 0 0 0 
1 0 1 0 0 1 1 
1 1 1 1 0 1 0 
Graph 2:
1 0 1 0 1 0 1 
1 0 1 0 0 0 0 
0 0 1 0 1 0 0 
1 0 1 1 1 0 1 
0 1 1 1 0 0 0 
1 0 1 0 0 1 0 
1 0 0 1 0 0 0 
Solution: -6 0
Gbest: -18.000000
Expectation: -26.774528
Final Parameters:
Gammas:
[ 3.095712 3.114789 ]
Betas:
[ 1.494920 1.561457 2.554119 ]
Aggregate results:
[ 5 15 17 19 9 23 25 21 13 11 27 29 31 33 35 7 48 ]
[ 0.000000 0.011856 0.045247 0.067392 0.001008 0.177536 0.185178 0.116918 0.003908 0.002629 0.178690 0.107041 0.025871 0.007160 0.000016 0.000387 0.069163 ]
3
Num Evals 2185
GenUC: 2.195077e-03
GenUB: 2.987492e-03
Optimisation 3.717982e+00
Total Time: 3.731311e+00
5 Add/Rem 7
Graph 1:
1 0 1 0 1 0 1 
1 0 1 0 0 0 1 
0 0 1 0 1 0 0 
1 0 1 1 1 0 1 
1 1 1 1 0 0 0 
1 0 1 0 0 1 1 
1 1 1 1 0 1 0 
Graph 2:
1 0 1 0 1 1 0 
1 0 1 0 0 1 1 
1 0 0 0 1 1 0 
1 0 1 1 0 0 1 
1 1 1 0 1 0 1 
0 0 1 0 0 0 1 
1 1 1 1 0 0 0 
Solution: -11 2043
Gbest: -19.000000
Expectation: -33.853516
Final Parameters:
Gammas:
[ 3.141593 3.141593 ]
Betas:
[ 1.178097 2.412294 1.178097 ]
Aggregate results:
[ 12 20 24 18 30 22 14 28 16 26 32 34 36 10 48 ]
[ 0.003052 0.083374 0.126953 0.045654 0.026001 0.116699 0.006958 0.067017 0.019287 0.110962 0.007813 0.001221 0.000122 0.000122 0.384766 ]
3
Num Evals 2197
GenUC: 1.302633e-03
GenUB: 1.728522e-03
Optimisation 8.804767e-02
Total Time: 9.830992e-02
