Clock Speed: 3.689058
Num threads: 4
Trotterisation: 2
Graph Size: 7
Num Qubits: 13
Space Dimension: 8192
Run-Type: 0
Num_samples: 10
1 Isomorphic
Graph 1:
0 0 1 1 1 0 1 
1 1 0 0 0 0 1 
0 0 0 1 1 0 1 
1 0 0 1 1 1 1 
0 1 0 0 0 0 0 
1 1 1 1 1 1 1 
1 0 0 1 0 1 0 
Graph 2:
0 0 1 1 1 0 1 
1 1 0 0 0 0 1 
0 0 0 1 1 0 1 
1 0 0 1 1 1 1 
0 1 0 0 0 0 0 
1 1 1 1 1 1 1 
1 0 0 1 0 1 0 
Solution: 0 0
Gbest: -24.000000
Expectation: -25.388825
Final Parameters:
Gammas:
[ 3.170886 3.212244 ]
Betas:
[ 1.757925 0.878366 2.587454 ]
Aggregate results:
[ -1 15 13 11 7 9 17 23 19 21 25 29 27 31 35 5 33 37 48 ]
[ 0.000303 0.018957 0.007916 0.003644 0.000877 0.001447 0.042287 0.203662 0.096054 0.166953 0.200833 0.059077 0.119277 0.022361 0.002280 0.000113 0.007090 0.000288 0.046576 ]
3
Num Evals 555
GenUC: 1.789209e-03
GenUB: 2.017020e-03
Optimisation 4.203519e+00
Total Time: 4.214872e+00
2 Flipped
Graph 1:
0 0 1 1 1 0 1 
1 1 0 0 0 0 1 
0 0 0 1 1 0 1 
1 0 0 1 1 1 1 
0 1 0 0 0 0 0 
1 1 1 1 1 1 1 
1 0 0 1 0 1 0 
Graph 2:
1 0 1 1 1 0 0 
1 0 0 0 0 1 1 
1 0 1 1 0 0 0 
1 1 1 1 0 0 1 
0 0 0 0 0 1 0 
1 1 1 1 1 1 1 
0 1 0 1 0 0 1 
Solution: -14 1747
Gbest: -24.000000
Expectation: -25.574207
Final Parameters:
Gammas:
[ 3.149286 3.206809 ]
Betas:
[ 1.465219 0.484514 2.628892 ]
Aggregate results:
[ 17 21 19 25 15 23 27 29 31 33 13 35 48 ]
[ 0.032637 0.156632 0.106434 0.206483 0.009402 0.203325 0.142799 0.077439 0.023328 0.005032 0.000301 0.000245 0.035943 ]
3
Num Evals 1081
GenUC: 1.219507e-03
GenUB: 1.604762e-03
Optimisation 3.828059e+00
Total Time: 3.837828e+00
3 Add 7
Graph 1:
0 0 1 1 1 0 1 
1 1 0 0 0 0 1 
0 0 0 1 1 0 1 
1 0 0 1 1 1 1 
0 1 0 0 0 0 0 
1 1 1 1 1 1 1 
1 0 0 1 0 1 0 
Graph 2:
0 0 1 1 1 0 1 
1 1 1 1 1 0 1 
0 0 0 1 1 0 1 
1 0 0 1 1 1 1 
0 1 0 0 1 0 1 
1 1 1 1 1 1 1 
1 0 0 1 1 1 1 
Solution: -7 0
Gbest: -19.000000
Expectation: -33.648437
Final Parameters:
Gammas:
[ 3.141593 3.141593 ]
Betas:
[ 1.256637 2.507233 1.178097 ]
Aggregate results:
[ 6 16 14 12 20 18 24 22 28 26 30 32 34 48 ]
[ 0.000244 0.020874 0.006226 0.001953 0.090088 0.046143 0.141479 0.127930 0.053711 0.105103 0.016724 0.004395 0.000366 0.384766 ]
3
Num Evals 1093
GenUC: 1.317539e-03
GenUB: 1.773018e-03
Optimisation 8.468464e-02
Total Time: 9.515429e-02
4 Rem 7
Graph 1:
0 0 1 1 1 0 1 
1 1 0 0 0 0 1 
0 0 0 1 1 0 1 
1 0 0 1 1 1 1 
0 1 0 0 0 0 0 
1 1 1 1 1 1 1 
1 0 0 1 0 1 0 
Graph 2:
0 0 0 1 0 0 1 
1 1 0 0 0 0 1 
0 0 0 0 1 0 1 
0 0 0 1 1 0 1 
0 1 0 0 0 0 0 
1 1 0 1 1 1 1 
1 0 0 1 0 0 0 
Solution: -7 0
Gbest: -25.000000
Expectation: -34.175781
Final Parameters:
Gammas:
[ 3.141593 3.141593 ]
Betas:
[ 1.249497 2.412294 1.178097 ]
Aggregate results:
[ 6 16 14 10 18 20 24 22 26 28 30 12 32 36 34 38 8 48 ]
[ 0.000122 0.013794 0.005859 0.000610 0.037476 0.065674 0.136841 0.113525 0.118530 0.074097 0.033936 0.001221 0.010376 0.000610 0.002319 0.000122 0.000122 0.384766 ]
3
Num Evals 1105
GenUC: 1.182928e-03
GenUB: 1.591154e-03
Optimisation 9.196548e-02
Total Time: 1.021371e-01
5 Add/Rem 7
Graph 1:
0 0 1 1 1 0 1 
1 1 0 0 0 0 1 
0 0 0 1 1 0 1 
1 0 0 1 1 1 1 
0 1 0 0 0 0 0 
1 1 1 1 1 1 1 
1 0 0 1 0 1 0 
Graph 2:
0 0 1 1 1 0 1 
1 1 0 0 0 1 0 
0 0 0 1 1 0 1 
0 1 0 1 1 1 0 
0 1 1 0 1 1 1 
1 1 0 1 1 1 1 
1 0 0 0 0 1 1 
Solution: -12 0
Gbest: -20.000000
Expectation: -25.075510
Final Parameters:
Gammas:
[ 3.146206 3.204769 ]
Betas:
[ 2.105901 0.617250 2.549508 ]
Aggregate results:
[ 11 23 21 19 17 25 31 15 13 27 29 33 48 ]
[ 0.000252 0.232518 0.189701 0.095890 0.033794 0.207890 0.015361 0.008436 0.000979 0.122947 0.061845 0.002641 0.027744 ]
3
Num Evals 1602
GenUC: 1.259478e-03
GenUB: 1.757513e-03
Optimisation 3.790787e+00
Total Time: 3.801282e+00
