Clock Speed: 3.689354
Num threads: 4
Trotterisation: 5
Graph Size: 3
Num Qubits: 3
Space Dimension: 8
Run-Type: 0
Num_samples: 10
1 Isomorphic
Graph 1:
0 0 1 
1 0 0 
1 1 0 
Graph 2:
0 0 1 
1 0 0 
1 1 0 
Solution: 0 0
Gbest: 0.000000
Expectation: -0.328225
Final Parameters:
Gammas:
[ 5.941646 3.505838 3.456230 3.079766 2.913666 ]
Betas:
[ 2.205470 1.323251 1.499354 1.634807 1.379971 1.092558 ]
Aggregate results:
[ -1 3 1 8 ]
[ 0.918702 0.043947 0.026246 0.011105 ]
5
Num Evals 300
GenUC: 1.566889e-04
GenUB: 7.711060e-06
Optimisation 9.086612e-02
Total Time: 9.134909e-02
2 Flipped
Graph 1:
0 0 1 
1 0 0 
1 1 0 
Graph 2:
1 0 0 
0 0 1 
0 1 1 
Solution: -4 1
Gbest: -4.000000
Expectation: -4.117672
Final Parameters:
Gammas:
[ 4.102650 5.100519 3.816428 2.704187 2.700028 ]
Betas:
[ 1.822783 2.587861 1.624004 1.904691 1.414698 1.242224 ]
Aggregate results:
[ 5 3 8 ]
[ 0.053718 0.944235 0.002047 ]
5
Num Evals 600
GenUC: 6.645394e-06
GenUB: 5.272741e-06
Optimisation 1.066855e-01
Total Time: 1.070168e-01
3 Add 3
Graph 1:
0 0 1 
1 0 0 
1 1 0 
Graph 2:
0 1 1 
1 0 1 
1 1 0 
Solution: -2 0
Gbest: -2.000000
Expectation: -2.000000
Final Parameters:
Gammas:
[ 3.136753 4.643198 2.317952 3.149505 2.933175 ]
Betas:
[ 1.556036 1.916930 1.569111 1.445629 2.076691 1.535639 ]
Aggregate results:
[ 1 8 ]
[ 1.000000 0.000000 ]
3
Num Evals 859
GenUC: 8.320203e-06
GenUB: 5.748065e-06
Optimisation 7.997977e-02
Total Time: 8.030295e-02
4 Rem 3
Graph 1:
0 0 1 
1 0 0 
1 1 0 
Graph 2:
0 0 0 
0 0 0 
1 1 0 
Solution: -2 0
Gbest: -2.000000
Expectation: -2.000000
Final Parameters:
Gammas:
[ 5.059305 3.514083 4.282316 4.946554 3.092791 ]
Betas:
[ 2.388108 1.208395 1.409505 2.384392 1.811070 1.305432 ]
Aggregate results:
[ 1 3 8 ]
[ 1.000000 0.000000 0.000000 ]
5
Num Evals 1159
GenUC: 6.329035e-06
GenUB: 5.648355e-06
Optimisation 9.260907e-02
Total Time: 9.293178e-02
5 Add/Rem 3
Graph 1:
0 0 1 
1 0 0 
1 1 0 
Graph 2:
0 1 0 
0 1 0 
1 0 0 
Solution: -3 1
Gbest: -3.000000
Expectation: -3.208244
Final Parameters:
Gammas:
[ 4.235485 2.287016 3.038375 3.856761 2.608772 ]
Betas:
[ 2.636395 2.677766 1.557556 0.800622 1.361766 1.950823 ]
Aggregate results:
[ 4 2 6 8 ]
[ 0.054266 0.925326 0.011370 0.009039 ]
5
Num Evals 1459
GenUC: 6.158312e-06
GenUB: 5.205860e-06
Optimisation 9.551355e-02
Total Time: 9.584803e-02
