Clock Speed: 3.688896
Num threads: 4
Trotterisation: 5
Graph Size: 8
Num Qubits: 16
Space Dimension: 65536
Run-Type: 0
Num_samples: 10
1 Isomorphic
Graph 1:
1 1 1 0 1 0 0 1 
1 1 0 1 1 1 0 0 
0 0 1 1 0 1 0 1 
0 1 1 1 1 0 0 0 
0 0 0 1 0 1 1 1 
0 0 0 1 0 1 0 0 
1 1 0 0 0 0 0 1 
0 1 0 1 0 1 0 0 
Graph 2:
1 1 1 0 1 0 0 1 
1 1 0 1 1 1 0 0 
0 0 1 1 0 1 0 1 
0 1 1 1 1 0 0 0 
0 0 0 1 0 1 1 1 
0 0 0 1 0 1 0 0 
1 1 0 0 0 0 0 1 
0 1 0 1 0 1 0 0 
Solution: 0 0
Gbest: -30.000000
Expectation: -39.307878
Final Parameters:
Gammas:
[ 6.139316 3.757623 1.815258 4.385204 5.120957 ]
Betas:
[ 0.577641 0.690442 2.011966 1.608511 1.242341 0.134081 ]
Aggregate results:
[ -1 11 17 9 15 21 27 19 33 23 25 13 31 29 5 35 37 7 41 39 43 45 47 63 ]
[ 0.000046 0.000233 0.002136 0.000046 0.000859 0.012474 0.104565 0.004773 0.115771 0.027171 0.064244 0.000445 0.144709 0.132466 0.000003 0.081029 0.040976 0.000006 0.005963 0.015905 0.001255 0.000314 0.000027 0.244584 ]
5
Num Evals 800
GenUC: 4.297706e-03
GenUB: 1.751509e-02
Optimisation 3.132717e+02
Total Time: 3.135912e+02
2 Flipped
Graph 1:
1 1 1 0 1 0 0 1 
1 1 0 1 1 1 0 0 
0 0 1 1 0 1 0 1 
0 1 1 1 1 0 0 0 
0 0 0 1 0 1 1 1 
0 0 0 1 0 1 0 0 
1 1 0 0 0 0 0 1 
0 1 0 1 0 1 0 0 
Graph 2:
1 0 0 1 0 1 1 1 
0 0 1 1 1 0 1 1 
1 0 1 0 1 1 0 0 
0 0 0 1 1 1 1 0 
1 1 1 0 1 0 0 0 
0 0 1 0 1 0 0 0 
1 0 0 0 0 0 1 1 
0 0 1 0 1 0 1 0 
Solution: -16 3932
Gbest: -20.000000
Expectation: -35.814481
Final Parameters:
Gammas:
[ 6.239363 4.746929 0.009158 2.777823 3.306574 ]
Betas:
[ 0.741628 2.151177 0.680330 2.046147 0.002242 1.778604 ]
Aggregate results:
[ 39 35 33 31 29 27 37 25 23 21 17 19 41 43 15 47 45 63 ]
[ 0.018004 0.088241 0.137313 0.161451 0.155927 0.121180 0.047182 0.072009 0.035364 0.013523 0.000494 0.003651 0.007254 0.001547 0.000098 0.000073 0.000412 0.136275 ]
5
Num Evals 1600
GenUC: 2.607179e-03
GenUB: 1.687852e-02
Optimisation 2.967686e+02
Total Time: 2.971048e+02
3 Add 8
Graph 1:
1 1 1 0 1 0 0 1 
1 1 0 1 1 1 0 0 
0 0 1 1 0 1 0 1 
0 1 1 1 1 0 0 0 
0 0 0 1 0 1 1 1 
0 0 0 1 0 1 0 0 
1 1 0 0 0 0 0 1 
0 1 0 1 0 1 0 0 
Graph 2:
1 1 1 0 1 1 1 1 
1 1 0 1 1 1 0 0 
1 0 1 1 0 1 0 1 
0 1 1 1 1 0 0 0 
0 0 1 1 0 1 1 1 
0 1 0 1 0 1 0 0 
1 1 0 0 0 0 0 1 
1 1 0 1 0 1 0 0 
Solution: -6 0
Gbest: -24.000000
Expectation: -38.359636
Final Parameters:
Gammas:
[ 3.380392 4.753551 4.362296 2.539007 2.791848 ]
Betas:
[ 0.821011 2.408345 1.733322 1.792021 0.107174 3.128695 ]
Aggregate results:
[ 5 13 17 21 25 23 15 19 29 33 35 27 31 11 37 39 41 43 45 47 63 ]
[ 0.000015 0.000100 0.001307 0.009485 0.053380 0.023129 0.000428 0.003486 0.136385 0.138972 0.099825 0.094883 0.150882 0.000136 0.054698 0.023991 0.007144 0.001695 0.000229 0.000185 0.199646 ]
5
Num Evals 2400
GenUC: 2.889249e-03
GenUB: 1.677552e-02
Optimisation 3.143664e+02
Total Time: 3.147835e+02
4 Rem 8
Graph 1:
1 1 1 0 1 0 0 1 
1 1 0 1 1 1 0 0 
0 0 1 1 0 1 0 1 
0 1 1 1 1 0 0 0 
0 0 0 1 0 1 1 1 
0 0 0 1 0 1 0 0 
1 1 0 0 0 0 0 1 
0 1 0 1 0 1 0 0 
Graph 2:
1 1 1 0 1 0 0 0 
1 1 0 1 1 0 0 0 
0 0 1 1 0 1 0 0 
0 1 0 1 1 0 0 0 
0 0 0 1 0 1 0 0 
0 0 0 1 0 1 0 0 
1 1 0 0 0 0 0 1 
0 0 0 0 0 1 0 0 
Solution: -8 0
Gbest: -26.000000
Expectation: -37.697056
Final Parameters:
Gammas:
[ 5.188582 4.208965 4.677656 2.810358 0.062568 ]
Betas:
[ 0.369758 0.176484 0.793870 0.409494 2.859712 1.726150 ]
Aggregate results:
[ 7 13 19 21 23 25 17 15 29 27 11 31 33 35 37 39 41 43 63 ]
[ 0.000037 0.000201 0.003720 0.014244 0.039089 0.078204 0.001046 0.000358 0.166757 0.131069 0.000026 0.150704 0.108203 0.060127 0.023207 0.006428 0.001043 0.000299 0.215239 ]
5
Num Evals 3200
GenUC: 2.915122e-03
GenUB: 1.675876e-02
Optimisation 3.018678e+02
Total Time: 3.021843e+02
5 Add/Rem 8
Graph 1:
1 1 1 0 1 0 0 1 
1 1 0 1 1 1 0 0 
0 0 1 1 0 1 0 1 
0 1 1 1 1 0 0 0 
0 0 0 1 0 1 1 1 
0 0 0 1 0 1 0 0 
1 1 0 0 0 0 0 1 
0 1 0 1 0 1 0 0 
Graph 2:
1 1 0 0 1 1 1 1 
1 1 1 1 1 1 1 0 
0 0 1 1 0 0 0 0 
0 1 1 1 0 0 0 0 
0 0 1 1 1 1 0 1 
0 0 0 1 0 1 0 0 
1 0 0 0 0 0 0 1 
0 1 1 1 0 0 0 0 
Solution: -12 395
Gbest: -24.000000
Expectation: -38.411869
Final Parameters:
Gammas:
[ 3.080135 1.237082 2.725221 2.343688 4.113367 ]
Betas:
[ 2.036024 2.469392 3.059890 1.957801 2.917197 0.157977 ]
Aggregate results:
[ 13 19 25 17 21 23 27 29 31 33 15 35 39 37 11 41 43 45 63 ]
[ 0.000357 0.004115 0.052223 0.001628 0.009867 0.023985 0.087346 0.139066 0.157112 0.127574 0.000210 0.104484 0.019619 0.064499 0.000061 0.005361 0.001166 0.000035 0.201291 ]
5
Num Evals 4000
GenUC: 2.906526e-03
GenUB: 1.686966e-02
Optimisation 3.119068e+02
Total Time: 3.123818e+02
