Clock Speed: 3.689365
Num threads: 4
Trotterisation: 5
Graph Size: 8
Num Qubits: 16
Space Dimension: 65536
Run-Type: 0
Num_samples: 10
1 Isomorphic
Graph 1:
0 0 1 0 0 1 1 1 
1 0 0 0 0 1 0 0 
0 1 0 1 1 0 0 0 
1 1 0 1 1 0 1 1 
1 1 1 1 0 0 1 1 
0 0 0 1 1 0 0 0 
0 0 0 1 1 1 1 0 
0 0 1 1 1 0 1 0 
Graph 2:
0 0 1 0 0 1 1 1 
1 0 0 0 0 1 0 0 
0 1 0 1 1 0 0 0 
1 1 0 1 1 0 1 1 
1 1 1 1 0 0 1 1 
0 0 0 1 1 0 0 0 
0 0 0 1 1 1 1 0 
0 0 1 1 1 0 1 0 
Solution: 0 0
Gbest: -30.000000
Expectation: -38.803113
Final Parameters:
Gammas:
[ 3.080146 4.829149 2.210638 2.577993 3.693889 ]
Betas:
[ 2.821093 0.517230 0.206689 1.757448 1.780827 0.380853 ]
Aggregate results:
[ -1 9 13 15 19 21 23 17 37 27 33 35 31 25 29 3 39 41 11 43 7 45 63 ]
[ 0.000020 0.000096 0.000408 0.000972 0.006535 0.017885 0.043749 0.002303 0.044741 0.106654 0.105736 0.074258 0.127621 0.075937 0.127646 0.000008 0.018758 0.006845 0.000195 0.002082 0.000013 0.000635 0.236903 ]
5
Num Evals 800
GenUC: 3.561353e-03
GenUB: 1.753997e-02
Optimisation 3.043789e+02
Total Time: 3.047300e+02
2 Flipped
Graph 1:
0 0 1 0 0 1 1 1 
1 0 0 0 0 1 0 0 
0 1 0 1 1 0 0 0 
1 1 0 1 1 0 1 1 
1 1 1 1 0 0 1 1 
0 0 0 1 1 0 0 0 
0 0 0 1 1 1 1 0 
0 0 1 1 1 0 1 0 
Graph 2:
1 1 1 0 0 1 0 0 
0 0 1 0 0 0 0 1 
0 0 0 1 1 0 1 0 
1 1 0 1 1 0 1 1 
1 1 0 0 1 1 1 1 
0 0 0 1 1 0 0 0 
0 1 1 1 1 0 0 0 
0 1 0 1 1 1 0 0 
Solution: -12 394
Gbest: -26.000000
Expectation: -38.708960
Final Parameters:
Gammas:
[ 3.162366 0.108583 1.781741 4.412913 3.190476 ]
Betas:
[ 0.384115 3.093695 1.891167 3.097888 2.888079 0.670845 ]
Aggregate results:
[ 21 17 23 27 25 29 33 31 35 39 37 41 43 45 11 13 15 19 47 63 ]
[ 0.009219 0.000888 0.027266 0.105288 0.064083 0.137390 0.122975 0.149239 0.081781 0.022195 0.048513 0.006862 0.001350 0.000299 0.000014 0.000078 0.000365 0.002745 0.000037 0.219415 ]
5
Num Evals 1600
GenUC: 2.759676e-03
GenUB: 1.679511e-02
Optimisation 2.954417e+02
Total Time: 2.958893e+02
3 Add 8
Graph 1:
0 0 1 0 0 1 1 1 
1 0 0 0 0 1 0 0 
0 1 0 1 1 0 0 0 
1 1 0 1 1 0 1 1 
1 1 1 1 0 0 1 1 
0 0 0 1 1 0 0 0 
0 0 0 1 1 1 1 0 
0 0 1 1 1 0 1 0 
Graph 2:
0 0 1 0 0 1 1 1 
1 0 1 0 0 1 0 0 
0 1 0 1 1 0 1 1 
1 1 0 1 1 0 1 1 
1 1 1 1 1 1 1 1 
0 0 0 1 1 0 0 1 
0 0 0 1 1 1 1 1 
1 0 1 1 1 0 1 0 
Solution: -8 0
Gbest: -24.000000
Expectation: -38.980961
Final Parameters:
Gammas:
[ 0.143339 5.881186 5.183703 5.556576 3.203417 ]
Betas:
[ 2.471333 1.876376 1.241651 1.540292 1.427137 2.989071 ]
Aggregate results:
[ 7 15 17 21 19 23 25 29 31 37 27 35 33 39 9 41 43 13 45 11 63 ]
[ 0.000015 0.000659 0.001491 0.013538 0.004816 0.037260 0.071573 0.137273 0.133294 0.043169 0.105694 0.075121 0.114474 0.015913 0.000033 0.005167 0.000884 0.000154 0.000154 0.000080 0.239239 ]
5
Num Evals 2400
GenUC: 2.874226e-03
GenUB: 1.685715e-02
Optimisation 3.108333e+02
Total Time: 3.112975e+02
4 Rem 8
Graph 1:
0 0 1 0 0 1 1 1 
1 0 0 0 0 1 0 0 
0 1 0 1 1 0 0 0 
1 1 0 1 1 0 1 1 
1 1 1 1 0 0 1 1 
0 0 0 1 1 0 0 0 
0 0 0 1 1 1 1 0 
0 0 1 1 1 0 1 0 
Graph 2:
0 0 1 0 0 1 0 1 
1 0 0 0 0 1 0 0 
0 1 0 1 1 0 0 0 
1 1 0 1 1 0 0 1 
0 1 1 0 0 0 0 1 
0 0 0 0 1 0 0 0 
0 0 0 1 1 1 1 0 
0 0 1 1 1 0 0 0 
Solution: -7 0
Gbest: -25.000000
Expectation: -38.645551
Final Parameters:
Gammas:
[ 3.168527 2.020374 0.664232 2.277189 3.424416 ]
Betas:
[ 0.488541 1.121451 2.962904 0.141296 3.039070 0.078040 ]
Aggregate results:
[ 6 14 18 22 24 26 20 38 30 34 32 28 36 16 10 42 40 12 44 46 63 ]
[ 0.000034 0.000178 0.001178 0.028646 0.068035 0.115943 0.005158 0.023248 0.116708 0.094324 0.100745 0.137060 0.058882 0.000306 0.000017 0.001785 0.008827 0.000145 0.000367 0.000182 0.238232 ]
5
Num Evals 3200
GenUC: 2.925021e-03
GenUB: 1.684396e-02
Optimisation 3.023734e+02
Total Time: 3.027085e+02
5 Add/Rem 8
Graph 1:
0 0 1 0 0 1 1 1 
1 0 0 0 0 1 0 0 
0 1 0 1 1 0 0 0 
1 1 0 1 1 0 1 1 
1 1 1 1 0 0 1 1 
0 0 0 1 1 0 0 0 
0 0 0 1 1 1 1 0 
0 0 1 1 1 0 1 0 
Graph 2:
0 0 1 1 0 1 1 1 
1 0 0 0 0 1 1 1 
0 0 0 1 1 0 0 0 
0 1 0 1 1 0 1 1 
0 1 1 1 1 0 1 0 
0 0 0 1 0 0 0 0 
0 0 1 1 1 1 0 1 
0 0 0 1 1 0 1 0 
Solution: -13 0
Gbest: -21.000000
Expectation: -37.324766
Final Parameters:
Gammas:
[ 3.189823 4.237144 0.163839 3.226978 3.859516 ]
Betas:
[ 0.187261 0.604022 2.953380 2.441539 2.731697 1.408892 ]
Aggregate results:
[ 12 16 24 30 32 26 28 22 38 34 36 20 18 14 42 40 44 46 63 ]
[ 0.000077 0.000940 0.055309 0.142035 0.139619 0.093711 0.138940 0.027304 0.026653 0.101021 0.055247 0.010883 0.003320 0.000272 0.003551 0.008553 0.000775 0.000045 0.191746 ]
5
Num Evals 4000
GenUC: 3.060397e-03
GenUB: 1.697870e-02
Optimisation 3.086801e+02
Total Time: 3.091037e+02
