Clock Speed: 3.688654
Num threads: 4
Trotterisation: 1
Graph Size: 8
Num Qubits: 16
Space Dimension: 65536
Run-Type: 0
Num_samples: 10
1 Isomorphic
Graph 1:
1 1 0 0 0 1 0 1 
1 0 1 1 1 0 0 1 
0 0 0 0 1 0 1 0 
0 1 0 1 0 1 0 0 
0 0 1 0 1 1 0 0 
1 0 1 1 0 0 1 1 
0 1 0 1 0 1 0 0 
1 0 0 1 1 0 0 0 
Graph 2:
1 1 0 0 0 1 0 1 
1 0 1 1 1 0 0 1 
0 0 0 0 1 0 1 0 
0 1 0 1 0 1 0 0 
0 0 1 0 1 1 0 0 
1 0 1 1 0 0 1 1 
0 1 0 1 0 1 0 0 
1 0 0 1 1 0 0 0 
Solution: 0 0
Gbest: -24.000000
Expectation: -33.030337
Final Parameters:
Gammas:
[ 3.095625 ]
Betas:
[ 2.111426 0.465336 ]
Aggregate results:
[ -1 17 25 19 15 31 27 23 3 29 33 21 13 9 11 35 39 37 41 47 43 5 45 49 63 ]
[ 0.000027 0.003396 0.070243 0.007572 0.001983 0.182265 0.123537 0.037209 0.000033 0.164775 0.154808 0.017516 0.000728 0.000279 0.000489 0.104510 0.019733 0.048922 0.006742 0.000211 0.002403 0.000043 0.000583 0.000014 0.051979 ]
5
Num Evals 800
GenUC: 3.701541e-03
GenUB: 1.718544e-02
Optimisation 1.014966e+02
Total Time: 1.016296e+02
2 Flipped
Graph 1:
1 1 0 0 0 1 0 1 
1 0 1 1 1 0 0 1 
0 0 0 0 1 0 1 0 
0 1 0 1 0 1 0 0 
0 0 1 0 1 1 0 0 
1 0 1 1 0 0 1 1 
0 1 0 1 0 1 0 0 
1 0 0 1 1 0 0 0 
Graph 2:
1 0 1 0 0 0 1 1 
1 0 0 1 1 1 0 1 
0 1 0 1 0 0 0 0 
0 0 1 0 1 0 1 0 
0 0 1 1 0 1 0 0 
1 1 0 0 1 1 0 1 
0 0 1 0 1 0 1 0 
0 0 0 1 1 0 0 1 
Solution: -16 22052
Gbest: -26.000000
Expectation: -33.547517
Final Parameters:
Gammas:
[ 3.101397 ]
Betas:
[ 1.015889 0.595587 ]
Aggregate results:
[ 31 33 39 27 29 37 25 35 41 23 21 43 19 17 45 15 47 63 ]
[ 0.189175 0.153527 0.021311 0.127274 0.172719 0.049147 0.070953 0.104310 0.006056 0.030832 0.009804 0.001817 0.001993 0.000361 0.000532 0.000067 0.000060 0.060064 ]
5
Num Evals 1600
GenUC: 2.596097e-03
GenUB: 1.695309e-02
Optimisation 1.002043e+02
Total Time: 1.003121e+02
3 Add 8
Graph 1:
1 1 0 0 0 1 0 1 
1 0 1 1 1 0 0 1 
0 0 0 0 1 0 1 0 
0 1 0 1 0 1 0 0 
0 0 1 0 1 1 0 0 
1 0 1 1 0 0 1 1 
0 1 0 1 0 1 0 0 
1 0 0 1 1 0 0 0 
Graph 2:
1 1 0 0 0 1 0 1 
1 1 1 1 1 1 0 1 
1 0 0 0 1 0 1 0 
0 1 1 1 0 1 0 0 
0 1 1 0 1 1 0 0 
1 0 1 1 0 0 1 1 
0 1 1 1 0 1 0 0 
1 0 1 1 1 0 0 0 
Solution: -7 0
Gbest: -27.000000
Expectation: -36.057903
Final Parameters:
Gammas:
[ 0.142641 ]
Betas:
[ 0.241496 0.291744 ]
Aggregate results:
[ 6 20 26 18 22 28 24 30 10 32 34 14 12 38 36 40 44 16 42 46 63 ]
[ 0.000001 0.007752 0.093267 0.003463 0.020460 0.137216 0.048662 0.159671 0.000038 0.151346 0.110179 0.000581 0.000079 0.034001 0.069933 0.014683 0.001581 0.001301 0.004798 0.000253 0.140735 ]
5
Num Evals 2400
GenUC: 2.855003e-03
GenUB: 1.691503e-02
Optimisation 1.006572e+02
Total Time: 1.007408e+02
4 Rem 8
Graph 1:
1 1 0 0 0 1 0 1 
1 0 1 1 1 0 0 1 
0 0 0 0 1 0 1 0 
0 1 0 1 0 1 0 0 
0 0 1 0 1 1 0 0 
1 0 1 1 0 0 1 1 
0 1 0 1 0 1 0 0 
1 0 0 1 1 0 0 0 
Graph 2:
1 1 0 0 0 1 0 0 
1 0 1 1 0 0 0 1 
0 0 0 0 0 0 0 0 
0 1 0 0 0 1 0 0 
0 0 0 0 1 1 0 0 
1 0 1 1 0 0 1 1 
0 1 0 1 0 1 0 0 
1 0 0 1 0 0 0 0 
Solution: -7 0
Gbest: -25.000000
Expectation: -33.234020
Final Parameters:
Gammas:
[ 2.997814 ]
Betas:
[ 1.257226 0.487808 ]
Aggregate results:
[ 6 22 26 24 14 16 28 20 8 30 32 18 12 10 34 36 38 42 40 44 46 63 ]
[ 0.000010 0.020918 0.117095 0.057733 0.001284 0.002718 0.185292 0.009630 0.000016 0.207349 0.164422 0.006096 0.000271 0.000076 0.088788 0.035653 0.013475 0.001238 0.004236 0.000162 0.000013 0.083526 ]
5
Num Evals 3200
GenUC: 2.794522e-03
GenUB: 1.688025e-02
Optimisation 1.007653e+02
Total Time: 1.008759e+02
5 Add/Rem 8
Graph 1:
1 1 0 0 0 1 0 1 
1 0 1 1 1 0 0 1 
0 0 0 0 1 0 1 0 
0 1 0 1 0 1 0 0 
0 0 1 0 1 1 0 0 
1 0 1 1 0 0 1 1 
0 1 0 1 0 1 0 0 
1 0 0 1 1 0 0 0 
Graph 2:
0 1 0 1 0 1 0 0 
1 0 1 1 0 1 1 1 
0 0 0 0 1 0 1 0 
0 1 0 1 0 1 1 1 
0 1 0 0 1 1 0 0 
1 0 1 1 0 1 1 1 
0 0 1 0 0 0 0 0 
1 0 0 0 1 0 0 0 
Solution: -12 15124
Gbest: -28.000000
Expectation: -33.519275
Final Parameters:
Gammas:
[ 3.088150 ]
Betas:
[ 1.163095 0.458259 ]
Aggregate results:
[ 15 23 29 25 27 21 31 33 13 35 37 19 17 39 43 41 45 11 47 63 ]
[ 0.000955 0.031784 0.174951 0.071416 0.128353 0.010578 0.192422 0.154655 0.000204 0.095731 0.042887 0.003290 0.001788 0.018173 0.001406 0.006177 0.000231 0.000034 0.000021 0.064942 ]
5
Num Evals 4000
GenUC: 2.801877e-03
GenUB: 1.682968e-02
Optimisation 1.015998e+02
Total Time: 1.017095e+02
