Clock Speed: 3.687724
Num threads: 4
Trotterisation: 1
Graph Size: 8
Num Qubits: 16
Space Dimension: 65536
Run-Type: 0
Num_samples: 10
1 Isomorphic
Graph 1:
0 1 1 1 0 0 0 1 
1 0 1 1 0 1 0 1 
1 1 0 0 1 1 1 0 
1 1 0 0 0 0 1 0 
1 1 0 0 1 1 1 0 
1 1 1 1 0 0 1 1 
1 1 0 0 1 0 0 0 
1 1 0 1 1 0 0 1 
Graph 2:
0 1 1 1 0 0 0 1 
1 0 1 1 0 1 0 1 
1 1 0 0 1 1 1 0 
1 1 0 0 0 0 1 0 
1 1 0 0 1 1 1 0 
1 1 1 1 0 0 1 1 
1 1 0 0 1 0 0 0 
1 1 0 1 1 0 0 1 
Solution: 0 0
Gbest: -24.000000
Expectation: -33.077130
Final Parameters:
Gammas:
[ 3.182052 ]
Betas:
[ 0.148774 2.267363 ]
Aggregate results:
[ -1 1 17 15 19 7 5 13 27 25 23 11 31 29 21 33 35 37 9 39 41 43 63 ]
[ 0.000057 0.000059 0.006333 0.002614 0.013080 0.000102 0.000057 0.001374 0.154454 0.116331 0.069101 0.000203 0.147337 0.176924 0.033053 0.100591 0.049741 0.016634 0.000451 0.003577 0.000688 0.000160 0.107077 ]
5
Num Evals 800
GenUC: 3.821612e-03
GenUB: 1.757416e-02
Optimisation 1.026216e+02
Total Time: 1.027521e+02
2 Flipped
Graph 1:
0 1 1 1 0 0 0 1 
1 0 1 1 0 1 0 1 
1 1 0 0 1 1 1 0 
1 1 0 0 0 0 1 0 
1 1 0 0 1 1 1 0 
1 1 1 1 0 0 1 1 
1 1 0 0 1 0 0 0 
1 1 0 1 1 0 0 1 
Graph 2:
1 0 0 0 1 1 1 0 
1 0 1 0 1 1 0 1 
0 1 1 1 0 0 1 1 
0 1 0 0 0 0 1 1 
0 1 1 1 0 0 1 1 
1 1 0 0 1 1 1 1 
0 0 0 1 0 0 1 1 
1 0 0 1 1 0 1 1 
Solution: -16 3795
Gbest: -24.000000
Expectation: -34.137571
Final Parameters:
Gammas:
[ 3.105459 ]
Betas:
[ 0.349721 0.486308 ]
Aggregate results:
[ 35 33 29 27 25 37 41 39 31 23 21 43 19 17 15 45 47 63 ]
[ 0.109596 0.159582 0.168393 0.116449 0.061404 0.057685 0.007695 0.024991 0.185843 0.025653 0.008702 0.001779 0.001952 0.000396 0.000043 0.000299 0.000052 0.069487 ]
5
Num Evals 1600
GenUC: 2.623346e-03
GenUB: 1.689810e-02
Optimisation 1.046993e+02
Total Time: 1.047848e+02
3 Add 8
Graph 1:
0 1 1 1 0 0 0 1 
1 0 1 1 0 1 0 1 
1 1 0 0 1 1 1 0 
1 1 0 0 0 0 1 0 
1 1 0 0 1 1 1 0 
1 1 1 1 0 0 1 1 
1 1 0 0 1 0 0 0 
1 1 0 1 1 0 0 1 
Graph 2:
0 1 1 1 0 0 1 1 
1 0 1 1 0 1 1 1 
1 1 1 0 1 1 1 1 
1 1 0 1 0 0 1 0 
1 1 0 1 1 1 1 0 
1 1 1 1 0 1 1 1 
1 1 0 0 1 0 0 0 
1 1 0 1 1 0 0 1 
Solution: -7 0
Gbest: -19.000000
Expectation: -32.457947
Final Parameters:
Gammas:
[ 3.184433 ]
Betas:
[ 2.441537 0.566179 ]
Aggregate results:
[ 6 8 20 18 22 14 12 16 26 24 30 28 34 32 36 38 40 42 44 63 ]
[ 0.000038 0.000038 0.014762 0.005004 0.040184 0.000634 0.000132 0.001282 0.127177 0.079720 0.179382 0.163392 0.101580 0.152324 0.048589 0.016062 0.003624 0.000625 0.000084 0.065369 ]
5
Num Evals 2400
GenUC: 2.871241e-03
GenUB: 1.654493e-02
Optimisation 1.039540e+02
Total Time: 1.040958e+02
4 Rem 8
Graph 1:
0 1 1 1 0 0 0 1 
1 0 1 1 0 1 0 1 
1 1 0 0 1 1 1 0 
1 1 0 0 0 0 1 0 
1 1 0 0 1 1 1 0 
1 1 1 1 0 0 1 1 
1 1 0 0 1 0 0 0 
1 1 0 1 1 0 0 1 
Graph 2:
0 0 0 1 0 0 0 1 
1 0 1 1 0 0 0 1 
1 0 0 0 0 1 0 0 
1 1 0 0 0 0 0 0 
1 1 0 0 1 1 1 0 
1 1 1 1 0 0 1 1 
0 1 0 0 1 0 0 0 
1 1 0 1 1 0 0 1 
Solution: -8 0
Gbest: -24.000000
Expectation: -33.376035
Final Parameters:
Gammas:
[ 6.247686 ]
Betas:
[ 1.038045 0.485844 ]
Aggregate results:
[ 7 21 19 17 11 15 23 13 31 27 29 25 33 35 37 39 41 43 45 47 63 ]
[ 0.000059 0.011321 0.004220 0.001378 0.000049 0.000384 0.033139 0.000242 0.189315 0.132398 0.182202 0.078036 0.146348 0.093480 0.041438 0.014761 0.004200 0.000795 0.000258 0.000021 0.065956 ]
5
Num Evals 3200
GenUC: 2.840391e-03
GenUB: 1.645649e-02
Optimisation 9.942666e+01
Total Time: 9.953718e+01
5 Add/Rem 8
Graph 1:
0 1 1 1 0 0 0 1 
1 0 1 1 0 1 0 1 
1 1 0 0 1 1 1 0 
1 1 0 0 0 0 1 0 
1 1 0 0 1 1 1 0 
1 1 1 1 0 0 1 1 
1 1 0 0 1 0 0 0 
1 1 0 1 1 0 0 1 
Graph 2:
0 1 1 1 1 0 0 1 
1 0 1 1 0 0 1 1 
1 0 0 1 1 0 1 0 
1 1 0 0 0 0 1 0 
1 1 0 0 0 1 1 0 
1 1 1 0 1 0 1 0 
1 1 1 0 1 1 1 0 
1 1 0 0 1 1 0 1 
Solution: -13 462
Gbest: -21.000000
Expectation: -31.732638
Final Parameters:
Gammas:
[ 3.091402 ]
Betas:
[ 2.214755 2.779384 ]
Aggregate results:
[ 14 24 26 16 22 20 30 32 28 34 18 36 12 38 40 42 63 ]
[ 0.000845 0.109386 0.158183 0.002081 0.055995 0.022800 0.166005 0.124600 0.174490 0.067135 0.007547 0.028346 0.000167 0.007617 0.001326 0.000184 0.073292 ]
5
Num Evals 4000
GenUC: 2.833264e-03
GenUB: 1.687527e-02
Optimisation 1.022663e+02
Total Time: 1.024550e+02
