Clock Speed: 3.689357
Num threads: 4
Trotterisation: 4
Graph Size: 8
Num Qubits: 16
Space Dimension: 65536
Run-Type: 0
Num_samples: 10
1 Isomorphic
Graph 1:
0 0 1 0 1 1 0 0 
0 1 0 0 0 1 1 1 
0 0 1 1 0 1 1 1 
0 0 0 0 0 1 1 1 
1 1 0 0 0 0 1 0 
1 0 0 1 1 1 0 1 
1 0 1 0 0 0 0 1 
1 1 1 1 0 1 1 0 
Graph 2:
0 0 1 0 1 1 0 0 
0 1 0 0 0 1 1 1 
0 0 1 1 0 1 1 1 
0 0 0 0 0 1 1 1 
1 1 0 0 0 0 1 0 
1 0 0 1 1 1 0 1 
1 0 1 0 0 0 0 1 
1 1 1 1 0 1 1 0 
Solution: 0 0
Gbest: -30.000000
Expectation: -34.374540
Final Parameters:
Gammas:
[ 3.486265 3.235981 2.567041 3.590764 ]
Betas:
[ 2.767058 0.014761 3.099059 1.147086 1.621496 ]
Aggregate results:
[ -1 13 17 7 15 19 11 21 9 23 27 25 29 31 33 35 37 39 41 43 47 45 51 63 ]
[ 0.000012 0.000271 0.001431 0.000046 0.000513 0.004038 0.000124 0.009931 0.000030 0.029762 0.129769 0.072523 0.175181 0.174520 0.140600 0.092286 0.049222 0.020769 0.006161 0.001539 0.000225 0.000331 0.000020 0.090693 ]
5
Num Evals 800
GenUC: 3.678215e-03
GenUB: 1.752630e-02
Optimisation 2.626204e+02
Total Time: 2.629673e+02
2 Flipped
Graph 1:
0 0 1 0 1 1 0 0 
0 1 0 0 0 1 1 1 
0 0 1 1 0 1 1 1 
0 0 0 0 0 1 1 1 
1 1 0 0 0 0 1 0 
1 0 0 1 1 1 0 1 
1 0 1 0 0 0 0 1 
1 1 1 1 0 1 1 0 
Graph 2:
0 0 1 1 0 1 0 0 
1 1 1 0 0 0 1 0 
1 1 1 0 1 1 0 0 
1 1 1 0 0 0 0 0 
0 1 0 0 0 0 1 1 
1 0 1 1 1 0 0 1 
1 0 0 0 0 1 0 1 
0 1 1 0 1 1 1 1 
Solution: -16 434
Gbest: -30.000000
Expectation: -34.797162
Final Parameters:
Gammas:
[ 3.273746 3.171092 3.333365 3.965518 ]
Betas:
[ 3.055036 2.675681 0.638514 1.898373 1.578608 ]
Aggregate results:
[ 27 35 31 25 33 37 29 39 23 17 21 43 41 19 15 45 47 63 ]
[ 0.124248 0.088115 0.163437 0.080635 0.134945 0.043792 0.161865 0.021694 0.039047 0.000722 0.014265 0.004490 0.011039 0.004273 0.000227 0.001460 0.000340 0.105404 ]
5
Num Evals 1600
GenUC: 2.603168e-03
GenUB: 1.702844e-02
Optimisation 3.007785e+02
Total Time: 3.011616e+02
3 Add 8
Graph 1:
0 0 1 0 1 1 0 0 
0 1 0 0 0 1 1 1 
0 0 1 1 0 1 1 1 
0 0 0 0 0 1 1 1 
1 1 0 0 0 0 1 0 
1 0 0 1 1 1 0 1 
1 0 1 0 0 0 0 1 
1 1 1 1 0 1 1 0 
Graph 2:
0 0 1 0 1 1 1 0 
0 1 1 0 0 1 1 1 
0 0 1 1 0 1 1 1 
0 0 0 0 0 1 1 1 
1 1 1 0 0 0 1 0 
1 0 0 1 1 1 0 1 
1 1 1 0 0 0 0 1 
1 1 1 1 1 1 1 1 
Solution: -6 0
Gbest: -24.000000
Expectation: -33.734661
Final Parameters:
Gammas:
[ 3.376185 3.097401 2.914782 3.033477 ]
Betas:
[ 0.216564 1.074798 1.350409 1.657034 1.613719 ]
Aggregate results:
[ 5 13 17 9 19 21 23 15 27 25 29 31 11 33 35 37 39 41 43 45 47 49 63 ]
[ 0.000052 0.000344 0.003290 0.000101 0.013369 0.038163 0.081150 0.001608 0.174269 0.139911 0.158287 0.109237 0.000457 0.064337 0.038351 0.023872 0.012128 0.006006 0.001227 0.000491 0.000068 0.000019 0.133260 ]
5
Num Evals 2400
GenUC: 2.966176e-03
GenUB: 1.723553e-02
Optimisation 2.202306e+02
Total Time: 2.205140e+02
4 Rem 8
Graph 1:
0 0 1 0 1 1 0 0 
0 1 0 0 0 1 1 1 
0 0 1 1 0 1 1 1 
0 0 0 0 0 1 1 1 
1 1 0 0 0 0 1 0 
1 0 0 1 1 1 0 1 
1 0 1 0 0 0 0 1 
1 1 1 1 0 1 1 0 
Graph 2:
0 0 1 0 1 1 0 0 
0 1 0 0 0 1 1 1 
0 0 1 1 0 0 0 1 
0 0 0 0 0 1 1 1 
1 1 0 0 0 0 1 0 
1 0 0 1 1 1 0 0 
0 0 1 0 0 0 0 0 
0 1 1 0 0 1 0 0 
Solution: -8 0
Gbest: -26.000000
Expectation: -35.404577
Final Parameters:
Gammas:
[ 3.400952 3.248511 3.164281 3.357772 ]
Betas:
[ 2.541938 2.089550 1.567658 2.569864 2.014149 ]
Aggregate results:
[ 7 19 21 15 25 23 27 17 29 31 33 35 37 39 41 43 45 13 47 63 ]
[ 0.000211 0.005871 0.014755 0.000593 0.079023 0.038679 0.135706 0.001289 0.170363 0.165750 0.123988 0.073386 0.034005 0.012783 0.004125 0.000915 0.000221 0.000145 0.000025 0.138168 ]
5
Num Evals 3200
GenUC: 2.885930e-03
GenUB: 2.069705e-02
Optimisation 3.096661e+02
Total Time: 3.100783e+02
5 Add/Rem 8
Graph 1:
0 0 1 0 1 1 0 0 
0 1 0 0 0 1 1 1 
0 0 1 1 0 1 1 1 
0 0 0 0 0 1 1 1 
1 1 0 0 0 0 1 0 
1 0 0 1 1 1 0 1 
1 0 1 0 0 0 0 1 
1 1 1 1 0 1 1 0 
Graph 2:
1 0 0 0 0 1 0 0 
0 1 1 0 1 1 1 1 
0 0 1 0 0 1 1 1 
1 0 0 0 0 0 1 1 
0 1 0 0 1 0 1 0 
0 1 0 1 1 1 0 1 
1 0 0 0 0 1 0 1 
1 1 1 1 1 1 1 0 
Solution: -15 0
Gbest: -29.000000
Expectation: -32.292960
Final Parameters:
Gammas:
[ 3.143470 3.142230 2.982977 3.126130 ]
Betas:
[ 2.048767 1.482742 2.367009 1.626503 1.648179 ]
Aggregate results:
[ 14 22 16 18 20 24 26 28 30 32 34 36 38 40 42 44 46 63 ]
[ 0.000104 0.021156 0.000170 0.000327 0.004459 0.054122 0.127917 0.196897 0.215807 0.173212 0.099992 0.040522 0.010806 0.003729 0.001393 0.000619 0.000177 0.048590 ]
5
Num Evals 4000
GenUC: 2.899269e-03
GenUB: 1.712029e-02
Optimisation 2.850526e+02
Total Time: 2.854189e+02
