Clock Speed: 3.688931
Num threads: 4
Trotterisation: 4
Graph Size: 8
Num Qubits: 16
Space Dimension: 65536
Run-Type: 0
Num_samples: 10
1 Isomorphic
Graph 1:
1 0 0 0 1 0 1 1 
0 1 1 0 0 0 1 1 
1 1 0 0 1 1 0 1 
0 0 0 1 0 1 0 0 
1 1 1 1 0 0 1 0 
0 0 1 1 1 0 1 0 
0 1 1 0 1 1 1 0 
0 0 1 1 1 0 1 1 
Graph 2:
1 0 0 0 1 0 1 1 
0 1 1 0 0 0 1 1 
1 1 0 0 1 1 0 1 
0 0 0 1 0 1 0 0 
1 1 1 1 0 0 1 0 
0 0 1 1 1 0 1 0 
0 1 1 0 1 1 1 0 
0 0 1 1 1 0 1 1 
Solution: 0 0
Gbest: -18.000000
Expectation: -32.854115
Final Parameters:
Gammas:
[ 3.241576 3.140730 3.186408 3.491663 ]
Betas:
[ 1.695808 1.008021 1.933360 2.082299 1.562358 ]
Aggregate results:
[ -1 5 17 13 21 23 15 29 27 25 35 33 31 19 37 39 9 11 41 43 45 47 63 ]
[ 0.000025 0.000033 0.003682 0.000635 0.023948 0.048353 0.001108 0.164215 0.136237 0.089760 0.086691 0.132134 0.159325 0.009657 0.048864 0.024220 0.000129 0.000206 0.007992 0.003649 0.000825 0.000107 0.058206 ]
5
Num Evals 800
GenUC: 3.685499e-03
GenUB: 1.736331e-02
Optimisation 2.702534e+02
Total Time: 2.706018e+02
2 Flipped
Graph 1:
1 0 0 0 1 0 1 1 
0 1 1 0 0 0 1 1 
1 1 0 0 1 1 0 1 
0 0 0 1 0 1 0 0 
1 1 1 1 0 0 1 0 
0 0 1 1 1 0 1 0 
0 1 1 0 1 1 1 0 
0 0 1 1 1 0 1 1 
Graph 2:
1 1 0 1 0 0 0 1 
1 1 0 0 0 1 1 0 
1 0 1 1 0 0 1 1 
0 0 1 0 1 0 0 0 
0 1 0 0 1 1 1 1 
0 1 0 1 1 1 0 0 
0 1 1 1 0 1 1 0 
1 1 0 1 1 1 0 0 
Solution: -18 263
Gbest: -26.000000
Expectation: -31.670927
Final Parameters:
Gammas:
[ 3.290468 3.130127 3.353425 3.123718 ]
Betas:
[ 2.673067 2.120059 1.584251 1.433816 1.594210 ]
Aggregate results:
[ 35 37 29 31 39 23 25 33 27 21 41 19 17 43 45 63 ]
[ 0.020727 0.017368 0.184771 0.109706 0.012638 0.091145 0.166527 0.045583 0.217431 0.033494 0.005284 0.009425 0.001306 0.001495 0.000251 0.082849 ]
5
Num Evals 1600
GenUC: 2.435211e-03
GenUB: 1.686049e-02
Optimisation 2.895585e+02
Total Time: 2.899304e+02
3 Add 8
Graph 1:
1 0 0 0 1 0 1 1 
0 1 1 0 0 0 1 1 
1 1 0 0 1 1 0 1 
0 0 0 1 0 1 0 0 
1 1 1 1 0 0 1 0 
0 0 1 1 1 0 1 0 
0 1 1 0 1 1 1 0 
0 0 1 1 1 0 1 1 
Graph 2:
1 0 1 0 1 0 1 1 
0 1 1 0 0 0 1 1 
1 1 0 0 1 1 0 1 
1 0 0 1 1 1 1 0 
1 1 1 1 0 0 1 0 
0 1 1 1 1 1 1 0 
0 1 1 0 1 1 1 0 
0 0 1 1 1 0 1 1 
Solution: -6 0
Gbest: -26.000000
Expectation: -32.753171
Final Parameters:
Gammas:
[ 3.220788 3.149490 2.999661 3.035110 ]
Betas:
[ 2.987273 1.040626 1.435644 2.050864 1.660890 ]
Aggregate results:
[ 5 9 21 17 23 25 19 15 27 29 37 35 31 33 13 39 41 43 45 63 ]
[ 0.000021 0.000036 0.026654 0.002705 0.060612 0.107119 0.008189 0.000784 0.152030 0.178436 0.031373 0.065516 0.161026 0.113215 0.000257 0.010627 0.003537 0.001006 0.000091 0.076766 ]
5
Num Evals 2400
GenUC: 2.888953e-03
GenUB: 1.683975e-02
Optimisation 2.816376e+02
Total Time: 2.820024e+02
4 Rem 8
Graph 1:
1 0 0 0 1 0 1 1 
0 1 1 0 0 0 1 1 
1 1 0 0 1 1 0 1 
0 0 0 1 0 1 0 0 
1 1 1 1 0 0 1 0 
0 0 1 1 1 0 1 0 
0 1 1 0 1 1 1 0 
0 0 1 1 1 0 1 1 
Graph 2:
1 0 0 0 1 0 1 1 
0 1 1 0 0 0 1 1 
1 0 0 0 1 1 0 1 
0 0 0 1 0 0 0 0 
1 1 1 1 0 0 1 0 
0 0 1 1 0 0 1 0 
0 1 1 0 1 1 1 0 
0 0 1 0 1 0 0 0 
Solution: -6 0
Gbest: -28.000000
Expectation: -33.629609
Final Parameters:
Gammas:
[ 3.103322 3.319629 3.152193 2.743622 ]
Betas:
[ 1.919916 2.190472 1.989189 1.105600 1.478016 ]
Aggregate results:
[ 5 11 21 19 23 17 25 27 15 29 37 33 31 35 41 39 13 43 45 47 49 63 ]
[ 0.000036 0.000076 0.013627 0.004985 0.032986 0.001601 0.065527 0.109934 0.000479 0.146507 0.074840 0.153407 0.168922 0.118576 0.016540 0.039577 0.000129 0.005287 0.001333 0.000235 0.000016 0.045376 ]
5
Num Evals 3200
GenUC: 2.893814e-03
GenUB: 1.683448e-02
Optimisation 2.717690e+02
Total Time: 2.721206e+02
5 Add/Rem 8
Graph 1:
1 0 0 0 1 0 1 1 
0 1 1 0 0 0 1 1 
1 1 0 0 1 1 0 1 
0 0 0 1 0 1 0 0 
1 1 1 1 0 0 1 0 
0 0 1 1 1 0 1 0 
0 1 1 0 1 1 1 0 
0 0 1 1 1 0 1 1 
Graph 2:
1 0 0 0 1 0 1 1 
0 1 1 0 0 0 0 1 
1 1 0 0 1 1 0 1 
0 1 0 1 0 1 0 0 
0 1 1 0 1 0 0 0 
1 0 1 1 1 1 0 0 
0 1 1 1 1 0 1 1 
1 0 1 1 0 0 1 1 
Solution: -14 0
Gbest: -26.000000
Expectation: -29.289635
Final Parameters:
Gammas:
[ 3.103417 3.184428 3.354584 2.673833 ]
Betas:
[ 2.359646 2.005697 1.944344 1.471979 1.550451 ]
Aggregate results:
[ 13 19 29 25 27 31 35 23 33 21 37 39 17 41 15 43 45 63 ]
[ 0.000169 0.016183 0.184315 0.180267 0.224478 0.099741 0.014899 0.114798 0.035958 0.055613 0.014956 0.012057 0.006256 0.005024 0.001246 0.001733 0.000310 0.031999 ]
5
Num Evals 4000
GenUC: 1.428511e-02
GenUB: 1.715774e-02
Optimisation 2.890006e+02
Total Time: 2.894334e+02
