Clock Speed: 3.689228
Num threads: 4
Trotterisation: 2
Num Qubits: 3
Space Dimension: 8
Run-Type: 0
Num_samples: 3
Optimiser Method: 29
1 Isomorphic
Graph 1:
0 1 0 
1 0 1 
0 1 0 
Graph 2:
0 1 0 
1 0 1 
0 1 0 
Solution: 9 0
Classic Expectation: 6.333333
Initial Expecation: 4.750000
Gbest: 9.000000
Expectation: 7.559932
Final Parameters:
Gammas:
[ 3.278025 3.010106 ]
Betas:
[ 1.552893 2.349362 ]
Aggregate results:
[ 9 5 0 ]
[ 0.654620 0.333671 0.011709 ]
5
Num Evals 1200
GenUC: 2.551009e-06
GenUB: 7.971597e-06
Optimisation 1.910238e-01
Total Time: 1.910632e-01
2 Flipped
Graph 1:
0 1 0 
1 0 1 
0 1 0 
Graph 2:
0 1 0 
1 0 1 
0 1 0 
Solution: 9 0
Classic Expectation: 6.333333
Initial Expecation: 4.750000
Gbest: 9.000000
Expectation: 7.559932
Final Parameters:
Gammas:
[ 3.278025 3.010106 ]
Betas:
[ 1.552893 2.349362 ]
Aggregate results:
[ 9 5 0 ]
[ 0.654620 0.333671 0.011709 ]
5
Num Evals 1200
GenUC: 2.879009e-06
GenUB: 9.565847e-07
Optimisation 1.564723e-01
Total Time: 1.564789e-01
3 Add 3
Graph 1:
0 1 0 
1 0 1 
0 1 0 
Graph 2:
1 1 1 
1 1 1 
1 1 0 
Solution: 5 0
Classic Expectation: 5.000000
Initial Expecation: 3.750000
Gbest: 5.000000
Expectation: 5.000000
Final Parameters:
Gammas:
[ 4.713745 5.007980 ]
Betas:
[ 0.748954 1.607397 ]
Aggregate results:
[ 5 0 ]
[ 1.000000 0.000000 ]
4
Num Evals 371
GenUC: 2.434768e-06
GenUB: 7.171184e-07
Optimisation 3.952942e-02
Total Time: 3.953415e-02
4 Rem 3
Graph 1:
0 1 0 
1 0 1 
0 1 0 
Graph 2:
0 0 0 
0 0 0 
0 0 0 
Solution: 5 0
Classic Expectation: 5.000000
Initial Expecation: 3.750000
Gbest: 5.000000
Expectation: 5.000000
Final Parameters:
Gammas:
[ 4.713745 5.007980 ]
Betas:
[ 0.748954 1.607397 ]
Aggregate results:
[ 5 0 ]
[ 1.000000 0.000000 ]
4
Num Evals 371
GenUC: 2.355548e-06
GenUB: 6.496557e-07
Optimisation 3.885838e-02
Total Time: 3.886271e-02
5 Add/Rem 3
Graph 1:
0 1 0 
1 0 1 
0 1 0 
Graph 2:
1 0 1 
0 1 0 
1 0 0 
Solution: 5 1
Classic Expectation: 3.666667
Initial Expecation: 2.750000
Gbest: 5.000000
Expectation: 4.911284
Final Parameters:
Gammas:
[ 2.839539 3.448107 ]
Betas:
[ 1.499956 0.771209 ]
Aggregate results:
[ 1 5 0 ]
[ 0.015143 0.979228 0.005628 ]
4
Num Evals 567
GenUC: 2.495246e-06
GenUB: 5.427864e-07
Optimisation 5.717232e-02
Total Time: 5.717693e-02
