Clock Speed: 3.498801
Num threads: 16
Trotterisation: 4
Num Qubits: 16
Space Dimension: 65536
Run-Type: 0
Num_samples: 64
Optimiser Method: 20
1 Isomorphic
Graph 1:
1 1 1 0 1 1 0 1 
1 1 0 0 0 1 1 0 
1 1 1 1 1 0 0 0 
0 0 1 1 1 1 0 0 
0 1 1 0 1 1 0 0 
0 0 1 0 0 0 1 0 
0 1 0 0 1 0 0 0 
0 1 1 0 1 0 0 0 
Graph 2:
1 1 1 0 1 1 0 1 
1 1 0 0 0 1 1 0 
1 1 1 1 1 0 0 0 
0 0 1 1 1 1 0 0 
0 1 1 0 1 1 0 0 
0 0 1 0 0 0 1 0 
0 1 0 0 1 0 0 0 
0 1 1 0 1 0 0 0 
Solution: 64 0
Classic Expectation: 32.571429
Initial Expecation: 20.039062
Gbest: 48.000000
Expectation: 25.360147
Final Parameters:
Gammas:
[ 3.196879 1.577501 3.805030 5.719664 ]
Betas:
[ 0.411543 3.125077 1.847442 1.265759 ]
Aggregate results:
[ 64 56 50 48 52 42 46 44 54 40 38 36 34 32 30 28 26 22 24 20 18 58 16 0 ]
[ 0.000020 0.000021 0.000334 0.001015 0.000223 0.014255 0.001484 0.005515 0.000038 0.031786 0.064810 0.100505 0.124305 0.137587 0.131065 0.088409 0.049515 0.007130 0.020633 0.001782 0.000165 0.000021 0.000047 0.219335 ]
5
Num Evals 6400
GenUC: 1.830105e-02
GenUB: 1.293250e-02
Optimisation 2.418251e+03
Total Time: 2.418282e+03
2 Flipped
Graph 1:
1 1 1 0 1 1 0 1 
1 1 0 0 0 1 1 0 
1 1 1 1 1 0 0 0 
0 0 1 1 1 1 0 0 
0 1 1 0 1 1 0 0 
0 0 1 0 0 0 1 0 
0 1 0 0 1 0 0 0 
0 1 1 0 1 0 0 0 
Graph 2:
1 0 1 1 0 1 1 1 
0 1 1 0 0 0 1 1 
0 0 0 1 1 1 1 1 
0 0 1 1 1 1 0 0 
0 0 1 1 0 1 1 0 
0 1 0 0 0 1 0 0 
0 0 0 1 0 0 1 0 
0 0 0 1 0 1 1 0 
Solution: 50 1812
Classic Expectation: 32.571429
Initial Expecation: 20.039062
Gbest: 44.000000
Expectation: 24.593673
Final Parameters:
Gammas:
[ 1.862622 3.866350 6.138282 2.190825 ]
Betas:
[ 0.542786 2.234405 0.761439 0.426272 ]
Aggregate results:
[ 32 34 38 36 30 28 40 26 24 42 44 46 22 50 48 20 0 ]
[ 0.167686 0.134746 0.055186 0.094822 0.122226 0.078185 0.025650 0.043957 0.016570 0.010726 0.003549 0.000537 0.003135 0.000020 0.000111 0.000323 0.242569 ]
5
Num Evals 6400
GenUC: 2.323487e-02
GenUB: 1.327238e-02
Optimisation 1.810841e+03
Total Time: 1.810877e+03
3 Add 8
Graph 1:
1 1 1 0 1 1 0 1 
1 1 0 0 0 1 1 0 
1 1 1 1 1 0 0 0 
0 0 1 1 1 1 0 0 
0 1 1 0 1 1 0 0 
0 0 1 0 0 0 1 0 
0 1 0 0 1 0 0 0 
0 1 1 0 1 0 0 0 
Graph 2:
1 1 1 0 1 1 0 1 
1 1 1 0 0 1 1 1 
1 1 1 1 1 0 0 0 
0 0 1 1 1 1 0 0 
1 1 1 0 1 1 0 0 
0 0 1 0 0 1 1 0 
1 1 1 0 1 0 0 0 
1 1 1 0 1 1 0 0 
Solution: 56 0
Classic Expectation: 32.071429
Initial Expecation: 19.731445
Gbest: 40.000000
Expectation: 28.063411
Final Parameters:
Gammas:
[ 3.190383 3.090168 1.552062 4.671755 ]
Betas:
[ 1.559282 0.172853 0.328736 1.800085 ]
Aggregate results:
[ 56 52 44 46 42 40 38 36 34 32 30 48 28 24 26 22 50 20 16 18 14 0 ]
[ 0.000009 0.000096 0.004016 0.001488 0.014311 0.035264 0.064463 0.101915 0.139655 0.153498 0.142993 0.000295 0.107401 0.031244 0.063796 0.010741 0.000128 0.002725 0.000018 0.000287 0.000004 0.125654 ]
5
Num Evals 6400
GenUC: 2.326211e-02
GenUB: 1.364418e-02
Optimisation 1.779514e+03
Total Time: 1.779551e+03
4 Rem 8
Graph 1:
1 1 1 0 1 1 0 1 
1 1 0 0 0 1 1 0 
1 1 1 1 1 0 0 0 
0 0 1 1 1 1 0 0 
0 1 1 0 1 1 0 0 
0 0 1 0 0 0 1 0 
0 1 0 0 1 0 0 0 
0 1 1 0 1 0 0 0 
Graph 2:
0 1 1 0 1 1 0 1 
1 1 0 0 0 0 1 0 
1 0 1 1 0 0 0 0 
0 0 1 1 1 0 0 0 
0 1 1 0 1 1 0 0 
0 0 1 0 0 0 0 0 
0 0 0 0 1 0 0 0 
0 1 0 0 1 0 0 0 
Solution: 56 0
Classic Expectation: 33.071429
Initial Expecation: 20.346680
Gbest: 38.000000
Expectation: 25.318024
Final Parameters:
Gammas:
[ 3.388241 5.652860 4.355580 3.332271 ]
Betas:
[ 2.558605 1.081431 2.974426 0.230486 ]
Aggregate results:
[ 56 52 48 50 44 46 42 40 38 36 34 32 30 28 26 24 22 20 18 0 ]
[ 0.000017 0.000010 0.000452 0.000050 0.003558 0.001038 0.013713 0.032414 0.067131 0.104325 0.150839 0.155659 0.116157 0.078353 0.030843 0.011258 0.001941 0.000246 0.000050 0.231946 ]
5
Num Evals 6400
GenUC: 2.327444e-02
GenUB: 1.319231e-02
Optimisation 2.426891e+03
Total Time: 2.426928e+03
5 Add/Rem 8
Graph 1:
1 1 1 0 1 1 0 1 
1 1 0 0 0 1 1 0 
1 1 1 1 1 0 0 0 
0 0 1 1 1 1 0 0 
0 1 1 0 1 1 0 0 
0 0 1 0 0 0 1 0 
0 1 0 0 1 0 0 0 
0 1 1 0 1 0 0 0 
Graph 2:
1 0 1 0 1 1 1 1 
1 1 0 0 0 1 1 1 
0 0 1 1 1 0 0 1 
0 0 1 0 1 1 0 1 
0 1 1 0 0 1 0 0 
0 0 0 1 0 0 1 1 
0 1 0 1 1 1 0 0 
0 0 1 0 1 0 0 0 
Solution: 49 0
Classic Expectation: 31.750000
Initial Expecation: 19.533691
Gbest: 37.000000
Expectation: 26.348191
Final Parameters:
Gammas:
[ 2.642815 2.789659 6.162901 0.403814 ]
Betas:
[ 1.506494 1.428106 1.719680 2.426255 ]
Aggregate results:
[ 49 47 41 37 43 35 45 39 31 33 29 27 25 23 21 19 17 0 ]
[ 0.000017 0.000047 0.010683 0.061136 0.002624 0.112545 0.000661 0.027800 0.170949 0.157371 0.139093 0.089842 0.041992 0.016178 0.004363 0.000616 0.000112 0.163970 ]
5
Num Evals 6400
GenUC: 2.326205e-02
GenUB: 1.315164e-02
Optimisation 2.577357e+03
Total Time: 2.577393e+03
