Clock Speed: 3.688543
Num threads: 4
Trotterisation: 3
Num Qubits: 5
Space Dimension: 32
Run-Type: 0
Num_samples: 4
Optimiser Method: 29
1 Isomorphic
Graph 1:
0 0 1 0 
0 0 1 1 
1 1 0 0 
0 1 0 0 
Graph 2:
0 0 1 0 
0 0 1 1 
1 1 0 0 
0 1 0 0 
Solution: 16 0
Classic Expectation: 10.000000
Initial Expecation: 7.500000
Gbest: 16.000000
Expectation: 11.874509
Final Parameters:
Gammas:
[ 4.811278 4.523241 2.920019 ]
Betas:
[ 3.141593 2.025365 2.781462 ]
Aggregate results:
[ 16 12 8 4 0 ]
[ 0.222093 0.604505 0.129869 0.007002 0.036531 ]
4
Num Evals 1130
GenUC: 8.324902e-06
GenUB: 9.371237e-06
Optimisation 1.318717e+01
Total Time: 1.318722e+01
2 Flipped
Graph 1:
0 0 1 0 
0 0 1 1 
1 1 0 0 
0 1 0 0 
Graph 2:
0 1 0 0 
1 1 0 0 
0 0 1 1 
0 0 1 0 
Solution: 12 2
Classic Expectation: 8.000000
Initial Expecation: 6.000000
Gbest: 12.000000
Expectation: 11.211046
Final Parameters:
Gammas:
[ 4.587935 3.328810 3.485224 ]
Betas:
[ 2.194959 0.515021 0.153703 ]
Aggregate results:
[ 4 12 8 0 ]
[ 0.015616 0.836734 0.138471 0.009178 ]
4
Num Evals 1256
GenUC: 9.201054e-06
GenUB: 1.859693e-06
Optimisation 8.252533e+00
Total Time: 8.252548e+00
3 Add 4
Graph 1:
0 0 1 0 
0 0 1 1 
1 1 0 0 
0 1 0 0 
Graph 2:
0 1 1 1 
1 0 1 1 
1 1 1 0 
1 1 0 0 
Solution: 11 0
Classic Expectation: 9.000000
Initial Expecation: 6.750000
Gbest: 11.000000
Expectation: 10.520465
Final Parameters:
Gammas:
[ 4.700987 3.489654 4.285513 ]
Betas:
[ 0.632667 1.825465 1.638547 ]
Aggregate results:
[ 11 7 0 ]
[ 0.893971 0.098112 0.007917 ]
4
Num Evals 2302
GenUC: 9.577217e-06
GenUB: 1.539867e-06
Optimisation 1.848191e+01
Total Time: 1.848192e+01
4 Rem 4
Graph 1:
0 0 1 0 
0 0 1 1 
1 1 0 0 
0 1 0 0 
Graph 2:
0 0 0 0 
0 0 0 0 
0 0 0 0 
0 0 0 0 
Solution: 10 0
Classic Expectation: 10.000000
Initial Expecation: 7.500000
Gbest: 10.000000
Expectation: 10.000000
Final Parameters:
Gammas:
[ 1.668973 4.908739 5.497792 ]
Betas:
[ 2.479166 1.818521 1.365238 ]
Aggregate results:
[ 10 0 ]
[ 1.000000 0.000000 ]
4
Num Evals 511
GenUC: 8.688743e-06
GenUB: 1.743500e-06
Optimisation 3.324107e+00
Total Time: 3.324121e+00
5 Add/Rem 4
Graph 1:
0 0 1 0 
0 0 1 1 
1 1 0 0 
0 1 0 0 
Graph 2:
1 1 0 1 
1 0 0 0 
0 0 1 0 
1 0 0 0 
Solution: 12 10
Classic Expectation: 8.000000
Initial Expecation: 6.000000
Gbest: 12.000000
Expectation: 8.773107
Final Parameters:
Gammas:
[ 3.263048 1.118209 6.149785 ]
Betas:
[ 3.141593 1.826274 0.921123 ]
Aggregate results:
[ 4 8 12 0 ]
[ 0.036355 0.485698 0.395175 0.082772 ]
4
Num Evals 965
GenUC: 9.203401e-06
GenUB: 1.595028e-06
Optimisation 8.518947e+00
Total Time: 8.518961e+00
