Clock Speed: 3.689094
Num threads: 4
Trotterisation: 2
Graph Size: 6
Num Qubits: 10
Space Dimension: 1024
Run-Type: 0
Num_samples: 10
1 Isomorphic
Graph 1:
1 0 1 1 1 1 
1 0 1 0 1 1 
1 0 0 0 0 0 
1 1 0 0 1 0 
1 0 0 1 1 0 
0 1 0 0 0 1 
Graph 2:
1 0 1 1 1 1 
1 0 1 0 1 1 
1 0 0 0 0 0 
1 1 0 0 1 0 
1 0 0 1 1 0 
0 1 0 0 0 1 
Solution: 0 0
Gbest: -12.000000
Expectation: -18.417078
Final Parameters:
Gammas:
[ 3.147657 3.226986 ]
Betas:
[ 1.570872 0.000000 2.865040 ]
Aggregate results:
[ -1 11 17 15 7 13 19 21 9 5 23 25 27 35 ]
[ 0.004477 0.076378 0.228203 0.183849 0.003737 0.100255 0.167241 0.086357 0.029950 0.013149 0.031206 0.004733 0.001744 0.068721 ]
3
Num Evals 103
GenUC: 2.867770e-04
GenUB: 1.909154e-04
Optimisation 7.631723e-02
Total Time: 7.780078e-02
2 Flipped
Graph 1:
1 0 1 1 1 1 
1 0 1 0 1 1 
1 0 0 0 0 0 
1 1 0 0 1 0 
1 0 0 1 1 0 
0 1 0 0 0 1 
Graph 2:
1 1 1 1 0 1 
1 1 0 1 0 1 
0 0 0 0 0 1 
0 1 0 0 1 1 
0 1 1 0 0 1 
1 0 0 0 1 0 
Solution: -8 33
Gbest: -14.000000
Expectation: -18.129298
Final Parameters:
Gammas:
[ 3.190749 3.189476 ]
Betas:
[ 1.611996 0.509403 2.393300 ]
Aggregate results:
[ 19 15 21 17 23 13 7 9 11 25 35 ]
[ 0.178688 0.224994 0.099776 0.256110 0.030817 0.137587 0.005038 0.004781 0.033340 0.004271 0.024598 ]
3
Num Evals 306
GenUC: 2.814323e-04
GenUB: 1.368999e-04
Optimisation 2.416052e-01
Total Time: 2.431675e-01
3 Add 6
Graph 1:
1 0 1 1 1 1 
1 0 1 0 1 1 
1 0 0 0 0 0 
1 1 0 0 1 0 
1 0 0 1 1 0 
0 1 0 0 0 1 
Graph 2:
1 1 1 1 1 1 
1 1 1 0 1 1 
1 1 0 1 0 0 
1 1 0 0 1 0 
1 0 1 1 1 1 
0 1 0 0 0 1 
Solution: -6 0
Gbest: -16.000000
Expectation: -18.533879
Final Parameters:
Gammas:
[ 3.484441 3.244456 ]
Betas:
[ 0.522748 0.229956 2.717741 ]
Aggregate results:
[ 5 11 15 13 17 9 21 19 7 23 25 35 ]
[ 0.001067 0.089041 0.244764 0.194635 0.197194 0.019237 0.023134 0.079498 0.001664 0.023980 0.014006 0.111781 ]
3
Num Evals 568
GenUC: 1.233786e-04
GenUB: 1.675751e-04
Optimisation 2.739586e-01
Total Time: 2.752030e-01
4 Rem 6
Graph 1:
1 0 1 1 1 1 
1 0 1 0 1 1 
1 0 0 0 0 0 
1 1 0 0 1 0 
1 0 0 1 1 0 
0 1 0 0 0 1 
Graph 2:
1 0 0 0 1 1 
1 0 1 0 1 1 
1 0 0 0 0 0 
1 1 0 0 0 0 
0 0 0 1 0 0 
0 0 0 0 0 1 
Solution: -6 0
Gbest: -12.000000
Expectation: -19.957119
Final Parameters:
Gammas:
[ 3.152954 3.566121 ]
Betas:
[ 1.575997 0.000000 2.904181 ]
Aggregate results:
[ 5 11 17 13 15 19 21 9 7 23 25 35 ]
[ 0.000716 0.076144 0.158579 0.177204 0.224741 0.069062 0.055951 0.016634 0.004334 0.034997 0.008409 0.173228 ]
3
Num Evals 668
GenUC: 1.235494e-04
GenUB: 1.691172e-04
Optimisation 8.613642e-02
Total Time: 8.743175e-02
5 Add/Rem 6
Graph 1:
1 0 1 1 1 1 
1 0 1 0 1 1 
1 0 0 0 0 0 
1 1 0 0 1 0 
1 0 0 1 1 0 
0 1 0 0 0 1 
Graph 2:
1 0 1 1 1 1 
0 0 0 0 0 1 
0 0 0 0 1 0 
1 1 1 0 1 0 
1 1 0 1 1 0 
0 1 0 1 1 0 
Solution: -8 266
Gbest: -10.000000
Expectation: -18.623375
Final Parameters:
Gammas:
[ 3.198540 3.168168 ]
Betas:
[ 1.590360 0.000000 2.875717 ]
Aggregate results:
[ 9 15 17 13 19 23 21 11 25 7 27 35 ]
[ 0.016445 0.214859 0.226304 0.125152 0.154912 0.031027 0.084093 0.060731 0.009026 0.008620 0.000959 0.067872 ]
3
Num Evals 763
GenUC: 1.338009e-04
GenUB: 1.730550e-04
Optimisation 6.802215e-02
Total Time: 6.929766e-02
