Clock Speed: 3.689289
Num threads: 4
Trotterisation: 5
Num Qubits: 5
Space Dimension: 32
Run-Type: 0
Num_samples: 4
Optimiser Method: 29
1 Isomorphic
Graph 1:
0 0 0 1 
0 0 1 0 
0 1 0 0 
1 0 0 0 
Graph 2:
0 0 0 1 
0 0 1 0 
0 1 0 0 
1 0 0 0 
Solution: 16 0
Classic Expectation: 10.666667
Initial Expecation: 8.000000
Gbest: 16.000000
Expectation: 14.971047
Final Parameters:
Gammas:
[ 3.491675 3.257914 3.434258 3.048248 2.466408 ]
Betas:
[ 1.316156 1.990106 1.808761 1.718304 2.476534 ]
Aggregate results:
[ 16 8 0 ]
[ 0.915984 0.039413 0.044603 ]
5
Num Evals 4000
GenUC: 8.339586e-06
GenUB: 9.540818e-06
Optimisation 1.816930e+00
Total Time: 1.816975e+00
2 Flipped
Graph 1:
0 0 0 1 
0 0 1 0 
0 1 0 0 
1 0 0 0 
Graph 2:
1 0 0 0 
0 1 0 0 
0 0 1 0 
0 0 0 1 
Solution: 8 0
Classic Expectation: 8.000000
Initial Expecation: 6.000000
Gbest: 8.000000
Expectation: 8.000000
Final Parameters:
Gammas:
[ 3.190680 3.362381 3.147252 3.142904 2.356099 ]
Betas:
[ 2.152069 1.534855 1.620596 1.736353 2.356207 ]
Aggregate results:
[ 8 0 ]
[ 1.000000 0.000000 ]
4
Num Evals 960
GenUC: 9.356008e-06
GenUB: 1.885521e-06
Optimisation 4.329267e-01
Total Time: 4.329405e-01
3 Add 4
Graph 1:
0 0 0 1 
0 0 1 0 
0 1 0 0 
1 0 0 0 
Graph 2:
0 1 1 1 
1 1 1 1 
1 1 0 0 
1 1 0 0 
Solution: 9 0
Classic Expectation: 7.666667
Initial Expecation: 5.750000
Gbest: 9.000000
Expectation: 8.874422
Final Parameters:
Gammas:
[ 6.125807 4.994888 4.682123 1.768722 1.604809 ]
Betas:
[ 2.403476 1.973282 1.527218 1.324011 1.789667 ]
Aggregate results:
[ 9 5 0 ]
[ 0.980731 0.009568 0.009701 ]
5
Num Evals 4000
GenUC: 9.155890e-06
GenUB: 1.474109e-06
Optimisation 1.807234e+00
Total Time: 1.807246e+00
4 Rem 4
Graph 1:
0 0 0 1 
0 0 1 0 
0 1 0 0 
1 0 0 0 
Graph 2:
0 0 0 0 
0 0 0 0 
0 0 0 0 
0 0 0 0 
Solution: 12 0
Classic Expectation: 12.000000
Initial Expecation: 9.000000
Gbest: 12.000000
Expectation: 12.000000
Final Parameters:
Gammas:
[ 4.516039 4.025166 4.319494 3.141401 3.141593 ]
Betas:
[ 1.655199 2.206944 1.709044 1.640697 0.785398 ]
Aggregate results:
[ 12 0 ]
[ 1.000000 0.000000 ]
4
Num Evals 799
GenUC: 8.930510e-06
GenUB: 1.427194e-06
Optimisation 3.395546e-01
Total Time: 3.395677e-01
5 Add/Rem 4
Graph 1:
0 0 0 1 
0 0 1 0 
0 1 0 0 
1 0 0 0 
Graph 2:
0 1 1 0 
1 1 0 1 
1 0 0 0 
0 1 0 0 
Solution: 13 1
Classic Expectation: 9.000000
Initial Expecation: 6.750000
Gbest: 13.000000
Expectation: 12.118460
Final Parameters:
Gammas:
[ 6.167864 4.925672 4.730607 2.997777 1.585947 ]
Betas:
[ 2.392637 1.920236 1.005597 1.497271 2.216009 ]
Aggregate results:
[ 5 13 9 0 ]
[ 0.015149 0.821517 0.151443 0.011890 ]
5
Num Evals 4000
GenUC: 8.863630e-06
GenUB: 1.156062e-06
Optimisation 1.723792e+00
Total Time: 1.723804e+00
