Clock Speed: 3.688292
Num threads: 4
Trotterisation: 5
Num Qubits: 5
Space Dimension: 32
Run-Type: 0
Num_samples: 6399
Optimiser Method: 29
1 Isomorphic
Graph 1:
0 0 0 1 
1 0 0 0 
1 0 0 1 
0 1 0 1 
Graph 2:
0 0 0 1 
1 0 0 0 
1 0 0 1 
0 1 0 1 
Solution: 16 0
Classic Expectation: 8.666667
Initial Expecation: 6.500000
Gbest: 16.000000
Expectation: 11.117026
Final Parameters:
Gammas:
[ 4.798841 3.260505 3.022997 3.335909 1.572913 ]
Betas:
[ 1.681437 1.396143 1.128148 1.998418 2.065228 ]
Aggregate results:
[ 16 6 12 8 4 10 0 ]
[ 0.228695 0.044026 0.291753 0.129701 0.006566 0.262885 0.036375 ]
5
Num Evals 4000
GenUC: 8.488016e-06
GenUB: 9.672251e-06
Optimisation 2.028192e+00
Total Time: 2.028240e+00
2 Flipped
Graph 1:
0 0 0 1 
1 0 0 0 
1 0 0 1 
0 1 0 1 
Graph 2:
1 0 0 0 
0 0 0 1 
1 0 0 1 
1 0 1 0 
Solution: 14 21
Classic Expectation: 8.666667
Initial Expecation: 6.500000
Gbest: 14.000000
Expectation: 9.918397
Final Parameters:
Gammas:
[ 3.903535 3.099044 2.995000 3.242612 2.542696 ]
Betas:
[ 1.896523 1.654891 1.835459 1.239411 2.273500 ]
Aggregate results:
[ 8 10 6 12 14 0 ]
[ 0.164100 0.267888 0.064188 0.435045 0.022931 0.045847 ]
5
Num Evals 4000
GenUC: 9.418756e-06
GenUB: 1.937151e-06
Optimisation 1.855540e+00
Total Time: 1.855554e+00
3 Add 4
Graph 1:
0 0 0 1 
1 0 0 0 
1 0 0 1 
0 1 0 1 
Graph 2:
0 0 1 1 
1 1 0 0 
1 0 0 1 
1 1 0 1 
Solution: 13 0
Classic Expectation: 7.833333
Initial Expecation: 5.875000
Gbest: 13.000000
Expectation: 8.848889
Final Parameters:
Gammas:
[ 2.822556 3.529359 3.179628 4.418085 0.000000 ]
Betas:
[ 1.325310 2.001093 1.012975 1.719560 2.862706 ]
Aggregate results:
[ 13 7 9 5 11 0 ]
[ 0.111015 0.117445 0.395271 0.097511 0.230782 0.047978 ]
5
Num Evals 4000
GenUC: 9.617710e-06
GenUB: 1.833250e-06
Optimisation 1.804839e+00
Total Time: 1.804854e+00
4 Rem 4
Graph 1:
0 0 0 1 
1 0 0 0 
1 0 0 1 
0 1 0 1 
Graph 2:
0 0 0 1 
0 0 0 0 
1 0 0 0 
0 0 0 1 
Solution: 13 0
Classic Expectation: 9.166667
Initial Expecation: 6.875000
Gbest: 13.000000
Expectation: 10.230997
Final Parameters:
Gammas:
[ 4.443388 1.918314 2.971580 4.016367 4.648231 ]
Betas:
[ 1.507009 1.135379 1.935885 1.731987 2.724787 ]
Aggregate results:
[ 13 7 9 11 0 ]
[ 0.234800 0.055669 0.338565 0.340166 0.030800 ]
5
Num Evals 4000
GenUC: 9.071897e-06
GenUB: 1.393142e-06
Optimisation 1.824656e+00
Total Time: 1.824669e+00
5 Add/Rem 4
Graph 1:
0 0 0 1 
1 0 0 0 
1 0 0 1 
0 1 0 1 
Graph 2:
0 1 0 0 
0 0 0 1 
1 0 1 0 
1 0 0 1 
Solution: 12 5
Classic Expectation: 8.333333
Initial Expecation: 6.250000
Gbest: 12.000000
Expectation: 10.352071
Final Parameters:
Gammas:
[ 3.231874 2.969792 3.003648 3.418885 3.525392 ]
Betas:
[ 2.705659 2.397657 2.493088 1.674932 1.870592 ]
Aggregate results:
[ 8 10 12 6 4 0 ]
[ 0.135790 0.414318 0.416225 0.014519 0.010189 0.008958 ]
3
Num Evals 3740
GenUC: 9.393494e-06
GenUB: 1.438952e-06
Optimisation 1.878744e+00
Total Time: 1.878758e+00
