Clock Speed: 3.689076
Num threads: 4
Trotterisation: 2
Num Qubits: 3
Space Dimension: 8
Run-Type: 0
Num_samples: 3
Optimiser Method: 20
1 Isomorphic
Graph 1:
0 1 1 
1 0 1 
1 1 0 
Graph 2:
0 1 1 
1 0 1 
1 1 0 
Solution: 9 0
Classic Expectation: 9.000000
Initial Expecation: 6.750000
Gbest: 9.000000
Expectation: 9.000000
Final Parameters:
Gammas:
[ 0.992221 3.309274 ]
Betas:
[ 2.298850 1.031024 ]
Aggregate results:
[ 9 0 ]
[ 1.000000 0.000000 ]
5
Num Evals 1200
GenUC: 2.803921e-06
GenUB: 8.743838e-06
Optimisation 1.639709e-01
Total Time: 1.640084e-01
2 Flipped
Graph 1:
0 1 1 
1 0 1 
1 1 0 
Graph 2:
1 1 0 
1 0 1 
0 1 1 
Solution: 5 0
Classic Expectation: 5.000000
Initial Expecation: 3.750000
Gbest: 5.000000
Expectation: 5.000000
Final Parameters:
Gammas:
[ 6.002034 4.547776 ]
Betas:
[ 2.265904 3.019578 ]
Aggregate results:
[ 5 0 ]
[ 1.000000 0.000000 ]
5
Num Evals 1200
GenUC: 2.961780e-06
GenUB: 9.618234e-07
Optimisation 1.113750e-01
Total Time: 1.113807e-01
3 Add 3
Graph 1:
0 1 1 
1 0 1 
1 1 0 
Graph 2:
1 1 1 
1 1 1 
1 1 1 
Solution: 6 0
Classic Expectation: 6.000000
Initial Expecation: 4.500000
Gbest: 6.000000
Expectation: 6.000000
Final Parameters:
Gammas:
[ 5.696015 0.252892 ]
Betas:
[ 2.289300 2.167268 ]
Aggregate results:
[ 6 0 ]
[ 1.000000 0.000000 ]
5
Num Evals 1200
GenUC: 2.451765e-06
GenUB: 6.959890e-07
Optimisation 1.165608e-01
Total Time: 1.165653e-01
4 Rem 3
Graph 1:
0 1 1 
1 0 1 
1 1 0 
Graph 2:
0 0 0 
0 0 1 
0 1 0 
Solution: 5 0
Classic Expectation: 5.000000
Initial Expecation: 3.750000
Gbest: 5.000000
Expectation: 5.000000
Final Parameters:
Gammas:
[ 5.646107 4.084950 ]
Betas:
[ 2.406437 2.334407 ]
Aggregate results:
[ 5 0 ]
[ 1.000000 0.000000 ]
5
Num Evals 1200
GenUC: 2.514629e-06
GenUB: 6.173505e-07
Optimisation 1.873904e-01
Total Time: 1.873948e-01
5 Add/Rem 3
Graph 1:
0 1 1 
1 0 1 
1 1 0 
Graph 2:
1 0 0 
0 1 1 
0 1 1 
Solution: 2 0
Classic Expectation: 2.000000
Initial Expecation: 1.500000
Gbest: 2.000000
Expectation: 2.000000
Final Parameters:
Gammas:
[ 5.296851 2.879869 ]
Betas:
[ 1.942340 0.449328 ]
Aggregate results:
[ 2 0 ]
[ 1.000000 0.000000 ]
5
Num Evals 1200
GenUC: 2.922490e-06
GenUB: 1.048669e-06
Optimisation 1.484215e-01
Total Time: 1.484272e-01
