Clock Speed: 3.689274
Num threads: 4
Trotterisation: 2
Num Qubits: 3
Space Dimension: 8
Run-Type: 0
Num_samples: 3
Optimiser Method: 20
1 Isomorphic
Graph 1:
0 1 0 
1 0 1 
0 1 0 
Graph 2:
0 1 0 
1 0 1 
0 1 0 
Solution: 9 0
Classic Expectation: 6.333333
Initial Expecation: 4.750000
Gbest: 9.000000
Expectation: 8.422645
Final Parameters:
Gammas:
[ 0.545621 5.737859 ]
Betas:
[ 1.569103 2.356447 ]
Aggregate results:
[ 9 5 0 ]
[ 0.862836 0.131425 0.005740 ]
5
Num Evals 1200
GenUC: 3.051493e-06
GenUB: 6.568327e-06
Optimisation 6.026472e+00
Total Time: 6.026507e+00
2 Flipped
Graph 1:
0 1 0 
1 0 1 
0 1 0 
Graph 2:
0 1 0 
1 0 1 
0 1 0 
Solution: 9 0
Classic Expectation: 6.333333
Initial Expecation: 4.750000
Gbest: 9.000000
Expectation: 7.542831
Final Parameters:
Gammas:
[ 1.639235 3.452891 ]
Betas:
[ 0.605212 0.259442 ]
Aggregate results:
[ 9 5 0 ]
[ 0.667127 0.307738 0.025135 ]
5
Num Evals 1200
GenUC: 3.075547e-06
GenUB: 9.500654e-07
Optimisation 3.634718e+00
Total Time: 3.634725e+00
3 Add 3
Graph 1:
0 1 0 
1 0 1 
0 1 0 
Graph 2:
1 1 1 
1 1 1 
1 1 0 
Solution: 5 0
Classic Expectation: 5.000000
Initial Expecation: 3.750000
Gbest: 5.000000
Expectation: 4.999995
Final Parameters:
Gammas:
[ 6.231704 1.583911 ]
Betas:
[ 2.482431 0.659443 ]
Aggregate results:
[ 5 0 ]
[ 0.999999 0.000001 ]
5
Num Evals 1200
GenUC: 2.781555e-06
GenUB: 1.276348e-06
Optimisation 5.194058e+00
Total Time: 5.194064e+00
4 Rem 3
Graph 1:
0 1 0 
1 0 1 
0 1 0 
Graph 2:
0 0 0 
0 0 0 
0 0 0 
Solution: 5 0
Classic Expectation: 5.000000
Initial Expecation: 3.750000
Gbest: 5.000000
Expectation: 5.000000
Final Parameters:
Gammas:
[ 6.270383 2.829167 ]
Betas:
[ 0.717550 0.817109 ]
Aggregate results:
[ 5 0 ]
[ 1.000000 0.000000 ]
5
Num Evals 1200
GenUC: 2.933550e-06
GenUB: 8.368079e-07
Optimisation 6.664798e+00
Total Time: 6.664804e+00
5 Add/Rem 3
Graph 1:
0 1 0 
1 0 1 
0 1 0 
Graph 2:
1 0 1 
0 1 0 
1 0 0 
Solution: 5 1
Classic Expectation: 3.666667
Initial Expecation: 2.750000
Gbest: 5.000000
Expectation: 4.694704
Final Parameters:
Gammas:
[ 0.326554 5.353872 ]
Betas:
[ 0.825221 0.407400 ]
Aggregate results:
[ 1 5 0 ]
[ 0.027782 0.933384 0.038834 ]
5
Num Evals 1200
GenUC: 2.580855e-06
GenUB: 7.969065e-07
Optimisation 3.280585e+00
Total Time: 3.280590e+00
