Clock Speed: 3.689403
Num threads: 4
Trotterisation: 5
Graph Size: 6
Num Qubits: 10
Space Dimension: 1024
Run-Type: 0
Num_samples: 10
1 Isomorphic
Graph 1:
0 1 1 0 1 1 
0 1 0 0 1 0 
0 0 1 1 0 1 
1 1 1 0 0 1 
0 1 1 1 1 1 
1 0 0 1 0 0 
Graph 2:
0 1 1 0 1 1 
0 1 0 0 1 0 
0 0 1 1 0 1 
1 1 1 0 0 1 
0 1 1 1 1 1 
1 0 0 1 0 0 
Solution: 0 0
Gbest: -12.000000
Expectation: -19.728065
Final Parameters:
Gammas:
[ 3.440113 3.276010 4.038587 4.043633 4.357316 ]
Betas:
[ 0.571080 2.104535 1.971099 3.128560 0.009558 0.256491 ]
Aggregate results:
[ -1 11 15 5 13 21 19 9 17 23 7 25 27 35 ]
[ 0.009053 0.062324 0.191311 0.010530 0.114036 0.070075 0.132129 0.019638 0.190949 0.008348 0.023009 0.001009 0.000256 0.167334 ]
5
Num Evals 600
GenUC: 2.699203e-04
GenUB: 1.947543e-04
Optimisation 1.330044e+00
Total Time: 1.332778e+00
2 Flipped
Graph 1:
0 1 1 0 1 1 
0 1 0 0 1 0 
0 0 1 1 0 1 
1 1 1 0 0 1 
0 1 1 1 1 1 
1 0 0 1 0 0 
Graph 2:
1 1 0 1 1 0 
0 1 0 0 1 0 
1 0 1 1 0 0 
1 0 0 1 1 1 
1 1 1 1 1 0 
0 0 1 0 0 1 
Solution: -10 303
Gbest: -16.000000
Expectation: -19.845059
Final Parameters:
Gammas:
[ 3.224874 0.011524 3.395460 3.937879 4.986284 ]
Betas:
[ 0.202611 0.037592 0.870919 1.666022 0.264338 0.173082 ]
Aggregate results:
[ 15 17 19 13 11 21 23 25 9 35 ]
[ 0.216312 0.269556 0.162977 0.104475 0.024783 0.079871 0.026576 0.002302 0.000604 0.112544 ]
5
Num Evals 1200
GenUC: 1.284889e-04
GenUB: 1.469554e-04
Optimisation 1.134319e+00
Total Time: 1.135979e+00
3 Add 6
Graph 1:
0 1 1 0 1 1 
0 1 0 0 1 0 
0 0 1 1 0 1 
1 1 1 0 0 1 
0 1 1 1 1 1 
1 0 0 1 0 0 
Graph 2:
0 1 1 1 1 1 
0 1 0 1 1 0 
0 0 1 1 1 1 
1 1 1 0 0 1 
0 1 1 1 1 1 
1 1 0 1 0 1 
Solution: -5 0
Gbest: -15.000000
Expectation: -17.870952
Final Parameters:
Gammas:
[ 3.214904 3.378355 1.536591 3.395926 3.704425 ]
Betas:
[ 1.838281 1.877189 0.102260 1.613618 1.382157 1.571583 ]
Aggregate results:
[ 4 14 16 6 22 18 20 12 10 24 8 35 ]
[ 0.004960 0.202526 0.220743 0.010518 0.015669 0.184539 0.067826 0.132723 0.063576 0.006765 0.005496 0.084658 ]
5
Num Evals 1800
GenUC: 1.275957e-04
GenUB: 1.571827e-04
Optimisation 1.137543e+00
Total Time: 1.140125e+00
4 Rem 6
Graph 1:
0 1 1 0 1 1 
0 1 0 0 1 0 
0 0 1 1 0 1 
1 1 1 0 0 1 
0 1 1 1 1 1 
1 0 0 1 0 0 
Graph 2:
0 1 1 0 1 1 
0 1 0 0 1 0 
0 0 1 1 0 0 
1 0 1 0 0 1 
0 1 1 1 1 0 
0 0 0 0 0 0 
Solution: -5 0
Gbest: -15.000000
Expectation: -19.813311
Final Parameters:
Gammas:
[ 3.222002 0.097256 3.247118 3.784321 0.060519 ]
Betas:
[ 1.719915 1.819634 0.349529 1.596017 1.632103 1.719518 ]
Aggregate results:
[ 4 14 18 8 16 20 10 22 12 24 26 6 35 ]
[ 0.000344 0.122109 0.237961 0.019236 0.137462 0.180564 0.031882 0.133071 0.043878 0.016626 0.000767 0.000028 0.076070 ]
5
Num Evals 2400
GenUC: 1.272359e-04
GenUB: 1.674917e-04
Optimisation 1.168362e+00
Total Time: 1.171097e+00
5 Add/Rem 6
Graph 1:
0 1 1 0 1 1 
0 1 0 0 1 0 
0 0 1 1 0 1 
1 1 1 0 0 1 
0 1 1 1 1 1 
1 0 0 1 0 0 
Graph 2:
0 1 1 0 1 1 
0 1 0 0 0 1 
1 1 1 1 1 1 
0 1 1 0 0 1 
0 0 1 1 1 0 
0 0 1 0 0 0 
Solution: -9 55
Gbest: -13.000000
Expectation: -19.395599
Final Parameters:
Gammas:
[ 3.416724 0.078149 1.986119 3.910995 0.124983 ]
Betas:
[ 2.367130 0.812929 1.618563 0.080713 1.595428 1.662465 ]
Aggregate results:
[ 10 16 12 18 14 20 22 8 24 26 35 ]
[ 0.044226 0.220350 0.092381 0.151291 0.209491 0.078545 0.033427 0.013559 0.019630 0.002369 0.134731 ]
5
Num Evals 3000
GenUC: 1.272225e-04
GenUB: 1.669130e-04
Optimisation 1.204563e+00
Total Time: 1.206971e+00
