Clock Speed: 3.389839
Num threads: 4
Trotterisation: 2
Graph Size: 7
Num Qubits: 13
Space Dimension: 8192
Run-Type: 0
Num_samples: 10
1 Isomorphic
Graph 1:
1 0 0 1 0 0 1 
1 0 1 1 0 1 0 
0 0 1 0 1 1 1 
0 1 1 1 0 0 0 
0 1 1 1 0 1 1 
0 0 1 0 1 1 1 
1 0 0 1 1 0 0 
Graph 2:
1 0 0 1 0 0 1 
1 0 1 1 0 1 0 
0 0 1 0 1 1 1 
0 1 1 1 0 0 0 
0 1 1 1 0 1 1 
0 0 1 0 1 1 1 
1 0 0 1 1 0 0 
Solution: 0 0
Gbest: -20.000000
Expectation: -26.907493
Final Parameters:
Gammas:
[ 0.193403 4.398521 ]
Betas:
[ 1.190841 2.068598 1.596238 ]
Aggregate results:
[ -1 15 21 13 23 19 27 9 17 25 29 11 31 1 33 35 48 ]
[ 0.000167 0.017814 0.160704 0.005570 0.183610 0.101980 0.121728 0.002283 0.042074 0.173119 0.055685 0.000893 0.017906 0.000397 0.004194 0.000498 0.111378 ]
5
Num Evals 700
GenUC: 1.528606e-03
GenUB: 3.263827e-03
Optimisation 5.320994e+00
Total Time: 5.333358e+00
2 Flipped
Graph 1:
1 0 0 1 0 0 1 
1 0 1 1 0 1 0 
0 0 1 0 1 1 1 
0 1 1 1 0 0 0 
0 1 1 1 0 1 1 
0 0 1 0 1 1 1 
1 0 0 1 1 0 0 
Graph 2:
1 0 0 1 0 0 1 
0 1 0 1 1 0 1 
1 1 1 0 1 0 0 
0 0 0 1 1 1 0 
1 1 0 1 1 1 0 
1 1 1 0 1 0 0 
0 0 1 1 0 0 1 
Solution: -12 3716
Gbest: -20.000000
Expectation: -26.453398
Final Parameters:
Gammas:
[ 0.062202 1.327298 ]
Betas:
[ 0.269159 0.861853 1.733245 ]
Aggregate results:
[ 25 23 21 29 27 19 31 17 37 35 33 15 13 11 48 ]
[ 0.180334 0.205423 0.157149 0.055351 0.125568 0.100583 0.015234 0.043617 0.000682 0.001123 0.004030 0.016365 0.004793 0.000361 0.089387 ]
5
Num Evals 1400
GenUC: 1.237767e-03
GenUB: 1.756925e-03
Optimisation 4.902317e+00
Total Time: 4.910921e+00
3 Add 7
Graph 1:
1 0 0 1 0 0 1 
1 0 1 1 0 1 0 
0 0 1 0 1 1 1 
0 1 1 1 0 0 0 
0 1 1 1 0 1 1 
0 0 1 0 1 1 1 
1 0 0 1 1 0 0 
Graph 2:
1 0 0 1 1 0 1 
1 1 1 1 0 1 0 
0 0 1 0 1 1 1 
0 1 1 1 1 0 0 
1 1 1 1 1 1 1 
0 1 1 0 1 1 1 
1 0 0 1 1 0 0 
Solution: -6 0
Gbest: -20.000000
Expectation: -26.050166
Final Parameters:
Gammas:
[ 6.107366 3.363956 ]
Betas:
[ 1.826097 0.054675 0.735073 ]
Aggregate results:
[ 5 17 21 15 23 27 19 13 25 29 11 7 31 9 33 48 ]
[ 0.000409 0.046715 0.189307 0.015836 0.231519 0.105303 0.109006 0.006859 0.153435 0.035224 0.001121 0.000432 0.008618 0.000463 0.001841 0.093912 ]
5
Num Evals 2100
GenUC: 1.232459e-03
GenUB: 1.782463e-03
Optimisation 5.148350e+00
Total Time: 5.156562e+00
4 Rem 7
Graph 1:
1 0 0 1 0 0 1 
1 0 1 1 0 1 0 
0 0 1 0 1 1 1 
0 1 1 1 0 0 0 
0 1 1 1 0 1 1 
0 0 1 0 1 1 1 
1 0 0 1 1 0 0 
Graph 2:
1 0 0 1 0 0 1 
1 0 0 1 0 1 0 
0 0 1 0 1 1 0 
0 1 0 1 0 0 0 
0 1 0 1 0 1 1 
0 0 1 0 0 0 0 
1 0 0 1 1 0 0 
Solution: -7 0
Gbest: -19.000000
Expectation: -27.050847
Final Parameters:
Gammas:
[ 3.217005 2.174756 ]
Betas:
[ 1.495200 0.932294 1.389252 ]
Aggregate results:
[ 6 20 22 16 24 28 26 30 18 14 34 32 36 12 10 48 ]
[ 0.000724 0.107603 0.175176 0.022312 0.204289 0.092624 0.160434 0.047601 0.063275 0.008441 0.003715 0.014274 0.000551 0.000535 0.000106 0.098341 ]
5
Num Evals 2800
GenUC: 1.278564e-03
GenUB: 1.741826e-03
Optimisation 5.130816e+00
Total Time: 5.140508e+00
5 Add/Rem 7
Graph 1:
1 0 0 1 0 0 1 
1 0 1 1 0 1 0 
0 0 1 0 1 1 1 
0 1 1 1 0 0 0 
0 1 1 1 0 1 1 
0 0 1 0 1 1 1 
1 0 0 1 1 0 0 
Graph 2:
1 0 1 0 0 1 1 
1 0 1 1 1 1 1 
0 0 0 0 0 0 1 
0 0 1 1 1 0 1 
0 0 1 0 0 1 1 
0 0 1 0 1 1 1 
1 0 0 1 1 0 1 
Solution: -12 3018
Gbest: -18.000000
Expectation: -26.912149
Final Parameters:
Gammas:
[ 6.216292 5.267725 ]
Betas:
[ 1.562863 2.112874 1.292975 ]
Aggregate results:
[ 13 19 23 21 15 25 17 27 29 31 33 37 11 48 ]
[ 0.002855 0.096254 0.206123 0.159189 0.013865 0.191382 0.035346 0.120037 0.052604 0.013083 0.002359 0.000678 0.000130 0.106095 ]
5
Num Evals 3500
GenUC: 1.209278e-03
GenUB: 1.653863e-03
Optimisation 5.257873e+00
Total Time: 5.268399e+00
