Clock Speed: 3.688909
Num threads: 4
Trotterisation: 6
Graph Size: 6
Num Qubits: 10
Space Dimension: 1024
Run-Type: 0
Num_samples: 10
1 Isomorphic
Graph 1:
1 0 1 0 0 1 
0 1 1 0 0 1 
0 1 1 0 1 1 
0 0 1 0 0 0 
1 1 0 1 0 0 
0 1 0 1 0 1 
Graph 2:
1 0 1 0 0 1 
0 1 1 0 0 1 
0 1 1 0 1 1 
0 0 1 0 0 0 
1 1 0 1 0 0 
0 1 0 1 0 1 
Solution: 0 0
Gbest: -14.000000
Expectation: -22.251325
Final Parameters:
Gammas:
[ 3.141593 1.047198 3.141593 5.235988 3.141593 3.141593 ]
Betas:
[ 1.570796 1.570796 0.523599 1.570796 1.570796 1.570796 1.570796 ]
Aggregate results:
[ -1 3 11 9 17 15 19 7 5 21 23 13 25 35 ]
[ 0.001776 0.000412 0.040961 0.011117 0.206284 0.147389 0.106075 0.007340 0.003306 0.085196 0.024671 0.101849 0.000716 0.262907 ]
3
Num Evals 71
GenUC: 2.996864e-04
GenUB: 1.995577e-04
Optimisation 2.253415e-01
Total Time: 2.284399e-01
2 Flipped
Graph 1:
1 0 1 0 0 1 
0 1 1 0 0 1 
0 1 1 0 1 1 
0 0 1 0 0 0 
1 1 0 1 0 0 
0 1 0 1 0 1 
Graph 2:
1 0 0 1 0 1 
1 0 0 1 1 0 
1 1 0 1 1 0 
0 0 0 1 0 0 
0 0 1 0 1 1 
1 0 1 0 1 0 
Solution: -10 409
Gbest: -12.000000
Expectation: -22.729581
Final Parameters:
Gammas:
[ 3.141593 5.235988 3.141593 3.141593 3.141593 3.141593 ]
Betas:
[ 1.570796 0.523599 0.523599 1.570796 1.570796 1.570796 1.570796 ]
Aggregate results:
[ 25 23 19 21 17 15 11 13 9 35 ]
[ 0.005385 0.021173 0.130021 0.074233 0.219100 0.143030 0.032426 0.101126 0.001366 0.272141 ]
3
Num Evals 192
GenUC: 1.321964e-04
GenUB: 1.538695e-04
Optimisation 3.363088e-01
Total Time: 3.390768e-01
3 Add 6
Graph 1:
1 0 1 0 0 1 
0 1 1 0 0 1 
0 1 1 0 1 1 
0 0 1 0 0 0 
1 1 0 1 0 0 
0 1 0 1 0 1 
Graph 2:
1 0 1 0 0 1 
1 1 1 0 0 1 
1 1 1 1 1 1 
0 1 1 1 0 0 
1 1 0 1 0 0 
0 1 0 1 0 1 
Solution: -5 0
Gbest: -9.000000
Expectation: -20.995239
Final Parameters:
Gammas:
[ 5.235988 3.141593 1.047198 3.141593 3.141593 3.141593 ]
Betas:
[ 1.570796 1.570796 1.570796 1.570796 1.570796 1.570796 2.617994 ]
Aggregate results:
[ 4 6 12 16 20 18 8 14 22 24 26 10 35 ]
[ 0.001949 0.003899 0.072861 0.212177 0.115643 0.194454 0.004570 0.128567 0.052692 0.006512 0.001240 0.019707 0.185730 ]
3
Num Evals 253
GenUC: 1.311189e-04
GenUB: 1.675944e-04
Optimisation 1.763587e-01
Total Time: 1.795475e-01
4 Rem 6
Graph 1:
1 0 1 0 0 1 
0 1 1 0 0 1 
0 1 1 0 1 1 
0 0 1 0 0 0 
1 1 0 1 0 0 
0 1 0 1 0 1 
Graph 2:
1 0 0 0 0 1 
0 1 1 0 0 1 
0 0 1 0 0 1 
0 0 1 0 0 0 
1 1 0 1 0 0 
0 0 0 1 0 1 
Solution: -4 0
Gbest: -10.000000
Expectation: -22.232409
Final Parameters:
Gammas:
[ 3.141593 5.235988 1.047198 3.141593 3.141593 3.141593 ]
Betas:
[ 1.570796 1.570796 0.523599 1.570796 1.570796 1.570796 1.570796 ]
Aggregate results:
[ 3 9 7 15 13 17 19 21 11 23 35 ]
[ 0.001323 0.014825 0.004644 0.164478 0.116980 0.204330 0.120059 0.040415 0.048934 0.000626 0.283385 ]
3
Num Evals 318
GenUC: 1.227871e-04
GenUB: 1.673586e-04
Optimisation 1.965494e-01
Total Time: 1.994219e-01
5 Add/Rem 6
Graph 1:
1 0 1 0 0 1 
0 1 1 0 0 1 
0 1 1 0 1 1 
0 0 1 0 0 0 
1 1 0 1 0 0 
0 1 0 1 0 1 
Graph 2:
1 0 1 0 0 0 
0 1 1 0 1 1 
0 1 1 0 0 1 
0 1 0 0 0 0 
1 1 1 0 1 0 
0 0 0 1 1 1 
Solution: -8 3
Gbest: -8.000000
Expectation: -22.129699
Final Parameters:
Gammas:
[ 3.141593 5.235988 1.047198 3.141593 3.141593 3.141593 ]
Betas:
[ 1.570796 1.570796 0.523599 1.570796 1.570796 1.570796 1.570796 ]
Aggregate results:
[ 9 11 7 13 15 21 19 17 25 23 35 ]
[ 0.012743 0.052603 0.005573 0.135168 0.160339 0.048477 0.120827 0.166394 0.001396 0.026585 0.269895 ]
3
Num Evals 387
GenUC: 1.317393e-04
GenUB: 1.682588e-04
Optimisation 1.928042e-01
Total Time: 1.956777e-01
