Clock Speed: 3.689113
Num threads: 4
Trotterisation: 5
Graph Size: 5
Num Qubits: 7
Space Dimension: 128
Run-Type: 0
Num_samples: 10
1 Isomorphic
Graph 1:
1 1 0 1 0 
0 0 1 1 0 
0 1 1 0 0 
0 0 0 1 1 
1 0 0 1 1 
Graph 2:
1 1 0 1 0 
0 0 1 1 0 
0 1 1 0 0 
0 0 0 1 1 
1 0 0 1 1 
Solution: 0 0
Gbest: -6.000000
Expectation: -10.572518
Final Parameters:
Gammas:
[ 0.084745 3.221981 3.584700 3.393903 4.102018 ]
Betas:
[ 0.137409 2.142598 2.229029 1.614471 2.958470 0.041988 ]
Aggregate results:
[ -1 9 5 11 13 7 17 15 24 ]
[ 0.021707 0.292760 0.105672 0.191945 0.190096 0.165958 0.007894 0.002528 0.021440 ]
5
Num Evals 500
GenUC: 1.821561e-04
GenUB: 3.170455e-05
Optimisation 3.890392e-01
Total Time: 3.899345e-01
2 Flipped
Graph 1:
1 1 0 1 0 
0 0 1 1 0 
0 1 1 0 0 
0 0 0 1 1 
1 0 0 1 1 
Graph 2:
0 1 0 1 1 
0 1 1 0 0 
0 0 1 1 0 
1 1 0 0 0 
1 1 0 0 1 
Solution: -4 71
Gbest: -6.000000
Expectation: -11.628873
Final Parameters:
Gammas:
[ 1.532667 4.603199 4.483313 4.586620 5.743910 ]
Betas:
[ 0.170523 0.277925 1.795230 0.152214 0.190118 0.022605 ]
Aggregate results:
[ 11 13 15 9 5 7 17 3 24 ]
[ 0.275264 0.127948 0.046592 0.308682 0.031469 0.129291 0.010815 0.022102 0.047836 ]
5
Num Evals 1000
GenUC: 2.543174e-05
GenUB: 1.738092e-05
Optimisation 3.475464e-01
Total Time: 3.479876e-01
3 Add 5
Graph 1:
1 1 0 1 0 
0 0 1 1 0 
0 1 1 0 0 
0 0 0 1 1 
1 0 0 1 1 
Graph 2:
1 1 1 1 0 
1 0 1 1 1 
0 1 1 0 0 
0 1 0 1 1 
1 0 1 1 1 
Solution: -5 0
Gbest: -5.000000
Expectation: -11.330588
Final Parameters:
Gammas:
[ 0.216667 2.968824 0.130568 3.406643 2.859013 ]
Betas:
[ 1.614387 2.315634 1.636611 1.896532 0.028796 0.159912 ]
Aggregate results:
[ 4 10 8 12 6 14 16 24 ]
[ 0.067304 0.297070 0.170333 0.242089 0.065673 0.115526 0.024573 0.017432 ]
5
Num Evals 1500
GenUC: 1.982781e-03
GenUB: 2.122298e-05
Optimisation 3.176050e-01
Total Time: 3.204020e-01
4 Rem 5
Graph 1:
1 1 0 1 0 
0 0 1 1 0 
0 1 1 0 0 
0 0 0 1 1 
1 0 0 1 1 
Graph 2:
0 1 0 0 0 
0 0 0 0 0 
0 1 1 0 0 
0 0 0 1 1 
1 0 0 0 1 
Solution: -5 0
Gbest: -9.000000
Expectation: -10.801742
Final Parameters:
Gammas:
[ 1.445470 1.015188 0.212667 3.782271 3.306245 ]
Betas:
[ 0.094262 1.668685 0.033355 0.009237 1.584309 1.875527 ]
Aggregate results:
[ 4 10 8 12 6 14 24 ]
[ 0.002869 0.269838 0.389069 0.166181 0.089960 0.052459 0.029624 ]
5
Num Evals 2000
GenUC: 2.432149e-05
GenUB: 1.751771e-05
Optimisation 3.212122e-01
Total Time: 3.217645e-01
5 Add/Rem 5
Graph 1:
1 1 0 1 0 
0 0 1 1 0 
0 1 1 0 0 
0 0 0 1 1 
1 0 0 1 1 
Graph 2:
1 0 0 0 1 
0 0 0 0 1 
0 1 1 1 0 
0 0 0 0 1 
1 0 1 1 1 
Solution: -7 5
Gbest: -9.000000
Expectation: -11.623292
Final Parameters:
Gammas:
[ 3.184808 0.336304 2.689011 0.258950 0.725312 ]
Betas:
[ 1.890676 2.942122 0.109929 0.259668 1.609042 1.578015 ]
Aggregate results:
[ 8 14 10 12 6 16 24 ]
[ 0.200920 0.062837 0.411638 0.264104 0.031330 0.004688 0.024484 ]
5
Num Evals 2500
GenUC: 2.418587e-05
GenUB: 1.708220e-05
Optimisation 3.190108e-01
Total Time: 3.196694e-01
