Clock Speed: 3.689237
Num threads: 4
Trotterisation: 4
Num Qubits: 5
Space Dimension: 32
Run-Type: 0
Num_samples: 6399
Optimiser Method: 28
1 Isomorphic
Graph 1:
0 1 1 1 
0 0 0 0 
0 0 1 1 
0 1 0 1 
Graph 2:
0 1 1 1 
0 0 0 0 
0 0 1 1 
0 1 0 1 
Solution: 16 0
Classic Expectation: 8.166667
Initial Expecation: 6.125000
Gbest: 16.000000
Expectation: 6.125000
Final Parameters:
Gammas:
[ 3.141593 3.141593 3.141593 3.141593 ]
Betas:
[ 1.570796 1.570796 1.570796 1.570796 ]
Aggregate results:
[ 16 12 10 8 6 0 ]
[ 0.031250 0.093750 0.093750 0.187500 0.343750 0.250000 ]
3
Num Evals 9
GenUC: 8.586579e-06
GenUB: 8.484472e-06
Optimisation 3.645164e-03
Total Time: 3.678429e-03
2 Flipped
Graph 1:
0 1 1 1 
0 0 0 0 
0 0 1 1 
0 1 0 1 
Graph 2:
1 1 1 0 
0 0 0 0 
1 1 0 0 
1 0 1 0 
Solution: 12 15
Classic Expectation: 8.000000
Initial Expecation: 6.000000
Gbest: 12.000000
Expectation: 10.365240
Final Parameters:
Gammas:
[ 3.438547 2.734113 3.250918 4.206807 ]
Betas:
[ 1.002611 2.302753 1.898302 1.599014 ]
Aggregate results:
[ 6 10 8 4 12 0 ]
[ 0.072498 0.319244 0.093079 0.001844 0.498817 0.014518 ]
3
Num Evals 2225
GenUC: 9.001469e-06
GenUB: 1.768134e-06
Optimisation 8.506376e-01
Total Time: 8.506501e-01
3 Add 4
Graph 1:
0 1 1 1 
0 0 0 0 
0 0 1 1 
0 1 0 1 
Graph 2:
0 1 1 1 
1 1 0 0 
0 1 1 1 
1 1 0 1 
Solution: 12 0
Classic Expectation: 7.666667
Initial Expecation: 5.750000
Gbest: 12.000000
Expectation: 5.750000
Final Parameters:
Gammas:
[ 3.141593 3.141593 3.141593 3.141593 ]
Betas:
[ 1.570796 1.570796 1.570796 2.356194 ]
Aggregate results:
[ 12 10 8 4 6 0 ]
[ 0.031250 0.187500 0.250000 0.093750 0.187500 0.250000 ]
3
Num Evals 9
GenUC: 8.850067e-06
GenUB: 2.032211e-06
Optimisation 3.132992e-03
Total Time: 3.146186e-03
4 Rem 4
Graph 1:
0 1 1 1 
0 0 0 0 
0 0 1 1 
0 1 0 1 
Graph 2:
0 1 1 0 
0 0 0 0 
0 0 0 0 
0 0 0 1 
Solution: 12 0
Classic Expectation: 8.666667
Initial Expecation: 6.500000
Gbest: 12.000000
Expectation: 6.500000
Final Parameters:
Gammas:
[ 3.141593 3.141593 3.141593 3.141593 ]
Betas:
[ 1.570796 1.570796 1.570796 1.570796 ]
Aggregate results:
[ 12 10 8 6 0 ]
[ 0.125000 0.125000 0.375000 0.125000 0.250000 ]
3
Num Evals 9
GenUC: 9.284915e-06
GenUB: 1.227072e-06
Optimisation 3.781235e-03
Total Time: 3.793084e-03
5 Add/Rem 4
Graph 1:
0 1 1 1 
0 0 0 0 
0 0 1 1 
0 1 0 1 
Graph 2:
0 0 1 0 
0 0 1 1 
0 0 1 0 
0 0 0 1 
Solution: 12 6
Classic Expectation: 8.500000
Initial Expecation: 6.375000
Gbest: 12.000000
Expectation: 9.111233
Final Parameters:
Gammas:
[ 3.627627 3.405469 3.849822 2.639712 ]
Betas:
[ 1.138186 2.369963 1.642673 1.790507 ]
Aggregate results:
[ 10 12 8 6 4 0 ]
[ 0.110176 0.382695 0.320672 0.136801 0.007738 0.041918 ]
3
Num Evals 2001
GenUC: 9.043139e-06
GenUB: 1.285756e-06
Optimisation 7.560236e-01
Total Time: 7.560360e-01
