Clock Speed: 3.689213
Num threads: 4
Trotterisation: 4
Graph Size: 4
Num Qubits: 5
Space Dimension: 32
Run-Type: 0
Num_samples: 10
1 Isomorphic
Graph 1:
1 0 0 1 
1 0 1 1 
1 0 1 0 
0 0 0 0 
Graph 2:
1 0 0 1 
1 0 1 1 
1 0 1 0 
0 0 0 0 
Solution: 0 0
Gbest: 0.000000
Expectation: -6.855146
Final Parameters:
Gammas:
[ 1.757741 3.050389 3.348838 3.324088 ]
Betas:
[ 2.952999 1.563237 1.767978 1.976031 1.783762 ]
Aggregate results:
[ -1 7 5 3 9 15 ]
[ 0.160520 0.140223 0.251253 0.115369 0.259632 0.073003 ]
3
Num Evals 376
GenUC: 1.437795e-04
GenUB: 1.223147e-05
Optimisation 1.891791e-01
Total Time: 1.897767e-01
2 Flipped
Graph 1:
1 0 0 1 
1 0 1 1 
1 0 1 0 
0 0 0 0 
Graph 2:
1 0 0 1 
1 1 0 1 
0 1 0 1 
0 0 0 0 
Solution: -2 3
Gbest: -2.000000
Expectation: -5.056851
Final Parameters:
Gammas:
[ 3.007491 3.265828 2.870554 2.969926 ]
Betas:
[ 2.493462 1.835683 1.896991 1.721604 1.724898 ]
Aggregate results:
[ 5 7 1 3 9 11 15 ]
[ 0.481622 0.052432 0.221220 0.211441 0.010173 0.003018 0.020095 ]
5
Num Evals 776
GenUC: 1.127938e-03
GenUB: 8.656454e-06
Optimisation 1.745307e-01
Total Time: 1.760383e-01
3 Add 4
Graph 1:
1 0 0 1 
1 0 1 1 
1 0 1 0 
0 0 0 0 
Graph 2:
1 1 0 1 
1 0 1 1 
1 0 1 1 
0 0 0 1 
Solution: -3 0
Gbest: -3.000000
Expectation: -6.909758
Final Parameters:
Gammas:
[ 4.854102 3.532500 3.657364 2.813422 ]
Betas:
[ 0.562153 1.853299 2.202157 1.837786 0.548468 ]
Aggregate results:
[ 2 8 6 4 10 12 15 ]
[ 0.075778 0.083316 0.202582 0.485871 0.052255 0.030940 0.069257 ]
5
Num Evals 1176
GenUC: 2.059788e-03
GenUB: 9.725671e-06
Optimisation 1.651166e-01
Total Time: 1.675082e-01
4 Rem 4
Graph 1:
1 0 0 1 
1 0 1 1 
1 0 1 0 
0 0 0 0 
Graph 2:
1 0 0 0 
1 0 1 0 
0 0 1 0 
0 0 0 0 
Solution: -3 0
Gbest: -3.000000
Expectation: -7.174640
Final Parameters:
Gammas:
[ 4.572166 2.765660 3.377092 3.738937 ]
Betas:
[ 0.792596 0.704407 1.344747 1.725904 2.243644 ]
Aggregate results:
[ 2 8 6 4 10 15 ]
[ 0.226924 0.296797 0.170976 0.198685 0.014689 0.091929 ]
5
Num Evals 1576
GenUC: 1.091461e-05
GenUB: 8.402945e-06
Optimisation 1.496461e-01
Total Time: 1.499907e-01
5 Add/Rem 4
Graph 1:
1 0 0 1 
1 0 1 1 
1 0 1 0 
0 0 0 0 
Graph 2:
0 0 1 0 
1 0 0 1 
1 1 1 0 
0 1 0 0 
Solution: -6 0
Gbest: -6.000000
Expectation: -10.000000
Final Parameters:
Gammas:
[ 3.298672 3.141593 3.141593 3.141593 ]
Betas:
[ 2.277655 1.570796 1.570796 1.570796 1.570796 ]
Aggregate results:
[ 5 9 7 11 15 ]
[ 0.218750 0.156250 0.343750 0.031250 0.250000 ]
3
Num Evals 1598
GenUC: 1.176786e-05
GenUB: 8.477466e-06
Optimisation 7.229370e-03
Total Time: 7.589663e-03
