Clock Speed: 3.689420
Num threads: 4
Trotterisation: 6
Graph Size: 8
Num Qubits: 16
Space Dimension: 65536
Run-Type: 0
Num_samples: 10
1 Isomorphic
Graph 1:
1 1 0 1 0 1 1 0 
0 1 0 1 0 0 1 0 
1 0 0 0 1 1 1 0 
1 1 1 1 1 1 0 1 
1 0 0 1 0 0 1 0 
0 1 1 0 0 1 0 0 
1 1 0 1 1 0 1 0 
1 0 0 1 0 1 1 1 
Graph 2:
1 1 0 1 0 1 1 0 
0 1 0 1 0 0 1 0 
1 0 0 0 1 1 1 0 
1 1 1 1 1 1 0 1 
1 0 0 1 0 0 1 0 
0 1 1 0 0 1 0 0 
1 1 0 1 1 0 1 0 
1 0 0 1 0 1 1 1 
Solution: 0 0
Gbest: -24.000000
Expectation: -34.073657
Final Parameters:
Gammas:
[ 6.049687 6.144866 6.034158 5.314397 4.557543 4.515118 ]
Betas:
[ 2.038360 2.103779 1.680459 1.586210 1.677625 1.537238 1.664599 ]
Aggregate results:
[ -1 11 17 13 21 29 25 23 31 19 35 15 9 27 33 37 39 7 41 43 45 63 ]
[ 0.000030 0.000323 0.007061 0.001160 0.040923 0.147717 0.122725 0.080062 0.113245 0.020410 0.045356 0.003221 0.000200 0.153800 0.077049 0.028062 0.011994 0.000023 0.003743 0.000521 0.000040 0.142337 ]
5
Num Evals 800
GenUC: 4.645444e-02
GenUB: 1.768089e-02
Optimisation 4.035351e+02
Total Time: 4.040839e+02
2 Flipped
Graph 1:
1 1 0 1 0 1 1 0 
0 1 0 1 0 0 1 0 
1 0 0 0 1 1 1 0 
1 1 1 1 1 1 0 1 
1 0 0 1 0 0 1 0 
0 1 1 0 0 1 0 0 
1 1 0 1 1 0 1 0 
1 0 0 1 0 1 1 1 
Graph 2:
0 1 1 0 1 0 1 1 
0 1 0 0 1 0 1 0 
0 1 1 1 0 0 0 1 
1 0 1 1 1 1 1 1 
0 1 0 0 1 0 0 1 
0 0 1 0 0 1 1 0 
0 1 0 1 1 0 1 1 
1 1 1 0 1 0 0 1 
Solution: -14 16726
Gbest: -24.000000
Expectation: -34.000804
Final Parameters:
Gammas:
[ 4.737920 4.559038 4.256073 4.832429 4.628485 5.337127 ]
Betas:
[ 2.082548 3.112404 2.667731 1.635609 1.591041 1.504701 1.744804 ]
Aggregate results:
[ 33 31 35 25 27 29 37 41 39 23 21 19 43 45 17 15 13 47 63 ]
[ 0.109301 0.150959 0.070210 0.107075 0.163775 0.180464 0.032713 0.002793 0.009952 0.044384 0.015094 0.004070 0.000376 0.000302 0.001334 0.000171 0.000020 0.000022 0.106986 ]
5
Num Evals 1600
GenUC: 2.432504e-03
GenUB: 1.715220e-02
Optimisation 4.353543e+02
Total Time: 4.359911e+02
3 Add 8
Graph 1:
1 1 0 1 0 1 1 0 
0 1 0 1 0 0 1 0 
1 0 0 0 1 1 1 0 
1 1 1 1 1 1 0 1 
1 0 0 1 0 0 1 0 
0 1 1 0 0 1 0 0 
1 1 0 1 1 0 1 0 
1 0 0 1 0 1 1 1 
Graph 2:
1 1 0 1 0 1 1 0 
0 1 0 1 1 0 1 1 
1 0 0 0 1 1 1 1 
1 1 1 1 1 1 0 1 
1 1 0 1 0 1 1 0 
0 1 1 0 1 1 0 0 
1 1 0 1 1 0 1 0 
1 0 0 1 1 1 1 1 
Solution: -7 0
Gbest: -27.000000
Expectation: -33.292825
Final Parameters:
Gammas:
[ 3.134771 3.143558 3.961970 4.401488 3.141668 3.147733 ]
Betas:
[ 2.417080 1.490203 2.384092 1.568479 1.798102 1.851558 1.525637 ]
Aggregate results:
[ 6 16 22 18 24 26 32 28 34 30 20 36 12 14 10 38 40 42 44 63 ]
[ 0.000044 0.000860 0.021156 0.001665 0.054846 0.115450 0.166936 0.173438 0.108643 0.196103 0.006733 0.055383 0.000036 0.000239 0.000048 0.020019 0.005321 0.000774 0.000198 0.072106 ]
5
Num Evals 2400
GenUC: 2.981350e-03
GenUB: 1.695663e-02
Optimisation 3.963509e+02
Total Time: 3.968636e+02
4 Rem 8
Graph 1:
1 1 0 1 0 1 1 0 
0 1 0 1 0 0 1 0 
1 0 0 0 1 1 1 0 
1 1 1 1 1 1 0 1 
1 0 0 1 0 0 1 0 
0 1 1 0 0 1 0 0 
1 1 0 1 1 0 1 0 
1 0 0 1 0 1 1 1 
Graph 2:
1 1 0 0 0 1 1 0 
0 1 0 1 0 0 1 0 
1 0 0 0 1 1 1 0 
0 1 0 1 1 0 0 0 
1 0 0 1 0 0 1 0 
0 0 1 0 0 1 0 0 
1 1 0 0 1 0 1 0 
1 0 0 1 0 1 0 1 
Solution: -8 0
Gbest: -26.000000
Expectation: -39.750694
Final Parameters:
Gammas:
[ 5.854076 5.343300 5.237753 5.218608 4.498272 4.464316 ]
Betas:
[ 2.176547 2.133410 1.550494 1.671354 1.645920 1.569101 1.474799 ]
Aggregate results:
[ 7 17 25 21 23 27 19 15 31 29 33 35 37 13 9 39 41 43 45 63 ]
[ 0.000030 0.001244 0.070902 0.011286 0.031597 0.117078 0.003784 0.000400 0.135038 0.146547 0.103485 0.064684 0.031659 0.000103 0.000013 0.009802 0.002987 0.000398 0.000020 0.268945 ]
5
Num Evals 3200
GenUC: 3.064403e-03
GenUB: 1.671222e-02
Optimisation 4.030763e+02
Total Time: 4.035841e+02
5 Add/Rem 8
Graph 1:
1 1 0 1 0 1 1 0 
0 1 0 1 0 0 1 0 
1 0 0 0 1 1 1 0 
1 1 1 1 1 1 0 1 
1 0 0 1 0 0 1 0 
0 1 1 0 0 1 0 0 
1 1 0 1 1 0 1 0 
1 0 0 1 0 1 1 1 
Graph 2:
1 1 0 1 0 1 1 0 
1 0 0 0 0 1 1 0 
1 0 0 1 0 1 0 0 
1 1 1 1 1 1 0 1 
1 0 0 1 0 0 1 0 
0 1 1 0 0 1 1 0 
1 1 0 1 1 1 0 1 
0 0 0 1 1 1 1 1 
Solution: -13 0
Gbest: -23.000000
Expectation: -32.270188
Final Parameters:
Gammas:
[ 3.203874 3.115882 3.205953 3.176230 5.262727 5.562226 ]
Betas:
[ 2.095562 2.009345 1.528968 1.761736 1.723255 1.575463 1.555043 ]
Aggregate results:
[ 12 18 14 22 24 26 34 32 28 38 30 20 16 36 42 40 44 46 48 63 ]
[ 0.000099 0.003817 0.000206 0.024914 0.057094 0.104146 0.128081 0.176325 0.152045 0.036149 0.182857 0.010556 0.000786 0.077451 0.004346 0.013393 0.000876 0.000189 0.000008 0.026661 ]
5
Num Evals 4000
GenUC: 2.932392e-03
GenUB: 1.713973e-02
Optimisation 3.874524e+02
Total Time: 3.879478e+02
