Clock Speed: 3.688858
Num threads: 4
Trotterisation: 5
Graph Size: 7
Num Qubits: 13
Space Dimension: 8192
Run-Type: 0
Num_samples: 10
1 Isomorphic
Graph 1:
0 1 0 1 0 0 0 
1 0 1 0 1 0 1 
0 0 1 0 0 1 0 
1 0 1 1 0 0 0 
1 1 0 1 1 0 1 
0 1 1 1 1 1 1 
1 1 1 1 0 0 0 
Graph 2:
0 1 0 1 0 0 0 
1 0 1 0 1 0 1 
0 0 1 0 0 1 0 
1 0 1 1 0 0 0 
1 1 0 1 1 0 1 
0 1 1 1 1 1 1 
1 1 1 1 0 0 0 
Solution: 0 0
Gbest: -20.000000
Expectation: -28.951790
Final Parameters:
Gammas:
[ 4.620723 4.734345 3.249317 4.608078 4.507439 ]
Betas:
[ 1.574101 2.884379 1.834737 1.474215 1.950287 1.743051 ]
Aggregate results:
[ -1 11 19 17 15 13 5 21 9 25 23 27 29 31 33 37 35 7 48 ]
[ 0.000006 0.002714 0.082767 0.040310 0.019309 0.005537 0.000338 0.134468 0.001398 0.166126 0.166935 0.104411 0.056398 0.023096 0.005560 0.000265 0.001814 0.000145 0.188402 ]
5
Num Evals 700
GenUC: 1.497109e-03
GenUB: 2.041936e-03
Optimisation 1.158420e+01
Total Time: 1.160426e+01
2 Flipped
Graph 1:
0 1 0 1 0 0 0 
1 0 1 0 1 0 1 
0 0 1 0 0 1 0 
1 0 1 1 0 0 0 
1 1 0 1 1 0 1 
0 1 1 1 1 1 1 
1 1 1 1 0 0 0 
Graph 2:
0 0 0 1 0 1 0 
1 0 1 0 1 0 1 
0 1 0 0 1 0 0 
0 0 0 1 1 0 1 
1 0 1 1 0 1 1 
1 1 1 1 1 1 0 
0 0 0 1 1 1 1 
Solution: -14 1486
Gbest: -16.000000
Expectation: -32.495187
Final Parameters:
Gammas:
[ 4.600204 4.624485 4.693974 4.644279 3.080958 ]
Betas:
[ 1.610492 2.490481 1.364098 1.705274 1.786154 1.509071 ]
Aggregate results:
[ 21 29 23 19 25 27 17 15 33 31 13 35 48 ]
[ 0.097623 0.032917 0.180605 0.085774 0.105239 0.104814 0.026359 0.013479 0.002088 0.014068 0.002470 0.000043 0.334522 ]
5
Num Evals 1400
GenUC: 1.226257e-03
GenUB: 1.801522e-03
Optimisation 1.128335e+01
Total Time: 1.130221e+01
3 Add 7
Graph 1:
0 1 0 1 0 0 0 
1 0 1 0 1 0 1 
0 0 1 0 0 1 0 
1 0 1 1 0 0 0 
1 1 0 1 1 0 1 
0 1 1 1 1 1 1 
1 1 1 1 0 0 0 
Graph 2:
1 1 0 1 0 1 0 
1 1 1 0 1 0 1 
0 0 1 0 0 1 0 
1 0 1 1 0 0 1 
1 1 0 1 1 0 1 
1 1 1 1 1 1 1 
1 1 1 1 0 0 0 
Solution: -5 0
Gbest: -19.000000
Expectation: -33.589844
Final Parameters:
Gammas:
[ 3.141593 3.141593 3.141593 3.141593 3.141593 ]
Betas:
[ 1.570796 1.570796 1.570796 1.570796 1.570796 1.570796 ]
Aggregate results:
[ 4 14 20 18 10 16 6 12 22 24 28 26 30 32 34 36 8 48 ]
[ 0.000122 0.006958 0.093506 0.045776 0.001099 0.020752 0.000122 0.002197 0.139282 0.132080 0.054932 0.094360 0.017456 0.005737 0.000610 0.000122 0.000122 0.384766 ]
3
Num Evals 1412
GenUC: 1.223889e-03
GenUB: 1.785309e-03
Optimisation 1.827734e-01
Total Time: 2.005121e-01
4 Rem 7
Graph 1:
0 1 0 1 0 0 0 
1 0 1 0 1 0 1 
0 0 1 0 0 1 0 
1 0 1 1 0 0 0 
1 1 0 1 1 0 1 
0 1 1 1 1 1 1 
1 1 1 1 0 0 0 
Graph 2:
0 0 0 1 0 0 0 
1 0 0 0 1 0 1 
0 0 1 0 0 1 0 
1 0 1 0 0 0 0 
1 0 0 1 1 0 0 
0 0 1 1 1 1 1 
1 1 1 1 0 0 0 
Solution: -6 0
Gbest: -20.000000
Expectation: -30.949135
Final Parameters:
Gammas:
[ 5.837052 5.271718 3.338808 2.863478 2.948536 ]
Betas:
[ 1.392244 2.676186 1.789731 1.717658 1.608737 1.780867 ]
Aggregate results:
[ 5 13 21 17 15 19 23 9 11 25 27 29 31 33 35 37 48 ]
[ 0.000045 0.003052 0.123245 0.026418 0.010228 0.070191 0.155691 0.000622 0.001794 0.150191 0.105329 0.063247 0.023826 0.008341 0.003055 0.000154 0.254571 ]
5
Num Evals 2112
GenUC: 1.279837e-03
GenUB: 1.792946e-03
Optimisation 1.172589e+01
Total Time: 1.174516e+01
5 Add/Rem 7
Graph 1:
0 1 0 1 0 0 0 
1 0 1 0 1 0 1 
0 0 1 0 0 1 0 
1 0 1 1 0 0 0 
1 1 0 1 1 0 1 
0 1 1 1 1 1 1 
1 1 1 1 0 0 0 
Graph 2:
1 1 0 1 0 0 0 
1 0 1 1 1 0 1 
0 0 1 1 0 1 0 
0 1 1 1 0 0 0 
1 0 0 0 1 1 1 
1 1 1 0 1 0 1 
0 1 1 1 0 0 0 
Solution: -10 99
Gbest: -20.000000
Expectation: -29.199147
Final Parameters:
Gammas:
[ 4.763566 4.644808 4.632661 4.703196 4.723446 ]
Betas:
[ 1.546625 2.418102 1.607014 1.486649 1.728251 2.459591 ]
Aggregate results:
[ 11 15 21 25 23 17 13 19 27 29 9 31 35 33 37 48 ]
[ 0.000913 0.008596 0.188343 0.189449 0.129798 0.050191 0.003202 0.064952 0.082613 0.057420 0.000016 0.018294 0.000461 0.006535 0.000254 0.198963 ]
5
Num Evals 2812
GenUC: 1.245291e-03
GenUB: 1.764644e-03
Optimisation 1.174064e+01
Total Time: 1.176053e+01
