Clock Speed: 3.389940
Num threads: 4
Trotterisation: 5
Graph Size: 7
Num Qubits: 13
Space Dimension: 8192
Run-Type: 0
Num_samples: 10
1 Isomorphic
Graph 1:
1 0 1 1 1 1 1 
1 1 0 1 1 1 1 
1 1 0 1 0 1 0 
1 1 0 1 0 0 0 
1 1 0 1 0 1 0 
0 0 1 1 1 1 0 
1 1 1 0 0 0 1 
Graph 2:
1 0 1 1 1 1 1 
1 1 0 1 1 1 1 
1 1 0 1 0 1 0 
1 1 0 1 0 0 0 
1 1 0 1 0 1 0 
0 0 1 1 1 1 0 
1 1 1 0 0 0 1 
Solution: 0 0
Gbest: -20.000000
Expectation: -24.920417
Final Parameters:
Gammas:
[ 4.804504 4.478469 5.318797 3.150495 5.799840 ]
Betas:
[ 1.662019 3.062767 2.049344 1.832589 1.824198 1.559786 ]
Aggregate results:
[ -1 3 13 15 19 17 11 25 23 21 27 5 7 9 29 31 48 ]
[ 0.000402 0.000516 0.014283 0.032399 0.133300 0.076051 0.006918 0.159403 0.189938 0.213817 0.063321 0.000384 0.000852 0.001325 0.014499 0.005428 0.087165 ]
5
Num Evals 700
GenUC: 1.340229e-03
GenUB: 1.878228e-03
Optimisation 1.179265e+01
Total Time: 1.181267e+01
2 Flipped
Graph 1:
1 0 1 1 1 1 1 
1 1 0 1 1 1 1 
1 1 0 1 0 1 0 
1 1 0 1 0 0 0 
1 1 0 1 0 1 0 
0 0 1 1 1 1 0 
1 1 1 0 0 0 1 
Graph 2:
1 1 1 1 1 0 1 
1 1 1 1 0 1 1 
0 1 0 1 0 1 1 
0 0 0 1 0 1 1 
0 1 0 1 0 1 1 
0 1 1 1 1 0 0 
1 0 0 0 1 1 1 
Solution: -8 4982
Gbest: -18.000000
Expectation: -28.032293
Final Parameters:
Gammas:
[ 5.092471 4.663012 4.742282 4.688653 4.617568 ]
Betas:
[ 1.373761 2.492393 1.610904 1.513614 1.714700 2.419443 ]
Aggregate results:
[ 17 19 21 23 25 27 15 13 29 31 11 33 9 7 48 ]
[ 0.062876 0.141036 0.143295 0.217093 0.126133 0.055158 0.022122 0.006949 0.024455 0.001323 0.001251 0.000013 0.001013 0.000645 0.196637 ]
5
Num Evals 1400
GenUC: 1.192793e-03
GenUB: 1.751377e-03
Optimisation 1.152438e+01
Total Time: 1.154428e+01
3 Add 7
Graph 1:
1 0 1 1 1 1 1 
1 1 0 1 1 1 1 
1 1 0 1 0 1 0 
1 1 0 1 0 0 0 
1 1 0 1 0 1 0 
0 0 1 1 1 1 0 
1 1 1 0 0 0 1 
Graph 2:
1 0 1 1 1 1 1 
1 1 0 1 1 1 1 
1 1 1 1 0 1 1 
1 1 0 1 1 0 0 
1 1 0 1 0 1 1 
0 1 1 1 1 1 1 
1 1 1 0 0 0 1 
Solution: -6 0
Gbest: -16.000000
Expectation: -26.126285
Final Parameters:
Gammas:
[ 4.662947 4.689344 4.790231 4.805115 4.713120 ]
Betas:
[ 1.681765 2.305632 1.390601 1.647548 1.497413 2.295248 ]
Aggregate results:
[ 5 9 13 15 17 21 19 23 25 11 27 29 7 48 ]
[ 0.000026 0.001230 0.016279 0.064487 0.094167 0.152180 0.242545 0.185394 0.040677 0.004034 0.015592 0.000498 0.000203 0.182686 ]
5
Num Evals 2100
GenUC: 1.084904e-03
GenUB: 1.791978e-03
Optimisation 1.135313e+01
Total Time: 1.137170e+01
4 Rem 7
Graph 1:
1 0 1 1 1 1 1 
1 1 0 1 1 1 1 
1 1 0 1 0 1 0 
1 1 0 1 0 0 0 
1 1 0 1 0 1 0 
0 0 1 1 1 1 0 
1 1 1 0 0 0 1 
Graph 2:
1 0 1 1 1 1 0 
0 1 0 1 1 1 1 
1 1 0 1 0 1 0 
1 1 0 0 0 0 0 
1 1 0 0 0 1 0 
0 0 1 1 1 0 0 
1 0 0 0 0 0 1 
Solution: -7 0
Gbest: -17.000000
Expectation: -34.058594
Final Parameters:
Gammas:
[ 3.141593 3.141593 3.141593 3.141593 3.141593 ]
Betas:
[ 1.570796 1.570796 1.570796 1.570796 1.570796 1.570796 ]
Aggregate results:
[ 6 8 20 22 18 24 12 16 26 28 10 14 30 32 34 48 ]
[ 0.000122 0.000366 0.082642 0.115967 0.033081 0.142456 0.002075 0.012085 0.117676 0.071045 0.000244 0.002686 0.027710 0.005737 0.001343 0.384766 ]
3
Num Evals 2112
GenUC: 1.265111e-03
GenUB: 1.786913e-03
Optimisation 1.809003e-01
Total Time: 1.989894e-01
5 Add/Rem 7
Graph 1:
1 0 1 1 1 1 1 
1 1 0 1 1 1 1 
1 1 0 1 0 1 0 
1 1 0 1 0 0 0 
1 1 0 1 0 1 0 
0 0 1 1 1 1 0 
1 1 1 0 0 0 1 
Graph 2:
0 1 1 0 1 1 1 
1 0 0 1 1 1 1 
1 1 1 1 0 0 1 
1 1 0 1 0 0 0 
1 1 1 1 0 1 0 
1 0 1 1 1 0 0 
1 1 0 1 0 0 1 
Solution: -12 0
Gbest: -20.000000
Expectation: -30.891809
Final Parameters:
Gammas:
[ 4.664337 5.759164 5.106183 3.569901 3.625878 ]
Betas:
[ 1.779495 1.763146 1.415834 1.834940 1.465846 1.699333 ]
Aggregate results:
[ 11 13 17 15 21 19 23 25 27 29 31 33 48 ]
[ 0.000232 0.002034 0.075309 0.021273 0.174320 0.160891 0.098788 0.069181 0.052041 0.020546 0.004071 0.000403 0.320911 ]
5
Num Evals 2812
GenUC: 1.174069e-03
GenUB: 1.785623e-03
Optimisation 1.079793e+01
Total Time: 1.081703e+01
