Clock Speed: 3.390237
Num threads: 4
Trotterisation: 5
Graph Size: 7
Num Qubits: 13
Space Dimension: 8192
Run-Type: 0
Num_samples: 10
1 Isomorphic
Graph 1:
0 1 0 0 1 1 1 
0 1 0 1 0 0 0 
0 0 1 0 0 1 1 
1 0 0 0 0 1 0 
1 1 0 0 0 0 1 
0 0 0 0 1 0 1 
1 1 0 0 1 1 0 
Graph 2:
0 1 0 0 1 1 1 
0 1 0 1 0 0 0 
0 0 1 0 0 1 1 
1 0 0 0 0 1 0 
1 1 0 0 0 0 1 
0 0 0 0 1 0 1 
1 1 0 0 1 1 0 
Solution: 0 0
Gbest: -18.000000
Expectation: -27.809560
Final Parameters:
Gammas:
[ 4.729316 4.786879 3.205959 4.698688 3.147877 ]
Betas:
[ 1.633698 2.340266 1.493461 1.518839 2.221504 1.429016 ]
Aggregate results:
[ -1 13 17 11 15 7 21 19 23 25 5 27 9 29 31 33 35 3 48 ]
[ 0.000054 0.009076 0.063265 0.003147 0.032411 0.001214 0.133470 0.140526 0.156905 0.129494 0.000328 0.102185 0.001797 0.034579 0.010606 0.000882 0.000396 0.000166 0.179499 ]
5
Num Evals 700
GenUC: 1.545282e-03
GenUB: 2.180406e-03
Optimisation 1.164789e+01
Total Time: 1.167476e+01
2 Flipped
Graph 1:
0 1 0 0 1 1 1 
0 1 0 1 0 0 0 
0 0 1 0 0 1 1 
1 0 0 0 0 1 0 
1 1 0 0 0 0 1 
0 0 0 0 1 0 1 
1 1 0 0 1 1 0 
Graph 2:
1 1 1 0 0 1 0 
0 0 0 1 0 1 0 
1 1 0 0 1 0 0 
0 1 0 0 0 0 1 
1 0 0 0 0 1 1 
1 0 1 0 0 0 0 
0 1 1 0 0 1 1 
Solution: -12 4968
Gbest: -22.000000
Expectation: -28.119245
Final Parameters:
Gammas:
[ 4.699021 4.805196 4.893060 4.688267 4.611144 ]
Betas:
[ 1.684568 2.292770 1.393256 1.646246 1.502243 2.284841 ]
Aggregate results:
[ 25 23 21 27 19 31 15 17 29 13 33 35 11 48 ]
[ 0.127151 0.200354 0.154317 0.078038 0.148752 0.012450 0.021538 0.039805 0.030037 0.001598 0.001470 0.000164 0.000570 0.183756 ]
5
Num Evals 1400
GenUC: 2.104813e-03
GenUB: 1.746105e-03
Optimisation 1.177555e+01
Total Time: 1.179545e+01
3 Add 7
Graph 1:
0 1 0 0 1 1 1 
0 1 0 1 0 0 0 
0 0 1 0 0 1 1 
1 0 0 0 0 1 0 
1 1 0 0 0 0 1 
0 0 0 0 1 0 1 
1 1 0 0 1 1 0 
Graph 2:
0 1 0 1 1 1 1 
0 1 0 1 1 0 1 
0 0 1 0 0 1 1 
1 0 1 0 0 1 0 
1 1 0 1 0 0 1 
0 0 0 0 1 0 1 
1 1 0 1 1 1 0 
Solution: -6 0
Gbest: -6.000000
Expectation: -28.836200
Final Parameters:
Gammas:
[ 4.365867 4.715645 4.888794 2.991018 4.567459 ]
Betas:
[ 1.258469 2.944990 1.927453 1.553348 1.622991 1.782320 ]
Aggregate results:
[ 5 13 17 15 19 11 21 23 9 27 25 29 31 33 35 37 48 ]
[ 0.001271 0.022478 0.063269 0.036731 0.110676 0.005378 0.121617 0.136535 0.000918 0.079966 0.124131 0.051403 0.022042 0.006673 0.001388 0.000341 0.215184 ]
5
Num Evals 2100
GenUC: 1.198372e-03
GenUB: 1.718357e-03
Optimisation 1.291489e+01
Total Time: 1.298506e+01
4 Rem 7
Graph 1:
0 1 0 0 1 1 1 
0 1 0 1 0 0 0 
0 0 1 0 0 1 1 
1 0 0 0 0 1 0 
1 1 0 0 0 0 1 
0 0 0 0 1 0 1 
1 1 0 0 1 1 0 
Graph 2:
0 1 0 0 1 1 1 
0 1 0 0 0 0 0 
0 0 1 0 0 0 0 
1 0 0 0 0 1 0 
0 1 0 0 0 0 0 
0 0 0 0 0 0 1 
1 1 0 0 1 1 0 
Solution: -6 0
Gbest: -12.000000
Expectation: -22.570597
Final Parameters:
Gammas:
[ 6.086566 6.241670 6.091131 6.049074 4.818306 ]
Betas:
[ 1.491577 2.384665 1.843285 1.466863 1.687383 1.596648 ]
Aggregate results:
[ 5 17 21 11 15 19 9 23 13 25 27 29 31 7 48 ]
[ 0.001561 0.159967 0.182048 0.017339 0.117924 0.184233 0.007712 0.111120 0.049689 0.048919 0.022864 0.007587 0.000726 0.000794 0.087517 ]
5
Num Evals 2800
GenUC: 1.067714e-03
GenUB: 1.731390e-03
Optimisation 1.205715e+01
Total Time: 1.207571e+01
5 Add/Rem 7
Graph 1:
0 1 0 0 1 1 1 
0 1 0 1 0 0 0 
0 0 1 0 0 1 1 
1 0 0 0 0 1 0 
1 1 0 0 0 0 1 
0 0 0 0 1 0 1 
1 1 0 0 1 1 0 
Graph 2:
0 1 0 1 1 1 1 
0 0 0 1 0 0 1 
0 0 1 1 1 1 0 
1 0 0 0 0 1 1 
1 0 0 0 0 0 1 
0 1 0 0 1 1 0 
0 1 0 0 0 0 0 
Solution: -10 1412
Gbest: -16.000000
Expectation: -28.692846
Final Parameters:
Gammas:
[ 5.739302 5.396247 3.136855 2.967593 2.933445 ]
Betas:
[ 1.447700 3.004260 2.120974 1.877118 1.778698 1.609282 ]
Aggregate results:
[ 13 21 23 17 19 25 27 29 15 11 31 9 33 48 ]
[ 0.019808 0.151850 0.144525 0.077618 0.121439 0.117967 0.054990 0.023535 0.042276 0.004417 0.005514 0.000008 0.000341 0.235711 ]
5
Num Evals 3500
GenUC: 1.415498e-03
GenUB: 1.747825e-03
Optimisation 1.217856e+01
Total Time: 1.219892e+01
