Clock Speed: 3.688793
Num threads: 4
Trotterisation: 6
Graph Size: 3
Num Qubits: 3
Space Dimension: 8
Run-Type: 0
Num_samples: 10
1 Isomorphic
Graph 1:
0 1 0 
0 1 1 
0 0 0 
Graph 2:
0 1 0 
0 1 1 
0 0 0 
Solution: 0 0
Gbest: 0.000000
Expectation: -0.388248
Final Parameters:
Gammas:
[ 3.219647 3.344378 3.473095 2.792248 4.231619 2.971275 ]
Betas:
[ 1.595859 1.348106 2.242793 1.897682 0.808918 1.274407 1.908936 ]
Aggregate results:
[ -1 5 3 8 ]
[ 0.922836 0.003801 0.058964 0.014398 ]
5
Num Evals 300
GenUC: 1.395153e-04
GenUB: 7.881899e-06
Optimisation 1.040876e-01
Total Time: 1.046180e-01
2 Flipped
Graph 1:
0 1 0 
0 1 1 
0 0 0 
Graph 2:
0 1 0 
1 1 0 
0 0 0 
Solution: -2 0
Gbest: -2.000000
Expectation: -2.101004
Final Parameters:
Gammas:
[ 4.297596 2.997110 3.051894 3.175362 2.992894 3.385864 ]
Betas:
[ 1.573678 2.002945 1.977484 1.742124 0.936815 1.777498 1.916900 ]
Aggregate results:
[ 1 3 5 8 ]
[ 0.966075 0.021000 0.010490 0.002435 ]
5
Num Evals 600
GenUC: 6.463379e-06
GenUB: 5.420530e-06
Optimisation 1.214491e-01
Total Time: 1.218291e-01
3 Add 3
Graph 1:
0 1 0 
0 1 1 
0 0 0 
Graph 2:
0 1 0 
1 1 1 
1 1 0 
Solution: -3 0
Gbest: -3.000000
Expectation: -3.536432
Final Parameters:
Gammas:
[ 3.528412 3.562073 3.257449 3.636824 3.498803 3.986491 ]
Betas:
[ 0.011969 1.163519 1.652047 1.475068 1.300668 1.385954 1.672966 ]
Aggregate results:
[ 2 6 4 8 ]
[ 0.834519 0.081607 0.073310 0.010564 ]
5
Num Evals 880
GenUC: 8.676900e-06
GenUB: 5.753362e-06
Optimisation 9.538900e-02
Total Time: 9.573406e-02
4 Rem 3
Graph 1:
0 1 0 
0 1 1 
0 0 0 
Graph 2:
0 1 0 
0 0 0 
0 0 0 
Solution: -2 0
Gbest: -2.000000
Expectation: -2.057204
Final Parameters:
Gammas:
[ 3.272654 3.140043 2.753060 2.160013 1.902154 2.802695 ]
Betas:
[ 1.602988 1.737788 1.181507 1.692576 2.199589 1.682355 2.225217 ]
Aggregate results:
[ 1 3 8 ]
[ 0.972040 0.027703 0.000257 ]
5
Num Evals 1180
GenUC: 6.636488e-06
GenUB: 5.469308e-06
Optimisation 1.102253e-01
Total Time: 1.106173e-01
5 Add/Rem 3
Graph 1:
0 1 0 
0 1 1 
0 0 0 
Graph 2:
0 0 0 
1 1 0 
1 0 1 
Solution: -3 4
Gbest: -3.000000
Expectation: -3.000054
Final Parameters:
Gammas:
[ 3.560007 2.653971 2.536842 3.889242 2.740954 2.214312 ]
Betas:
[ 1.575779 0.863528 2.099695 1.612060 1.738518 1.925640 1.492991 ]
Aggregate results:
[ 4 2 8 ]
[ 0.000019 0.999978 0.000003 ]
5
Num Evals 1480
GenUC: 6.319140e-06
GenUB: 5.429960e-06
Optimisation 1.066852e-01
Total Time: 1.070556e-01
