Clock Speed: 3.689334
Num threads: 4
Trotterisation: 5
Num Qubits: 5
Space Dimension: 32
Run-Type: 0
Num_samples: 4
Optimiser Method: 29
1 Isomorphic
Graph 1:
0 0 0 0 
0 0 1 0 
0 1 0 1 
0 0 1 0 
Graph 2:
0 0 0 0 
0 0 1 0 
0 1 0 1 
0 0 1 0 
Solution: 16 0
Classic Expectation: 10.666667
Initial Expecation: 8.000000
Gbest: 16.000000
Expectation: 13.490245
Final Parameters:
Gammas:
[ 4.597578 4.545436 4.441043 3.053126 2.764100 ]
Betas:
[ 2.474797 2.648870 0.820394 1.986328 2.926278 ]
Aggregate results:
[ 16 12 8 0 ]
[ 0.402919 0.577608 0.014030 0.005443 ]
5
Num Evals 4000
GenUC: 9.519688e-06
GenUB: 9.647047e-06
Optimisation 2.033029e+00
Total Time: 2.033094e+00
2 Flipped
Graph 1:
0 0 0 0 
0 0 1 0 
0 1 0 1 
0 0 1 0 
Graph 2:
0 0 0 0 
0 1 0 0 
1 0 1 0 
0 1 0 0 
Solution: 10 1
Classic Expectation: 9.333333
Initial Expecation: 7.000000
Gbest: 10.000000
Expectation: 9.965223
Final Parameters:
Gammas:
[ 3.245695 3.330509 4.072017 3.939458 5.268512 ]
Betas:
[ 0.911196 2.001049 1.603775 1.644041 1.766987 ]
Aggregate results:
[ 8 10 0 ]
[ 0.008704 0.989559 0.001737 ]
5
Num Evals 4000
GenUC: 1.142343e-05
GenUB: 1.991750e-06
Optimisation 1.655712e+00
Total Time: 1.655728e+00
3 Add 4
Graph 1:
0 0 0 0 
0 0 1 0 
0 1 0 1 
0 0 1 0 
Graph 2:
0 1 1 1 
1 1 1 0 
1 1 0 1 
1 0 1 0 
Solution: 9 0
Classic Expectation: 7.666667
Initial Expecation: 5.750000
Gbest: 9.000000
Expectation: 8.903901
Final Parameters:
Gammas:
[ 3.279404 1.517974 1.976426 4.349710 3.890225 ]
Betas:
[ 2.898235 0.826266 1.881530 1.373054 1.415834 ]
Aggregate results:
[ 9 5 0 ]
[ 0.978547 0.019395 0.002058 ]
5
Num Evals 4000
GenUC: 1.094217e-05
GenUB: 1.809269e-06
Optimisation 1.948629e+00
Total Time: 1.948645e+00
4 Rem 4
Graph 1:
0 0 0 0 
0 0 1 0 
0 1 0 1 
0 0 1 0 
Graph 2:
0 0 0 0 
0 0 0 0 
0 0 0 0 
0 0 0 0 
Solution: 12 0
Classic Expectation: 12.000000
Initial Expecation: 9.000000
Gbest: 12.000000
Expectation: 12.000000
Final Parameters:
Gammas:
[ 4.516039 4.025166 4.319494 3.141401 3.141593 ]
Betas:
[ 1.655199 2.206944 1.709044 1.640697 0.785398 ]
Aggregate results:
[ 12 0 ]
[ 1.000000 0.000000 ]
4
Num Evals 799
GenUC: 9.921670e-06
GenUB: 1.384353e-06
Optimisation 4.305195e-01
Total Time: 4.305335e-01
5 Add/Rem 4
Graph 1:
0 0 0 0 
0 0 1 0 
0 1 0 1 
0 0 1 0 
Graph 2:
1 1 1 1 
1 0 0 0 
1 0 0 0 
1 0 0 0 
Solution: 13 8
Classic Expectation: 9.000000
Initial Expecation: 6.750000
Gbest: 13.000000
Expectation: 12.181563
Final Parameters:
Gammas:
[ 6.194698 4.719532 2.878800 3.319073 3.381837 ]
Betas:
[ 2.650530 3.141593 2.279304 1.544272 2.023867 ]
Aggregate results:
[ 5 9 13 0 ]
[ 0.015308 0.139827 0.834352 0.010513 ]
5
Num Evals 4000
GenUC: 1.005904e-05
GenUB: 1.555134e-06
Optimisation 2.144878e+00
Total Time: 2.144893e+00
