Clock Speed: 3.689428
Num threads: 4
Trotterisation: 5
Num Qubits: 5
Space Dimension: 32
Run-Type: 0
Num_samples: 4
Optimiser Method: 29
1 Isomorphic
Graph 1:
0 0 1 1 
0 0 0 0 
1 0 0 0 
1 0 0 0 
Graph 2:
0 0 1 1 
0 0 0 0 
1 0 0 0 
1 0 0 0 
Solution: 16 0
Classic Expectation: 10.666667
Initial Expecation: 8.000000
Gbest: 16.000000
Expectation: 13.454975
Final Parameters:
Gammas:
[ 4.602032 4.358530 3.619454 3.477416 3.112451 ]
Betas:
[ 1.984509 3.004493 0.590155 0.631749 2.866460 ]
Aggregate results:
[ 16 12 8 0 ]
[ 0.406344 0.565903 0.020329 0.007424 ]
5
Num Evals 4000
GenUC: 8.449884e-06
GenUB: 8.419955e-06
Optimisation 6.206643e+01
Total Time: 6.206648e+01
2 Flipped
Graph 1:
0 0 1 1 
0 0 0 0 
1 0 0 0 
1 0 0 0 
Graph 2:
1 1 0 0 
0 0 0 0 
0 0 0 1 
0 0 0 1 
Solution: 10 2
Classic Expectation: 9.333333
Initial Expecation: 7.000000
Gbest: 10.000000
Expectation: 9.996250
Final Parameters:
Gammas:
[ 4.206550 3.009027 4.773249 2.973305 2.585810 ]
Betas:
[ 1.290555 2.129471 2.207049 1.491049 2.778365 ]
Aggregate results:
[ 8 10 0 ]
[ 0.001565 0.998373 0.000062 ]
5
Num Evals 4000
GenUC: 9.373567e-06
GenUB: 1.982340e-06
Optimisation 6.260676e+01
Total Time: 6.260678e+01
3 Add 4
Graph 1:
0 0 1 1 
0 0 0 0 
1 0 0 0 
1 0 0 0 
Graph 2:
1 1 1 1 
1 0 1 1 
1 1 0 0 
1 1 0 0 
Solution: 9 0
Classic Expectation: 7.666667
Initial Expecation: 5.750000
Gbest: 9.000000
Expectation: 8.999417
Final Parameters:
Gammas:
[ 1.260182 0.389801 3.054549 2.997881 3.879371 ]
Betas:
[ 1.830553 0.695114 1.482332 2.448388 2.101465 ]
Aggregate results:
[ 9 5 0 ]
[ 0.999859 0.000136 0.000004 ]
5
Num Evals 4000
GenUC: 9.458658e-06
GenUB: 1.770492e-06
Optimisation 5.773286e+01
Total Time: 5.773288e+01
4 Rem 4
Graph 1:
0 0 1 1 
0 0 0 0 
1 0 0 0 
1 0 0 0 
Graph 2:
0 0 0 0 
0 0 0 0 
0 0 0 0 
0 0 0 0 
Solution: 12 0
Classic Expectation: 12.000000
Initial Expecation: 9.000000
Gbest: 12.000000
Expectation: 12.000000
Final Parameters:
Gammas:
[ 4.516039 4.025166 4.319494 3.141401 3.141593 ]
Betas:
[ 1.655199 2.206944 1.709044 1.640697 0.785398 ]
Aggregate results:
[ 12 0 ]
[ 1.000000 0.000000 ]
4
Num Evals 799
GenUC: 8.987428e-06
GenUB: 1.580356e-06
Optimisation 1.124849e+01
Total Time: 1.124850e+01
5 Add/Rem 4
Graph 1:
0 0 1 1 
0 0 0 0 
1 0 0 0 
1 0 0 0 
Graph 2:
1 1 0 0 
1 1 1 1 
0 1 0 0 
0 1 0 0 
Solution: 12 6
Classic Expectation: 8.000000
Initial Expecation: 6.000000
Gbest: 8.000000
Expectation: 9.711518
Final Parameters:
Gammas:
[ 6.283185 4.901269 3.376856 3.081796 4.604768 ]
Betas:
[ 1.593583 0.560906 0.378929 1.841418 1.103658 ]
Aggregate results:
[ 4 8 12 0 ]
[ 0.031121 0.489442 0.472625 0.006812 ]
5
Num Evals 4000
GenUC: 8.853629e-06
GenUB: 1.453012e-06
Optimisation 4.903912e+01
Total Time: 4.903913e+01
