Clock Speed: 3.689102
Num threads: 4
Trotterisation: 5
Num Qubits: 5
Space Dimension: 32
Run-Type: 0
Num_samples: 4
Optimiser Method: 29
1 Isomorphic
Graph 1:
0 1 0 0 
1 0 1 0 
0 1 0 1 
0 0 1 0 
Graph 2:
0 1 0 0 
1 0 1 0 
0 1 0 1 
0 0 1 0 
Solution: 16 0
Classic Expectation: 10.000000
Initial Expecation: 7.500000
Gbest: 16.000000
Expectation: 12.215154
Final Parameters:
Gammas:
[ 4.964977 4.819552 3.471019 3.227557 4.230574 ]
Betas:
[ 2.605508 0.108738 1.976474 1.261709 0.784043 ]
Aggregate results:
[ 16 12 8 4 0 ]
[ 0.299033 0.530450 0.127776 0.010754 0.031987 ]
5
Num Evals 4000
GenUC: 8.367704e-06
GenUB: 8.853605e-06
Optimisation 4.886197e+01
Total Time: 4.886201e+01
2 Flipped
Graph 1:
0 1 0 0 
1 0 1 0 
0 1 0 1 
0 0 1 0 
Graph 2:
0 0 1 0 
0 1 0 1 
1 0 1 0 
0 1 0 0 
Solution: 12 2
Classic Expectation: 8.000000
Initial Expecation: 6.000000
Gbest: 12.000000
Expectation: 10.065492
Final Parameters:
Gammas:
[ 4.293312 3.422396 3.042553 1.496692 3.675162 ]
Betas:
[ 1.737760 1.030464 2.291684 1.377925 2.037001 ]
Aggregate results:
[ 4 8 12 0 ]
[ 0.057962 0.145525 0.722454 0.074059 ]
5
Num Evals 4000
GenUC: 9.245612e-06
GenUB: 1.891962e-06
Optimisation 5.874138e+01
Total Time: 5.874140e+01
3 Add 4
Graph 1:
0 1 0 0 
1 0 1 0 
0 1 0 1 
0 0 1 0 
Graph 2:
1 1 1 1 
1 1 1 0 
1 1 0 1 
1 0 1 0 
Solution: 10 0
Classic Expectation: 8.000000
Initial Expecation: 6.000000
Gbest: 10.000000
Expectation: 9.944228
Final Parameters:
Gammas:
[ 3.070026 3.018444 3.351673 3.539147 3.395750 ]
Betas:
[ 1.021700 2.065489 0.514834 1.776120 1.665053 ]
Aggregate results:
[ 10 6 0 ]
[ 0.990821 0.006003 0.003176 ]
5
Num Evals 4000
GenUC: 9.221552e-06
GenUB: 2.099701e-06
Optimisation 5.432782e+01
Total Time: 5.432784e+01
4 Rem 4
Graph 1:
0 1 0 0 
1 0 1 0 
0 1 0 1 
0 0 1 0 
Graph 2:
0 0 0 0 
0 0 0 0 
0 0 0 0 
0 0 0 0 
Solution: 10 0
Classic Expectation: 10.000000
Initial Expecation: 7.500000
Gbest: 10.000000
Expectation: 10.000000
Final Parameters:
Gammas:
[ 3.429981 3.963806 3.926991 3.926991 4.810564 ]
Betas:
[ 1.684141 1.126517 1.963304 1.536528 2.331651 ]
Aggregate results:
[ 10 0 ]
[ 1.000000 0.000000 ]
4
Num Evals 744
GenUC: 9.061347e-06
GenUB: 1.473547e-06
Optimisation 1.118904e+01
Total Time: 1.118905e+01
5 Add/Rem 4
Graph 1:
0 1 0 0 
1 0 1 0 
0 1 0 1 
0 0 1 0 
Graph 2:
1 0 1 1 
0 1 0 0 
1 0 0 0 
1 0 0 0 
Solution: 12 8
Classic Expectation: 8.000000
Initial Expecation: 6.000000
Gbest: 12.000000
Expectation: 9.823991
Final Parameters:
Gammas:
[ 5.226456 5.012128 4.888644 2.866201 2.661413 ]
Betas:
[ 1.459916 1.230329 2.078318 1.222380 0.552585 ]
Aggregate results:
[ 4 8 12 0 ]
[ 0.044056 0.330918 0.583369 0.041658 ]
5
Num Evals 4000
GenUC: 8.983296e-06
GenUB: 1.445966e-06
Optimisation 5.217692e+01
Total Time: 5.217693e+01
