Clock Speed: 3.688836
Num threads: 4
Trotterisation: 4
Graph Size: 5
Num Qubits: 7
Space Dimension: 128
Run-Type: 0
Num_samples: 10
1 Isomorphic
Graph 1:
0 0 1 1 0 
0 1 0 1 1 
1 0 1 1 0 
1 1 0 1 1 
1 1 1 0 0 
Graph 2:
0 0 1 1 0 
0 1 0 1 1 
1 0 1 1 0 
1 1 0 1 1 
1 1 1 0 0 
Solution: 0 0
Gbest: -10.000000
Expectation: -10.997733
Final Parameters:
Gammas:
[ 0.939214 1.455372 4.489755 0.565351 ]
Betas:
[ 0.679232 1.173426 0.788227 2.103813 2.752139 ]
Aggregate results:
[ -1 7 9 3 11 15 13 17 5 24 ]
[ 0.030443 0.173409 0.195955 0.030663 0.291794 0.090154 0.147323 0.004644 0.023801 0.011813 ]
5
Num Evals 500
GenUC: 1.431997e-04
GenUB: 2.990174e-05
Optimisation 2.939199e-01
Total Time: 2.946811e-01
2 Flipped
Graph 1:
0 0 1 1 0 
0 1 0 1 1 
1 0 1 1 0 
1 1 0 1 1 
1 1 1 0 0 
Graph 2:
0 1 1 0 0 
1 1 0 1 0 
0 1 1 0 1 
1 1 0 1 1 
0 0 1 1 1 
Solution: -4 119
Gbest: -4.000000
Expectation: -11.276999
Final Parameters:
Gammas:
[ 3.004431 1.020846 3.973019 1.105659 ]
Betas:
[ 2.416423 0.792893 1.214275 0.815147 2.487211 ]
Aggregate results:
[ 11 13 15 9 7 5 17 19 3 24 ]
[ 0.299460 0.115986 0.107388 0.157193 0.159991 0.086257 0.007203 0.006819 0.037455 0.022249 ]
5
Num Evals 1000
GenUC: 2.539658e-05
GenUB: 1.744146e-05
Optimisation 2.900358e-01
Total Time: 2.906588e-01
3 Add 5
Graph 1:
0 0 1 1 0 
0 1 0 1 1 
1 0 1 1 0 
1 1 0 1 1 
1 1 1 0 0 
Graph 2:
0 1 1 1 1 
0 1 0 1 1 
1 0 1 1 0 
1 1 1 1 1 
1 1 1 0 1 
Solution: -4 0
Gbest: -6.000000
Expectation: -10.181912
Final Parameters:
Gammas:
[ 6.169398 6.181854 1.373992 5.221147 ]
Betas:
[ 2.212780 1.029766 0.717804 1.572477 3.048654 ]
Aggregate results:
[ 3 9 7 5 13 15 11 24 ]
[ 0.030887 0.303309 0.171957 0.107423 0.078342 0.021988 0.276605 0.009489 ]
5
Num Evals 1500
GenUC: 2.113031e-05
GenUB: 2.012332e-05
Optimisation 3.150130e-01
Total Time: 3.156623e-01
4 Rem 5
Graph 1:
0 0 1 1 0 
0 1 0 1 1 
1 0 1 1 0 
1 1 0 1 1 
1 1 1 0 0 
Graph 2:
0 0 1 0 0 
0 1 0 1 1 
0 0 1 1 0 
1 1 0 0 1 
1 1 0 0 0 
Solution: -4 0
Gbest: -8.000000
Expectation: -12.059128
Final Parameters:
Gammas:
[ 3.386875 1.773244 4.565790 1.125046 ]
Betas:
[ 2.401719 2.685224 1.338206 1.090328 0.999413 ]
Aggregate results:
[ 3 9 11 7 13 15 17 19 24 ]
[ 0.020593 0.171171 0.257101 0.178824 0.229970 0.086211 0.029598 0.009156 0.017376 ]
5
Num Evals 2000
GenUC: 2.491591e-05
GenUB: 1.760863e-05
Optimisation 3.116554e-01
Total Time: 3.125370e-01
5 Add/Rem 5
Graph 1:
0 0 1 1 0 
0 1 0 1 1 
1 0 1 1 0 
1 1 0 1 1 
1 1 1 0 0 
Graph 2:
1 1 1 0 1 
0 1 1 0 1 
0 0 1 1 0 
1 1 0 1 0 
0 1 1 0 0 
Solution: -7 22
Gbest: -9.000000
Expectation: -11.627265
Final Parameters:
Gammas:
[ 4.922711 5.061971 6.002019 1.375379 ]
Betas:
[ 2.909002 3.032414 0.891692 0.763363 2.439243 ]
Aggregate results:
[ 8 10 12 6 14 16 18 24 ]
[ 0.291390 0.215565 0.239433 0.075176 0.104381 0.048008 0.006392 0.019655 ]
5
Num Evals 2500
GenUC: 2.527807e-05
GenUB: 1.755473e-05
Optimisation 3.213692e-01
Total Time: 3.220502e-01
