Clock Speed: 3.689095
Num threads: 4
Trotterisation: 4
Graph Size: 5
Num Qubits: 7
Space Dimension: 128
Run-Type: 0
Num_samples: 10
1 Isomorphic
Graph 1:
0 0 0 0 1 
1 0 1 0 0 
1 1 1 0 1 
0 1 0 1 1 
0 0 1 1 1 
Graph 2:
0 0 0 0 1 
1 0 1 0 0 
1 1 1 0 1 
0 1 0 1 1 
0 0 1 1 1 
Solution: 0 0
Gbest: -12.000000
Expectation: -11.793747
Final Parameters:
Gammas:
[ 4.013411 6.084235 2.165448 6.051632 ]
Betas:
[ 2.829402 0.527855 0.715222 2.516267 1.765237 ]
Aggregate results:
[ -1 7 11 9 13 3 19 15 17 5 24 ]
[ 0.011176 0.158991 0.281928 0.181493 0.221948 0.022427 0.000964 0.083177 0.006288 0.006670 0.024938 ]
5
Num Evals 500
GenUC: 1.638338e-04
GenUB: 2.991236e-05
Optimisation 3.096325e-01
Total Time: 3.105055e-01
2 Flipped
Graph 1:
0 0 0 0 1 
1 0 1 0 0 
1 1 1 0 1 
0 1 0 1 1 
0 0 1 1 1 
Graph 2:
1 0 0 0 0 
0 0 1 0 1 
1 0 1 1 1 
1 1 0 1 0 
1 1 1 0 0 
Solution: -6 114
Gbest: -8.000000
Expectation: -11.972095
Final Parameters:
Gammas:
[ 1.283506 4.003696 3.032615 3.975257 ]
Betas:
[ 3.141593 2.167233 1.231952 0.001905 2.529313 ]
Aggregate results:
[ 11 13 15 7 9 17 5 24 ]
[ 0.311816 0.183596 0.081426 0.036990 0.278872 0.018998 0.067212 0.021091 ]
5
Num Evals 1000
GenUC: 2.507330e-05
GenUB: 1.808230e-05
Optimisation 2.917455e-01
Total Time: 2.923667e-01
3 Add 5
Graph 1:
0 0 0 0 1 
1 0 1 0 0 
1 1 1 0 1 
0 1 0 1 1 
0 0 1 1 1 
Graph 2:
0 0 0 0 1 
1 1 1 0 0 
1 1 1 1 1 
0 1 1 1 1 
1 0 1 1 1 
Solution: -4 0
Gbest: -8.000000
Expectation: -11.885769
Final Parameters:
Gammas:
[ 3.642661 0.911367 4.974286 2.283138 ]
Betas:
[ 1.776440 1.018574 0.143087 3.092693 2.572495 ]
Aggregate results:
[ 3 11 13 7 9 17 15 5 24 ]
[ 0.014074 0.131793 0.277815 0.169882 0.297206 0.030360 0.051424 0.001472 0.025973 ]
5
Num Evals 1500
GenUC: 2.153992e-05
GenUB: 2.101762e-05
Optimisation 3.115032e-01
Total Time: 3.121350e-01
4 Rem 5
Graph 1:
0 0 0 0 1 
1 0 1 0 0 
1 1 1 0 1 
0 1 0 1 1 
0 0 1 1 1 
Graph 2:
0 0 0 0 1 
0 0 1 0 0 
0 1 1 0 1 
0 1 0 0 0 
0 0 1 1 1 
Solution: -4 0
Gbest: -6.000000
Expectation: -11.727792
Final Parameters:
Gammas:
[ 2.669982 5.238169 2.406026 0.064742 ]
Betas:
[ 2.867837 0.432269 1.941040 1.352474 1.030941 ]
Aggregate results:
[ 3 9 13 11 5 15 7 17 24 ]
[ 0.060023 0.141252 0.146876 0.360748 0.085492 0.118998 0.046463 0.014629 0.025520 ]
5
Num Evals 2000
GenUC: 2.484149e-05
GenUB: 1.739684e-05
Optimisation 2.825107e-01
Total Time: 2.831093e-01
5 Add/Rem 5
Graph 1:
0 0 0 0 1 
1 0 1 0 0 
1 1 1 0 1 
0 1 0 1 1 
0 0 1 1 1 
Graph 2:
0 0 0 1 1 
0 0 0 0 1 
1 1 0 1 0 
1 1 0 1 1 
0 0 0 1 1 
Solution: -7 10
Gbest: -7.000000
Expectation: -12.033851
Final Parameters:
Gammas:
[ 0.629993 0.186899 5.243785 4.969693 ]
Betas:
[ 0.961447 2.672155 2.259682 1.467400 1.130838 ]
Aggregate results:
[ 8 12 14 10 6 16 18 24 ]
[ 0.155155 0.252471 0.161674 0.284307 0.087149 0.028252 0.010382 0.020611 ]
5
Num Evals 2500
GenUC: 2.485147e-05
GenUB: 1.785753e-05
Optimisation 3.319361e-01
Total Time: 3.325665e-01
