Clock Speed: 3.689259
Num threads: 4
Trotterisation: 6
Graph Size: 6
Num Qubits: 10
Space Dimension: 1024
Run-Type: 0
Num_samples: 10
1 Isomorphic
Graph 1:
0 1 1 1 0 1 
1 0 0 0 1 1 
1 0 0 1 0 0 
1 0 1 0 0 0 
0 1 0 0 1 1 
0 0 0 0 1 0 
Graph 2:
0 1 1 1 0 1 
1 0 0 0 1 1 
1 0 0 1 0 0 
1 0 1 0 0 0 
0 1 0 0 1 1 
0 0 0 0 1 0 
Solution: 0 0
Gbest: -6.000000
Expectation: -12.596250
Final Parameters:
Gammas:
[ 3.103028 3.178073 3.109246 3.203963 2.978707 3.288020 ]
Betas:
[ 1.363330 1.294496 1.364165 2.428315 2.004804 1.669315 1.671451 ]
Aggregate results:
[ -1 11 13 9 5 21 19 17 15 7 23 3 25 35 ]
[ 0.043142 0.082197 0.200418 0.173102 0.106717 0.021104 0.024895 0.096714 0.152015 0.074480 0.004548 0.004510 0.000729 0.015429 ]
5
Num Evals 600
GenUC: 5.955236e-04
GenUB: 5.694880e-04
Optimisation 2.079685e+00
Total Time: 2.083705e+00
2 Flipped
Graph 1:
0 1 1 1 0 1 
1 0 0 0 1 1 
1 0 0 1 0 0 
1 0 1 0 0 0 
0 1 0 0 1 1 
0 0 0 0 1 0 
Graph 2:
1 0 1 1 1 0 
1 1 0 0 0 1 
0 0 1 0 0 1 
0 0 0 1 0 1 
1 1 0 0 1 0 
0 1 0 0 0 0 
Solution: -12 630
Gbest: -14.000000
Expectation: -17.284120
Final Parameters:
Gammas:
[ 3.144916 3.205939 3.062880 3.441361 3.048473 3.318652 ]
Betas:
[ 0.822500 1.716825 1.422448 0.719393 1.603957 2.987681 1.482446 ]
Aggregate results:
[ 17 19 15 13 21 23 25 11 27 35 ]
[ 0.185393 0.065958 0.360173 0.290767 0.027545 0.019022 0.008446 0.000650 0.001151 0.040896 ]
5
Num Evals 1200
GenUC: 1.212244e-04
GenUB: 1.520586e-04
Optimisation 1.923872e+00
Total Time: 1.926919e+00
3 Add 6
Graph 1:
0 1 1 1 0 1 
1 0 0 0 1 1 
1 0 0 1 0 0 
1 0 1 0 0 0 
0 1 0 0 1 1 
0 0 0 0 1 0 
Graph 2:
0 1 1 1 1 1 
1 0 1 0 1 1 
1 0 0 1 0 1 
1 0 1 0 0 1 
0 1 0 1 1 1 
0 0 0 0 1 1 
Solution: -6 0
Gbest: -12.000000
Expectation: -14.347795
Final Parameters:
Gammas:
[ 3.111863 3.187361 3.122796 3.210046 3.395791 3.957615 ]
Betas:
[ 0.583902 1.362892 1.302003 2.505552 2.091535 2.954294 3.132171 ]
Aggregate results:
[ 5 13 15 7 9 19 11 21 17 23 25 35 ]
[ 0.032534 0.243864 0.229032 0.067824 0.100544 0.048540 0.141584 0.022724 0.093405 0.002680 0.001111 0.016160 ]
5
Num Evals 1800
GenUC: 1.254725e-04
GenUB: 1.703398e-04
Optimisation 2.116199e+00
Total Time: 2.119767e+00
4 Rem 6
Graph 1:
0 1 1 1 0 1 
1 0 0 0 1 1 
1 0 0 1 0 0 
1 0 1 0 0 0 
0 1 0 0 1 1 
0 0 0 0 1 0 
Graph 2:
0 0 1 1 0 1 
1 0 0 0 0 1 
0 0 0 1 0 0 
1 0 1 0 0 0 
0 1 0 0 1 0 
0 0 0 0 1 0 
Solution: -4 0
Gbest: -8.000000
Expectation: -14.796773
Final Parameters:
Gammas:
[ 3.259541 3.197788 3.261981 3.085913 2.958869 3.247526 ]
Betas:
[ 1.395988 1.263677 1.653652 2.268689 1.313636 1.718127 1.621237 ]
Aggregate results:
[ 3 11 13 7 15 19 21 17 9 23 35 ]
[ 0.021791 0.133206 0.180568 0.071395 0.247109 0.048804 0.010966 0.120453 0.126501 0.000308 0.038900 ]
5
Num Evals 2400
GenUC: 1.366025e-04
GenUB: 1.918387e-04
Optimisation 2.143876e+00
Total Time: 2.147025e+00
5 Add/Rem 6
Graph 1:
0 1 1 1 0 1 
1 0 0 0 1 1 
1 0 0 1 0 0 
1 0 1 0 0 0 
0 1 0 0 1 1 
0 0 0 0 1 0 
Graph 2:
0 0 1 0 0 1 
1 0 1 0 0 0 
1 0 1 1 0 0 
1 1 0 0 0 1 
1 1 0 0 1 1 
1 0 0 0 1 0 
Solution: -11 0
Gbest: -15.000000
Expectation: -17.177789
Final Parameters:
Gammas:
[ 3.192835 3.194883 3.025186 3.110933 3.233823 3.106500 ]
Betas:
[ 1.623269 1.348295 1.775286 1.594671 1.500066 1.430549 2.457990 ]
Aggregate results:
[ 10 12 16 14 22 18 20 24 35 ]
[ 0.081781 0.091564 0.248974 0.173137 0.041557 0.243478 0.102798 0.007635 0.009075 ]
5
Num Evals 3000
GenUC: 1.361477e-04
GenUB: 1.656263e-04
Optimisation 8.670565e+00
Total Time: 8.685405e+00
