Clock Speed: 3.689365
Num threads: 4
Trotterisation: 5
Graph Size: 4
Num Qubits: 5
Space Dimension: 32
Run-Type: 0
Num_samples: 10
1 Isomorphic
Graph 1:
0 0 0 0 
1 1 1 1 
1 1 1 0 
1 1 1 0 
Graph 2:
0 0 0 0 
1 1 1 1 
1 1 1 0 
1 1 1 0 
Solution: 0 0
Gbest: 0.000000
Expectation: -3.494618
Final Parameters:
Gammas:
[ 3.289335 2.998219 2.264552 2.469111 3.861422 ]
Betas:
[ 1.649301 2.286927 1.844682 1.780762 1.512233 1.415929 ]
Aggregate results:
[ -1 7 1 5 9 3 11 15 ]
[ 0.338872 0.115147 0.203405 0.010845 0.043228 0.244582 0.002946 0.040975 ]
5
Num Evals 404
GenUC: 1.425641e-04
GenUB: 1.141694e-05
Optimisation 1.829274e-01
Total Time: 1.835274e-01
2 Flipped
Graph 1:
0 0 0 0 
1 1 1 1 
1 1 1 0 
1 1 1 0 
Graph 2:
0 0 0 0 
1 1 1 1 
0 1 1 1 
0 1 1 1 
Solution: -4 0
Gbest: -4.000000
Expectation: -5.255996
Final Parameters:
Gammas:
[ 3.209489 2.298034 3.934507 3.060569 2.000686 ]
Betas:
[ 2.232158 1.503089 0.921875 1.892203 1.472249 1.697004 ]
Aggregate results:
[ 3 11 9 7 5 15 ]
[ 0.780869 0.027110 0.027599 0.096139 0.033043 0.035240 ]
5
Num Evals 795
GenUC: 1.062942e-05
GenUB: 8.440489e-06
Optimisation 1.588133e-01
Total Time: 1.592465e-01
3 Add 4
Graph 1:
0 0 0 0 
1 1 1 1 
1 1 1 0 
1 1 1 0 
Graph 2:
1 0 1 0 
1 1 1 1 
1 1 1 0 
1 1 1 1 
Solution: -3 0
Gbest: -3.000000
Expectation: -5.435380
Final Parameters:
Gammas:
[ 3.333791 2.869146 3.327038 3.678202 3.635834 ]
Betas:
[ 0.468058 1.523996 0.723100 1.331459 1.148153 1.566739 ]
Aggregate results:
[ 2 6 4 8 15 ]
[ 0.213287 0.192821 0.486705 0.100393 0.006795 ]
5
Num Evals 1193
GenUC: 7.028754e-04
GenUB: 8.160569e-06
Optimisation 1.770384e-01
Total Time: 1.781096e-01
4 Rem 4
Graph 1:
0 0 0 0 
1 1 1 1 
1 1 1 0 
1 1 1 0 
Graph 2:
0 0 0 0 
1 1 1 1 
0 1 0 0 
1 1 0 0 
Solution: -3 0
Gbest: -3.000000
Expectation: -7.280808
Final Parameters:
Gammas:
[ 3.448263 4.063087 2.298632 3.062614 3.269019 ]
Betas:
[ 1.578503 1.906821 1.520198 1.347628 2.193473 1.174795 ]
Aggregate results:
[ 2 10 6 4 8 12 15 ]
[ 0.144147 0.072764 0.331620 0.233373 0.130776 0.004785 0.082536 ]
5
Num Evals 1594
GenUC: 2.077172e-05
GenUB: 8.120085e-06
Optimisation 1.874081e-01
Total Time: 1.878538e-01
5 Add/Rem 4
Graph 1:
0 0 0 0 
1 1 1 1 
1 1 1 0 
1 1 1 0 
Graph 2:
1 1 0 1 
0 1 1 1 
1 0 1 1 
1 0 0 0 
Solution: -4 6
Gbest: -4.000000
Expectation: -6.287363
Final Parameters:
Gammas:
[ 4.588981 2.366850 3.320299 3.567115 3.664814 ]
Betas:
[ 1.689112 3.141551 2.453822 1.311908 1.432953 1.293355 ]
Aggregate results:
[ 7 3 9 5 15 ]
[ 0.241563 0.338659 0.033290 0.351648 0.034839 ]
5
Num Evals 1935
GenUC: 1.119159e-05
GenUB: 8.062576e-06
Optimisation 1.439858e-01
Total Time: 1.444373e-01
