Clock Speed: 3.689296
Num threads: 4
Trotterisation: 3
Graph Size: 4
Num Qubits: 5
Space Dimension: 32
Run-Type: 0
Num_samples: 10
1 Isomorphic
Graph 1:
1 1 0 0 
1 1 0 0 
1 0 1 0 
1 0 1 1 
Graph 2:
1 1 0 0 
1 1 0 0 
1 0 1 0 
1 0 1 1 
Solution: 0 0
Gbest: -4.000000
Expectation: -5.364395
Final Parameters:
Gammas:
[ 5.304272 5.060106 1.580746 ]
Betas:
[ 2.948058 1.578835 2.183261 0.900302 ]
Aggregate results:
[ -1 3 5 7 1 9 15 ]
[ 0.209912 0.086487 0.372062 0.169067 0.069630 0.031867 0.060976 ]
5
Num Evals 400
GenUC: 1.671665e-04
GenUB: 1.255423e-05
Optimisation 1.236791e-01
Total Time: 1.241870e-01
2 Flipped
Graph 1:
1 1 0 0 
1 1 0 0 
1 0 1 0 
1 0 1 1 
Graph 2:
0 0 1 1 
0 0 1 1 
0 1 0 1 
1 1 0 1 
Solution: -6 9
Gbest: -6.000000
Expectation: -9.230467
Final Parameters:
Gammas:
[ 4.711530 4.046834 1.016954 ]
Betas:
[ 2.797834 1.809772 0.262338 2.504894 ]
Aggregate results:
[ 13 11 9 7 5 15 ]
[ 0.003820 0.018120 0.412652 0.229336 0.237881 0.098191 ]
5
Num Evals 800
GenUC: 1.019513e-05
GenUB: 8.049072e-06
Optimisation 1.252427e-01
Total Time: 1.255573e-01
3 Add 4
Graph 1:
1 1 0 0 
1 1 0 0 
1 0 1 0 
1 0 1 1 
Graph 2:
1 1 0 0 
1 1 0 0 
1 1 1 1 
1 1 1 1 
Solution: -3 0
Gbest: -3.000000
Expectation: -5.826236
Final Parameters:
Gammas:
[ 3.903480 3.418757 4.811053 ]
Betas:
[ 2.824056 2.490555 2.247948 0.880247 ]
Aggregate results:
[ 2 6 4 8 15 ]
[ 0.233551 0.330309 0.335116 0.068362 0.032661 ]
5
Num Evals 1200
GenUC: 1.034536e-05
GenUB: 8.434639e-06
Optimisation 1.205922e-01
Total Time: 1.209192e-01
4 Rem 4
Graph 1:
1 1 0 0 
1 1 0 0 
1 0 1 0 
1 0 1 1 
Graph 2:
1 0 0 0 
0 1 0 0 
1 0 1 0 
0 0 1 1 
Solution: -3 0
Gbest: -3.000000
Expectation: -5.473582
Final Parameters:
Gammas:
[ 3.888229 2.164168 3.217761 ]
Betas:
[ 2.345802 1.801853 2.321055 1.110308 ]
Aggregate results:
[ 2 4 6 15 ]
[ 0.206972 0.595101 0.143297 0.054630 ]
5
Num Evals 1600
GenUC: 8.481555e-06
GenUB: 8.022704e-06
Optimisation 1.114844e-01
Total Time: 1.117919e-01
5 Add/Rem 4
Graph 1:
1 1 0 0 
1 1 0 0 
1 0 1 0 
1 0 1 1 
Graph 2:
1 1 0 1 
0 1 1 0 
0 0 1 1 
1 0 1 0 
Solution: -4 14
Gbest: -4.000000
Expectation: -7.400704
Final Parameters:
Gammas:
[ 4.813779 3.406393 1.037709 ]
Betas:
[ 2.832866 2.448619 0.603169 1.954085 ]
Aggregate results:
[ 5 7 9 3 15 ]
[ 0.426520 0.224820 0.051277 0.185656 0.111727 ]
5
Num Evals 2000
GenUC: 9.164040e-06
GenUB: 8.202798e-06
Optimisation 1.141168e-01
Total Time: 1.144282e-01
