Clock Speed: 3.613822
Num threads: 4
Trotterisation: 3
Graph Size: 4
Num Qubits: 5
Space Dimension: 32
Run-Type: 0
Num_samples: 10
1 Isomorphic
Graph 1:
0 0 0 0 
0 1 0 1 
0 0 0 0 
0 0 0 0 
Graph 2:
0 0 0 0 
0 1 0 1 
0 0 0 0 
0 0 0 0 
Solution: 0 0
Gbest: 0.000000
Expectation: -2.476245
Final Parameters:
Gammas:
[ 6.283185 5.653911 1.418193 ]
Betas:
[ 3.125077 0.784965 2.052627 1.458343 ]
Aggregate results:
[ -1 3 1 15 ]
[ 0.289486 0.354955 0.330894 0.024665 ]
5
Num Evals 400
GenUC: 4.870486e-04
GenUB: 3.689252e-04
Optimisation 1.307375e-01
Total Time: 1.319372e-01
2 Flipped
Graph 1:
0 0 0 0 
0 1 0 1 
0 0 0 0 
0 0 0 0 
Graph 2:
0 0 0 0 
1 0 1 0 
0 0 0 0 
0 0 0 0 
Solution: -2 6
Gbest: -2.000000
Expectation: -3.982098
Final Parameters:
Gammas:
[ 5.513785 2.948258 1.587395 ]
Betas:
[ 1.279530 1.816166 2.200573 1.531483 ]
Aggregate results:
[ 3 1 15 ]
[ 0.786957 0.183887 0.029156 ]
5
Num Evals 800
GenUC: 9.247393e-06
GenUB: 8.309609e-06
Optimisation 1.271648e-01
Total Time: 1.274894e-01
3 Add 4
Graph 1:
0 0 0 0 
0 1 0 1 
0 0 0 0 
0 0 0 0 
Graph 2:
0 1 0 0 
0 1 1 1 
0 0 1 0 
0 1 0 0 
Solution: -4 0
Gbest: -4.000000
Expectation: -5.629964
Final Parameters:
Gammas:
[ 3.918597 3.814632 3.762035 ]
Betas:
[ 1.253865 2.702965 1.347139 1.509210 ]
Aggregate results:
[ 3 7 5 15 ]
[ 0.507297 0.123597 0.329370 0.039736 ]
5
Num Evals 1200
GenUC: 1.101085e-05
GenUB: 8.363626e-06
Optimisation 1.046052e-01
Total Time: 1.048918e-01
4 Rem 4
Graph 1:
0 0 0 0 
0 1 0 1 
0 0 0 0 
0 0 0 0 
Graph 2:
0 0 0 0 
0 0 0 0 
0 0 0 0 
0 0 0 0 
Solution: -2 0
Gbest: -2.000000
Expectation: -2.000000
Final Parameters:
Gammas:
[ 2.751647 4.623096 6.191713 ]
Betas:
[ 0.340968 2.304684 1.175847 1.570796 ]
Aggregate results:
[ 1 15 ]
[ 1.000000 0.000000 ]
5
Num Evals 1600
GenUC: 7.417053e-06
GenUB: 8.326606e-06
Optimisation 9.547581e-02
Total Time: 9.573619e-02
5 Add/Rem 4
Graph 1:
0 0 0 0 
0 1 0 1 
0 0 0 0 
0 0 0 0 
Graph 2:
0 0 1 0 
1 0 1 0 
1 0 0 0 
0 0 0 0 
Solution: -4 6
Gbest: -4.000000
Expectation: -4.966114
Final Parameters:
Gammas:
[ 4.734067 3.141593 2.274298 ]
Betas:
[ 2.504468 2.346659 0.653144 2.698472 ]
Aggregate results:
[ 5 3 15 ]
[ 0.396114 0.589396 0.014491 ]
5
Num Evals 2000
GenUC: 8.454022e-06
GenUB: 8.638250e-06
Optimisation 1.126391e-01
Total Time: 1.129450e-01
