Clock Speed: 3.689315
Num threads: 4
Trotterisation: 2
Graph Size: 3
Num Qubits: 3
Space Dimension: 8
Run-Type: 0
Num_samples: 10
1 Isomorphic
Graph 1:
1 1 0 
1 1 1 
1 0 1 
Graph 2:
1 1 0 
1 1 1 
1 0 1 
Solution: 0 0
Gbest: 0.000000
Expectation: -1.553716
Final Parameters:
Gammas:
[ 3.886828 3.444249 ]
Betas:
[ 1.223491 2.443883 0.061129 ]
Aggregate results:
[ -1 3 1 8 ]
[ 0.618759 0.227523 0.105691 0.048027 ]
5
Num Evals 304
GenUC: 1.154698e-04
GenUB: 7.861876e-06
Optimisation 3.741254e-02
Total Time: 3.767917e-02
2 Flipped
Graph 1:
1 1 0 
1 1 1 
1 0 1 
Graph 2:
0 1 1 
1 1 1 
1 0 1 
Solution: -2 0
Gbest: -2.000000
Expectation: -3.107377
Final Parameters:
Gammas:
[ 3.452556 3.321608 ]
Betas:
[ 0.986941 2.219981 0.695840 ]
Aggregate results:
[ 1 3 8 ]
[ 0.459832 0.534760 0.005408 ]
3
Num Evals 599
GenUC: 6.523915e-06
GenUB: 5.145441e-06
Optimisation 3.788499e-02
Total Time: 3.803078e-02
3 Add 3
Graph 1:
1 1 0 
1 1 1 
1 0 1 
Graph 2:
1 1 1 
1 1 1 
1 1 1 
Solution: -2 0
Gbest: -2.000000
Expectation: -2.000000
Final Parameters:
Gammas:
[ 3.326156 3.872194 ]
Betas:
[ 1.032641 1.554179 2.270136 ]
Aggregate results:
[ 1 8 ]
[ 1.000000 0.000000 ]
3
Num Evals 766
GenUC: 6.136484e-06
GenUB: 5.367212e-06
Optimisation 2.385479e-02
Total Time: 2.401689e-02
4 Rem 3
Graph 1:
1 1 0 
1 1 1 
1 0 1 
Graph 2:
1 0 0 
0 0 1 
1 0 1 
Solution: -3 0
Gbest: -3.000000
Expectation: -3.772410
Final Parameters:
Gammas:
[ 3.434676 3.261889 ]
Betas:
[ 2.200075 1.099533 1.618010 ]
Aggregate results:
[ 2 6 4 8 ]
[ 0.688233 0.039507 0.254794 0.017465 ]
3
Num Evals 1031
GenUC: 6.138929e-06
GenUB: 5.376060e-06
Optimisation 3.689454e-02
Total Time: 3.704970e-02
5 Add/Rem 3
Graph 1:
1 1 0 
1 1 1 
1 0 1 
Graph 2:
0 1 1 
1 1 0 
1 1 1 
Solution: -2 1
Gbest: -2.000000
Expectation: -3.107377
Final Parameters:
Gammas:
[ 3.452556 3.321608 ]
Betas:
[ 2.818086 2.219981 0.695840 ]
Aggregate results:
[ 3 1 8 ]
[ 0.534760 0.459832 0.005408 ]
3
Num Evals 1313
GenUC: 5.989801e-06
GenUB: 5.274545e-06
Optimisation 5.268078e-02
Total Time: 5.284816e-02
