Clock Speed: 3.689291
Num threads: 4
Trotterisation: 3
Graph Size: 4
Num Qubits: 5
Space Dimension: 32
Run-Type: 0
Num_samples: 10
1 Isomorphic
Graph 1:
1 0 0 1 
0 0 0 0 
1 0 0 1 
0 1 1 0 
Graph 2:
1 0 0 1 
0 0 0 0 
1 0 0 1 
0 1 1 0 
Solution: 0 0
Gbest: -4.000000
Expectation: -6.590167
Final Parameters:
Gammas:
[ 6.119843 1.766365 5.906443 ]
Betas:
[ 1.645162 1.246087 1.117907 1.757018 ]
Aggregate results:
[ -1 7 3 5 11 15 ]
[ 0.153427 0.369593 0.120446 0.238704 0.041466 0.076364 ]
5
Num Evals 400
GenUC: 1.199282e-04
GenUB: 1.238519e-05
Optimisation 1.091067e-01
Total Time: 1.095215e-01
2 Flipped
Graph 1:
1 0 0 1 
0 0 0 0 
1 0 0 1 
0 1 1 0 
Graph 2:
1 0 0 1 
0 0 0 0 
1 0 0 1 
0 1 1 0 
Solution: 0 0
Gbest: 0.000000
Expectation: -6.350155
Final Parameters:
Gammas:
[ 0.217593 3.014093 1.650175 ]
Betas:
[ 0.283001 2.654656 1.438703 1.887248 ]
Aggregate results:
[ -1 7 3 5 11 15 ]
[ 0.136982 0.312384 0.215935 0.226160 0.026561 0.081978 ]
5
Num Evals 800
GenUC: 9.406474e-06
GenUB: 8.316711e-06
Optimisation 1.199028e-01
Total Time: 1.201903e-01
3 Add 4
Graph 1:
1 0 0 1 
0 0 0 0 
1 0 0 1 
0 1 1 0 
Graph 2:
1 0 1 1 
1 0 0 0 
1 0 0 1 
1 1 1 0 
Solution: -3 0
Gbest: -5.000000
Expectation: -7.585810
Final Parameters:
Gammas:
[ 6.066274 3.612341 0.221858 ]
Betas:
[ 0.359389 1.965222 2.804897 1.724441 ]
Aggregate results:
[ 2 8 4 6 10 15 ]
[ 0.041160 0.212298 0.276669 0.353709 0.033258 0.082907 ]
5
Num Evals 1200
GenUC: 1.074863e-05
GenUB: 7.849652e-06
Optimisation 1.055447e-01
Total Time: 1.058368e-01
4 Rem 4
Graph 1:
1 0 0 1 
0 0 0 0 
1 0 0 1 
0 1 1 0 
Graph 2:
0 0 0 1 
0 0 0 0 
0 0 0 0 
0 1 1 0 
Solution: -3 0
Gbest: -5.000000
Expectation: -5.615358
Final Parameters:
Gammas:
[ 2.982470 3.838785 5.874427 ]
Betas:
[ 2.665098 2.705912 3.096837 2.900522 ]
Aggregate results:
[ 2 6 4 8 15 ]
[ 0.182267 0.168824 0.553942 0.057486 0.037482 ]
5
Num Evals 1600
GenUC: 9.336043e-06
GenUB: 8.093659e-06
Optimisation 1.029791e-01
Total Time: 1.033496e-01
5 Add/Rem 4
Graph 1:
1 0 0 1 
0 0 0 0 
1 0 0 1 
0 1 1 0 
Graph 2:
1 0 1 0 
0 1 0 0 
1 0 1 0 
0 0 0 0 
Solution: -5 7
Gbest: -5.000000
Expectation: -7.844994
Final Parameters:
Gammas:
[ 1.212409 0.622605 1.692846 ]
Betas:
[ 1.357748 1.101874 0.423414 2.507777 ]
Aggregate results:
[ 6 8 4 10 15 ]
[ 0.486707 0.238758 0.185644 0.012249 0.076641 ]
5
Num Evals 2000
GenUC: 8.584931e-06
GenUB: 8.452800e-06
Optimisation 1.020923e-01
Total Time: 1.023555e-01
