Clock Speed: 3.688326
Num threads: 4
Trotterisation: 4
Graph Size: 3
Num Qubits: 3
Space Dimension: 8
Run-Type: 0
Num_samples: 10
1 Isomorphic
Graph 1:
1 1 1 
1 0 0 
1 1 1 
Graph 2:
1 1 1 
1 0 0 
1 1 1 
Solution: 0 0
Gbest: 0.000000
Expectation: -0.808969
Final Parameters:
Gammas:
[ 4.097532 3.089475 3.816131 2.986220 ]
Betas:
[ 1.452344 0.747860 2.388174 1.216727 1.337486 ]
Aggregate results:
[ -1 3 1 8 ]
[ 0.755433 0.134909 0.102512 0.007145 ]
5
Num Evals 301
GenUC: 1.649437e-04
GenUB: 7.657683e-06
Optimisation 7.595259e-02
Total Time: 7.640147e-02
2 Flipped
Graph 1:
1 1 1 
1 0 0 
1 1 1 
Graph 2:
1 1 1 
0 0 1 
1 1 1 
Solution: 0 5
Gbest: 0.000000
Expectation: -1.231289
Final Parameters:
Gammas:
[ 2.387336 3.201674 3.338564 3.265884 ]
Betas:
[ 1.639742 2.370255 0.702744 1.399808 1.222460 ]
Aggregate results:
[ 1 3 -1 8 ]
[ 0.278823 0.133165 0.572347 0.015665 ]
5
Num Evals 602
GenUC: 8.187490e-06
GenUB: 5.543348e-06
Optimisation 7.161277e-02
Total Time: 7.186984e-02
3 Add 3
Graph 1:
1 1 1 
1 0 0 
1 1 1 
Graph 2:
1 1 1 
1 1 1 
1 1 1 
Solution: -2 0
Gbest: -2.000000
Expectation: -2.000000
Final Parameters:
Gammas:
[ 3.952754 3.130606 3.279954 3.541602 ]
Betas:
[ 1.578938 1.092402 2.248490 1.407601 1.620757 ]
Aggregate results:
[ 1 8 ]
[ 1.000000 0.000000 ]
3
Num Evals 790
GenUC: 6.227521e-06
GenUB: 5.410635e-06
Optimisation 5.850231e-02
Total Time: 5.876753e-02
4 Rem 3
Graph 1:
1 1 1 
1 0 0 
1 1 1 
Graph 2:
1 1 1 
1 0 0 
0 0 0 
Solution: -3 0
Gbest: -3.000000
Expectation: -3.119341
Final Parameters:
Gammas:
[ 3.377031 3.149995 3.630843 3.305127 ]
Betas:
[ 1.558379 0.223948 2.267448 1.503536 1.320213 ]
Aggregate results:
[ 2 6 4 8 ]
[ 0.963972 0.014108 0.017152 0.004767 ]
5
Num Evals 1091
GenUC: 8.304371e-06
GenUB: 5.512149e-06
Optimisation 7.202655e-02
Total Time: 7.226937e-02
5 Add/Rem 3
Graph 1:
1 1 1 
1 0 0 
1 1 1 
Graph 2:
0 1 1 
1 1 1 
0 1 0 
Solution: -1 4
Gbest: -1.000000
Expectation: -1.799154
Final Parameters:
Gammas:
[ 3.705156 2.052894 3.272853 2.356321 ]
Betas:
[ 1.295576 1.636763 0.889979 1.210004 0.790181 ]
Aggregate results:
[ 4 2 0 8 ]
[ 0.049948 0.226655 0.705140 0.018256 ]
5
Num Evals 1392
GenUC: 6.609480e-06
GenUB: 5.323207e-06
Optimisation 7.058236e-02
Total Time: 7.082223e-02
