Clock Speed: 3.689312
Num threads: 4
Trotterisation: 4
Graph Size: 3
Num Qubits: 3
Space Dimension: 8
Run-Type: 0
Num_samples: 10
1 Isomorphic
Graph 1:
0 1 0 
1 0 0 
0 1 0 
Graph 2:
0 1 0 
1 0 0 
0 1 0 
Solution: 0 0
Gbest: 0.000000
Expectation: -0.266785
Final Parameters:
Gammas:
[ 2.787677 3.198189 2.483898 3.184371 ]
Betas:
[ 1.623137 1.591553 0.955928 2.023469 1.887241 ]
Aggregate results:
[ -1 1 3 5 8 ]
[ 0.887916 0.098147 0.007574 0.005692 0.000672 ]
5
Num Evals 305
GenUC: 1.354864e-04
GenUB: 7.771509e-06
Optimisation 7.309727e-02
Total Time: 7.351160e-02
2 Flipped
Graph 1:
0 1 0 
1 0 0 
0 1 0 
Graph 2:
0 1 0 
0 0 1 
0 1 0 
Solution: 0 5
Gbest: 0.000000
Expectation: -0.570194
Final Parameters:
Gammas:
[ 2.766933 3.530757 3.860735 3.975249 ]
Betas:
[ 1.852085 2.499180 1.568743 1.084435 1.781965 ]
Aggregate results:
[ 1 3 5 -1 8 ]
[ 0.103209 0.018460 0.040524 0.832607 0.005199 ]
5
Num Evals 606
GenUC: 6.608403e-06
GenUB: 5.505717e-06
Optimisation 7.686067e-02
Total Time: 7.713550e-02
3 Add 3
Graph 1:
0 1 0 
1 0 0 
0 1 0 
Graph 2:
1 1 1 
1 0 0 
0 1 1 
Solution: -3 0
Gbest: -3.000000
Expectation: -3.095652
Final Parameters:
Gammas:
[ 3.533925 2.819370 3.991807 3.690527 ]
Betas:
[ 1.579987 0.697718 1.616120 1.279622 1.288873 ]
Aggregate results:
[ 2 4 6 8 ]
[ 0.962349 0.030694 0.003740 0.003217 ]
5
Num Evals 906
GenUC: 6.327289e-06
GenUB: 5.067355e-06
Optimisation 8.361497e-02
Total Time: 8.386939e-02
4 Rem 3
Graph 1:
0 1 0 
1 0 0 
0 1 0 
Graph 2:
0 0 0 
0 0 0 
0 1 0 
Solution: -2 0
Gbest: -2.000000
Expectation: -2.048656
Final Parameters:
Gammas:
[ 2.699965 2.564582 2.857655 2.741863 ]
Betas:
[ 1.807987 2.721886 1.231912 1.346329 1.226530 ]
Aggregate results:
[ 1 3 8 ]
[ 0.977888 0.021226 0.000886 ]
5
Num Evals 1207
GenUC: 7.555558e-06
GenUB: 5.330250e-06
Optimisation 7.635252e-02
Total Time: 7.662122e-02
5 Add/Rem 3
Graph 1:
0 1 0 
1 0 0 
0 1 0 
Graph 2:
1 0 0 
0 1 0 
1 1 0 
Solution: -5 0
Gbest: -5.000000
Expectation: -5.000000
Final Parameters:
Gammas:
[ 3.473695 3.830482 3.988221 3.945513 ]
Betas:
[ 1.588105 1.074484 1.628790 1.587051 1.568217 ]
Aggregate results:
[ 4 8 ]
[ 1.000000 0.000000 ]
3
Num Evals 1375
GenUC: 6.583723e-06
GenUB: 5.494570e-06
Optimisation 4.129194e-02
Total Time: 4.155381e-02
