Clock Speed: 3.689417
Num threads: 4
Trotterisation: 3
Graph Size: 8
Num Qubits: 16
Space Dimension: 65536
Run-Type: 0
Num_samples: 10
1 Isomorphic
Graph 1:
0 0 0 0 0 0 1 0 
1 1 0 0 0 0 0 0 
1 0 1 1 1 1 0 0 
0 0 1 1 1 1 1 0 
0 0 0 0 0 0 1 0 
1 1 1 0 0 0 0 0 
0 0 1 0 0 0 0 0 
1 1 0 0 1 0 0 1 
Graph 2:
0 0 0 0 0 0 1 0 
1 1 0 0 0 0 0 0 
1 0 1 1 1 1 0 0 
0 0 1 1 1 1 1 0 
0 0 0 0 0 0 1 0 
1 1 1 0 0 0 0 0 
0 0 1 0 0 0 0 0 
1 1 0 0 1 0 0 1 
Solution: 0 0
Gbest: -24.000000
Expectation: -31.667664
Final Parameters:
Gammas:
[ 3.276662 0.002067 1.236682 ]
Betas:
[ 2.666733 1.921316 1.596404 0.046153 ]
Aggregate results:
[ -1 7 19 11 21 17 13 15 25 23 27 31 29 33 9 5 35 37 41 39 63 ]
[ 0.000020 0.000033 0.020139 0.000163 0.052577 0.006902 0.000813 0.002661 0.152739 0.100996 0.185800 0.118077 0.165705 0.064277 0.000098 0.000018 0.024706 0.005552 0.000001 0.001022 0.097700 ]
5
Num Evals 800
GenUC: 3.609668e-03
GenUB: 6.520570e-02
Optimisation 2.018276e+02
Total Time: 2.021362e+02
2 Flipped
Graph 1:
0 0 0 0 0 0 1 0 
1 1 0 0 0 0 0 0 
1 0 1 1 1 1 0 0 
0 0 1 1 1 1 1 0 
0 0 0 0 0 0 1 0 
1 1 1 0 0 0 0 0 
0 0 1 0 0 0 0 0 
1 1 0 0 1 0 0 1 
Graph 2:
0 1 0 0 0 0 0 0 
0 0 0 0 0 0 1 1 
0 0 1 1 1 1 0 1 
0 1 1 1 1 1 0 0 
0 1 0 0 0 0 0 0 
0 0 0 0 0 1 1 1 
0 0 0 0 0 1 0 0 
1 0 0 1 0 0 1 1 
Solution: -12 9466
Gbest: -20.000000
Expectation: -33.994009
Final Parameters:
Gammas:
[ 3.259150 3.693607 0.003891 ]
Betas:
[ 2.298380 0.802917 2.661850 0.382951 ]
Aggregate results:
[ 23 19 31 29 35 33 25 17 27 21 39 37 13 15 41 11 63 ]
[ 0.103378 0.016261 0.098281 0.136797 0.028489 0.060603 0.161957 0.003042 0.172950 0.046054 0.001558 0.007631 0.000139 0.000894 0.000105 0.000014 0.161846 ]
5
Num Evals 1600
GenUC: 2.799590e-03
GenUB: 1.700901e-02
Optimisation 1.992992e+02
Total Time: 1.995688e+02
3 Add 8
Graph 1:
0 0 0 0 0 0 1 0 
1 1 0 0 0 0 0 0 
1 0 1 1 1 1 0 0 
0 0 1 1 1 1 1 0 
0 0 0 0 0 0 1 0 
1 1 1 0 0 0 0 0 
0 0 1 0 0 0 0 0 
1 1 0 0 1 0 0 1 
Graph 2:
0 0 0 0 0 0 1 1 
1 1 0 1 0 1 1 0 
1 0 1 1 1 1 0 1 
0 0 1 1 1 1 1 0 
0 0 0 0 0 0 1 0 
1 1 1 0 0 0 0 0 
0 0 1 1 0 0 0 0 
1 1 0 1 1 0 0 1 
Solution: -7 0
Gbest: -25.000000
Expectation: -35.857641
Final Parameters:
Gammas:
[ 6.160770 0.126148 3.097424 ]
Betas:
[ 1.954248 0.434066 2.190809 2.334403 ]
Aggregate results:
[ 6 12 22 14 24 26 20 16 18 30 34 32 28 36 38 40 42 44 46 63 ]
[ 0.000097 0.000256 0.030800 0.000361 0.065509 0.111903 0.011499 0.001638 0.003327 0.160047 0.094639 0.133439 0.144837 0.052566 0.021769 0.007868 0.001900 0.000557 0.000001 0.156990 ]
5
Num Evals 2400
GenUC: 2.892765e-03
GenUB: 1.668238e-02
Optimisation 2.011794e+02
Total Time: 2.015052e+02
4 Rem 8
Graph 1:
0 0 0 0 0 0 1 0 
1 1 0 0 0 0 0 0 
1 0 1 1 1 1 0 0 
0 0 1 1 1 1 1 0 
0 0 0 0 0 0 1 0 
1 1 1 0 0 0 0 0 
0 0 1 0 0 0 0 0 
1 1 0 0 1 0 0 1 
Graph 2:
0 0 0 0 0 0 0 0 
1 1 0 0 0 0 0 0 
1 0 1 1 1 1 0 0 
0 0 0 1 1 0 1 0 
0 0 0 0 0 0 0 0 
0 0 1 0 0 0 0 0 
0 0 0 0 0 0 0 0 
1 1 0 0 1 0 0 1 
Solution: -7 0
Gbest: -17.000000
Expectation: -30.029206
Final Parameters:
Gammas:
[ 3.011777 1.767009 3.449374 ]
Betas:
[ 1.320951 2.479598 1.389822 3.095802 ]
Aggregate results:
[ 6 12 20 14 18 16 22 24 26 28 30 10 32 34 8 36 63 ]
[ 0.000036 0.001540 0.138484 0.007856 0.071984 0.026719 0.172675 0.166726 0.124761 0.078166 0.043225 0.000275 0.018365 0.003708 0.000025 0.000082 0.145374 ]
5
Num Evals 3200
GenUC: 2.901782e-03
GenUB: 1.688274e-02
Optimisation 1.959586e+02
Total Time: 1.962737e+02
5 Add/Rem 8
Graph 1:
0 0 0 0 0 0 1 0 
1 1 0 0 0 0 0 0 
1 0 1 1 1 1 0 0 
0 0 1 1 1 1 1 0 
0 0 0 0 0 0 1 0 
1 1 1 0 0 0 0 0 
0 0 1 0 0 0 0 0 
1 1 0 0 1 0 0 1 
Graph 2:
0 0 0 1 1 0 1 0 
1 1 0 0 1 0 0 0 
0 0 1 0 1 0 0 0 
0 0 0 1 1 0 1 0 
0 0 0 1 0 0 1 0 
1 1 1 0 1 0 0 0 
0 0 0 0 0 0 0 1 
0 1 1 0 1 0 0 1 
Solution: -14 0
Gbest: -24.000000
Expectation: -33.330965
Final Parameters:
Gammas:
[ 0.044091 6.076977 4.924236 ]
Betas:
[ 0.765426 0.664553 0.158235 1.709327 ]
Aggregate results:
[ 13 19 15 23 21 17 25 27 29 31 33 35 39 37 41 63 ]
[ 0.000236 0.017580 0.001140 0.092026 0.043142 0.004873 0.147807 0.183331 0.163957 0.114175 0.059331 0.024245 0.001634 0.006378 0.000148 0.139996 ]
5
Num Evals 4000
GenUC: 2.987863e-03
GenUB: 1.676542e-02
Optimisation 2.017438e+02
Total Time: 2.019362e+02
