Clock Speed: 3.688489
Num threads: 4
Trotterisation: 3
Graph Size: 8
Num Qubits: 16
Space Dimension: 65536
Run-Type: 0
Num_samples: 10
1 Isomorphic
Graph 1:
0 1 1 1 0 1 0 0 
0 0 0 0 1 1 0 0 
0 1 1 0 0 1 0 0 
0 0 0 0 0 0 0 1 
1 1 0 1 1 1 0 1 
1 0 0 1 0 0 1 1 
1 1 1 0 1 0 1 1 
0 1 1 1 1 1 0 1 
Graph 2:
0 1 1 1 0 1 0 0 
0 0 0 0 1 1 0 0 
0 1 1 0 0 1 0 0 
0 0 0 0 0 0 0 1 
1 1 0 1 1 1 0 1 
1 0 0 1 0 0 1 1 
1 1 1 0 1 0 1 1 
0 1 1 1 1 1 0 1 
Solution: 0 0
Gbest: -28.000000
Expectation: -37.789444
Final Parameters:
Gammas:
[ 0.168927 3.064411 0.419769 ]
Betas:
[ 1.859510 2.017072 1.006187 3.030910 ]
Aggregate results:
[ -1 13 15 7 11 19 23 25 21 27 9 17 33 29 31 35 39 37 41 43 45 51 49 47 5 63 ]
[ 0.000000 0.000647 0.001125 0.000004 0.000067 0.007013 0.050084 0.099038 0.017603 0.140147 0.000052 0.001467 0.083608 0.141567 0.110005 0.060627 0.018096 0.037158 0.007898 0.002844 0.000998 0.000024 0.000016 0.000047 0.000013 0.219853 ]
5
Num Evals 800
GenUC: 3.527259e-03
GenUB: 3.247576e-02
Optimisation 2.057618e+02
Total Time: 2.060866e+02
2 Flipped
Graph 1:
0 1 1 1 0 1 0 0 
0 0 0 0 1 1 0 0 
0 1 1 0 0 1 0 0 
0 0 0 0 0 0 0 1 
1 1 0 1 1 1 0 1 
1 0 0 1 0 0 1 1 
1 1 1 0 1 0 1 1 
0 1 1 1 1 1 0 1 
Graph 2:
0 0 1 0 1 1 1 0 
0 0 1 1 0 0 0 0 
0 0 1 0 0 1 1 0 
1 0 0 0 0 0 0 0 
1 0 1 1 1 0 1 1 
1 1 0 0 1 0 0 1 
1 1 0 1 0 1 1 1 
1 0 1 1 1 1 1 0 
Solution: -14 3430
Gbest: -26.000000
Expectation: -37.442862
Final Parameters:
Gammas:
[ 3.220010 2.118173 1.175535 ]
Betas:
[ 0.170019 3.069436 2.973849 0.510868 ]
Aggregate results:
[ 27 21 29 25 23 33 31 39 35 37 17 19 41 43 45 15 13 47 63 ]
[ 0.096929 0.008523 0.151805 0.055529 0.026996 0.135934 0.155176 0.023522 0.104154 0.054633 0.000692 0.002261 0.009590 0.002377 0.000554 0.000224 0.000041 0.000051 0.171008 ]
5
Num Evals 1600
GenUC: 2.618448e-03
GenUB: 1.706469e-02
Optimisation 2.079441e+02
Total Time: 2.082204e+02
3 Add 8
Graph 1:
0 1 1 1 0 1 0 0 
0 0 0 0 1 1 0 0 
0 1 1 0 0 1 0 0 
0 0 0 0 0 0 0 1 
1 1 0 1 1 1 0 1 
1 0 0 1 0 0 1 1 
1 1 1 0 1 0 1 1 
0 1 1 1 1 1 0 1 
Graph 2:
1 1 1 1 0 1 0 0 
0 0 0 0 1 1 0 0 
0 1 1 0 0 1 1 0 
1 0 0 0 0 0 1 1 
1 1 0 1 1 1 1 1 
1 0 0 1 1 0 1 1 
1 1 1 0 1 0 1 1 
1 1 1 1 1 1 0 1 
Solution: -7 0
Gbest: -27.000000
Expectation: -37.202708
Final Parameters:
Gammas:
[ 3.181707 4.893725 1.793899 ]
Betas:
[ 2.434066 2.321405 1.508590 0.353750 ]
Aggregate results:
[ 6 18 20 14 26 22 28 24 16 32 30 34 36 38 40 12 42 44 46 50 8 63 ]
[ 0.000053 0.001435 0.005150 0.000185 0.079706 0.017904 0.127752 0.041170 0.000362 0.146055 0.155078 0.122330 0.073528 0.041169 0.016136 0.000079 0.005371 0.001147 0.000257 0.000001 0.000011 0.165122 ]
5
Num Evals 2400
GenUC: 2.909152e-03
GenUB: 1.653643e-02
Optimisation 2.007543e+02
Total Time: 2.010964e+02
4 Rem 8
Graph 1:
0 1 1 1 0 1 0 0 
0 0 0 0 1 1 0 0 
0 1 1 0 0 1 0 0 
0 0 0 0 0 0 0 1 
1 1 0 1 1 1 0 1 
1 0 0 1 0 0 1 1 
1 1 1 0 1 0 1 1 
0 1 1 1 1 1 0 1 
Graph 2:
0 1 1 1 0 1 0 0 
0 0 0 0 1 1 0 0 
0 1 0 0 0 0 0 0 
0 0 0 0 0 0 0 1 
1 0 0 1 1 1 0 1 
1 0 0 1 0 0 1 1 
0 1 1 0 1 0 0 1 
0 1 1 1 1 1 0 0 
Solution: -6 0
Gbest: -22.000000
Expectation: -36.269403
Final Parameters:
Gammas:
[ 3.003242 4.369849 0.299964 ]
Betas:
[ 2.848046 0.848110 1.718866 2.937693 ]
Aggregate results:
[ 5 19 17 9 15 21 25 23 27 29 31 33 35 37 41 13 39 45 43 51 47 63 ]
[ 0.000026 0.008669 0.003291 0.000073 0.001102 0.025836 0.100748 0.058223 0.133002 0.124624 0.107975 0.094733 0.080624 0.055749 0.008602 0.000097 0.025128 0.000567 0.002963 0.000001 0.000058 0.167911 ]
5
Num Evals 3200
GenUC: 2.901902e-03
GenUB: 1.693153e-02
Optimisation 2.043223e+02
Total Time: 2.046389e+02
5 Add/Rem 8
Graph 1:
0 1 1 1 0 1 0 0 
0 0 0 0 1 1 0 0 
0 1 1 0 0 1 0 0 
0 0 0 0 0 0 0 1 
1 1 0 1 1 1 0 1 
1 0 0 1 0 0 1 1 
1 1 1 0 1 0 1 1 
0 1 1 1 1 1 0 1 
Graph 2:
0 1 1 1 0 1 0 0 
0 0 0 0 1 0 0 0 
0 1 1 0 0 1 1 0 
0 0 1 0 1 0 0 1 
0 1 0 1 1 1 0 1 
1 0 0 1 0 1 1 0 
0 0 1 1 1 0 1 1 
0 1 1 0 1 0 0 1 
Solution: -12 0
Gbest: -26.000000
Expectation: -36.531042
Final Parameters:
Gammas:
[ 3.282667 2.721925 4.826720 ]
Betas:
[ 0.907308 1.971114 0.189790 1.424426 ]
Aggregate results:
[ 11 25 27 19 21 23 29 35 15 17 31 33 37 39 43 41 47 45 49 13 63 ]
[ 0.000005 0.059123 0.111219 0.002257 0.007413 0.024940 0.156322 0.095369 0.000116 0.000745 0.170680 0.143483 0.050616 0.021320 0.001814 0.006736 0.000048 0.000233 0.000007 0.000025 0.147528 ]
5
Num Evals 4000
GenUC: 2.945262e-03
GenUB: 1.727353e-02
Optimisation 2.069965e+02
Total Time: 2.072318e+02
