Clock Speed: 3.689137
Num threads: 4
Trotterisation: 3
Graph Size: 8
Num Qubits: 16
Space Dimension: 65536
Run-Type: 0
Num_samples: 10
1 Isomorphic
Graph 1:
1 1 1 1 1 1 1 1 
1 1 1 1 1 1 1 0 
0 1 0 0 0 1 1 0 
0 0 1 0 0 1 1 0 
0 1 1 0 1 0 1 0 
0 1 1 1 0 1 1 1 
1 0 1 0 1 0 0 0 
0 0 1 1 1 0 1 0 
Graph 2:
1 1 1 1 1 1 1 1 
1 1 1 1 1 1 1 0 
0 1 0 0 0 1 1 0 
0 0 1 0 0 1 1 0 
0 1 1 0 1 0 1 0 
0 1 1 1 0 1 1 1 
1 0 1 0 1 0 0 0 
0 0 1 1 1 0 1 0 
Solution: 0 0
Gbest: -20.000000
Expectation: -36.077492
Final Parameters:
Gammas:
[ 3.172891 5.684234 2.838688 ]
Betas:
[ 0.181493 2.458736 2.888366 0.227891 ]
Aggregate results:
[ -1 9 19 13 17 21 15 7 27 25 29 31 23 33 37 11 35 39 41 43 47 63 ]
[ 0.000018 0.000431 0.017271 0.001331 0.006971 0.032190 0.002772 0.000075 0.120469 0.084973 0.119115 0.118688 0.049414 0.122113 0.043555 0.000279 0.083152 0.022643 0.007694 0.000999 0.000004 0.165841 ]
5
Num Evals 800
GenUC: 3.536366e-03
GenUB: 1.734511e-02
Optimisation 1.994691e+02
Total Time: 1.997721e+02
2 Flipped
Graph 1:
1 1 1 1 1 1 1 1 
1 1 1 1 1 1 1 0 
0 1 0 0 0 1 1 0 
0 0 1 0 0 1 1 0 
0 1 1 0 1 0 1 0 
0 1 1 1 0 1 1 1 
1 0 1 0 1 0 0 0 
0 0 1 1 1 0 1 0 
Graph 2:
1 1 1 1 1 1 1 1 
0 1 1 1 1 1 1 1 
0 1 1 0 0 0 1 0 
0 1 1 0 0 1 0 0 
0 1 0 1 0 1 1 0 
1 1 1 0 1 1 1 0 
0 0 0 1 0 1 0 1 
0 1 0 1 1 1 0 0 
Solution: -16 252
Gbest: -28.000000
Expectation: -37.166936
Final Parameters:
Gammas:
[ 3.268978 5.483834 3.744288 ]
Betas:
[ 2.739228 0.808424 1.841257 1.470782 ]
Aggregate results:
[ 23 27 29 25 33 31 21 37 35 19 17 15 39 41 43 45 63 ]
[ 0.054314 0.120025 0.140368 0.090219 0.096957 0.132862 0.025979 0.037788 0.068054 0.009649 0.002099 0.000535 0.014822 0.003536 0.000937 0.000016 0.201839 ]
5
Num Evals 1600
GenUC: 2.616558e-03
GenUB: 1.687953e-02
Optimisation 2.067329e+02
Total Time: 2.070233e+02
3 Add 8
Graph 1:
1 1 1 1 1 1 1 1 
1 1 1 1 1 1 1 0 
0 1 0 0 0 1 1 0 
0 0 1 0 0 1 1 0 
0 1 1 0 1 0 1 0 
0 1 1 1 0 1 1 1 
1 0 1 0 1 0 0 0 
0 0 1 1 1 0 1 0 
Graph 2:
1 1 1 1 1 1 1 1 
1 1 1 1 1 1 1 0 
1 1 0 1 0 1 1 0 
1 0 1 0 0 1 1 0 
0 1 1 0 1 1 1 0 
0 1 1 1 0 1 1 1 
1 0 1 1 1 1 0 0 
0 1 1 1 1 0 1 0 
Solution: -7 0
Gbest: -17.000000
Expectation: -34.823929
Final Parameters:
Gammas:
[ 3.343327 2.996531 3.648370 ]
Betas:
[ 2.844500 0.407530 2.793286 3.040864 ]
Aggregate results:
[ 6 14 20 18 24 16 10 12 26 22 28 30 34 32 36 38 40 42 63 ]
[ 0.000024 0.001098 0.013027 0.005180 0.079891 0.002662 0.000078 0.000171 0.135173 0.033468 0.168073 0.159717 0.076642 0.126406 0.039695 0.011709 0.001733 0.000073 0.145180 ]
5
Num Evals 2400
GenUC: 2.872060e-03
GenUB: 1.694509e-02
Optimisation 2.097999e+02
Total Time: 2.101441e+02
4 Rem 8
Graph 1:
1 1 1 1 1 1 1 1 
1 1 1 1 1 1 1 0 
0 1 0 0 0 1 1 0 
0 0 1 0 0 1 1 0 
0 1 1 0 1 0 1 0 
0 1 1 1 0 1 1 1 
1 0 1 0 1 0 0 0 
0 0 1 1 1 0 1 0 
Graph 2:
0 0 0 1 1 1 1 1 
1 1 1 1 1 1 1 0 
0 1 0 0 0 0 1 0 
0 0 1 0 0 1 1 0 
0 1 1 0 1 0 0 0 
0 1 1 1 0 0 1 0 
0 0 1 0 1 0 0 0 
0 0 1 1 1 0 1 0 
Solution: -8 0
Gbest: -22.000000
Expectation: -35.436380
Final Parameters:
Gammas:
[ 6.230689 3.471957 4.858443 ]
Betas:
[ 2.597253 1.928302 1.346192 0.104882 ]
Aggregate results:
[ 7 15 25 21 23 27 29 31 17 19 37 33 35 11 13 39 41 43 45 63 ]
[ 0.000049 0.001522 0.069148 0.019681 0.044350 0.111829 0.137994 0.153096 0.003216 0.008174 0.055059 0.132360 0.100367 0.000146 0.000049 0.026821 0.009799 0.002252 0.000465 0.123625 ]
5
Num Evals 3200
GenUC: 2.920036e-03
GenUB: 1.692272e-02
Optimisation 2.051183e+02
Total Time: 2.053789e+02
5 Add/Rem 8
Graph 1:
1 1 1 1 1 1 1 1 
1 1 1 1 1 1 1 0 
0 1 0 0 0 1 1 0 
0 0 1 0 0 1 1 0 
0 1 1 0 1 0 1 0 
0 1 1 1 0 1 1 1 
1 0 1 0 1 0 0 0 
0 0 1 1 1 0 1 0 
Graph 2:
1 1 1 1 1 1 0 1 
1 1 1 0 1 1 1 0 
0 1 1 0 0 0 1 0 
1 0 1 1 0 1 0 0 
0 1 1 0 1 1 1 0 
0 1 1 0 0 1 0 0 
0 0 1 1 1 0 1 1 
0 0 1 1 1 0 1 0 
Solution: -13 1361
Gbest: -29.000000
Expectation: -36.671364
Final Parameters:
Gammas:
[ 3.090380 0.066221 4.308069 ]
Betas:
[ 0.064463 1.200407 1.627730 0.329508 ]
Aggregate results:
[ 14 22 28 24 30 26 32 20 34 36 38 18 16 40 12 42 44 63 ]
[ 0.000171 0.019399 0.127749 0.045994 0.163376 0.080222 0.157025 0.006262 0.131027 0.068854 0.029251 0.002347 0.000595 0.008983 0.000022 0.001343 0.000190 0.157190 ]
5
Num Evals 4000
GenUC: 2.917177e-03
GenUB: 1.662813e-02
Optimisation 2.051696e+02
Total Time: 2.053627e+02
