Clock Speed: 3.689302
Num threads: 4
Trotterisation: 6
Num Qubits: 5
Space Dimension: 32
Run-Type: 0
Num_samples: 4
Optimiser Method: 29
1 Isomorphic
Graph 1:
0 0 1 1 
0 0 0 1 
1 0 0 0 
1 1 0 0 
Graph 2:
0 0 1 1 
0 0 0 1 
1 0 0 0 
1 1 0 0 
Solution: 16 0
Classic Expectation: 10.000000
Initial Expecation: 7.500000
Gbest: 16.000000
Expectation: 12.675212
Final Parameters:
Gammas:
[ 3.243301 2.613329 3.063581 1.489526 6.124404 3.747247 ]
Betas:
[ 2.162397 1.899165 1.204068 1.532486 1.682026 1.279629 ]
Aggregate results:
[ 16 12 8 4 0 ]
[ 0.290924 0.629078 0.054258 0.009354 0.016385 ]
5
Num Evals 4800
GenUC: 8.703966e-06
GenUB: 9.623531e-06
Optimisation 2.418224e+00
Total Time: 2.418269e+00
2 Flipped
Graph 1:
0 0 1 1 
0 0 0 1 
1 0 0 0 
1 1 0 0 
Graph 2:
1 1 0 0 
1 0 0 0 
0 0 0 1 
0 0 1 1 
Solution: 12 2
Classic Expectation: 8.000000
Initial Expecation: 6.000000
Gbest: 12.000000
Expectation: 10.679891
Final Parameters:
Gammas:
[ 4.982617 4.028648 6.223050 4.792094 5.764206 2.202467 ]
Betas:
[ 1.719862 1.082482 1.400094 2.426514 1.680692 1.287674 ]
Aggregate results:
[ 4 12 8 0 ]
[ 0.044359 0.745906 0.193947 0.015787 ]
5
Num Evals 4800
GenUC: 1.012057e-05
GenUB: 1.781038e-06
Optimisation 2.418874e+00
Total Time: 2.418888e+00
3 Add 4
Graph 1:
0 0 1 1 
0 0 0 1 
1 0 0 0 
1 1 0 0 
Graph 2:
1 1 1 1 
1 0 1 1 
1 1 0 1 
1 1 1 0 
Solution: 9 0
Classic Expectation: 9.000000
Initial Expecation: 6.750000
Gbest: 9.000000
Expectation: 9.000000
Final Parameters:
Gammas:
[ 4.505131 3.632467 3.141593 3.141593 1.944968 3.049860 ]
Betas:
[ 1.570796 1.570796 1.564149 2.349547 1.570796 1.570796 ]
Aggregate results:
[ 9 0 ]
[ 1.000000 0.000000 ]
4
Num Evals 1372
GenUC: 1.026026e-05
GenUB: 1.608511e-06
Optimisation 7.316754e-01
Total Time: 7.316902e-01
4 Rem 4
Graph 1:
0 0 1 1 
0 0 0 1 
1 0 0 0 
1 1 0 0 
Graph 2:
0 0 0 0 
0 0 0 0 
0 0 0 0 
0 0 0 0 
Solution: 10 0
Classic Expectation: 10.000000
Initial Expecation: 7.500000
Gbest: 10.000000
Expectation: 10.000000
Final Parameters:
Gammas:
[ 1.938122 5.190396 3.141586 5.288927 5.694273 3.141727 ]
Betas:
[ 1.570843 0.705522 1.640047 2.296675 1.526951 0.763970 ]
Aggregate results:
[ 10 0 ]
[ 1.000000 0.000000 ]
4
Num Evals 1099
GenUC: 1.029490e-05
GenUB: 1.351524e-06
Optimisation 5.326658e-01
Total Time: 5.326800e-01
5 Add/Rem 4
Graph 1:
0 0 1 1 
0 0 0 1 
1 0 0 0 
1 1 0 0 
Graph 2:
1 1 0 0 
1 1 1 0 
0 1 0 1 
0 0 1 0 
Solution: 14 10
Classic Expectation: 8.000000
Initial Expecation: 6.000000
Gbest: 14.000000
Expectation: 9.824331
Final Parameters:
Gammas:
[ 3.493767 3.249570 5.984530 4.638819 2.836084 3.288756 ]
Betas:
[ 1.922014 0.945789 1.866543 0.492872 1.494749 1.324008 ]
Aggregate results:
[ 2 6 10 14 0 ]
[ 0.010562 0.134133 0.637846 0.187139 0.030320 ]
5
Num Evals 4800
GenUC: 9.880576e-06
GenUB: 1.274573e-06
Optimisation 2.268285e+00
Total Time: 2.268299e+00
