Clock Speed: 3.689020
Num threads: 4
Trotterisation: 3
Graph Size: 3
Num Qubits: 3
Space Dimension: 8
Run-Type: 0
Num_samples: 10
1 Isomorphic
Graph 1:
1 0 0 
1 0 0 
0 0 0 
Graph 2:
1 0 0 
1 0 0 
0 0 0 
Solution: 0 0
Gbest: 0.000000
Expectation: -1.299281
Final Parameters:
Gammas:
[ 2.515159 2.990383 3.434986 ]
Betas:
[ 1.562686 0.963642 0.923537 0.689279 ]
Aggregate results:
[ -1 3 1 8 ]
[ 0.641657 0.264086 0.086483 0.007775 ]
5
Num Evals 301
GenUC: 1.465335e-04
GenUB: 7.741619e-06
Optimisation 5.098743e-02
Total Time: 5.133866e-02
2 Flipped
Graph 1:
1 0 0 
1 0 0 
0 0 0 
Graph 2:
0 0 1 
0 0 1 
0 0 0 
Solution: -2 2
Gbest: -2.000000
Expectation: -2.000000
Final Parameters:
Gammas:
[ 3.769909 3.769913 2.513278 ]
Betas:
[ 1.742760 1.483640 1.964194 0.956022 ]
Aggregate results:
[ 3 1 8 ]
[ 0.000000 1.000000 0.000000 ]
5
Num Evals 602
GenUC: 6.396556e-06
GenUB: 5.363021e-06
Optimisation 5.593448e-02
Total Time: 5.614337e-02
3 Add 3
Graph 1:
1 0 0 
1 0 0 
0 0 0 
Graph 2:
1 1 0 
1 1 0 
0 1 0 
Solution: -3 0
Gbest: -3.000000
Expectation: -3.034916
Final Parameters:
Gammas:
[ 3.349051 2.849999 2.343692 ]
Betas:
[ 1.776409 1.991339 2.070016 1.770465 ]
Aggregate results:
[ 2 6 4 8 ]
[ 0.991917 0.001589 0.002601 0.003893 ]
5
Num Evals 904
GenUC: 6.147777e-06
GenUB: 5.606096e-06
Optimisation 7.369716e-02
Total Time: 7.392306e-02
4 Rem 3
Graph 1:
1 0 0 
1 0 0 
0 0 0 
Graph 2:
0 0 0 
0 0 0 
0 0 0 
Solution: -2 0
Gbest: -2.000000
Expectation: -2.000000
Final Parameters:
Gammas:
[ 3.345811 3.293651 3.265854 ]
Betas:
[ 1.553457 1.508998 1.543628 2.259464 ]
Aggregate results:
[ 1 8 ]
[ 1.000000 0.000000 ]
3
Num Evals 1099
GenUC: 8.013798e-06
GenUB: 5.572103e-06
Optimisation 3.937848e-02
Total Time: 3.960037e-02
5 Add/Rem 3
Graph 1:
1 0 0 
1 0 0 
0 0 0 
Graph 2:
1 0 0 
0 0 1 
0 1 0 
Solution: -3 0
Gbest: -3.000000
Expectation: -3.047456
Final Parameters:
Gammas:
[ 3.801526 2.325669 3.062577 ]
Betas:
[ 1.483586 0.448685 1.416662 2.240559 ]
Aggregate results:
[ 2 4 8 ]
[ 0.987578 0.006769 0.005653 ]
5
Num Evals 1398
GenUC: 6.395276e-06
GenUB: 5.387818e-06
Optimisation 5.414242e-02
Total Time: 5.434293e-02
