Clock Speed: 3.689045
Num threads: 4
Trotterisation: 3
Graph Size: 3
Num Qubits: 3
Space Dimension: 8
Run-Type: 0
Num_samples: 10
1 Isomorphic
Graph 1:
1 0 1 
1 1 0 
0 1 1 
Graph 2:
1 0 1 
1 1 0 
0 1 1 
Solution: 0 0
Gbest: 0.000000
Expectation: -0.947572
Final Parameters:
Gammas:
[ 2.437749 3.297188 3.869928 ]
Betas:
[ 1.487698 1.821460 2.659850 1.087478 ]
Aggregate results:
[ -1 5 8 ]
[ 0.864557 0.090473 0.044971 ]
5
Num Evals 301
GenUC: 1.203564e-04
GenUB: 7.652910e-06
Optimisation 5.905331e-02
Total Time: 5.940726e-02
2 Flipped
Graph 1:
1 0 1 
1 1 0 
0 1 1 
Graph 2:
1 0 1 
0 1 1 
1 1 0 
Solution: -4 0
Gbest: -4.000000
Expectation: -4.000000
Final Parameters:
Gammas:
[ 3.286394 3.406875 3.586456 ]
Betas:
[ 1.830061 1.989543 2.065823 2.455245 ]
Aggregate results:
[ 3 8 ]
[ 1.000000 0.000000 ]
3
Num Evals 486
GenUC: 6.421818e-06
GenUB: 5.320297e-06
Optimisation 3.793940e-02
Total Time: 3.817096e-02
3 Add 3
Graph 1:
1 0 1 
1 1 0 
0 1 1 
Graph 2:
1 0 1 
1 1 0 
1 1 1 
Solution: -1 0
Gbest: -1.000000
Expectation: -1.152378
Final Parameters:
Gammas:
[ 3.370411 2.980451 2.689350 ]
Betas:
[ 2.373886 1.876755 2.445438 1.129348 ]
Aggregate results:
[ 0 4 8 ]
[ 0.965370 0.031166 0.003464 ]
5
Num Evals 787
GenUC: 5.659997e-06
GenUB: 5.258131e-06
Optimisation 6.192856e-02
Total Time: 6.215373e-02
4 Rem 3
Graph 1:
1 0 1 
1 1 0 
0 1 1 
Graph 2:
1 0 1 
0 1 0 
0 0 1 
Solution: -2 0
Gbest: -2.000000
Expectation: -2.068283
Final Parameters:
Gammas:
[ 2.058138 2.876956 4.675577 ]
Betas:
[ 0.485081 1.788171 0.753544 2.103976 ]
Aggregate results:
[ 1 3 8 ]
[ 0.973374 0.023619 0.003006 ]
5
Num Evals 1088
GenUC: 6.028567e-06
GenUB: 5.495735e-06
Optimisation 6.934647e-02
Total Time: 6.954410e-02
5 Add/Rem 3
Graph 1:
1 0 1 
1 1 0 
0 1 1 
Graph 2:
1 1 1 
0 0 1 
1 1 0 
Solution: -4 1
Gbest: -4.000000
Expectation: -4.059650
Final Parameters:
Gammas:
[ 3.613368 3.355201 0.776707 ]
Betas:
[ 1.766019 2.152793 1.580720 2.102866 ]
Aggregate results:
[ 5 3 8 ]
[ 0.012353 0.980658 0.006989 ]
5
Num Evals 1388
GenUC: 7.699826e-06
GenUB: 5.322625e-06
Optimisation 6.089776e-02
Total Time: 6.112490e-02
