Clock Speed: 3.688834
Num threads: 4
Trotterisation: 5
Num Qubits: 3
Space Dimension: 8
Run-Type: 0
Num_samples: 2024
Optimiser Method: 0
1 Isomorphic
Graph 1:
1 1 0 
1 1 1 
0 0 0 
Graph 2:
1 1 0 
1 1 1 
0 0 0 
Solution: 9 0
Classic Expectation: 4.666667
Initial Expecation: 3.500000
Gbest: 9.000000
Expectation: 3.500000
Final Parameters:
Gammas:
[ 3.141593 5.235988 1.047198 3.141593 3.141593 ]
Betas:
[ 0.523599 1.570796 1.570796 1.570796 1.570796 ]
Aggregate results:
[ 9 1 7 3 5 0 ]
[ 0.125000 0.125000 0.125000 0.250000 0.125000 0.250000 ]
3
Num Evals 33
GenUC: 2.701825e-06
GenUB: 7.451104e-06
Optimisation 1.003248e-02
Total Time: 1.006317e-02
2 Flipped
Graph 1:
1 1 0 
1 1 1 
0 0 0 
Graph 2:
0 1 1 
1 1 1 
0 0 0 
Solution: 7 0
Classic Expectation: 4.333333
Initial Expecation: 3.250000
Gbest: 7.000000
Expectation: 3.812500
Final Parameters:
Gammas:
[ 5.235988 3.141593 3.141593 3.141593 1.047198 ]
Betas:
[ 0.523599 1.570796 1.570796 1.570796 1.570796 ]
Aggregate results:
[ 7 1 3 5 0 ]
[ 0.343750 0.101563 0.343750 0.054687 0.156250 ]
3
Num Evals 51
GenUC: 2.548040e-06
GenUB: 8.579809e-07
Optimisation 1.558585e-02
Total Time: 1.559086e-02
3 Add 3
Graph 1:
1 1 0 
1 1 1 
0 0 0 
Graph 2:
1 1 0 
1 1 1 
1 1 1 
Solution: 6 0
Classic Expectation: 5.000000
Initial Expecation: 3.750000
Gbest: 6.000000
Expectation: 3.750000
Final Parameters:
Gammas:
[ 3.141593 5.235988 3.141593 3.141593 3.141593 ]
Betas:
[ 0.523599 1.570796 1.570796 1.570796 1.570796 ]
Aggregate results:
[ 6 4 0 ]
[ 0.375000 0.375000 0.250000 ]
3
Num Evals 27
GenUC: 2.637855e-06
GenUB: 6.466871e-07
Optimisation 8.048213e-03
Total Time: 8.052953e-03
4 Rem 3
Graph 1:
1 1 0 
1 1 1 
0 0 0 
Graph 2:
0 1 0 
1 1 0 
0 0 0 
Solution: 7 0
Classic Expectation: 4.333333
Initial Expecation: 3.250000
Gbest: 7.000000
Expectation: 3.812500
Final Parameters:
Gammas:
[ 5.235988 3.141593 3.141593 3.141593 1.047198 ]
Betas:
[ 0.523599 1.570796 1.570796 1.570796 1.570796 ]
Aggregate results:
[ 7 1 3 5 0 ]
[ 0.343750 0.101563 0.343750 0.054687 0.156250 ]
3
Num Evals 51
GenUC: 2.451823e-06
GenUB: 5.721231e-07
Optimisation 1.516715e-02
Total Time: 1.517163e-02
5 Add/Rem 3
Graph 1:
1 1 0 
1 1 1 
0 0 0 
Graph 2:
0 0 0 
0 1 1 
1 1 0 
Solution: 8 3
Classic Expectation: 4.333333
Initial Expecation: 3.250000
Gbest: 8.000000
Expectation: 3.625000
Final Parameters:
Gammas:
[ 5.235988 1.047198 5.235988 3.141593 3.141593 ]
Betas:
[ 1.570796 1.570796 1.570796 1.570796 2.617994 ]
Aggregate results:
[ 4 2 8 6 0 ]
[ 0.250000 0.156250 0.125000 0.218750 0.250000 ]
3
Num Evals 75
GenUC: 2.319750e-06
GenUB: 7.147901e-07
Optimisation 2.279747e-02
Total Time: 2.280179e-02
