Clock Speed: 3.688873
Num threads: 4
Trotterisation: 5
Num Qubits: 3
Space Dimension: 8
Run-Type: 0
Num_samples: 2024
Optimiser Method: 0
1 Isomorphic
Graph 1:
1 0 1 
1 0 1 
1 1 1 
Graph 2:
1 0 1 
1 0 1 
1 1 1 
Solution: 9 0
Classic Expectation: 6.000000
Initial Expecation: 4.500000
Gbest: 9.000000
Expectation: 5.446908
Final Parameters:
Gammas:
[ 5.235988 3.141593 3.839724 3.839724 3.141593 ]
Betas:
[ 0.523599 1.570796 1.919862 1.570796 1.570796 ]
Aggregate results:
[ 9 5 7 0 ]
[ 0.305081 0.494872 0.032402 0.167644 ]
3
Num Evals 141
GenUC: 2.493500e-06
GenUB: 7.202849e-06
Optimisation 4.223067e-02
Total Time: 4.225996e-02
2 Flipped
Graph 1:
1 0 1 
1 0 1 
1 1 1 
Graph 2:
1 0 1 
1 0 1 
1 1 1 
Solution: 9 0
Classic Expectation: 6.000000
Initial Expecation: 4.500000
Gbest: 9.000000
Expectation: 5.446908
Final Parameters:
Gammas:
[ 5.235988 3.141593 3.839724 3.839724 3.141593 ]
Betas:
[ 0.523599 1.570796 1.919862 1.570796 1.570796 ]
Aggregate results:
[ 9 5 7 0 ]
[ 0.305081 0.494872 0.032402 0.167644 ]
3
Num Evals 141
GenUC: 2.590299e-06
GenUB: 8.497736e-07
Optimisation 4.177512e-02
Total Time: 4.178015e-02
3 Add 3
Graph 1:
1 0 1 
1 0 1 
1 1 1 
Graph 2:
1 1 1 
1 1 1 
1 1 1 
Solution: 7 0
Classic Expectation: 7.000000
Initial Expecation: 5.250000
Gbest: 7.000000
Expectation: 6.562500
Final Parameters:
Gammas:
[ 5.235988 3.141593 3.141593 3.141593 3.141593 ]
Betas:
[ 2.617994 1.570796 1.570796 1.570796 1.570796 ]
Aggregate results:
[ 7 0 ]
[ 0.937500 0.062500 ]
3
Num Evals 33
GenUC: 2.771034e-06
GenUB: 5.909824e-07
Optimisation 1.020608e-02
Total Time: 1.021090e-02
4 Rem 3
Graph 1:
1 0 1 
1 0 1 
1 1 1 
Graph 2:
1 0 1 
1 0 0 
0 1 0 
Solution: 6 0
Classic Expectation: 4.333333
Initial Expecation: 3.250000
Gbest: 6.000000
Expectation: 3.953125
Final Parameters:
Gammas:
[ 1.047198 3.141593 3.141593 3.141593 3.141593 ]
Betas:
[ 2.617994 1.570796 1.570796 1.570796 1.570796 ]
Aggregate results:
[ 6 4 2 0 ]
[ 0.109375 0.820313 0.007812 0.062500 ]
3
Num Evals 27
GenUC: 2.689485e-06
GenUB: 5.674665e-07
Optimisation 8.344468e-03
Total Time: 8.349065e-03
5 Add/Rem 3
Graph 1:
1 0 1 
1 0 1 
1 1 1 
Graph 2:
1 1 1 
0 1 0 
1 1 0 
Solution: 8 3
Classic Expectation: 5.333333
Initial Expecation: 4.000000
Gbest: 8.000000
Expectation: 4.000000
Final Parameters:
Gammas:
[ 3.141593 1.047198 1.047198 3.141593 3.141593 ]
Betas:
[ 0.523599 1.570796 1.570796 1.570796 1.570796 ]
Aggregate results:
[ 4 6 8 0 ]
[ 0.375000 0.250000 0.125000 0.250000 ]
3
Num Evals 53
GenUC: 2.532790e-06
GenUB: 7.118797e-07
Optimisation 1.628377e-02
Total Time: 1.628817e-02
