Clock Speed: 3.688890
Num threads: 4
Trotterisation: 3
Num Qubits: 10
Space Dimension: 1024
Run-Type: 0
Num_samples: 6
Optimiser Method: 20
1 Isomorphic
Graph 1:
0 0 0 1 0 1 
0 0 1 0 1 1 
0 1 0 0 1 0 
1 0 0 0 0 0 
0 1 1 0 0 0 
1 1 0 0 0 0 
Graph 2:
0 0 0 1 0 1 
0 0 1 0 1 1 
0 1 0 0 1 0 
1 0 0 0 0 0 
0 1 1 0 0 0 
1 1 0 0 0 0 
Solution: 36 0
Classic Expectation: 21.600000
Initial Expecation: 15.187500
Gbest: 24.000000
Expectation: 18.657283
Final Parameters:
Gammas:
[ 1.220230 1.850047 6.170379 ]
Betas:
[ 1.211215 3.069747 1.747603 ]
Aggregate results:
[ 36 28 24 32 20 16 12 0 ]
[ 0.000885 0.231498 0.268824 0.025403 0.167693 0.082874 0.016580 0.206243 ]
5
Num Evals 3600
GenUC: 2.598997e-04
GenUB: 9.126456e-05
Optimisation 5.765673e+01
Total Time: 5.765710e+01
2 Flipped
Graph 1:
0 0 0 1 0 1 
0 0 1 0 1 1 
0 1 0 0 1 0 
1 0 0 0 0 0 
0 1 1 0 0 0 
1 1 0 0 0 0 
Graph 2:
1 0 1 0 0 0 
1 1 0 1 0 0 
0 1 0 0 1 0 
0 0 0 0 0 1 
0 0 0 1 1 0 
0 0 0 0 1 1 
Solution: 24 63
Classic Expectation: 18.400000
Initial Expecation: 12.937500
Gbest: 22.000000
Expectation: 16.232949
Final Parameters:
Gammas:
[ 5.889388 6.214008 5.613565 ]
Betas:
[ 2.532679 2.640655 0.168989 ]
Aggregate results:
[ 16 14 18 20 22 24 0 ]
[ 0.267770 0.070061 0.332476 0.105915 0.096394 0.031011 0.096374 ]
5
Num Evals 3600
GenUC: 2.792472e-04
GenUB: 7.151216e-05
Optimisation 5.054071e+01
Total Time: 5.054107e+01
3 Add 6
Graph 1:
0 0 0 1 0 1 
0 0 1 0 1 1 
0 1 0 0 1 0 
1 0 0 0 0 0 
0 1 1 0 0 0 
1 1 0 0 0 0 
Graph 2:
1 1 1 1 1 1 
1 0 1 1 1 1 
1 1 0 0 1 1 
1 1 0 0 0 0 
1 1 1 0 0 0 
1 1 1 0 0 0 
Solution: 25 0
Classic Expectation: 18.600000
Initial Expecation: 13.078125
Gbest: 25.000000
Expectation: 17.910737
Final Parameters:
Gammas:
[ 1.390558 2.205193 2.522494 ]
Betas:
[ 2.842558 0.139329 0.128995 ]
Aggregate results:
[ 25 21 17 13 9 0 ]
[ 0.099276 0.591298 0.162797 0.017645 0.001625 0.127358 ]
5
Num Evals 3600
GenUC: 3.137169e-04
GenUB: 7.338301e-05
Optimisation 3.782213e+01
Total Time: 3.782252e+01
4 Rem 6
Graph 1:
0 0 0 1 0 1 
0 0 1 0 1 1 
0 1 0 0 1 0 
1 0 0 0 0 0 
0 1 1 0 0 0 
1 1 0 0 0 0 
Graph 2:
0 0 0 0 0 0 
0 0 0 0 0 0 
0 0 0 0 1 0 
0 0 0 0 0 0 
0 0 1 0 0 0 
0 0 0 0 0 0 
Solution: 26 0
Classic Expectation: 23.600000
Initial Expecation: 16.593750
Gbest: 26.000000
Expectation: 21.941097
Final Parameters:
Gammas:
[ 1.921362 3.067945 1.761808 ]
Betas:
[ 2.705871 1.118803 1.864292 ]
Aggregate results:
[ 26 22 0 ]
[ 0.476539 0.434140 0.089321 ]
5
Num Evals 3600
GenUC: 2.795500e-04
GenUB: 7.119233e-05
Optimisation 5.920092e+01
Total Time: 5.920127e+01
5 Add/Rem 6
Graph 1:
0 0 0 1 0 1 
0 0 1 0 1 1 
0 1 0 0 1 0 
1 0 0 0 0 0 
0 1 1 0 0 0 
1 1 0 0 0 0 
Graph 2:
1 1 1 0 1 0 
1 1 0 1 0 0 
1 0 0 0 1 1 
0 1 0 0 0 0 
1 0 1 0 0 0 
0 0 1 0 0 0 
Solution: 30 144
Classic Expectation: 19.600000
Initial Expecation: 13.781250
Gbest: 26.000000
Expectation: 18.599880
Final Parameters:
Gammas:
[ 1.345204 2.834613 1.226406 ]
Betas:
[ 2.879903 3.057868 0.140617 ]
Aggregate results:
[ 14 18 22 26 30 10 0 ]
[ 0.052049 0.184908 0.296922 0.245790 0.049749 0.012757 0.157825 ]
5
Num Evals 3600
GenUC: 2.813451e-04
GenUB: 6.503169e-05
Optimisation 5.496742e+01
Total Time: 5.496777e+01
