Clock Speed: 3.688768
Num threads: 4
Trotterisation: 2
Num Qubits: 7
Space Dimension: 128
Run-Type: 0
Num_samples: 15624
Optimiser Method: 28
1 Isomorphic
Graph 1:
0 1 0 1 0 
1 0 1 0 0 
1 1 1 0 0 
0 0 1 0 1 
0 1 0 1 1 
Graph 2:
0 1 0 1 0 
1 0 1 0 0 
1 1 1 0 0 
0 0 1 0 1 
0 1 0 1 1 
Solution: 25 0
Classic Expectation: 12.600000
Initial Expecation: 11.812500
Gbest: 25.000000
Expectation: 13.257172
Final Parameters:
Gammas:
[ 3.850539 3.005224 ]
Betas:
[ 1.546404 1.015903 ]
Aggregate results:
[ 25 17 9 11 19 13 15 7 1 0 ]
[ 0.032557 0.105642 0.071196 0.243923 0.059689 0.271881 0.162794 0.029700 0.005072 0.017546 ]
3
Num Evals 222
GenUC: 4.101594e-05
GenUB: 1.311820e-05
Optimisation 5.547457e-02
Total Time: 5.554909e-02
2 Flipped
Graph 1:
0 1 0 1 0 
1 0 1 0 0 
1 1 1 0 0 
0 0 1 0 1 
0 1 0 1 1 
Graph 2:
0 1 0 1 0 
0 0 1 0 1 
0 0 1 1 1 
1 0 1 0 0 
1 1 0 1 0 
Solution: 21 14
Classic Expectation: 12.800000
Initial Expecation: 12.000000
Gbest: 21.000000
Expectation: 12.719898
Final Parameters:
Gammas:
[ 5.109790 4.840201 ]
Betas:
[ 1.473205 2.018757 ]
Aggregate results:
[ 15 9 11 17 7 13 21 19 5 0 ]
[ 0.182989 0.094965 0.210763 0.057972 0.025438 0.281289 0.064251 0.031461 0.006923 0.043950 ]
3
Num Evals 198
GenUC: 4.443839e-05
GenUB: 2.918354e-06
Optimisation 5.808036e-02
Total Time: 5.812964e-02
3 Add 5
Graph 1:
0 1 0 1 0 
1 0 1 0 0 
1 1 1 0 0 
0 0 1 0 1 
0 1 0 1 1 
Graph 2:
1 1 1 1 0 
1 0 1 0 0 
1 1 1 1 0 
0 0 1 0 1 
0 1 1 1 1 
Solution: 21 0
Classic Expectation: 12.400000
Initial Expecation: 11.625000
Gbest: 21.000000
Expectation: 12.279241
Final Parameters:
Gammas:
[ 4.488415 4.359109 ]
Betas:
[ 1.719360 1.341798 ]
Aggregate results:
[ 21 15 11 9 17 13 7 19 5 0 ]
[ 0.013917 0.197159 0.244516 0.117896 0.106847 0.213241 0.004913 0.032632 0.007187 0.061692 ]
3
Num Evals 228
GenUC: 4.443018e-05
GenUB: 2.475874e-06
Optimisation 6.361607e-02
Total Time: 6.366438e-02
4 Rem 5
Graph 1:
0 1 0 1 0 
1 0 1 0 0 
1 1 1 0 0 
0 0 1 0 1 
0 1 0 1 1 
Graph 2:
0 1 0 1 0 
0 0 1 0 0 
0 1 0 0 0 
0 0 0 0 1 
0 1 0 1 1 
Solution: 21 0
Classic Expectation: 12.800000
Initial Expecation: 12.000000
Gbest: 21.000000
Expectation: 12.733742
Final Parameters:
Gammas:
[ 4.072184 4.202310 ]
Betas:
[ 1.812967 1.148276 ]
Aggregate results:
[ 21 15 11 17 9 13 19 7 5 0 ]
[ 0.013811 0.246329 0.164880 0.088638 0.102740 0.274477 0.043182 0.014700 0.002407 0.048836 ]
3
Num Evals 183
GenUC: 4.643482e-05
GenUB: 2.468245e-06
Optimisation 4.929401e-02
Total Time: 4.934440e-02
5 Add/Rem 5
Graph 1:
0 1 0 1 0 
1 0 1 0 0 
1 1 1 0 0 
0 0 1 0 1 
0 1 0 1 1 
Graph 2:
0 0 1 0 0 
1 1 0 0 0 
1 1 1 1 0 
1 0 1 0 1 
0 1 0 0 1 
Solution: 19 75
Classic Expectation: 12.400000
Initial Expecation: 11.625000
Gbest: 19.000000
Expectation: 12.462320
Final Parameters:
Gammas:
[ 5.861258 2.431143 ]
Betas:
[ 2.910010 2.066206 ]
Aggregate results:
[ 17 11 13 9 15 7 5 19 0 ]
[ 0.081797 0.173977 0.215583 0.096715 0.334844 0.035480 0.010392 0.008527 0.042684 ]
3
Num Evals 236
GenUC: 4.601405e-05
GenUB: 2.371416e-06
Optimisation 8.268408e-02
Total Time: 8.273386e-02
