Clock Speed: 3.688838
Num threads: 4
Trotterisation: 2
Num Qubits: 7
Space Dimension: 128
Run-Type: 0
Num_samples: 15624
Optimiser Method: 28
1 Isomorphic
Graph 1:
1 1 0 1 0 
1 1 1 1 1 
1 0 0 0 1 
1 0 0 1 0 
0 1 1 0 0 
Graph 2:
1 1 0 1 0 
1 1 1 1 1 
1 0 0 0 1 
1 0 0 1 0 
0 1 1 0 0 
Solution: 25 0
Classic Expectation: 12.700000
Initial Expecation: 11.906250
Gbest: 25.000000
Expectation: 12.926805
Final Parameters:
Gammas:
[ 4.986852 3.499641 ]
Betas:
[ 2.287096 1.140387 ]
Aggregate results:
[ 25 13 17 21 7 9 15 11 19 5 0 ]
[ 0.016368 0.322333 0.086241 0.028802 0.005787 0.032192 0.150472 0.294529 0.020957 0.006203 0.036116 ]
3
Num Evals 275
GenUC: 4.171596e-05
GenUB: 1.355948e-05
Optimisation 7.874434e-02
Total Time: 7.882098e-02
2 Flipped
Graph 1:
1 1 0 1 0 
1 1 1 1 1 
1 0 0 0 1 
1 0 0 1 0 
0 1 1 0 0 
Graph 2:
0 1 0 1 1 
1 1 1 1 1 
1 0 0 0 1 
0 1 0 0 1 
0 0 1 1 0 
Solution: 17 0
Classic Expectation: 12.500000
Initial Expecation: 11.718750
Gbest: 17.000000
Expectation: 13.067524
Final Parameters:
Gammas:
[ 3.778980 2.611675 ]
Betas:
[ 1.216431 0.779174 ]
Aggregate results:
[ 17 15 11 9 13 7 0 ]
[ 0.160241 0.252321 0.220417 0.057882 0.273922 0.007444 0.027774 ]
3
Num Evals 321
GenUC: 4.442129e-05
GenUB: 2.645465e-06
Optimisation 7.377412e-02
Total Time: 7.382293e-02
3 Add 5
Graph 1:
1 1 0 1 0 
1 1 1 1 1 
1 0 0 0 1 
1 0 0 1 0 
0 1 1 0 0 
Graph 2:
1 1 1 1 0 
1 1 1 1 1 
1 0 0 0 1 
1 1 1 1 0 
0 1 1 1 1 
Solution: 20 0
Classic Expectation: 13.300000
Initial Expecation: 12.468750
Gbest: 20.000000
Expectation: 13.524637
Final Parameters:
Gammas:
[ 4.003191 2.570374 ]
Betas:
[ 2.535639 2.085582 ]
Aggregate results:
[ 20 14 16 12 10 18 8 0 ]
[ 0.007932 0.340479 0.145308 0.234904 0.103403 0.123597 0.024594 0.019784 ]
3
Num Evals 188
GenUC: 4.430216e-05
GenUB: 2.556852e-06
Optimisation 6.280757e-02
Total Time: 6.285592e-02
4 Rem 5
Graph 1:
1 1 0 1 0 
1 1 1 1 1 
1 0 0 0 1 
1 0 0 1 0 
0 1 1 0 0 
Graph 2:
1 0 0 1 0 
0 1 0 1 1 
1 0 0 0 1 
0 0 0 1 0 
0 1 1 0 0 
Solution: 21 0
Classic Expectation: 12.300000
Initial Expecation: 11.531250
Gbest: 21.000000
Expectation: 12.709926
Final Parameters:
Gammas:
[ 5.738683 5.270980 ]
Betas:
[ 1.268695 1.664334 ]
Aggregate results:
[ 21 11 13 9 17 15 7 19 5 0 ]
[ 0.001303 0.119665 0.261980 0.089508 0.090478 0.295032 0.061199 0.038838 0.005007 0.036992 ]
3
Num Evals 243
GenUC: 4.630680e-05
GenUB: 2.439483e-06
Optimisation 6.531575e-02
Total Time: 6.536593e-02
5 Add/Rem 5
Graph 1:
1 1 0 1 0 
1 1 1 1 1 
1 0 0 0 1 
1 0 0 1 0 
0 1 1 0 0 
Graph 2:
1 1 0 1 0 
1 0 1 1 1 
0 0 1 1 0 
1 1 0 1 1 
0 0 0 0 0 
Solution: 18 63
Classic Expectation: 12.600000
Initial Expecation: 11.812500
Gbest: 18.000000
Expectation: 14.069362
Final Parameters:
Gammas:
[ 2.992397 2.750789 ]
Betas:
[ 1.264328 1.683729 ]
Aggregate results:
[ 16 14 10 12 8 6 18 0 ]
[ 0.351860 0.361387 0.051296 0.174096 0.013978 0.001845 0.036399 0.009139 ]
3
Num Evals 256
GenUC: 4.735900e-05
GenUB: 2.484085e-06
Optimisation 6.794514e-02
Total Time: 6.799639e-02
