Clock Speed: 3.689362
Num threads: 4
Trotterisation: 2
Graph Size: 3
Num Qubits: 3
Space Dimension: 8
Run-Type: 0
Num_samples: 10
1 Isomorphic
Graph 1:
0 1 0 
1 0 0 
0 0 1 
Graph 2:
0 1 0 
1 0 0 
0 0 1 
Solution: 0 0
Gbest: 0.000000
Expectation: -4.687500
Final Parameters:
Gammas:
[ 5.235988 3.141593 ]
Betas:
[ 1.570796 2.617994 1.570796 ]
Aggregate results:
[ -1 5 8 ]
[ 0.437500 0.125000 0.437500 ]
3
Num Evals 13
GenUC: 1.238217e-04
GenUB: 7.878407e-06
Optimisation 1.926708e-03
Total Time: 2.237884e-03
2 Flipped
Graph 1:
0 1 0 
1 0 0 
0 0 1 
Graph 2:
0 1 0 
0 0 1 
1 0 0 
Solution: -4 0
Gbest: -4.000000
Expectation: -5.015625
Final Parameters:
Gammas:
[ 1.047198 3.141593 ]
Betas:
[ 2.617994 2.617994 1.570796 ]
Aggregate results:
[ 3 8 ]
[ 0.796875 0.203125 ]
3
Num Evals 40
GenUC: 6.257556e-06
GenUB: 5.454058e-06
Optimisation 3.771164e-03
Total Time: 3.944385e-03
3 Add 3
Graph 1:
0 1 0 
1 0 0 
0 0 1 
Graph 2:
0 1 0 
1 1 1 
0 1 1 
Solution: -3 0
Gbest: -5.000000
Expectation: -5.250000
Final Parameters:
Gammas:
[ 1.047198 5.235988 ]
Betas:
[ 1.570796 2.617994 1.570796 ]
Aggregate results:
[ 2 6 4 8 ]
[ 0.109375 0.015625 0.765625 0.109375 ]
3
Num Evals 57
GenUC: 6.055576e-06
GenUB: 5.485839e-06
Optimisation 2.380963e-03
Total Time: 2.551681e-03
4 Rem 3
Graph 1:
0 1 0 
1 0 0 
0 0 1 
Graph 2:
0 0 0 
1 0 0 
0 0 0 
Solution: -2 0
Gbest: -2.000000
Expectation: -4.750000
Final Parameters:
Gammas:
[ 5.235988 3.141593 ]
Betas:
[ 0.523599 1.570796 1.570796 ]
Aggregate results:
[ 1 3 8 ]
[ 0.250000 0.500000 0.250000 ]
3
Num Evals 72
GenUC: 6.141374e-06
GenUB: 5.526934e-06
Optimisation 2.089233e-03
Total Time: 2.239128e-03
5 Add/Rem 3
Graph 1:
0 1 0 
1 0 0 
0 0 1 
Graph 2:
0 0 0 
0 0 1 
0 1 0 
Solution: -1 4
Gbest: -1.000000
Expectation: -5.000000
Final Parameters:
Gammas:
[ 5.235988 3.141593 ]
Betas:
[ 0.523599 1.570796 1.570796 ]
Aggregate results:
[ 4 0 8 ]
[ 0.500000 0.250000 0.250000 ]
3
Num Evals 89
GenUC: 5.834387e-06
GenUB: 5.200505e-06
Optimisation 2.575683e-03
Total Time: 2.726065e-03
