Clock Speed: 3.689060
Num threads: 4
Trotterisation: 2
Graph Size: 3
Num Qubits: 3
Space Dimension: 8
Run-Type: 0
Num_samples: 10
1 Isomorphic
Graph 1:
1 0 0 
1 0 0 
1 1 0 
Graph 2:
1 0 0 
1 0 0 
1 1 0 
Solution: 0 0
Gbest: -2.000000
Expectation: -5.500000
Final Parameters:
Gammas:
[ 5.235988 5.235988 ]
Betas:
[ 0.523599 1.570796 1.570796 ]
Aggregate results:
[ -1 3 5 1 7 8 ]
[ 0.125000 0.125000 0.250000 0.125000 0.125000 0.250000 ]
3
Num Evals 19
GenUC: 1.521730e-04
GenUB: 7.576658e-06
Optimisation 2.737802e-03
Total Time: 3.060471e-03
2 Flipped
Graph 1:
1 0 0 
1 0 0 
1 1 0 
Graph 2:
0 0 1 
0 0 1 
0 1 1 
Solution: -2 2
Gbest: -2.000000
Expectation: -5.500000
Final Parameters:
Gammas:
[ 1.047198 3.141593 ]
Betas:
[ 0.523599 1.570796 1.570796 ]
Aggregate results:
[ 5 1 3 8 ]
[ 0.375000 0.250000 0.125000 0.250000 ]
3
Num Evals 36
GenUC: 6.451621e-06
GenUB: 5.867798e-06
Optimisation 2.418766e-03
Total Time: 2.566357e-03
3 Add 3
Graph 1:
1 0 0 
1 0 0 
1 1 0 
Graph 2:
1 0 0 
1 1 1 
1 1 0 
Solution: -2 0
Gbest: -2.000000
Expectation: -5.750000
Final Parameters:
Gammas:
[ 3.141593 5.235988 ]
Betas:
[ 0.523599 1.570796 1.570796 ]
Aggregate results:
[ 1 3 5 7 8 ]
[ 0.250000 0.125000 0.250000 0.125000 0.250000 ]
3
Num Evals 53
GenUC: 6.314367e-06
GenUB: 5.809707e-06
Optimisation 2.364338e-03
Total Time: 2.511529e-03
4 Rem 3
Graph 1:
1 0 0 
1 0 0 
1 1 0 
Graph 2:
0 0 0 
1 0 0 
0 1 0 
Solution: -2 0
Gbest: -6.000000
Expectation: -5.250000
Final Parameters:
Gammas:
[ 5.235988 3.141593 ]
Betas:
[ 0.523599 1.570796 1.570796 ]
Aggregate results:
[ 1 3 5 8 ]
[ 0.125000 0.500000 0.125000 0.250000 ]
3
Num Evals 66
GenUC: 6.096670e-06
GenUB: 5.428214e-06
Optimisation 1.793361e-03
Total Time: 1.939807e-03
5 Add/Rem 3
Graph 1:
1 0 0 
1 0 0 
1 1 0 
Graph 2:
0 0 0 
1 1 1 
0 1 1 
Solution: -3 2
Gbest: -3.000000
Expectation: -5.750000
Final Parameters:
Gammas:
[ 3.141593 5.235988 ]
Betas:
[ 1.570796 2.617994 1.570796 ]
Aggregate results:
[ 4 2 8 ]
[ 0.625000 0.125000 0.250000 ]
3
Num Evals 81
GenUC: 6.231130e-06
GenUB: 5.168258e-06
Optimisation 2.269779e-03
Total Time: 2.439806e-03
