Clock Speed: 3.688868
Num threads: 4
Trotterisation: 2
Graph Size: 3
Num Qubits: 3
Space Dimension: 8
Run-Type: 0
Num_samples: 10
1 Isomorphic
Graph 1:
1 0 0 
1 0 1 
1 0 1 
Graph 2:
1 0 0 
1 0 1 
1 0 1 
Solution: 0 0
Gbest: 0.000000
Expectation: -5.500000
Final Parameters:
Gammas:
[ 3.141593 1.047198 ]
Betas:
[ 0.523599 1.570796 1.570796 ]
Aggregate results:
[ -1 7 5 3 1 8 ]
[ 0.125000 0.125000 0.250000 0.125000 0.125000 0.250000 ]
3
Num Evals 17
GenUC: 1.194216e-04
GenUB: 7.767463e-06
Optimisation 2.438910e-03
Total Time: 2.726475e-03
2 Flipped
Graph 1:
1 0 0 
1 0 1 
1 0 1 
Graph 2:
0 0 1 
1 0 1 
1 0 1 
Solution: -2 0
Gbest: -2.000000
Expectation: -5.750000
Final Parameters:
Gammas:
[ 1.047198 3.141593 ]
Betas:
[ 0.523599 1.570796 1.570796 ]
Aggregate results:
[ 1 5 3 7 8 ]
[ 0.250000 0.250000 0.125000 0.125000 0.250000 ]
3
Num Evals 32
GenUC: 6.494578e-06
GenUB: 5.589682e-06
Optimisation 2.116953e-03
Total Time: 2.268305e-03
3 Add 3
Graph 1:
1 0 0 
1 0 1 
1 0 1 
Graph 2:
1 1 1 
1 1 1 
1 0 1 
Solution: -3 0
Gbest: -3.000000
Expectation: -4.488281
Final Parameters:
Gammas:
[ 5.235988 3.141593 ]
Betas:
[ 1.570796 0.523599 1.570796 ]
Aggregate results:
[ 2 4 8 ]
[ 0.521484 0.345703 0.132813 ]
3
Num Evals 49
GenUC: 6.168266e-06
GenUB: 5.633105e-06
Optimisation 2.411525e-03
Total Time: 2.558342e-03
4 Rem 3
Graph 1:
1 0 0 
1 0 1 
1 0 1 
Graph 2:
1 0 0 
0 0 1 
1 0 0 
Solution: -2 0
Gbest: -2.000000
Expectation: -5.750000
Final Parameters:
Gammas:
[ 5.235988 3.141593 ]
Betas:
[ 0.523599 1.570796 1.570796 ]
Aggregate results:
[ 1 7 5 3 8 ]
[ 0.125000 0.125000 0.125000 0.375000 0.250000 ]
3
Num Evals 66
GenUC: 5.663605e-06
GenUB: 5.367794e-06
Optimisation 2.364145e-03
Total Time: 2.511423e-03
5 Add/Rem 3
Graph 1:
1 0 0 
1 0 1 
1 0 1 
Graph 2:
0 1 0 
0 0 1 
1 0 0 
Solution: -4 0
Gbest: -4.000000
Expectation: -6.000000
Final Parameters:
Gammas:
[ 3.141593 1.047198 ]
Betas:
[ 0.523599 1.570796 1.570796 ]
Aggregate results:
[ 3 5 8 ]
[ 0.375000 0.375000 0.250000 ]
3
Num Evals 83
GenUC: 5.860114e-06
GenUB: 5.228096e-06
Optimisation 2.492740e-03
Total Time: 2.642583e-03
