Clock Speed: 3.688957
Num threads: 4
Trotterisation: 6
Graph Size: 6
Num Qubits: 10
Space Dimension: 1024
Run-Type: 0
Num_samples: 10
1 Isomorphic
Graph 1:
1 0 1 1 1 1 
1 1 0 1 0 1 
1 1 1 0 1 0 
0 1 1 1 1 1 
0 0 1 1 0 0 
1 0 1 1 1 1 
Graph 2:
1 0 1 1 1 1 
1 1 0 1 0 1 
1 1 1 0 1 0 
0 1 1 1 1 1 
0 0 1 1 0 0 
1 0 1 1 1 1 
Solution: 0 0
Gbest: -10.000000
Expectation: -13.996991
Final Parameters:
Gammas:
[ 3.181269 2.985311 3.170813 3.122421 3.165581 3.242904 ]
Betas:
[ 1.595513 2.280890 1.838985 0.736060 1.575423 1.891093 0.387167 ]
Aggregate results:
[ -1 9 13 11 7 15 17 19 21 5 3 35 ]
[ 0.015522 0.111685 0.274621 0.216768 0.068919 0.170124 0.082689 0.014893 0.001614 0.002284 0.004572 0.036310 ]
5
Num Evals 600
GenUC: 2.786976e-04
GenUB: 1.953725e-04
Optimisation 1.669218e+00
Total Time: 1.673267e+00
2 Flipped
Graph 1:
1 0 1 1 1 1 
1 1 0 1 0 1 
1 1 1 0 1 0 
0 1 1 1 1 1 
0 0 1 1 0 0 
1 0 1 1 1 1 
Graph 2:
1 1 1 1 0 1 
1 0 1 0 1 1 
0 1 0 1 1 1 
1 1 1 1 1 0 
0 0 1 1 0 0 
1 1 1 1 0 1 
Solution: -8 11
Gbest: -10.000000
Expectation: -14.507890
Final Parameters:
Gammas:
[ 3.182376 3.104778 3.307364 3.173424 3.082608 3.103641 ]
Betas:
[ 0.309026 1.271422 1.241382 2.032593 1.315832 1.645524 1.131373 ]
Aggregate results:
[ 13 11 9 15 7 17 19 21 35 ]
[ 0.330748 0.187371 0.086165 0.244302 0.016510 0.101846 0.016812 0.001993 0.014252 ]
5
Num Evals 1191
GenUC: 1.213604e-04
GenUB: 1.455347e-04
Optimisation 1.542491e+00
Total Time: 1.545338e+00
3 Add 6
Graph 1:
1 0 1 1 1 1 
1 1 0 1 0 1 
1 1 1 0 1 0 
0 1 1 1 1 1 
0 0 1 1 0 0 
1 0 1 1 1 1 
Graph 2:
1 1 1 1 1 1 
1 1 0 1 0 1 
1 1 1 0 1 1 
0 1 1 1 1 1 
1 1 1 1 1 0 
1 1 1 1 1 1 
Solution: -6 0
Gbest: -10.000000
Expectation: -12.570962
Final Parameters:
Gammas:
[ 3.169481 3.100077 3.125985 3.090480 3.180297 3.170851 ]
Betas:
[ 1.194244 1.293021 1.454042 1.218379 2.058208 1.878570 0.469561 ]
Aggregate results:
[ 5 11 13 9 7 15 35 ]
[ 0.007636 0.359882 0.307233 0.148601 0.064134 0.107214 0.005300 ]
5
Num Evals 1792
GenUC: 9.989098e-05
GenUB: 1.701830e-04
Optimisation 1.629597e+00
Total Time: 1.632447e+00
4 Rem 6
Graph 1:
1 0 1 1 1 1 
1 1 0 1 0 1 
1 1 1 0 1 0 
0 1 1 1 1 1 
0 0 1 1 0 0 
1 0 1 1 1 1 
Graph 2:
1 0 1 0 1 1 
1 1 0 0 0 1 
1 1 0 0 1 0 
0 1 1 1 1 0 
0 0 1 1 0 0 
0 0 1 1 1 1 
Solution: -5 0
Gbest: -5.000000
Expectation: -15.395080
Final Parameters:
Gammas:
[ 3.230330 3.052296 3.512177 2.848713 2.969624 1.699768 ]
Betas:
[ 1.804462 1.622850 2.240953 1.573570 1.692075 1.355931 1.524168 ]
Aggregate results:
[ 4 12 14 16 10 8 18 20 22 24 6 35 ]
[ 0.029519 0.185939 0.264096 0.150427 0.138767 0.063772 0.070335 0.029897 0.008206 0.000742 0.002038 0.056262 ]
5
Num Evals 2399
GenUC: 1.363401e-04
GenUB: 1.674842e-04
Optimisation 1.749268e+00
Total Time: 1.752490e+00
5 Add/Rem 6
Graph 1:
1 0 1 1 1 1 
1 1 0 1 0 1 
1 1 1 0 1 0 
0 1 1 1 1 1 
0 0 1 1 0 0 
1 0 1 1 1 1 
Graph 2:
1 0 1 0 1 1 
0 0 0 1 0 1 
1 0 1 1 1 1 
1 1 1 1 1 1 
0 1 1 1 0 1 
1 1 0 0 1 1 
Solution: -6 145
Gbest: -12.000000
Expectation: -15.429649
Final Parameters:
Gammas:
[ 3.354343 3.311427 3.107930 3.193255 3.327104 0.880272 ]
Betas:
[ 2.184905 2.152708 1.537198 1.354974 1.326585 1.305275 1.612478 ]
Aggregate results:
[ 11 15 13 9 17 21 19 5 7 35 ]
[ 0.168862 0.233288 0.300658 0.100641 0.088330 0.005082 0.024001 0.009720 0.010144 0.059273 ]
5
Num Evals 2996
GenUC: 1.266309e-04
GenUB: 1.766876e-04
Optimisation 1.638317e+00
Total Time: 1.641547e+00
