Clock Speed: 3.689334
Num threads: 4
Trotterisation: 5
Graph Size: 5
Num Qubits: 7
Space Dimension: 128
Run-Type: 0
Num_samples: 10
1 Isomorphic
Graph 1:
1 1 1 1 1 
0 1 0 0 0 
1 1 1 0 0 
0 0 1 1 1 
1 0 1 0 1 
Graph 2:
1 1 1 1 1 
0 1 0 0 0 
1 1 1 0 0 
0 0 1 1 1 
1 0 1 0 1 
Solution: 0 0
Gbest: -6.000000
Expectation: -10.500908
Final Parameters:
Gammas:
[ 1.047198 3.141593 3.141593 3.141593 3.141593 ]
Betas:
[ 1.570796 1.570796 1.570796 0.523599 1.570796 1.570796 ]
Aggregate results:
[ -1 9 11 7 5 13 19 15 3 24 ]
[ 0.005987 0.207088 0.310141 0.268198 0.095657 0.055191 0.004499 0.004375 0.007877 0.040985 ]
3
Num Evals 29
GenUC: 1.515445e-04
GenUB: 3.167638e-05
Optimisation 2.093853e-02
Total Time: 2.178273e-02
2 Flipped
Graph 1:
1 1 1 1 1 
0 1 0 0 0 
1 1 1 0 0 
0 0 1 1 1 
1 0 1 0 1 
Graph 2:
1 1 1 1 1 
0 0 0 1 0 
0 0 1 1 1 
1 1 1 0 0 
1 0 1 0 1 
Solution: -6 11
Gbest: -12.000000
Expectation: -12.812500
Final Parameters:
Gammas:
[ 5.235988 3.141593 1.047198 3.141593 3.141593 ]
Betas:
[ 2.617994 1.570796 1.570796 1.570796 1.570796 1.570796 ]
Aggregate results:
[ 9 17 15 11 13 5 7 24 ]
[ 0.210937 0.007813 0.062500 0.375000 0.210937 0.007812 0.062500 0.062500 ]
3
Num Evals 68
GenUC: 2.233789e-05
GenUB: 1.676660e-05
Optimisation 2.560154e-02
Total Time: 2.631493e-02
3 Add 5
Graph 1:
1 1 1 1 1 
0 1 0 0 0 
1 1 1 0 0 
0 0 1 1 1 
1 0 1 0 1 
Graph 2:
1 1 1 1 1 
0 1 0 0 1 
1 1 1 0 1 
0 0 1 1 1 
1 0 1 1 1 
Solution: -3 0
Gbest: -7.000000
Expectation: -10.541855
Final Parameters:
Gammas:
[ 1.047198 1.047198 5.235988 5.235988 3.141593 ]
Betas:
[ 1.570796 1.570796 2.617994 1.570796 1.570796 1.570796 ]
Aggregate results:
[ 2 10 12 6 8 16 4 14 24 ]
[ 0.002485 0.288580 0.200483 0.153219 0.261229 0.000128 0.040121 0.021650 0.032104 ]
3
Num Evals 147
GenUC: 2.165616e-05
GenUB: 1.850352e-05
Optimisation 5.441995e-02
Total Time: 5.515672e-02
4 Rem 5
Graph 1:
1 1 1 1 1 
0 1 0 0 0 
1 1 1 0 0 
0 0 1 1 1 
1 0 1 0 1 
Graph 2:
1 1 1 1 1 
0 0 0 0 0 
1 0 0 0 0 
0 0 1 1 1 
1 0 1 0 1 
Solution: -3 0
Gbest: -9.000000
Expectation: -12.648300
Final Parameters:
Gammas:
[ 3.141593 1.047198 3.141593 1.047198 3.141593 ]
Betas:
[ 1.570796 1.570796 1.570796 2.617994 1.570796 1.570796 ]
Aggregate results:
[ 2 12 14 8 10 16 20 6 18 4 24 ]
[ 0.008453 0.225143 0.104027 0.153053 0.325096 0.041008 0.000854 0.036911 0.014336 0.017082 0.074036 ]
3
Num Evals 204
GenUC: 2.155232e-05
GenUB: 1.660339e-05
Optimisation 3.875253e-02
Total Time: 3.959979e-02
5 Add/Rem 5
Graph 1:
1 1 1 1 1 
0 1 0 0 0 
1 1 1 0 0 
0 0 1 1 1 
1 0 1 0 1 
Graph 2:
0 1 1 1 1 
1 1 0 0 0 
1 1 0 1 1 
0 1 1 0 1 
0 0 0 0 1 
Solution: -7 33
Gbest: -7.000000
Expectation: -13.750000
Final Parameters:
Gammas:
[ 3.141593 3.141593 3.141593 3.141593 3.141593 ]
Betas:
[ 2.617994 0.523599 1.570796 1.570796 1.570796 1.570796 ]
Aggregate results:
[ 8 14 10 16 12 6 18 24 ]
[ 0.109375 0.257812 0.257812 0.109375 0.156250 0.023437 0.023437 0.062500 ]
3
Num Evals 277
GenUC: 1.988502e-05
GenUB: 1.751410e-05
Optimisation 6.575729e-02
Total Time: 6.645857e-02
