Clock Speed: 3.504694
Num threads: 16
Trotterisation: 5
Num Qubits: 13
Space Dimension: 8192
Run-Type: 0
Num_samples: 49
Optimiser Method: 0
1 Isomorphic
Graph 1:
1 0 1 0 0 0 1 
1 1 1 0 0 0 0 
1 0 1 1 0 0 0 
0 0 0 0 0 0 1 
0 1 1 0 1 1 0 
1 1 0 1 1 1 0 
0 0 0 1 0 0 0 
Graph 2:
1 0 1 0 0 0 1 
1 1 1 0 0 0 0 
1 0 1 1 0 0 0 
0 0 0 0 0 0 1 
0 1 1 0 1 1 0 
1 1 0 1 1 1 0 
0 0 0 1 0 0 0 
Solution: 49 0
Classic Expectation: 26.857143
Initial Expecation: 16.523438
Gbest: 31.000000
Expectation: 24.023969
Final Parameters:
Gammas:
[ 3.266567 3.378613 2.913192 3.180378 3.347010 ]
Betas:
[ 1.551404 0.155140 1.676378 1.590189 0.916477 ]
Aggregate results:
[ 49 35 43 31 33 27 39 19 23 25 29 21 41 37 15 17 47 0 ]
[ 0.000106 0.019349 0.000699 0.089281 0.044953 0.210875 0.002225 0.012351 0.116344 0.187300 0.159151 0.037970 0.001527 0.005213 0.000581 0.000570 0.000006 0.111501 ]
3
Num Evals 2737
GenUC: 2.297638e-03
GenUB: 1.198018e-03
Optimisation 1.124978e+02
Total Time: 1.125013e+02
2 Flipped
Graph 1:
1 0 1 0 0 0 1 
1 1 1 0 0 0 0 
1 0 1 1 0 0 0 
0 0 0 0 0 0 1 
0 1 1 0 1 1 0 
1 1 0 1 1 1 0 
0 0 0 1 0 0 0 
Graph 2:
1 0 0 0 1 0 1 
0 0 0 0 1 1 1 
0 0 0 1 1 0 1 
1 0 0 0 0 0 0 
0 1 1 0 1 1 0 
0 1 1 1 0 1 1 
0 0 0 1 0 0 0 
Solution: 37 2711
Classic Expectation: 25.428571
Initial Expecation: 15.644531
Gbest: 35.000000
Expectation: 19.209644
Final Parameters:
Gammas:
[ 2.676172 2.908882 3.141593 3.374303 3.141593 ]
Betas:
[ 1.570796 0.523599 2.268928 1.570796 1.570796 ]
Aggregate results:
[ 31 23 29 25 19 21 17 27 33 35 15 13 37 0 ]
[ 0.056668 0.131376 0.122572 0.158073 0.031289 0.082662 0.010617 0.133373 0.018162 0.004980 0.001940 0.000238 0.000191 0.247858 ]
3
Num Evals 335
GenUC: 2.818573e-03
GenUB: 1.141626e-03
Optimisation 1.447379e+01
Total Time: 1.447775e+01
3 Add 7
Graph 1:
1 0 1 0 0 0 1 
1 1 1 0 0 0 0 
1 0 1 1 0 0 0 
0 0 0 0 0 0 1 
0 1 1 0 1 1 0 
1 1 0 1 1 1 0 
0 0 0 1 0 0 0 
Graph 2:
1 0 1 0 0 0 1 
1 1 1 1 0 0 0 
1 0 1 1 0 0 1 
1 0 0 0 1 1 1 
1 1 1 0 1 1 0 
1 1 0 1 1 1 0 
0 0 0 1 1 0 0 
Solution: 42 0
Classic Expectation: 24.857143
Initial Expecation: 15.292969
Gbest: 34.000000
Expectation: 22.314403
Final Parameters:
Gammas:
[ 5.248597 1.047190 3.143917 3.279973 3.348499 ]
Betas:
[ 3.025237 1.047198 1.512619 1.628974 2.658933 ]
Aggregate results:
[ 42 32 38 26 30 28 24 36 18 34 20 22 16 14 40 0 ]
[ 0.000434 0.016988 0.000768 0.216920 0.062533 0.136205 0.213087 0.001488 0.022690 0.004572 0.070399 0.143062 0.006031 0.000674 0.000024 0.104126 ]
3
Num Evals 2133
GenUC: 2.827355e-03
GenUB: 1.059707e-03
Optimisation 1.022312e+02
Total Time: 1.022351e+02
4 Rem 7
Graph 1:
1 0 1 0 0 0 1 
1 1 1 0 0 0 0 
1 0 1 1 0 0 0 
0 0 0 0 0 0 1 
0 1 1 0 1 1 0 
1 1 0 1 1 1 0 
0 0 0 1 0 0 0 
Graph 2:
0 0 1 0 0 0 1 
1 0 1 0 0 0 0 
1 0 0 1 0 0 0 
0 0 0 0 0 0 1 
0 1 1 0 0 1 0 
0 1 0 1 0 1 0 
0 0 0 1 0 0 0 
Solution: 43 0
Classic Expectation: 25.714286
Initial Expecation: 15.820313
Gbest: 33.000000
Expectation: 22.925333
Final Parameters:
Gammas:
[ 3.283805 3.374897 2.909360 3.175581 3.361376 ]
Betas:
[ 1.525547 0.155141 1.667759 1.616046 0.917914 ]
Aggregate results:
[ 43 33 39 31 29 27 25 37 35 19 23 21 15 17 41 0 ]
[ 0.000183 0.021125 0.000443 0.068512 0.131056 0.205892 0.213941 0.001093 0.003397 0.016904 0.148709 0.067907 0.000088 0.002485 0.000014 0.118252 ]
3
Num Evals 1879
GenUC: 2.820403e-03
GenUB: 1.126545e-03
Optimisation 7.500809e+01
Total Time: 7.501203e+01
5 Add/Rem 7
Graph 1:
1 0 1 0 0 0 1 
1 1 1 0 0 0 0 
1 0 1 1 0 0 0 
0 0 0 0 0 0 1 
0 1 1 0 1 1 0 
1 1 0 1 1 1 0 
0 0 0 1 0 0 0 
Graph 2:
1 0 1 1 0 0 1 
0 1 1 0 1 0 0 
1 0 0 0 1 0 0 
0 0 0 0 0 0 1 
0 1 1 0 1 0 0 
1 1 0 1 1 0 1 
0 0 0 1 1 1 0 
Solution: 38 0
Classic Expectation: 25.142857
Initial Expecation: 15.468750
Gbest: 32.000000
Expectation: 16.877501
Final Parameters:
Gammas:
[ 5.235988 1.047198 3.141593 3.141593 3.141593 ]
Betas:
[ 1.570796 1.570796 1.570796 1.570796 0.523599 ]
Aggregate results:
[ 38 30 32 26 28 24 20 18 22 34 16 36 14 12 0 ]
[ 0.000284 0.061037 0.023339 0.143324 0.116078 0.136880 0.049454 0.025465 0.101537 0.006325 0.005135 0.001121 0.000533 0.000065 0.329425 ]
3
Num Evals 31
GenUC: 2.820249e-03
GenUB: 1.184504e-03
Optimisation 1.359698e+00
Total Time: 1.363705e+00
