Clock Speed: 3.498562
Num threads: 16
Trotterisation: 5
Num Qubits: 13
Space Dimension: 8192
Run-Type: 0
Num_samples: 49
Optimiser Method: 0
1 Isomorphic
Graph 1:
1 0 1 1 0 0 1 
1 0 1 1 1 0 0 
0 1 0 0 1 0 0 
0 1 0 1 1 1 0 
0 0 0 0 0 0 0 
0 0 1 0 0 1 1 
0 1 0 0 1 0 1 
Graph 2:
1 0 1 1 0 0 1 
1 0 1 1 1 0 0 
0 1 0 0 1 0 0 
0 1 0 1 1 1 0 
0 0 0 0 0 0 0 
0 0 1 0 0 1 1 
0 1 0 0 1 0 1 
Solution: 49 0
Classic Expectation: 25.761905
Initial Expecation: 15.849609
Gbest: 35.000000
Expectation: 17.911487
Final Parameters:
Gammas:
[ 3.141593 3.141593 3.141593 3.141593 1.047198 ]
Betas:
[ 1.570796 1.570796 2.617994 1.570796 1.570796 ]
Aggregate results:
[ 49 37 33 35 27 29 31 43 25 41 23 45 19 21 39 15 17 0 ]
[ 0.000122 0.002997 0.022751 0.007736 0.140238 0.100273 0.047800 0.000366 0.150159 0.000610 0.117299 0.000122 0.027474 0.069211 0.000732 0.000732 0.004932 0.306445 ]
3
Num Evals 49
GenUC: 2.261747e-03
GenUB: 1.190829e-03
Optimisation 2.177871e+00
Total Time: 2.181333e+00
2 Flipped
Graph 1:
1 0 1 1 0 0 1 
1 0 1 1 1 0 0 
0 1 0 0 1 0 0 
0 1 0 1 1 1 0 
0 0 0 0 0 0 0 
0 0 1 0 0 1 1 
0 1 0 0 1 0 1 
Graph 2:
1 0 0 1 1 0 1 
0 0 1 1 1 0 1 
0 0 1 0 0 1 0 
0 1 1 1 0 1 0 
0 0 0 0 0 0 0 
1 1 0 0 1 0 0 
1 0 1 0 0 1 0 
Solution: 39 2141
Classic Expectation: 25.380952
Initial Expecation: 15.615234
Gbest: 33.000000
Expectation: 22.255172
Final Parameters:
Gammas:
[ 3.370951 3.338391 2.906476 2.870098 3.140476 ]
Betas:
[ 1.551404 0.116355 1.551404 1.628974 0.814487 ]
Aggregate results:
[ 27 31 29 25 21 23 33 35 19 17 37 15 39 13 0 ]
[ 0.173934 0.053293 0.104915 0.186443 0.102457 0.171847 0.021601 0.006184 0.043194 0.011532 0.002502 0.003515 0.000172 0.000093 0.118320 ]
3
Num Evals 1597
GenUC: 2.784632e-03
GenUB: 1.289208e-03
Optimisation 6.450823e+01
Total Time: 6.451230e+01
3 Add 7
Graph 1:
1 0 1 1 0 0 1 
1 0 1 1 1 0 0 
0 1 0 0 1 0 0 
0 1 0 1 1 1 0 
0 0 0 0 0 0 0 
0 0 1 0 0 1 1 
0 1 0 0 1 0 1 
Graph 2:
1 0 1 1 0 0 1 
1 0 1 1 1 0 0 
0 1 1 0 1 1 0 
0 1 0 1 1 1 0 
0 0 1 1 0 0 0 
1 0 1 0 0 1 1 
0 1 1 1 1 0 1 
Solution: 42 0
Classic Expectation: 24.476190
Initial Expecation: 15.058594
Gbest: 30.000000
Expectation: 20.296254
Final Parameters:
Gammas:
[ 4.990349 1.654831 4.533547 0.103427 3.128664 ]
Betas:
[ 1.680687 1.564332 2.456389 1.535602 2.585673 ]
Aggregate results:
[ 42 32 34 30 28 26 24 20 36 40 22 38 18 14 16 0 ]
[ 0.000081 0.020373 0.007002 0.063356 0.127039 0.150775 0.190403 0.084794 0.001124 0.000232 0.139805 0.000180 0.027243 0.000090 0.008466 0.179038 ]
3
Num Evals 1761
GenUC: 2.780750e-03
GenUB: 1.160130e-03
Optimisation 8.277313e+01
Total Time: 8.277707e+01
4 Rem 7
Graph 1:
1 0 1 1 0 0 1 
1 0 1 1 1 0 0 
0 1 0 0 1 0 0 
0 1 0 1 1 1 0 
0 0 0 0 0 0 0 
0 0 1 0 0 1 1 
0 1 0 0 1 0 1 
Graph 2:
0 0 1 0 0 0 1 
1 0 1 1 0 0 0 
0 1 0 0 1 0 0 
0 1 0 1 1 1 0 
0 0 0 0 0 0 0 
0 0 1 0 0 1 1 
0 0 0 0 0 0 0 
Solution: 43 0
Classic Expectation: 26.428571
Initial Expecation: 16.259766
Gbest: 31.000000
Expectation: 22.283948
Final Parameters:
Gammas:
[ 3.163140 2.740813 3.157394 3.336795 3.144944 ]
Betas:
[ 1.435048 0.530063 1.551404 1.525547 0.823106 ]
Aggregate results:
[ 43 35 31 33 27 29 37 25 21 23 41 19 15 17 39 0 ]
[ 0.000167 0.006880 0.062349 0.024857 0.209103 0.129840 0.001238 0.208412 0.061741 0.133982 0.000115 0.011262 0.000129 0.000633 0.000156 0.149136 ]
3
Num Evals 2197
GenUC: 2.786272e-03
GenUB: 1.205918e-03
Optimisation 9.146228e+01
Total Time: 9.146628e+01
5 Add/Rem 7
Graph 1:
1 0 1 1 0 0 1 
1 0 1 1 1 0 0 
0 1 0 0 1 0 0 
0 1 0 1 1 1 0 
0 0 0 0 0 0 0 
0 0 1 0 0 1 1 
0 1 0 0 1 0 1 
Graph 2:
1 0 1 0 0 0 1 
0 1 1 0 0 1 0 
1 1 0 0 1 0 0 
0 1 1 1 1 1 0 
0 0 0 0 0 0 0 
0 0 1 0 0 1 1 
0 0 0 0 0 1 1 
Solution: 38 0
Classic Expectation: 26.380952
Initial Expecation: 16.230469
Gbest: 32.000000
Expectation: 23.710233
Final Parameters:
Gammas:
[ 1.045762 5.239977 3.338392 3.296361 3.144837 ]
Betas:
[ 2.973524 1.047198 1.628974 1.624664 2.593334 ]
Aggregate results:
[ 38 32 34 28 24 30 26 36 22 18 20 16 0 ]
[ 0.000748 0.059537 0.014863 0.207597 0.141430 0.124880 0.219132 0.004489 0.077254 0.008484 0.029142 0.001480 0.110965 ]
3
Num Evals 1627
GenUC: 2.780283e-03
GenUB: 1.186312e-03
Optimisation 7.727515e+01
Total Time: 7.727912e+01
