Clock Speed: 3.688627
Num threads: 4
Trotterisation: 3
Graph Size: 5
Num Qubits: 7
Space Dimension: 128
Run-Type: 0
Num_samples: 10
1 Isomorphic
Graph 1:
1 0 0 1 0 
1 0 0 0 0 
1 1 1 1 0 
0 0 1 0 0 
0 1 1 1 0 
Graph 2:
1 0 0 1 0 
1 0 0 0 0 
1 1 1 1 0 
0 0 1 0 0 
0 1 1 1 0 
Solution: 0 0
Gbest: 0.000000
Expectation: -10.448990
Final Parameters:
Gammas:
[ 3.193909 3.508736 4.060879 ]
Betas:
[ 1.472364 0.961427 1.272653 1.553048 ]
Aggregate results:
[ -1 7 11 9 13 5 15 17 24 ]
[ 0.043909 0.214237 0.189912 0.324819 0.122824 0.037870 0.036122 0.010631 0.019676 ]
3
Num Evals 354
GenUC: 1.464244e-04
GenUB: 3.033353e-05
Optimisation 1.814139e-01
Total Time: 1.820944e-01
2 Flipped
Graph 1:
1 0 0 1 0 
1 0 0 0 0 
1 1 1 1 0 
0 0 1 0 0 
0 1 1 1 0 
Graph 2:
0 1 0 0 1 
0 0 0 0 1 
0 1 1 1 1 
0 0 1 0 0 
0 1 1 1 0 
Solution: -4 105
Gbest: -4.000000
Expectation: -9.143282
Final Parameters:
Gammas:
[ 2.888242 2.824209 2.208003 ]
Betas:
[ 1.581941 0.311945 1.791587 1.534096 ]
Aggregate results:
[ 7 13 15 11 9 17 3 5 24 ]
[ 0.402617 0.046316 0.007976 0.203901 0.191614 0.000255 0.078362 0.066244 0.002714 ]
3
Num Evals 773
GenUC: 8.376047e-05
GenUB: 2.146582e-05
Optimisation 1.749117e-01
Total Time: 1.754131e-01
3 Add 5
Graph 1:
1 0 0 1 0 
1 0 0 0 0 
1 1 1 1 0 
0 0 1 0 0 
0 1 1 1 0 
Graph 2:
1 0 0 1 0 
1 0 1 1 0 
1 1 1 1 0 
1 1 1 0 0 
0 1 1 1 0 
Solution: -4 0
Gbest: -6.000000
Expectation: -12.507609
Final Parameters:
Gammas:
[ 4.347430 3.184105 1.071463 ]
Betas:
[ 1.607979 1.523335 1.488527 2.080576 ]
Aggregate results:
[ 3 9 5 11 7 13 15 17 24 ]
[ 0.022352 0.160680 0.034872 0.335620 0.047057 0.247553 0.114125 0.005285 0.032456 ]
5
Num Evals 1281
GenUC: 9.024097e-05
GenUB: 1.758570e-05
Optimisation 2.714672e-01
Total Time: 2.720334e-01
4 Rem 5
Graph 1:
1 0 0 1 0 
1 0 0 0 0 
1 1 1 1 0 
0 0 1 0 0 
0 1 1 1 0 
Graph 2:
0 0 0 1 0 
0 0 0 0 0 
0 1 1 0 0 
0 0 0 0 0 
0 1 1 1 0 
Solution: -5 0
Gbest: -9.000000
Expectation: -10.506259
Final Parameters:
Gammas:
[ 3.226760 3.279285 3.500460 ]
Betas:
[ 1.659694 1.933250 1.451373 1.415161 ]
Aggregate results:
[ 4 8 10 12 6 14 16 24 ]
[ 0.071483 0.281332 0.341335 0.187427 0.054786 0.053557 0.001655 0.008425 ]
3
Num Evals 1600
GenUC: 2.279377e-05
GenUB: 1.798233e-05
Optimisation 1.699374e-01
Total Time: 1.704327e-01
5 Add/Rem 5
Graph 1:
1 0 0 1 0 
1 0 0 0 0 
1 1 1 1 0 
0 0 1 0 0 
0 1 1 1 0 
Graph 2:
1 0 0 1 1 
1 0 0 0 1 
0 1 1 1 1 
0 0 1 0 0 
1 0 0 0 0 
Solution: -4 47
Gbest: -8.000000
Expectation: -12.283994
Final Parameters:
Gammas:
[ 3.438282 3.159781 2.465494 ]
Betas:
[ 0.972030 1.459789 1.735766 1.394131 ]
Aggregate results:
[ 7 11 13 15 17 9 5 3 24 ]
[ 0.092198 0.352680 0.164941 0.081990 0.017523 0.232853 0.013651 0.006510 0.037654 ]
3
Num Evals 1959
GenUC: 5.975366e-05
GenUB: 1.770537e-05
Optimisation 1.602924e-01
Total Time: 1.607812e-01
