Clock Speed: 3.689371
Num threads: 4
Trotterisation: 1
Num Qubits: 7
Space Dimension: 128
Run-Type: 0
Num_samples: 15624
Optimiser Method: 29
1 Isomorphic
Graph 1:
1 0 1 1 0 
0 1 0 1 0 
1 1 1 1 1 
1 0 0 1 1 
1 1 0 1 1 
Graph 2:
1 0 1 1 0 
0 1 0 1 0 
1 1 1 1 1 
1 0 0 1 1 
1 1 0 1 1 
Solution: 25 0
Classic Expectation: 15.400000
Initial Expecation: 14.437500
Gbest: 25.000000
Expectation: 15.339897
Final Parameters:
Gammas:
[ 4.402529 ]
Betas:
[ 2.256654 ]
Aggregate results:
[ 25 19 17 15 13 21 11 0 ]
[ 0.019618 0.098948 0.304809 0.241918 0.252790 0.023448 0.034568 0.023902 ]
3
Num Evals 97
GenUC: 4.138268e-05
GenUB: 1.603595e-05
Optimisation 1.611904e-02
Total Time: 1.619663e-02
2 Flipped
Graph 1:
1 0 1 1 0 
0 1 0 1 0 
1 1 1 1 1 
1 0 0 1 1 
1 1 0 1 1 
Graph 2:
0 1 1 0 1 
0 1 0 1 0 
1 1 1 1 1 
1 1 0 0 1 
1 1 0 1 1 
Solution: 19 0
Classic Expectation: 13.800000
Initial Expecation: 12.937500
Gbest: 19.000000
Expectation: 13.394617
Final Parameters:
Gammas:
[ 5.456510 ]
Betas:
[ 2.149767 ]
Aggregate results:
[ 19 13 15 11 17 9 0 ]
[ 0.044742 0.202325 0.364934 0.140521 0.156614 0.025792 0.065073 ]
3
Num Evals 92
GenUC: 4.407275e-05
GenUB: 2.715300e-06
Optimisation 1.531938e-02
Total Time: 1.536774e-02
3 Add 5
Graph 1:
1 0 1 1 0 
0 1 0 1 0 
1 1 1 1 1 
1 0 0 1 1 
1 1 0 1 1 
Graph 2:
1 1 1 1 0 
0 1 1 1 1 
1 1 1 1 1 
1 0 0 1 1 
1 1 1 1 1 
Solution: 21 0
Classic Expectation: 16.200000
Initial Expecation: 15.187500
Gbest: 21.000000
Expectation: 15.801339
Final Parameters:
Gammas:
[ 5.100459 ]
Betas:
[ 2.202975 ]
Aggregate results:
[ 21 17 15 19 13 0 ]
[ 0.022070 0.417880 0.300451 0.124405 0.104881 0.030313 ]
3
Num Evals 98
GenUC: 4.441780e-05
GenUB: 2.401939e-06
Optimisation 1.610231e-02
Total Time: 1.615066e-02
4 Rem 5
Graph 1:
1 0 1 1 0 
0 1 0 1 0 
1 1 1 1 1 
1 0 0 1 1 
1 1 0 1 1 
Graph 2:
1 0 1 0 0 
0 1 0 1 0 
1 0 1 1 1 
0 0 0 1 1 
1 1 0 0 1 
Solution: 21 0
Classic Expectation: 14.600000
Initial Expecation: 13.687500
Gbest: 21.000000
Expectation: 14.170244
Final Parameters:
Gammas:
[ 5.494114 ]
Betas:
[ 2.197573 ]
Aggregate results:
[ 21 17 13 15 11 19 0 ]
[ 0.001820 0.138593 0.212544 0.471525 0.076494 0.057819 0.041205 ]
3
Num Evals 113
GenUC: 4.597820e-05
GenUB: 2.350862e-06
Optimisation 1.941049e-02
Total Time: 1.946014e-02
5 Add/Rem 5
Graph 1:
1 0 1 1 0 
0 1 0 1 0 
1 1 1 1 1 
1 0 0 1 1 
1 1 0 1 1 
Graph 2:
0 1 1 1 0 
0 1 0 1 1 
0 1 1 0 0 
1 1 0 0 1 
1 1 1 1 1 
Solution: 20 35
Classic Expectation: 13.600000
Initial Expecation: 12.750000
Gbest: 20.000000
Expectation: 13.568482
Final Parameters:
Gammas:
[ 2.732698 ]
Betas:
[ 0.575213 ]
Aggregate results:
[ 16 14 12 18 10 20 0 ]
[ 0.263371 0.252776 0.243173 0.025482 0.124541 0.059677 0.030981 ]
3
Num Evals 112
GenUC: 4.508503e-05
GenUB: 2.358516e-06
Optimisation 1.009090e-02
Total Time: 1.013979e-02
