Clock Speed: 3.689384
Num threads: 4
Trotterisation: 1
Num Qubits: 7
Space Dimension: 128
Run-Type: 0
Num_samples: 15624
Optimiser Method: 29
1 Isomorphic
Graph 1:
1 1 1 0 1 
1 0 0 0 1 
0 0 0 0 1 
1 1 1 1 1 
0 1 0 0 1 
Graph 2:
1 1 1 0 1 
1 0 0 0 1 
0 0 0 0 1 
1 1 1 1 1 
0 1 0 0 1 
Solution: 25 0
Classic Expectation: 12.700000
Initial Expecation: 11.906250
Gbest: 25.000000
Expectation: 12.580121
Final Parameters:
Gammas:
[ 4.334613 ]
Betas:
[ 1.914656 ]
Aggregate results:
[ 25 13 15 11 17 21 9 19 7 5 0 ]
[ 0.004397 0.190456 0.221863 0.169938 0.129983 0.004569 0.178479 0.038073 0.022629 0.000652 0.038962 ]
3
Num Evals 102
GenUC: 4.158396e-05
GenUB: 1.359999e-05
Optimisation 1.575719e-02
Total Time: 1.583872e-02
2 Flipped
Graph 1:
1 1 1 0 1 
1 0 0 0 1 
0 0 0 0 1 
1 1 1 1 1 
0 1 0 0 1 
Graph 2:
1 0 1 1 1 
1 0 0 0 1 
1 0 0 0 0 
1 1 1 1 1 
1 0 0 1 0 
Solution: 19 35
Classic Expectation: 12.600000
Initial Expecation: 11.812500
Gbest: 19.000000
Expectation: 12.455300
Final Parameters:
Gammas:
[ 3.835246 ]
Betas:
[ 1.850456 ]
Aggregate results:
[ 17 13 11 15 9 19 7 0 ]
[ 0.100379 0.243939 0.268493 0.202759 0.124103 0.017654 0.018642 0.024031 ]
3
Num Evals 109
GenUC: 4.394597e-05
GenUB: 2.784538e-06
Optimisation 1.631595e-02
Total Time: 1.636450e-02
3 Add 5
Graph 1:
1 1 1 0 1 
1 0 0 0 1 
0 0 0 0 1 
1 1 1 1 1 
0 1 0 0 1 
Graph 2:
1 1 1 0 1 
1 0 1 0 1 
0 1 1 1 1 
1 1 1 1 1 
0 1 0 0 1 
Solution: 21 0
Classic Expectation: 13.200000
Initial Expecation: 12.375000
Gbest: 21.000000
Expectation: 13.249733
Final Parameters:
Gammas:
[ 5.988535 ]
Betas:
[ 1.819424 ]
Aggregate results:
[ 21 11 17 13 19 9 15 7 0 ]
[ 0.007792 0.169580 0.214573 0.206283 0.036159 0.048381 0.249674 0.003391 0.064167 ]
3
Num Evals 109
GenUC: 4.529924e-05
GenUB: 2.449495e-06
Optimisation 1.634251e-02
Total Time: 1.639201e-02
4 Rem 5
Graph 1:
1 1 1 0 1 
1 0 0 0 1 
0 0 0 0 1 
1 1 1 1 1 
0 1 0 0 1 
Graph 2:
1 0 0 0 1 
1 0 0 0 1 
0 0 0 0 1 
1 1 1 1 1 
0 0 0 0 1 
Solution: 22 0
Classic Expectation: 12.400000
Initial Expecation: 11.625000
Gbest: 22.000000
Expectation: 11.983904
Final Parameters:
Gammas:
[ 5.155868 ]
Betas:
[ 2.225356 ]
Aggregate results:
[ 22 10 14 8 12 16 20 6 18 0 ]
[ 0.002862 0.229708 0.215150 0.033786 0.175838 0.107805 0.013571 0.070925 0.100531 0.049824 ]
3
Num Evals 94
GenUC: 4.646764e-05
GenUB: 2.437155e-06
Optimisation 1.578086e-02
Total Time: 1.583159e-02
5 Add/Rem 5
Graph 1:
1 1 1 0 1 
1 0 0 0 1 
0 0 0 0 1 
1 1 1 1 1 
0 1 0 0 1 
Graph 2:
0 1 1 1 1 
0 1 0 0 0 
0 0 0 1 1 
1 1 1 0 1 
0 1 1 0 1 
Solution: 19 86
Classic Expectation: 12.600000
Initial Expecation: 11.812500
Gbest: 19.000000
Expectation: 12.393701
Final Parameters:
Gammas:
[ 3.890608 ]
Betas:
[ 1.989760 ]
Aggregate results:
[ 17 13 11 9 15 19 7 0 ]
[ 0.114831 0.282680 0.208783 0.165845 0.191362 0.002079 0.009656 0.024765 ]
3
Num Evals 99
GenUC: 4.622003e-05
GenUB: 2.390821e-06
Optimisation 1.551701e-02
Total Time: 1.556712e-02
