Clock Speed: 3.688505
Num threads: 4
Trotterisation: 1
Num Qubits: 7
Space Dimension: 128
Run-Type: 0
Num_samples: 5
Optimiser Method: 29
1 Isomorphic
Graph 1:
0 0 1 0 1 
0 0 0 1 1 
1 0 0 1 0 
0 1 1 0 0 
1 1 0 0 0 
Graph 2:
0 0 1 0 1 
0 0 0 1 1 
1 0 0 1 0 
0 1 1 0 0 
1 1 0 0 0 
Solution: 25 0
Classic Expectation: 15.000000
Initial Expecation: 14.062500
Gbest: 17.000000
Expectation: 14.863969
Final Parameters:
Gammas:
[ 2.910061 ]
Betas:
[ 2.054460 ]
Aggregate results:
[ 25 17 13 5 0 ]
[ 0.069099 0.456352 0.396435 0.044972 0.033143 ]
4
Num Evals 184
GenUC: 4.115963e-05
GenUB: 1.434289e-05
Optimisation 3.020874e-02
Total Time: 3.028858e-02
2 Flipped
Graph 1:
0 0 1 0 1 
0 0 0 1 1 
1 0 0 1 0 
0 1 1 0 0 
1 1 0 0 0 
Graph 2:
1 0 1 0 0 
1 1 0 0 0 
0 1 0 0 1 
0 0 1 1 0 
0 0 0 1 1 
Solution: 13 9
Classic Expectation: 11.000000
Initial Expecation: 10.312500
Gbest: 13.000000
Expectation: 10.388516
Final Parameters:
Gammas:
[ 3.578092 ]
Betas:
[ 1.700554 ]
Aggregate results:
[ 9 11 13 0 ]
[ 0.329577 0.325434 0.295581 0.049408 ]
4
Num Evals 198
GenUC: 4.405860e-05
GenUB: 2.802699e-06
Optimisation 2.931635e-02
Total Time: 2.936497e-02
3 Add 5
Graph 1:
0 0 1 0 1 
0 0 0 1 1 
1 0 0 1 0 
0 1 1 0 0 
1 1 0 0 0 
Graph 2:
1 1 1 1 1 
1 0 1 1 1 
1 1 0 1 1 
1 1 1 0 0 
1 1 1 0 0 
Solution: 16 0
Classic Expectation: 14.000000
Initial Expecation: 13.125000
Gbest: 16.000000
Expectation: 15.090479
Final Parameters:
Gammas:
[ 2.640022 ]
Betas:
[ 2.884997 ]
Aggregate results:
[ 16 12 0 ]
[ 0.842604 0.134068 0.023328 ]
4
Num Evals 188
GenUC: 4.432152e-05
GenUB: 4.140136e-06
Optimisation 3.981495e-02
Total Time: 3.986495e-02
4 Rem 5
Graph 1:
0 0 1 0 1 
0 0 0 1 1 
1 0 0 1 0 
0 1 1 0 0 
1 1 0 0 0 
Graph 2:
0 0 0 0 0 
0 0 0 0 1 
0 0 0 1 0 
0 0 1 0 0 
0 1 0 0 0 
Solution: 19 0
Classic Expectation: 15.000000
Initial Expecation: 14.062500
Gbest: 19.000000
Expectation: 14.892280
Final Parameters:
Gammas:
[ 4.183148 ]
Betas:
[ 2.191535 ]
Aggregate results:
[ 19 15 11 0 ]
[ 0.345102 0.342965 0.290080 0.021854 ]
4
Num Evals 182
GenUC: 4.538364e-05
GenUB: 5.340786e-06
Optimisation 3.035849e-02
Total Time: 3.041136e-02
5 Add/Rem 5
Graph 1:
0 0 1 0 1 
0 0 0 1 1 
1 0 0 1 0 
0 1 1 0 0 
1 1 0 0 0 
Graph 2:
1 1 0 1 0 
1 1 1 0 0 
0 1 0 1 1 
1 0 1 0 0 
0 0 1 0 0 
Solution: 19 7
Classic Expectation: 13.000000
Initial Expecation: 12.187500
Gbest: 19.000000
Expectation: 12.766682
Final Parameters:
Gammas:
[ 2.864936 ]
Betas:
[ 1.341138 ]
Aggregate results:
[ 7 11 15 19 0 ]
[ 0.105119 0.309704 0.370482 0.161415 0.053281 ]
4
Num Evals 189
GenUC: 4.539540e-05
GenUB: 4.643633e-06
Optimisation 2.464473e-02
Total Time: 2.469638e-02
