Clock Speed: 3.688325
Num threads: 4
Trotterisation: 1
Num Qubits: 7
Space Dimension: 128
Run-Type: 0
Num_samples: 15624
Optimiser Method: 29
1 Isomorphic
Graph 1:
1 0 1 0 1 
1 0 1 1 0 
1 1 1 1 0 
1 1 1 0 1 
1 1 1 0 0 
Graph 2:
1 0 1 0 1 
1 0 1 1 0 
1 1 1 1 0 
1 1 1 0 1 
1 1 1 0 0 
Solution: 25 0
Classic Expectation: 15.100000
Initial Expecation: 14.156250
Gbest: 25.000000
Expectation: 15.096711
Final Parameters:
Gammas:
[ 3.487210 ]
Betas:
[ 1.147525 ]
Aggregate results:
[ 25 17 21 13 15 19 11 0 ]
[ 0.000875 0.366376 0.023405 0.144665 0.296556 0.061603 0.077772 0.028747 ]
3
Num Evals 102
GenUC: 4.110980e-05
GenUB: 1.439924e-05
Optimisation 1.280298e-02
Total Time: 1.287971e-02
2 Flipped
Graph 1:
1 0 1 0 1 
1 0 1 1 0 
1 1 1 1 0 
1 1 1 0 1 
1 1 1 0 0 
Graph 2:
1 0 1 0 1 
0 1 1 0 1 
0 1 1 1 1 
1 0 1 1 1 
0 0 1 1 1 
Solution: 17 35
Classic Expectation: 13.000000
Initial Expecation: 12.187500
Gbest: 17.000000
Expectation: 12.764103
Final Parameters:
Gammas:
[ 3.597068 ]
Betas:
[ 1.188078 ]
Aggregate results:
[ 13 11 15 17 9 0 ]
[ 0.394429 0.232628 0.248896 0.071955 0.013438 0.038654 ]
3
Num Evals 95
GenUC: 4.397181e-05
GenUB: 2.802757e-06
Optimisation 1.163799e-02
Total Time: 1.168646e-02
3 Add 5
Graph 1:
1 0 1 0 1 
1 0 1 1 0 
1 1 1 1 0 
1 1 1 0 1 
1 1 1 0 0 
Graph 2:
1 1 1 0 1 
1 0 1 1 1 
1 1 1 1 1 
1 1 1 0 1 
1 1 1 0 1 
Solution: 21 0
Classic Expectation: 16.400000
Initial Expecation: 15.375000
Gbest: 21.000000
Expectation: 16.338311
Final Parameters:
Gammas:
[ 4.027772 ]
Betas:
[ 1.143082 ]
Aggregate results:
[ 21 17 15 19 13 0 ]
[ 0.050473 0.249721 0.362253 0.248321 0.067786 0.021446 ]
3
Num Evals 114
GenUC: 4.369539e-05
GenUB: 2.457644e-06
Optimisation 1.350353e-02
Total Time: 1.355128e-02
4 Rem 5
Graph 1:
1 0 1 0 1 
1 0 1 1 0 
1 1 1 1 0 
1 1 1 0 1 
1 1 1 0 0 
Graph 2:
1 0 1 0 1 
0 0 1 1 0 
0 1 1 1 0 
0 1 1 0 0 
0 1 1 0 0 
Solution: 20 0
Classic Expectation: 12.600000
Initial Expecation: 11.812500
Gbest: 20.000000
Expectation: 12.569396
Final Parameters:
Gammas:
[ 3.336076 ]
Betas:
[ 1.149971 ]
Aggregate results:
[ 20 14 12 16 10 18 8 0 ]
[ 0.001331 0.246115 0.267816 0.224488 0.207447 0.004820 0.016293 0.031691 ]
3
Num Evals 118
GenUC: 4.550524e-05
GenUB: 2.446526e-06
Optimisation 1.396683e-02
Total Time: 1.401619e-02
5 Add/Rem 5
Graph 1:
1 0 1 0 1 
1 0 1 1 0 
1 1 1 1 0 
1 1 1 0 1 
1 1 1 0 0 
Graph 2:
1 1 0 1 0 
1 1 1 1 0 
1 0 1 1 0 
0 0 1 0 1 
1 1 1 0 1 
Solution: 18 6
Classic Expectation: 13.200000
Initial Expecation: 12.375000
Gbest: 18.000000
Expectation: 13.100393
Final Parameters:
Gammas:
[ 4.396942 ]
Betas:
[ 1.056955 ]
Aggregate results:
[ 16 12 14 10 18 8 0 ]
[ 0.239814 0.301199 0.283846 0.064967 0.051614 0.012052 0.046508 ]
3
Num Evals 118
GenUC: 4.548702e-05
GenUB: 2.397865e-06
Optimisation 1.373444e-02
Total Time: 1.378366e-02
