Clock Speed: 3.688637
Num threads: 4
Trotterisation: 1
Num Qubits: 7
Space Dimension: 128
Run-Type: 0
Num_samples: 15624
Optimiser Method: 29
1 Isomorphic
Graph 1:
1 0 1 1 1 
0 1 1 1 1 
0 0 1 0 0 
0 0 1 0 1 
1 0 1 1 0 
Graph 2:
1 0 1 1 1 
0 1 1 1 1 
0 0 1 0 0 
0 0 1 0 1 
1 0 1 1 0 
Solution: 25 0
Classic Expectation: 12.700000
Initial Expecation: 11.906250
Gbest: 25.000000
Expectation: 12.287512
Final Parameters:
Gammas:
[ 4.511342 ]
Betas:
[ 2.582792 ]
Aggregate results:
[ 25 23 19 17 13 11 15 9 7 0 ]
[ 0.004956 0.022686 0.088454 0.099764 0.175707 0.179633 0.121851 0.205314 0.047070 0.054566 ]
3
Num Evals 80
GenUC: 4.108920e-05
GenUB: 1.389103e-05
Optimisation 1.456252e-02
Total Time: 1.463702e-02
2 Flipped
Graph 1:
1 0 1 1 1 
0 1 1 1 1 
0 0 1 0 0 
0 0 1 0 1 
1 0 1 1 0 
Graph 2:
1 1 1 0 1 
1 1 1 1 0 
0 0 1 0 0 
1 0 1 0 0 
0 1 1 0 1 
Solution: 19 20
Classic Expectation: 12.800000
Initial Expecation: 12.000000
Gbest: 19.000000
Expectation: 12.921510
Final Parameters:
Gammas:
[ 4.762025 ]
Betas:
[ 2.471308 ]
Aggregate results:
[ 15 17 11 13 9 19 7 0 ]
[ 0.185902 0.118023 0.283540 0.235644 0.095870 0.056380 0.001461 0.023180 ]
3
Num Evals 94
GenUC: 4.442426e-05
GenUB: 2.643734e-06
Optimisation 1.657450e-02
Total Time: 1.662325e-02
3 Add 5
Graph 1:
1 0 1 1 1 
0 1 1 1 1 
0 0 1 0 0 
0 0 1 0 1 
1 0 1 1 0 
Graph 2:
1 0 1 1 1 
0 1 1 1 1 
0 0 1 0 1 
0 0 1 1 1 
1 1 1 1 1 
Solution: 21 0
Classic Expectation: 13.300000
Initial Expecation: 12.468750
Gbest: 21.000000
Expectation: 13.021030
Final Parameters:
Gammas:
[ 3.791665 ]
Betas:
[ 1.232613 ]
Aggregate results:
[ 21 19 17 13 11 15 9 0 ]
[ 0.035724 0.046210 0.128819 0.187347 0.231113 0.214442 0.112059 0.044286 ]
3
Num Evals 99
GenUC: 4.448759e-05
GenUB: 2.427201e-06
Optimisation 1.285994e-02
Total Time: 1.290839e-02
4 Rem 5
Graph 1:
1 0 1 1 1 
0 1 1 1 1 
0 0 1 0 0 
0 0 1 0 1 
1 0 1 1 0 
Graph 2:
0 0 1 1 1 
0 1 1 1 1 
0 0 1 0 0 
0 0 0 0 1 
1 0 0 1 0 
Solution: 22 0
Classic Expectation: 12.300000
Initial Expecation: 11.531250
Gbest: 22.000000
Expectation: 12.285466
Final Parameters:
Gammas:
[ 4.825502 ]
Betas:
[ 2.186205 ]
Aggregate results:
[ 22 20 18 16 14 12 10 8 4 6 0 ]
[ 0.031678 0.040652 0.034827 0.170844 0.111124 0.282872 0.203145 0.037246 0.005126 0.019165 0.063320 ]
3
Num Evals 101
GenUC: 4.594185e-05
GenUB: 2.533372e-06
Optimisation 1.713778e-02
Total Time: 1.718797e-02
5 Add/Rem 5
Graph 1:
1 0 1 1 1 
0 1 1 1 1 
0 0 1 0 0 
0 0 1 0 1 
1 0 1 1 0 
Graph 2:
0 1 0 1 1 
0 0 1 1 1 
1 1 1 0 0 
0 1 1 0 0 
1 1 1 1 0 
Solution: 18 99
Classic Expectation: 12.600000
Initial Expecation: 11.812500
Gbest: 18.000000
Expectation: 12.850738
Final Parameters:
Gammas:
[ 3.558451 ]
Betas:
[ 2.453856 ]
Aggregate results:
[ 16 14 12 8 10 6 18 0 ]
[ 0.242998 0.269800 0.318918 0.016604 0.105081 0.013167 0.005329 0.028104 ]
3
Num Evals 114
GenUC: 5.480601e-05
GenUB: 2.473535e-06
Optimisation 2.023690e-02
Total Time: 2.029582e-02
