Clock Speed: 3.689115
Num threads: 4
Trotterisation: 1
Num Qubits: 7
Space Dimension: 128
Run-Type: 0
Num_samples: 15624
Optimiser Method: 29
1 Isomorphic
Graph 1:
1 1 1 1 1 
1 1 0 1 0 
0 0 0 0 0 
1 1 0 1 0 
0 0 1 1 0 
Graph 2:
1 1 1 1 1 
1 1 0 1 0 
0 0 0 0 0 
1 1 0 1 0 
0 0 1 1 0 
Solution: 25 0
Classic Expectation: 12.600000
Initial Expecation: 11.812500
Gbest: 25.000000
Expectation: 12.020416
Final Parameters:
Gammas:
[ 4.378431 ]
Betas:
[ 2.007425 ]
Aggregate results:
[ 25 13 17 21 15 23 11 9 19 5 7 0 ]
[ 0.004571 0.275130 0.043430 0.041583 0.180032 0.014533 0.167361 0.140612 0.013524 0.008750 0.039424 0.071050 ]
3
Num Evals 86
GenUC: 4.118256e-05
GenUB: 1.342216e-05
Optimisation 1.355503e-02
Total Time: 1.362784e-02
2 Flipped
Graph 1:
1 1 1 1 1 
1 1 0 1 0 
0 0 0 0 0 
1 1 0 1 0 
0 0 1 1 0 
Graph 2:
1 1 1 1 1 
0 1 0 1 1 
0 0 0 0 0 
0 1 0 1 1 
0 1 1 0 0 
Solution: 21 14
Classic Expectation: 12.600000
Initial Expecation: 11.812500
Gbest: 21.000000
Expectation: 12.562935
Final Parameters:
Gammas:
[ 5.130529 ]
Betas:
[ 2.680703 ]
Aggregate results:
[ 19 17 13 15 21 9 11 7 0 ]
[ 0.042729 0.053599 0.306000 0.187382 0.028969 0.127548 0.170360 0.060132 0.023281 ]
3
Num Evals 100
GenUC: 4.441483e-05
GenUB: 2.754037e-06
Optimisation 1.809623e-02
Total Time: 1.814500e-02
3 Add 5
Graph 1:
1 1 1 1 1 
1 1 0 1 0 
0 0 0 0 0 
1 1 0 1 0 
0 0 1 1 0 
Graph 2:
1 1 1 1 1 
1 1 1 1 0 
1 0 0 0 0 
1 1 1 1 1 
0 0 1 1 1 
Solution: 20 0
Classic Expectation: 12.800000
Initial Expecation: 12.000000
Gbest: 20.000000
Expectation: 12.518546
Final Parameters:
Gammas:
[ 3.801268 ]
Betas:
[ 1.933530 ]
Aggregate results:
[ 20 14 16 10 12 18 8 0 ]
[ 0.027732 0.324047 0.174404 0.187336 0.140221 0.035274 0.055729 0.055257 ]
3
Num Evals 91
GenUC: 4.456512e-05
GenUB: 2.482324e-06
Optimisation 1.398388e-02
Total Time: 1.403241e-02
4 Rem 5
Graph 1:
1 1 1 1 1 
1 1 0 1 0 
0 0 0 0 0 
1 1 0 1 0 
0 0 1 1 0 
Graph 2:
0 1 1 1 1 
0 1 0 1 0 
0 0 0 0 0 
1 0 0 1 0 
0 0 0 0 0 
Solution: 20 0
Classic Expectation: 12.400000
Initial Expecation: 11.625000
Gbest: 20.000000
Expectation: 12.645069
Final Parameters:
Gammas:
[ 3.624172 ]
Betas:
[ 2.502566 ]
Aggregate results:
[ 20 14 16 12 18 10 8 6 0 ]
[ 0.052225 0.188961 0.175311 0.220791 0.030237 0.228288 0.075658 0.011375 0.017155 ]
3
Num Evals 111
GenUC: 4.610734e-05
GenUB: 2.529297e-06
Optimisation 2.018512e-02
Total Time: 2.023513e-02
5 Add/Rem 5
Graph 1:
1 1 1 1 1 
1 1 0 1 0 
0 0 0 0 0 
1 1 0 1 0 
0 0 1 1 0 
Graph 2:
1 1 0 0 1 
1 1 0 1 1 
1 0 0 0 0 
0 0 1 1 0 
0 1 0 1 0 
Solution: 18 25
Classic Expectation: 12.600000
Initial Expecation: 11.812500
Gbest: 18.000000
Expectation: 12.722356
Final Parameters:
Gammas:
[ 1.863699 ]
Betas:
[ 0.615908 ]
Aggregate results:
[ 16 14 8 12 10 18 6 0 ]
[ 0.223974 0.189241 0.038668 0.243177 0.223643 0.056308 0.001993 0.022996 ]
3
Num Evals 130
GenUC: 4.619476e-05
GenUB: 2.379646e-06
Optimisation 1.185187e-02
Total Time: 1.190190e-02
