Clock Speed: 3.688810
Num threads: 4
Trotterisation: 1
Graph Size: 8
Num Qubits: 16
Space Dimension: 65536
Run-Type: 0
Num_samples: 10
1 Isomorphic
Graph 1:
1 0 1 0 0 1 0 0 
1 0 1 1 0 0 1 0 
0 1 1 1 1 0 1 1 
1 1 0 0 1 0 1 1 
1 1 1 0 0 0 0 0 
1 0 1 0 0 1 0 0 
0 1 0 0 1 1 0 1 
0 0 0 0 1 1 1 0 
Graph 2:
1 0 1 0 0 1 0 0 
1 0 1 1 0 0 1 0 
0 1 1 1 1 0 1 1 
1 1 0 0 1 0 1 1 
1 1 1 0 0 0 0 0 
1 0 1 0 0 1 0 0 
0 1 0 0 1 1 0 1 
0 0 0 0 1 1 1 0 
Solution: 0 0
Gbest: -30.000000
Expectation: -38.881810
Final Parameters:
Gammas:
[ 5.943094 ]
Betas:
[ 2.858364 2.642114 ]
Aggregate results:
[ -1 15 19 17 25 23 11 9 27 21 29 7 31 35 33 13 37 39 41 43 3 45 63 ]
[ 0.000030 0.001462 0.004439 0.002327 0.047603 0.024123 0.000571 0.000136 0.092369 0.013330 0.133309 0.000099 0.147548 0.097831 0.141675 0.000948 0.047065 0.017726 0.003950 0.000696 0.000004 0.000058 0.222701 ]
3
Num Evals 184
GenUC: 4.263707e-03
GenUB: 1.947268e-02
Optimisation 3.301736e+01
Total Time: 3.322150e+01
2 Flipped
Graph 1:
1 0 1 0 0 1 0 0 
1 0 1 1 0 0 1 0 
0 1 1 1 1 0 1 1 
1 1 0 0 1 0 1 1 
1 1 1 0 0 0 0 0 
1 0 1 0 0 1 0 0 
0 1 0 0 1 1 0 1 
0 0 0 0 1 1 1 0 
Graph 2:
0 0 1 0 0 1 0 1 
0 1 0 0 1 1 0 1 
1 1 0 1 1 1 1 0 
1 1 0 1 0 0 1 1 
0 0 0 0 0 1 1 1 
0 0 1 0 0 1 0 1 
1 0 1 1 0 0 1 0 
0 1 1 1 0 0 0 0 
Solution: -14 28892
Gbest: -26.000000
Expectation: -43.086754
Final Parameters:
Gammas:
[ 5.093353 ]
Betas:
[ 2.835145 2.564731 ]
Aggregate results:
[ 37 33 35 45 43 41 39 29 31 27 23 25 21 19 17 47 15 13 49 63 ]
[ 0.041971 0.105220 0.075167 0.000723 0.002849 0.008560 0.022015 0.121219 0.117583 0.080130 0.021198 0.047384 0.006160 0.001639 0.000411 0.000079 0.000102 0.000014 0.000008 0.347567 ]
3
Num Evals 317
GenUC: 2.607288e-03
GenUB: 1.674019e-02
Optimisation 2.323459e+01
Total Time: 2.343128e+01
3 Add 8
Graph 1:
1 0 1 0 0 1 0 0 
1 0 1 1 0 0 1 0 
0 1 1 1 1 0 1 1 
1 1 0 0 1 0 1 1 
1 1 1 0 0 0 0 0 
1 0 1 0 0 1 0 0 
0 1 0 0 1 1 0 1 
0 0 0 0 1 1 1 0 
Graph 2:
1 0 1 0 0 1 0 0 
1 1 1 1 0 0 1 0 
0 1 1 1 1 0 1 1 
1 1 0 1 1 0 1 1 
1 1 1 1 0 0 1 0 
1 0 1 1 0 1 0 0 
1 1 0 0 1 1 0 1 
1 0 0 0 1 1 1 1 
Solution: -8 0
Gbest: -26.000000
Expectation: -35.342508
Final Parameters:
Gammas:
[ 6.132924 ]
Betas:
[ 2.824654 2.611157 ]
Aggregate results:
[ 7 19 23 21 25 17 13 15 29 27 31 33 11 35 37 39 41 43 45 47 63 ]
[ 0.000063 0.002808 0.020347 0.008725 0.047289 0.001929 0.000179 0.000432 0.143759 0.090489 0.175458 0.170116 0.000104 0.126943 0.074444 0.031470 0.011229 0.003357 0.000297 0.000063 0.090500 ]
3
Num Evals 469
GenUC: 3.002154e-03
GenUB: 1.745157e-02
Optimisation 2.650330e+01
Total Time: 2.670063e+01
4 Rem 8
Graph 1:
1 0 1 0 0 1 0 0 
1 0 1 1 0 0 1 0 
0 1 1 1 1 0 1 1 
1 1 0 0 1 0 1 1 
1 1 1 0 0 0 0 0 
1 0 1 0 0 1 0 0 
0 1 0 0 1 1 0 1 
0 0 0 0 1 1 1 0 
Graph 2:
1 0 1 0 0 0 0 0 
1 0 1 1 0 0 1 0 
0 1 0 0 1 0 1 1 
1 1 0 0 1 0 0 1 
1 1 1 0 0 0 0 0 
0 0 0 0 0 0 0 0 
0 1 0 0 1 1 0 1 
0 0 0 0 1 0 1 0 
Solution: -8 0
Gbest: -24.000000
Expectation: -42.725960
Final Parameters:
Gammas:
[ 4.757097 ]
Betas:
[ 2.415487 2.591888 ]
Aggregate results:
[ 7 19 21 15 23 13 17 27 25 29 31 33 35 37 39 41 43 45 11 63 ]
[ 0.000004 0.002115 0.007187 0.000110 0.021218 0.000099 0.000607 0.094864 0.053235 0.130329 0.127625 0.106323 0.062221 0.030366 0.010442 0.002723 0.000317 0.000026 0.000002 0.350187 ]
3
Num Evals 595
GenUC: 2.900710e-03
GenUB: 1.621941e-02
Optimisation 2.105727e+01
Total Time: 2.124450e+01
5 Add/Rem 8
Graph 1:
1 0 1 0 0 1 0 0 
1 0 1 1 0 0 1 0 
0 1 1 1 1 0 1 1 
1 1 0 0 1 0 1 1 
1 1 1 0 0 0 0 0 
1 0 1 0 0 1 0 0 
0 1 0 0 1 1 0 1 
0 0 0 0 1 1 1 0 
Graph 2:
1 0 0 0 1 1 0 0 
1 0 1 1 0 0 1 0 
1 0 0 1 0 0 1 1 
1 1 0 0 1 0 1 1 
1 1 1 0 0 0 0 1 
0 1 0 1 0 1 0 0 
1 1 0 0 1 1 1 1 
0 1 0 0 1 1 1 0 
Solution: -14 0
Gbest: -28.000000
Expectation: -43.001849
Final Parameters:
Gammas:
[ 4.770875 ]
Betas:
[ 2.596634 2.605115 ]
Aggregate results:
[ 13 19 25 17 21 23 15 29 27 33 31 35 37 41 39 43 45 47 63 ]
[ 0.000010 0.002488 0.046591 0.000343 0.008159 0.024879 0.000102 0.106625 0.085580 0.101942 0.124951 0.077797 0.043327 0.008381 0.019410 0.001571 0.000485 0.000071 0.347287 ]
3
Num Evals 739
GenUC: 2.906476e-03
GenUB: 1.669162e-02
Optimisation 2.620399e+01
Total Time: 2.639685e+01
