Clock Speed: 3.689420
Num threads: 4
Trotterisation: 1
Graph Size: 8
Num Qubits: 16
Space Dimension: 65536
Run-Type: 0
Num_samples: 10
1 Isomorphic
Graph 1:
0 0 1 0 1 1 1 1 
1 0 1 0 0 0 0 1 
0 1 0 0 0 0 1 1 
1 0 1 1 0 1 1 0 
1 0 1 0 0 0 0 1 
1 0 1 1 0 0 0 0 
1 1 0 0 0 0 0 1 
0 1 1 1 1 1 0 0 
Graph 2:
0 0 1 0 1 1 1 1 
1 0 1 0 0 0 0 1 
0 1 0 0 0 0 1 1 
1 0 1 1 0 1 1 0 
1 0 1 0 0 0 0 1 
1 0 1 1 0 0 0 0 
1 1 0 0 0 0 0 1 
0 1 1 1 1 1 0 0 
Solution: 0 0
Gbest: -26.000000
Expectation: -36.514934
Final Parameters:
Gammas:
[ 5.961095 ]
Betas:
[ 2.611139 2.537351 ]
Aggregate results:
[ -1 17 13 11 21 25 27 23 15 29 19 5 9 31 33 35 37 39 41 43 63 ]
[ 0.000023 0.003121 0.000541 0.000348 0.026266 0.098386 0.133375 0.057192 0.001536 0.153063 0.010002 0.000118 0.000156 0.143532 0.100277 0.050766 0.018475 0.004990 0.000284 0.000073 0.197475 ]
3
Num Evals 162
GenUC: 3.538749e-03
GenUB: 1.713416e-02
Optimisation 2.783968e+01
Total Time: 2.803261e+01
2 Flipped
Graph 1:
0 0 1 0 1 1 1 1 
1 0 1 0 0 0 0 1 
0 1 0 0 0 0 1 1 
1 0 1 1 0 1 1 0 
1 0 1 0 0 0 0 1 
1 0 1 1 0 0 0 0 
1 1 0 0 0 0 0 1 
0 1 1 1 1 1 0 0 
Graph 2:
1 1 1 1 0 1 0 0 
1 0 0 0 0 1 0 1 
1 1 0 0 0 0 1 0 
0 1 1 0 1 1 0 1 
1 0 0 0 0 1 0 1 
0 0 0 0 1 1 0 1 
1 0 0 0 0 0 1 1 
0 0 1 1 1 1 1 0 
Solution: -14 16149
Gbest: -32.000000
Expectation: -42.624830
Final Parameters:
Gammas:
[ 4.758431 ]
Betas:
[ 2.535612 2.550600 ]
Aggregate results:
[ 27 29 33 31 37 25 35 23 39 21 17 19 41 43 15 13 45 63 ]
[ 0.091268 0.129138 0.105466 0.130111 0.029848 0.054805 0.062231 0.023104 0.009275 0.009767 0.000486 0.002508 0.002741 0.000647 0.000142 0.000005 0.000010 0.348447 ]
3
Num Evals 301
GenUC: 2.606500e-03
GenUB: 1.664111e-02
Optimisation 2.375935e+01
Total Time: 2.394876e+01
3 Add 8
Graph 1:
0 0 1 0 1 1 1 1 
1 0 1 0 0 0 0 1 
0 1 0 0 0 0 1 1 
1 0 1 1 0 1 1 0 
1 0 1 0 0 0 0 1 
1 0 1 1 0 0 0 0 
1 1 0 0 0 0 0 1 
0 1 1 1 1 1 0 0 
Graph 2:
1 0 1 0 1 1 1 1 
1 0 1 1 0 0 0 1 
0 1 0 0 1 0 1 1 
1 0 1 1 1 1 1 0 
1 0 1 0 0 0 0 1 
1 1 1 1 0 0 0 1 
1 1 0 0 1 0 0 1 
0 1 1 1 1 1 1 0 
Solution: -8 0
Gbest: -24.000000
Expectation: -36.720337
Final Parameters:
Gammas:
[ 5.957606 ]
Betas:
[ 2.637085 2.591517 ]
Aggregate results:
[ 7 23 21 19 17 25 31 27 29 9 15 33 35 37 39 11 13 41 43 63 ]
[ 0.000017 0.043316 0.016072 0.004894 0.001970 0.087249 0.156010 0.133477 0.166289 0.000028 0.000415 0.113083 0.059904 0.021391 0.005093 0.000068 0.000251 0.000549 0.000025 0.189899 ]
3
Num Evals 468
GenUC: 2.861642e-03
GenUB: 1.666475e-02
Optimisation 2.883929e+01
Total Time: 2.903218e+01
4 Rem 8
Graph 1:
0 0 1 0 1 1 1 1 
1 0 1 0 0 0 0 1 
0 1 0 0 0 0 1 1 
1 0 1 1 0 1 1 0 
1 0 1 0 0 0 0 1 
1 0 1 1 0 0 0 0 
1 1 0 0 0 0 0 1 
0 1 1 1 1 1 0 0 
Graph 2:
0 0 1 0 0 1 0 1 
1 0 1 0 0 0 0 0 
0 1 0 0 0 0 1 1 
1 0 1 1 0 1 1 0 
0 0 0 0 0 0 0 1 
1 0 1 1 0 0 0 0 
1 1 0 0 0 0 0 0 
0 1 1 0 1 1 0 0 
Solution: -7 0
Gbest: -27.000000
Expectation: -36.844686
Final Parameters:
Gammas:
[ 5.962304 ]
Betas:
[ 3.140212 2.747589 ]
Aggregate results:
[ 6 18 20 16 22 28 26 24 32 30 10 36 34 12 14 38 40 42 44 63 ]
[ 0.000053 0.002572 0.009909 0.000438 0.029960 0.175758 0.130489 0.071621 0.112742 0.165851 0.000020 0.024235 0.058632 0.000092 0.000229 0.008031 0.001866 0.000231 0.000017 0.207252 ]
3
Num Evals 633
GenUC: 2.870393e-03
GenUB: 1.626080e-02
Optimisation 3.308337e+01
Total Time: 3.329775e+01
5 Add/Rem 8
Graph 1:
0 0 1 0 1 1 1 1 
1 0 1 0 0 0 0 1 
0 1 0 0 0 0 1 1 
1 0 1 1 0 1 1 0 
1 0 1 0 0 0 0 1 
1 0 1 1 0 0 0 0 
1 1 0 0 0 0 0 1 
0 1 1 1 1 1 0 0 
Graph 2:
0 1 1 1 1 1 1 0 
0 0 1 1 0 1 0 1 
0 1 0 0 0 1 0 1 
1 0 0 1 0 1 1 0 
1 0 0 0 0 0 0 1 
1 0 1 1 0 0 0 0 
1 0 0 0 0 0 0 1 
1 0 1 1 1 1 1 0 
Solution: -10 38364
Gbest: -28.000000
Expectation: -36.152025
Final Parameters:
Gammas:
[ 5.961324 ]
Betas:
[ 2.617386 2.576880 ]
Aggregate results:
[ 13 21 23 15 19 25 27 29 17 31 33 35 37 39 41 43 11 9 63 ]
[ 0.000237 0.024238 0.053585 0.000936 0.010073 0.095363 0.142286 0.163502 0.003234 0.150034 0.102328 0.049458 0.015334 0.002733 0.000234 0.000007 0.000140 0.000003 0.186277 ]
3
Num Evals 793
GenUC: 2.894276e-03
GenUB: 1.669481e-02
Optimisation 2.745930e+01
Total Time: 2.765070e+01
