Clock Speed: 3.498642
Num threads: 16
Trotterisation: 3
Num Qubits: 16
Space Dimension: 65536
Run-Type: 0
Num_samples: 64
Optimiser Method: 0
1 Isomorphic
Graph 1:
1 0 0 1 0 0 0 0 
0 1 0 0 1 1 0 1 
1 0 0 1 1 0 0 1 
1 0 1 1 1 1 0 1 
0 0 1 0 0 1 0 0 
0 1 0 1 0 1 1 1 
1 1 1 1 1 1 1 0 
0 1 1 0 1 0 1 1 
Graph 2:
1 0 0 1 0 0 0 0 
0 1 0 0 1 1 0 1 
1 0 0 1 1 0 0 1 
1 0 1 1 1 1 0 1 
0 0 1 0 0 1 0 0 
0 1 0 1 0 1 1 1 
1 1 1 1 1 1 1 0 
0 1 1 0 1 0 1 1 
Solution: 64 0
Classic Expectation: 33.035714
Initial Expecation: 20.324707
Gbest: 42.000000
Expectation: 28.132072
Final Parameters:
Gammas:
[ 0.818796 5.469831 2.913191 ]
Betas:
[ 3.051094 1.163553 2.612966 ]
Aggregate results:
[ 64 50 48 46 34 42 38 44 32 40 36 30 52 28 54 26 24 20 22 18 0 ]
[ 0.000064 0.000105 0.000859 0.001968 0.170133 0.014187 0.077868 0.005680 0.165094 0.036617 0.119741 0.126594 0.000102 0.077173 0.000115 0.035488 0.013862 0.000995 0.004268 0.000217 0.148868 ]
3
Num Evals 1133
GenUC: 1.902039e-02
GenUB: 1.323310e-02
Optimisation 3.646862e+02
Total Time: 3.647184e+02
2 Flipped
Graph 1:
1 0 0 1 0 0 0 0 
0 1 0 0 1 1 0 1 
1 0 0 1 1 0 0 1 
1 0 1 1 1 1 0 1 
0 0 1 0 0 1 0 0 
0 1 0 1 0 1 1 1 
1 1 1 1 1 1 1 0 
0 1 1 0 1 0 1 1 
Graph 2:
0 0 0 0 1 0 0 1 
1 0 1 1 0 0 1 0 
1 0 0 1 1 0 0 1 
1 0 1 1 1 1 0 1 
0 0 1 0 0 1 0 0 
1 1 1 0 1 0 1 0 
0 1 1 1 1 1 1 1 
1 1 0 1 0 1 1 0 
Solution: 48 6459
Classic Expectation: 31.178571
Initial Expecation: 19.182129
Gbest: 38.000000
Expectation: 24.062447
Final Parameters:
Gammas:
[ 1.329168 0.089807 2.894393 ]
Betas:
[ 2.792527 1.511661 2.559816 ]
Aggregate results:
[ 38 40 42 34 32 36 30 28 26 24 44 22 20 18 46 48 16 14 0 ]
[ 0.036881 0.012199 0.003270 0.119116 0.147079 0.073359 0.147181 0.110374 0.071658 0.035007 0.000731 0.012724 0.004374 0.001064 0.000146 0.000010 0.000152 0.000052 0.224623 ]
3
Num Evals 1629
GenUC: 2.353189e-02
GenUB: 1.341426e-02
Optimisation 5.329204e+02
Total Time: 5.329574e+02
3 Add 8
Graph 1:
1 0 0 1 0 0 0 0 
0 1 0 0 1 1 0 1 
1 0 0 1 1 0 0 1 
1 0 1 1 1 1 0 1 
0 0 1 0 0 1 0 0 
0 1 0 1 0 1 1 1 
1 1 1 1 1 1 1 0 
0 1 1 0 1 0 1 1 
Graph 2:
1 1 0 1 1 0 0 0 
0 1 0 0 1 1 0 1 
1 0 0 1 1 0 0 1 
1 1 1 1 1 1 0 1 
0 1 1 0 0 1 0 0 
1 1 0 1 1 1 1 1 
1 1 1 1 1 1 1 0 
1 1 1 1 1 0 1 1 
Solution: 56 0
Classic Expectation: 33.321429
Initial Expecation: 20.500488
Gbest: 40.000000
Expectation: 28.977630
Final Parameters:
Gammas:
[ 6.160195 0.122260 2.920611 ]
Betas:
[ 2.676172 1.396264 2.634371 ]
Aggregate results:
[ 56 46 44 42 34 36 40 38 32 30 48 28 26 24 50 22 18 20 16 0 ]
[ 0.000025 0.000887 0.003586 0.012661 0.178678 0.146138 0.036730 0.086045 0.175091 0.125797 0.000194 0.066750 0.026426 0.007892 0.000046 0.001581 0.000002 0.000109 0.000002 0.131360 ]
3
Num Evals 1455
GenUC: 2.334133e-02
GenUB: 1.335170e-02
Optimisation 4.705891e+02
Total Time: 4.706258e+02
4 Rem 8
Graph 1:
1 0 0 1 0 0 0 0 
0 1 0 0 1 1 0 1 
1 0 0 1 1 0 0 1 
1 0 1 1 1 1 0 1 
0 0 1 0 0 1 0 0 
0 1 0 1 0 1 1 1 
1 1 1 1 1 1 1 0 
0 1 1 0 1 0 1 1 
Graph 2:
1 0 0 1 0 0 0 0 
0 0 0 0 0 0 0 1 
1 0 0 1 1 0 0 1 
1 0 1 0 1 0 0 1 
0 0 1 0 0 1 0 0 
0 1 0 1 0 1 1 1 
1 1 0 1 1 1 0 0 
0 1 1 0 1 0 1 1 
Solution: 57 0
Classic Expectation: 31.392857
Initial Expecation: 19.313965
Gbest: 39.000000
Expectation: 25.073798
Final Parameters:
Gammas:
[ 3.377688 2.894764 3.088877 ]
Betas:
[ 0.512825 0.521444 1.745329 ]
Aggregate results:
[ 57 43 47 41 39 27 37 31 49 45 35 29 33 25 23 21 19 17 15 0 ]
[ 0.000038 0.002194 0.000174 0.007749 0.023312 0.088157 0.058603 0.161307 0.000132 0.000489 0.101789 0.134356 0.151141 0.043882 0.019417 0.006426 0.001677 0.000412 0.000043 0.198701 ]
3
Num Evals 2751
GenUC: 2.332754e-02
GenUB: 1.335234e-02
Optimisation 6.719921e+02
Total Time: 6.720288e+02
5 Add/Rem 8
Graph 1:
1 0 0 1 0 0 0 0 
0 1 0 0 1 1 0 1 
1 0 0 1 1 0 0 1 
1 0 1 1 1 1 0 1 
0 0 1 0 0 1 0 0 
0 1 0 1 0 1 1 1 
1 1 1 1 1 1 1 0 
0 1 1 0 1 0 1 1 
Graph 2:
1 0 0 1 0 0 0 0 
0 0 1 0 0 0 0 1 
1 0 1 1 1 1 1 1 
1 0 1 0 1 1 0 0 
0 0 1 0 0 1 1 0 
0 0 1 1 0 1 1 1 
1 0 1 1 1 0 1 0 
1 1 1 0 1 0 1 1 
Solution: 49 0
Classic Expectation: 32.535714
Initial Expecation: 20.017090
Gbest: 41.000000
Expectation: 26.917307
Final Parameters:
Gammas:
[ 3.141593 1.047198 5.235988 ]
Betas:
[ 0.523599 2.967060 2.617994 ]
Aggregate results:
[ 49 43 39 41 37 33 35 31 29 45 27 47 25 23 21 19 17 15 0 ]
[ 0.000020 0.003914 0.038544 0.013312 0.082281 0.174043 0.133462 0.168045 0.116225 0.000877 0.062969 0.000079 0.026581 0.008721 0.002028 0.000447 0.000030 0.000006 0.168417 ]
3
Num Evals 2513
GenUC: 2.336634e-02
GenUB: 1.331708e-02
Optimisation 6.220453e+02
Total Time: 6.220820e+02
