Clock Speed: 3.689386
Num threads: 4
Trotterisation: 3
Num Qubits: 3
Space Dimension: 8
Run-Type: 0
Num_samples: 2024
Optimiser Method: 20
1 Isomorphic
Graph 1:
0 1 1 
1 1 0 
0 0 1 
Graph 2:
0 1 1 
1 1 0 
0 0 1 
Solution: 9 0
Classic Expectation: 4.666667
Initial Expecation: 3.500000
Gbest: 9.000000
Expectation: 5.629253
Final Parameters:
Gammas:
[ 2.787140 4.337511 5.555227 ]
Betas:
[ 0.723454 2.705984 1.094000 ]
Aggregate results:
[ 9 7 5 3 1 0 ]
[ 0.470832 0.027406 0.001665 0.385407 0.035377 0.079313 ]
5
Num Evals 1800
GenUC: 2.677145e-06
GenUB: 7.266237e-06
Optimisation 1.549526e+00
Total Time: 1.549556e+00
2 Flipped
Graph 1:
0 1 1 
1 1 0 
0 0 1 
Graph 2:
1 1 0 
0 1 1 
1 0 0 
Solution: 7 5
Classic Expectation: 4.666667
Initial Expecation: 3.500000
Gbest: 7.000000
Expectation: 5.570212
Final Parameters:
Gammas:
[ 3.968213 1.481399 1.322511 ]
Betas:
[ 0.558710 0.362597 0.301500 ]
Aggregate results:
[ 3 5 7 0 ]
[ 0.022755 0.654193 0.318711 0.004340 ]
5
Num Evals 1800
GenUC: 2.838555e-06
GenUB: 1.127890e-06
Optimisation 2.035575e-01
Total Time: 2.035635e-01
3 Add 3
Graph 1:
0 1 1 
1 1 0 
0 0 1 
Graph 2:
1 1 1 
1 1 0 
0 1 1 
Solution: 7 0
Classic Expectation: 5.000000
Initial Expecation: 3.750000
Gbest: 7.000000
Expectation: 5.974430
Final Parameters:
Gammas:
[ 0.456188 3.614420 4.089199 ]
Betas:
[ 2.911946 1.043894 0.572915 ]
Aggregate results:
[ 7 5 3 0 ]
[ 0.493248 0.503636 0.001173 0.001944 ]
5
Num Evals 1800
GenUC: 2.938323e-06
GenUB: 7.693889e-07
Optimisation 3.673822e-01
Total Time: 3.673875e-01
4 Rem 3
Graph 1:
0 1 1 
1 1 0 
0 0 1 
Graph 2:
0 0 1 
1 0 0 
0 0 1 
Solution: 7 0
Classic Expectation: 4.333333
Initial Expecation: 3.250000
Gbest: 7.000000
Expectation: 4.886127
Final Parameters:
Gammas:
[ 5.696210 5.377850 6.232537 ]
Betas:
[ 2.266048 2.387073 0.288844 ]
Aggregate results:
[ 7 5 3 1 0 ]
[ 0.474456 0.025544 0.478316 0.002268 0.019416 ]
5
Num Evals 1800
GenUC: 2.716493e-06
GenUB: 1.233537e-06
Optimisation 3.706884e-01
Total Time: 3.706940e-01
5 Add/Rem 3
Graph 1:
0 1 1 
1 1 0 
0 0 1 
Graph 2:
0 1 0 
1 0 1 
1 1 1 
Solution: 6 2
Classic Expectation: 4.333333
Initial Expecation: 3.250000
Gbest: 6.000000
Expectation: 4.864324
Final Parameters:
Gammas:
[ 2.720242 2.418336 6.224477 ]
Betas:
[ 2.312160 2.248932 0.553792 ]
Aggregate results:
[ 4 6 2 0 ]
[ 0.461496 0.491839 0.033654 0.013011 ]
5
Num Evals 1800
GenUC: 3.503985e-06
GenUB: 1.000590e-06
Optimisation 3.939451e-01
Total Time: 3.939511e-01
