Clock Speed: 3.498904
Num threads: 16
Trotterisation: 3
Num Qubits: 13
Space Dimension: 8192
Run-Type: 0
Num_samples: 49
Optimiser Method: 29
1 Isomorphic
Graph 1:
0 0 0 1 1 1 1 
1 1 0 0 0 1 0 
0 1 1 1 0 1 1 
0 0 1 0 0 1 0 
0 1 0 0 0 1 0 
1 0 0 0 0 0 1 
1 0 0 1 1 1 0 
Graph 2:
0 0 0 1 1 1 1 
1 1 0 0 0 1 0 
0 1 1 1 0 1 1 
0 0 1 0 0 1 0 
0 1 0 0 0 1 0 
1 0 0 0 0 0 1 
1 0 0 1 1 1 0 
Solution: 49 0
Classic Expectation: 25.190476
Initial Expecation: 15.498047
Gbest: 45.000000
Expectation: 19.458993
Final Parameters:
Gammas:
[ 2.948942 4.242348 0.769717 ]
Betas:
[ 2.607306 1.319840 1.873043 ]
Aggregate results:
[ 49 39 35 37 43 33 29 25 31 21 27 19 23 41 17 15 45 0 ]
[ 0.000463 0.001506 0.011506 0.003983 0.000095 0.028733 0.087387 0.151406 0.048886 0.096377 0.139249 0.041992 0.141302 0.000146 0.008546 0.000810 0.001011 0.236601 ]
3
Num Evals 1024
GenUC: 2.258946e-03
GenUB: 1.328402e-03
Optimisation 3.031135e+01
Total Time: 3.031495e+01
2 Flipped
Graph 1:
0 0 0 1 1 1 1 
1 1 0 0 0 1 0 
0 1 1 1 0 1 1 
0 0 1 0 0 1 0 
0 1 0 0 0 1 0 
1 0 0 0 0 0 1 
1 0 0 1 1 1 0 
Graph 2:
1 1 1 1 0 0 0 
0 1 0 0 0 1 1 
1 1 0 1 1 1 0 
0 1 0 0 1 0 0 
0 1 0 0 0 1 0 
1 0 0 0 0 0 1 
0 1 1 1 0 0 1 
Solution: 35 105
Classic Expectation: 24.809524
Initial Expecation: 15.263672
Gbest: 35.000000
Expectation: 24.400559
Final Parameters:
Gammas:
[ 3.201291 3.304345 0.100511 ]
Betas:
[ 2.334308 2.226258 1.064381 ]
Aggregate results:
[ 27 23 19 21 25 17 31 29 35 33 15 13 0 ]
[ 0.209342 0.102739 0.017183 0.045005 0.189085 0.005134 0.110872 0.172798 0.012663 0.042338 0.000690 0.000034 0.092116 ]
3
Num Evals 2807
GenUC: 5.317639e-03
GenUB: 1.516542e-03
Optimisation 8.155560e+01
Total Time: 8.156244e+01
3 Add 7
Graph 1:
0 0 0 1 1 1 1 
1 1 0 0 0 1 0 
0 1 1 1 0 1 1 
0 0 1 0 0 1 0 
0 1 0 0 0 1 0 
1 0 0 0 0 0 1 
1 0 0 1 1 1 0 
Graph 2:
0 0 1 1 1 1 1 
1 1 0 0 1 1 0 
1 1 1 1 0 1 1 
0 0 1 0 0 1 0 
1 1 0 0 0 1 0 
1 1 0 0 0 0 1 
1 0 0 1 1 1 0 
Solution: 44 0
Classic Expectation: 24.952381
Initial Expecation: 15.351563
Gbest: 32.000000
Expectation: 24.176882
Final Parameters:
Gammas:
[ 3.193177 3.334752 3.206329 ]
Betas:
[ 1.615646 2.269045 0.165455 ]
Aggregate results:
[ 44 34 36 38 28 30 32 26 24 22 40 20 18 16 14 42 0 ]
[ 0.000532 0.024298 0.009757 0.001005 0.170237 0.118495 0.050583 0.183478 0.170029 0.124979 0.000463 0.048664 0.015868 0.002288 0.000009 0.001975 0.077340 ]
3
Num Evals 1076
GenUC: 5.362952e-03
GenUB: 1.531710e-03
Optimisation 2.572340e+01
Total Time: 2.573030e+01
4 Rem 7
Graph 1:
0 0 0 1 1 1 1 
1 1 0 0 0 1 0 
0 1 1 1 0 1 1 
0 0 1 0 0 1 0 
0 1 0 0 0 1 0 
1 0 0 0 0 0 1 
1 0 0 1 1 1 0 
Graph 2:
0 0 0 0 1 1 1 
1 0 0 0 0 0 0 
0 1 1 1 0 1 1 
0 0 1 0 0 1 0 
0 1 0 0 0 0 0 
0 0 0 0 0 0 0 
0 0 0 1 1 1 0 
Solution: 42 0
Classic Expectation: 25.904762
Initial Expecation: 15.937500
Gbest: 34.000000
Expectation: 21.904880
Final Parameters:
Gammas:
[ 3.095783 3.706157 3.056586 ]
Betas:
[ 1.641197 2.099408 2.117560 ]
Aggregate results:
[ 42 36 32 34 30 38 28 26 24 22 20 18 16 0 ]
[ 0.000121 0.002836 0.041970 0.009707 0.098305 0.000946 0.146600 0.208935 0.183046 0.106649 0.037317 0.006308 0.000193 0.157065 ]
3
Num Evals 1283
GenUC: 5.388395e-03
GenUB: 1.525437e-03
Optimisation 3.851574e+01
Total Time: 3.852266e+01
5 Add/Rem 7
Graph 1:
0 0 0 1 1 1 1 
1 1 0 0 0 1 0 
0 1 1 1 0 1 1 
0 0 1 0 0 1 0 
0 1 0 0 0 1 0 
1 0 0 0 0 0 1 
1 0 0 1 1 1 0 
Graph 2:
1 1 1 0 1 0 0 
1 1 1 0 0 1 0 
0 1 1 1 0 1 1 
1 0 1 0 0 0 0 
0 1 0 0 0 1 0 
0 0 0 1 0 0 1 
1 0 0 1 1 0 0 
Solution: 37 0
Classic Expectation: 24.809524
Initial Expecation: 15.263672
Gbest: 31.000000
Expectation: 20.890067
Final Parameters:
Gammas:
[ 3.193128 3.562777 1.810777 ]
Betas:
[ 2.466320 1.296301 2.029500 ]
Aggregate results:
[ 37 31 27 29 25 33 23 21 19 17 15 35 13 0 ]
[ 0.000433 0.056574 0.183324 0.118642 0.168337 0.014005 0.129591 0.086316 0.046618 0.010741 0.003495 0.004045 0.000284 0.177594 ]
3
Num Evals 1972
GenUC: 5.364736e-03
GenUB: 1.536853e-03
Optimisation 5.892860e+01
Total Time: 5.893550e+01
