Clock Speed: 3.498813
Num threads: 16
Trotterisation: 3
Num Qubits: 13
Space Dimension: 8192
Run-Type: 0
Num_samples: 49
Optimiser Method: 29
1 Isomorphic
Graph 1:
1 0 1 1 1 1 1 
0 1 0 0 0 1 1 
1 1 0 1 0 1 0 
0 0 0 1 0 1 1 
1 0 0 0 1 0 0 
0 1 1 1 1 0 1 
0 0 0 1 0 0 0 
Graph 2:
1 0 1 1 1 1 1 
0 1 0 0 0 1 1 
1 1 0 1 0 1 0 
0 0 0 1 0 1 1 
1 0 0 0 1 0 0 
0 1 1 1 1 0 1 
0 0 0 1 0 0 0 
Solution: 49 0
Classic Expectation: 24.619048
Initial Expecation: 15.146484
Gbest: 37.000000
Expectation: 21.113661
Final Parameters:
Gammas:
[ 2.944397 3.326498 1.226171 ]
Betas:
[ 2.368557 1.712372 1.611693 ]
Aggregate results:
[ 49 39 29 31 25 35 37 27 41 23 17 21 33 19 15 45 13 11 9 0 ]
[ 0.000219 0.003247 0.150555 0.076384 0.126701 0.018575 0.011273 0.172535 0.000921 0.100788 0.015585 0.044124 0.034444 0.025988 0.007675 0.000359 0.002367 0.000403 0.000528 0.207328 ]
3
Num Evals 1033
GenUC: 2.264208e-03
GenUB: 1.117575e-03
Optimisation 3.013039e+01
Total Time: 3.013378e+01
2 Flipped
Graph 1:
1 0 1 1 1 1 1 
0 1 0 0 0 1 1 
1 1 0 1 0 1 0 
0 0 0 1 0 1 1 
1 0 0 0 1 0 0 
0 1 1 1 1 0 1 
0 0 0 1 0 0 0 
Graph 2:
1 1 1 1 1 0 1 
1 1 0 0 0 1 0 
0 1 0 1 0 1 1 
1 1 0 1 0 0 0 
0 0 1 0 0 0 1 
1 0 1 1 1 1 0 
0 0 0 1 0 0 0 
Solution: 39 444
Classic Expectation: 24.619048
Initial Expecation: 15.146484
Gbest: 33.000000
Expectation: 23.730569
Final Parameters:
Gammas:
[ 3.205459 3.321948 3.138347 ]
Betas:
[ 2.349782 2.208579 1.078478 ]
Aggregate results:
[ 31 27 29 25 23 33 19 21 35 37 17 39 15 13 11 0 ]
[ 0.068525 0.205328 0.158944 0.207435 0.137965 0.028464 0.018831 0.057375 0.009800 0.002312 0.005894 0.000725 0.001423 0.000712 0.000396 0.095869 ]
3
Num Evals 1482
GenUC: 2.800767e-03
GenUB: 1.265224e-03
Optimisation 4.286827e+01
Total Time: 4.287234e+01
3 Add 7
Graph 1:
1 0 1 1 1 1 1 
0 1 0 0 0 1 1 
1 1 0 1 0 1 0 
0 0 0 1 0 1 1 
1 0 0 0 1 0 0 
0 1 1 1 1 0 1 
0 0 0 1 0 0 0 
Graph 2:
1 0 1 1 1 1 1 
0 1 0 0 1 1 1 
1 1 0 1 1 1 0 
0 1 0 1 0 1 1 
1 0 1 0 1 0 0 
0 1 1 1 1 0 1 
0 1 0 1 0 0 1 
Solution: 43 0
Classic Expectation: 24.523810
Initial Expecation: 15.087891
Gbest: 37.000000
Expectation: 23.976984
Final Parameters:
Gammas:
[ 3.189315 3.323406 3.149040 ]
Betas:
[ 2.549449 1.251353 2.053297 ]
Aggregate results:
[ 43 35 29 27 31 37 23 33 25 19 21 17 15 41 13 11 9 0 ]
[ 0.000305 0.013022 0.185380 0.214514 0.110246 0.001523 0.089315 0.035559 0.174186 0.016033 0.032971 0.009931 0.004294 0.000600 0.001196 0.000592 0.000766 0.109565 ]
3
Num Evals 810
GenUC: 2.795129e-03
GenUB: 1.247854e-03
Optimisation 2.400695e+01
Total Time: 2.401100e+01
4 Rem 7
Graph 1:
1 0 1 1 1 1 1 
0 1 0 0 0 1 1 
1 1 0 1 0 1 0 
0 0 0 1 0 1 1 
1 0 0 0 1 0 0 
0 1 1 1 1 0 1 
0 0 0 1 0 0 0 
Graph 2:
1 0 0 1 1 1 1 
0 1 0 0 0 1 1 
1 1 0 1 0 0 0 
0 0 0 0 0 0 1 
1 0 0 0 0 0 0 
0 1 1 1 1 0 0 
0 0 0 1 0 0 0 
Solution: 43 0
Classic Expectation: 24.523810
Initial Expecation: 15.087891
Gbest: 37.000000
Expectation: 23.279686
Final Parameters:
Gammas:
[ 2.947334 3.334895 3.177699 ]
Betas:
[ 2.708799 1.222955 2.147460 ]
Aggregate results:
[ 43 37 31 29 35 27 33 25 39 21 23 19 17 15 13 0 ]
[ 0.002089 0.005423 0.108049 0.160476 0.020050 0.188090 0.064388 0.136616 0.005530 0.045428 0.080129 0.024106 0.008512 0.002653 0.000797 0.147664 ]
3
Num Evals 1148
GenUC: 2.802864e-03
GenUB: 1.190673e-03
Optimisation 3.420157e+01
Total Time: 3.420556e+01
5 Add/Rem 7
Graph 1:
1 0 1 1 1 1 1 
0 1 0 0 0 1 1 
1 1 0 1 0 1 0 
0 0 0 1 0 1 1 
1 0 0 0 1 0 0 
0 1 1 1 1 0 1 
0 0 0 1 0 0 0 
Graph 2:
1 0 0 0 1 0 0 
1 0 0 0 1 1 1 
1 1 0 1 0 1 0 
0 0 0 1 0 1 1 
1 0 0 0 1 1 1 
1 1 1 1 1 0 0 
1 1 0 1 0 0 0 
Solution: 38 3030
Classic Expectation: 24.380952
Initial Expecation: 15.000000
Gbest: 30.000000
Expectation: 20.505763
Final Parameters:
Gammas:
[ 3.088745 3.869917 3.056285 ]
Betas:
[ 1.447429 2.298505 2.202185 ]
Aggregate results:
[ 36 30 26 24 22 20 18 28 14 16 32 34 10 38 12 0 ]
[ 0.002461 0.074232 0.154718 0.161677 0.132451 0.074666 0.038340 0.121267 0.005623 0.016265 0.033186 0.010702 0.000753 0.000500 0.000261 0.172897 ]
3
Num Evals 1449
GenUC: 2.804217e-03
GenUB: 1.230675e-03
Optimisation 4.379416e+01
Total Time: 4.379820e+01
