Clock Speed: 3.689025
Num threads: 4
Trotterisation: 2
Num Qubits: 5
Space Dimension: 32
Run-Type: 0
Num_samples: 6399
Optimiser Method: 20
1 Isomorphic
Graph 1:
1 0 1 0 
1 1 0 0 
1 1 1 0 
1 1 1 0 
Graph 2:
1 0 1 0 
1 1 0 0 
1 1 1 0 
1 1 1 0 
Solution: 16 0
Classic Expectation: 8.666667
Initial Expecation: 6.500000
Gbest: 16.000000
Expectation: 9.466614
Final Parameters:
Gammas:
[ 3.009216 6.111202 ]
Betas:
[ 2.916974 2.720675 ]
Aggregate results:
[ 16 10 12 8 14 6 4 0 ]
[ 0.135048 0.012170 0.111551 0.291756 0.136736 0.247426 0.028158 0.037155 ]
5
Num Evals 1600
GenUC: 8.262112e-06
GenUB: 1.150265e-05
Optimisation 3.829204e-01
Total Time: 3.829589e-01
2 Flipped
Graph 1:
1 0 1 0 
1 1 0 0 
1 1 1 0 
1 1 1 0 
Graph 2:
0 1 0 1 
0 0 1 1 
0 1 1 1 
0 1 1 1 
Solution: 12 9
Classic Expectation: 8.333333
Initial Expecation: 6.250000
Gbest: 12.000000
Expectation: 9.578136
Final Parameters:
Gammas:
[ 3.191555 0.132104 ]
Betas:
[ 0.092714 0.673196 ]
Aggregate results:
[ 4 6 8 12 10 0 ]
[ 0.009455 0.120025 0.310423 0.469583 0.070179 0.020335 ]
5
Num Evals 1600
GenUC: 9.327196e-06
GenUB: 1.843262e-06
Optimisation 1.496578e-01
Total Time: 1.496709e-01
3 Add 4
Graph 1:
1 0 1 0 
1 1 0 0 
1 1 1 0 
1 1 1 0 
Graph 2:
1 1 1 0 
1 1 1 1 
1 1 1 1 
1 1 1 0 
Solution: 12 0
Classic Expectation: 9.333333
Initial Expecation: 7.000000
Gbest: 12.000000
Expectation: 9.184821
Final Parameters:
Gammas:
[ 2.357602 1.762496 ]
Betas:
[ 1.830613 0.811819 ]
Aggregate results:
[ 12 8 10 0 ]
[ 0.221559 0.626376 0.151511 0.000554 ]
5
Num Evals 1600
GenUC: 9.079580e-06
GenUB: 1.612061e-06
Optimisation 2.480261e-01
Total Time: 2.480384e-01
4 Rem 4
Graph 1:
1 0 1 0 
1 1 0 0 
1 1 1 0 
1 1 1 0 
Graph 2:
0 0 1 0 
1 1 0 0 
0 0 1 0 
1 1 1 0 
Solution: 13 0
Classic Expectation: 7.833333
Initial Expecation: 5.875000
Gbest: 13.000000
Expectation: 7.921905
Final Parameters:
Gammas:
[ 0.250031 1.298019 ]
Betas:
[ 1.987284 1.530824 ]
Aggregate results:
[ 13 7 11 5 9 3 0 ]
[ 0.181458 0.394490 0.099343 0.125359 0.116116 0.012303 0.070931 ]
5
Num Evals 1600
GenUC: 8.896517e-06
GenUB: 1.611479e-06
Optimisation 2.925158e-01
Total Time: 2.925282e-01
5 Add/Rem 4
Graph 1:
1 0 1 0 
1 1 0 0 
1 1 1 0 
1 1 1 0 
Graph 2:
0 0 1 1 
0 1 1 1 
1 0 1 0 
1 1 1 0 
Solution: 12 14
Classic Expectation: 8.333333
Initial Expecation: 6.250000
Gbest: 12.000000
Expectation: 8.795701
Final Parameters:
Gammas:
[ 3.365266 6.010837 ]
Betas:
[ 2.070912 1.355757 ]
Aggregate results:
[ 10 6 4 8 12 0 ]
[ 0.602355 0.115437 0.013817 0.216634 0.024266 0.027491 ]
5
Num Evals 1600
GenUC: 8.894131e-06
GenUB: 1.522247e-06
Optimisation 2.758105e-01
Total Time: 2.758226e-01
