Clock Speed: 3.688462
Num threads: 4
Trotterisation: 2
Num Qubits: 5
Space Dimension: 32
Run-Type: 0
Num_samples: 6399
Optimiser Method: 20
1 Isomorphic
Graph 1:
1 0 0 1 
1 0 0 1 
0 0 0 0 
1 0 1 1 
Graph 2:
1 0 0 1 
1 0 0 1 
0 0 0 0 
1 0 1 1 
Solution: 16 0
Classic Expectation: 8.166667
Initial Expecation: 6.125000
Gbest: 16.000000
Expectation: 9.117059
Final Parameters:
Gammas:
[ 2.938751 1.406541 ]
Betas:
[ 1.113244 1.488984 ]
Aggregate results:
[ 16 6 10 8 2 4 14 0 ]
[ 0.119286 0.042687 0.174436 0.403010 0.029841 0.037372 0.126768 0.066600 ]
5
Num Evals 1600
GenUC: 8.540868e-06
GenUB: 8.451636e-06
Optimisation 2.498303e-01
Total Time: 2.498654e-01
2 Flipped
Graph 1:
1 0 0 1 
1 0 0 1 
0 0 0 0 
1 0 1 1 
Graph 2:
1 0 0 1 
1 0 0 1 
0 0 0 0 
1 1 0 1 
Solution: 14 0
Classic Expectation: 8.166667
Initial Expecation: 6.125000
Gbest: 14.000000
Expectation: 8.749365
Final Parameters:
Gammas:
[ 4.443126 0.279713 ]
Betas:
[ 1.560059 0.739210 ]
Aggregate results:
[ 14 6 12 8 10 2 4 0 ]
[ 0.118560 0.182882 0.029045 0.177917 0.405961 0.034830 0.022772 0.028034 ]
5
Num Evals 1600
GenUC: 9.383541e-06
GenUB: 1.658977e-06
Optimisation 2.249762e-01
Total Time: 2.249889e-01
3 Add 4
Graph 1:
1 0 0 1 
1 0 0 1 
0 0 0 0 
1 0 1 1 
Graph 2:
1 0 1 1 
1 1 0 1 
1 0 0 0 
1 0 1 1 
Solution: 13 0
Classic Expectation: 7.833333
Initial Expecation: 5.875000
Gbest: 13.000000
Expectation: 8.037283
Final Parameters:
Gammas:
[ 2.084500 4.444411 ]
Betas:
[ 0.115480 0.256588 ]
Aggregate results:
[ 13 7 9 3 5 0 ]
[ 0.213417 0.304898 0.340455 0.000705 0.012474 0.128052 ]
5
Num Evals 1600
GenUC: 9.081909e-06
GenUB: 1.701817e-06
Optimisation 1.167930e-01
Total Time: 1.168055e-01
4 Rem 4
Graph 1:
1 0 0 1 
1 0 0 1 
0 0 0 0 
1 0 1 1 
Graph 2:
1 0 0 0 
1 0 0 1 
0 0 0 0 
0 0 1 0 
Solution: 13 0
Classic Expectation: 8.500000
Initial Expecation: 6.375000
Gbest: 13.000000
Expectation: 8.370286
Final Parameters:
Gammas:
[ 3.315208 1.365048 ]
Betas:
[ 2.338320 0.122935 ]
Aggregate results:
[ 13 9 7 11 5 0 ]
[ 0.035512 0.515466 0.298724 0.088794 0.040327 0.021177 ]
5
Num Evals 1600
GenUC: 8.857751e-06
GenUB: 1.390232e-06
Optimisation 2.330271e-01
Total Time: 2.330390e-01
5 Add/Rem 4
Graph 1:
1 0 0 1 
1 0 0 1 
0 0 0 0 
1 0 1 1 
Graph 2:
1 1 0 1 
0 0 1 0 
1 0 0 0 
0 1 1 1 
Solution: 11 2
Classic Expectation: 8.000000
Initial Expecation: 6.000000
Gbest: 11.000000
Expectation: 7.597169
Final Parameters:
Gammas:
[ 3.979734 5.283431 ]
Betas:
[ 1.897738 2.162868 ]
Aggregate results:
[ 9 7 11 5 0 ]
[ 0.288690 0.430582 0.170243 0.022442 0.088043 ]
5
Num Evals 1600
GenUC: 8.868345e-06
GenUB: 1.172477e-06
Optimisation 3.017318e-01
Total Time: 3.017435e-01
