Clock Speed: 3.689341
Num threads: 4
Trotterisation: 5
Graph Size: 3
Num Qubits: 3
Space Dimension: 8
Run-Type: 0
Num_samples: 10
1 Isomorphic
Graph 1:
1 0 1 
1 0 1 
0 0 1 
Graph 2:
1 0 1 
1 0 1 
0 0 1 
Solution: 0 0
Gbest: 0.000000
Expectation: -2.642994
Final Parameters:
Gammas:
[ 2.184655 3.233463 0.950258 2.355339 3.670875 ]
Betas:
[ 0.730685 1.982450 1.583825 1.658043 0.070536 2.838225 ]
Aggregate results:
[ -1 3 5 7 1 8 ]
[ 0.424485 0.285852 0.119860 0.002225 0.106511 0.061067 ]
5
Num Evals 300
GenUC: 1.152834e-04
GenUB: 7.565541e-06
Optimisation 7.867554e-02
Total Time: 7.911020e-02
2 Flipped
Graph 1:
1 0 1 
1 0 1 
0 0 1 
Graph 2:
1 0 1 
1 0 1 
1 0 0 
Solution: -2 0
Gbest: -2.000000
Expectation: -3.614209
Final Parameters:
Gammas:
[ 0.366984 4.289145 0.226673 0.496991 4.009624 ]
Betas:
[ 0.328795 1.096575 1.622384 0.112021 0.009185 0.271705 ]
Aggregate results:
[ 1 5 7 3 8 ]
[ 0.588751 0.185919 0.013530 0.138650 0.073151 ]
5
Num Evals 600
GenUC: 6.652408e-06
GenUB: 5.518610e-06
Optimisation 7.739322e-02
Total Time: 7.762635e-02
3 Add 3
Graph 1:
1 0 1 
1 0 1 
0 0 1 
Graph 2:
1 0 1 
1 0 1 
0 1 1 
Solution: -1 0
Gbest: -1.000000
Expectation: -1.959894
Final Parameters:
Gammas:
[ 0.235114 3.344509 4.377209 0.350880 0.022371 ]
Betas:
[ 2.027490 0.532405 2.128502 1.637918 1.737332 0.048939 ]
Aggregate results:
[ 0 4 6 2 8 ]
[ 0.751887 0.099139 0.035684 0.092847 0.020442 ]
5
Num Evals 900
GenUC: 6.466958e-06
GenUB: 5.701731e-06
Optimisation 9.150313e-02
Total Time: 9.180215e-02
4 Rem 3
Graph 1:
1 0 1 
1 0 1 
0 0 1 
Graph 2:
1 0 0 
0 0 1 
0 0 1 
Solution: -2 0
Gbest: -2.000000
Expectation: -2.953710
Final Parameters:
Gammas:
[ 0.213348 3.589504 3.410094 0.297627 3.415481 ]
Betas:
[ 0.639422 2.365159 1.276095 1.881779 0.129355 0.157232 ]
Aggregate results:
[ 1 3 5 8 ]
[ 0.711549 0.137532 0.125930 0.024990 ]
5
Num Evals 1200
GenUC: 8.339557e-06
GenUB: 5.699403e-06
Optimisation 7.511843e-02
Total Time: 7.540313e-02
5 Add/Rem 3
Graph 1:
1 0 1 
1 0 1 
0 0 1 
Graph 2:
0 0 1 
1 0 1 
1 1 0 
Solution: -4 0
Gbest: -4.000000
Expectation: -4.586472
Final Parameters:
Gammas:
[ 0.083972 0.127993 5.834964 3.525922 0.271746 ]
Betas:
[ 0.486698 1.057044 1.865023 1.862465 1.707453 0.037699 ]
Aggregate results:
[ 3 5 8 ]
[ 0.731719 0.251644 0.016637 ]
5
Num Evals 1500
GenUC: 6.414164e-06
GenUB: 5.321461e-06
Optimisation 7.983030e-02
Total Time: 8.011345e-02
