Clock Speed: 3.688407
Num threads: 4
Trotterisation: 5
Graph Size: 8
Num Qubits: 16
Space Dimension: 65536
Run-Type: 0
Num_samples: 10
1 Isomorphic
Graph 1:
1 0 1 0 0 1 0 1 
1 1 0 0 1 1 1 1 
0 1 1 1 0 1 1 0 
1 0 0 0 1 1 0 0 
0 1 0 0 1 1 0 1 
0 0 1 0 0 1 0 0 
0 1 1 1 1 1 1 0 
0 0 0 1 0 1 0 0 
Graph 2:
1 0 1 0 0 1 0 1 
1 1 0 0 1 1 1 1 
0 1 1 1 0 1 1 0 
1 0 0 0 1 1 0 0 
0 1 0 0 1 1 0 1 
0 0 1 0 0 1 0 0 
0 1 1 1 1 1 1 0 
0 0 0 1 0 1 0 0 
Solution: 0 0
Gbest: -24.000000
Expectation: -37.224939
Final Parameters:
Gammas:
[ 3.544249 3.534292 3.334049 3.154246 2.543288 ]
Betas:
[ 3.031724 3.139611 2.623892 0.815867 2.907603 2.485525 ]
Aggregate results:
[ -1 15 17 21 23 9 27 29 13 7 19 25 5 31 33 35 37 11 39 41 43 63 ]
[ 0.000014 0.001940 0.003485 0.022149 0.038784 0.000130 0.114426 0.156472 0.000756 0.000072 0.010560 0.073870 0.000022 0.156164 0.119874 0.061057 0.026172 0.000249 0.009373 0.002322 0.000269 0.201840 ]
5
Num Evals 800
GenUC: 3.617822e-03
GenUB: 1.752073e-02
Optimisation 4.032716e+02
Total Time: 4.037985e+02
2 Flipped
Graph 1:
1 0 1 0 0 1 0 1 
1 1 0 0 1 1 1 1 
0 1 1 1 0 1 1 0 
1 0 0 0 1 1 0 0 
0 1 0 0 1 1 0 1 
0 0 1 0 0 1 0 0 
0 1 1 1 1 1 1 0 
0 0 0 1 0 1 0 0 
Graph 2:
1 0 1 0 0 1 0 1 
1 1 1 1 0 0 1 1 
0 1 1 0 1 1 1 0 
0 0 1 1 0 0 0 1 
1 0 1 1 0 0 1 0 
0 0 1 0 0 1 0 0 
0 1 1 1 1 1 1 0 
0 0 1 0 1 0 0 0 
Solution: -8 434
Gbest: -24.000000
Expectation: -32.283618
Final Parameters:
Gammas:
[ 3.367575 3.752995 3.368601 2.513974 3.947209 ]
Betas:
[ 2.466835 1.025687 1.596369 1.576963 3.009610 1.578159 ]
Aggregate results:
[ 23 29 25 27 33 21 17 19 15 9 11 31 35 37 13 7 39 41 43 45 63 ]
[ 0.096947 0.160065 0.164879 0.191528 0.044536 0.050492 0.007680 0.023250 0.002273 0.000021 0.000096 0.099210 0.020852 0.011993 0.000312 0.000035 0.006338 0.001659 0.000528 0.000029 0.117277 ]
5
Num Evals 1600
GenUC: 2.439697e-03
GenUB: 1.675955e-02
Optimisation 3.420882e+02
Total Time: 3.425292e+02
3 Add 8
Graph 1:
1 0 1 0 0 1 0 1 
1 1 0 0 1 1 1 1 
0 1 1 1 0 1 1 0 
1 0 0 0 1 1 0 0 
0 1 0 0 1 1 0 1 
0 0 1 0 0 1 0 0 
0 1 1 1 1 1 1 0 
0 0 0 1 0 1 0 0 
Graph 2:
1 0 1 0 0 1 1 1 
1 1 1 0 1 1 1 1 
0 1 1 1 0 1 1 0 
1 1 0 0 1 1 1 0 
0 1 0 0 1 1 0 1 
1 0 1 0 0 1 0 0 
0 1 1 1 1 1 1 1 
0 0 0 1 1 1 0 0 
Solution: -7 0
Gbest: -25.000000
Expectation: -35.341776
Final Parameters:
Gammas:
[ 3.154399 3.337353 3.129471 3.303542 4.736393 ]
Betas:
[ 2.475244 1.520596 1.347812 1.529301 2.088296 1.577527 ]
Aggregate results:
[ 6 16 20 18 24 26 14 22 28 32 12 30 38 34 36 10 40 42 44 48 63 ]
[ 0.000018 0.000868 0.011265 0.003618 0.053836 0.096857 0.000550 0.025735 0.151024 0.150081 0.000103 0.164818 0.031180 0.104187 0.063391 0.000010 0.010653 0.002544 0.000503 0.000012 0.128747 ]
5
Num Evals 2400
GenUC: 2.964959e-03
GenUB: 1.694998e-02
Optimisation 3.299843e+02
Total Time: 3.304146e+02
4 Rem 8
Graph 1:
1 0 1 0 0 1 0 1 
1 1 0 0 1 1 1 1 
0 1 1 1 0 1 1 0 
1 0 0 0 1 1 0 0 
0 1 0 0 1 1 0 1 
0 0 1 0 0 1 0 0 
0 1 1 1 1 1 1 0 
0 0 0 1 0 1 0 0 
Graph 2:
1 0 1 0 0 1 0 1 
0 1 0 0 1 1 0 1 
0 1 0 1 0 1 0 0 
1 0 0 0 1 1 0 0 
0 1 0 0 1 1 0 0 
0 0 1 0 0 1 0 0 
0 0 1 1 1 1 1 0 
0 0 0 1 0 0 0 0 
Solution: -7 0
Gbest: -21.000000
Expectation: -29.543419
Final Parameters:
Gammas:
[ 3.133123 3.110581 3.088722 3.290412 2.381633 ]
Betas:
[ 2.258509 2.307541 2.191377 1.610239 1.433701 1.564395 ]
Aggregate results:
[ 6 16 20 18 22 26 24 14 28 30 10 12 32 34 36 38 40 42 44 46 63 ]
[ 0.000022 0.003289 0.032962 0.011643 0.066492 0.174561 0.114883 0.000668 0.213221 0.182564 0.000018 0.000058 0.108537 0.041469 0.014712 0.005129 0.002474 0.000752 0.000186 0.000067 0.026293 ]
5
Num Evals 3200
GenUC: 2.871379e-03
GenUB: 1.670695e-02
Optimisation 3.488725e+02
Total Time: 3.493249e+02
5 Add/Rem 8
Graph 1:
1 0 1 0 0 1 0 1 
1 1 0 0 1 1 1 1 
0 1 1 1 0 1 1 0 
1 0 0 0 1 1 0 0 
0 1 0 0 1 1 0 1 
0 0 1 0 0 1 0 0 
0 1 1 1 1 1 1 0 
0 0 0 1 0 1 0 0 
Graph 2:
1 0 1 0 0 0 0 1 
1 1 0 0 0 1 1 0 
1 1 1 0 0 1 1 0 
1 0 0 0 1 1 1 1 
0 1 1 0 1 1 0 1 
0 0 0 0 0 1 1 0 
1 0 0 1 1 1 1 0 
1 0 0 1 0 1 1 0 
Solution: -13 10941
Gbest: -23.000000
Expectation: -29.333368
Final Parameters:
Gammas:
[ 3.131270 3.108697 3.157612 3.279679 2.961035 ]
Betas:
[ 2.543097 2.074089 2.283573 1.641001 1.462847 1.544623 ]
Aggregate results:
[ 14 22 18 26 28 24 20 30 16 32 34 36 38 40 42 44 12 46 63 ]
[ 0.000215 0.074756 0.008657 0.185049 0.210551 0.126492 0.034609 0.173524 0.002309 0.102276 0.039693 0.011135 0.002997 0.000950 0.000305 0.000076 0.000043 0.000008 0.026355 ]
5
Num Evals 4000
GenUC: 2.746462e-03
GenUB: 1.667075e-02
Optimisation 3.431665e+02
Total Time: 3.436209e+02
