Clock Speed: 3.689155
Num threads: 4
Trotterisation: 5
Graph Size: 8
Num Qubits: 16
Space Dimension: 65536
Run-Type: 0
Num_samples: 10
1 Isomorphic
Graph 1:
1 1 0 1 0 1 1 1 
0 0 1 0 1 0 1 1 
1 1 1 1 0 0 1 1 
1 0 0 1 0 0 0 1 
0 1 1 1 0 0 0 1 
0 0 0 0 0 1 0 0 
0 0 1 1 1 0 1 0 
0 1 1 1 0 0 1 0 
Graph 2:
1 1 0 1 0 1 1 1 
0 0 1 0 1 0 1 1 
1 1 1 1 0 0 1 1 
1 0 0 1 0 0 0 1 
0 1 1 1 0 0 0 1 
0 0 0 0 0 1 0 0 
0 0 1 1 1 0 1 0 
0 1 1 1 0 0 1 0 
Solution: 0 0
Gbest: -22.000000
Expectation: -37.337002
Final Parameters:
Gammas:
[ 3.481006 3.146727 3.091763 3.270882 4.632758 ]
Betas:
[ 2.543156 2.522944 2.731649 1.525145 1.409092 1.576767 ]
Aggregate results:
[ -1 17 11 13 15 19 9 23 21 25 27 31 29 35 33 37 39 41 43 5 45 63 ]
[ 0.000071 0.009082 0.000952 0.002175 0.003412 0.020002 0.000460 0.050458 0.032069 0.073670 0.111270 0.138355 0.142170 0.053844 0.092990 0.029803 0.016155 0.004499 0.000962 0.000057 0.000040 0.217505 ]
5
Num Evals 800
GenUC: 3.528701e-03
GenUB: 1.729216e-02
Optimisation 3.566664e+02
Total Time: 3.571292e+02
2 Flipped
Graph 1:
1 1 0 1 0 1 1 1 
0 0 1 0 1 0 1 1 
1 1 1 1 0 0 1 1 
1 0 0 1 0 0 0 1 
0 1 1 1 0 0 0 1 
0 0 0 0 0 1 0 0 
0 0 1 1 1 0 1 0 
0 1 1 1 0 0 1 0 
Graph 2:
1 1 1 0 1 0 1 1 
1 1 0 1 0 1 0 0 
1 1 0 0 1 1 1 1 
1 0 0 0 1 0 0 1 
1 0 0 0 1 1 1 0 
0 0 1 0 0 0 0 0 
0 1 0 1 1 1 0 0 
0 1 0 0 1 1 1 0 
Solution: -18 323
Gbest: -22.000000
Expectation: -36.757044
Final Parameters:
Gammas:
[ 3.196162 3.330076 3.970501 3.141250 0.884039 ]
Betas:
[ 2.411449 0.000000 2.617646 2.029198 2.673088 1.568359 ]
Aggregate results:
[ 35 29 27 31 39 33 25 23 21 19 37 41 17 43 47 45 63 ]
[ 0.105713 0.151297 0.098548 0.177095 0.024960 0.156040 0.051324 0.018782 0.004836 0.000679 0.055737 0.009022 0.000150 0.002322 0.000061 0.000403 0.143028 ]
5
Num Evals 1600
GenUC: 2.455373e-03
GenUB: 1.670341e-02
Optimisation 3.276632e+02
Total Time: 3.280812e+02
3 Add 8
Graph 1:
1 1 0 1 0 1 1 1 
0 0 1 0 1 0 1 1 
1 1 1 1 0 0 1 1 
1 0 0 1 0 0 0 1 
0 1 1 1 0 0 0 1 
0 0 0 0 0 1 0 0 
0 0 1 1 1 0 1 0 
0 1 1 1 0 0 1 0 
Graph 2:
1 1 1 1 1 1 1 1 
0 1 1 0 1 0 1 1 
1 1 1 1 1 0 1 1 
1 0 0 1 0 0 0 1 
0 1 1 1 0 0 0 1 
0 0 0 0 1 1 1 0 
0 0 1 1 1 0 1 0 
0 1 1 1 0 0 1 1 
Solution: -7 0
Gbest: -21.000000
Expectation: -29.388700
Final Parameters:
Gammas:
[ 3.199313 3.101927 3.285836 3.191519 2.926100 ]
Betas:
[ 2.978178 2.045275 1.728197 1.602648 3.027614 1.520184 ]
Aggregate results:
[ 6 18 20 12 22 14 16 24 26 30 28 32 34 36 38 40 42 44 46 10 63 ]
[ 0.000285 0.015088 0.036240 0.000623 0.077235 0.001901 0.005703 0.129584 0.180772 0.159542 0.189907 0.099103 0.045806 0.017848 0.006897 0.002792 0.000786 0.000134 0.000028 0.000104 0.029620 ]
5
Num Evals 2400
GenUC: 2.991730e-03
GenUB: 1.731314e-02
Optimisation 3.722769e+02
Total Time: 3.727623e+02
4 Rem 8
Graph 1:
1 1 0 1 0 1 1 1 
0 0 1 0 1 0 1 1 
1 1 1 1 0 0 1 1 
1 0 0 1 0 0 0 1 
0 1 1 1 0 0 0 1 
0 0 0 0 0 1 0 0 
0 0 1 1 1 0 1 0 
0 1 1 1 0 0 1 0 
Graph 2:
0 1 0 1 0 1 1 0 
0 0 0 0 1 0 1 1 
1 1 1 1 0 0 1 1 
1 0 0 1 0 0 0 0 
0 1 0 0 0 0 0 1 
0 0 0 0 0 1 0 0 
0 0 1 0 1 0 1 0 
0 1 1 1 0 0 1 0 
Solution: -7 0
Gbest: -25.000000
Expectation: -35.555488
Final Parameters:
Gammas:
[ 3.087582 3.340059 3.317599 3.313026 5.448832 ]
Betas:
[ 2.580331 2.161298 1.165522 1.433718 1.810061 1.652709 ]
Aggregate results:
[ 6 20 18 24 16 22 14 26 30 28 32 36 34 42 40 38 12 44 10 46 63 ]
[ 0.000156 0.023632 0.009568 0.081334 0.002974 0.049089 0.001235 0.105750 0.117519 0.118421 0.103664 0.076449 0.098235 0.003728 0.015762 0.042879 0.000331 0.000428 0.000075 0.000001 0.148770 ]
5
Num Evals 3200
GenUC: 2.893343e-03
GenUB: 1.707077e-02
Optimisation 3.301200e+02
Total Time: 3.305540e+02
5 Add/Rem 8
Graph 1:
1 1 0 1 0 1 1 1 
0 0 1 0 1 0 1 1 
1 1 1 1 0 0 1 1 
1 0 0 1 0 0 0 1 
0 1 1 1 0 0 0 1 
0 0 0 0 0 1 0 0 
0 0 1 1 1 0 1 0 
0 1 1 1 0 0 1 0 
Graph 2:
1 0 0 1 1 1 1 0 
0 0 0 1 0 0 0 1 
1 1 1 1 0 0 1 1 
1 0 0 0 0 1 0 1 
0 1 1 1 0 0 0 1 
0 0 0 0 1 1 1 0 
0 1 1 1 0 1 0 0 
0 1 1 1 0 0 1 1 
Solution: -16 0
Gbest: -28.000000
Expectation: -33.462270
Final Parameters:
Gammas:
[ 3.188193 4.225706 3.150705 3.141593 0.828814 ]
Betas:
[ 2.602330 2.619396 0.007129 1.690912 3.010554 1.570796 ]
Aggregate results:
[ 15 23 25 19 29 27 21 17 33 31 35 37 39 41 43 45 63 ]
[ 0.000066 0.026038 0.064054 0.001619 0.169560 0.117309 0.008016 0.000608 0.169321 0.189226 0.112815 0.060517 0.023863 0.007421 0.001377 0.000238 0.047951 ]
5
Num Evals 4000
GenUC: 2.787357e-03
GenUB: 1.712215e-02
Optimisation 3.367087e+02
Total Time: 3.371375e+02
