Clock Speed: 3.689493
Num threads: 4
Trotterisation: 6
Num Qubits: 3
Space Dimension: 8
Run-Type: 0
Num_samples: 3
Optimiser Method: 0
1 Isomorphic
Graph 1:
0 1 0 
1 0 1 
0 1 0 
Graph 2:
0 1 0 
1 0 1 
0 1 0 
Solution: 9 0
Classic Expectation: 6.333333
Initial Expecation: 4.750000
Gbest: 9.000000
Expectation: 8.657251
Final Parameters:
Gammas:
[ 1.136260 3.411652 3.256511 3.178941 3.230655 3.181814 ]
Betas:
[ 0.582495 1.514773 1.631129 1.566487 1.975885 1.626819 ]
Aggregate results:
[ 9 5 0 ]
[ 0.941164 0.037356 0.021481 ]
5
Num Evals 3600
GenUC: 2.749875e-06
GenUB: 6.365321e-06
Optimisation 5.137629e+01
Total Time: 5.137633e+01
2 Flipped
Graph 1:
0 1 0 
1 0 1 
0 1 0 
Graph 2:
0 1 0 
1 0 1 
0 1 0 
Solution: 9 0
Classic Expectation: 6.333333
Initial Expecation: 4.750000
Gbest: 9.000000
Expectation: 8.657251
Final Parameters:
Gammas:
[ 1.136260 3.411652 3.256511 3.178941 3.230655 3.181814 ]
Betas:
[ 0.582495 1.514773 1.631129 1.566487 1.975885 1.626819 ]
Aggregate results:
[ 9 5 0 ]
[ 0.941164 0.037356 0.021481 ]
5
Num Evals 3600
GenUC: 2.664790e-06
GenUB: 9.606374e-07
Optimisation 4.792335e+01
Total Time: 4.792336e+01
3 Add 3
Graph 1:
0 1 0 
1 0 1 
0 1 0 
Graph 2:
1 1 1 
1 1 1 
1 1 0 
Solution: 5 0
Classic Expectation: 5.000000
Initial Expecation: 3.750000
Gbest: 5.000000
Expectation: 4.999999
Final Parameters:
Gammas:
[ 3.141593 3.141593 1.047198 2.908882 3.072641 2.262464 ]
Betas:
[ 0.576749 1.609581 0.627026 1.338086 1.644057 1.570796 ]
Aggregate results:
[ 5 0 ]
[ 1.000000 0.000000 ]
5
Num Evals 3600
GenUC: 2.720531e-06
GenUB: 9.494906e-07
Optimisation 4.313935e+01
Total Time: 4.313936e+01
4 Rem 3
Graph 1:
0 1 0 
1 0 1 
0 1 0 
Graph 2:
0 0 0 
0 0 0 
0 0 0 
Solution: 5 0
Classic Expectation: 5.000000
Initial Expecation: 3.750000
Gbest: 5.000000
Expectation: 4.999999
Final Parameters:
Gammas:
[ 3.141593 3.141593 1.047198 2.908882 3.072641 2.262464 ]
Betas:
[ 0.576749 1.609581 0.627026 1.338086 1.644057 1.570796 ]
Aggregate results:
[ 5 0 ]
[ 1.000000 0.000000 ]
5
Num Evals 3600
GenUC: 2.992238e-06
GenUB: 1.074484e-06
Optimisation 4.596706e+01
Total Time: 4.596706e+01
5 Add/Rem 3
Graph 1:
0 1 0 
1 0 1 
0 1 0 
Graph 2:
1 0 1 
0 1 0 
1 0 0 
Solution: 5 1
Classic Expectation: 3.666667
Initial Expecation: 2.750000
Gbest: 5.000000
Expectation: 4.985277
Final Parameters:
Gammas:
[ 3.223455 5.231732 0.961966 1.163535 6.015946 2.327159 ]
Betas:
[ 2.094369 2.758078 0.543018 1.939228 1.628947 1.117346 ]
Aggregate results:
[ 1 5 0 ]
[ 0.000534 0.996948 0.002517 ]
5
Num Evals 3600
GenUC: 2.929446e-06
GenUB: 9.084106e-07
Optimisation 5.105262e+01
Total Time: 5.105263e+01
