Clock Speed: 3.688864
Num threads: 4
Trotterisation: 6
Num Qubits: 3
Space Dimension: 8
Run-Type: 0
Num_samples: 3
Optimiser Method: 0
1 Isomorphic
Graph 1:
0 1 0 
1 0 0 
0 0 0 
Graph 2:
0 1 0 
1 0 0 
0 0 0 
Solution: 9 0
Classic Expectation: 6.333333
Initial Expecation: 4.750000
Gbest: 9.000000
Expectation: 6.999952
Final Parameters:
Gammas:
[ 3.141593 5.235988 3.141593 2.434842 1.745329 2.816947 ]
Betas:
[ 1.221730 1.615327 1.007694 1.609581 1.833673 1.745090 ]
Aggregate results:
[ 9 5 0 ]
[ 0.499992 0.500005 0.000003 ]
5
Num Evals 3600
GenUC: 2.734072e-06
GenUB: 7.649418e-06
Optimisation 1.232084e+00
Total Time: 1.232123e+00
2 Flipped
Graph 1:
0 1 0 
1 0 0 
0 0 0 
Graph 2:
0 1 0 
0 0 1 
0 0 0 
Solution: 7 0
Classic Expectation: 6.333333
Initial Expecation: 4.750000
Gbest: 7.000000
Expectation: 6.983774
Final Parameters:
Gammas:
[ 5.197256 5.197681 5.237371 4.033668 2.249482 3.884202 ]
Betas:
[ 2.223705 1.240671 2.671835 1.726203 1.504026 1.572446 ]
Aggregate results:
[ 7 5 0 ]
[ 0.992114 0.007795 0.000091 ]
5
Num Evals 3600
GenUC: 2.828601e-06
GenUB: 1.036387e-06
Optimisation 1.287893e+00
Total Time: 1.287900e+00
3 Add 3
Graph 1:
0 1 0 
1 0 0 
0 0 0 
Graph 2:
1 1 1 
1 1 0 
1 0 0 
Solution: 5 0
Classic Expectation: 3.666667
Initial Expecation: 2.750000
Gbest: 5.000000
Expectation: 4.865269
Final Parameters:
Gammas:
[ 5.343718 1.085977 1.008418 1.400797 5.290621 6.283179 ]
Betas:
[ 1.628965 2.637378 1.396255 1.512628 1.047206 1.551413 ]
Aggregate results:
[ 5 1 0 ]
[ 0.967871 0.025915 0.006214 ]
5
Num Evals 3600
GenUC: 2.781628e-06
GenUB: 9.025680e-07
Optimisation 1.257414e+00
Total Time: 1.257421e+00
4 Rem 3
Graph 1:
0 1 0 
1 0 0 
0 0 0 
Graph 2:
0 0 0 
0 0 0 
0 0 0 
Solution: 7 0
Classic Expectation: 7.000000
Initial Expecation: 5.250000
Gbest: 7.000000
Expectation: 7.000000
Final Parameters:
Gammas:
[ 3.141597 5.235988 3.140635 3.141593 3.219163 3.141699 ]
Betas:
[ 0.484865 1.570743 1.570796 1.454441 1.208802 0.523599 ]
Aggregate results:
[ 7 0 ]
[ 1.000000 0.000000 ]
5
Num Evals 3600
GenUC: 2.846762e-06
GenUB: 8.573988e-07
Optimisation 1.183548e+00
Total Time: 1.183555e+00
5 Add/Rem 3
Graph 1:
0 1 0 
1 0 0 
0 0 0 
Graph 2:
1 0 1 
0 1 0 
1 0 0 
Solution: 7 1
Classic Expectation: 4.333333
Initial Expecation: 3.250000
Gbest: 7.000000
Expectation: 6.964849
Final Parameters:
Gammas:
[ 5.312600 2.793006 3.427932 2.650315 3.145423 3.831105 ]
Betas:
[ 0.619843 0.368458 0.634208 1.674223 2.231579 1.681406 ]
Aggregate results:
[ 3 7 0 ]
[ 0.008251 0.991442 0.000307 ]
5
Num Evals 3600
GenUC: 2.874935e-06
GenUB: 8.585048e-07
Optimisation 1.201295e+00
Total Time: 1.201302e+00
