Clock Speed: 3.689041
Num threads: 4
Trotterisation: 4
Num Qubits: 7
Space Dimension: 128
Run-Type: 0
Num_samples: 15624
Optimiser Method: 20
1 Isomorphic
Graph 1:
0 1 1 1 0 
0 0 0 1 1 
1 0 0 1 1 
0 1 1 0 1 
1 0 1 0 1 
Graph 2:
0 1 1 1 0 
0 0 0 1 1 
1 0 0 1 1 
0 1 1 0 1 
1 0 1 0 1 
Solution: 25 0
Classic Expectation: 14.300000
Initial Expecation: 13.406250
Gbest: 25.000000
Expectation: 14.723709
Final Parameters:
Gammas:
[ 2.910119 4.961873 1.009081 3.747450 ]
Betas:
[ 2.517577 1.999450 1.727266 3.021135 ]
Aggregate results:
[ 25 15 17 13 21 11 19 9 0 ]
[ 0.005821 0.433224 0.113438 0.259751 0.043084 0.064761 0.056769 0.008763 0.014389 ]
5
Num Evals 4000
GenUC: 4.115206e-05
GenUB: 1.291517e-05
Optimisation 3.255837e+00
Total Time: 3.255918e+00
2 Flipped
Graph 1:
0 1 1 1 0 
0 0 0 1 1 
1 0 0 1 1 
0 1 1 0 1 
1 0 1 0 1 
Graph 2:
0 1 1 1 0 
1 1 0 0 0 
1 1 0 0 1 
1 0 1 1 0 
1 0 1 0 1 
Solution: 19 91
Classic Expectation: 12.500000
Initial Expecation: 11.718750
Gbest: 19.000000
Expectation: 12.566174
Final Parameters:
Gammas:
[ 4.487689 2.418464 2.578324 3.050079 ]
Betas:
[ 1.169075 0.881514 0.975156 3.024119 ]
Aggregate results:
[ 15 13 9 11 7 17 19 0 ]
[ 0.283143 0.283118 0.125156 0.218973 0.010698 0.056380 0.003686 0.018846 ]
5
Num Evals 4000
GenUC: 4.484918e-05
GenUB: 2.799206e-06
Optimisation 2.439589e+00
Total Time: 2.439640e+00
3 Add 5
Graph 1:
0 1 1 1 0 
0 0 0 1 1 
1 0 0 1 1 
0 1 1 0 1 
1 0 1 0 1 
Graph 2:
1 1 1 1 0 
0 0 0 1 1 
1 1 0 1 1 
1 1 1 1 1 
1 0 1 0 1 
Solution: 21 0
Classic Expectation: 13.700000
Initial Expecation: 12.843750
Gbest: 21.000000
Expectation: 16.488802
Final Parameters:
Gammas:
[ 3.384822 3.394395 6.169264 5.966364 ]
Betas:
[ 0.301064 0.370312 1.390139 1.550583 ]
Aggregate results:
[ 21 15 17 11 13 9 19 0 ]
[ 0.080042 0.242012 0.389635 0.022300 0.099852 0.004596 0.156275 0.005289 ]
5
Num Evals 4000
GenUC: 4.503992e-05
GenUB: 2.687681e-06
Optimisation 1.700216e+00
Total Time: 1.700266e+00
4 Rem 5
Graph 1:
0 1 1 1 0 
0 0 0 1 1 
1 0 0 1 1 
0 1 1 0 1 
1 0 1 0 1 
Graph 2:
0 1 1 0 0 
0 0 0 1 1 
0 0 0 0 0 
0 1 1 0 1 
1 0 0 0 1 
Solution: 20 0
Classic Expectation: 12.800000
Initial Expecation: 12.000000
Gbest: 20.000000
Expectation: 14.420398
Final Parameters:
Gammas:
[ 0.164445 5.579706 6.283185 3.498863 ]
Betas:
[ 0.095682 1.493089 1.602066 2.978903 ]
Aggregate results:
[ 20 12 16 10 14 18 8 6 0 ]
[ 0.055576 0.222757 0.243262 0.033522 0.337787 0.092180 0.002478 0.000051 0.012387 ]
5
Num Evals 4000
GenUC: 4.464667e-05
GenUB: 2.702931e-06
Optimisation 2.096628e+00
Total Time: 2.096678e+00
5 Add/Rem 5
Graph 1:
0 1 1 1 0 
0 0 0 1 1 
1 0 0 1 1 
0 1 1 0 1 
1 0 1 0 1 
Graph 2:
0 1 0 0 0 
1 0 0 1 1 
1 1 1 1 1 
0 1 0 0 1 
1 1 0 1 1 
Solution: 18 6
Classic Expectation: 13.700000
Initial Expecation: 12.843750
Gbest: 18.000000
Expectation: 14.901273
Final Parameters:
Gammas:
[ 2.571112 5.377353 4.024617 5.842813 ]
Betas:
[ 2.105081 0.050191 2.314148 1.558482 ]
Aggregate results:
[ 16 12 14 18 10 0 ]
[ 0.399501 0.069818 0.401370 0.108108 0.010633 0.010571 ]
5
Num Evals 4000
GenUC: 4.466309e-05
GenUB: 2.759276e-06
Optimisation 2.138981e+00
Total Time: 2.139031e+00
