Clock Speed: 3.689022
Num threads: 4
Trotterisation: 5
Graph Size: 5
Num Qubits: 7
Space Dimension: 128
Run-Type: 0
Num_samples: 10
1 Isomorphic
Graph 1:
1 0 0 1 0 
0 1 0 1 1 
0 1 1 1 1 
0 0 0 0 0 
1 0 0 1 0 
Graph 2:
1 0 0 1 0 
0 1 0 1 1 
0 1 1 1 1 
0 0 0 0 0 
1 0 0 1 0 
Solution: 0 0
Gbest: -6.000000
Expectation: -11.347899
Final Parameters:
Gammas:
[ 2.981355 6.127856 6.120479 5.378219 0.021651 ]
Betas:
[ 1.136284 1.965149 0.085790 1.717682 2.529630 2.168118 ]
Aggregate results:
[ -1 5 1 13 15 11 17 9 7 19 24 ]
[ 0.082021 0.163525 0.040691 0.085600 0.038384 0.155399 0.028927 0.130472 0.122084 0.003291 0.149605 ]
5
Num Evals 500
GenUC: 2.239937e-04
GenUB: 2.895272e-05
Optimisation 3.412039e-01
Total Time: 3.421608e-01
2 Flipped
Graph 1:
1 0 0 1 0 
0 1 0 1 1 
0 1 1 1 1 
0 0 0 0 0 
1 0 0 1 0 
Graph 2:
0 1 0 0 1 
1 1 0 1 0 
1 1 1 1 0 
0 0 0 0 0 
0 1 0 0 1 
Solution: -4 119
Gbest: -8.000000
Expectation: -10.993265
Final Parameters:
Gammas:
[ 4.523257 3.138069 4.103117 0.607264 2.970298 ]
Betas:
[ 1.499349 1.301804 1.559248 3.065422 0.269777 0.132293 ]
Aggregate results:
[ 11 7 9 13 15 17 19 5 3 24 ]
[ 0.185059 0.181085 0.303124 0.107005 0.046563 0.021414 0.003713 0.079077 0.033743 0.039216 ]
5
Num Evals 1000
GenUC: 2.516247e-05
GenUB: 1.787394e-05
Optimisation 3.414014e-01
Total Time: 3.422052e-01
3 Add 5
Graph 1:
1 0 0 1 0 
0 1 0 1 1 
0 1 1 1 1 
0 0 0 0 0 
1 0 0 1 0 
Graph 2:
1 0 1 1 0 
0 1 0 1 1 
0 1 1 1 1 
1 1 0 0 0 
1 1 0 1 0 
Solution: -4 0
Gbest: -8.000000
Expectation: -11.693097
Final Parameters:
Gammas:
[ 6.095508 3.251582 5.004158 5.181238 1.572111 ]
Betas:
[ 0.183914 0.222648 0.011099 1.514451 0.107684 1.430395 ]
Aggregate results:
[ 3 7 9 5 15 13 11 17 24 ]
[ 0.028312 0.131801 0.268387 0.022429 0.084921 0.138826 0.276317 0.019468 0.029538 ]
5
Num Evals 1500
GenUC: 2.563419e-05
GenUB: 1.801830e-05
Optimisation 3.421032e-01
Total Time: 3.425783e-01
4 Rem 5
Graph 1:
1 0 0 1 0 
0 1 0 1 1 
0 1 1 1 1 
0 0 0 0 0 
1 0 0 1 0 
Graph 2:
0 0 0 1 0 
0 1 0 0 1 
0 1 0 1 1 
0 0 0 0 0 
1 0 0 1 0 
Solution: -3 0
Gbest: -7.000000
Expectation: -11.920144
Final Parameters:
Gammas:
[ 0.784669 3.056781 2.525790 0.037092 5.349187 ]
Betas:
[ 0.836396 1.828051 1.387025 2.306259 0.711903 3.060090 ]
Aggregate results:
[ 2 8 4 12 14 16 10 6 18 24 ]
[ 0.026162 0.244386 0.019006 0.293088 0.085915 0.025178 0.177855 0.063188 0.001500 0.063721 ]
5
Num Evals 2000
GenUC: 2.303987e-05
GenUB: 1.721142e-05
Optimisation 4.142742e-01
Total Time: 4.150242e-01
5 Add/Rem 5
Graph 1:
1 0 0 1 0 
0 1 0 1 1 
0 1 1 1 1 
0 0 0 0 0 
1 0 0 1 0 
Graph 2:
0 0 0 1 0 
0 1 0 0 0 
1 1 0 1 1 
0 1 1 0 1 
1 0 0 1 0 
Solution: -8 0
Gbest: -10.000000
Expectation: -12.486272
Final Parameters:
Gammas:
[ 2.092452 1.452670 0.021195 3.184488 3.785206 ]
Betas:
[ 0.444981 0.232317 0.380718 2.740633 1.303745 1.802920 ]
Aggregate results:
[ 7 9 13 11 15 19 17 24 ]
[ 0.069949 0.308963 0.178232 0.278758 0.102773 0.000510 0.025463 0.035352 ]
5
Num Evals 2500
GenUC: 2.336316e-05
GenUB: 1.822482e-05
Optimisation 3.996674e-01
Total Time: 4.002946e-01
