Clock Speed: 3.689348
Num threads: 4
Trotterisation: 1
Num Qubits: 10
Space Dimension: 1024
Run-Type: 0
Num_samples: 32399
Optimiser Method: 28
1 Isomorphic
Graph 1:
1 1 1 1 1 1 
0 0 0 1 0 1 
1 0 0 1 1 0 
0 1 0 0 0 0 
1 0 1 0 1 0 
1 1 0 1 0 1 
Graph 2:
1 1 1 1 1 1 
0 0 0 1 0 1 
1 0 0 1 1 0 
0 1 0 0 0 0 
1 0 1 0 1 0 
1 1 0 1 0 1 
Solution: 36 0
Classic Expectation: 18.066667
Initial Expecation: 12.703125
Gbest: 36.000000
Expectation: 13.546836
Final Parameters:
Gammas:
[ 5.005704 ]
Betas:
[ 2.614327 ]
Aggregate results:
[ 36 26 24 22 28 20 32 18 30 16 14 12 10 0 ]
[ 0.000411 0.016964 0.040975 0.106581 0.002374 0.106741 0.000690 0.155091 0.006344 0.160745 0.100229 0.048512 0.000024 0.254321 ]
3
Num Evals 77
GenUC: 2.602727e-04
GenUB: 8.988953e-05
Optimisation 5.547063e-02
Total Time: 5.584214e-02
2 Flipped
Graph 1:
1 1 1 1 1 1 
0 0 0 1 0 1 
1 0 0 1 1 0 
0 1 0 0 0 0 
1 0 1 0 1 0 
1 1 0 1 0 1 
Graph 2:
1 1 1 1 1 1 
1 0 1 0 0 0 
0 1 1 0 0 1 
0 0 0 0 1 0 
0 1 0 1 0 1 
1 0 1 0 1 1 
Solution: 30 74
Classic Expectation: 18.066667
Initial Expecation: 12.703125
Gbest: 30.000000
Expectation: 13.370045
Final Parameters:
Gammas:
[ 4.357740 ]
Betas:
[ 2.502384 ]
Aggregate results:
[ 14 22 18 16 12 24 20 26 28 30 10 8 6 0 ]
[ 0.080290 0.077682 0.152152 0.146625 0.039451 0.041401 0.148959 0.021778 0.002798 0.001651 0.021387 0.009821 0.003250 0.252756 ]
3
Num Evals 76
GenUC: 2.955605e-04
GenUB: 4.897048e-05
Optimisation 5.216433e-02
Total Time: 5.251046e-02
3 Add 6
Graph 1:
1 1 1 1 1 1 
0 0 0 1 0 1 
1 0 0 1 1 0 
0 1 0 0 0 0 
1 0 1 0 1 0 
1 1 0 1 0 1 
Graph 2:
1 1 1 1 1 1 
0 0 0 1 1 1 
1 0 1 1 1 1 
0 1 0 0 0 0 
1 1 1 0 1 1 
1 1 1 1 0 1 
Solution: 30 0
Classic Expectation: 18.400000
Initial Expecation: 12.937500
Gbest: 30.000000
Expectation: 15.868451
Final Parameters:
Gammas:
[ 3.376702 ]
Betas:
[ 2.603071 ]
Aggregate results:
[ 30 28 22 24 18 20 26 16 14 12 10 8 0 ]
[ 0.000475 0.004709 0.134330 0.073574 0.187801 0.124339 0.020424 0.178629 0.086822 0.032477 0.011786 0.002740 0.141893 ]
3
Num Evals 89
GenUC: 2.988961e-04
GenUB: 5.164177e-05
Optimisation 6.245908e-02
Total Time: 6.281108e-02
4 Rem 6
Graph 1:
1 1 1 1 1 1 
0 0 0 1 0 1 
1 0 0 1 1 0 
0 1 0 0 0 0 
1 0 1 0 1 0 
1 1 0 1 0 1 
Graph 2:
1 1 0 1 1 0 
0 0 0 0 0 1 
1 0 0 1 1 0 
0 1 0 0 0 0 
1 0 1 0 1 0 
1 0 0 1 0 0 
Solution: 31 0
Classic Expectation: 17.800000
Initial Expecation: 12.515625
Gbest: 31.000000
Expectation: 14.600280
Final Parameters:
Gammas:
[ 3.576583 ]
Betas:
[ 2.639303 ]
Aggregate results:
[ 31 23 21 19 25 27 17 15 13 11 0 ]
[ 0.001013 0.057685 0.138440 0.175810 0.019739 0.007194 0.182481 0.139020 0.077943 0.009643 0.191034 ]
3
Num Evals 94
GenUC: 2.963246e-04
GenUB: 5.073451e-05
Optimisation 6.529436e-02
Total Time: 6.564277e-02
5 Add/Rem 6
Graph 1:
1 1 1 1 1 1 
0 0 0 1 0 1 
1 0 0 1 1 0 
0 1 0 0 0 0 
1 0 1 0 1 0 
1 1 0 1 0 1 
Graph 2:
0 1 1 1 1 0 
0 1 0 1 0 0 
1 0 1 1 1 0 
1 1 0 0 0 0 
1 0 1 1 1 0 
1 1 1 1 0 0 
Solution: 27 0
Classic Expectation: 18.133333
Initial Expecation: 12.750000
Gbest: 27.000000
Expectation: 14.928192
Final Parameters:
Gammas:
[ 3.569161 ]
Betas:
[ 2.676710 ]
Aggregate results:
[ 27 23 17 19 21 25 15 13 11 0 ]
[ 0.006468 0.066374 0.196645 0.158269 0.172921 0.029516 0.120832 0.051667 0.002130 0.195175 ]
3
Num Evals 92
GenUC: 8.325670e-03
GenUB: 5.568684e-05
Optimisation 1.115369e-01
Total Time: 1.199202e-01
