Clock Speed: 3.689331
Num threads: 4
Trotterisation: 1
Num Qubits: 10
Space Dimension: 1024
Run-Type: 0
Num_samples: 32399
Optimiser Method: 28
1 Isomorphic
Graph 1:
0 0 1 1 1 1 
1 0 0 0 1 1 
1 1 1 0 0 0 
1 0 1 1 0 1 
1 1 1 1 1 0 
1 0 0 0 1 1 
Graph 2:
0 0 1 1 1 1 
1 0 0 0 1 1 
1 1 1 0 0 0 
1 0 1 1 0 1 
1 1 1 1 1 0 
1 0 0 0 1 1 
Solution: 36 0
Classic Expectation: 18.933333
Initial Expecation: 13.312500
Gbest: 36.000000
Expectation: 14.330840
Final Parameters:
Gammas:
[ 5.211479 ]
Betas:
[ 2.584237 ]
Aggregate results:
[ 36 26 30 22 24 28 14 18 20 16 12 8 0 ]
[ 0.000380 0.029359 0.001425 0.095132 0.047681 0.000458 0.042081 0.226718 0.160893 0.140673 0.009896 0.000446 0.244859 ]
3
Num Evals 78
GenUC: 2.597623e-04
GenUB: 9.204795e-05
Optimisation 5.570843e-02
Total Time: 5.607954e-02
2 Flipped
Graph 1:
0 0 1 1 1 1 
1 0 0 0 1 1 
1 1 1 0 0 0 
1 0 1 1 0 1 
1 1 1 1 1 0 
1 0 0 0 1 1 
Graph 2:
1 1 1 1 0 0 
1 1 0 0 0 1 
0 0 0 1 1 1 
1 0 1 1 0 1 
0 1 1 1 1 1 
1 1 0 0 0 1 
Solution: 26 148
Classic Expectation: 19.066667
Initial Expecation: 13.406250
Gbest: 26.000000
Expectation: 15.866411
Final Parameters:
Gammas:
[ 5.877356 ]
Betas:
[ 2.911957 ]
Aggregate results:
[ 20 16 18 14 22 24 12 26 0 ]
[ 0.219506 0.059598 0.078856 0.036536 0.244227 0.088430 0.019581 0.033137 0.220131 ]
3
Num Evals 101
GenUC: 2.796226e-04
GenUB: 4.896403e-05
Optimisation 1.252999e-01
Total Time: 1.256300e-01
3 Add 6
Graph 1:
0 0 1 1 1 1 
1 0 0 0 1 1 
1 1 1 0 0 0 
1 0 1 1 0 1 
1 1 1 1 1 0 
1 0 0 0 1 1 
Graph 2:
0 0 1 1 1 1 
1 0 1 1 1 1 
1 1 1 0 1 0 
1 0 1 1 0 1 
1 1 1 1 1 0 
1 1 0 0 1 1 
Solution: 32 0
Classic Expectation: 19.733333
Initial Expecation: 13.875000
Gbest: 32.000000
Expectation: 17.662336
Final Parameters:
Gammas:
[ 6.195457 ]
Betas:
[ 2.547996 ]
Aggregate results:
[ 32 24 30 28 26 22 16 20 18 14 12 0 ]
[ 0.001327 0.089787 0.002110 0.010166 0.019493 0.155956 0.107595 0.236892 0.239497 0.026201 0.003503 0.107472 ]
3
Num Evals 99
GenUC: 2.798650e-04
GenUB: 5.092819e-05
Optimisation 7.095455e-02
Total Time: 7.128673e-02
4 Rem 6
Graph 1:
0 0 1 1 1 1 
1 0 0 0 1 1 
1 1 1 0 0 0 
1 0 1 1 0 1 
1 1 1 1 1 0 
1 0 0 0 1 1 
Graph 2:
0 0 1 0 1 1 
1 0 0 0 1 1 
0 1 0 0 0 0 
1 0 1 1 0 1 
0 1 1 1 1 0 
0 0 0 0 1 0 
Solution: 30 0
Classic Expectation: 17.466667
Initial Expecation: 12.281250
Gbest: 30.000000
Expectation: 13.116434
Final Parameters:
Gammas:
[ 4.974470 ]
Betas:
[ 2.574906 ]
Aggregate results:
[ 30 20 24 16 18 22 10 14 12 8 28 0 ]
[ 0.000453 0.160004 0.021579 0.145812 0.202392 0.066358 0.006741 0.095756 0.037228 0.002187 0.002740 0.258750 ]
3
Num Evals 73
GenUC: 2.814506e-04
GenUB: 5.075976e-05
Optimisation 5.159744e-02
Total Time: 5.193109e-02
5 Add/Rem 6
Graph 1:
0 0 1 1 1 1 
1 0 0 0 1 1 
1 1 1 0 0 0 
1 0 1 1 0 1 
1 1 1 1 1 0 
1 0 0 0 1 1 
Graph 2:
0 0 1 1 1 0 
1 0 1 0 1 1 
1 1 0 0 0 1 
1 1 1 0 1 1 
1 0 1 1 1 0 
1 0 0 1 0 1 
Solution: 28 378
Classic Expectation: 18.666667
Initial Expecation: 13.125000
Gbest: 28.000000
Expectation: 13.853796
Final Parameters:
Gammas:
[ 4.992277 ]
Betas:
[ 2.690850 ]
Aggregate results:
[ 26 24 22 20 16 18 14 12 28 10 0 ]
[ 0.008179 0.056005 0.095134 0.178947 0.098704 0.192631 0.097822 0.015456 0.000736 0.000290 0.256095 ]
3
Num Evals 74
GenUC: 2.826114e-04
GenUB: 4.958432e-05
Optimisation 5.410898e-02
Total Time: 5.444249e-02
