Clock Speed: 3.687989
Num threads: 4
Trotterisation: 5
Graph Size: 4
Num Qubits: 5
Space Dimension: 32
Run-Type: 0
Num_samples: 10
1 Isomorphic
Graph 1:
1 0 0 0 
0 1 1 1 
0 0 1 0 
0 0 0 1 
Graph 2:
1 0 0 0 
0 1 1 1 
0 0 1 0 
0 0 0 1 
Solution: 0 0
Gbest: 0.000000
Expectation: -2.561987
Final Parameters:
Gammas:
[ 3.457513 0.148808 5.740449 0.036962 2.542417 ]
Betas:
[ 1.356498 0.038949 0.084475 0.233139 0.144614 0.331672 ]
Aggregate results:
[ -1 3 1 15 ]
[ 0.244101 0.251152 0.465612 0.039135 ]
5
Num Evals 400
GenUC: 1.800722e-04
GenUB: 1.172151e-05
Optimisation 1.550937e-01
Total Time: 1.555556e-01
2 Flipped
Graph 1:
1 0 0 0 
0 1 1 1 
0 0 1 0 
0 0 0 1 
Graph 2:
0 0 0 1 
1 1 1 0 
0 1 0 0 
1 0 0 0 
Solution: -6 6
Gbest: -6.000000
Expectation: -8.432302
Final Parameters:
Gammas:
[ 0.060221 6.025503 3.235371 3.538329 4.057025 ]
Betas:
[ 1.991423 1.876040 0.194231 1.733242 1.686680 0.122850 ]
Aggregate results:
[ 7 9 5 15 ]
[ 0.692741 0.170324 0.100382 0.036552 ]
5
Num Evals 800
GenUC: 1.054362e-05
GenUB: 8.409959e-06
Optimisation 1.669651e-01
Total Time: 1.673515e-01
3 Add 4
Graph 1:
1 0 0 0 
0 1 1 1 
0 0 1 0 
0 0 0 1 
Graph 2:
1 0 0 0 
0 1 1 1 
1 0 1 0 
0 1 1 1 
Solution: -3 0
Gbest: -3.000000
Expectation: -5.229298
Final Parameters:
Gammas:
[ 3.540775 3.400106 3.371290 0.209456 4.435023 ]
Betas:
[ 0.226162 1.893860 2.356242 0.091715 1.689737 0.061848 ]
Aggregate results:
[ 2 6 4 15 ]
[ 0.405804 0.050883 0.457936 0.085376 ]
5
Num Evals 1200
GenUC: 1.130428e-05
GenUB: 8.062576e-06
Optimisation 1.482375e-01
Total Time: 1.485864e-01
4 Rem 4
Graph 1:
1 0 0 0 
0 1 1 1 
0 0 1 0 
0 0 0 1 
Graph 2:
1 0 0 0 
0 1 0 1 
0 0 0 0 
0 0 0 0 
Solution: -3 0
Gbest: -3.000000
Expectation: -5.029513
Final Parameters:
Gammas:
[ 0.121412 3.216074 3.214435 0.394212 0.504744 ]
Betas:
[ 0.370256 0.050413 0.272923 0.102874 2.523960 0.423989 ]
Aggregate results:
[ 2 4 15 ]
[ 0.097614 0.881955 0.020431 ]
5
Num Evals 1600
GenUC: 1.025910e-05
GenUB: 8.586096e-06
Optimisation 1.558756e-01
Total Time: 1.561859e-01
5 Add/Rem 4
Graph 1:
1 0 0 0 
0 1 1 1 
0 0 1 0 
0 0 0 1 
Graph 2:
0 1 0 0 
0 0 1 1 
1 0 0 1 
0 0 0 1 
Solution: -6 0
Gbest: -6.000000
Expectation: -8.270270
Final Parameters:
Gammas:
[ 2.644515 4.318151 2.193015 0.157741 0.706252 ]
Betas:
[ 0.858603 0.166147 1.593518 0.247257 0.650911 1.712991 ]
Aggregate results:
[ 5 9 7 15 ]
[ 0.409404 0.193800 0.309111 0.087685 ]
5
Num Evals 2000
GenUC: 1.139229e-05
GenUB: 8.791336e-06
Optimisation 1.589798e-01
Total Time: 1.593204e-01
