Clock Speed: 3.688375
Num threads: 4
Trotterisation: 5
Graph Size: 4
Num Qubits: 5
Space Dimension: 32
Run-Type: 0
Num_samples: 10
1 Isomorphic
Graph 1:
1 0 1 1 
1 0 0 0 
1 0 1 1 
0 0 0 1 
Graph 2:
1 0 1 1 
1 0 0 0 
1 0 1 1 
0 0 0 1 
Solution: 0 0
Gbest: 0.000000
Expectation: -6.667379
Final Parameters:
Gammas:
[ 0.313351 3.644234 1.204284 0.123437 1.164757 ]
Betas:
[ 0.196170 2.005373 0.249943 1.671168 1.837740 0.218511 ]
Aggregate results:
[ -1 9 7 5 1 11 3 15 ]
[ 0.142423 0.053442 0.311341 0.117237 0.181667 0.008168 0.041174 0.144548 ]
5
Num Evals 400
GenUC: 1.421718e-04
GenUB: 1.173379e-05
Optimisation 1.450309e-01
Total Time: 1.455372e-01
2 Flipped
Graph 1:
1 0 1 1 
1 0 0 0 
1 0 1 1 
0 0 0 1 
Graph 2:
1 1 0 1 
0 0 0 1 
1 1 0 1 
1 0 0 0 
Solution: -6 3
Gbest: -6.000000
Expectation: -8.298480
Final Parameters:
Gammas:
[ 3.184136 1.776660 6.189698 4.673126 0.059097 ]
Betas:
[ 0.335303 1.882359 1.651266 1.587864 0.170785 2.671722 ]
Aggregate results:
[ 7 9 5 11 15 ]
[ 0.325064 0.128369 0.420067 0.032531 0.093969 ]
5
Num Evals 800
GenUC: 1.053195e-05
GenUB: 8.207513e-06
Optimisation 1.759213e-01
Total Time: 1.763084e-01
3 Add 4
Graph 1:
1 0 1 1 
1 0 0 0 
1 0 1 1 
0 0 0 1 
Graph 2:
1 0 1 1 
1 0 1 1 
1 0 1 1 
0 0 1 1 
Solution: -3 0
Gbest: -3.000000
Expectation: -6.616313
Final Parameters:
Gammas:
[ 3.191129 2.277382 0.656283 3.948539 3.157470 ]
Betas:
[ 0.310095 1.640743 0.015766 1.832886 1.847583 1.772600 ]
Aggregate results:
[ 2 8 6 4 10 15 ]
[ 0.353271 0.135054 0.166532 0.175390 0.083541 0.086211 ]
5
Num Evals 1200
GenUC: 3.586101e-05
GenUB: 8.916395e-06
Optimisation 1.504695e-01
Total Time: 1.508748e-01
4 Rem 4
Graph 1:
1 0 1 1 
1 0 0 0 
1 0 1 1 
0 0 0 1 
Graph 2:
1 0 1 0 
1 0 0 0 
0 0 0 1 
0 0 0 1 
Solution: -3 0
Gbest: -3.000000
Expectation: -6.788815
Final Parameters:
Gammas:
[ 0.261770 3.397380 0.204409 0.094665 0.675163 ]
Betas:
[ 0.027985 1.770477 0.885410 2.945536 0.064860 0.126669 ]
Aggregate results:
[ 2 8 6 4 10 15 ]
[ 0.193561 0.102477 0.528134 0.108045 0.007172 0.060612 ]
5
Num Evals 1600
GenUC: 1.042575e-05
GenUB: 8.365925e-06
Optimisation 1.481573e-01
Total Time: 1.484990e-01
5 Add/Rem 4
Graph 1:
1 0 1 1 
1 0 0 0 
1 0 1 1 
0 0 0 1 
Graph 2:
1 0 1 0 
0 1 1 1 
1 0 0 1 
0 0 0 1 
Solution: -4 2
Gbest: -4.000000
Expectation: -7.433547
Final Parameters:
Gammas:
[ 3.166969 0.648249 3.385026 1.318299 0.597008 ]
Betas:
[ 0.911991 0.326026 1.733096 2.108563 1.740181 1.648324 ]
Aggregate results:
[ 5 3 7 9 15 ]
[ 0.144936 0.231721 0.436200 0.141141 0.046003 ]
5
Num Evals 2000
GenUC: 1.047680e-05
GenUB: 8.189323e-06
Optimisation 1.625802e-01
Total Time: 1.629983e-01
