Clock Speed: 3.498887
Num threads: 16
Trotterisation: 1
Num Qubits: 10
Space Dimension: 1024
Run-Type: 0
Num_samples: 36
Optimiser Method: 0
1 Isomorphic
Graph 1:
0 0 1 1 1 1 
0 0 1 1 1 0 
1 1 0 1 0 0 
0 1 1 0 0 1 
1 1 1 0 1 1 
0 1 0 1 0 1 
Graph 2:
0 0 1 1 1 1 
0 0 1 1 1 0 
1 1 0 1 0 0 
0 1 1 0 0 1 
1 1 1 0 1 1 
0 1 0 1 0 1 
Solution: 36 0
Classic Expectation: 19.400000
Initial Expecation: 13.640625
Gbest: 30.000000
Expectation: 17.210444
Final Parameters:
Gammas:
[ 6.193661 ]
Betas:
[ 2.870097 ]
Aggregate results:
[ 36 24 28 22 26 20 30 18 16 12 14 10 0 ]
[ 0.003620 0.073963 0.020883 0.186399 0.050929 0.188475 0.011437 0.175591 0.079670 0.006665 0.045411 0.003167 0.153791 ]
3
Num Evals 321
GenUC: 3.311615e-04
GenUB: 1.598173e-04
Optimisation 4.108582e-01
Total Time: 4.113581e-01
2 Flipped
Graph 1:
0 0 1 1 1 1 
0 0 1 1 1 0 
1 1 0 1 0 0 
0 1 1 0 0 1 
1 1 1 0 1 1 
0 1 0 1 0 1 
Graph 2:
1 1 1 1 0 0 
0 1 1 1 0 0 
0 0 1 0 1 1 
1 0 0 1 1 0 
1 1 0 1 1 1 
1 0 1 0 1 0 
Solution: 26 88
Classic Expectation: 17.600000
Initial Expecation: 12.375000
Gbest: 22.000000
Expectation: 13.050478
Final Parameters:
Gammas:
[ 5.235988 ]
Betas:
[ 0.523599 ]
Aggregate results:
[ 10 16 14 20 18 12 22 24 26 0 ]
[ 0.000168 0.156828 0.088111 0.176852 0.185627 0.039773 0.067603 0.016569 0.002517 0.265950 ]
3
Num Evals 13
GenUC: 3.592311e-04
GenUB: 1.314450e-04
Optimisation 1.444192e-02
Total Time: 1.493522e-02
3 Add 6
Graph 1:
0 0 1 1 1 1 
0 0 1 1 1 0 
1 1 0 1 0 0 
0 1 1 0 0 1 
1 1 1 0 1 1 
0 1 0 1 0 1 
Graph 2:
0 0 1 1 1 1 
0 1 1 1 1 1 
1 1 0 1 0 1 
0 1 1 0 0 1 
1 1 1 1 1 1 
0 1 0 1 1 1 
Solution: 31 0
Classic Expectation: 20.133333
Initial Expecation: 14.156250
Gbest: 27.000000
Expectation: 17.787398
Final Parameters:
Gammas:
[ 0.083220 ]
Betas:
[ 0.349065 ]
Aggregate results:
[ 31 25 21 23 27 19 17 15 13 0 ]
[ 0.002211 0.081222 0.226784 0.146339 0.020523 0.212466 0.126583 0.050646 0.004419 0.128806 ]
3
Num Evals 301
GenUC: 3.585583e-04
GenUB: 1.361528e-04
Optimisation 2.113183e-01
Total Time: 2.118150e-01
4 Rem 6
Graph 1:
0 0 1 1 1 1 
0 0 1 1 1 0 
1 1 0 1 0 0 
0 1 1 0 0 1 
1 1 1 0 1 1 
0 1 0 1 0 1 
Graph 2:
0 0 0 0 1 1 
0 0 1 0 1 0 
1 0 0 1 0 0 
0 1 0 0 0 1 
1 1 1 0 1 0 
0 1 0 1 0 1 
Solution: 30 0
Classic Expectation: 17.800000
Initial Expecation: 12.515625
Gbest: 24.000000
Expectation: 15.571341
Final Parameters:
Gammas:
[ 0.116355 ]
Betas:
[ 0.252103 ]
Aggregate results:
[ 30 20 22 16 26 18 24 14 12 8 10 0 ]
[ 0.003067 0.202094 0.135347 0.135716 0.014976 0.192806 0.053894 0.053344 0.024186 0.002062 0.008150 0.174359 ]
3
Num Evals 285
GenUC: 3.580418e-04
GenUB: 1.142411e-04
Optimisation 3.326212e-01
Total Time: 3.330954e-01
5 Add/Rem 6
Graph 1:
0 0 1 1 1 1 
0 0 1 1 1 0 
1 1 0 1 0 0 
0 1 1 0 0 1 
1 1 1 0 1 1 
0 1 0 1 0 1 
Graph 2:
0 1 1 1 1 0 
1 0 0 1 1 0 
1 1 0 1 1 1 
0 1 1 1 0 1 
1 0 0 0 0 0 
0 1 0 1 0 1 
Solution: 29 266
Classic Expectation: 19.133333
Initial Expecation: 13.453125
Gbest: 25.000000
Expectation: 14.111752
Final Parameters:
Gammas:
[ 1.745329 ]
Betas:
[ 2.617994 ]
Aggregate results:
[ 25 17 23 19 21 15 13 27 29 11 0 ]
[ 0.033766 0.155558 0.090789 0.189021 0.152413 0.087247 0.023301 0.002362 0.000535 0.004726 0.260282 ]
3
Num Evals 19
GenUC: 3.580316e-04
GenUB: 1.077494e-04
Optimisation 1.762711e-02
Total Time: 1.809490e-02
