Clock Speed: 3.498807
Num threads: 16
Trotterisation: 2
Num Qubits: 5
Space Dimension: 32
Run-Type: 0
Num_samples: 16
Optimiser Method: 0
1 Isomorphic
Graph 1:
1 1 1 0 
1 0 0 0 
0 0 1 1 
0 1 1 0 
Graph 2:
1 1 1 0 
1 0 0 0 
0 0 1 1 
0 1 1 0 
Solution: 16 0
Classic Expectation: 8.000000
Initial Expecation: 6.000000
Gbest: 12.000000
Expectation: 6.146484
Final Parameters:
Gammas:
[ 1.047198 1.047198 ]
Betas:
[ 0.523599 1.570796 ]
Aggregate results:
[ 16 10 6 8 2 12 0 ]
[ 0.003418 0.208618 0.407715 0.006348 0.054077 0.116699 0.203125 ]
3
Num Evals 15
GenUC: 9.596813e-06
GenUB: 1.568487e-05
Optimisation 1.160813e-03
Total Time: 1.194105e-03
2 Flipped
Graph 1:
1 1 1 0 
1 0 0 0 
0 0 1 1 
0 1 1 0 
Graph 2:
0 1 1 1 
0 0 0 1 
1 1 0 0 
0 1 1 0 
Solution: 12 2
Classic Expectation: 8.000000
Initial Expecation: 6.000000
Gbest: 10.000000
Expectation: 6.457031
Final Parameters:
Gammas:
[ 1.047198 3.141593 ]
Betas:
[ 2.617994 1.570796 ]
Aggregate results:
[ 8 12 10 6 4 0 ]
[ 0.430664 0.025879 0.187988 0.105957 0.046387 0.203125 ]
3
Num Evals 15
GenUC: 9.839423e-06
GenUB: 1.816079e-06
Optimisation 1.015782e-03
Total Time: 1.028941e-03
3 Add 4
Graph 1:
1 1 1 0 
1 0 0 0 
0 0 1 1 
0 1 1 0 
Graph 2:
1 1 1 1 
1 0 0 1 
0 0 1 1 
0 1 1 1 
Solution: 13 0
Classic Expectation: 8.000000
Initial Expecation: 6.000000
Gbest: 13.000000
Expectation: 6.871140
Final Parameters:
Gammas:
[ 3.141593 5.934119 ]
Betas:
[ 2.967060 2.617994 ]
Aggregate results:
[ 13 11 9 5 7 3 0 ]
[ 0.074040 0.253404 0.231916 0.037176 0.101445 0.045977 0.256042 ]
3
Num Evals 57
GenUC: 9.578653e-06
GenUB: 1.540873e-06
Optimisation 4.517787e-03
Total Time: 4.530007e-03
4 Rem 4
Graph 1:
1 1 1 0 
1 0 0 0 
0 0 1 1 
0 1 1 0 
Graph 2:
1 1 0 0 
1 0 0 0 
0 0 0 1 
0 0 0 0 
Solution: 12 0
Classic Expectation: 8.000000
Initial Expecation: 6.000000
Gbest: 10.000000
Expectation: 6.829102
Final Parameters:
Gammas:
[ 1.047198 5.235988 ]
Betas:
[ 0.523599 1.570796 ]
Aggregate results:
[ 12 8 6 10 4 0 ]
[ 0.187256 0.084717 0.268799 0.195557 0.083984 0.179687 ]
3
Num Evals 25
GenUC: 9.677373e-06
GenUB: 2.356712e-06
Optimisation 1.783589e-03
Total Time: 1.796913e-03
5 Add/Rem 4
Graph 1:
1 1 1 0 
1 0 0 0 
0 0 1 1 
0 1 1 0 
Graph 2:
1 1 0 0 
1 0 1 1 
1 0 0 0 
0 0 1 0 
Solution: 13 16
Classic Expectation: 8.000000
Initial Expecation: 6.000000
Gbest: 11.000000
Expectation: 6.000000
Final Parameters:
Gammas:
[ 3.141593 3.141593 ]
Betas:
[ 1.919862 1.570796 ]
Aggregate results:
[ 9 11 7 5 13 0 ]
[ 0.218750 0.093750 0.281250 0.125000 0.031250 0.250000 ]
3
Num Evals 21
GenUC: 9.509269e-06
GenUB: 1.710374e-06
Optimisation 1.471834e-03
Total Time: 1.484260e-03
