Clock Speed: 3.689191
Num threads: 4
Trotterisation: 1
Graph Size: 4
Num Qubits: 5
Space Dimension: 32
Run-Type: 0
Num_samples: 10
1 Isomorphic
Graph 1:
1 1 1 1 
1 1 1 1 
0 1 0 1 
0 1 0 0 
Graph 2:
1 1 1 1 
1 1 1 1 
0 1 0 1 
0 1 0 0 
Solution: 0 0
Gbest: 0.000000
Expectation: -5.283590
Final Parameters:
Gammas:
[ 3.321269 ]
Betas:
[ 2.578700 2.665059 ]
Aggregate results:
[ -1 3 5 7 1 9 15 ]
[ 0.119722 0.141543 0.488411 0.119470 0.071639 0.043253 0.015962 ]
5
Num Evals 400
GenUC: 2.158277e-04
GenUB: 1.225670e-05
Optimisation 5.934060e-02
Total Time: 5.976250e-02
2 Flipped
Graph 1:
1 1 1 1 
1 1 1 1 
0 1 0 1 
0 1 0 0 
Graph 2:
1 1 1 1 
1 1 1 1 
1 0 1 0 
0 0 1 0 
Solution: -2 10
Gbest: -4.000000
Expectation: -5.911842
Final Parameters:
Gammas:
[ 6.102437 ]
Betas:
[ 2.564890 0.476300 ]
Aggregate results:
[ 5 3 7 1 9 15 ]
[ 0.304634 0.309583 0.240569 0.075850 0.056730 0.012635 ]
5
Num Evals 800
GenUC: 8.979812e-06
GenUB: 8.116593e-06
Optimisation 4.610230e-02
Total Time: 4.624675e-02
3 Add 4
Graph 1:
1 1 1 1 
1 1 1 1 
0 1 0 1 
0 1 0 0 
Graph 2:
1 1 1 1 
1 1 1 1 
1 1 1 1 
1 1 1 0 
Solution: -4 0
Gbest: -4.000000
Expectation: -4.800300
Final Parameters:
Gammas:
[ 6.154764 ]
Betas:
[ 0.338101 0.457764 ]
Aggregate results:
[ 3 5 15 ]
[ 0.605554 0.393305 0.001141 ]
5
Num Evals 1200
GenUC: 7.766823e-06
GenUB: 8.515635e-06
Optimisation 3.636882e-02
Total Time: 3.646730e-02
4 Rem 4
Graph 1:
1 1 1 1 
1 1 1 1 
0 1 0 1 
0 1 0 0 
Graph 2:
0 0 0 1 
0 1 1 1 
0 1 0 1 
0 1 0 0 
Solution: -4 0
Gbest: -4.000000
Expectation: -6.960055
Final Parameters:
Gammas:
[ 3.357750 ]
Betas:
[ 1.820063 2.702173 ]
Aggregate results:
[ 3 7 9 5 11 15 ]
[ 0.195384 0.312136 0.088612 0.359413 0.018111 0.026344 ]
5
Num Evals 1600
GenUC: 8.938136e-06
GenUB: 8.162344e-06
Optimisation 6.526470e-02
Total Time: 6.546898e-02
5 Add/Rem 4
Graph 1:
1 1 1 1 
1 1 1 1 
0 1 0 1 
0 1 0 0 
Graph 2:
1 0 0 1 
1 1 1 1 
1 1 0 1 
0 0 1 0 
Solution: -3 4
Gbest: -3.000000
Expectation: -6.039684
Final Parameters:
Gammas:
[ 0.183655 ]
Betas:
[ 0.324358 2.676139 ]
Aggregate results:
[ 4 6 2 8 10 15 ]
[ 0.502960 0.201537 0.115229 0.152704 0.009403 0.018167 ]
5
Num Evals 2000
GenUC: 1.091816e-05
GenUB: 8.347211e-06
Optimisation 5.650270e-02
Total Time: 5.664628e-02
