Clock Speed: 3.687918
Num threads: 4
Trotterisation: 1
Graph Size: 4
Num Qubits: 5
Space Dimension: 32
Run-Type: 0
Num_samples: 10
1 Isomorphic
Graph 1:
1 1 0 1 
1 0 1 0 
0 1 1 1 
1 0 1 1 
Graph 2:
1 1 0 1 
1 0 1 0 
0 1 1 1 
1 0 1 1 
Solution: 0 0
Gbest: 0.000000
Expectation: -4.724963
Final Parameters:
Gammas:
[ 3.311058 ]
Betas:
[ 0.850200 2.854347 ]
Aggregate results:
[ -1 9 7 1 15 ]
[ 0.169796 0.173431 0.110644 0.473755 0.072374 ]
5
Num Evals 400
GenUC: 1.471103e-04
GenUB: 1.132069e-05
Optimisation 8.187604e-02
Total Time: 8.219410e-02
2 Flipped
Graph 1:
1 1 0 1 
1 0 1 0 
0 1 1 1 
1 0 1 1 
Graph 2:
1 0 1 1 
0 1 0 1 
1 1 1 0 
1 1 0 1 
Solution: -2 3
Gbest: -2.000000
Expectation: -5.130399
Final Parameters:
Gammas:
[ 6.103629 ]
Betas:
[ 2.884461 0.274200 ]
Aggregate results:
[ 9 7 1 15 ]
[ 0.104646 0.187351 0.624494 0.083509 ]
5
Num Evals 800
GenUC: 9.215670e-06
GenUB: 8.205185e-06
Optimisation 4.781731e-02
Total Time: 4.795906e-02
3 Add 4
Graph 1:
1 1 0 1 
1 0 1 0 
0 1 1 1 
1 0 1 1 
Graph 2:
1 1 1 1 
1 0 1 1 
1 1 1 1 
1 1 1 1 
Solution: -4 0
Gbest: -4.000000
Expectation: -5.132486
Final Parameters:
Gammas:
[ 0.743263 ]
Betas:
[ 1.338009 2.722862 ]
Aggregate results:
[ 3 5 15 ]
[ 0.587645 0.381578 0.030778 ]
5
Num Evals 1200
GenUC: 7.860130e-06
GenUB: 8.248608e-06
Optimisation 6.217872e-02
Total Time: 6.235275e-02
4 Rem 4
Graph 1:
1 1 0 1 
1 0 1 0 
0 1 1 1 
1 0 1 1 
Graph 2:
0 0 0 0 
1 0 1 0 
0 1 1 1 
0 0 1 1 
Solution: -4 0
Gbest: -4.000000
Expectation: -9.146443
Final Parameters:
Gammas:
[ 4.790119 ]
Betas:
[ 2.604738 0.800123 ]
Aggregate results:
[ 3 7 11 9 5 15 ]
[ 0.073245 0.072995 0.096946 0.421733 0.247247 0.087834 ]
5
Num Evals 1600
GenUC: 1.122965e-05
GenUB: 8.309027e-06
Optimisation 5.445418e-02
Total Time: 5.461598e-02
5 Add/Rem 4
Graph 1:
1 1 0 1 
1 0 1 0 
0 1 1 1 
1 0 1 1 
Graph 2:
1 0 1 1 
1 0 1 1 
1 1 0 0 
1 0 0 1 
Solution: -3 3
Gbest: -3.000000
Expectation: -7.697089
Final Parameters:
Gammas:
[ 2.691934 ]
Betas:
[ 1.765040 0.249996 ]
Aggregate results:
[ 6 10 2 8 4 15 ]
[ 0.075384 0.048712 0.234685 0.099013 0.330628 0.211579 ]
5
Num Evals 2000
GenUC: 9.323121e-06
GenUB: 8.154078e-06
Optimisation 4.332677e-02
Total Time: 4.345264e-02
