Clock Speed: 3.689218
Num threads: 4
Trotterisation: 4
Num Qubits: 5
Space Dimension: 32
Run-Type: 0
Num_samples: 4
Optimiser Method: 29
1 Isomorphic
Graph 1:
0 1 0 0 
1 0 0 1 
0 0 0 1 
0 1 1 0 
Graph 2:
0 1 0 0 
1 0 0 1 
0 0 0 1 
0 1 1 0 
Solution: 16 0
Classic Expectation: 10.000000
Initial Expecation: 7.500000
Gbest: 16.000000
Expectation: 12.366178
Final Parameters:
Gammas:
[ 3.062142 3.065747 3.062105 4.488624 ]
Betas:
[ 0.621941 0.500802 1.448142 2.832055 ]
Aggregate results:
[ 16 12 8 4 0 ]
[ 0.251031 0.615270 0.119161 0.003292 0.011247 ]
4
Num Evals 2773
GenUC: 8.635863e-06
GenUB: 1.138233e-05
Optimisation 9.515644e-01
Total Time: 9.516134e-01
2 Flipped
Graph 1:
0 1 0 0 
1 0 0 1 
0 0 0 1 
0 1 1 0 
Graph 2:
0 0 1 0 
1 0 0 1 
1 0 0 0 
0 1 1 0 
Solution: 14 2
Classic Expectation: 10.000000
Initial Expecation: 7.500000
Gbest: 14.000000
Expectation: 12.331919
Final Parameters:
Gammas:
[ 3.480353 2.871159 3.389422 3.054565 ]
Betas:
[ 2.952739 0.713953 2.471433 0.934044 ]
Aggregate results:
[ 12 8 14 6 0 ]
[ 0.448629 0.081042 0.443141 0.016011 0.011177 ]
5
Num Evals 3200
GenUC: 9.439886e-06
GenUB: 1.848559e-06
Optimisation 1.127931e+00
Total Time: 1.127945e+00
3 Add 4
Graph 1:
0 1 0 0 
1 0 0 1 
0 0 0 1 
0 1 1 0 
Graph 2:
0 1 1 1 
1 1 1 1 
1 1 0 1 
1 1 1 0 
Solution: 9 0
Classic Expectation: 9.000000
Initial Expecation: 6.750000
Gbest: 9.000000
Expectation: 9.000000
Final Parameters:
Gammas:
[ 2.907613 2.945243 4.538724 3.126883 ]
Betas:
[ 2.400458 1.271157 1.633838 1.663829 ]
Aggregate results:
[ 9 0 ]
[ 1.000000 0.000000 ]
4
Num Evals 626
GenUC: 9.098905e-06
GenUB: 1.722365e-06
Optimisation 2.321514e-01
Total Time: 2.321649e-01
4 Rem 4
Graph 1:
0 1 0 0 
1 0 0 1 
0 0 0 1 
0 1 1 0 
Graph 2:
0 0 0 0 
0 0 0 0 
0 0 0 0 
0 0 0 0 
Solution: 10 0
Classic Expectation: 10.000000
Initial Expecation: 7.500000
Gbest: 10.000000
Expectation: 10.000000
Final Parameters:
Gammas:
[ 2.503712 4.859753 2.341593 3.141781 ]
Betas:
[ 2.423489 2.411469 2.938052 0.258826 ]
Aggregate results:
[ 10 0 ]
[ 1.000000 0.000000 ]
4
Num Evals 862
GenUC: 9.432202e-06
GenUB: 2.270506e-06
Optimisation 3.144068e-01
Total Time: 3.144242e-01
5 Add/Rem 4
Graph 1:
0 1 0 0 
1 0 0 1 
0 0 0 1 
0 1 1 0 
Graph 2:
1 0 1 1 
0 1 0 0 
1 0 0 0 
1 0 0 0 
Solution: 12 9
Classic Expectation: 8.000000
Initial Expecation: 6.000000
Gbest: 12.000000
Expectation: 9.600240
Final Parameters:
Gammas:
[ 1.719030 6.242738 4.500108 3.492915 ]
Betas:
[ 2.311363 1.644675 1.269735 1.491291 ]
Aggregate results:
[ 4 8 12 0 ]
[ 0.005708 0.549833 0.431562 0.012897 ]
5
Num Evals 3200
GenUC: 9.192212e-06
GenUB: 1.606182e-06
Optimisation 1.111330e+00
Total Time: 1.111343e+00
