Clock Speed: 3.689116
Num threads: 4
Trotterisation: 4
Num Qubits: 5
Space Dimension: 32
Run-Type: 0
Num_samples: 4
Optimiser Method: 29
1 Isomorphic
Graph 1:
0 0 1 1 
0 0 0 1 
1 0 0 0 
1 1 0 0 
Graph 2:
0 0 1 1 
0 0 0 1 
1 0 0 0 
1 1 0 0 
Solution: 16 0
Classic Expectation: 10.000000
Initial Expecation: 7.500000
Gbest: 16.000000
Expectation: 12.605877
Final Parameters:
Gammas:
[ 1.563343 4.636965 3.359803 3.071530 ]
Betas:
[ 0.000000 2.335912 2.916107 0.577002 ]
Aggregate results:
[ 16 12 8 4 0 ]
[ 0.282420 0.627215 0.069291 0.001562 0.019512 ]
5
Num Evals 3200
GenUC: 8.525587e-06
GenUB: 8.649997e-06
Optimisation 3.127039e+01
Total Time: 3.127044e+01
2 Flipped
Graph 1:
0 0 1 1 
0 0 0 1 
1 0 0 0 
1 1 0 0 
Graph 2:
1 1 0 0 
1 0 0 0 
0 0 0 1 
0 0 1 1 
Solution: 12 2
Classic Expectation: 8.000000
Initial Expecation: 6.000000
Gbest: 12.000000
Expectation: 11.010279
Final Parameters:
Gammas:
[ 6.135143 4.599537 2.840490 4.445246 ]
Betas:
[ 0.546005 2.039440 1.381534 1.421632 ]
Aggregate results:
[ 4 12 8 0 ]
[ 0.030557 0.790320 0.175526 0.003597 ]
5
Num Evals 3200
GenUC: 9.141768e-06
GenUB: 1.978819e-06
Optimisation 3.190365e+01
Total Time: 3.190367e+01
3 Add 4
Graph 1:
0 0 1 1 
0 0 0 1 
1 0 0 0 
1 1 0 0 
Graph 2:
1 1 1 1 
1 0 1 1 
1 1 0 1 
1 1 1 0 
Solution: 9 0
Classic Expectation: 9.000000
Initial Expecation: 6.750000
Gbest: 9.000000
Expectation: 9.000000
Final Parameters:
Gammas:
[ 2.907613 2.945243 4.538724 3.126883 ]
Betas:
[ 2.400458 1.271157 1.633838 1.663829 ]
Aggregate results:
[ 9 0 ]
[ 1.000000 0.000000 ]
4
Num Evals 626
GenUC: 8.804924e-06
GenUB: 1.795725e-06
Optimisation 6.789920e+00
Total Time: 6.789934e+00
4 Rem 4
Graph 1:
0 0 1 1 
0 0 0 1 
1 0 0 0 
1 1 0 0 
Graph 2:
0 0 0 0 
0 0 0 0 
0 0 0 0 
0 0 0 0 
Solution: 10 0
Classic Expectation: 10.000000
Initial Expecation: 7.500000
Gbest: 10.000000
Expectation: 10.000000
Final Parameters:
Gammas:
[ 2.503712 4.859753 2.341593 3.141781 ]
Betas:
[ 2.423489 2.411469 2.938052 0.258826 ]
Aggregate results:
[ 10 0 ]
[ 1.000000 0.000000 ]
4
Num Evals 862
GenUC: 9.625910e-06
GenUB: 1.711807e-06
Optimisation 1.023664e+01
Total Time: 1.023665e+01
5 Add/Rem 4
Graph 1:
0 0 1 1 
0 0 0 1 
1 0 0 0 
1 1 0 0 
Graph 2:
0 1 0 0 
1 1 1 0 
0 1 0 1 
0 0 1 0 
Solution: 15 10
Classic Expectation: 9.000000
Initial Expecation: 6.750000
Gbest: 15.000000
Expectation: 11.303992
Final Parameters:
Gammas:
[ 4.885485 3.175307 2.959776 3.163014 ]
Betas:
[ 2.719344 1.197784 1.721393 1.017567 ]
Aggregate results:
[ 3 7 11 15 0 ]
[ 0.002268 0.156813 0.528016 0.292755 0.020148 ]
5
Num Evals 3200
GenUC: 9.334250e-06
GenUB: 1.445382e-06
Optimisation 3.627252e+01
Total Time: 3.627253e+01
