Clock Speed: 3.688910
Num threads: 4
Trotterisation: 4
Num Qubits: 5
Space Dimension: 32
Run-Type: 0
Num_samples: 4
Optimiser Method: 29
1 Isomorphic
Graph 1:
0 1 0 1 
1 0 1 0 
0 1 0 0 
1 0 0 0 
Graph 2:
0 1 0 1 
1 0 1 0 
0 1 0 0 
1 0 0 0 
Solution: 16 0
Classic Expectation: 10.000000
Initial Expecation: 7.500000
Gbest: 12.000000
Expectation: 10.883872
Final Parameters:
Gammas:
[ 6.160715 5.220756 2.448674 3.436222 ]
Betas:
[ 1.565648 2.524762 2.986337 2.123353 ]
Aggregate results:
[ 16 8 12 4 0 ]
[ 0.083620 0.262548 0.614220 0.018732 0.020880 ]
5
Num Evals 3200
GenUC: 8.178758e-06
GenUB: 9.926385e-06
Optimisation 1.299692e+00
Total Time: 1.299739e+00
2 Flipped
Graph 1:
0 1 0 1 
1 0 1 0 
0 1 0 0 
1 0 0 0 
Graph 2:
1 0 1 0 
0 1 0 1 
0 0 1 0 
0 0 0 1 
Solution: 8 1
Classic Expectation: 6.000000
Initial Expecation: 4.500000
Gbest: 8.000000
Expectation: 6.862152
Final Parameters:
Gammas:
[ 3.464761 3.730335 2.850466 2.977089 ]
Betas:
[ 2.543331 2.314653 2.128659 0.918389 ]
Aggregate results:
[ 4 8 6 0 ]
[ 0.131651 0.655914 0.181372 0.031062 ]
5
Num Evals 3200
GenUC: 9.691052e-06
GenUB: 1.880224e-06
Optimisation 1.174456e+00
Total Time: 1.174470e+00
3 Add 4
Graph 1:
0 1 0 1 
1 0 1 0 
0 1 0 0 
1 0 0 0 
Graph 2:
1 1 1 1 
1 1 1 1 
1 1 0 0 
1 1 0 0 
Solution: 10 0
Classic Expectation: 8.000000
Initial Expecation: 6.000000
Gbest: 10.000000
Expectation: 9.172522
Final Parameters:
Gammas:
[ 3.019058 2.993567 3.530844 3.181216 ]
Betas:
[ 0.576510 2.196391 1.890130 1.510036 ]
Aggregate results:
[ 10 6 0 ]
[ 0.804925 0.187212 0.007863 ]
5
Num Evals 3200
GenUC: 9.058975e-06
GenUB: 1.525157e-06
Optimisation 1.075588e+00
Total Time: 1.075601e+00
4 Rem 4
Graph 1:
0 1 0 1 
1 0 1 0 
0 1 0 0 
1 0 0 0 
Graph 2:
0 0 0 0 
0 0 0 0 
0 0 0 0 
0 0 0 0 
Solution: 10 0
Classic Expectation: 10.000000
Initial Expecation: 7.500000
Gbest: 10.000000
Expectation: 10.000000
Final Parameters:
Gammas:
[ 2.503712 4.859753 2.341593 3.141781 ]
Betas:
[ 2.423489 2.411469 2.938052 0.258826 ]
Aggregate results:
[ 10 0 ]
[ 1.000000 0.000000 ]
4
Num Evals 862
GenUC: 9.528478e-06
GenUB: 1.305714e-06
Optimisation 3.097443e-01
Total Time: 3.097575e-01
5 Add/Rem 4
Graph 1:
0 1 0 1 
1 0 1 0 
0 1 0 0 
1 0 0 0 
Graph 2:
0 0 1 0 
0 1 0 1 
1 0 0 0 
0 1 0 0 
Solution: 13 1
Classic Expectation: 9.000000
Initial Expecation: 6.750000
Gbest: 13.000000
Expectation: 11.161008
Final Parameters:
Gammas:
[ 5.059786 3.825216 3.922748 2.413875 ]
Betas:
[ 1.947071 1.727639 1.718211 1.061813 ]
Aggregate results:
[ 5 13 9 0 ]
[ 0.060117 0.767584 0.097981 0.074318 ]
5
Num Evals 3200
GenUC: 8.926960e-06
GenUB: 1.163688e-06
Optimisation 1.083587e+00
Total Time: 1.083598e+00
