Clock Speed: 3.688454
Num threads: 4
Trotterisation: 1
Graph Size: 8
Num Qubits: 16
Space Dimension: 65536
Run-Type: 0
Num_samples: 10
1 Isomorphic
Graph 1:
0 0 0 0 1 1 0 0 
1 0 0 1 0 1 0 0 
0 1 0 0 1 1 0 0 
1 0 1 0 1 1 0 0 
1 0 0 1 0 1 1 0 
0 1 0 0 1 0 1 1 
1 1 0 1 0 0 1 0 
1 1 0 0 1 1 0 1 
Graph 2:
0 0 0 0 1 1 0 0 
1 0 0 1 0 1 0 0 
0 1 0 0 1 1 0 0 
1 0 1 0 1 1 0 0 
1 0 0 1 0 1 1 0 
0 1 0 0 1 0 1 1 
1 1 0 1 0 0 1 0 
1 1 0 0 1 1 0 1 
Solution: 0 0
Gbest: -22.000000
Expectation: -32.079867
Final Parameters:
Gammas:
[ 3.187950 ]
Betas:
[ 2.300950 2.528597 ]
Aggregate results:
[ -1 13 15 9 17 11 19 5 21 23 7 25 27 29 31 33 35 37 39 41 43 45 47 49 63 ]
[ 0.000043 0.000685 0.002614 0.000102 0.006421 0.000298 0.014725 0.000043 0.034158 0.067510 0.000069 0.104851 0.135661 0.155607 0.152849 0.122589 0.077403 0.044686 0.016559 0.007124 0.001705 0.000356 0.000024 0.000019 0.053899 ]
3
Num Evals 146
GenUC: 3.527723e-03
GenUB: 1.720272e-02
Optimisation 2.345030e+01
Total Time: 2.367800e+01
2 Flipped
Graph 1:
0 0 0 0 1 1 0 0 
1 0 0 1 0 1 0 0 
0 1 0 0 1 1 0 0 
1 0 1 0 1 1 0 0 
1 0 0 1 0 1 1 0 
0 1 0 0 1 0 1 1 
1 1 0 1 0 0 1 0 
1 1 0 0 1 1 0 1 
Graph 2:
0 0 1 1 0 0 0 0 
0 0 1 0 1 0 0 1 
0 0 1 1 0 0 1 0 
0 0 1 1 0 1 0 1 
0 1 1 0 1 0 0 1 
1 1 0 1 0 0 1 0 
0 1 0 0 1 0 1 1 
1 0 1 1 0 0 1 1 
Solution: -18 25544
Gbest: -28.000000
Expectation: -44.532227
Final Parameters:
Gammas:
[ 3.141593 ]
Betas:
[ 1.570875 1.570796 ]
Aggregate results:
[ 41 35 33 39 37 31 29 27 25 23 21 19 43 45 47 17 63 ]
[ 0.004303 0.084274 0.118378 0.017334 0.043137 0.126450 0.105042 0.067932 0.033035 0.010590 0.003220 0.000610 0.000656 0.000183 0.000015 0.000076 0.384766 ]
3
Num Evals 171
GenUC: 2.424272e-03
GenUB: 1.755433e-02
Optimisation 3.760376e+00
Total Time: 3.906010e+00
3 Add 8
Graph 1:
0 0 0 0 1 1 0 0 
1 0 0 1 0 1 0 0 
0 1 0 0 1 1 0 0 
1 0 1 0 1 1 0 0 
1 0 0 1 0 1 1 0 
0 1 0 0 1 0 1 1 
1 1 0 1 0 0 1 0 
1 1 0 0 1 1 0 1 
Graph 2:
0 0 0 1 1 1 1 0 
1 0 0 1 1 1 0 1 
0 1 1 0 1 1 0 0 
1 1 1 0 1 1 0 0 
1 0 0 1 0 1 1 0 
0 1 0 0 1 0 1 1 
1 1 1 1 1 0 1 0 
1 1 0 0 1 1 0 1 
Solution: -8 0
Gbest: -24.000000
Expectation: -33.004435
Final Parameters:
Gammas:
[ 3.188760 ]
Betas:
[ 1.746870 2.549194 ]
Aggregate results:
[ 7 15 17 19 21 11 23 25 27 31 29 33 35 37 39 41 13 45 43 49 47 63 ]
[ 0.000045 0.000835 0.003392 0.009186 0.025073 0.000118 0.052879 0.090316 0.124059 0.151635 0.147893 0.135246 0.099638 0.061289 0.028266 0.010772 0.000068 0.000766 0.003211 0.000026 0.000106 0.055181 ]
3
Num Evals 316
GenUC: 2.874339e-03
GenUB: 1.685851e-02
Optimisation 2.341001e+01
Total Time: 2.358897e+01
4 Rem 8
Graph 1:
0 0 0 0 1 1 0 0 
1 0 0 1 0 1 0 0 
0 1 0 0 1 1 0 0 
1 0 1 0 1 1 0 0 
1 0 0 1 0 1 1 0 
0 1 0 0 1 0 1 1 
1 1 0 1 0 0 1 0 
1 1 0 0 1 1 0 1 
Graph 2:
0 0 0 0 0 1 0 0 
1 0 0 0 0 1 0 0 
0 1 0 0 1 1 0 0 
1 0 1 0 1 1 0 0 
1 0 0 0 0 1 1 0 
0 0 0 0 1 0 1 0 
0 0 0 1 0 0 0 0 
1 1 0 0 1 1 0 1 
Solution: -8 0
Gbest: -28.000000
Expectation: -31.415329
Final Parameters:
Gammas:
[ 3.186642 ]
Betas:
[ 2.449375 2.539628 ]
Aggregate results:
[ 7 15 17 19 13 21 23 27 11 25 29 33 31 35 37 39 41 43 45 63 ]
[ 0.000048 0.001531 0.004816 0.015040 0.000233 0.042123 0.079218 0.154510 0.000085 0.120237 0.167856 0.107494 0.149240 0.063182 0.028402 0.010689 0.002631 0.000469 0.000053 0.052144 ]
3
Num Evals 454
GenUC: 3.428782e-03
GenUB: 1.678766e-02
Optimisation 2.240709e+01
Total Time: 2.260342e+01
5 Add/Rem 8
Graph 1:
0 0 0 0 1 1 0 0 
1 0 0 1 0 1 0 0 
0 1 0 0 1 1 0 0 
1 0 1 0 1 1 0 0 
1 0 0 1 0 1 1 0 
0 1 0 0 1 0 1 1 
1 1 0 1 0 0 1 0 
1 1 0 0 1 1 0 1 
Graph 2:
0 0 0 1 1 1 0 0 
1 0 1 1 0 1 1 1 
0 1 0 0 1 1 0 0 
1 0 1 0 0 0 1 0 
1 0 0 1 0 1 1 0 
0 0 1 1 1 0 1 1 
0 1 1 1 0 0 1 0 
0 1 0 0 0 0 0 0 
Solution: -16 0
Gbest: -22.000000
Expectation: -32.845774
Final Parameters:
Gammas:
[ 3.283820 ]
Betas:
[ 1.842317 0.503648 ]
Aggregate results:
[ 15 25 23 21 17 19 27 29 31 33 35 37 39 41 45 43 63 ]
[ 0.000048 0.094054 0.043394 0.014386 0.000592 0.003708 0.165277 0.204952 0.188355 0.123249 0.059266 0.021676 0.006390 0.001066 0.000023 0.000207 0.073358 ]
3
Num Evals 582
GenUC: 2.846067e-03
GenUB: 1.692735e-02
Optimisation 1.507683e+01
Total Time: 1.520237e+01
