Clock Speed: 3.688877
Num threads: 4
Trotterisation: 2
Num Qubits: 5
Space Dimension: 32
Run-Type: 0
Num_samples: 4
Optimiser Method: 29
1 Isomorphic
Graph 1:
0 1 1 0 
1 0 0 0 
1 0 0 0 
0 0 0 0 
Graph 2:
0 1 1 0 
1 0 0 0 
1 0 0 0 
0 0 0 0 
Solution: 16 0
Classic Expectation: 10.666667
Initial Expecation: 8.000000
Gbest: 16.000000
Expectation: 11.002169
Final Parameters:
Gammas:
[ 5.927149 3.308195 ]
Betas:
[ 0.332882 2.317339 ]
Aggregate results:
[ 16 12 8 0 ]
[ 0.201192 0.391507 0.385627 0.021674 ]
5
Num Evals 1600
GenUC: 8.349540e-06
GenUB: 9.536743e-06
Optimisation 2.374384e-01
Total Time: 2.374813e-01
2 Flipped
Graph 1:
0 1 1 0 
1 0 0 0 
1 0 0 0 
0 0 0 0 
Graph 2:
0 1 1 0 
0 0 0 1 
0 0 0 1 
0 0 0 0 
Solution: 12 0
Classic Expectation: 10.666667
Initial Expecation: 8.000000
Gbest: 12.000000
Expectation: 10.719594
Final Parameters:
Gammas:
[ 3.610779 3.640005 ]
Betas:
[ 0.542118 1.822856 ]
Aggregate results:
[ 12 10 0 ]
[ 0.435248 0.549661 0.015090 ]
4
Num Evals 1559
GenUC: 8.980976e-06
GenUB: 1.579814e-06
Optimisation 2.227236e-01
Total Time: 2.227360e-01
3 Add 4
Graph 1:
0 1 1 0 
1 0 0 0 
1 0 0 0 
0 0 0 0 
Graph 2:
0 1 1 1 
1 0 1 1 
1 1 0 0 
1 1 0 0 
Solution: 10 0
Classic Expectation: 8.666667
Initial Expecation: 6.500000
Gbest: 10.000000
Expectation: 8.595908
Final Parameters:
Gammas:
[ 2.862833 3.426715 ]
Betas:
[ 0.950382 1.818939 ]
Aggregate results:
[ 10 6 0 ]
[ 0.699493 0.266829 0.033677 ]
5
Num Evals 1600
GenUC: 9.382318e-06
GenUB: 1.339125e-06
Optimisation 2.574517e-01
Total Time: 2.574641e-01
4 Rem 4
Graph 1:
0 1 1 0 
1 0 0 0 
1 0 0 0 
0 0 0 0 
Graph 2:
0 0 0 0 
0 0 0 0 
0 0 0 0 
0 0 0 0 
Solution: 12 0
Classic Expectation: 12.000000
Initial Expecation: 9.000000
Gbest: 12.000000
Expectation: 12.000000
Final Parameters:
Gammas:
[ 3.137708 3.008312 ]
Betas:
[ 1.115116 2.337775 ]
Aggregate results:
[ 12 0 ]
[ 1.000000 0.000000 ]
4
Num Evals 432
GenUC: 8.539646e-06
GenUB: 1.402572e-06
Optimisation 7.714749e-02
Total Time: 7.715903e-02
5 Add/Rem 4
Graph 1:
0 1 1 0 
1 0 0 0 
1 0 0 0 
0 0 0 0 
Graph 2:
0 0 0 1 
0 1 1 1 
0 1 0 0 
1 1 0 0 
Solution: 13 9
Classic Expectation: 9.000000
Initial Expecation: 6.750000
Gbest: 13.000000
Expectation: 9.392798
Final Parameters:
Gammas:
[ 4.743076 4.446566 ]
Betas:
[ 0.696133 1.356693 ]
Aggregate results:
[ 5 9 13 0 ]
[ 0.084596 0.701765 0.204149 0.009490 ]
4
Num Evals 1590
GenUC: 8.523231e-06
GenUB: 1.237611e-06
Optimisation 2.204633e-01
Total Time: 2.204747e-01
