Clock Speed: 3.689419
Num threads: 4
Trotterisation: 2
Num Qubits: 5
Space Dimension: 32
Run-Type: 0
Num_samples: 4
Optimiser Method: 29
1 Isomorphic
Graph 1:
0 1 1 0 
1 0 1 1 
1 1 0 1 
0 1 1 0 
Graph 2:
0 1 1 0 
1 0 1 1 
1 1 0 1 
0 1 1 0 
Solution: 16 0
Classic Expectation: 12.666667
Initial Expecation: 9.500000
Gbest: 12.000000
Expectation: 12.971435
Final Parameters:
Gammas:
[ 6.159146 4.200623 ]
Betas:
[ 0.726690 1.720225 ]
Aggregate results:
[ 16 12 0 ]
[ 0.255152 0.740751 0.004098 ]
4
Num Evals 681
GenUC: 8.256757e-06
GenUB: 1.026253e-05
Optimisation 2.135198e-01
Total Time: 2.135655e-01
2 Flipped
Graph 1:
0 1 1 0 
1 0 1 1 
1 1 0 1 
0 1 1 0 
Graph 2:
0 1 1 0 
1 1 0 1 
1 0 1 1 
0 1 1 0 
Solution: 12 0
Classic Expectation: 9.333333
Initial Expecation: 7.000000
Gbest: 12.000000
Expectation: 10.610030
Final Parameters:
Gammas:
[ 3.501983 3.344460 ]
Betas:
[ 1.366036 2.190997 ]
Aggregate results:
[ 12 8 0 ]
[ 0.764270 0.179848 0.055882 ]
4
Num Evals 851
GenUC: 9.424577e-06
GenUB: 1.701817e-06
Optimisation 1.478269e-01
Total Time: 1.478403e-01
3 Add 4
Graph 1:
0 1 1 0 
1 0 1 1 
1 1 0 1 
0 1 1 0 
Graph 2:
1 1 1 1 
1 1 1 1 
1 1 1 1 
1 1 1 0 
Solution: 11 0
Classic Expectation: 11.000000
Initial Expecation: 8.250000
Gbest: 11.000000
Expectation: 11.000000
Final Parameters:
Gammas:
[ 4.319690 1.570796 ]
Betas:
[ 2.356194 0.589049 ]
Aggregate results:
[ 11 0 ]
[ 1.000000 0.000000 ]
4
Num Evals 333
GenUC: 9.413925e-06
GenUB: 1.412525e-06
Optimisation 5.286820e-02
Total Time: 5.288077e-02
4 Rem 4
Graph 1:
0 1 1 0 
1 0 1 1 
1 1 0 1 
0 1 1 0 
Graph 2:
0 0 0 0 
0 0 1 0 
0 1 0 1 
0 0 1 0 
Solution: 10 0
Classic Expectation: 8.666667
Initial Expecation: 6.500000
Gbest: 10.000000
Expectation: 9.210252
Final Parameters:
Gammas:
[ 2.922996 4.615706 ]
Betas:
[ 0.991805 1.806987 ]
Aggregate results:
[ 10 6 0 ]
[ 0.844645 0.127300 0.028055 ]
4
Num Evals 1046
GenUC: 8.505536e-06
GenUB: 1.340872e-06
Optimisation 1.654498e-01
Total Time: 1.654614e-01
5 Add/Rem 4
Graph 1:
0 1 1 0 
1 0 1 1 
1 1 0 1 
0 1 1 0 
Graph 2:
1 1 0 1 
1 1 0 0 
0 0 1 1 
1 0 1 0 
Solution: 9 1
Classic Expectation: 7.000000
Initial Expecation: 5.250000
Gbest: 9.000000
Expectation: 7.393594
Final Parameters:
Gammas:
[ 4.707273 3.535877 ]
Betas:
[ 0.937441 1.351577 ]
Aggregate results:
[ 5 9 0 ]
[ 0.374047 0.613706 0.012246 ]
4
Num Evals 510
GenUC: 8.712115e-06
GenUB: 1.185399e-06
Optimisation 7.431519e-02
Total Time: 7.432686e-02
