Clock Speed: 1.519114
Num threads: 12
Trotterisation: 1
Graph Size: 5
Num Qubits: 7
Space Dimension: 128
Run-Type: 0
Num_samples: 1
1 Isomorphic
Graph 1:
0 1 0 1 0 
1 0 0 0 1 
0 0 1 0 0 
1 1 1 1 1 
0 0 0 1 1 
Graph 2:
0 1 0 1 0 
1 0 0 0 1 
0 0 1 0 0 
1 1 1 1 1 
0 0 0 1 1 
Solution: 0 0
Expectation: -12.338856
Final Parameters:
Gammas:
[ 3.176998 ]
Betas:
[ 1.520604 1.038788 ]
Aggregate results:
[ 0 4 10 8 14 16 12 20 18 6 25 ]
[ 0.031566 0.054655 0.201723 0.120270 0.137720 0.174521 0.173020 0.001753 0.005803 0.014186 0.084782 ]
3
Num Evals 130
GenUC: 6.223537e-03
GenUB: 9.291340e-05
Optimisation 9.922821e-02
Total Time: 1.063400e-01
2 Flipped
Graph 1:
0 1 0 1 0 
1 0 0 0 1 
0 0 1 0 0 
1 1 1 1 1 
0 0 0 1 1 
Graph 2:
0 1 0 1 0 
1 0 0 0 1 
0 0 1 0 0 
1 1 1 1 1 
1 1 0 0 0 
Solution: -4 0
Expectation: -12.889223
Final Parameters:
Gammas:
[ 2.635546 ]
Betas:
[ 1.148579 2.074898 ]
Aggregate results:
[ 4 8 14 12 16 18 10 6 25 ]
[ 0.036898 0.080506 0.259941 0.220811 0.116894 0.031075 0.174663 0.018311 0.060902 ]
3
Num Evals 257
GenUC: 4.414096e-05
GenUB: 3.774930e-05
Optimisation 9.465163e-02
Total Time: 9.556933e-02
3 Add 5
Graph 1:
0 1 0 1 0 
1 0 0 0 1 
0 0 1 0 0 
1 1 1 1 1 
0 0 0 1 1 
Graph 2:
1 1 0 1 0 
1 0 0 0 1 
0 0 1 0 1 
1 1 1 1 1 
1 1 1 1 1 
Solution: -5 0
Expectation: -13.281250
Final Parameters:
Gammas:
[ 3.141593 ]
Betas:
[ 1.570796 2.356194 ]
Aggregate results:
[ 5 9 15 11 13 19 17 7 25 ]
[ 0.023437 0.125000 0.234375 0.203125 0.242187 0.015625 0.062500 0.031250 0.062500 ]
3
Num Evals 261
GenUC: 4.203618e-05
GenUB: 3.707781e-05
Optimisation 3.246032e-03
Total Time: 4.212750e-03
4 Rem 5
Graph 1:
0 1 0 1 0 
1 0 0 0 1 
0 0 1 0 0 
1 1 1 1 1 
0 0 0 1 1 
Graph 2:
0 0 0 1 0 
1 0 0 0 1 
0 0 1 0 0 
0 1 1 1 0 
0 0 0 0 0 
Solution: -5 0
Expectation: -12.906250
Final Parameters:
Gammas:
[ 3.141593 ]
Betas:
[ 1.570796 2.356194 ]
Aggregate results:
[ 5 9 13 11 15 7 17 25 ]
[ 0.015625 0.132812 0.265625 0.281250 0.179687 0.023437 0.039063 0.062500 ]
3
Num Evals 265
GenUC: 4.463736e-05
GenUB: 3.741775e-05
Optimisation 2.889478e-03
Total Time: 3.783382e-03
5 Add/Rem 5
Graph 1:
0 1 0 1 0 
1 0 0 0 1 
0 0 1 0 0 
1 1 1 1 1 
0 0 0 1 1 
Graph 2:
1 1 0 1 0 
0 0 0 0 1 
1 1 1 1 0 
1 1 0 0 1 
0 0 0 0 0 
Solution: -9 0
Expectation: -12.942080
Final Parameters:
Gammas:
[ 3.427152 ]
Betas:
[ 1.587500 1.366524 ]
Aggregate results:
[ 9 13 11 17 15 19 25 ]
[ 0.194041 0.213982 0.379274 0.034022 0.075143 0.008673 0.094865 ]
3
Num Evals 392
GenUC: 4.552491e-05
GenUB: 3.822427e-05
Optimisation 8.056258e-02
Total Time: 8.129600e-02
