Clock Speed: 1.518316
Num threads: 12
Trotterisation: 2
Graph Size: 5
Num Qubits: 7
Space Dimension: 128
Run-Type: 0
Num_samples: 1
1 Isomorphic
Graph 1:
1 0 0 0 1 
0 0 0 1 0 
1 0 1 0 1 
1 1 0 0 0 
1 1 1 0 1 
Graph 2:
1 0 0 0 1 
0 0 0 1 0 
1 0 1 0 1 
1 1 0 0 0 
1 1 1 0 1 
Solution: 0 0
Expectation: -9.407993
Final Parameters:
Gammas:
[ 3.433237 3.798514 ]
Betas:
[ 1.997987 1.270744 1.609653 ]
Aggregate results:
[ 0 8 10 4 14 12 6 16 20 25 ]
[ 0.035997 0.032959 0.182793 0.098157 0.085546 0.286252 0.232016 0.023409 0.009468 0.013403 ]
3
Num Evals 340
GenUC: 7.727924e-03
GenUB: 2.142387e-04
Optimisation 4.428637e-01
Total Time: 4.520512e-01
2 Flipped
Graph 1:
1 0 0 0 1 
0 0 0 1 0 
1 0 1 0 1 
1 1 0 0 0 
1 1 1 0 1 
Graph 2:
1 0 0 0 1 
0 1 0 0 0 
1 0 1 0 1 
0 0 0 1 1 
1 0 1 1 1 
Solution: -6 15
Expectation: -11.521878
Final Parameters:
Gammas:
[ 5.160737 3.910612 ]
Betas:
[ 2.273467 0.083175 1.061447 ]
Aggregate results:
[ 8 12 10 6 14 16 25 ]
[ 0.085023 0.320979 0.361187 0.009233 0.185776 0.024805 0.012998 ]
3
Num Evals 557
GenUC: 4.514074e-05
GenUB: 3.670342e-05
Optimisation 1.895740e-01
Total Time: 1.905124e-01
3 Add 5
Graph 1:
1 0 0 0 1 
0 0 0 1 0 
1 0 1 0 1 
1 1 0 0 0 
1 1 1 0 1 
Graph 2:
1 1 0 0 1 
0 1 1 1 0 
1 1 1 0 1 
1 1 0 0 0 
1 1 1 1 1 
Solution: -5 0
Expectation: -13.281250
Final Parameters:
Gammas:
[ 3.141593 3.141593 ]
Betas:
[ 1.570796 2.356194 1.570796 ]
Aggregate results:
[ 5 9 11 13 15 7 17 19 25 ]
[ 0.007812 0.101562 0.273437 0.250000 0.195312 0.031250 0.062500 0.015625 0.062500 ]
3
Num Evals 563
GenUC: 4.391372e-05
GenUB: 3.658189e-05
Optimisation 5.898933e-03
Total Time: 7.011609e-03
4 Rem 5
Graph 1:
1 0 0 0 1 
0 0 0 1 0 
1 0 1 0 1 
1 1 0 0 0 
1 1 1 0 1 
Graph 2:
0 0 0 0 1 
0 0 0 1 0 
1 0 0 0 1 
1 0 0 0 0 
0 1 1 0 1 
Solution: -4 0
Expectation: -10.589130
Final Parameters:
Gammas:
[ 3.471255 3.779600 ]
Betas:
[ 1.905337 1.344231 1.544104 ]
Aggregate results:
[ 4 10 12 8 14 16 20 18 25 ]
[ 0.037467 0.447252 0.237963 0.164453 0.066288 0.025942 0.009597 0.002205 0.008833 ]
3
Num Evals 809
GenUC: 4.446134e-05
GenUB: 3.569806e-05
Optimisation 2.291062e-01
Total Time: 2.301745e-01
5 Add/Rem 5
Graph 1:
1 0 0 0 1 
0 0 0 1 0 
1 0 1 0 1 
1 1 0 0 0 
1 1 1 0 1 
Graph 2:
1 0 0 0 1 
0 1 0 1 0 
1 1 0 0 0 
1 0 1 1 0 
1 1 1 0 0 
Solution: -6 78
Expectation: -12.029275
Final Parameters:
Gammas:
[ 4.385445 4.390568 ]
Betas:
[ 0.974922 0.849551 0.730825 ]
Aggregate results:
[ 8 12 10 16 14 18 6 25 ]
[ 0.099282 0.300608 0.267106 0.061153 0.191757 0.016152 0.031351 0.032591 ]
3
Num Evals 1235
GenUC: 4.531303e-05
GenUB: 3.673509e-05
Optimisation 3.335771e-01
Total Time: 3.344047e-01
