Clock Speed: 1.518979
Num threads: 12
Trotterisation: 2
Graph Size: 5
Num Qubits: 7
Space Dimension: 128
Run-Type: 0
Num_samples: 1
1 Isomorphic
Graph 1:
1 0 0 1 1 
1 1 1 0 1 
0 1 1 1 1 
1 0 0 1 0 
0 0 0 0 1 
Graph 2:
1 0 0 1 1 
1 1 1 0 1 
0 1 1 1 1 
1 0 0 1 0 
0 0 0 0 1 
Solution: 0 0
Expectation: -7.900685
Final Parameters:
Gammas:
[ 3.435676 3.226198 ]
Betas:
[ 2.517605 1.391522 1.478679 ]
Aggregate results:
[ 0 10 8 4 6 12 2 14 16 18 25 ]
[ 0.029843 0.219333 0.323430 0.076020 0.219616 0.056344 0.029771 0.012355 0.020874 0.007830 0.004582 ]
3
Num Evals 351
GenUC: 4.255959e-03
GenUB: 1.706341e-04
Optimisation 4.717003e-01
Total Time: 4.775170e-01
2 Flipped
Graph 1:
1 0 0 1 1 
1 1 1 0 1 
0 1 1 1 1 
1 0 0 1 0 
0 0 0 0 1 
Graph 2:
1 1 0 0 1 
1 0 1 1 1 
1 1 1 1 0 
0 1 0 0 1 
1 0 0 0 0 
Solution: -8 45
Expectation: -11.553562
Final Parameters:
Gammas:
[ 3.491618 3.666173 ]
Betas:
[ 1.325738 1.340707 1.618768 ]
Aggregate results:
[ 12 10 14 16 18 8 25 ]
[ 0.395818 0.329759 0.119813 0.016169 0.030012 0.098875 0.009554 ]
3
Num Evals 725
GenUC: 4.727580e-05
GenUB: 4.013255e-05
Optimisation 4.097309e-01
Total Time: 4.108898e-01
3 Add 5
Graph 1:
1 0 0 1 1 
1 1 1 0 1 
0 1 1 1 1 
1 0 0 1 0 
0 0 0 0 1 
Graph 2:
1 0 0 1 1 
1 1 1 1 1 
1 1 1 1 1 
1 0 0 1 1 
1 1 0 0 1 
Solution: -5 0
Expectation: -11.312500
Final Parameters:
Gammas:
[ 3.141593 3.141593 ]
Betas:
[ 1.570796 2.356194 1.570796 ]
Aggregate results:
[ 5 11 9 13 15 17 7 25 ]
[ 0.046875 0.320312 0.289062 0.148437 0.046875 0.015625 0.070313 0.062500 ]
3
Num Evals 731
GenUC: 4.427042e-05
GenUB: 3.807154e-05
Optimisation 5.833080e-03
Total Time: 6.890244e-03
4 Rem 5
Graph 1:
1 0 0 1 1 
1 1 1 0 1 
0 1 1 1 1 
1 0 0 1 0 
0 0 0 0 1 
Graph 2:
1 0 0 1 1 
1 0 1 0 0 
0 1 0 1 1 
0 0 0 1 0 
0 0 0 0 1 
Solution: -4 0
Expectation: -10.065885
Final Parameters:
Gammas:
[ 3.465719 3.433573 ]
Betas:
[ 1.982554 1.301051 1.619624 ]
Aggregate results:
[ 4 12 10 8 6 14 16 18 25 ]
[ 0.057296 0.263799 0.312130 0.169595 0.090076 0.072304 0.011321 0.018252 0.005227 ]
3
Num Evals 1004
GenUC: 4.457124e-05
GenUB: 3.831834e-05
Optimisation 2.614217e-01
Total Time: 2.624691e-01
5 Add/Rem 5
Graph 1:
1 0 0 1 1 
1 1 1 0 1 
0 1 1 1 1 
1 0 0 1 0 
0 0 0 0 1 
Graph 2:
1 0 1 1 1 
1 0 1 0 1 
1 1 0 1 0 
1 0 1 1 1 
0 0 0 0 1 
Solution: -7 0
Expectation: -13.000000
Final Parameters:
Gammas:
[ 3.141593 3.141593 ]
Betas:
[ 1.570796 1.570796 1.570796 ]
Aggregate results:
[ 7 13 11 9 15 17 25 ]
[ 0.054687 0.296875 0.218750 0.140625 0.164062 0.062500 0.062500 ]
3
Num Evals 1010
GenUC: 4.502945e-05
GenUB: 3.971253e-05
Optimisation 6.020846e-03
Total Time: 7.073697e-03
