Clock Speed: 1.522753
Num threads: 12
Trotterisation: 5
Graph Size: 5
Num Qubits: 7
Space Dimension: 128
Run-Type: 0
Num_samples: 1
1 Isomorphic
Graph 1:
0 0 1 0 0 
0 1 0 1 0 
0 0 0 1 0 
1 1 1 1 1 
1 1 1 1 1 
Graph 2:
0 0 1 0 0 
0 1 0 1 0 
0 0 0 1 0 
1 1 1 1 1 
1 1 1 1 1 
Solution: 0 0
Expectation: -10.794282
Final Parameters:
Gammas:
[ 3.404529 3.286731 3.070593 3.252375 3.436281 ]
Betas:
[ 1.736894 0.732353 1.209164 2.021212 2.618164 1.547943 ]
Aggregate results:
[ 0 6 4 10 12 8 14 18 16 25 ]
[ 0.033226 0.167865 0.074537 0.204419 0.228331 0.034245 0.066002 0.087299 0.074052 0.030023 ]
5
Num Evals 500
GenUC: 1.856755e-02
GenUB: 1.605209e-04
Optimisation 1.120626e+00
Total Time: 1.141950e+00
2 Flipped
Graph 1:
0 0 1 0 0 
0 1 0 1 0 
0 0 0 1 0 
1 1 1 1 1 
1 1 1 1 1 
Graph 2:
0 0 1 0 0 
0 1 0 1 0 
0 1 0 0 0 
1 1 1 1 1 
1 1 1 1 1 
Solution: -2 0
Expectation: -8.498791
Final Parameters:
Gammas:
[ 3.062401 3.463925 3.349345 3.484932 4.156755 ]
Betas:
[ 1.390414 1.876970 1.360539 1.469068 1.326824 1.714258 ]
Aggregate results:
[ 2 8 4 6 10 12 14 18 16 25 ]
[ 0.096611 0.147382 0.150638 0.191758 0.144951 0.152997 0.020046 0.031092 0.040609 0.023916 ]
5
Num Evals 1000
GenUC: 4.358869e-05
GenUB: 3.369525e-05
Optimisation 1.001626e+00
Total Time: 1.003759e+00
3 Add 5
Graph 1:
0 0 1 0 0 
0 1 0 1 0 
0 0 0 1 0 
1 1 1 1 1 
1 1 1 1 1 
Graph 2:
1 1 1 0 0 
0 1 0 1 1 
0 1 1 1 0 
1 1 1 1 1 
1 1 1 1 1 
Solution: -5 0
Expectation: -9.470775
Final Parameters:
Gammas:
[ 3.193273 3.274565 3.432190 3.362520 3.476955 ]
Betas:
[ 1.766121 1.819915 1.384215 1.355160 1.344613 1.546631 ]
Aggregate results:
[ 5 9 7 11 13 15 25 ]
[ 0.150173 0.323184 0.104923 0.257059 0.131275 0.029210 0.004177 ]
5
Num Evals 1500
GenUC: 4.124176e-05
GenUB: 3.313646e-05
Optimisation 1.063517e+00
Total Time: 1.065700e+00
4 Rem 5
Graph 1:
0 0 1 0 0 
0 1 0 1 0 
0 0 0 1 0 
1 1 1 1 1 
1 1 1 1 1 
Graph 2:
0 0 1 0 0 
0 1 0 0 0 
0 0 0 0 0 
1 1 0 1 0 
1 1 1 1 1 
Solution: -4 0
Expectation: -8.409097
Final Parameters:
Gammas:
[ 3.022262 3.448099 3.228409 3.437611 3.384316 ]
Betas:
[ 2.040726 1.842941 1.341098 1.364954 1.294106 1.607294 ]
Aggregate results:
[ 4 8 6 10 12 16 14 18 20 25 ]
[ 0.229158 0.255646 0.159032 0.171958 0.066631 0.030323 0.044596 0.020010 0.012381 0.010266 ]
5
Num Evals 2000
GenUC: 4.182383e-05
GenUB: 3.211387e-05
Optimisation 1.185579e+00
Total Time: 1.188043e+00
5 Add/Rem 5
Graph 1:
0 0 1 0 0 
0 1 0 1 0 
0 0 0 1 0 
1 1 1 1 1 
1 1 1 1 1 
Graph 2:
1 1 1 0 0 
0 1 0 0 0 
1 0 1 0 1 
1 1 1 1 1 
1 1 0 0 1 
Solution: -7 79
Expectation: -12.812500
Final Parameters:
Gammas:
[ 3.141593 3.141593 3.141593 3.141593 3.141593 ]
Betas:
[ 1.570796 2.356194 1.570796 1.570796 1.570796 1.570796 ]
Aggregate results:
[ 9 11 13 17 15 7 25 ]
[ 0.140625 0.265625 0.250000 0.046875 0.171875 0.062500 0.062500 ]
3
Num Evals 2012
GenUC: 4.255399e-05
GenUB: 3.568921e-05
Optimisation 2.454240e-02
Total Time: 2.685852e-02
