Clock Speed: 1.519043
Num threads: 12
Trotterisation: 6
Graph Size: 5
Num Qubits: 7
Space Dimension: 128
Run-Type: 0
Num_samples: 1
1 Isomorphic
Graph 1:
1 1 1 1 0 
0 0 1 1 1 
1 0 1 0 1 
0 0 1 0 1 
1 1 0 0 1 
Graph 2:
1 1 1 1 0 
0 0 1 1 1 
1 0 1 0 1 
0 0 1 0 1 
1 1 0 0 1 
Solution: 0 0
Expectation: -7.808961
Final Parameters:
Gammas:
[ 3.073381 3.172275 3.317117 3.116064 3.375483 3.351703 ]
Betas:
[ 1.731248 1.749565 1.512416 1.691937 1.255206 1.370203 1.523874 ]
Aggregate results:
[ 0 8 12 10 14 6 4 16 20 18 25 ]
[ 0.091350 0.158897 0.152922 0.177781 0.055413 0.154978 0.182172 0.015511 0.002177 0.003018 0.005781 ]
5
Num Evals 500
GenUC: 7.536427e-03
GenUB: 8.532312e-05
Optimisation 1.349708e+00
Total Time: 1.360196e+00
2 Flipped
Graph 1:
1 1 1 1 0 
0 0 1 1 1 
1 0 1 0 1 
0 0 1 0 1 
1 1 0 0 1 
Graph 2:
0 1 1 1 1 
1 1 1 0 0 
1 0 1 0 1 
1 0 1 0 0 
1 0 0 1 1 
Solution: -6 65
Expectation: -9.096614
Final Parameters:
Gammas:
[ 3.416445 3.056478 3.473884 3.922366 3.524232 2.492007 ]
Betas:
[ 1.546196 1.334397 1.529742 1.342359 1.555592 1.615870 1.460128 ]
Aggregate results:
[ 10 8 12 14 16 6 25 ]
[ 0.291151 0.487617 0.071191 0.023050 0.018486 0.100064 0.008441 ]
5
Num Evals 1000
GenUC: 5.008094e-05
GenUB: 3.580470e-05
Optimisation 1.317204e+00
Total Time: 1.319775e+00
3 Add 5
Graph 1:
1 1 1 1 0 
0 0 1 1 1 
1 0 1 0 1 
0 0 1 0 1 
1 1 0 0 1 
Graph 2:
1 1 1 1 0 
0 0 1 1 1 
1 0 1 1 1 
0 0 1 1 1 
1 1 1 0 1 
Solution: -3 0
Expectation: -10.490377
Final Parameters:
Gammas:
[ 2.861947 3.354276 4.559480 3.367607 3.408132 3.421988 ]
Betas:
[ 1.765708 0.902085 1.784870 2.001633 1.650499 1.764277 1.805416 ]
Aggregate results:
[ 3 11 13 15 5 7 9 17 25 ]
[ 0.082656 0.263475 0.175716 0.104626 0.046482 0.109154 0.172728 0.023704 0.021459 ]
5
Num Evals 1500
GenUC: 4.653540e-05
GenUB: 3.770646e-05
Optimisation 1.333351e+00
Total Time: 1.335823e+00
4 Rem 5
Graph 1:
1 1 1 1 0 
0 0 1 1 1 
1 0 1 0 1 
0 0 1 0 1 
1 1 0 0 1 
Graph 2:
1 0 0 1 0 
0 0 0 1 1 
1 0 1 0 1 
0 0 1 0 0 
1 1 0 0 1 
Solution: -4 0
Expectation: -9.430267
Final Parameters:
Gammas:
[ 3.338708 3.124047 3.426299 3.152122 3.464625 4.428882 ]
Betas:
[ 1.881265 1.324956 1.477402 1.626212 1.214693 1.352054 1.622747 ]
Aggregate results:
[ 4 10 14 12 8 16 18 20 6 25 ]
[ 0.074581 0.319645 0.045249 0.161667 0.249591 0.019253 0.007326 0.005191 0.111363 0.006135 ]
5
Num Evals 2000
GenUC: 4.530791e-05
GenUB: 3.539585e-05
Optimisation 1.285736e+00
Total Time: 1.288478e+00
5 Add/Rem 5
Graph 1:
1 1 1 1 0 
0 0 1 1 1 
1 0 1 0 1 
0 0 1 0 1 
1 1 0 0 1 
Graph 2:
0 0 1 1 0 
0 0 1 1 1 
1 0 1 1 1 
1 0 0 1 0 
0 1 1 1 1 
Solution: -6 77
Expectation: -9.696383
Final Parameters:
Gammas:
[ 3.418138 3.185746 3.425991 3.380209 3.407669 3.012062 ]
Betas:
[ 1.564081 1.371287 1.519117 1.428408 1.596434 1.612243 1.421913 ]
Aggregate results:
[ 10 14 16 12 18 8 6 25 ]
[ 0.472507 0.028579 0.005632 0.122576 0.011755 0.284703 0.070275 0.003973 ]
5
Num Evals 2500
GenUC: 4.628394e-05
GenUB: 3.657117e-05
Optimisation 1.292157e+00
Total Time: 1.294914e+00
