Clock Speed: 1.522770
Num threads: 12
Trotterisation: 6
Graph Size: 5
Num Qubits: 7
Space Dimension: 128
Run-Type: 0
Num_samples: 1
1 Isomorphic
Graph 1:
1 1 0 1 1 
0 0 0 0 0 
1 1 1 1 0 
0 0 1 0 1 
0 0 1 1 0 
Graph 2:
1 1 0 1 1 
0 0 0 0 0 
1 1 1 1 0 
0 0 1 0 1 
0 0 1 1 0 
Solution: 0 0
Expectation: -8.845939
Final Parameters:
Gammas:
[ 3.208283 2.940691 3.328135 3.348643 3.378033 3.264872 ]
Betas:
[ 2.085777 1.989742 1.619046 1.522063 1.327684 1.259285 1.669706 ]
Aggregate results:
[ 0 8 14 10 16 12 6 18 2 25 ]
[ 0.062935 0.314802 0.120985 0.184475 0.016708 0.141993 0.091778 0.001596 0.059993 0.004734 ]
5
Num Evals 500
GenUC: 5.742439e-03
GenUB: 8.403882e-05
Optimisation 1.398993e+00
Total Time: 1.407818e+00
2 Flipped
Graph 1:
1 1 0 1 1 
0 0 0 0 0 
1 1 1 1 0 
0 0 1 0 1 
0 0 1 1 0 
Graph 2:
1 1 0 1 1 
0 0 0 0 0 
0 1 1 1 1 
1 0 1 0 0 
0 1 1 0 0 
Solution: -6 0
Expectation: -8.778797
Final Parameters:
Gammas:
[ 3.375075 3.210789 3.432908 3.044268 3.384685 2.730846 ]
Betas:
[ 1.719591 1.223945 1.641107 1.424308 1.525176 1.451353 1.569544 ]
Aggregate results:
[ 6 14 16 8 12 10 18 25 ]
[ 0.229227 0.036261 0.027801 0.446882 0.083945 0.165638 0.006279 0.003967 ]
5
Num Evals 1000
GenUC: 4.637241e-05
GenUB: 3.938749e-05
Optimisation 1.345270e+00
Total Time: 1.347893e+00
3 Add 5
Graph 1:
1 1 0 1 1 
0 0 0 0 0 
1 1 1 1 0 
0 0 1 0 1 
0 0 1 1 0 
Graph 2:
1 1 0 1 1 
0 0 0 0 0 
1 1 1 1 1 
1 0 1 1 1 
1 0 1 1 1 
Solution: -5 0
Expectation: -11.935249
Final Parameters:
Gammas:
[ 3.229840 2.969772 4.774078 4.802450 3.185067 3.275438 ]
Betas:
[ 1.172294 1.975017 1.395539 1.811703 2.353317 1.498570 1.713899 ]
Aggregate results:
[ 5 13 17 19 15 7 9 11 25 ]
[ 0.040271 0.186304 0.044885 0.003534 0.263347 0.116165 0.158665 0.170025 0.016806 ]
5
Num Evals 1500
GenUC: 4.286412e-05
GenUB: 3.906433e-05
Optimisation 1.326085e+00
Total Time: 1.328616e+00
4 Rem 5
Graph 1:
1 1 0 1 1 
0 0 0 0 0 
1 1 1 1 0 
0 0 1 0 1 
0 0 1 1 0 
Graph 2:
1 0 0 1 1 
0 0 0 0 0 
1 0 0 1 0 
0 0 1 0 1 
0 0 1 1 0 
Solution: -3 0
Expectation: -13.000000
Final Parameters:
Gammas:
[ 3.141593 3.141593 3.141593 3.141593 3.141593 3.141593 ]
Betas:
[ 2.356194 1.570796 1.570796 1.570796 1.570796 1.570796 1.570796 ]
Aggregate results:
[ 3 9 13 11 15 7 5 17 25 ]
[ 0.007812 0.132812 0.328125 0.195312 0.210937 0.023437 0.015625 0.023437 0.062500 ]
3
Num Evals 1514
GenUC: 4.461315e-05
GenUB: 4.086643e-05
Optimisation 3.691221e-02
Total Time: 3.979076e-02
5 Add/Rem 5
Graph 1:
1 1 0 1 1 
0 0 0 0 0 
1 1 1 1 0 
0 0 1 0 1 
0 0 1 1 0 
Graph 2:
1 1 1 1 1 
0 0 0 0 0 
1 1 1 1 0 
0 0 1 0 0 
1 0 0 0 1 
Solution: -6 0
Expectation: -9.918148
Final Parameters:
Gammas:
[ 3.081746 3.415214 3.063100 2.885533 3.404914 3.249485 ]
Betas:
[ 1.948703 1.391825 1.622900 1.543342 1.895349 1.509615 1.494791 ]
Aggregate results:
[ 6 14 18 16 8 10 12 20 22 25 ]
[ 0.033541 0.025466 0.009690 0.022123 0.383473 0.356558 0.151033 0.010088 0.005410 0.002618 ]
5
Num Evals 2014
GenUC: 4.335586e-05
GenUB: 3.769062e-05
Optimisation 1.366302e+00
Total Time: 1.369234e+00
