Clock Speed: 1.522762
Num threads: 12
Trotterisation: 6
Graph Size: 5
Num Qubits: 7
Space Dimension: 128
Run-Type: 0
Num_samples: 1
1 Isomorphic
Graph 1:
1 1 1 0 0 
0 1 1 1 0 
0 1 0 1 0 
1 1 0 0 1 
0 1 1 1 0 
Graph 2:
1 1 1 0 0 
0 1 1 1 0 
0 1 0 1 0 
1 1 0 0 1 
0 1 1 1 0 
Solution: 0 0
Expectation: -8.232321
Final Parameters:
Gammas:
[ 3.312868 2.513564 3.404606 3.780427 3.418867 3.232165 ]
Betas:
[ 1.863348 1.260176 1.612364 1.501533 1.234347 1.370666 1.540078 ]
Aggregate results:
[ 0 8 12 4 10 16 14 20 18 25 ]
[ 0.117298 0.222383 0.268882 0.196517 0.116920 0.007649 0.048700 0.001561 0.009460 0.010628 ]
5
Num Evals 500
GenUC: 7.689035e-03
GenUB: 9.758305e-05
Optimisation 1.342774e+00
Total Time: 1.353346e+00
2 Flipped
Graph 1:
1 1 1 0 0 
0 1 1 1 0 
0 1 0 1 0 
1 1 0 0 1 
0 1 1 1 0 
Graph 2:
0 0 1 1 1 
0 1 1 1 0 
0 1 0 1 0 
1 0 0 1 1 
0 1 1 1 0 
Solution: -6 0
Expectation: -8.881744
Final Parameters:
Gammas:
[ 3.387527 3.211990 3.409917 3.526556 3.411556 2.847690 ]
Betas:
[ 1.792054 1.339579 1.517470 1.360844 1.594534 1.574467 1.437586 ]
Aggregate results:
[ 6 10 14 8 12 16 18 25 ]
[ 0.243387 0.203092 0.030557 0.376024 0.118422 0.013879 0.007797 0.006841 ]
5
Num Evals 1000
GenUC: 4.712865e-05
GenUB: 3.799237e-05
Optimisation 1.333406e+00
Total Time: 1.335824e+00
3 Add 5
Graph 1:
1 1 1 0 0 
0 1 1 1 0 
0 1 0 1 0 
1 1 0 0 1 
0 1 1 1 0 
Graph 2:
1 1 1 0 1 
1 1 1 1 0 
0 1 0 1 0 
1 1 0 1 1 
1 1 1 1 0 
Solution: -4 0
Expectation: -9.018757
Final Parameters:
Gammas:
[ 3.407546 3.284587 3.439706 3.265596 3.449616 3.026189 ]
Betas:
[ 1.900093 1.331096 1.494786 1.325692 1.672059 1.557327 1.439805 ]
Aggregate results:
[ 4 8 12 6 10 16 18 14 25 ]
[ 0.062814 0.291107 0.085334 0.125130 0.390062 0.017851 0.003162 0.017527 0.007013 ]
5
Num Evals 1500
GenUC: 4.454795e-05
GenUB: 3.773626e-05
Optimisation 1.252438e+00
Total Time: 1.254758e+00
4 Rem 5
Graph 1:
1 1 1 0 0 
0 1 1 1 0 
0 1 0 1 0 
1 1 0 0 1 
0 1 1 1 0 
Graph 2:
0 0 1 0 0 
0 0 1 1 0 
0 0 0 1 0 
1 1 0 0 1 
0 1 1 0 0 
Solution: -5 0
Expectation: -13.000000
Final Parameters:
Gammas:
[ 3.141593 3.141593 3.141593 3.141593 3.141593 3.141593 ]
Betas:
[ 2.356194 1.570796 1.570796 1.570796 1.570796 1.570796 1.570796 ]
Aggregate results:
[ 5 9 15 7 11 13 17 25 ]
[ 0.015625 0.085937 0.148437 0.031250 0.289062 0.320312 0.046875 0.062500 ]
3
Num Evals 1514
GenUC: 4.448090e-05
GenUB: 3.617629e-05
Optimisation 3.733382e-02
Total Time: 4.053318e-02
5 Add/Rem 5
Graph 1:
1 1 1 0 0 
0 1 1 1 0 
0 1 0 1 0 
1 1 0 0 1 
0 1 1 1 0 
Graph 2:
1 1 1 0 0 
0 0 0 1 1 
0 1 0 1 0 
1 1 1 0 1 
1 1 0 1 1 
Solution: -5 64
Expectation: -9.382668
Final Parameters:
Gammas:
[ 3.280261 3.166534 3.440363 3.269856 3.926806 3.115316 ]
Betas:
[ 1.719204 1.357886 1.545828 1.365679 1.624325 1.594698 1.519137 ]
Aggregate results:
[ 7 13 9 15 11 17 5 25 ]
[ 0.186352 0.072408 0.423286 0.007322 0.243084 0.009845 0.053319 0.004385 ]
5
Num Evals 2014
GenUC: 4.650559e-05
GenUB: 3.881752e-05
Optimisation 1.325329e+00
Total Time: 1.328120e+00
