Clock Speed: 3.687291
Num threads: 4
Trotterisation: 4
Graph Size: 8
Num Qubits: 16
Space Dimension: 65536
Run-Type: 0
Num_samples: 10
1 Isomorphic
Graph 1:
1 1 1 0 1 1 0 1 
0 1 1 1 1 1 1 0 
1 1 0 0 0 1 0 1 
0 1 0 1 1 1 1 0 
1 0 1 0 0 1 0 1 
1 1 0 0 0 0 0 1 
1 1 0 1 1 0 1 1 
0 0 1 1 0 0 0 1 
Graph 2:
1 1 1 0 1 1 0 1 
0 1 1 1 1 1 1 0 
1 1 0 0 0 1 0 1 
0 1 0 1 1 1 1 0 
1 0 1 0 0 1 0 1 
1 1 0 0 0 0 0 1 
1 1 0 1 1 0 1 1 
0 0 1 1 0 0 0 1 
Solution: 0 0
Gbest: -22.000000
Expectation: -28.225450
Final Parameters:
Gammas:
[ 3.173425 3.177543 3.323136 3.144073 ]
Betas:
[ 3.141560 0.606005 2.100561 1.334742 1.697928 ]
Aggregate results:
[ -1 11 21 25 23 15 17 9 19 27 29 31 33 35 37 13 5 41 39 7 43 63 ]
[ 0.000026 0.001880 0.063971 0.183845 0.115377 0.006355 0.010129 0.000605 0.023468 0.225018 0.185748 0.099404 0.035200 0.010582 0.009175 0.001784 0.000106 0.003255 0.007094 0.000146 0.000882 0.015949 ]
5
Num Evals 598
GenUC: 4.230326e-03
GenUB: 1.927189e-02
Optimisation 2.002870e+02
Total Time: 2.006469e+02
2 Flipped
Graph 1:
1 1 1 0 1 1 0 1 
0 1 1 1 1 1 1 0 
1 1 0 0 0 1 0 1 
0 1 0 1 1 1 1 0 
1 0 1 0 0 1 0 1 
1 1 0 0 0 0 0 1 
1 1 0 1 1 0 1 1 
0 0 1 1 0 0 0 1 
Graph 2:
1 0 1 1 0 1 1 1 
0 1 1 1 1 1 1 0 
1 0 1 0 0 0 1 1 
0 1 1 1 1 0 1 0 
1 0 1 0 0 1 0 1 
1 0 0 0 0 0 1 1 
1 1 0 1 1 0 1 1 
1 0 0 0 1 1 0 0 
Solution: -12 37500
Gbest: -24.000000
Expectation: -31.378896
Final Parameters:
Gammas:
[ 3.166081 3.113284 3.166535 2.988591 ]
Betas:
[ 1.677651 1.064110 1.653139 1.085134 1.599159 ]
Aggregate results:
[ 17 23 29 25 21 27 31 15 19 35 33 37 39 43 41 13 45 11 47 63 ]
[ 0.001382 0.040737 0.191874 0.089347 0.017556 0.147094 0.187988 0.000795 0.004729 0.094263 0.146554 0.044741 0.016265 0.000905 0.004076 0.000288 0.000126 0.000008 0.000008 0.011265 ]
3
Num Evals 1251
GenUC: 2.622286e-03
GenUB: 2.175946e-02
Optimisation 2.011785e+02
Total Time: 2.015010e+02
3 Add 8
Graph 1:
1 1 1 0 1 1 0 1 
0 1 1 1 1 1 1 0 
1 1 0 0 0 1 0 1 
0 1 0 1 1 1 1 0 
1 0 1 0 0 1 0 1 
1 1 0 0 0 0 0 1 
1 1 0 1 1 0 1 1 
0 0 1 1 0 0 0 1 
Graph 2:
1 1 1 1 1 1 0 1 
0 1 1 1 1 1 1 0 
1 1 0 0 1 1 0 1 
0 1 0 1 1 1 1 0 
1 0 1 1 0 1 0 1 
1 1 0 0 0 0 0 1 
1 1 0 1 1 0 1 1 
0 0 1 1 1 1 1 1 
Solution: -6 0
Gbest: -20.000000
Expectation: -27.630454
Final Parameters:
Gammas:
[ 3.171285 3.170032 3.352428 3.064919 ]
Betas:
[ 1.554783 0.606468 2.059552 1.490233 1.539480 ]
Aggregate results:
[ 5 15 23 25 21 27 13 29 19 31 17 33 11 35 37 9 39 41 43 63 ]
[ 0.000040 0.002742 0.148645 0.229772 0.072359 0.234630 0.001202 0.152947 0.024695 0.061252 0.008137 0.017356 0.000305 0.011264 0.011635 0.000157 0.006868 0.002701 0.000211 0.013080 ]
3
Num Evals 1990
GenUC: 2.880498e-03
GenUB: 2.226556e-02
Optimisation 2.293290e+02
Total Time: 2.296615e+02
4 Rem 8
Graph 1:
1 1 1 0 1 1 0 1 
0 1 1 1 1 1 1 0 
1 1 0 0 0 1 0 1 
0 1 0 1 1 1 1 0 
1 0 1 0 0 1 0 1 
1 1 0 0 0 0 0 1 
1 1 0 1 1 0 1 1 
0 0 1 1 0 0 0 1 
Graph 2:
1 0 1 0 0 1 0 1 
0 1 0 1 1 1 1 0 
1 1 0 0 0 1 0 1 
0 1 0 1 1 0 1 0 
1 0 0 0 0 1 0 1 
1 0 0 0 0 0 0 1 
1 1 0 0 0 0 1 1 
0 0 1 1 0 0 0 1 
Solution: -8 0
Gbest: -26.000000
Expectation: -43.218957
Final Parameters:
Gammas:
[ 2.381637 2.628221 2.526381 2.447114 ]
Betas:
[ 1.120958 1.012952 1.514003 1.567385 1.541298 ]
Aggregate results:
[ 7 17 27 25 15 23 19 21 11 29 31 33 13 35 37 39 41 43 45 47 63 ]
[ 0.000021 0.000805 0.074010 0.038249 0.000273 0.015741 0.002122 0.006015 0.000093 0.106305 0.122860 0.121065 0.000171 0.091278 0.047076 0.020333 0.006413 0.001523 0.000303 0.000022 0.345323 ]
3
Num Evals 2378
GenUC: 2.783766e-03
GenUB: 1.680730e-02
Optimisation 1.168940e+02
Total Time: 1.172555e+02
5 Add/Rem 8
Graph 1:
1 1 1 0 1 1 0 1 
0 1 1 1 1 1 1 0 
1 1 0 0 0 1 0 1 
0 1 0 1 1 1 1 0 
1 0 1 0 0 1 0 1 
1 1 0 0 0 0 0 1 
1 1 0 1 1 0 1 1 
0 0 1 1 0 0 0 1 
Graph 2:
1 1 1 0 1 1 1 1 
1 1 1 0 1 1 1 0 
1 1 0 0 0 1 1 1 
0 1 1 1 0 0 1 0 
1 1 0 0 0 1 1 1 
1 1 0 0 0 0 1 0 
1 0 0 1 0 0 1 1 
0 0 1 1 0 0 1 1 
Solution: -15 0
Gbest: -21.000000
Expectation: -29.987170
Final Parameters:
Gammas:
[ 3.154184 3.192035 3.419537 2.960108 ]
Betas:
[ 1.513011 0.760308 2.611274 1.483867 1.541739 ]
Aggregate results:
[ 14 18 26 22 24 28 30 34 32 36 20 16 38 40 42 44 46 63 ]
[ 0.000081 0.003651 0.216942 0.058041 0.132681 0.229423 0.160747 0.025440 0.069691 0.020976 0.019104 0.001066 0.014847 0.006885 0.001794 0.001268 0.000092 0.037270 ]
5
Num Evals 3179
GenUC: 2.895051e-03
GenUB: 1.702259e-02
Optimisation 2.668811e+02
Total Time: 2.672236e+02
