Clock Speed: 3.688944
Num threads: 4
Trotterisation: 4
Graph Size: 8
Num Qubits: 16
Space Dimension: 65536
Run-Type: 0
Num_samples: 10
1 Isomorphic
Graph 1:
0 0 1 0 1 1 1 0 
0 1 0 0 1 0 0 1 
1 1 0 1 1 1 0 1 
0 0 1 0 1 1 0 0 
0 1 1 0 1 0 0 1 
0 0 0 1 0 0 1 0 
1 1 0 1 0 0 0 0 
1 0 0 1 0 1 0 0 
Graph 2:
0 0 1 0 1 1 1 0 
0 1 0 0 1 0 0 1 
1 1 0 1 1 1 0 1 
0 0 1 0 1 1 0 0 
0 1 1 0 1 0 0 1 
0 0 0 1 0 0 1 0 
1 1 0 1 0 0 0 0 
1 0 0 1 0 1 0 0 
Solution: 0 0
Gbest: -30.000000
Expectation: -42.366051
Final Parameters:
Gammas:
[ 2.350320 2.568583 2.545338 2.561361 ]
Betas:
[ 1.122173 2.115267 1.550895 1.601392 1.621315 ]
Aggregate results:
[ -1 13 21 15 17 27 23 19 3 29 11 7 31 25 9 37 33 35 41 39 43 45 63 ]
[ 0.000000 0.000183 0.012019 0.000745 0.001248 0.107300 0.028670 0.004559 0.000016 0.127580 0.000275 0.000019 0.111999 0.058765 0.000096 0.028399 0.094606 0.062609 0.002773 0.009620 0.000794 0.000165 0.347559 ]
3
Num Evals 431
GenUC: 3.733639e-03
GenUB: 1.743945e-02
Optimisation 1.441651e+02
Total Time: 1.445076e+02
2 Flipped
Graph 1:
0 0 1 0 1 1 1 0 
0 1 0 0 1 0 0 1 
1 1 0 1 1 1 0 1 
0 0 1 0 1 1 0 0 
0 1 1 0 1 0 0 1 
0 0 0 1 0 0 1 0 
1 1 0 1 0 0 0 0 
1 0 0 1 0 1 0 0 
Graph 2:
0 1 1 1 0 1 0 0 
1 0 0 1 0 0 1 0 
1 0 1 1 1 0 1 1 
0 0 1 1 0 1 0 0 
1 0 0 1 0 1 1 0 
0 1 0 0 1 0 0 0 
0 0 0 0 1 0 1 1 
0 0 1 0 1 0 0 1 
Solution: -10 26916
Gbest: -24.000000
Expectation: -29.113438
Final Parameters:
Gammas:
[ 3.173474 3.172495 3.337085 3.065064 ]
Betas:
[ 1.551381 0.585881 2.081702 1.504717 1.525564 ]
Aggregate results:
[ 39 41 33 35 37 31 43 29 27 25 21 19 23 45 17 15 9 11 13 47 63 ]
[ 0.009604 0.007065 0.047399 0.013280 0.009925 0.124704 0.002667 0.210355 0.230738 0.175080 0.041552 0.012053 0.096440 0.000351 0.002673 0.000505 0.000027 0.000037 0.000063 0.000006 0.015478 ]
5
Num Evals 1232
GenUC: 2.630003e-03
GenUB: 1.700903e-02
Optimisation 2.495786e+02
Total Time: 2.499073e+02
3 Add 8
Graph 1:
0 0 1 0 1 1 1 0 
0 1 0 0 1 0 0 1 
1 1 0 1 1 1 0 1 
0 0 1 0 1 1 0 0 
0 1 1 0 1 0 0 1 
0 0 0 1 0 0 1 0 
1 1 0 1 0 0 0 0 
1 0 0 1 0 1 0 0 
Graph 2:
0 0 1 0 1 1 1 0 
0 1 0 0 1 0 1 1 
1 1 0 1 1 1 0 1 
0 0 1 0 1 1 1 0 
0 1 1 1 1 1 1 1 
0 0 0 1 0 0 1 0 
1 1 1 1 0 0 0 0 
1 1 1 1 0 1 0 0 
Solution: -8 0
Gbest: -24.000000
Expectation: -28.866277
Final Parameters:
Gammas:
[ 3.171130 3.169958 0.218021 1.692597 ]
Betas:
[ 0.785937 0.571405 2.111339 1.478851 1.552606 ]
Aggregate results:
[ 7 17 25 21 23 19 27 9 29 15 31 33 13 35 37 39 41 43 45 47 63 ]
[ 0.000106 0.004854 0.188112 0.042481 0.098468 0.013078 0.236603 0.000095 0.209600 0.001102 0.110809 0.034424 0.000150 0.012547 0.014679 0.010840 0.006254 0.001579 0.000347 0.000071 0.013802 ]
3
Num Evals 1940
GenUC: 3.010427e-03
GenUB: 1.709515e-02
Optimisation 2.113619e+02
Total Time: 2.117143e+02
4 Rem 8
Graph 1:
0 0 1 0 1 1 1 0 
0 1 0 0 1 0 0 1 
1 1 0 1 1 1 0 1 
0 0 1 0 1 1 0 0 
0 1 1 0 1 0 0 1 
0 0 0 1 0 0 1 0 
1 1 0 1 0 0 0 0 
1 0 0 1 0 1 0 0 
Graph 2:
0 0 0 0 1 1 1 0 
0 1 0 0 0 0 0 1 
0 1 0 0 1 1 0 1 
0 0 1 0 1 1 0 0 
0 0 1 0 0 0 0 0 
0 0 0 1 0 0 1 0 
1 1 0 1 0 0 0 0 
1 0 0 1 0 1 0 0 
Solution: -7 0
Gbest: -25.000000
Expectation: -31.051809
Final Parameters:
Gammas:
[ 3.154095 3.186088 4.880916 6.282406 ]
Betas:
[ 2.260876 0.927706 2.469473 1.531747 1.614146 ]
Aggregate results:
[ 6 16 22 20 30 24 28 18 10 14 26 12 8 32 34 36 38 42 40 44 63 ]
[ 0.000005 0.000554 0.037155 0.013560 0.188877 0.090294 0.194041 0.003583 0.000001 0.000030 0.154245 0.000003 0.000005 0.147300 0.084631 0.037128 0.012018 0.000379 0.002895 0.000067 0.033229 ]
5
Num Evals 2543
GenUC: 2.937493e-03
GenUB: 1.694850e-02
Optimisation 2.058296e+02
Total Time: 2.061912e+02
5 Add/Rem 8
Graph 1:
0 0 1 0 1 1 1 0 
0 1 0 0 1 0 0 1 
1 1 0 1 1 1 0 1 
0 0 1 0 1 1 0 0 
0 1 1 0 1 0 0 1 
0 0 0 1 0 0 1 0 
1 1 0 1 0 0 0 0 
1 0 0 1 0 1 0 0 
Graph 2:
0 1 1 1 1 0 1 0 
0 1 0 1 1 0 0 1 
0 1 0 1 1 0 0 1 
0 0 0 1 1 1 0 0 
0 1 0 1 1 0 0 1 
0 0 0 0 0 0 1 0 
1 0 0 1 1 0 1 0 
1 0 1 1 0 1 0 0 
Solution: -15 0
Gbest: -23.000000
Expectation: -29.656166
Final Parameters:
Gammas:
[ 3.158646 3.178902 2.992877 3.155974 ]
Betas:
[ 1.577583 1.093350 2.397045 1.621893 1.651284 ]
Aggregate results:
[ 14 26 22 18 20 16 28 24 34 32 30 36 40 38 44 42 46 63 ]
[ 0.000070 0.190371 0.060043 0.005738 0.020224 0.000994 0.222602 0.120104 0.043292 0.105627 0.183394 0.013795 0.002815 0.005325 0.000419 0.001180 0.000017 0.023992 ]
5
Num Evals 3352
GenUC: 2.879397e-03
GenUB: 1.728086e-02
Optimisation 2.744673e+02
Total Time: 2.748696e+02
