Clock Speed: 3.689424
Num threads: 4
Trotterisation: 4
Graph Size: 8
Num Qubits: 16
Space Dimension: 65536
Run-Type: 0
Num_samples: 10
1 Isomorphic
Graph 1:
1 0 1 1 0 0 1 1 
0 0 0 1 0 0 1 1 
1 0 0 0 1 1 0 0 
0 0 1 0 1 0 1 1 
0 0 0 1 1 1 0 1 
1 1 0 0 0 0 1 0 
1 0 1 0 1 1 0 1 
0 0 0 0 0 1 1 0 
Graph 2:
1 0 1 1 0 0 1 1 
0 0 0 1 0 0 1 1 
1 0 0 0 1 1 0 0 
0 0 1 0 1 0 1 1 
0 0 0 1 1 1 0 1 
1 1 0 0 0 0 1 0 
1 0 1 0 1 1 0 1 
0 0 0 0 0 1 1 0 
Solution: 0 0
Gbest: -22.000000
Expectation: -42.185539
Final Parameters:
Gammas:
[ 2.352898 2.677960 2.911121 2.850316 ]
Betas:
[ 1.143274 2.276591 1.685839 1.615121 1.656091 ]
Aggregate results:
[ -1 7 21 19 15 17 11 23 27 31 13 29 25 9 33 35 37 41 39 45 47 43 63 ]
[ 0.000005 0.000003 0.017382 0.006130 0.000987 0.002074 0.000149 0.042596 0.101044 0.110178 0.000280 0.116984 0.072985 0.000089 0.082931 0.052745 0.027216 0.003539 0.010830 0.000214 0.000069 0.000586 0.350984 ]
3
Num Evals 655
GenUC: 3.693624e-03
GenUB: 1.785541e-02
Optimisation 2.240482e+02
Total Time: 2.244107e+02
2 Flipped
Graph 1:
1 0 1 1 0 0 1 1 
0 0 0 1 0 0 1 1 
1 0 0 0 1 1 0 0 
0 0 1 0 1 0 1 1 
0 0 0 1 1 1 0 1 
1 1 0 0 0 0 1 0 
1 0 1 0 1 1 0 1 
0 0 0 0 0 1 1 0 
Graph 2:
1 1 0 0 1 1 0 1 
1 1 0 0 1 0 0 0 
0 0 1 1 0 0 0 1 
1 1 0 1 0 1 0 0 
1 0 1 1 1 0 0 0 
0 1 0 0 0 0 1 1 
1 0 1 1 0 1 0 1 
0 1 1 0 0 0 0 0 
Solution: -16 2272
Gbest: -34.000000
Expectation: -43.343988
Final Parameters:
Gammas:
[ 2.333586 1.805014 2.527680 2.555483 ]
Betas:
[ 1.177730 2.126155 1.585131 1.608046 1.620305 ]
Aggregate results:
[ 37 39 33 29 27 31 35 23 25 21 19 41 17 43 15 45 47 63 ]
[ 0.048064 0.019115 0.110125 0.115072 0.078307 0.121994 0.091704 0.013419 0.038145 0.004137 0.001101 0.007827 0.000168 0.002133 0.000049 0.000380 0.000035 0.348224 ]
3
Num Evals 1078
GenUC: 2.621206e-03
GenUB: 1.718113e-02
Optimisation 1.396770e+02
Total Time: 1.400267e+02
3 Add 8
Graph 1:
1 0 1 1 0 0 1 1 
0 0 0 1 0 0 1 1 
1 0 0 0 1 1 0 0 
0 0 1 0 1 0 1 1 
0 0 0 1 1 1 0 1 
1 1 0 0 0 0 1 0 
1 0 1 0 1 1 0 1 
0 0 0 0 0 1 1 0 
Graph 2:
1 0 1 1 1 0 1 1 
0 0 0 1 1 1 1 1 
1 0 0 0 1 1 0 0 
1 0 1 1 1 0 1 1 
1 0 0 1 1 1 0 1 
1 1 1 0 0 1 1 0 
1 0 1 0 1 1 0 1 
0 0 0 0 0 1 1 0 
Solution: -8 0
Gbest: -32.000000
Expectation: -42.921173
Final Parameters:
Gammas:
[ 2.331933 2.652168 2.950026 2.954215 ]
Betas:
[ 1.378965 2.282956 1.510149 1.770634 1.486963 ]
Aggregate results:
[ 7 15 23 21 17 27 25 19 29 33 31 35 37 39 41 43 45 47 63 ]
[ 0.000036 0.000280 0.023492 0.008120 0.000716 0.088896 0.051728 0.001896 0.117797 0.103558 0.125215 0.069133 0.036224 0.016156 0.003882 0.001301 0.000232 0.000054 0.351287 ]
5
Num Evals 1880
GenUC: 3.006581e-03
GenUB: 1.706913e-02
Optimisation 2.692860e+02
Total Time: 2.696357e+02
4 Rem 8
Graph 1:
1 0 1 1 0 0 1 1 
0 0 0 1 0 0 1 1 
1 0 0 0 1 1 0 0 
0 0 1 0 1 0 1 1 
0 0 0 1 1 1 0 1 
1 1 0 0 0 0 1 0 
1 0 1 0 1 1 0 1 
0 0 0 0 0 1 1 0 
Graph 2:
1 0 1 1 0 0 1 1 
0 0 0 1 0 0 1 0 
0 0 0 0 0 1 0 0 
0 0 0 0 1 0 1 1 
0 0 0 1 1 1 0 0 
1 1 0 0 0 0 1 0 
1 0 0 0 1 1 0 0 
0 0 0 0 0 1 1 0 
Solution: -7 0
Gbest: -25.000000
Expectation: -29.068158
Final Parameters:
Gammas:
[ 3.158929 3.178059 3.277428 3.164697 ]
Betas:
[ 2.536759 0.986572 2.511979 1.487991 1.524874 ]
Aggregate results:
[ 6 12 20 16 18 24 26 22 28 36 30 32 34 40 38 42 44 46 14 48 8 10 63 ]
[ 0.000048 0.000241 0.027971 0.002375 0.010248 0.139398 0.204590 0.076262 0.209363 0.011771 0.162146 0.090418 0.035113 0.001915 0.003959 0.000558 0.000140 0.000020 0.000531 0.000013 0.000041 0.000082 0.022795 ]
5
Num Evals 2689
GenUC: 2.941015e-03
GenUB: 1.736004e-02
Optimisation 2.802192e+02
Total Time: 2.805887e+02
5 Add/Rem 8
Graph 1:
1 0 1 1 0 0 1 1 
0 0 0 1 0 0 1 1 
1 0 0 0 1 1 0 0 
0 0 1 0 1 0 1 1 
0 0 0 1 1 1 0 1 
1 1 0 0 0 0 1 0 
1 0 1 0 1 1 0 1 
0 0 0 0 0 1 1 0 
Graph 2:
1 1 1 1 0 0 1 1 
0 0 1 1 1 0 1 0 
1 0 1 1 1 1 0 0 
0 1 1 0 1 0 1 1 
0 0 0 1 1 1 0 1 
0 1 0 0 1 0 1 0 
1 0 1 0 0 0 0 1 
0 0 0 0 0 1 1 0 
Solution: -11 0
Gbest: -25.000000
Expectation: -30.569807
Final Parameters:
Gammas:
[ 3.186350 3.176432 2.990291 3.156164 ]
Betas:
[ 1.633334 1.568966 0.540863 1.669778 1.598117 ]
Aggregate results:
[ 10 16 20 26 24 22 18 14 32 28 30 34 36 38 40 42 44 46 63 ]
[ 0.000020 0.001019 0.019221 0.180327 0.118499 0.057853 0.004217 0.000054 0.109884 0.210510 0.177713 0.047022 0.015301 0.006020 0.003470 0.001575 0.000762 0.000202 0.046333 ]
3
Num Evals 3443
GenUC: 3.151070e-03
GenUB: 1.831243e-02
Optimisation 2.310034e+02
Total Time: 2.313208e+02
