Clock Speed: 3.690303
Num threads: 4
Trotterisation: 5
Num Qubits: 10
Space Dimension: 1024
Run-Type: 0
Num_samples: 32399
Optimiser Method: 0
1 Isomorphic
Graph 1:
0 1 1 1 1 0 
1 1 1 0 1 0 
0 1 0 0 0 0 
1 1 1 1 1 0 
1 0 0 1 0 1 
1 1 1 0 0 0 
Graph 2:
0 1 1 1 1 0 
1 1 1 0 1 0 
0 1 0 0 0 0 
1 1 1 1 1 0 
1 0 0 1 0 1 
1 1 1 0 0 0 
Solution: 36 0
Classic Expectation: 18.933333
Initial Expecation: 13.312500
Gbest: 36.000000
Expectation: 13.822610
Final Parameters:
Gammas:
[ 5.235988 3.141593 3.141593 3.141593 3.141593 ]
Betas:
[ 1.570796 1.570796 1.570796 1.570796 0.523599 ]
Aggregate results:
[ 36 22 26 30 18 20 24 16 28 12 8 14 10 0 ]
[ 0.000642 0.120809 0.016550 0.002139 0.205475 0.186987 0.017803 0.121099 0.003311 0.009606 0.003473 0.038311 0.007200 0.266597 ]
3
Num Evals 31
GenUC: 2.598168e-04
GenUB: 8.950289e-05
Optimisation 8.427717e-02
Total Time: 8.464495e-02
2 Flipped
Graph 1:
0 1 1 1 1 0 
1 1 1 0 1 0 
0 1 0 0 0 0 
1 1 1 1 1 0 
1 0 0 1 0 1 
1 1 1 0 0 0 
Graph 2:
0 1 1 1 1 0 
0 1 0 1 1 1 
0 0 0 0 1 0 
0 1 1 1 1 1 
1 0 1 0 0 1 
0 0 0 1 1 1 
Solution: 26 179
Classic Expectation: 18.400000
Initial Expecation: 12.937500
Gbest: 26.000000
Expectation: 13.626492
Final Parameters:
Gammas:
[ 1.047198 3.141593 3.141593 3.141593 3.141593 ]
Betas:
[ 1.570796 1.570796 1.570796 1.570796 0.523599 ]
Aggregate results:
[ 20 22 16 18 14 12 24 8 26 10 0 ]
[ 0.155172 0.086666 0.147860 0.209208 0.057622 0.022711 0.042507 0.000132 0.014171 0.001596 0.262354 ]
3
Num Evals 27
GenUC: 2.807284e-04
GenUB: 4.890171e-05
Optimisation 7.785712e-02
Total Time: 7.818874e-02
3 Add 6
Graph 1:
0 1 1 1 1 0 
1 1 1 0 1 0 
0 1 0 0 0 0 
1 1 1 1 1 0 
1 0 0 1 0 1 
1 1 1 0 0 0 
Graph 2:
0 1 1 1 1 0 
1 1 1 0 1 0 
0 1 1 1 0 0 
1 1 1 1 1 0 
1 0 1 1 1 1 
1 1 1 0 0 0 
Solution: 32 0
Classic Expectation: 18.666667
Initial Expecation: 13.125000
Gbest: 32.000000
Expectation: 13.609732
Final Parameters:
Gammas:
[ 1.047198 3.141593 3.141593 3.141593 3.141593 ]
Betas:
[ 1.570796 1.570796 1.570796 1.570796 0.523599 ]
Aggregate results:
[ 32 20 26 22 24 18 16 14 28 12 10 8 0 ]
[ 0.001294 0.172799 0.007545 0.107353 0.021639 0.223055 0.139182 0.039896 0.000442 0.016157 0.001781 0.001319 0.267538 ]
3
Num Evals 27
GenUC: 2.804269e-04
GenUB: 5.105609e-05
Optimisation 7.100442e-02
Total Time: 7.133781e-02
4 Rem 6
Graph 1:
0 1 1 1 1 0 
1 1 1 0 1 0 
0 1 0 0 0 0 
1 1 1 1 1 0 
1 0 0 1 0 1 
1 1 1 0 0 0 
Graph 2:
0 1 1 1 0 0 
0 1 1 0 1 0 
0 1 0 0 0 0 
0 1 1 1 0 0 
1 0 0 1 0 1 
0 1 1 0 0 0 
Solution: 31 0
Classic Expectation: 17.933333
Initial Expecation: 12.609375
Gbest: 31.000000
Expectation: 16.048200
Final Parameters:
Gammas:
[ 4.843825 3.171757 3.128666 3.150428 3.180376 ]
Betas:
[ 1.486759 2.292633 1.396266 1.085986 0.426633 ]
Aggregate results:
[ 31 21 19 27 17 15 23 13 9 11 7 25 29 5 0 ]
[ 0.000402 0.153854 0.252816 0.008889 0.214542 0.118656 0.041123 0.054381 0.004093 0.017547 0.002592 0.011438 0.004882 0.001195 0.113592 ]
3
Num Evals 1697
GenUC: 2.807677e-04
GenUB: 5.047291e-05
Optimisation 4.505706e+00
Total Time: 4.506039e+00
5 Add/Rem 6
Graph 1:
0 1 1 1 1 0 
1 1 1 0 1 0 
0 1 0 0 0 0 
1 1 1 1 1 0 
1 0 0 1 0 1 
1 1 1 0 0 0 
Graph 2:
0 1 1 1 1 0 
1 0 0 1 0 1 
1 1 0 0 1 0 
1 1 0 0 1 0 
1 0 1 0 1 1 
1 1 1 0 0 0 
Solution: 28 38
Classic Expectation: 19.466667
Initial Expecation: 13.687500
Gbest: 28.000000
Expectation: 14.347782
Final Parameters:
Gammas:
[ 5.235988 3.141593 3.141593 3.141593 3.141593 ]
Betas:
[ 1.570796 1.570796 1.570796 1.570796 0.523599 ]
Aggregate results:
[ 24 18 26 22 20 16 28 14 12 0 ]
[ 0.044070 0.197803 0.008531 0.150218 0.207738 0.084741 0.002411 0.038780 0.006832 0.258875 ]
3
Num Evals 59
GenUC: 2.805313e-04
GenUB: 4.904665e-05
Optimisation 1.593636e-01
Total Time: 1.596955e-01
