Clock Speed: 3.688645
Num threads: 4
Trotterisation: 5
Num Qubits: 10
Space Dimension: 1024
Run-Type: 0
Num_samples: 32399
Optimiser Method: 0
1 Isomorphic
Graph 1:
1 0 1 1 1 0 
1 1 0 1 0 1 
0 0 1 0 1 1 
1 1 1 0 1 0 
0 1 1 1 1 1 
0 0 0 0 0 0 
Graph 2:
1 0 1 1 1 0 
1 1 0 1 0 1 
0 0 1 0 1 1 
1 1 1 0 1 0 
0 1 1 1 1 1 
0 0 0 0 0 0 
Solution: 36 0
Classic Expectation: 18.400000
Initial Expecation: 12.937500
Gbest: 36.000000
Expectation: 12.937500
Final Parameters:
Gammas:
[ 3.141593 1.047198 3.141593 1.047198 3.141593 ]
Betas:
[ 1.570796 1.570796 1.570796 1.570796 1.570796 ]
Aggregate results:
[ 36 20 26 18 24 10 14 22 32 28 16 12 30 0 ]
[ 0.000977 0.116211 0.018555 0.199219 0.040039 0.004883 0.073242 0.068359 0.000977 0.004883 0.160156 0.012695 0.002930 0.296875 ]
3
Num Evals 61
GenUC: 2.607405e-04
GenUB: 8.892355e-05
Optimisation 1.655899e-01
Total Time: 1.659688e-01
2 Flipped
Graph 1:
1 0 1 1 1 0 
1 1 0 1 0 1 
0 0 1 0 1 1 
1 1 1 0 1 0 
0 1 1 1 1 1 
0 0 0 0 0 0 
Graph 2:
0 1 1 1 0 1 
1 0 1 0 1 1 
1 1 0 1 0 0 
0 1 0 1 1 1 
1 1 1 1 1 0 
0 0 0 0 0 0 
Solution: 28 518
Classic Expectation: 17.866667
Initial Expecation: 12.562500
Gbest: 28.000000
Expectation: 13.119354
Final Parameters:
Gammas:
[ 1.047198 3.141593 3.141593 3.141593 3.141593 ]
Betas:
[ 1.570796 1.570796 1.570796 1.570796 0.523599 ]
Aggregate results:
[ 16 10 24 12 18 14 26 20 22 8 28 0 ]
[ 0.173861 0.004610 0.033217 0.042367 0.187839 0.083283 0.017426 0.118012 0.068690 0.002000 0.003510 0.265183 ]
3
Num Evals 27
GenUC: 2.795534e-04
GenUB: 4.938594e-05
Optimisation 7.257658e-02
Total Time: 7.290811e-02
3 Add 6
Graph 1:
1 0 1 1 1 0 
1 1 0 1 0 1 
0 0 1 0 1 1 
1 1 1 0 1 0 
0 1 1 1 1 1 
0 0 0 0 0 0 
Graph 2:
1 0 1 1 1 0 
1 1 0 1 0 1 
0 0 1 1 1 1 
1 1 1 1 1 1 
1 1 1 1 1 1 
1 0 0 0 0 0 
Solution: 31 0
Classic Expectation: 19.000000
Initial Expecation: 13.359375
Gbest: 31.000000
Expectation: 13.963688
Final Parameters:
Gammas:
[ 5.235988 3.141593 5.235988 3.141593 3.141593 ]
Betas:
[ 1.570796 1.570796 1.570796 1.570796 0.523599 ]
Aggregate results:
[ 31 17 29 21 23 25 11 27 15 19 13 9 0 ]
[ 0.001114 0.159278 0.003249 0.122956 0.091001 0.038246 0.005156 0.011222 0.104370 0.170198 0.025882 0.000054 0.267275 ]
3
Num Evals 45
GenUC: 2.794084e-04
GenUB: 5.073159e-05
Optimisation 1.189936e-01
Total Time: 1.193261e-01
4 Rem 6
Graph 1:
1 0 1 1 1 0 
1 1 0 1 0 1 
0 0 1 0 1 1 
1 1 1 0 1 0 
0 1 1 1 1 1 
0 0 0 0 0 0 
Graph 2:
1 0 1 0 1 0 
1 1 0 1 0 1 
0 0 1 0 1 1 
0 0 1 0 0 0 
0 0 1 1 1 1 
0 0 0 0 0 0 
Solution: 31 0
Classic Expectation: 18.066667
Initial Expecation: 12.703125
Gbest: 31.000000
Expectation: 13.116779
Final Parameters:
Gammas:
[ 5.235988 3.141593 5.235988 3.141593 3.141593 ]
Betas:
[ 1.570796 1.570796 1.570796 1.570796 0.523599 ]
Aggregate results:
[ 31 19 23 21 17 27 11 25 15 29 13 9 0 ]
[ 0.000456 0.172603 0.053620 0.111236 0.195360 0.005716 0.006208 0.009558 0.112237 0.000816 0.058050 0.001046 0.273094 ]
3
Num Evals 45
GenUC: 2.786320e-04
GenUB: 5.083659e-05
Optimisation 1.182825e-01
Total Time: 1.186144e-01
5 Add/Rem 6
Graph 1:
1 0 1 1 1 0 
1 1 0 1 0 1 
0 0 1 0 1 1 
1 1 1 0 1 0 
0 1 1 1 1 1 
0 0 0 0 0 0 
Graph 2:
1 0 1 1 1 0 
1 1 1 0 0 1 
0 0 0 0 0 0 
1 1 1 1 1 1 
1 0 1 1 1 1 
1 0 0 0 0 1 
Solution: 29 706
Classic Expectation: 18.733333
Initial Expecation: 13.171875
Gbest: 29.000000
Expectation: 13.861882
Final Parameters:
Gammas:
[ 5.235988 3.141593 5.235988 3.141593 3.141593 ]
Betas:
[ 1.570796 1.570796 1.570796 1.570796 0.523599 ]
Aggregate results:
[ 25 15 13 19 17 21 27 23 11 29 0 ]
[ 0.032581 0.112589 0.045842 0.195101 0.147368 0.100646 0.018245 0.082735 0.002450 0.000495 0.261948 ]
3
Num Evals 45
GenUC: 2.788984e-04
GenUB: 4.887366e-05
Optimisation 1.203963e-01
Total Time: 1.207264e-01
