Clock Speed: 3.688760
Num threads: 4
Trotterisation: 1
Num Qubits: 5
Space Dimension: 32
Run-Type: 0
Num_samples: 4
Optimiser Method: 29
1 Isomorphic
Graph 1:
0 1 0 1 
1 0 0 0 
0 0 0 0 
1 0 0 0 
Graph 2:
0 1 0 1 
1 0 0 0 
0 0 0 0 
1 0 0 0 
Solution: 16 0
Classic Expectation: 10.666667
Initial Expecation: 8.000000
Gbest: 12.000000
Expectation: 11.095597
Final Parameters:
Gammas:
[ 2.971965 ]
Betas:
[ 2.532456 ]
Aggregate results:
[ 16 12 8 0 ]
[ 0.096306 0.642260 0.230948 0.030486 ]
4
Num Evals 196
GenUC: 8.130031e-06
GenUB: 8.317233e-06
Optimisation 1.118805e+00
Total Time: 1.118846e+00
2 Flipped
Graph 1:
0 1 0 1 
1 0 0 0 
0 0 0 0 
1 0 0 0 
Graph 2:
1 0 1 0 
0 0 0 1 
0 0 0 0 
0 0 0 1 
Solution: 10 1
Classic Expectation: 9.333333
Initial Expecation: 7.000000
Gbest: 10.000000
Expectation: 9.210979
Final Parameters:
Gammas:
[ 3.308922 ]
Betas:
[ 0.727901 ]
Aggregate results:
[ 8 10 0 ]
[ 0.369689 0.625347 0.004964 ]
3
Num Evals 203
GenUC: 9.115331e-06
GenUB: 1.972357e-06
Optimisation 3.191821e-01
Total Time: 3.191956e-01
3 Add 4
Graph 1:
0 1 0 1 
1 0 0 0 
0 0 0 0 
1 0 0 0 
Graph 2:
0 1 1 1 
1 1 1 1 
1 1 0 0 
1 1 0 0 
Solution: 9 0
Classic Expectation: 7.666667
Initial Expecation: 5.750000
Gbest: 9.000000
Expectation: 7.252334
Final Parameters:
Gammas:
[ 4.703028 ]
Betas:
[ 2.364422 ]
Aggregate results:
[ 9 5 0 ]
[ 0.563659 0.435880 0.000461 ]
4
Num Evals 181
GenUC: 9.461564e-06
GenUB: 1.654878e-06
Optimisation 8.079262e-01
Total Time: 8.079394e-01
4 Rem 4
Graph 1:
0 1 0 1 
1 0 0 0 
0 0 0 0 
1 0 0 0 
Graph 2:
0 0 0 0 
0 0 0 0 
0 0 0 0 
0 0 0 0 
Solution: 12 0
Classic Expectation: 12.000000
Initial Expecation: 9.000000
Gbest: 12.000000
Expectation: 12.000000
Final Parameters:
Gammas:
[ 3.534292 ]
Betas:
[ 2.356194 ]
Aggregate results:
[ 12 0 ]
[ 1.000000 0.000000 ]
4
Num Evals 202
GenUC: 9.221549e-06
GenUB: 1.683635e-06
Optimisation 8.060976e-01
Total Time: 8.061112e-01
5 Add/Rem 4
Graph 1:
0 1 0 1 
1 0 0 0 
0 0 0 0 
1 0 0 0 
Graph 2:
0 0 1 0 
0 1 1 1 
1 1 0 0 
0 1 0 0 
Solution: 13 8
Classic Expectation: 9.000000
Initial Expecation: 6.750000
Gbest: 9.000000
Expectation: 8.750000
Final Parameters:
Gammas:
[ 4.712389 ]
Betas:
[ 2.356194 ]
Aggregate results:
[ 5 9 13 0 ]
[ 0.187500 0.687500 0.125000 0.000000 ]
3
Num Evals 193
GenUC: 8.433426e-06
GenUB: 1.456528e-06
Optimisation 4.394778e-01
Total Time: 4.394901e-01
