Clock Speed: 3.689421
Num threads: 4
Trotterisation: 1
Num Qubits: 5
Space Dimension: 32
Run-Type: 0
Num_samples: 4
Optimiser Method: 29
1 Isomorphic
Graph 1:
0 0 0 0 
0 0 0 1 
0 0 0 1 
0 1 1 0 
Graph 2:
0 0 0 0 
0 0 0 1 
0 0 0 1 
0 1 1 0 
Solution: 16 0
Classic Expectation: 10.666667
Initial Expecation: 8.000000
Gbest: 16.000000
Expectation: 10.752048
Final Parameters:
Gammas:
[ 2.936776 ]
Betas:
[ 2.493336 ]
Aggregate results:
[ 16 12 8 0 ]
[ 0.166820 0.396184 0.416090 0.020906 ]
4
Num Evals 193
GenUC: 8.375369e-06
GenUB: 1.073974e-05
Optimisation 1.041741e+00
Total Time: 1.041784e+00
2 Flipped
Graph 1:
0 0 0 0 
0 0 0 1 
0 0 0 1 
0 1 1 0 
Graph 2:
0 0 0 0 
1 0 0 0 
1 0 0 0 
0 1 1 0 
Solution: 12 0
Classic Expectation: 10.666667
Initial Expecation: 8.000000
Gbest: 12.000000
Expectation: 10.635511
Final Parameters:
Gammas:
[ 3.581357 ]
Betas:
[ 2.292440 ]
Aggregate results:
[ 12 10 0 ]
[ 0.438174 0.537742 0.024084 ]
4
Num Evals 206
GenUC: 9.024414e-06
GenUB: 1.710638e-06
Optimisation 7.775446e-01
Total Time: 7.775576e-01
3 Add 4
Graph 1:
0 0 0 0 
0 0 0 1 
0 0 0 1 
0 1 1 0 
Graph 2:
1 1 1 1 
1 0 0 1 
1 0 0 1 
1 1 1 0 
Solution: 9 0
Classic Expectation: 7.666667
Initial Expecation: 5.750000
Gbest: 9.000000
Expectation: 6.602459
Final Parameters:
Gammas:
[ 1.996819 ]
Betas:
[ 2.086677 ]
Aggregate results:
[ 9 5 0 ]
[ 0.538767 0.350712 0.110522 ]
4
Num Evals 188
GenUC: 9.480975e-06
GenUB: 1.397264e-06
Optimisation 6.632799e-01
Total Time: 6.632931e-01
4 Rem 4
Graph 1:
0 0 0 0 
0 0 0 1 
0 0 0 1 
0 1 1 0 
Graph 2:
0 0 0 0 
0 0 0 0 
0 0 0 0 
0 0 0 0 
Solution: 12 0
Classic Expectation: 12.000000
Initial Expecation: 9.000000
Gbest: 12.000000
Expectation: 12.000000
Final Parameters:
Gammas:
[ 3.534292 ]
Betas:
[ 2.356194 ]
Aggregate results:
[ 12 0 ]
[ 1.000000 0.000000 ]
4
Num Evals 202
GenUC: 8.770900e-06
GenUB: 1.391983e-06
Optimisation 6.031634e-01
Total Time: 6.031754e-01
5 Add/Rem 4
Graph 1:
0 0 0 0 
0 0 0 1 
0 0 0 1 
0 1 1 0 
Graph 2:
0 1 1 1 
1 1 0 0 
1 0 0 0 
1 0 0 0 
Solution: 13 9
Classic Expectation: 9.000000
Initial Expecation: 6.750000
Gbest: 13.000000
Expectation: 9.467588
Final Parameters:
Gammas:
[ 4.686849 ]
Betas:
[ 2.378985 ]
Aggregate results:
[ 5 9 13 0 ]
[ 0.163378 0.525537 0.301605 0.009480 ]
4
Num Evals 206
GenUC: 8.416449e-06
GenUB: 1.290458e-06
Optimisation 8.457254e-01
Total Time: 8.457376e-01
