Clock Speed: 3.688663
Num threads: 4
Trotterisation: 1
Num Qubits: 5
Space Dimension: 32
Run-Type: 0
Num_samples: 4
Optimiser Method: 29
1 Isomorphic
Graph 1:
0 1 1 0 
1 0 0 0 
1 0 0 1 
0 0 1 0 
Graph 2:
0 1 1 0 
1 0 0 0 
1 0 0 1 
0 0 1 0 
Solution: 16 0
Classic Expectation: 10.000000
Initial Expecation: 7.500000
Gbest: 16.000000
Expectation: 10.760411
Final Parameters:
Gammas:
[ 2.980131 ]
Betas:
[ 2.704319 ]
Aggregate results:
[ 16 12 8 4 0 ]
[ 0.175522 0.531887 0.187004 0.018344 0.087243 ]
4
Num Evals 199
GenUC: 8.122923e-06
GenUB: 8.857636e-06
Optimisation 1.282146e+00
Total Time: 1.282187e+00
2 Flipped
Graph 1:
0 1 1 0 
1 0 0 0 
1 0 0 1 
0 0 1 0 
Graph 2:
0 1 1 0 
0 0 0 1 
1 0 0 1 
0 1 0 0 
Solution: 14 2
Classic Expectation: 10.000000
Initial Expecation: 7.500000
Gbest: 14.000000
Expectation: 10.716969
Final Parameters:
Gammas:
[ 6.110650 ]
Betas:
[ 2.674101 ]
Aggregate results:
[ 12 8 14 6 0 ]
[ 0.399355 0.146290 0.307088 0.075859 0.071408 ]
4
Num Evals 193
GenUC: 9.030164e-06
GenUB: 1.712373e-06
Optimisation 8.358716e-01
Total Time: 8.358850e-01
3 Add 4
Graph 1:
0 1 1 0 
1 0 0 0 
1 0 0 1 
0 0 1 0 
Graph 2:
0 1 1 1 
1 0 1 1 
1 1 0 1 
1 1 1 0 
Solution: 10 0
Classic Expectation: 10.000000
Initial Expecation: 7.500000
Gbest: 10.000000
Expectation: 10.000000
Final Parameters:
Gammas:
[ 2.356194 ]
Betas:
[ 2.356194 ]
Aggregate results:
[ 10 0 ]
[ 1.000000 0.000000 ]
4
Num Evals 201
GenUC: 9.478503e-06
GenUB: 1.602049e-06
Optimisation 8.467219e-01
Total Time: 8.467356e-01
4 Rem 4
Graph 1:
0 1 1 0 
1 0 0 0 
1 0 0 1 
0 0 1 0 
Graph 2:
0 0 0 0 
0 0 0 0 
0 0 0 0 
0 0 0 0 
Solution: 10 0
Classic Expectation: 10.000000
Initial Expecation: 7.500000
Gbest: 10.000000
Expectation: 10.000000
Final Parameters:
Gammas:
[ 2.356194 ]
Betas:
[ 2.356194 ]
Aggregate results:
[ 10 0 ]
[ 1.000000 0.000000 ]
4
Num Evals 201
GenUC: 8.652831e-06
GenUB: 1.462384e-06
Optimisation 5.012367e-01
Total Time: 5.012486e-01
5 Add/Rem 4
Graph 1:
0 1 1 0 
1 0 0 0 
1 0 0 1 
0 0 1 0 
Graph 2:
1 0 0 1 
0 1 1 0 
0 1 0 0 
1 0 0 0 
Solution: 12 4
Classic Expectation: 8.000000
Initial Expecation: 6.000000
Gbest: 12.000000
Expectation: 7.172868
Final Parameters:
Gammas:
[ 2.965166 ]
Betas:
[ 1.886701 ]
Aggregate results:
[ 4 8 12 0 ]
[ 0.311560 0.200018 0.360540 0.127882 ]
4
Num Evals 167
GenUC: 8.356481e-06
GenUB: 1.478227e-06
Optimisation 3.905833e-01
Total Time: 3.905955e-01
