Clock Speed: 3.689413
Num threads: 4
Trotterisation: 1
Num Qubits: 5
Space Dimension: 32
Run-Type: 0
Num_samples: 4
Optimiser Method: 29
1 Isomorphic
Graph 1:
0 1 0 1 
1 0 0 1 
0 0 0 1 
1 1 1 0 
Graph 2:
0 1 0 1 
1 0 0 1 
0 0 0 1 
1 1 1 0 
Solution: 16 0
Classic Expectation: 10.666667
Initial Expecation: 8.000000
Gbest: 12.000000
Expectation: 10.159604
Final Parameters:
Gammas:
[ 3.549674 ]
Betas:
[ 2.357373 ]
Aggregate results:
[ 16 8 12 0 ]
[ 0.029475 0.315532 0.596979 0.058014 ]
4
Num Evals 186
GenUC: 8.482195e-06
GenUB: 9.216892e-06
Optimisation 1.872717e-02
Total Time: 1.877129e-02
2 Flipped
Graph 1:
0 1 0 1 
1 0 0 1 
0 0 0 1 
1 1 1 0 
Graph 2:
1 0 1 0 
1 0 0 1 
1 0 0 0 
0 1 1 1 
Solution: 10 2
Classic Expectation: 8.000000
Initial Expecation: 6.000000
Gbest: 10.000000
Expectation: 8.232731
Final Parameters:
Gammas:
[ 3.348006 ]
Betas:
[ 0.587416 ]
Aggregate results:
[ 8 10 6 0 ]
[ 0.280842 0.462384 0.227026 0.029748 ]
4
Num Evals 210
GenUC: 8.931092e-06
GenUB: 1.599721e-06
Optimisation 1.180853e-02
Total Time: 1.182067e-02
3 Add 4
Graph 1:
0 1 0 1 
1 0 0 1 
0 0 0 1 
1 1 1 0 
Graph 2:
1 1 1 1 
1 1 1 1 
1 1 0 1 
1 1 1 1 
Solution: 9 0
Classic Expectation: 9.000000
Initial Expecation: 6.750000
Gbest: 9.000000
Expectation: 9.000000
Final Parameters:
Gammas:
[ 4.712389 ]
Betas:
[ 2.356194 ]
Aggregate results:
[ 9 0 ]
[ 1.000000 0.000000 ]
4
Num Evals 192
GenUC: 9.123527e-06
GenUB: 1.252920e-06
Optimisation 1.906074e-02
Total Time: 1.907260e-02
4 Rem 4
Graph 1:
0 1 0 1 
1 0 0 1 
0 0 0 1 
1 1 1 0 
Graph 2:
0 0 0 0 
0 0 0 1 
0 0 0 0 
0 1 0 0 
Solution: 10 0
Classic Expectation: 8.666667
Initial Expecation: 6.500000
Gbest: 10.000000
Expectation: 8.833553
Final Parameters:
Gammas:
[ 1.383077 ]
Betas:
[ 0.826306 ]
Aggregate results:
[ 10 6 0 ]
[ 0.734140 0.248692 0.017168 ]
4
Num Evals 194
GenUC: 8.449890e-06
GenUB: 1.150183e-06
Optimisation 1.231574e-02
Total Time: 1.232669e-02
5 Add/Rem 4
Graph 1:
0 1 0 1 
1 0 0 1 
0 0 0 1 
1 1 1 0 
Graph 2:
0 0 1 0 
0 1 1 0 
1 1 0 0 
0 0 0 1 
Solution: 10 1
Classic Expectation: 7.333333
Initial Expecation: 5.500000
Gbest: 10.000000
Expectation: 6.871933
Final Parameters:
Gammas:
[ 4.026982 ]
Betas:
[ 2.068248 ]
Aggregate results:
[ 2 10 6 0 ]
[ 0.001042 0.441822 0.408605 0.148531 ]
4
Num Evals 194
GenUC: 8.030329e-06
GenUB: 1.109729e-06
Optimisation 1.842333e-02
Total Time: 1.843371e-02
