Clock Speed: 3.689348
Num threads: 4
Trotterisation: 2
Num Qubits: 7
Space Dimension: 128
Run-Type: 0
Num_samples: 15624
Optimiser Method: 29
1 Isomorphic
Graph 1:
1 0 1 1 1 
0 1 0 1 0 
0 1 0 0 0 
0 1 0 0 0 
1 1 0 0 0 
Graph 2:
1 0 1 1 1 
0 1 0 1 0 
0 1 0 0 0 
0 1 0 0 0 
1 1 0 0 0 
Solution: 25 0
Classic Expectation: 13.000000
Initial Expecation: 12.187500
Gbest: 25.000000
Expectation: 14.199417
Final Parameters:
Gammas:
[ 5.665515 3.877048 ]
Betas:
[ 2.815075 3.141593 ]
Aggregate results:
[ 25 21 23 13 11 15 17 9 0 ]
[ 0.023060 0.007081 0.028352 0.339111 0.137891 0.228361 0.185251 0.035799 0.015094 ]
3
Num Evals 522
GenUC: 4.117191e-05
GenUB: 1.374196e-05
Optimisation 2.004194e-01
Total Time: 2.005001e-01
2 Flipped
Graph 1:
1 0 1 1 1 
0 1 0 1 0 
0 1 0 0 0 
0 1 0 0 0 
1 1 0 0 0 
Graph 2:
1 1 1 0 1 
0 1 0 1 0 
0 0 0 1 0 
0 0 0 1 0 
0 0 0 1 1 
Solution: 21 12
Classic Expectation: 13.000000
Initial Expecation: 12.187500
Gbest: 21.000000
Expectation: 14.685565
Final Parameters:
Gammas:
[ 3.468250 5.636796 ]
Betas:
[ 1.914950 1.631209 ]
Aggregate results:
[ 15 13 11 21 17 9 0 ]
[ 0.236044 0.434046 0.112714 0.167912 0.040275 0.005736 0.003273 ]
3
Num Evals 392
GenUC: 4.454562e-05
GenUB: 3.152527e-06
Optimisation 1.117928e-01
Total Time: 1.118426e-01
3 Add 5
Graph 1:
1 0 1 1 1 
0 1 0 1 0 
0 1 0 0 0 
0 1 0 0 0 
1 1 0 0 0 
Graph 2:
1 0 1 1 1 
0 1 0 1 1 
0 1 0 0 0 
0 1 0 1 0 
1 1 1 0 1 
Solution: 21 0
Classic Expectation: 12.200000
Initial Expecation: 11.437500
Gbest: 21.000000
Expectation: 12.604752
Final Parameters:
Gammas:
[ 4.187119 4.160515 ]
Betas:
[ 2.827727 1.873727 ]
Aggregate results:
[ 21 19 17 11 9 13 15 7 0 ]
[ 0.002714 0.079825 0.077472 0.273669 0.080025 0.276280 0.154738 0.010109 0.045168 ]
3
Num Evals 230
GenUC: 4.449341e-05
GenUB: 2.515153e-06
Optimisation 7.634854e-02
Total Time: 7.639758e-02
4 Rem 5
Graph 1:
1 0 1 1 1 
0 1 0 1 0 
0 1 0 0 0 
0 1 0 0 0 
1 1 0 0 0 
Graph 2:
1 0 1 0 0 
0 0 0 0 0 
0 1 0 0 0 
0 1 0 0 0 
1 1 0 0 0 
Solution: 21 0
Classic Expectation: 13.800000
Initial Expecation: 12.937500
Gbest: 21.000000
Expectation: 13.952839
Final Parameters:
Gammas:
[ 4.537853 3.117058 ]
Betas:
[ 2.409042 0.419166 ]
Aggregate results:
[ 21 19 13 11 15 17 9 0 ]
[ 0.035217 0.040610 0.329782 0.101315 0.379130 0.059197 0.038529 0.016220 ]
3
Num Evals 313
GenUC: 4.661182e-05
GenUB: 2.542161e-06
Optimisation 7.763512e-02
Total Time: 7.768621e-02
5 Add/Rem 5
Graph 1:
1 0 1 1 1 
0 1 0 1 0 
0 1 0 0 0 
0 1 0 0 0 
1 1 0 0 0 
Graph 2:
1 0 0 0 1 
0 1 0 1 0 
1 0 0 0 1 
0 1 0 0 0 
1 0 1 0 1 
Solution: 19 25
Classic Expectation: 13.000000
Initial Expecation: 12.187500
Gbest: 19.000000
Expectation: 12.990609
Final Parameters:
Gammas:
[ 5.298332 5.060298 ]
Betas:
[ 2.432667 0.976940 ]
Aggregate results:
[ 17 13 15 11 19 7 9 0 ]
[ 0.130744 0.254705 0.234554 0.202235 0.043640 0.106137 0.015754 0.012231 ]
3
Num Evals 766
GenUC: 4.640996e-05
GenUB: 2.438319e-06
Optimisation 2.154741e-01
Total Time: 2.155247e-01
