Clock Speed: 3.689398
Num threads: 4
Trotterisation: 2
Num Qubits: 7
Space Dimension: 128
Run-Type: 0
Num_samples: 5
Optimiser Method: 29
1 Isomorphic
Graph 1:
0 0 0 0 1 
0 0 0 1 0 
0 0 0 0 1 
0 1 0 0 0 
1 0 1 0 0 
Graph 2:
0 0 0 0 1 
0 0 0 1 0 
0 0 0 0 1 
0 1 0 0 0 
1 0 1 0 0 
Solution: 25 0
Classic Expectation: 16.600000
Initial Expecation: 15.562500
Gbest: 25.000000
Expectation: 17.426981
Final Parameters:
Gammas:
[ 2.872010 2.647053 ]
Betas:
[ 1.784468 0.587514 ]
Aggregate results:
[ 25 13 17 21 0 ]
[ 0.051460 0.211835 0.420906 0.296725 0.019074 ]
4
Num Evals 674
GenUC: 4.152994e-05
GenUB: 1.470087e-05
Optimisation 1.587534e-01
Total Time: 1.588364e-01
2 Flipped
Graph 1:
0 0 0 0 1 
0 0 0 1 0 
0 0 0 0 1 
0 1 0 0 0 
1 0 1 0 0 
Graph 2:
1 0 0 0 0 
0 1 0 0 0 
1 0 0 0 0 
0 0 0 1 0 
0 0 1 0 1 
Solution: 17 5
Classic Expectation: 14.200000
Initial Expecation: 13.312500
Gbest: 15.000000
Expectation: 14.343420
Final Parameters:
Gammas:
[ 4.974703 4.936294 ]
Betas:
[ 2.782412 2.769605 ]
Aggregate results:
[ 15 13 17 0 ]
[ 0.557581 0.347224 0.086223 0.008972 ]
4
Num Evals 911
GenUC: 4.530215e-05
GenUB: 2.959452e-06
Optimisation 3.482205e-01
Total Time: 3.482710e-01
3 Add 5
Graph 1:
0 0 0 0 1 
0 0 0 1 0 
0 0 0 0 1 
0 1 0 0 0 
1 0 1 0 0 
Graph 2:
1 1 1 1 1 
1 1 0 1 1 
1 0 0 0 1 
1 1 0 0 0 
1 1 1 0 0 
Solution: 15 0
Classic Expectation: 11.400000
Initial Expecation: 10.687500
Gbest: 15.000000
Expectation: 13.126571
Final Parameters:
Gammas:
[ 2.836652 3.429397 ]
Betas:
[ 2.525104 0.333072 ]
Aggregate results:
[ 15 11 7 0 ]
[ 0.671732 0.224978 0.082263 0.021028 ]
4
Num Evals 698
GenUC: 4.525046e-05
GenUB: 6.287999e-06
Optimisation 1.736512e-01
Total Time: 1.737054e-01
4 Rem 5
Graph 1:
0 0 0 0 1 
0 0 0 1 0 
0 0 0 0 1 
0 1 0 0 0 
1 0 1 0 0 
Graph 2:
0 0 0 0 0 
0 0 0 0 0 
0 0 0 0 0 
0 0 0 0 0 
0 0 0 0 0 
Solution: 19 0
Classic Expectation: 19.000000
Initial Expecation: 17.812500
Gbest: 19.000000
Expectation: 19.000000
Final Parameters:
Gammas:
[ 2.756239 4.531999 ]
Betas:
[ 1.105070 2.559746 ]
Aggregate results:
[ 19 0 ]
[ 1.000000 0.000000 ]
4
Num Evals 436
GenUC: 4.738715e-05
GenUB: 6.655871e-06
Optimisation 1.273058e-01
Total Time: 1.273621e-01
5 Add/Rem 5
Graph 1:
0 0 0 0 1 
0 0 0 1 0 
0 0 0 0 1 
0 1 0 0 0 
1 0 1 0 0 
Graph 2:
0 1 1 1 0 
1 1 0 0 1 
1 0 0 0 0 
1 0 0 0 0 
0 1 0 0 0 
Solution: 22 57
Classic Expectation: 14.800000
Initial Expecation: 13.875000
Gbest: 18.000000
Expectation: 15.006600
Final Parameters:
Gammas:
[ 5.978828 5.285019 ]
Betas:
[ 1.916572 2.209952 ]
Aggregate results:
[ 10 18 14 22 0 ]
[ 0.113227 0.389837 0.419089 0.045000 0.032846 ]
4
Num Evals 515
GenUC: 4.677218e-05
GenUB: 4.966976e-06
Optimisation 1.692174e-01
Total Time: 1.692713e-01
