Clock Speed: 3.498813
Num threads: 16
Trotterisation: 4
Num Qubits: 16
Space Dimension: 65536
Run-Type: 0
Num_samples: 64
Optimiser Method: 0
1 Isomorphic
Graph 1:
1 0 0 1 0 1 0 1 
0 0 1 0 1 1 0 0 
0 1 1 0 1 0 1 0 
1 0 0 0 1 0 0 0 
0 1 1 1 0 1 0 1 
1 1 0 0 1 1 0 0 
0 0 1 0 0 0 0 0 
1 0 0 0 1 0 0 0 
Graph 2:
1 0 0 1 0 1 0 1 
0 0 1 0 1 1 0 0 
0 1 1 0 1 0 1 0 
1 0 0 0 1 0 0 0 
0 1 1 1 0 1 0 1 
1 1 0 0 1 1 0 0 
0 0 1 0 0 0 0 0 
1 0 0 0 1 0 0 0 
Solution: 64 0
Classic Expectation: 33.535714
Initial Expecation: 20.632324
Gbest: 42.000000
Expectation: 25.662192
Final Parameters:
Gammas:
[ 1.060125 5.042062 2.214027 3.123957 ]
Betas:
[ 1.732400 1.163552 1.435049 2.521030 ]
Aggregate results:
[ 64 52 46 58 38 34 42 48 40 44 30 36 50 32 28 24 20 26 56 54 22 18 0 ]
[ 0.000021 0.000262 0.008503 0.000066 0.067652 0.095152 0.031911 0.002063 0.055366 0.015391 0.086792 0.115062 0.001372 0.128860 0.076523 0.027885 0.002662 0.039915 0.000078 0.000288 0.011060 0.000609 0.232508 ]
3
Num Evals 1573
GenUC: 1.836488e-02
GenUB: 1.290732e-02
Optimisation 5.985662e+02
Total Time: 5.985975e+02
2 Flipped
Graph 1:
1 0 0 1 0 1 0 1 
0 0 1 0 1 1 0 0 
0 1 1 0 1 0 1 0 
1 0 0 0 1 0 0 0 
0 1 1 1 0 1 0 1 
1 1 0 0 1 1 0 0 
0 0 1 0 0 0 0 0 
1 0 0 0 1 0 0 0 
Graph 2:
1 0 1 0 1 0 0 1 
0 0 1 1 0 1 0 0 
0 1 0 1 0 1 1 0 
0 0 0 1 0 0 0 1 
1 0 1 0 1 1 1 0 
0 0 1 1 0 0 1 1 
0 0 0 0 0 1 0 0 
0 0 0 1 0 0 0 1 
Solution: 48 151
Classic Expectation: 33.500000
Initial Expecation: 20.610352
Gbest: 42.000000
Expectation: 26.995143
Final Parameters:
Gammas:
[ 6.165947 4.995029 2.897875 3.138270 ]
Betas:
[ 1.603120 1.150625 1.483780 2.503790 ]
Aggregate results:
[ 30 28 26 32 42 40 38 36 34 44 46 48 24 22 0 ]
[ 0.117439 0.071685 0.028437 0.157633 0.019677 0.049411 0.080722 0.112788 0.149307 0.006999 0.002013 0.000554 0.009038 0.001363 0.192934 ]
3
Num Evals 1581
GenUC: 2.353847e-02
GenUB: 1.334279e-02
Optimisation 5.985924e+02
Total Time: 5.986292e+02
3 Add 8
Graph 1:
1 0 0 1 0 1 0 1 
0 0 1 0 1 1 0 0 
0 1 1 0 1 0 1 0 
1 0 0 0 1 0 0 0 
0 1 1 1 0 1 0 1 
1 1 0 0 1 1 0 0 
0 0 1 0 0 0 0 0 
1 0 0 0 1 0 0 0 
Graph 2:
1 1 1 1 1 1 1 1 
1 1 1 1 1 1 0 1 
1 1 1 0 1 1 1 0 
1 1 0 1 1 0 1 0 
1 1 1 1 0 1 0 1 
1 1 1 0 1 1 0 0 
1 0 1 1 0 0 0 0 
1 1 0 0 1 0 0 0 
Solution: 46 0
Classic Expectation: 29.607143
Initial Expecation: 18.215332
Gbest: 44.000000
Expectation: 26.086401
Final Parameters:
Gammas:
[ 5.227953 1.048103 3.180377 2.897549 ]
Betas:
[ 0.116356 1.085982 1.435049 3.025238 ]
Aggregate results:
[ 46 38 36 32 40 44 28 34 30 24 26 42 22 20 18 16 14 12 0 ]
[ 0.001033 0.057199 0.132131 0.165726 0.032134 0.002710 0.072891 0.115122 0.086563 0.035299 0.036832 0.010914 0.031844 0.023313 0.016353 0.005428 0.002309 0.000437 0.171762 ]
3
Num Evals 1269
GenUC: 2.329688e-02
GenUB: 1.343708e-02
Optimisation 4.444652e+02
Total Time: 4.445019e+02
4 Rem 8
Graph 1:
1 0 0 1 0 1 0 1 
0 0 1 0 1 1 0 0 
0 1 1 0 1 0 1 0 
1 0 0 0 1 0 0 0 
0 1 1 1 0 1 0 1 
1 1 0 0 1 1 0 0 
0 0 1 0 0 0 0 0 
1 0 0 0 1 0 0 0 
Graph 2:
0 0 0 0 0 0 0 0 
0 0 0 0 0 1 0 0 
0 0 1 0 0 0 0 0 
0 0 0 0 1 0 0 0 
0 0 0 1 0 1 0 1 
0 1 0 0 1 1 0 0 
0 0 0 0 0 0 0 0 
0 0 0 0 1 0 0 0 
Solution: 49 0
Classic Expectation: 36.785714
Initial Expecation: 22.631836
Gbest: 45.000000
Expectation: 31.740057
Final Parameters:
Gammas:
[ 2.928674 2.937771 3.141114 3.335517 ]
Betas:
[ 1.396264 0.042137 0.581775 1.956492 ]
Aggregate results:
[ 49 45 39 43 35 31 37 41 47 29 33 0 ]
[ 0.001917 0.017513 0.168509 0.060777 0.164928 0.045914 0.147818 0.082121 0.006429 0.035897 0.130230 0.137948 ]
3
Num Evals 1639
GenUC: 2.329346e-02
GenUB: 1.326796e-02
Optimisation 5.297608e+02
Total Time: 5.297974e+02
5 Add/Rem 8
Graph 1:
1 0 0 1 0 1 0 1 
0 0 1 0 1 1 0 0 
0 1 1 0 1 0 1 0 
1 0 0 0 1 0 0 0 
0 1 1 1 0 1 0 1 
1 1 0 0 1 1 0 0 
0 0 1 0 0 0 0 0 
1 0 0 0 1 0 0 0 
Graph 2:
1 1 1 0 1 0 1 0 
1 0 0 1 0 1 1 1 
1 0 0 1 1 1 0 0 
0 1 1 1 1 1 0 0 
1 0 1 1 0 1 0 1 
0 1 1 1 1 1 0 0 
1 1 0 0 0 0 0 0 
0 1 0 0 1 0 0 0 
Solution: 54 5760
Classic Expectation: 31.821429
Initial Expecation: 19.577637
Gbest: 42.000000
Expectation: 25.544404
Final Parameters:
Gammas:
[ 6.130919 0.355290 2.947667 3.123356 ]
Betas:
[ 1.706543 1.163554 1.473835 2.637385 ]
Aggregate results:
[ 30 32 28 36 20 16 22 24 26 34 38 40 42 46 18 12 44 48 14 54 50 0 ]
[ 0.094189 0.134501 0.111165 0.095434 0.013651 0.002340 0.021758 0.049479 0.053193 0.100679 0.057475 0.037862 0.019466 0.002923 0.004278 0.000150 0.006545 0.000719 0.000301 0.000115 0.000429 0.193348 ]
3
Num Evals 1407
GenUC: 2.290351e-02
GenUB: 1.361594e-02
Optimisation 5.407301e+02
Total Time: 5.407666e+02
