Clock Speed: 3.498790
Num threads: 16
Trotterisation: 4
Num Qubits: 16
Space Dimension: 65536
Run-Type: 0
Num_samples: 64
Optimiser Method: 20
1 Isomorphic
Graph 1:
1 0 1 1 0 1 0 1 
0 0 0 0 1 0 1 1 
1 0 1 0 1 1 1 1 
1 0 0 0 1 1 1 1 
0 1 1 1 0 0 0 0 
1 0 1 1 0 0 0 0 
0 1 1 1 0 0 0 0 
1 1 1 1 0 0 0 1 
Graph 2:
1 0 1 1 0 1 0 1 
0 0 0 0 1 0 1 1 
1 0 1 0 1 1 1 1 
1 0 0 0 1 1 1 1 
0 1 1 1 0 0 0 0 
1 0 1 1 0 0 0 0 
0 1 1 1 0 0 0 0 
1 1 1 1 0 0 0 1 
Solution: 64 0
Classic Expectation: 32.392857
Initial Expecation: 19.929199
Gbest: 40.000000
Expectation: 23.243141
Final Parameters:
Gammas:
[ 5.616664 2.164093 1.346438 3.609686 ]
Betas:
[ 1.723105 0.961902 0.298849 0.835865 ]
Aggregate results:
[ 64 58 56 54 50 40 34 32 30 38 48 42 62 52 28 36 46 24 26 44 20 22 18 16 14 0 ]
[ 0.000018 0.000139 0.000296 0.000633 0.002208 0.035232 0.091162 0.119166 0.072307 0.053108 0.004398 0.026543 0.000014 0.000812 0.095330 0.076841 0.008094 0.039940 0.044818 0.014777 0.011352 0.013945 0.003219 0.001068 0.000255 0.284324 ]
5
Num Evals 6400
GenUC: 1.835330e-02
GenUB: 1.298714e-02
Optimisation 1.862572e+03
Total Time: 1.862604e+03
2 Flipped
Graph 1:
1 0 1 1 0 1 0 1 
0 0 0 0 1 0 1 1 
1 0 1 0 1 1 1 1 
1 0 0 0 1 1 1 1 
0 1 1 1 0 0 0 0 
1 0 1 1 0 0 0 0 
0 1 1 1 0 0 0 0 
1 1 1 1 0 0 0 1 
Graph 2:
1 0 1 0 1 1 0 1 
1 1 0 1 0 0 0 0 
1 1 1 1 0 1 0 1 
1 1 1 1 0 0 0 1 
0 0 0 0 1 1 1 0 
0 0 0 0 1 1 0 1 
0 0 0 0 1 1 1 0 
1 0 0 0 1 1 1 1 
Solution: 44 7431
Classic Expectation: 30.785714
Initial Expecation: 18.940430
Gbest: 44.000000
Expectation: 26.297690
Final Parameters:
Gammas:
[ 3.830646 1.962643 3.434594 0.037707 ]
Betas:
[ 3.141593 0.144727 2.001974 0.419892 ]
Aggregate results:
[ 22 18 20 38 34 36 30 32 28 26 24 40 14 16 42 44 0 ]
[ 0.028918 0.005174 0.011423 0.035967 0.129488 0.071299 0.172004 0.170664 0.115337 0.065905 0.035949 0.010764 0.000228 0.001586 0.002340 0.000438 0.142516 ]
5
Num Evals 6400
GenUC: 4.455572e-02
GenUB: 1.571565e-02
Optimisation 2.175967e+03
Total Time: 2.176027e+03
3 Add 8
Graph 1:
1 0 1 1 0 1 0 1 
0 0 0 0 1 0 1 1 
1 0 1 0 1 1 1 1 
1 0 0 0 1 1 1 1 
0 1 1 1 0 0 0 0 
1 0 1 1 0 0 0 0 
0 1 1 1 0 0 0 0 
1 1 1 1 0 0 0 1 
Graph 2:
1 1 1 1 1 1 1 1 
1 0 1 1 1 1 1 1 
1 1 1 0 1 1 1 1 
1 1 0 1 1 1 1 1 
1 1 1 1 0 0 0 1 
1 1 1 1 0 0 0 0 
1 1 1 1 0 0 0 0 
1 1 1 1 1 0 0 1 
Solution: 49 0
Classic Expectation: 33.142857
Initial Expecation: 20.390625
Gbest: 45.000000
Expectation: 26.982497
Final Parameters:
Gammas:
[ 3.448329 3.264768 6.062870 0.436411 ]
Betas:
[ 0.326853 0.595755 1.820088 1.112853 ]
Aggregate results:
[ 49 47 37 35 33 31 29 45 39 41 25 27 43 23 21 19 0 ]
[ 0.002244 0.010445 0.090834 0.129130 0.117798 0.095031 0.089521 0.012972 0.087453 0.036189 0.029316 0.037667 0.037067 0.008888 0.001339 0.000913 0.213193 ]
5
Num Evals 6400
GenUC: 4.459806e-02
GenUB: 1.600755e-02
Optimisation 1.860412e+03
Total Time: 1.860473e+03
4 Rem 8
Graph 1:
1 0 1 1 0 1 0 1 
0 0 0 0 1 0 1 1 
1 0 1 0 1 1 1 1 
1 0 0 0 1 1 1 1 
0 1 1 1 0 0 0 0 
1 0 1 1 0 0 0 0 
0 1 1 1 0 0 0 0 
1 1 1 1 0 0 0 1 
Graph 2:
0 0 0 0 0 0 0 0 
0 0 0 0 0 0 0 1 
0 0 0 0 0 1 0 1 
0 0 0 0 1 1 1 1 
0 0 0 1 0 0 0 0 
0 0 1 1 0 0 0 0 
0 0 0 1 0 0 0 0 
0 1 1 1 0 0 0 1 
Solution: 46 0
Classic Expectation: 31.750000
Initial Expecation: 19.533691
Gbest: 42.000000
Expectation: 23.531653
Final Parameters:
Gammas:
[ 2.661653 6.138623 5.247776 0.512218 ]
Betas:
[ 2.953556 0.042862 0.687667 3.141593 ]
Aggregate results:
[ 46 44 40 34 32 28 30 24 38 36 26 42 20 22 16 18 0 ]
[ 0.003389 0.003544 0.021699 0.107921 0.136179 0.138461 0.078085 0.054531 0.057241 0.074318 0.026852 0.024403 0.007576 0.002947 0.000280 0.000118 0.262457 ]
5
Num Evals 6400
GenUC: 4.458503e-02
GenUB: 1.645310e-02
Optimisation 2.389091e+03
Total Time: 2.389152e+03
5 Add/Rem 8
Graph 1:
1 0 1 1 0 1 0 1 
0 0 0 0 1 0 1 1 
1 0 1 0 1 1 1 1 
1 0 0 0 1 1 1 1 
0 1 1 1 0 0 0 0 
1 0 1 1 0 0 0 0 
0 1 1 1 0 0 0 0 
1 1 1 1 0 0 0 1 
Graph 2:
1 1 0 0 1 0 1 0 
1 1 1 1 0 1 0 0 
0 1 1 1 1 0 0 1 
0 1 1 0 0 1 1 1 
1 0 1 0 0 0 0 1 
0 1 0 1 0 0 0 0 
1 0 0 1 0 0 0 0 
0 0 1 1 1 0 0 1 
Solution: 51 7239
Classic Expectation: 31.857143
Initial Expecation: 19.599609
Gbest: 49.000000
Expectation: 26.569622
Final Parameters:
Gammas:
[ 6.148767 6.055358 0.232425 0.526437 ]
Betas:
[ 0.750246 1.964686 2.209742 1.948225 ]
Aggregate results:
[ 27 29 35 33 37 25 31 23 39 45 43 41 17 19 21 15 47 51 49 13 0 ]
[ 0.060125 0.064721 0.097363 0.103291 0.105707 0.039817 0.089972 0.036530 0.063947 0.017974 0.025456 0.057785 0.003340 0.010875 0.015888 0.001641 0.005139 0.000082 0.001554 0.000541 0.198252 ]
5
Num Evals 6400
GenUC: 4.461112e-02
GenUB: 1.623963e-02
Optimisation 2.172936e+03
Total Time: 2.172997e+03
