Clock Speed: 3.498801
Num threads: 16
Trotterisation: 5
Num Qubits: 13
Space Dimension: 8192
Run-Type: 0
Num_samples: 49
Optimiser Method: 25
1 Isomorphic
Graph 1:
1 0 1 0 1 1 1 
1 0 1 0 1 0 0 
0 0 0 0 0 0 0 
0 1 1 0 1 0 1 
1 1 0 1 0 1 0 
1 0 0 1 1 1 1 
0 0 0 1 0 0 1 
Graph 2:
1 0 1 0 1 1 1 
1 0 1 0 1 0 0 
0 0 0 0 0 0 0 
0 1 1 0 1 0 1 
1 1 0 1 0 1 0 
1 0 0 1 1 1 1 
0 0 0 1 0 0 1 
Solution: 49 0
Classic Expectation: 24.619048
Initial Expecation: 15.146484
Gbest: 37.000000
Expectation: 23.887728
Final Parameters:
Gammas:
[ 3.043285 3.244823 3.067274 3.231732 3.074383 ]
Betas:
[ 2.520571 1.627651 0.788300 1.702173 1.060129 ]
Aggregate results:
[ 49 39 35 31 33 29 27 25 37 23 19 21 41 17 15 13 43 0 ]
[ 0.000289 0.003270 0.010184 0.054633 0.029886 0.111172 0.173824 0.193432 0.002802 0.170425 0.058289 0.114370 0.000347 0.021069 0.002676 0.000544 0.000102 0.052686 ]
3
Num Evals 180099
GenUC: 2.282825e-03
GenUB: 1.322853e-03
Optimisation 7.873616e+03
Total Time: 7.873620e+03
2 Flipped
Graph 1:
1 0 1 0 1 1 1 
1 0 1 0 1 0 0 
0 0 0 0 0 0 0 
0 1 1 0 1 0 1 
1 1 0 1 0 1 0 
1 0 0 1 1 1 1 
0 0 0 1 0 0 1 
Graph 2:
1 1 1 0 1 0 1 
0 0 1 0 1 0 1 
0 0 0 0 0 0 0 
1 0 1 0 1 1 0 
0 1 0 1 0 1 1 
1 1 1 1 0 0 1 
1 0 0 1 0 0 0 
Solution: 37 2817
Classic Expectation: 24.809524
Initial Expecation: 15.263672
Gbest: 33.000000
Expectation: 23.792025
Final Parameters:
Gammas:
[ 3.217143 3.222161 2.994814 3.203934 2.586932 ]
Betas:
[ 2.372037 1.165334 1.560467 0.978155 1.821871 ]
Aggregate results:
[ 33 31 29 25 27 21 19 23 17 35 15 37 13 0 ]
[ 0.021045 0.052361 0.105087 0.199792 0.163847 0.125558 0.064375 0.197525 0.015213 0.006065 0.008028 0.000036 0.000966 0.040101 ]
3
Num Evals 155066
GenUC: 2.857830e-03
GenUB: 1.224770e-03
Optimisation 6.901769e+03
Total Time: 6.901773e+03
3 Add 7
Graph 1:
1 0 1 0 1 1 1 
1 0 1 0 1 0 0 
0 0 0 0 0 0 0 
0 1 1 0 1 0 1 
1 1 0 1 0 1 0 
1 0 0 1 1 1 1 
0 0 0 1 0 0 1 
Graph 2:
1 0 1 0 1 1 1 
1 1 1 0 1 1 0 
0 0 0 0 0 0 0 
0 1 1 1 1 0 1 
1 1 0 1 0 1 0 
1 0 0 1 1 1 1 
0 0 0 1 1 1 1 
Solution: 44 0
Classic Expectation: 24.190476
Initial Expecation: 14.882813
Gbest: 38.000000
Expectation: 22.760936
Final Parameters:
Gammas:
[ 0.191212 2.847730 2.659453 2.850568 3.629058 ]
Betas:
[ 2.554143 1.349951 1.557172 1.560220 1.399771 ]
Aggregate results:
[ 44 38 36 32 34 28 26 30 22 20 16 18 24 14 40 0 ]
[ 0.000015 0.002492 0.016888 0.097180 0.029577 0.159743 0.127560 0.165793 0.070336 0.039459 0.010587 0.024782 0.090070 0.004462 0.000073 0.160984 ]
3
Num Evals 13655
GenUC: 2.857409e-03
GenUB: 1.284849e-03
Optimisation 6.285600e+02
Total Time: 6.285642e+02
4 Rem 7
Graph 1:
1 0 1 0 1 1 1 
1 0 1 0 1 0 0 
0 0 0 0 0 0 0 
0 1 1 0 1 0 1 
1 1 0 1 0 1 0 
1 0 0 1 1 1 1 
0 0 0 1 0 0 1 
Graph 2:
1 0 0 0 1 1 0 
1 0 1 0 0 0 0 
0 0 0 0 0 0 0 
0 1 1 0 1 0 1 
0 0 0 1 0 1 0 
1 0 0 0 1 0 1 
0 0 0 1 0 0 1 
Solution: 42 0
Classic Expectation: 25.047619
Initial Expecation: 15.410156
Gbest: 34.000000
Expectation: 20.881622
Final Parameters:
Gammas:
[ 2.250139 3.077721 1.680262 2.620727 2.541726 ]
Betas:
[ 1.723799 1.280770 1.222474 1.827408 1.197416 ]
Aggregate results:
[ 42 32 38 36 34 30 28 26 24 20 22 18 16 14 12 40 0 ]
[ 0.000106 0.031511 0.000276 0.001476 0.007927 0.084574 0.152087 0.177989 0.149923 0.072217 0.107746 0.032879 0.005414 0.000577 0.000008 0.000319 0.174971 ]
3
Num Evals 99766
GenUC: 2.865767e-03
GenUB: 1.273786e-03
Optimisation 4.250087e+03
Total Time: 4.250091e+03
5 Add/Rem 7
Graph 1:
1 0 1 0 1 1 1 
1 0 1 0 1 0 0 
0 0 0 0 0 0 0 
0 1 1 0 1 0 1 
1 1 0 1 0 1 0 
1 0 0 1 1 1 1 
0 0 0 1 0 0 1 
Graph 2:
1 0 0 1 1 1 1 
1 1 0 0 1 0 0 
0 0 0 0 0 0 1 
0 1 1 0 0 0 1 
1 1 1 1 0 1 0 
0 0 1 1 1 1 0 
1 0 0 0 0 1 0 
Solution: 37 99
Classic Expectation: 24.619048
Initial Expecation: 15.146484
Gbest: 33.000000
Expectation: 25.361315
Final Parameters:
Gammas:
[ 3.212788 3.199638 3.066129 2.940293 3.184142 ]
Betas:
[ 2.372241 1.210362 1.439047 1.747485 1.236559 ]
Aggregate results:
[ 35 33 29 25 31 27 23 19 21 37 17 15 13 11 0 ]
[ 0.016029 0.048585 0.201656 0.161392 0.127215 0.221105 0.092464 0.013315 0.031014 0.004905 0.006732 0.003233 0.001060 0.001051 0.070245 ]
3
Num Evals 110766
GenUC: 2.856309e-03
GenUB: 1.273749e-03
Optimisation 4.944275e+03
Total Time: 4.944279e+03
