Clock Speed: 3.498870
Num threads: 16
Trotterisation: 5
Num Qubits: 13
Space Dimension: 8192
Run-Type: 0
Num_samples: 49
Optimiser Method: 28
1 Isomorphic
Graph 1:
0 0 1 0 1 0 0 
1 1 1 0 1 1 1 
1 1 0 1 0 0 0 
1 1 1 0 0 0 1 
1 0 1 1 0 0 0 
0 1 1 1 0 1 1 
0 0 0 0 1 1 1 
Graph 2:
0 0 1 0 1 0 0 
1 1 1 0 1 1 1 
1 1 0 1 0 0 0 
1 1 1 0 0 0 1 
1 0 1 1 0 0 0 
0 1 1 1 0 1 1 
0 0 0 0 1 1 1 
Solution: 49 0
Classic Expectation: 24.761905
Initial Expecation: 15.234375
Gbest: 37.000000
Expectation: 22.425411
Final Parameters:
Gammas:
[ 2.722908 3.299870 3.193583 3.305281 3.406931 ]
Betas:
[ 2.267244 1.314584 2.111728 2.132785 1.180469 ]
Aggregate results:
[ 49 39 31 33 29 27 35 25 21 43 23 37 17 19 15 41 13 11 0 ]
[ 0.000119 0.000624 0.055044 0.023790 0.110755 0.179575 0.010989 0.177309 0.101464 0.000109 0.153040 0.010954 0.009882 0.040387 0.001045 0.000141 0.000607 0.000058 0.124106 ]
3
Num Evals 3023
GenUC: 2.282460e-03
GenUB: 1.295377e-03
Optimisation 1.351907e+02
Total Time: 1.351943e+02
2 Flipped
Graph 1:
0 0 1 0 1 0 0 
1 1 1 0 1 1 1 
1 1 0 1 0 0 0 
1 1 1 0 0 0 1 
1 0 1 1 0 0 0 
0 1 1 1 0 1 1 
0 0 0 0 1 1 1 
Graph 2:
0 0 1 0 1 0 0 
1 1 1 0 1 1 1 
0 0 0 1 0 1 1 
1 0 0 0 1 1 1 
0 0 0 1 1 0 1 
1 1 0 1 1 1 0 
1 1 1 0 0 0 0 
Solution: 37 1657
Classic Expectation: 24.761905
Initial Expecation: 15.234375
Gbest: 35.000000
Expectation: 24.930584
Final Parameters:
Gammas:
[ 2.957675 3.295585 3.164524 3.315798 4.409488 ]
Betas:
[ 2.562188 1.302791 2.069910 1.750668 1.544022 ]
Aggregate results:
[ 27 29 33 21 19 23 31 25 35 17 15 11 13 37 0 ]
[ 0.151940 0.182170 0.103777 0.030206 0.015007 0.059803 0.190458 0.102198 0.025007 0.009705 0.002697 0.001296 0.000955 0.007005 0.117776 ]
3
Num Evals 2518
GenUC: 2.811562e-03
GenUB: 1.118717e-03
Optimisation 1.134140e+02
Total Time: 1.134179e+02
3 Add 7
Graph 1:
0 0 1 0 1 0 0 
1 1 1 0 1 1 1 
1 1 0 1 0 0 0 
1 1 1 0 0 0 1 
1 0 1 1 0 0 0 
0 1 1 1 0 1 1 
0 0 0 0 1 1 1 
Graph 2:
0 0 1 0 1 1 0 
1 1 1 0 1 1 1 
1 1 0 1 0 0 0 
1 1 1 0 0 1 1 
1 1 1 1 1 0 0 
1 1 1 1 1 1 1 
1 0 0 0 1 1 1 
Solution: 42 0
Classic Expectation: 25.190476
Initial Expecation: 15.498047
Gbest: 30.000000
Expectation: 15.498047
Final Parameters:
Gammas:
[ 3.141593 3.141593 3.141593 3.141593 3.141593 ]
Betas:
[ 2.356194 1.570796 1.570796 1.570796 1.570796 ]
Aggregate results:
[ 42 36 40 30 34 28 32 26 24 22 20 18 16 14 38 12 0 ]
[ 0.000122 0.002563 0.000122 0.052368 0.006470 0.096313 0.019287 0.141235 0.134277 0.096924 0.046265 0.014526 0.003784 0.000732 0.000122 0.000122 0.384766 ]
3
Num Evals 11
GenUC: 2.818696e-03
GenUB: 1.009704e-03
Optimisation 4.706611e-01
Total Time: 4.744923e-01
4 Rem 7
Graph 1:
0 0 1 0 1 0 0 
1 1 1 0 1 1 1 
1 1 0 1 0 0 0 
1 1 1 0 0 0 1 
1 0 1 1 0 0 0 
0 1 1 1 0 1 1 
0 0 0 0 1 1 1 
Graph 2:
0 0 1 0 1 0 0 
1 1 1 0 0 1 0 
1 0 0 1 0 0 0 
1 1 1 0 0 0 1 
1 0 1 1 0 0 0 
0 0 0 0 0 1 1 
0 0 0 0 1 1 1 
Solution: 43 0
Classic Expectation: 24.190476
Initial Expecation: 14.882812
Gbest: 33.000000
Expectation: 22.107117
Final Parameters:
Gammas:
[ 3.075440 3.481955 3.132610 3.420109 2.691237 ]
Betas:
[ 0.773204 1.680781 1.118149 1.659443 1.604204 ]
Aggregate results:
[ 43 39 35 27 31 25 33 29 21 37 23 19 17 15 13 0 ]
[ 0.000026 0.000555 0.004879 0.152077 0.063776 0.153675 0.020175 0.128750 0.119046 0.000912 0.161223 0.052702 0.016384 0.003987 0.000582 0.121252 ]
3
Num Evals 6522
GenUC: 2.817764e-03
GenUB: 1.059091e-03
Optimisation 2.477695e+02
Total Time: 2.477733e+02
5 Add/Rem 7
Graph 1:
0 0 1 0 1 0 0 
1 1 1 0 1 1 1 
1 1 0 1 0 0 0 
1 1 1 0 0 0 1 
1 0 1 1 0 0 0 
0 1 1 1 0 1 1 
0 0 0 0 1 1 1 
Graph 2:
0 0 1 1 1 1 0 
1 1 1 0 1 1 1 
1 1 0 0 1 0 0 
0 0 0 1 0 0 0 
1 0 1 1 1 1 0 
0 0 1 1 0 1 0 
0 0 0 0 1 1 1 
Solution: 36 0
Classic Expectation: 24.190476
Initial Expecation: 14.882813
Gbest: 32.000000
Expectation: 14.882813
Final Parameters:
Gammas:
[ 3.141593 3.141593 3.141593 3.141593 3.141593 ]
Betas:
[ 2.356194 1.570796 1.570796 1.570796 1.570796 ]
Aggregate results:
[ 36 30 34 26 32 28 24 22 20 18 16 14 0 ]
[ 0.000488 0.038208 0.001587 0.124146 0.010620 0.076904 0.133667 0.120605 0.071289 0.028320 0.007813 0.001587 0.384766 ]
3
Num Evals 11
GenUC: 2.810298e-03
GenUB: 9.664972e-04
Optimisation 4.715924e-01
Total Time: 4.753718e-01
