Clock Speed: 3.688813
Num threads: 4
Trotterisation: 6
Num Qubits: 5
Space Dimension: 32
Run-Type: 0
Num_samples: 4
Optimiser Method: 20
1 Isomorphic
Graph 1:
0 1 0 0 
1 0 0 0 
0 0 0 0 
0 0 0 0 
Graph 2:
0 1 0 0 
1 0 0 0 
0 0 0 0 
0 0 0 0 
Solution: 16 0
Classic Expectation: 12.666667
Initial Expecation: 9.500000
Gbest: 16.000000
Expectation: 13.952946
Final Parameters:
Gammas:
[ 3.395315 5.217265 1.532914 5.339146 1.043111 0.562744 ]
Betas:
[ 0.584841 0.937677 0.176028 1.662995 1.502388 2.480896 ]
Aggregate results:
[ 16 12 0 ]
[ 0.488373 0.511582 0.000046 ]
5
Num Evals 4800
GenUC: 8.106581e-06
GenUB: 8.860079e-06
Optimisation 2.048549e+00
Total Time: 2.048595e+00
2 Flipped
Graph 1:
0 1 0 0 
1 0 0 0 
0 0 0 0 
0 0 0 0 
Graph 2:
0 0 1 0 
0 0 0 1 
0 0 0 0 
0 0 0 0 
Solution: 14 2
Classic Expectation: 12.666667
Initial Expecation: 9.500000
Gbest: 14.000000
Expectation: 13.388360
Final Parameters:
Gammas:
[ 3.834107 0.195214 4.781581 3.619230 2.027146 2.989350 ]
Betas:
[ 2.869262 2.503053 1.087473 1.631872 2.566485 2.454259 ]
Aggregate results:
[ 12 14 0 ]
[ 0.285268 0.711796 0.002936 ]
5
Num Evals 4800
GenUC: 9.482144e-06
GenUB: 2.079760e-06
Optimisation 3.035328e+00
Total Time: 3.035342e+00
3 Add 4
Graph 1:
0 1 0 0 
1 0 0 0 
0 0 0 0 
0 0 0 0 
Graph 2:
1 1 1 1 
1 1 0 0 
1 0 0 0 
1 0 0 0 
Solution: 10 0
Classic Expectation: 8.000000
Initial Expecation: 6.000000
Gbest: 10.000000
Expectation: 9.934870
Final Parameters:
Gammas:
[ 5.280584 5.599421 3.484254 1.445471 1.392787 5.132971 ]
Betas:
[ 3.058358 1.054020 2.020675 3.033811 1.931383 0.454864 ]
Aggregate results:
[ 10 6 0 ]
[ 0.985503 0.013307 0.001190 ]
5
Num Evals 4800
GenUC: 9.344833e-06
GenUB: 1.708278e-06
Optimisation 2.951427e+00
Total Time: 2.951441e+00
4 Rem 4
Graph 1:
0 1 0 0 
1 0 0 0 
0 0 0 0 
0 0 0 0 
Graph 2:
0 0 0 0 
0 0 0 0 
0 0 0 0 
0 0 0 0 
Solution: 14 0
Classic Expectation: 14.000000
Initial Expecation: 10.500000
Gbest: 14.000000
Expectation: 14.000000
Final Parameters:
Gammas:
[ 0.817405 5.600646 4.162828 1.768104 3.337413 2.453929 ]
Betas:
[ 2.757246 2.296679 1.559180 2.063431 2.144768 0.376483 ]
Aggregate results:
[ 14 0 ]
[ 1.000000 0.000000 ]
5
Num Evals 4800
GenUC: 9.237439e-06
GenUB: 1.884939e-06
Optimisation 2.523115e+00
Total Time: 2.523129e+00
5 Add/Rem 4
Graph 1:
0 1 0 0 
1 0 0 0 
0 0 0 0 
0 0 0 0 
Graph 2:
0 0 1 1 
0 1 0 1 
1 0 0 0 
1 1 0 0 
Solution: 11 2
Classic Expectation: 9.000000
Initial Expecation: 6.750000
Gbest: 11.000000
Expectation: 11.000000
Final Parameters:
Gammas:
[ 0.523653 2.383641 1.289604 5.663633 2.964416 5.245274 ]
Betas:
[ 1.555310 0.878000 2.720968 3.046289 1.057186 1.171690 ]
Aggregate results:
[ 7 11 0 ]
[ 0.000000 1.000000 0.000000 ]
5
Num Evals 4800
GenUC: 9.486859e-06
GenUB: 1.532841e-06
Optimisation 2.512165e+00
Total Time: 2.512178e+00
