Clock Speed: 3.686541
Num threads: 4
Trotterisation: 1
Num Qubits: 10
Space Dimension: 1024
Run-Type: 0
Num_samples: 32399
Optimiser Method: 20
1 Isomorphic
Graph 1:
0 0 0 1 0 1 
1 1 0 0 1 1 
0 0 0 1 1 0 
1 1 0 1 0 1 
0 1 0 1 0 1 
1 1 0 0 1 0 
Graph 2:
0 0 0 1 0 1 
1 1 0 0 1 1 
0 0 0 1 1 0 
1 1 0 1 0 1 
0 1 0 1 0 1 
1 1 0 0 1 0 
Solution: 36 0
Classic Expectation: 18.400000
Initial Expecation: 12.937500
Gbest: 36.000000
Expectation: 16.326522
Final Parameters:
Gammas:
[ 3.394088 ]
Betas:
[ 2.626547 ]
Aggregate results:
[ 36 26 24 20 18 14 22 12 16 10 32 28 30 0 ]
[ 0.000634 0.034523 0.077860 0.154516 0.181775 0.062904 0.145607 0.021051 0.156628 0.000765 0.000492 0.008904 0.001993 0.152347 ]
5
Num Evals 1200
GenUC: 2.590172e-04
GenUB: 8.752034e-05
Optimisation 5.830926e-01
Total Time: 5.834560e-01
2 Flipped
Graph 1:
0 0 0 1 0 1 
1 1 0 0 1 1 
0 0 0 1 1 0 
1 1 0 1 0 1 
0 1 0 1 0 1 
1 1 0 0 1 0 
Graph 2:
1 0 1 0 0 0 
1 1 0 0 1 1 
0 1 1 0 0 0 
1 0 1 0 1 1 
1 0 1 0 1 0 
0 1 0 0 1 1 
Solution: 24 6
Classic Expectation: 17.200000
Initial Expecation: 12.093750
Gbest: 24.000000
Expectation: 15.161816
Final Parameters:
Gammas:
[ 3.238097 ]
Betas:
[ 0.307739 ]
Aggregate results:
[ 16 18 14 24 22 20 12 10 0 ]
[ 0.215264 0.224718 0.114960 0.023425 0.077908 0.168034 0.033203 0.002795 0.139694 ]
5
Num Evals 1200
GenUC: 2.802274e-04
GenUB: 4.964735e-05
Optimisation 5.108887e-01
Total Time: 5.112204e-01
3 Add 6
Graph 1:
0 0 0 1 0 1 
1 1 0 0 1 1 
0 0 0 1 1 0 
1 1 0 1 0 1 
0 1 0 1 0 1 
1 1 0 0 1 0 
Graph 2:
1 0 1 1 0 1 
1 1 0 0 1 1 
0 1 0 1 1 1 
1 1 0 1 0 1 
0 1 0 1 0 1 
1 1 1 0 1 0 
Solution: 31 0
Classic Expectation: 18.333333
Initial Expecation: 12.890625
Gbest: 31.000000
Expectation: 16.520560
Final Parameters:
Gammas:
[ 3.390959 ]
Betas:
[ 0.245623 ]
Aggregate results:
[ 31 23 19 21 17 27 15 11 13 7 25 0 ]
[ 0.005534 0.185956 0.180156 0.223565 0.079809 0.024849 0.038743 0.016917 0.025825 0.003133 0.032065 0.183448 ]
5
Num Evals 1200
GenUC: 2.801112e-04
GenUB: 5.152234e-05
Optimisation 6.321981e-01
Total Time: 6.325320e-01
4 Rem 6
Graph 1:
0 0 0 1 0 1 
1 1 0 0 1 1 
0 0 0 1 1 0 
1 1 0 1 0 1 
0 1 0 1 0 1 
1 1 0 0 1 0 
Graph 2:
0 0 0 1 0 0 
1 1 0 0 1 1 
0 0 0 1 1 0 
0 0 0 1 0 0 
0 1 0 1 0 0 
1 1 0 0 0 0 
Solution: 30 0
Classic Expectation: 18.000000
Initial Expecation: 12.656250
Gbest: 30.000000
Expectation: 15.723859
Final Parameters:
Gammas:
[ 3.227295 ]
Betas:
[ 0.732859 ]
Aggregate results:
[ 30 24 22 20 16 18 14 12 28 10 26 0 ]
[ 0.000882 0.025131 0.094049 0.181600 0.213537 0.230590 0.085492 0.034526 0.000957 0.003280 0.005969 0.123988 ]
5
Num Evals 1200
GenUC: 2.798577e-04
GenUB: 5.104113e-05
Optimisation 7.633379e-01
Total Time: 7.636708e-01
5 Add/Rem 6
Graph 1:
0 0 0 1 0 1 
1 1 0 0 1 1 
0 0 0 1 1 0 
1 1 0 1 0 1 
0 1 0 1 0 1 
1 1 0 0 1 0 
Graph 2:
0 0 0 1 1 1 
1 1 1 0 1 0 
1 1 0 1 0 0 
0 1 0 1 0 1 
0 1 0 0 1 1 
1 1 0 0 0 1 
Solution: 27 224
Classic Expectation: 17.666667
Initial Expecation: 12.421875
Gbest: 27.000000
Expectation: 15.417685
Final Parameters:
Gammas:
[ 3.052973 ]
Betas:
[ 0.375690 ]
Aggregate results:
[ 25 21 23 17 19 15 9 13 11 27 0 ]
[ 0.022684 0.116249 0.055725 0.196345 0.200121 0.159726 0.008309 0.086431 0.028128 0.003105 0.123177 ]
5
Num Evals 1200
GenUC: 2.804176e-04
GenUB: 5.084043e-05
Optimisation 4.207927e-01
Total Time: 4.211259e-01
