Clock Speed: 3.689049
Num threads: 4
Trotterisation: 6
Num Qubits: 10
Space Dimension: 1024
Run-Type: 0
Num_samples: 32399
Optimiser Method: 0
1 Isomorphic
Graph 1:
1 0 0 1 0 0 
0 1 1 1 1 1 
0 0 1 0 0 0 
1 0 1 1 0 1 
1 1 1 1 1 0 
0 0 0 0 0 1 
Graph 2:
1 0 0 1 0 0 
0 1 1 1 1 1 
0 0 1 0 0 0 
1 0 1 1 0 1 
1 1 1 1 1 0 
0 0 0 0 0 1 
Solution: 36 0
Classic Expectation: 21.600000
Initial Expecation: 15.187500
Gbest: 36.000000
Expectation: 15.187500
Final Parameters:
Gammas:
[ 3.141593 3.141593 5.235988 1.047198 3.141593 3.141593 ]
Betas:
[ 1.570796 1.570796 1.570796 1.570796 1.570796 1.570796 ]
Aggregate results:
[ 36 26 28 20 24 34 16 18 22 32 14 30 12 0 ]
[ 0.000977 0.079102 0.025391 0.140625 0.121094 0.001953 0.061523 0.086914 0.161133 0.004883 0.013672 0.004883 0.000977 0.296875 ]
3
Num Evals 31
GenUC: 2.628780e-04
GenUB: 9.119470e-05
Optimisation 9.998117e-02
Total Time: 1.003553e-01
2 Flipped
Graph 1:
1 0 0 1 0 0 
0 1 1 1 1 1 
0 0 1 0 0 0 
1 0 1 1 0 1 
1 1 1 1 1 0 
0 0 0 0 0 1 
Graph 2:
0 0 1 0 0 1 
1 1 1 1 1 0 
0 0 0 1 0 0 
1 0 1 1 0 1 
0 1 1 1 1 1 
1 0 0 0 0 0 
Solution: 28 80
Classic Expectation: 18.000000
Initial Expecation: 12.656250
Gbest: 28.000000
Expectation: 13.836950
Final Parameters:
Gammas:
[ 5.313558 2.443461 3.141593 3.141593 3.141593 3.064022 ]
Betas:
[ 2.617994 1.221730 1.570796 1.570796 1.221730 1.570796 ]
Aggregate results:
[ 24 18 20 22 16 12 14 28 26 10 8 0 ]
[ 0.030851 0.186155 0.159576 0.088379 0.184751 0.016268 0.067525 0.004351 0.010107 0.011061 0.002258 0.238718 ]
3
Num Evals 913
GenUC: 2.969792e-04
GenUB: 4.993001e-05
Optimisation 2.947014e+00
Total Time: 2.947363e+00
3 Add 6
Graph 1:
1 0 0 1 0 0 
0 1 1 1 1 1 
0 0 1 0 0 0 
1 0 1 1 0 1 
1 1 1 1 1 0 
0 0 0 0 0 1 
Graph 2:
1 1 0 1 0 0 
0 1 1 1 1 1 
1 0 1 1 0 0 
1 1 1 1 0 1 
1 1 1 1 1 0 
0 0 0 1 0 1 
Solution: 31 0
Classic Expectation: 20.600000
Initial Expecation: 14.484375
Gbest: 31.000000
Expectation: 15.046732
Final Parameters:
Gammas:
[ 3.141593 5.235988 3.141593 1.047198 3.141593 3.141593 ]
Betas:
[ 1.570796 1.570796 0.523599 1.570796 1.570796 1.570796 ]
Aggregate results:
[ 31 23 25 21 27 19 29 17 15 13 0 ]
[ 0.001194 0.151030 0.055174 0.167057 0.016826 0.217401 0.002886 0.094751 0.024217 0.000450 0.269014 ]
3
Num Evals 41
GenUC: 2.973289e-04
GenUB: 5.335186e-05
Optimisation 1.305136e-01
Total Time: 1.308668e-01
4 Rem 6
Graph 1:
1 0 0 1 0 0 
0 1 1 1 1 1 
0 0 1 0 0 0 
1 0 1 1 0 1 
1 1 1 1 1 0 
0 0 0 0 0 1 
Graph 2:
1 0 0 1 0 0 
0 1 1 0 1 1 
0 0 0 0 0 0 
0 0 1 1 0 1 
1 1 0 1 0 0 
0 0 0 0 0 0 
Solution: 30 0
Classic Expectation: 19.200000
Initial Expecation: 13.500000
Gbest: 30.000000
Expectation: 13.500000
Final Parameters:
Gammas:
[ 3.141593 3.141593 1.047198 3.141593 3.141593 3.141593 ]
Betas:
[ 0.523599 1.570796 1.570796 1.570796 1.570796 1.570796 ]
Aggregate results:
[ 30 22 24 18 20 14 16 26 12 28 0 ]
[ 0.001953 0.115234 0.041016 0.210938 0.171875 0.041016 0.095703 0.017578 0.005859 0.001953 0.296875 ]
3
Num Evals 121
GenUC: 2.963248e-04
GenUB: 5.079794e-05
Optimisation 3.869944e-01
Total Time: 3.873438e-01
5 Add/Rem 6
Graph 1:
1 0 0 1 0 0 
0 1 1 1 1 1 
0 0 1 0 0 0 
1 0 1 1 0 1 
1 1 1 1 1 0 
0 0 0 0 0 1 
Graph 2:
0 0 0 1 0 0 
0 1 1 1 0 0 
0 0 0 1 0 1 
1 0 1 1 0 0 
1 1 1 0 1 1 
0 0 1 1 0 1 
Solution: 27 434
Classic Expectation: 19.400000
Initial Expecation: 13.640625
Gbest: 27.000000
Expectation: 14.748151
Final Parameters:
Gammas:
[ 3.141593 1.047198 3.141593 3.141593 1.047198 3.141593 ]
Betas:
[ 1.570796 1.570796 0.523599 1.570796 1.570796 1.570796 ]
Aggregate results:
[ 25 23 19 17 21 15 13 27 0 ]
[ 0.040993 0.078593 0.245024 0.155567 0.163625 0.064030 0.006420 0.005021 0.240727 ]
3
Num Evals 53
GenUC: 2.970255e-04
GenUB: 5.048636e-05
Optimisation 1.683256e-01
Total Time: 1.686754e-01
