Clock Speed: 3.689312
Num threads: 4
Trotterisation: 6
Num Qubits: 10
Space Dimension: 1024
Run-Type: 0
Num_samples: 32399
Optimiser Method: 0
1 Isomorphic
Graph 1:
1 1 1 1 1 0 
1 1 0 0 0 1 
0 0 1 1 0 1 
1 0 0 1 1 1 
1 0 0 0 1 0 
1 0 1 1 1 1 
Graph 2:
1 1 1 1 1 0 
1 1 0 0 0 1 
0 0 1 1 0 1 
1 0 0 1 1 1 
1 0 0 0 1 0 
1 0 1 1 1 1 
Solution: 36 0
Classic Expectation: 21.066667
Initial Expecation: 14.812500
Gbest: 36.000000
Expectation: 14.812500
Final Parameters:
Gammas:
[ 3.141593 3.141593 1.047198 5.235988 3.141593 3.141593 ]
Betas:
[ 1.570796 1.570796 1.570796 1.570796 1.570796 1.570796 ]
Aggregate results:
[ 36 24 30 20 22 26 28 18 16 14 12 0 ]
[ 0.000977 0.107422 0.007813 0.199219 0.144531 0.045898 0.015625 0.135742 0.042969 0.001953 0.000977 0.296875 ]
3
Num Evals 39
GenUC: 2.609637e-04
GenUB: 9.506848e-05
Optimisation 1.311956e-01
Total Time: 1.315718e-01
2 Flipped
Graph 1:
1 1 1 1 1 0 
1 1 0 0 0 1 
0 0 1 1 0 1 
1 0 0 1 1 1 
1 0 0 0 1 0 
1 0 1 1 1 1 
Graph 2:
0 1 1 1 1 1 
1 0 0 0 1 1 
1 0 1 1 0 0 
1 1 1 0 0 1 
0 1 0 0 0 1 
1 1 1 1 0 1 
Solution: 26 65
Classic Expectation: 17.333333
Initial Expecation: 12.187500
Gbest: 26.000000
Expectation: 12.187500
Final Parameters:
Gammas:
[ 3.141593 3.141593 1.047198 5.235988 3.141593 3.141593 ]
Betas:
[ 1.570796 1.570796 1.570796 1.570796 1.570796 1.570796 ]
Aggregate results:
[ 20 18 16 22 24 14 26 12 10 8 0 ]
[ 0.147461 0.183594 0.166016 0.044922 0.014648 0.091797 0.000977 0.045898 0.006836 0.000977 0.296875 ]
3
Num Evals 31
GenUC: 2.811592e-04
GenUB: 5.028211e-05
Optimisation 9.976694e-02
Total Time: 1.001009e-01
3 Add 6
Graph 1:
1 1 1 1 1 0 
1 1 0 0 0 1 
0 0 1 1 0 1 
1 0 0 1 1 1 
1 0 0 0 1 0 
1 0 1 1 1 1 
Graph 2:
1 1 1 1 1 0 
1 1 0 0 0 1 
1 1 1 1 0 1 
1 1 0 1 1 1 
1 0 0 1 1 1 
1 1 1 1 1 1 
Solution: 30 0
Classic Expectation: 21.466667
Initial Expecation: 15.093750
Gbest: 30.000000
Expectation: 15.093750
Final Parameters:
Gammas:
[ 1.047198 3.141593 3.141593 1.047198 3.141593 3.141593 ]
Betas:
[ 1.570796 1.570796 1.570796 1.570796 1.570796 1.570796 ]
Aggregate results:
[ 30 22 28 24 26 20 18 16 0 ]
[ 0.002930 0.217773 0.020508 0.096680 0.041992 0.211914 0.104492 0.006836 0.296875 ]
3
Num Evals 43
GenUC: 2.798840e-04
GenUB: 5.066121e-05
Optimisation 1.394604e-01
Total Time: 1.397928e-01
4 Rem 6
Graph 1:
1 1 1 1 1 0 
1 1 0 0 0 1 
0 0 1 1 0 1 
1 0 0 1 1 1 
1 0 0 0 1 0 
1 0 1 1 1 1 
Graph 2:
1 0 0 1 0 0 
1 1 0 0 0 0 
0 0 1 1 0 1 
1 0 0 1 1 0 
1 0 0 0 1 0 
1 0 1 1 1 1 
Solution: 31 0
Classic Expectation: 20.733333
Initial Expecation: 14.578125
Gbest: 31.000000
Expectation: 15.231717
Final Parameters:
Gammas:
[ 3.141593 1.047198 3.141593 3.141593 3.141593 3.141593 ]
Betas:
[ 1.570796 1.570796 0.523599 1.570796 1.570796 1.570796 ]
Aggregate results:
[ 31 23 27 21 25 19 17 15 13 0 ]
[ 0.000248 0.200027 0.014153 0.190942 0.045304 0.173579 0.091533 0.015342 0.001131 0.267741 ]
3
Num Evals 35
GenUC: 2.789351e-04
GenUB: 5.125743e-05
Optimisation 1.134655e-01
Total Time: 1.137976e-01
5 Add/Rem 6
Graph 1:
1 1 1 1 1 0 
1 1 0 0 0 1 
0 0 1 1 0 1 
1 0 0 1 1 1 
1 0 0 0 1 0 
1 0 1 1 1 1 
Graph 2:
1 1 0 1 1 1 
0 1 1 0 0 1 
0 1 0 1 0 1 
0 0 0 1 1 1 
1 1 0 0 0 0 
0 1 1 1 1 1 
Solution: 27 480
Classic Expectation: 19.133333
Initial Expecation: 13.453125
Gbest: 27.000000
Expectation: 14.377802
Final Parameters:
Gammas:
[ 3.141593 1.047198 3.141593 5.235988 3.141593 3.141593 ]
Betas:
[ 1.570796 1.570796 0.523599 1.570796 1.570796 1.570796 ]
Aggregate results:
[ 25 15 19 21 13 17 23 27 0 ]
[ 0.014147 0.060850 0.216070 0.169059 0.025031 0.143178 0.110143 0.006041 0.255482 ]
3
Num Evals 43
GenUC: 2.798500e-04
GenUB: 4.984962e-05
Optimisation 1.358319e-01
Total Time: 1.361639e-01
