Clock Speed: 3.498892
Num threads: 16
Trotterisation: 6
Num Qubits: 10
Space Dimension: 1024
Run-Type: 0
Num_samples: 36
Optimiser Method: 0
1 Isomorphic
Graph 1:
0 1 1 0 0 1 
0 1 1 1 0 0 
1 1 1 0 0 1 
0 0 0 0 0 0 
0 1 1 0 0 1 
1 1 0 1 0 1 
Graph 2:
0 1 1 0 0 1 
0 1 1 1 0 0 
1 1 1 0 0 1 
0 0 0 0 0 0 
0 1 1 0 0 1 
1 1 0 1 0 1 
Solution: 36 0
Classic Expectation: 18.066667
Initial Expecation: 12.703125
Gbest: 36.000000
Expectation: 12.703125
Final Parameters:
Gammas:
[ 3.141593 1.047198 1.047198 3.141593 3.141593 3.141593 ]
Betas:
[ 1.570796 1.570796 1.570796 1.570796 1.570796 1.570796 ]
Aggregate results:
[ 36 22 26 20 18 14 10 30 28 16 12 24 32 0 ]
[ 0.000977 0.079102 0.018555 0.134766 0.157227 0.092773 0.010742 0.004883 0.005859 0.133789 0.041016 0.022461 0.000977 0.296875 ]
3
Num Evals 29
GenUC: 3.406797e-04
GenUB: 1.370683e-04
Optimisation 1.740398e-01
Total Time: 1.745269e-01
2 Flipped
Graph 1:
0 1 1 0 0 1 
0 1 1 1 0 0 
1 1 1 0 0 1 
0 0 0 0 0 0 
0 1 1 0 0 1 
1 1 0 1 0 1 
Graph 2:
1 0 0 1 1 0 
0 0 1 1 1 0 
1 0 0 1 1 1 
0 0 0 0 0 0 
1 0 0 1 1 0 
1 0 1 0 1 1 
Solution: 28 260
Classic Expectation: 18.066667
Initial Expecation: 12.703125
Gbest: 24.000000
Expectation: 14.526137
Final Parameters:
Gammas:
[ 5.320262 2.559337 3.130101 2.367806 3.198094 3.152127 ]
Betas:
[ 0.491038 1.589471 1.938536 1.550686 1.537757 1.886823 ]
Aggregate results:
[ 14 22 16 12 18 20 26 24 28 10 0 ]
[ 0.087961 0.096045 0.146308 0.027828 0.176033 0.183428 0.014760 0.035973 0.015090 0.000006 0.216569 ]
5
Num Evals 7200
GenUC: 3.584339e-04
GenUB: 1.377682e-04
Optimisation 4.170603e+01
Total Time: 4.170653e+01
3 Add 6
Graph 1:
0 1 1 0 0 1 
0 1 1 1 0 0 
1 1 1 0 0 1 
0 0 0 0 0 0 
0 1 1 0 0 1 
1 1 0 1 0 1 
Graph 2:
0 1 1 0 1 1 
0 1 1 1 0 0 
1 1 1 0 1 1 
0 0 0 1 0 1 
0 1 1 1 0 1 
1 1 0 1 0 1 
Solution: 31 0
Classic Expectation: 17.800000
Initial Expecation: 12.515625
Gbest: 23.000000
Expectation: 13.167754
Final Parameters:
Gammas:
[ 3.141593 5.235988 3.141593 3.141593 3.141593 3.141593 ]
Betas:
[ 1.570796 1.570796 0.523599 1.570796 1.570796 1.570796 ]
Aggregate results:
[ 31 23 17 19 21 15 25 13 11 9 29 0 ]
[ 0.002241 0.038160 0.183204 0.191976 0.107184 0.114146 0.018207 0.065881 0.011887 0.003775 0.000661 0.262677 ]
3
Num Evals 35
GenUC: 3.580707e-04
GenUB: 8.277269e-05
Optimisation 2.054529e-01
Total Time: 2.058967e-01
4 Rem 6
Graph 1:
0 1 1 0 0 1 
0 1 1 1 0 0 
1 1 1 0 0 1 
0 0 0 0 0 0 
0 1 1 0 0 1 
1 1 0 1 0 1 
Graph 2:
0 0 1 0 0 1 
0 0 0 1 0 0 
1 1 1 0 0 1 
0 0 0 0 0 0 
0 1 0 0 0 1 
0 1 0 1 0 1 
Solution: 31 0
Classic Expectation: 18.333333
Initial Expecation: 12.890625
Gbest: 25.000000
Expectation: 13.648049
Final Parameters:
Gammas:
[ 3.141593 5.235988 3.141593 3.141593 3.141593 3.141593 ]
Betas:
[ 1.570796 1.570796 0.523599 1.570796 1.570796 1.570796 ]
Aggregate results:
[ 31 21 23 19 17 15 13 25 11 27 29 0 ]
[ 0.000899 0.099849 0.054226 0.199758 0.190972 0.126592 0.023955 0.021659 0.010528 0.010016 0.003318 0.258228 ]
3
Num Evals 35
GenUC: 3.574477e-04
GenUB: 9.206636e-05
Optimisation 2.050312e-01
Total Time: 2.054831e-01
5 Add/Rem 6
Graph 1:
0 1 1 0 0 1 
0 1 1 1 0 0 
1 1 1 0 0 1 
0 0 0 0 0 0 
0 1 1 0 0 1 
1 1 0 1 0 1 
Graph 2:
0 1 0 1 0 0 
0 0 1 1 0 1 
0 1 0 1 0 1 
0 1 0 0 1 0 
0 1 0 0 0 1 
1 1 0 1 0 1 
Solution: 27 22
Classic Expectation: 18.000000
Initial Expecation: 12.656250
Gbest: 25.000000
Expectation: 13.330955
Final Parameters:
Gammas:
[ 3.141593 1.047198 3.141593 3.141593 5.235988 3.141593 ]
Betas:
[ 1.570796 1.570796 0.523599 1.570796 1.570796 1.570796 ]
Aggregate results:
[ 25 15 19 21 23 17 27 13 11 7 0 ]
[ 0.027397 0.133938 0.175346 0.115485 0.053898 0.155757 0.001290 0.045894 0.032349 0.000773 0.257874 ]
3
Num Evals 53
GenUC: 3.582542e-04
GenUB: 1.057955e-04
Optimisation 3.067983e-01
Total Time: 3.072647e-01
