Clock Speed: 3.689415
Num threads: 4
Trotterisation: 2
Num Qubits: 10
Space Dimension: 1024
Run-Type: 0
Num_samples: 6
Optimiser Method: 20
1 Isomorphic
Graph 1:
0 1 1 1 1 1 
1 0 0 0 0 0 
1 0 0 0 1 0 
1 0 0 0 0 0 
1 0 1 0 0 0 
1 0 0 0 0 0 
Graph 2:
0 1 1 1 1 1 
1 0 0 0 0 0 
1 0 0 0 1 0 
1 0 0 0 0 0 
1 0 1 0 0 0 
1 0 0 0 0 0 
Solution: 36 0
Classic Expectation: 21.600000
Initial Expecation: 15.187500
Gbest: 36.000000
Expectation: 20.507045
Final Parameters:
Gammas:
[ 4.646861 0.277300 ]
Betas:
[ 2.722381 2.762825 ]
Aggregate results:
[ 36 32 20 16 24 0 ]
[ 0.022652 0.219178 0.329332 0.259707 0.080663 0.088468 ]
5
Num Evals 2400
GenUC: 2.603759e-04
GenUB: 8.777177e-05
Optimisation 3.029365e+01
Total Time: 3.029402e+01
2 Flipped
Graph 1:
0 1 1 1 1 1 
1 0 0 0 0 0 
1 0 0 0 1 0 
1 0 0 0 0 0 
1 0 1 0 0 0 
1 0 0 0 0 0 
Graph 2:
1 1 1 1 1 0 
0 0 0 0 0 1 
0 1 0 0 0 1 
0 0 0 0 0 1 
0 0 0 1 0 1 
0 0 0 0 0 1 
Solution: 22 1
Classic Expectation: 20.000000
Initial Expecation: 14.062500
Gbest: 22.000000
Expectation: 18.098243
Final Parameters:
Gammas:
[ 2.476488 3.365335 ]
Betas:
[ 0.951373 1.917331 ]
Aggregate results:
[ 20 22 18 0 ]
[ 0.389302 0.384103 0.103441 0.123154 ]
5
Num Evals 2400
GenUC: 2.936729e-04
GenUB: 6.844435e-05
Optimisation 2.218324e+01
Total Time: 2.218361e+01
3 Add 6
Graph 1:
0 1 1 1 1 1 
1 0 0 0 0 0 
1 0 0 0 1 0 
1 0 0 0 0 0 
1 0 1 0 0 0 
1 0 0 0 0 0 
Graph 2:
0 1 1 1 1 1 
1 1 1 1 1 1 
1 1 0 1 1 1 
1 1 1 0 0 0 
1 1 1 0 0 0 
1 1 1 0 0 0 
Solution: 23 0
Classic Expectation: 18.200000
Initial Expecation: 12.796875
Gbest: 23.000000
Expectation: 16.174496
Final Parameters:
Gammas:
[ 4.735715 3.146493 ]
Betas:
[ 2.135421 1.335662 ]
Aggregate results:
[ 23 19 15 11 0 ]
[ 0.266098 0.111004 0.493150 0.049809 0.079938 ]
5
Num Evals 2400
GenUC: 2.935655e-04
GenUB: 6.935395e-05
Optimisation 2.544176e+01
Total Time: 2.544212e+01
4 Rem 6
Graph 1:
0 1 1 1 1 1 
1 0 0 0 0 0 
1 0 0 0 1 0 
1 0 0 0 0 0 
1 0 1 0 0 0 
1 0 0 0 0 0 
Graph 2:
0 0 0 0 0 0 
0 0 0 0 0 0 
0 0 0 0 1 0 
0 0 0 0 0 0 
0 0 1 0 0 0 
0 0 0 0 0 0 
Solution: 26 0
Classic Expectation: 23.600000
Initial Expecation: 16.593750
Gbest: 26.000000
Expectation: 21.595331
Final Parameters:
Gammas:
[ 3.354871 2.856458 ]
Betas:
[ 3.094510 2.617783 ]
Aggregate results:
[ 26 22 0 ]
[ 0.479996 0.414338 0.105666 ]
5
Num Evals 2400
GenUC: 2.941371e-04
GenUB: 6.984865e-05
Optimisation 3.183149e+01
Total Time: 3.183185e+01
5 Add/Rem 6
Graph 1:
0 1 1 1 1 1 
1 0 0 0 0 0 
1 0 0 0 1 0 
1 0 0 0 0 0 
1 0 1 0 0 0 
1 0 0 0 0 0 
Graph 2:
1 0 0 0 0 0 
0 1 1 1 1 1 
0 1 0 0 1 1 
0 1 0 0 0 0 
0 1 1 0 0 0 
0 1 1 0 0 0 
Solution: 30 120
Classic Expectation: 19.600000
Initial Expecation: 13.781250
Gbest: 30.000000
Expectation: 19.679204
Final Parameters:
Gammas:
[ 6.031202 5.904870 ]
Betas:
[ 0.915137 2.931114 ]
Aggregate results:
[ 14 10 30 26 22 18 0 ]
[ 0.074073 0.018717 0.095514 0.139106 0.398621 0.177953 0.096015 ]
5
Num Evals 2400
GenUC: 2.944141e-04
GenUB: 6.270040e-05
Optimisation 2.583457e+01
Total Time: 2.583493e+01
