Clock Speed: 3.688625
Num threads: 4
Trotterisation: 1
Graph Size: 6
Num Qubits: 10
Space Dimension: 1024
Run-Type: 0
Num_samples: 10
1 Isomorphic
Graph 1:
0 1 0 0 0 1 
0 0 1 0 0 0 
0 0 1 1 1 0 
1 1 1 1 1 0 
0 0 1 1 1 0 
1 1 1 1 0 0 
Graph 2:
0 1 0 0 0 1 
0 0 1 0 0 0 
0 0 1 1 1 0 
1 1 1 1 1 0 
0 0 1 1 1 0 
1 1 1 1 0 0 
Solution: 0 0
Gbest: -14.000000
Expectation: -20.017848
Final Parameters:
Gammas:
[ 3.575898 ]
Betas:
[ 1.573857 2.878091 ]
Aggregate results:
[ -1 5 11 13 15 9 17 19 21 7 3 23 25 29 35 ]
[ 0.000764 0.008101 0.073030 0.107944 0.268814 0.021288 0.143914 0.087522 0.055471 0.009625 0.000853 0.038509 0.012476 0.000554 0.171135 ]
3
Num Evals 127
GenUC: 2.983952e-04
GenUB: 1.992535e-04
Optimisation 1.120872e-01
Total Time: 1.135450e-01
2 Flipped
Graph 1:
0 1 0 0 0 1 
0 0 1 0 0 0 
0 0 1 1 1 0 
1 1 1 1 1 0 
0 0 1 1 1 0 
1 1 1 1 0 0 
Graph 2:
1 0 0 0 1 0 
0 0 0 1 0 0 
0 1 1 1 0 0 
0 1 1 1 1 1 
0 1 1 1 0 0 
0 0 1 1 1 1 
Solution: -8 220
Gbest: -14.000000
Expectation: -22.398657
Final Parameters:
Gammas:
[ 3.963969 ]
Betas:
[ 1.546746 2.410045 ]
Aggregate results:
[ 15 17 19 13 21 9 11 23 7 25 35 ]
[ 0.163793 0.217056 0.170456 0.085887 0.065133 0.001011 0.027130 0.013550 0.001266 0.001432 0.253285 ]
3
Num Evals 235
GenUC: 1.297823e-04
GenUB: 1.392375e-04
Optimisation 1.074039e-01
Total Time: 1.085649e-01
3 Add 6
Graph 1:
0 1 0 0 0 1 
0 0 1 0 0 0 
0 0 1 1 1 0 
1 1 1 1 1 0 
0 0 1 1 1 0 
1 1 1 1 0 0 
Graph 2:
0 1 0 0 0 1 
0 0 1 0 1 1 
0 0 1 1 1 1 
1 1 1 1 1 0 
0 0 1 1 1 1 
1 1 1 1 1 1 
Solution: -6 0
Gbest: -14.000000
Expectation: -18.476669
Final Parameters:
Gammas:
[ 3.224565 ]
Betas:
[ 0.777061 2.863501 ]
Aggregate results:
[ 5 9 13 15 17 21 19 11 23 25 35 ]
[ 0.006385 0.024257 0.139822 0.185952 0.256919 0.091699 0.155336 0.048692 0.022477 0.007395 0.061066 ]
3
Num Evals 381
GenUC: 1.202245e-04
GenUB: 1.695935e-04
Optimisation 1.123355e-01
Total Time: 1.134570e-01
4 Rem 6
Graph 1:
0 1 0 0 0 1 
0 0 1 0 0 0 
0 0 1 1 1 0 
1 1 1 1 1 0 
0 0 1 1 1 0 
1 1 1 1 0 0 
Graph 2:
0 0 0 0 0 0 
0 0 1 0 0 0 
0 0 0 1 1 0 
1 1 1 1 0 0 
0 0 1 1 1 0 
1 1 1 1 0 0 
Solution: -4 0
Gbest: -16.000000
Expectation: -21.926508
Final Parameters:
Gammas:
[ 3.947225 ]
Betas:
[ 3.052190 2.441182 ]
Aggregate results:
[ 3 5 11 9 13 15 17 19 21 23 7 25 35 ]
[ 0.000981 0.003189 0.034225 0.009703 0.078530 0.142473 0.225224 0.188801 0.057660 0.025756 0.001272 0.006888 0.225299 ]
3
Num Evals 513
GenUC: 1.251809e-04
GenUB: 1.591301e-04
Optimisation 1.329075e-01
Total Time: 1.342899e-01
5 Add/Rem 6
Graph 1:
0 1 0 0 0 1 
0 0 1 0 0 0 
0 0 1 1 1 0 
1 1 1 1 1 0 
0 0 1 1 1 0 
1 1 1 1 0 0 
Graph 2:
0 1 1 0 1 1 
0 0 1 1 0 0 
1 0 0 1 0 0 
1 1 1 1 1 0 
1 0 0 1 1 1 
0 0 1 0 0 0 
Solution: -10 152
Gbest: -12.000000
Expectation: -18.429986
Final Parameters:
Gammas:
[ 3.224552 ]
Betas:
[ 0.192373 2.861713 ]
Aggregate results:
[ 11 15 13 19 17 21 23 25 9 27 35 ]
[ 0.065031 0.187017 0.162736 0.150913 0.237264 0.086352 0.028346 0.004968 0.015346 0.000702 0.061325 ]
3
Num Evals 649
GenUC: 1.288816e-04
GenUB: 1.563239e-04
Optimisation 1.047353e-01
Total Time: 1.057516e-01
