Clock Speed: 3.689012
Num threads: 4
Trotterisation: 2
Graph Size: 6
Num Qubits: 10
Space Dimension: 1024
Run-Type: 0
Num_samples: 10
1 Isomorphic
Graph 1:
1 0 0 0 1 1 
1 1 0 1 0 0 
1 1 0 0 0 0 
0 0 0 0 1 0 
1 0 1 1 1 0 
0 1 0 0 0 1 
Graph 2:
1 0 0 0 1 1 
1 1 0 1 0 0 
1 1 0 0 0 0 
0 0 0 0 1 0 
1 0 1 1 1 0 
0 1 0 0 0 1 
Solution: 0 0
Gbest: -12.000000
Expectation: -17.615887
Final Parameters:
Gammas:
[ 6.239692 0.271042 ]
Betas:
[ 1.879304 0.395497 3.013661 ]
Aggregate results:
[ -1 11 15 9 19 13 17 7 21 5 25 23 35 ]
[ 0.000485 0.173722 0.206479 0.046964 0.017860 0.286261 0.074429 0.019128 0.010641 0.004144 0.007017 0.003696 0.149172 ]
5
Num Evals 600
GenUC: 3.020200e-04
GenUB: 1.964360e-04
Optimisation 7.189552e-01
Total Time: 7.206766e-01
2 Flipped
Graph 1:
1 0 0 0 1 1 
1 1 0 1 0 0 
1 1 0 0 0 0 
0 0 0 0 1 0 
1 0 1 1 1 0 
0 1 0 0 0 1 
Graph 2:
1 1 0 0 0 1 
0 0 1 0 1 1 
0 0 0 0 1 1 
0 1 0 0 0 0 
0 1 1 1 0 1 
1 0 0 0 1 0 
Solution: -8 630
Gbest: -16.000000
Expectation: -19.152383
Final Parameters:
Gammas:
[ 6.276862 0.080112 ]
Betas:
[ 2.480532 0.050126 2.721879 ]
Aggregate results:
[ 21 13 19 17 15 9 11 23 25 7 35 ]
[ 0.122522 0.078616 0.245724 0.277574 0.158959 0.003837 0.024208 0.038617 0.010183 0.001774 0.037986 ]
5
Num Evals 1200
GenUC: 1.332030e-04
GenUB: 1.512623e-04
Optimisation 6.885147e-01
Total Time: 6.899314e-01
3 Add 6
Graph 1:
1 0 0 0 1 1 
1 1 0 1 0 0 
1 1 0 0 0 0 
0 0 0 0 1 0 
1 0 1 1 1 0 
0 1 0 0 0 1 
Graph 2:
1 0 0 0 1 1 
1 1 0 1 1 1 
1 1 1 0 0 0 
0 0 1 0 1 0 
1 0 1 1 1 1 
1 1 0 0 0 1 
Solution: -6 0
Gbest: -12.000000
Expectation: -19.224222
Final Parameters:
Gammas:
[ 4.231221 5.213625 ]
Betas:
[ 1.030393 2.948006 0.342826 ]
Aggregate results:
[ 5 11 17 13 15 19 21 23 25 9 7 35 ]
[ 0.001392 0.042445 0.266412 0.115564 0.189785 0.171959 0.076808 0.027450 0.004737 0.010863 0.003426 0.089158 ]
5
Num Evals 1800
GenUC: 1.344117e-04
GenUB: 1.668505e-04
Optimisation 6.851453e-01
Total Time: 6.865223e-01
4 Rem 6
Graph 1:
1 0 0 0 1 1 
1 1 0 1 0 0 
1 1 0 0 0 0 
0 0 0 0 1 0 
1 0 1 1 1 0 
0 1 0 0 0 1 
Graph 2:
0 0 0 0 1 1 
0 1 0 1 0 0 
1 0 0 0 0 0 
0 0 0 0 1 0 
1 0 1 0 1 0 
0 0 0 0 0 1 
Solution: -5 0
Gbest: -11.000000
Expectation: -17.779626
Final Parameters:
Gammas:
[ 3.047458 0.455331 ]
Betas:
[ 2.532928 1.301889 1.576690 ]
Aggregate results:
[ 4 12 16 10 14 18 8 20 22 35 ]
[ 0.001270 0.126656 0.278496 0.042789 0.208295 0.193668 0.004078 0.071302 0.004661 0.068785 ]
5
Num Evals 2400
GenUC: 1.222789e-04
GenUB: 1.688199e-04
Optimisation 7.206498e-01
Total Time: 7.222016e-01
5 Add/Rem 6
Graph 1:
1 0 0 0 1 1 
1 1 0 1 0 0 
1 1 0 0 0 0 
0 0 0 0 1 0 
1 0 1 1 1 0 
0 1 0 0 0 1 
Graph 2:
1 0 0 0 1 0 
0 1 1 1 1 0 
1 1 0 1 0 0 
0 0 1 0 0 0 
0 0 1 1 1 0 
0 0 0 0 1 1 
Solution: -8 63
Gbest: -10.000000
Expectation: -18.469489
Final Parameters:
Gammas:
[ 3.052103 3.026053 ]
Betas:
[ 2.350718 2.436760 1.052659 ]
Aggregate results:
[ 9 11 17 13 15 19 7 21 23 35 ]
[ 0.027421 0.083962 0.195062 0.203548 0.257852 0.078199 0.004950 0.015372 0.004272 0.129362 ]
5
Num Evals 3000
GenUC: 1.268763e-04
GenUB: 1.670535e-04
Optimisation 6.862724e-01
Total Time: 6.878519e-01
