Clock Speed: 3.688227
Num threads: 4
Trotterisation: 2
Graph Size: 6
Num Qubits: 10
Space Dimension: 1024
Run-Type: 0
Num_samples: 10
1 Isomorphic
Graph 1:
1 0 1 1 0 0 
1 0 1 1 0 0 
1 1 0 1 1 0 
1 1 1 0 1 1 
1 1 0 1 0 0 
1 0 0 1 1 1 
Graph 2:
1 0 1 1 0 0 
1 0 1 1 0 0 
1 1 0 1 1 0 
1 1 1 0 1 1 
1 1 0 1 0 0 
1 0 0 1 1 1 
Solution: 0 0
Gbest: -8.000000
Expectation: -16.999205
Final Parameters:
Gammas:
[ 3.057889 0.970102 ]
Betas:
[ 1.274262 0.752419 2.907230 ]
Aggregate results:
[ -1 5 9 11 13 7 15 17 19 21 23 35 ]
[ 0.003900 0.023192 0.081786 0.098902 0.225099 0.018332 0.214639 0.133503 0.073246 0.022990 0.000786 0.103625 ]
5
Num Evals 600
GenUC: 3.648206e-04
GenUB: 1.978104e-04
Optimisation 7.343898e-01
Total Time: 7.361910e-01
2 Flipped
Graph 1:
1 0 1 1 0 0 
1 0 1 1 0 0 
1 1 0 1 1 0 
1 1 1 0 1 1 
1 1 0 1 0 0 
1 0 0 1 1 1 
Graph 2:
0 0 1 1 0 1 
0 0 1 1 0 1 
0 1 1 0 1 1 
1 1 0 1 1 1 
0 0 1 0 1 1 
1 1 1 0 0 1 
Solution: -10 128
Gbest: -14.000000
Expectation: -17.776038
Final Parameters:
Gammas:
[ 3.055994 3.115512 ]
Betas:
[ 0.269351 2.373074 1.051643 ]
Aggregate results:
[ 19 17 21 15 23 13 11 9 25 35 ]
[ 0.138079 0.228026 0.062550 0.235707 0.008041 0.177226 0.083519 0.011890 0.001134 0.053829 ]
5
Num Evals 1200
GenUC: 1.310945e-04
GenUB: 1.485324e-04
Optimisation 6.955969e-01
Total Time: 6.968802e-01
3 Add 6
Graph 1:
1 0 1 1 0 0 
1 0 1 1 0 0 
1 1 0 1 1 0 
1 1 1 0 1 1 
1 1 0 1 0 0 
1 0 0 1 1 1 
Graph 2:
1 0 1 1 0 0 
1 1 1 1 0 0 
1 1 0 1 1 0 
1 1 1 1 1 1 
1 1 1 1 1 1 
1 1 0 1 1 1 
Solution: -6 0
Gbest: -12.000000
Expectation: -17.084883
Final Parameters:
Gammas:
[ 3.199806 1.006238 ]
Betas:
[ 1.515292 0.938471 1.590139 ]
Aggregate results:
[ 5 7 13 9 11 15 17 19 21 35 ]
[ 0.001604 0.007068 0.225944 0.031797 0.102118 0.281290 0.197899 0.069247 0.008916 0.074116 ]
5
Num Evals 1800
GenUC: 1.130463e-04
GenUB: 1.705336e-04
Optimisation 6.983176e-01
Total Time: 6.996880e-01
4 Rem 6
Graph 1:
1 0 1 1 0 0 
1 0 1 1 0 0 
1 1 0 1 1 0 
1 1 1 0 1 1 
1 1 0 1 0 0 
1 0 0 1 1 1 
Graph 2:
1 0 1 0 0 0 
1 0 1 0 0 0 
1 0 0 1 1 0 
0 1 1 0 1 1 
1 1 0 0 0 0 
1 0 0 1 1 1 
Solution: -5 0
Gbest: -11.000000
Expectation: -18.261307
Final Parameters:
Gammas:
[ 6.205508 2.903699 ]
Betas:
[ 0.124128 2.182374 1.391270 ]
Aggregate results:
[ 4 10 14 12 16 8 20 18 22 24 26 35 ]
[ 0.002163 0.028674 0.167233 0.094168 0.219707 0.010552 0.126579 0.249320 0.047798 0.005330 0.000060 0.048414 ]
5
Num Evals 2400
GenUC: 1.335592e-04
GenUB: 1.653289e-04
Optimisation 7.459518e-01
Total Time: 7.472546e-01
5 Add/Rem 6
Graph 1:
1 0 1 1 0 0 
1 0 1 1 0 0 
1 1 0 1 1 0 
1 1 1 0 1 1 
1 1 0 1 0 0 
1 0 0 1 1 1 
Graph 2:
1 1 1 1 1 1 
0 1 0 0 0 1 
0 1 0 1 1 0 
1 1 1 0 1 1 
1 1 0 1 0 0 
1 0 1 1 1 0 
Solution: -7 394
Gbest: -9.000000
Expectation: -16.745071
Final Parameters:
Gammas:
[ 2.930121 1.903009 ]
Betas:
[ 1.421212 1.813869 1.632872 ]
Aggregate results:
[ 10 14 12 16 18 8 20 22 6 35 ]
[ 0.136216 0.266278 0.201561 0.134385 0.074403 0.039372 0.022683 0.004762 0.011670 0.108671 ]
5
Num Evals 3000
GenUC: 1.129412e-04
GenUB: 1.665677e-04
Optimisation 7.174062e-01
Total Time: 7.188809e-01
