Clock Speed: 3.689210
Num threads: 4
Trotterisation: 2
Graph Size: 4
Num Qubits: 5
Space Dimension: 32
Run-Type: 0
Num_samples: 10
1 Isomorphic
Graph 1:
0 1 1 1 
0 1 1 1 
1 0 0 0 
1 1 0 0 
Graph 2:
0 1 1 1 
0 1 1 1 
1 0 0 0 
1 1 0 0 
Solution: 0 0
Gbest: 0.000000
Expectation: -5.773523
Final Parameters:
Gammas:
[ 3.309964 3.207297 ]
Betas:
[ 0.431305 1.018706 1.746329 ]
Aggregate results:
[ -1 5 7 9 1 15 ]
[ 0.146202 0.392325 0.277296 0.073820 0.093051 0.017306 ]
3
Num Evals 201
GenUC: 1.392779e-04
GenUB: 1.173443e-05
Optimisation 3.498642e-02
Total Time: 3.533344e-02
2 Flipped
Graph 1:
0 1 1 1 
0 1 1 1 
1 0 0 0 
1 1 0 0 
Graph 2:
1 1 1 0 
1 1 1 0 
0 0 0 1 
0 0 1 1 
Solution: -6 7
Gbest: -6.000000
Expectation: -7.797134
Final Parameters:
Gammas:
[ 3.315933 2.857457 ]
Betas:
[ 0.591570 1.246402 1.416531 ]
Aggregate results:
[ 9 7 5 13 15 ]
[ 0.130180 0.456952 0.372956 0.018305 0.021607 ]
3
Num Evals 356
GenUC: 9.142328e-06
GenUB: 8.350704e-06
Optimisation 2.605980e-02
Total Time: 2.624872e-02
3 Add 4
Graph 1:
0 1 1 1 
0 1 1 1 
1 0 0 0 
1 1 0 0 
Graph 2:
1 1 1 1 
1 1 1 1 
1 0 0 1 
1 1 0 0 
Solution: -3 0
Gbest: -3.000000
Expectation: -5.631192
Final Parameters:
Gammas:
[ 2.661428 3.119549 ]
Betas:
[ 2.768263 1.918420 1.676120 ]
Aggregate results:
[ 2 4 6 8 15 ]
[ 0.152414 0.555336 0.208497 0.057466 0.026287 ]
3
Num Evals 518
GenUC: 8.461066e-06
GenUB: 7.719267e-06
Optimisation 3.598244e-02
Total Time: 3.621889e-02
4 Rem 4
Graph 1:
0 1 1 1 
0 1 1 1 
1 0 0 0 
1 1 0 0 
Graph 2:
0 1 0 1 
0 1 1 1 
0 0 0 0 
0 0 0 0 
Solution: -4 0
Gbest: -4.000000
Expectation: -7.339752
Final Parameters:
Gammas:
[ 6.049149 3.069428 ]
Betas:
[ 1.623662 1.087590 2.403118 ]
Aggregate results:
[ 3 7 9 5 15 ]
[ 0.198304 0.498053 0.164852 0.130707 0.008085 ]
3
Num Evals 704
GenUC: 8.351286e-06
GenUB: 8.177012e-06
Optimisation 3.800733e-02
Total Time: 3.822570e-02
5 Add/Rem 4
Graph 1:
0 1 1 1 
0 1 1 1 
1 0 0 0 
1 1 0 0 
Graph 2:
0 1 1 0 
0 1 1 0 
0 1 0 1 
1 1 1 0 
Solution: -4 6
Gbest: -6.000000
Expectation: -9.125000
Final Parameters:
Gammas:
[ 3.141593 3.141593 ]
Betas:
[ 2.583789 1.890817 1.570796 ]
Aggregate results:
[ 5 7 3 9 15 ]
[ 0.375000 0.250000 0.062500 0.062500 0.250000 ]
3
Num Evals 717
GenUC: 8.273753e-06
GenUB: 8.148258e-06
Optimisation 2.484777e-03
Total Time: 2.737608e-03
