Clock Speed: 3.689375
Num threads: 4
Trotterisation: 2
Graph Size: 4
Num Qubits: 5
Space Dimension: 32
Run-Type: 0
Num_samples: 10
1 Isomorphic
Graph 1:
1 0 0 0 
1 1 1 0 
0 1 0 0 
1 1 0 1 
Graph 2:
1 0 0 0 
1 1 1 0 
0 1 0 0 
1 1 0 1 
Solution: 0 0
Gbest: 0.000000
Expectation: -7.086095
Final Parameters:
Gammas:
[ 2.207937 3.563757 ]
Betas:
[ 0.349635 1.088320 2.447527 ]
Aggregate results:
[ -1 5 7 9 15 ]
[ 0.117688 0.415426 0.192115 0.223286 0.051485 ]
3
Num Evals 186
GenUC: 1.375850e-04
GenUB: 1.246974e-05
Optimisation 4.072949e-02
Total Time: 4.138226e-02
2 Flipped
Graph 1:
1 0 0 0 
1 1 1 0 
0 1 0 0 
1 1 0 1 
Graph 2:
0 0 0 1 
0 1 1 1 
0 0 1 0 
1 0 1 1 
Solution: 0 16
Gbest: 0.000000
Expectation: -6.300491
Final Parameters:
Gammas:
[ 2.978575 2.976995 ]
Betas:
[ 0.063573 1.749210 1.836931 ]
Aggregate results:
[ 7 9 5 -1 15 ]
[ 0.344888 0.095573 0.401379 0.147074 0.011087 ]
3
Num Evals 381
GenUC: 9.217474e-06
GenUB: 8.350122e-06
Optimisation 3.292803e-02
Total Time: 3.312482e-02
3 Add 4
Graph 1:
1 0 0 0 
1 1 1 0 
0 1 0 0 
1 1 0 1 
Graph 2:
1 0 1 0 
1 1 1 1 
0 1 0 0 
1 1 1 1 
Solution: -3 0
Gbest: -3.000000
Expectation: -8.293636
Final Parameters:
Gammas:
[ 4.605364 4.146104 ]
Betas:
[ 1.652502 1.700879 0.796916 ]
Aggregate results:
[ 2 6 8 12 10 4 15 ]
[ 0.123315 0.387313 0.231631 0.023083 0.003542 0.082643 0.148473 ]
3
Num Evals 530
GenUC: 8.479226e-06
GenUB: 8.167626e-06
Optimisation 2.818103e-02
Total Time: 2.838581e-02
4 Rem 4
Graph 1:
1 0 0 0 
1 1 1 0 
0 1 0 0 
1 1 0 1 
Graph 2:
1 0 0 0 
0 0 0 0 
0 1 0 0 
1 1 0 0 
Solution: -4 0
Gbest: -6.000000
Expectation: -10.000000
Final Parameters:
Gammas:
[ 3.141593 3.141593 ]
Betas:
[ 2.300658 1.626332 1.570796 ]
Aggregate results:
[ 3 5 7 9 11 15 ]
[ 0.031250 0.187500 0.312500 0.187500 0.031250 0.250000 ]
3
Num Evals 548
GenUC: 8.585455e-06
GenUB: 8.143557e-06
Optimisation 3.540565e-03
Total Time: 3.772627e-03
5 Add/Rem 4
Graph 1:
1 0 0 0 
1 1 1 0 
0 1 0 0 
1 1 0 1 
Graph 2:
1 0 0 0 
1 0 1 1 
1 0 0 0 
0 1 1 1 
Solution: -6 0
Gbest: -6.000000
Expectation: -10.000000
Final Parameters:
Gammas:
[ 3.113583 3.141593 ]
Betas:
[ 3.140468 1.542787 1.598806 ]
Aggregate results:
[ 5 7 9 11 15 ]
[ 0.281250 0.281250 0.093750 0.093750 0.250000 ]
3
Num Evals 560
GenUC: 8.052011e-06
GenUB: 7.875380e-06
Optimisation 2.297939e-03
Total Time: 2.553290e-03
