Clock Speed: 3.689209
Num threads: 4
Trotterisation: 4
Num Qubits: 3
Space Dimension: 8
Run-Type: 0
Num_samples: 2024
Optimiser Method: 0
1 Isomorphic
Graph 1:
1 0 0 
0 0 0 
1 1 0 
Graph 2:
1 0 0 
0 0 0 
1 1 0 
Solution: 9 0
Classic Expectation: 5.000000
Initial Expecation: 3.750000
Gbest: 9.000000
Expectation: 4.125000
Final Parameters:
Gammas:
[ 5.235988 3.141593 3.141593 3.141593 ]
Betas:
[ 1.570796 1.570796 2.617994 1.570796 ]
Aggregate results:
[ 9 5 7 3 0 ]
[ 0.054687 0.007812 0.382813 0.304688 0.250000 ]
3
Num Evals 23
GenUC: 2.537447e-06
GenUB: 7.189927e-06
Optimisation 5.765034e-03
Total Time: 5.802586e-03
2 Flipped
Graph 1:
1 0 0 
0 0 0 
1 1 0 
Graph 2:
0 0 1 
0 0 0 
0 1 1 
Solution: 7 5
Classic Expectation: 5.000000
Initial Expecation: 3.750000
Gbest: 7.000000
Expectation: 5.892887
Final Parameters:
Gammas:
[ 5.261844 5.235988 5.244607 0.616252 ]
Betas:
[ 2.596447 2.695564 1.126922 1.656985 ]
Aggregate results:
[ 5 3 7 0 ]
[ 0.460166 0.045480 0.493660 0.000695 ]
5
Num Evals 2400
GenUC: 2.513989e-06
GenUB: 8.603092e-07
Optimisation 5.824560e-01
Total Time: 5.824611e-01
3 Add 3
Graph 1:
1 0 0 
0 0 0 
1 1 0 
Graph 2:
1 0 1 
0 1 0 
1 1 1 
Solution: 6 0
Classic Expectation: 4.000000
Initial Expecation: 3.000000
Gbest: 6.000000
Expectation: 3.281250
Final Parameters:
Gammas:
[ 5.235988 1.047198 3.141593 3.141593 ]
Betas:
[ 0.523599 1.570796 1.570796 1.570796 ]
Aggregate results:
[ 6 2 4 0 ]
[ 0.250000 0.109375 0.390625 0.250000 ]
3
Num Evals 23
GenUC: 2.849090e-06
GenUB: 8.004135e-07
Optimisation 5.219161e-03
Total Time: 5.225436e-03
4 Rem 3
Graph 1:
1 0 0 
0 0 0 
1 1 0 
Graph 2:
1 0 0 
0 0 0 
0 0 0 
Solution: 7 0
Classic Expectation: 5.666667
Initial Expecation: 4.250000
Gbest: 7.000000
Expectation: 5.978596
Final Parameters:
Gammas:
[ 5.223113 3.142657 3.076898 2.898986 ]
Betas:
[ 1.508229 1.977960 1.577340 0.435175 ]
Aggregate results:
[ 7 5 0 ]
[ 0.489959 0.509777 0.000264 ]
5
Num Evals 2400
GenUC: 2.466491e-06
GenUB: 5.498878e-07
Optimisation 5.626050e-01
Total Time: 5.626094e-01
5 Add/Rem 3
Graph 1:
1 0 0 
0 0 0 
1 1 0 
Graph 2:
0 0 0 
0 0 0 
0 1 1 
Solution: 6 0
Classic Expectation: 5.333333
Initial Expecation: 4.000000
Gbest: 6.000000
Expectation: 4.375000
Final Parameters:
Gammas:
[ 5.235988 5.235988 3.141593 3.141593 ]
Betas:
[ 0.523599 1.570796 1.570796 1.570796 ]
Aggregate results:
[ 6 4 0 ]
[ 0.687500 0.062500 0.250000 ]
3
Num Evals 23
GenUC: 2.706540e-06
GenUB: 1.062755e-06
Optimisation 5.440361e-03
Total Time: 5.446919e-03
