Clock Speed: 3.689408
Num threads: 4
Trotterisation: 4
Num Qubits: 3
Space Dimension: 8
Run-Type: 0
Num_samples: 2024
Optimiser Method: 0
1 Isomorphic
Graph 1:
1 1 0 
0 0 0 
0 0 0 
Graph 2:
1 1 0 
0 0 0 
0 0 0 
Solution: 9 0
Classic Expectation: 6.000000
Initial Expecation: 4.500000
Gbest: 9.000000
Expectation: 5.296875
Final Parameters:
Gammas:
[ 1.047198 3.141593 1.047198 3.141593 ]
Betas:
[ 0.523599 1.570796 1.570796 1.570796 ]
Aggregate results:
[ 9 7 5 0 ]
[ 0.054687 0.195313 0.687500 0.062500 ]
3
Num Evals 29
GenUC: 2.823828e-06
GenUB: 7.561990e-06
Optimisation 7.541198e-03
Total Time: 7.569746e-03
2 Flipped
Graph 1:
1 1 0 
0 0 0 
0 0 0 
Graph 2:
0 1 1 
0 0 0 
0 0 0 
Solution: 7 0
Classic Expectation: 5.666667
Initial Expecation: 4.250000
Gbest: 7.000000
Expectation: 5.978596
Final Parameters:
Gammas:
[ 5.223113 3.142657 3.076898 2.898986 ]
Betas:
[ 1.508229 1.977960 1.577340 0.435175 ]
Aggregate results:
[ 7 5 0 ]
[ 0.489959 0.509777 0.000264 ]
5
Num Evals 2400
GenUC: 2.585643e-06
GenUB: 8.491334e-07
Optimisation 6.665147e-01
Total Time: 6.665198e-01
3 Add 3
Graph 1:
1 1 0 
0 0 0 
0 0 0 
Graph 2:
1 1 0 
0 0 0 
1 1 0 
Solution: 7 0
Classic Expectation: 4.666667
Initial Expecation: 3.500000
Gbest: 7.000000
Expectation: 4.484375
Final Parameters:
Gammas:
[ 3.141593 1.047198 1.047198 3.141593 ]
Betas:
[ 1.570796 0.523599 1.570796 1.570796 ]
Aggregate results:
[ 7 5 3 0 ]
[ 0.148437 0.539062 0.250000 0.062500 ]
3
Num Evals 27
GenUC: 2.832676e-06
GenUB: 8.391798e-07
Optimisation 6.443749e-03
Total Time: 6.449529e-03
4 Rem 3
Graph 1:
1 1 0 
0 0 0 
0 0 0 
Graph 2:
1 0 0 
0 0 0 
0 0 0 
Solution: 8 0
Classic Expectation: 6.666667
Initial Expecation: 5.000000
Gbest: 8.000000
Expectation: 5.375000
Final Parameters:
Gammas:
[ 5.235988 3.141593 1.047198 3.141593 ]
Betas:
[ 1.570796 0.523599 1.570796 1.570796 ]
Aggregate results:
[ 8 6 0 ]
[ 0.437500 0.312500 0.250000 ]
3
Num Evals 33
GenUC: 2.582674e-06
GenUB: 6.572227e-07
Optimisation 8.292173e-03
Total Time: 8.296715e-03
5 Add/Rem 3
Graph 1:
1 1 0 
0 0 0 
0 0 0 
Graph 2:
0 0 0 
0 0 1 
1 0 1 
Solution: 8 4
Classic Expectation: 5.333333
Initial Expecation: 4.000000
Gbest: 8.000000
Expectation: 5.031250
Final Parameters:
Gammas:
[ 5.235988 3.141593 1.047198 3.141593 ]
Betas:
[ 0.523599 1.570796 1.570796 1.570796 ]
Aggregate results:
[ 4 6 8 0 ]
[ 0.257813 0.343750 0.242188 0.156250 ]
3
Num Evals 27
GenUC: 2.334476e-06
GenUB: 7.142080e-07
Optimisation 6.586670e-03
Total Time: 6.591086e-03
