Clock Speed: 3.689310
Num threads: 4
Trotterisation: 5
Graph Size: 4
Num Qubits: 5
Space Dimension: 32
Run-Type: 0
Num_samples: 10
1 Isomorphic
Graph 1:
1 0 1 1 
1 0 1 1 
0 0 1 1 
1 0 0 1 
Graph 2:
1 0 1 1 
1 0 1 1 
0 0 1 1 
1 0 0 1 
Solution: 0 0
Gbest: 0.000000
Expectation: -5.034156
Final Parameters:
Gammas:
[ 2.014757 2.960188 3.393157 2.949064 2.949824 ]
Betas:
[ 1.316926 0.780393 1.834792 1.777621 1.830811 1.684990 ]
Aggregate results:
[ -1 5 7 3 1 9 11 15 ]
[ 0.328450 0.004583 0.161442 0.111876 0.134516 0.175576 0.023524 0.060034 ]
5
Num Evals 400
GenUC: 1.191983e-04
GenUB: 1.179776e-05
Optimisation 1.821535e-01
Total Time: 1.827258e-01
2 Flipped
Graph 1:
1 0 1 1 
1 0 1 1 
0 0 1 1 
1 0 0 1 
Graph 2:
1 1 0 1 
1 1 0 1 
1 1 0 0 
1 0 0 1 
Solution: -2 3
Gbest: -2.000000
Expectation: -4.363931
Final Parameters:
Gammas:
[ 3.023133 2.957611 3.301953 2.751460 3.054778 ]
Betas:
[ 2.204385 1.398825 1.856063 1.839763 1.637855 1.745809 ]
Aggregate results:
[ 7 9 1 3 11 5 15 ]
[ 0.124857 0.025308 0.313560 0.486650 0.000705 0.025289 0.023629 ]
5
Num Evals 800
GenUC: 1.134363e-05
GenUB: 8.493895e-06
Optimisation 1.766515e-01
Total Time: 1.771026e-01
3 Add 4
Graph 1:
1 0 1 1 
1 0 1 1 
0 0 1 1 
1 0 0 1 
Graph 2:
1 0 1 1 
1 0 1 1 
0 1 1 1 
1 1 1 1 
Solution: -3 0
Gbest: -3.000000
Expectation: -3.963661
Final Parameters:
Gammas:
[ 3.124700 6.186137 3.249391 3.601048 3.123268 ]
Betas:
[ 1.882710 1.284321 1.637096 2.418983 1.347630 1.407053 ]
Aggregate results:
[ 2 6 8 4 15 ]
[ 0.621667 0.041817 0.008381 0.319968 0.008167 ]
5
Num Evals 1200
GenUC: 8.986215e-06
GenUB: 8.218107e-06
Optimisation 1.708912e-01
Total Time: 1.713218e-01
4 Rem 4
Graph 1:
1 0 1 1 
1 0 1 1 
0 0 1 1 
1 0 0 1 
Graph 2:
0 0 1 0 
1 0 1 0 
0 0 0 1 
1 0 0 1 
Solution: -4 0
Gbest: -4.000000
Expectation: -5.779700
Final Parameters:
Gammas:
[ 3.335426 2.756609 3.002018 3.493490 3.359447 ]
Betas:
[ 3.055168 2.314624 1.356064 1.491415 1.667349 1.995681 ]
Aggregate results:
[ 3 7 9 11 15 ]
[ 0.642593 0.244218 0.091140 0.002149 0.019899 ]
5
Num Evals 1600
GenUC: 9.374111e-06
GenUB: 8.341856e-06
Optimisation 1.918073e-01
Total Time: 1.922729e-01
5 Add/Rem 4
Graph 1:
1 0 1 1 
1 0 1 1 
0 0 1 1 
1 0 0 1 
Graph 2:
1 0 1 1 
1 1 0 0 
1 1 1 0 
0 1 0 1 
Solution: -4 4
Gbest: -4.000000
Expectation: -5.417278
Final Parameters:
Gammas:
[ 3.034898 3.217756 3.469361 3.325087 3.413034 ]
Betas:
[ 2.567294 1.911480 1.364117 1.245878 1.520804 1.317846 ]
Aggregate results:
[ 7 3 9 5 15 ]
[ 0.186105 0.579331 0.008816 0.208902 0.016846 ]
5
Num Evals 2000
GenUC: 1.054548e-05
GenUB: 8.124858e-06
Optimisation 1.652657e-01
Total Time: 1.657014e-01
