Clock Speed: 3.498790
Num threads: 16
Trotterisation: 3
Num Qubits: 10
Space Dimension: 1024
Run-Type: 0
Num_samples: 36
Optimiser Method: 20
1 Isomorphic
Graph 1:
0 1 1 1 0 1 
1 1 0 0 0 1 
0 0 1 0 0 1 
1 0 0 0 1 1 
0 0 0 1 0 1 
0 1 0 1 0 1 
Graph 2:
0 1 1 1 0 1 
1 1 0 0 0 1 
0 0 1 0 0 1 
1 0 0 0 1 1 
0 0 0 1 0 1 
0 1 0 1 0 1 
Solution: 36 0
Classic Expectation: 18.066667
Initial Expecation: 12.703125
Gbest: 24.000000
Expectation: 16.340165
Final Parameters:
Gammas:
[ 6.184309 1.684057 0.410637 ]
Betas:
[ 2.881302 0.044408 0.002152 ]
Aggregate results:
[ 36 24 30 22 26 16 18 20 28 32 14 10 12 0 ]
[ 0.005299 0.071679 0.009195 0.122226 0.034382 0.121863 0.177790 0.187637 0.011238 0.004037 0.055333 0.010055 0.029046 0.160222 ]
5
Num Evals 3600
GenUC: 2.869372e-04
GenUB: 1.402451e-04
Optimisation 7.280361e+00
Total Time: 7.280804e+00
2 Flipped
Graph 1:
0 1 1 1 0 1 
1 1 0 0 0 1 
0 0 1 0 0 1 
1 0 0 0 1 1 
0 0 0 1 0 1 
0 1 0 1 0 1 
Graph 2:
1 0 1 1 1 0 
1 0 0 0 1 1 
1 0 0 1 0 0 
1 1 0 0 0 1 
1 0 1 0 0 0 
1 0 1 0 1 0 
Solution: 26 191
Classic Expectation: 17.933333
Initial Expecation: 12.609375
Gbest: 24.000000
Expectation: 13.598474
Final Parameters:
Gammas:
[ 6.019131 4.875205 1.462804 ]
Betas:
[ 2.349143 2.113371 2.428848 ]
Aggregate results:
[ 14 18 16 20 22 12 24 26 10 0 ]
[ 0.085168 0.202160 0.176667 0.152049 0.072452 0.019292 0.038363 0.004214 0.004388 0.245248 ]
5
Num Evals 3600
GenUC: 3.583194e-04
GenUB: 1.408146e-04
Optimisation 1.299969e+01
Total Time: 1.300019e+01
3 Add 6
Graph 1:
0 1 1 1 0 1 
1 1 0 0 0 1 
0 0 1 0 0 1 
1 0 0 0 1 1 
0 0 0 1 0 1 
0 1 0 1 0 1 
Graph 2:
0 1 1 1 0 1 
1 1 0 0 0 1 
0 1 1 0 0 1 
1 1 0 0 1 1 
0 0 1 1 0 1 
1 1 0 1 1 1 
Solution: 31 0
Classic Expectation: 17.733333
Initial Expecation: 12.468750
Gbest: 27.000000
Expectation: 15.839660
Final Parameters:
Gammas:
[ 4.289950 1.718635 6.047248 ]
Betas:
[ 3.110488 2.274608 1.338379 ]
Aggregate results:
[ 31 21 27 25 23 15 17 19 13 11 9 0 ]
[ 0.000124 0.144541 0.010459 0.021443 0.061246 0.143180 0.198133 0.196141 0.079981 0.021540 0.005999 0.117212 ]
5
Num Evals 3600
GenUC: 3.579133e-04
GenUB: 1.337840e-04
Optimisation 1.269732e+01
Total Time: 1.269781e+01
4 Rem 6
Graph 1:
0 1 1 1 0 1 
1 1 0 0 0 1 
0 0 1 0 0 1 
1 0 0 0 1 1 
0 0 0 1 0 1 
0 1 0 1 0 1 
Graph 2:
0 1 0 1 0 1 
1 1 0 0 0 1 
0 0 1 0 0 1 
0 0 0 0 1 1 
0 0 0 1 0 0 
0 0 0 0 0 1 
Solution: 31 0
Classic Expectation: 18.400000
Initial Expecation: 12.937500
Gbest: 25.000000
Expectation: 14.247316
Final Parameters:
Gammas:
[ 0.629675 5.046530 2.599710 ]
Betas:
[ 0.897008 0.302128 1.455934 ]
Aggregate results:
[ 31 23 29 21 25 19 17 27 15 13 11 0 ]
[ 0.000745 0.063992 0.001383 0.171444 0.020804 0.165658 0.158942 0.007950 0.117783 0.044921 0.016090 0.230288 ]
5
Num Evals 3600
GenUC: 3.577173e-04
GenUB: 1.359261e-04
Optimisation 7.866762e+00
Total Time: 7.867258e+00
5 Add/Rem 6
Graph 1:
0 1 1 1 0 1 
1 1 0 0 0 1 
0 0 1 0 0 1 
1 0 0 0 1 1 
0 0 0 1 0 1 
0 1 0 1 0 1 
Graph 2:
0 1 0 1 1 1 
1 1 0 0 0 0 
0 0 1 0 0 1 
0 0 0 0 0 1 
1 0 1 1 1 1 
0 1 0 0 1 1 
Solution: 30 2
Classic Expectation: 18.133333
Initial Expecation: 12.750000
Gbest: 30.000000
Expectation: 16.187370
Final Parameters:
Gammas:
[ 2.753922 3.441527 5.413736 ]
Betas:
[ 3.133826 2.527219 0.162959 ]
Aggregate results:
[ 26 22 30 24 20 18 16 28 14 12 10 0 ]
[ 0.023753 0.092820 0.002413 0.038001 0.188825 0.224917 0.201034 0.003273 0.080352 0.020749 0.003622 0.120241 ]
5
Num Evals 3600
GenUC: 3.585494e-04
GenUB: 1.243614e-04
Optimisation 1.137553e+01
Total Time: 1.137602e+01
