Clock Speed: 3.498813
Num threads: 16
Trotterisation: 2
Num Qubits: 19
Space Dimension: 524288
Run-Type: 0
Num_samples: 81
Optimiser Method: 0
1 Isomorphic
Graph 1:
1 1 1 0 1 0 0 0 1 
1 0 0 0 1 1 1 1 0 
1 0 1 1 1 1 0 1 0 
0 0 1 0 1 0 0 1 0 
1 1 1 1 1 1 0 0 1 
0 1 1 0 1 1 1 0 0 
0 1 0 0 0 1 0 0 0 
0 1 1 1 0 0 0 0 0 
1 0 0 0 1 0 0 0 0 
Graph 2:
1 1 1 0 1 0 0 0 1 
1 0 0 0 1 1 1 1 0 
1 0 1 1 1 1 0 1 0 
0 0 1 0 1 0 0 1 0 
1 1 1 1 1 1 0 0 1 
0 1 1 0 1 1 1 0 0 
0 1 0 0 0 1 0 0 0 
0 1 1 1 0 0 0 0 0 
1 0 0 0 1 0 0 0 0 
Solution: 81 0
Classic Expectation: 40.666667
Initial Expecation: 28.146973
Gbest: 53.000000
Expectation: 28.591329
Final Parameters:
Gammas:
[ 1.047198 3.141593 ]
Betas:
[ 0.523599 1.570796 ]
Aggregate results:
[ 81 61 69 57 65 71 51 63 59 67 55 49 53 43 47 41 45 37 39 33 73 35 29 27 31 25 19 23 21 15 17 13 9 75 0 ]
[ 0.000001 0.000659 0.000031 0.003463 0.000159 0.000009 0.023029 0.000414 0.002433 0.000086 0.008381 0.041178 0.014806 0.069731 0.045962 0.095498 0.078612 0.074156 0.077544 0.038688 0.000006 0.060574 0.014869 0.011639 0.032299 0.004344 0.000433 0.002843 0.000821 0.000086 0.000142 0.000036 0.000002 0.000001 0.297066 ]
3
Num Evals 15
GenUC: 1.785061e-01
GenUB: 1.340894e-01
Optimisation 2.956522e+01
Total Time: 2.987784e+01
2 Flipped
Graph 1:
1 1 1 0 1 0 0 0 1 
1 0 0 0 1 1 1 1 0 
1 0 1 1 1 1 0 1 0 
0 0 1 0 1 0 0 1 0 
1 1 1 1 1 1 0 0 1 
0 1 1 0 1 1 1 0 0 
0 1 0 0 0 1 0 0 0 
0 1 1 1 0 0 0 0 0 
1 0 0 0 1 0 0 0 0 
Graph 2:
1 0 0 0 1 0 1 1 1 
0 1 1 1 1 0 0 0 1 
0 1 0 1 1 1 1 0 1 
0 1 0 0 1 0 1 0 0 
1 0 0 1 1 1 1 1 1 
0 0 1 1 1 0 1 1 0 
0 0 0 1 0 0 0 1 0 
0 0 0 0 0 1 1 1 0 
0 0 0 0 1 0 0 0 1 
Solution: 61 14088
Classic Expectation: 40.611111
Initial Expecation: 28.108521
Gbest: 51.000000
Expectation: 28.503542
Final Parameters:
Gammas:
[ 5.235988 3.141593 ]
Betas:
[ 0.523599 1.570796 ]
Aggregate results:
[ 39 41 47 43 37 35 33 29 25 31 23 27 45 49 51 53 57 55 59 61 21 0 ]
[ 0.107067 0.111654 0.049456 0.100189 0.088275 0.060021 0.036174 0.007062 0.000665 0.017253 0.000051 0.002499 0.075851 0.027155 0.012345 0.004851 0.000394 0.001370 0.000041 0.000009 0.000031 0.297588 ]
3
Num Evals 15
GenUC: 2.174429e-01
GenUB: 1.316730e-01
Optimisation 2.956544e+01
Total Time: 2.991456e+01
3 Add 9
Graph 1:
1 1 1 0 1 0 0 0 1 
1 0 0 0 1 1 1 1 0 
1 0 1 1 1 1 0 1 0 
0 0 1 0 1 0 0 1 0 
1 1 1 1 1 1 0 0 1 
0 1 1 0 1 1 1 0 0 
0 1 0 0 0 1 0 0 0 
0 1 1 1 0 0 0 0 0 
1 0 0 0 1 0 0 0 0 
Graph 2:
1 1 1 1 1 1 1 1 1 
1 1 1 1 1 1 1 1 1 
1 1 1 1 1 1 0 1 0 
1 1 1 1 1 1 1 1 0 
1 1 1 1 1 1 1 0 1 
1 1 1 1 1 1 1 0 0 
1 1 0 1 1 1 0 0 0 
1 1 1 1 0 0 0 0 0 
1 1 0 0 1 0 0 0 0 
Solution: 59 0
Classic Expectation: 39.333333
Initial Expecation: 27.224121
Gbest: 51.000000
Expectation: 27.806170
Final Parameters:
Gammas:
[ 1.047198 3.141593 ]
Betas:
[ 0.523599 1.570796 ]
Aggregate results:
[ 59 47 51 55 53 41 49 45 39 35 43 37 31 33 57 27 29 25 21 23 17 19 0 ]
[ 0.000518 0.033931 0.016879 0.004500 0.005320 0.107326 0.032199 0.081812 0.079299 0.081825 0.053662 0.079133 0.048516 0.039462 0.000260 0.015503 0.016301 0.005892 0.001148 0.002223 0.000096 0.000123 0.294069 ]
3
Num Evals 15
GenUC: 2.228227e-01
GenUB: 1.303353e-01
Optimisation 2.954984e+01
Total Time: 2.990300e+01
4 Rem 9
Graph 1:
1 1 1 0 1 0 0 0 1 
1 0 0 0 1 1 1 1 0 
1 0 1 1 1 1 0 1 0 
0 0 1 0 1 0 0 1 0 
1 1 1 1 1 1 0 0 1 
0 1 1 0 1 1 1 0 0 
0 1 0 0 0 1 0 0 0 
0 1 1 1 0 0 0 0 0 
1 0 0 0 1 0 0 0 0 
Graph 2:
1 0 0 0 0 0 0 0 0 
0 0 0 0 0 0 0 0 0 
0 0 1 0 1 1 0 1 0 
0 0 0 0 1 0 0 1 0 
0 0 1 1 1 1 0 0 1 
0 0 1 0 1 1 1 0 0 
0 0 0 0 0 1 0 0 0 
0 0 1 1 0 0 0 0 0 
0 0 0 0 1 0 0 0 0 
Solution: 63 0
Classic Expectation: 41.666667
Initial Expecation: 28.839111
Gbest: 55.000000
Expectation: 34.761209
Final Parameters:
Gammas:
[ 3.112933 3.637178 ]
Betas:
[ 2.753742 0.892056 ]
Aggregate results:
[ 63 51 47 55 53 41 45 49 43 59 37 35 39 31 57 33 29 25 27 61 23 0 ]
[ 0.000046 0.031924 0.084285 0.005971 0.015836 0.107451 0.084453 0.044391 0.126577 0.000718 0.090089 0.054745 0.108996 0.016534 0.003403 0.044196 0.011178 0.001274 0.003118 0.000350 0.000357 0.164110 ]
3
Num Evals 965
GenUC: 2.228353e-01
GenUB: 1.304682e-01
Optimisation 1.855934e+03
Total Time: 1.856287e+03
5 Add/Rem 9
Graph 1:
1 1 1 0 1 0 0 0 1 
1 0 0 0 1 1 1 1 0 
1 0 1 1 1 1 0 1 0 
0 0 1 0 1 0 0 1 0 
1 1 1 1 1 1 0 0 1 
0 1 1 0 1 1 1 0 0 
0 1 0 0 0 1 0 0 0 
0 1 1 1 0 0 0 0 0 
1 0 0 0 1 0 0 0 0 
Graph 2:
1 0 0 1 0 1 1 1 0 
0 1 1 1 1 0 0 0 1 
0 1 1 0 1 1 0 0 0 
1 1 0 0 0 1 1 0 0 
0 1 1 0 1 1 1 0 1 
1 0 1 1 1 1 1 0 0 
1 0 0 1 1 1 0 0 0 
1 0 0 0 0 0 0 0 0 
0 1 0 0 1 0 0 0 0 
Solution: 66 2530
Classic Expectation: 40.666667
Initial Expecation: 28.146973
Gbest: 56.000000
Expectation: 36.018019
Final Parameters:
Gammas:
[ 5.238842 1.046229 ]
Betas:
[ 3.046784 0.564538 ]
Aggregate results:
[ 38 42 32 36 40 28 44 50 54 52 48 30 34 26 22 46 56 58 18 24 60 62 64 66 16 20 14 12 0 ]
[ 0.113200 0.115339 0.043772 0.074760 0.095780 0.018258 0.088816 0.036066 0.010675 0.025123 0.057736 0.031365 0.073371 0.008597 0.001408 0.078805 0.007170 0.002140 0.000128 0.005045 0.001137 0.000254 0.000072 0.000013 0.000074 0.000874 0.000010 0.000000 0.110013 ]
3
Num Evals 1169
GenUC: 2.225287e-01
GenUB: 1.315935e-01
Optimisation 2.285832e+03
Total Time: 2.286186e+03
