Clock Speed: 3.688745
Num threads: 4
Trotterisation: 5
Num Qubits: 7
Space Dimension: 128
Run-Type: 0
Num_samples: 5
Optimiser Method: 29
1 Isomorphic
Graph 1:
0 1 1 0 1 
1 0 0 0 1 
1 0 0 1 0 
0 0 1 0 1 
1 1 0 1 0 
Graph 2:
0 1 1 0 1 
1 0 0 0 1 
1 0 0 1 0 
0 0 1 0 1 
1 1 0 1 0 
Solution: 25 0
Classic Expectation: 15.400000
Initial Expecation: 14.437500
Gbest: 21.000000
Expectation: 16.032476
Final Parameters:
Gammas:
[ 3.744797 2.710086 2.691869 3.503076 2.380015 ]
Betas:
[ 2.581774 1.632931 1.666756 1.531877 2.679461 ]
Aggregate results:
[ 25 13 17 21 9 0 ]
[ 0.025048 0.271672 0.386680 0.227895 0.057243 0.031462 ]
5
Num Evals 5000
GenUC: 4.078882e-05
GenUB: 1.275318e-05
Optimisation 9.408219e+01
Total Time: 9.408227e+01
2 Flipped
Graph 1:
0 1 1 0 1 
1 0 0 0 1 
1 0 0 1 0 
0 0 1 0 1 
1 1 0 1 0 
Graph 2:
1 0 1 1 0 
1 0 0 0 1 
0 1 0 0 1 
1 0 1 0 0 
0 1 0 1 1 
Solution: 17 7
Classic Expectation: 13.000000
Initial Expecation: 12.187500
Gbest: 17.000000
Expectation: 14.889857
Final Parameters:
Gammas:
[ 5.838669 2.783409 3.472847 3.401257 3.300742 ]
Betas:
[ 1.622660 1.591987 1.761346 1.309076 1.413422 ]
Aggregate results:
[ 13 15 11 9 17 0 ]
[ 0.116817 0.373142 0.087471 0.028083 0.385835 0.008653 ]
5
Num Evals 5000
GenUC: 4.534210e-05
GenUB: 1.490001e-04
Optimisation 8.298957e+01
Total Time: 8.298976e+01
3 Add 5
Graph 1:
0 1 1 0 1 
1 0 0 0 1 
1 0 0 1 0 
0 0 1 0 1 
1 1 0 1 0 
Graph 2:
0 1 1 1 1 
1 1 1 1 1 
1 1 0 1 1 
1 1 1 0 1 
1 1 1 1 0 
Solution: 16 0
Classic Expectation: 16.000000
Initial Expecation: 15.000000
Gbest: 16.000000
Expectation: 16.000000
Final Parameters:
Gammas:
[ 2.429826 2.521215 3.146259 4.900668 2.356194 ]
Betas:
[ 2.016762 0.752153 2.314909 1.120856 0.395827 ]
Aggregate results:
[ 16 0 ]
[ 1.000000 0.000000 ]
4
Num Evals 1205
GenUC: 4.483155e-05
GenUB: 6.152415e-06
Optimisation 1.812154e+01
Total Time: 1.812160e+01
4 Rem 5
Graph 1:
0 1 1 0 1 
1 0 0 0 1 
1 0 0 1 0 
0 0 1 0 1 
1 1 0 1 0 
Graph 2:
0 0 0 0 0 
0 0 0 0 1 
0 0 0 0 0 
0 0 0 0 1 
0 1 0 1 0 
Solution: 17 0
Classic Expectation: 13.800000
Initial Expecation: 12.937500
Gbest: 17.000000
Expectation: 15.742998
Final Parameters:
Gammas:
[ 2.963329 4.320652 4.961617 3.465776 2.633502 ]
Betas:
[ 1.670083 1.541470 1.574322 1.747865 2.917993 ]
Aggregate results:
[ 17 13 9 0 ]
[ 0.734462 0.231381 0.027688 0.006469 ]
5
Num Evals 5000
GenUC: 4.482803e-05
GenUB: 7.173519e-06
Optimisation 8.799728e+01
Total Time: 8.799733e+01
5 Add/Rem 5
Graph 1:
0 1 1 0 1 
1 0 0 0 1 
1 0 0 1 0 
0 0 1 0 1 
1 1 0 1 0 
Graph 2:
1 0 0 1 0 
0 1 1 1 0 
0 1 0 0 1 
1 1 0 0 1 
0 0 1 1 0 
Solution: 21 25
Classic Expectation: 13.000000
Initial Expecation: 12.187500
Gbest: 17.000000
Expectation: 15.450311
Final Parameters:
Gammas:
[ 4.791739 4.347099 3.219117 4.815990 4.563995 ]
Betas:
[ 2.428055 1.507107 1.802042 1.292832 1.469682 ]
Aggregate results:
[ 5 17 9 13 21 0 ]
[ 0.014390 0.537122 0.065417 0.224729 0.130336 0.028006 ]
5
Num Evals 5000
GenUC: 4.506687e-05
GenUB: 7.098992e-06
Optimisation 8.679857e+01
Total Time: 8.679862e+01
