Clock Speed: 3.498784
Num threads: 16
Trotterisation: 3
Num Qubits: 13
Space Dimension: 8192
Run-Type: 0
Num_samples: 49
Optimiser Method: 0
1 Isomorphic
Graph 1:
0 1 0 1 0 0 0 
1 0 1 0 0 1 1 
1 0 1 1 1 1 1 
1 0 1 1 0 0 1 
1 0 1 1 1 1 1 
0 0 1 1 1 0 0 
1 1 1 1 0 1 0 
Graph 2:
0 1 0 1 0 0 0 
1 0 1 0 0 1 1 
1 0 1 1 1 1 1 
1 0 1 1 0 0 1 
1 0 1 1 1 1 1 
0 0 1 1 1 0 0 
1 1 1 1 0 1 0 
Solution: 49 0
Classic Expectation: 26.285714
Initial Expecation: 16.171875
Gbest: 33.000000
Expectation: 19.704846
Final Parameters:
Gammas:
[ 2.908882 3.374303 2.908882 ]
Betas:
[ 0.523599 0.523599 1.570796 ]
Aggregate results:
[ 49 39 37 41 35 33 31 29 27 43 25 21 19 23 17 0 ]
[ 0.000184 0.001994 0.004509 0.001477 0.013580 0.033110 0.068675 0.123064 0.156900 0.000757 0.166828 0.046807 0.014714 0.104243 0.001492 0.261668 ]
3
Num Evals 121
GenUC: 2.300222e-03
GenUB: 1.281806e-03
Optimisation 2.869360e+00
Total Time: 2.872952e+00
2 Flipped
Graph 1:
0 1 0 1 0 0 0 
1 0 1 0 0 1 1 
1 0 1 1 1 1 1 
1 0 1 1 0 0 1 
1 0 1 1 1 1 1 
0 0 1 1 1 0 0 
1 1 1 1 0 1 0 
Graph 2:
0 0 0 1 0 1 0 
1 1 0 0 1 0 1 
1 1 1 1 1 0 1 
1 0 0 1 1 0 1 
1 1 1 1 1 0 1 
0 0 1 1 1 0 0 
0 1 0 1 1 1 1 
Solution: 39 54
Classic Expectation: 25.428571
Initial Expecation: 15.644531
Gbest: 33.000000
Expectation: 20.462058
Final Parameters:
Gammas:
[ 2.444082 2.938090 3.375739 ]
Betas:
[ 1.628974 0.620561 2.249536 ]
Aggregate results:
[ 33 27 29 31 25 23 39 35 21 19 37 17 15 0 ]
[ 0.023059 0.151813 0.105645 0.052797 0.194530 0.149628 0.000012 0.006037 0.077107 0.030234 0.001476 0.006559 0.001698 0.199404 ]
3
Num Evals 1001
GenUC: 5.346627e-03
GenUB: 1.419678e-03
Optimisation 2.617627e+01
Total Time: 2.618304e+01
3 Add 7
Graph 1:
0 1 0 1 0 0 0 
1 0 1 0 0 1 1 
1 0 1 1 1 1 1 
1 0 1 1 0 0 1 
1 0 1 1 1 1 1 
0 0 1 1 1 0 0 
1 1 1 1 0 1 0 
Graph 2:
0 1 0 1 0 0 0 
1 1 1 0 0 1 1 
1 1 1 1 1 1 1 
1 1 1 1 0 1 1 
1 1 1 1 1 1 1 
1 0 1 1 1 0 0 
1 1 1 1 0 1 0 
Solution: 43 0
Classic Expectation: 27.571429
Initial Expecation: 16.962891
Gbest: 37.000000
Expectation: 23.959844
Final Parameters:
Gammas:
[ 2.870097 2.913192 3.335518 ]
Betas:
[ 1.551404 0.155140 2.400366 ]
Aggregate results:
[ 43 37 35 33 31 29 27 39 25 23 41 21 19 17 0 ]
[ 0.000008 0.006832 0.023600 0.063356 0.118201 0.178487 0.233279 0.000518 0.147922 0.065146 0.000120 0.018429 0.001828 0.000460 0.141814 ]
3
Num Evals 1393
GenUC: 5.349691e-03
GenUB: 1.511549e-03
Optimisation 3.418015e+01
Total Time: 3.418701e+01
4 Rem 7
Graph 1:
0 1 0 1 0 0 0 
1 0 1 0 0 1 1 
1 0 1 1 1 1 1 
1 0 1 1 0 0 1 
1 0 1 1 1 1 1 
0 0 1 1 1 0 0 
1 1 1 1 0 1 0 
Graph 2:
0 0 0 0 0 0 0 
1 0 1 0 0 1 1 
1 0 1 1 0 0 1 
1 0 1 1 0 0 1 
1 0 1 1 0 1 1 
0 0 1 1 1 0 0 
0 1 1 0 0 1 0 
Solution: 42 0
Classic Expectation: 24.714286
Initial Expecation: 15.205078
Gbest: 34.000000
Expectation: 21.628980
Final Parameters:
Gammas:
[ 0.059694 1.379026 3.342166 ]
Betas:
[ 2.676172 1.512619 2.637386 ]
Aggregate results:
[ 42 34 32 38 28 30 26 40 36 24 22 20 18 16 14 12 0 ]
[ 0.000192 0.012035 0.028274 0.000729 0.122346 0.066466 0.171110 0.000307 0.001400 0.197542 0.152328 0.083218 0.027561 0.004914 0.000568 0.000736 0.130275 ]
3
Num Evals 1841
GenUC: 5.350032e-03
GenUB: 1.447141e-03
Optimisation 5.748099e+01
Total Time: 5.748779e+01
5 Add/Rem 7
Graph 1:
0 1 0 1 0 0 0 
1 0 1 0 0 1 1 
1 0 1 1 1 1 1 
1 0 1 1 0 0 1 
1 0 1 1 1 1 1 
0 0 1 1 1 0 0 
1 1 1 1 0 1 0 
Graph 2:
0 1 0 1 0 0 0 
0 0 1 1 1 1 1 
1 1 1 0 1 0 1 
1 0 1 1 1 1 0 
1 0 1 1 1 0 1 
0 0 1 0 1 0 0 
1 1 0 1 1 1 0 
Solution: 38 30
Classic Expectation: 26.000000
Initial Expecation: 15.996094
Gbest: 34.000000
Expectation: 22.397719
Final Parameters:
Gammas:
[ 5.234812 1.047676 3.337417 ]
Betas:
[ 3.012309 1.073054 2.717830 ]
Aggregate results:
[ 36 32 30 34 28 26 24 38 22 20 18 16 0 ]
[ 0.000400 0.039085 0.102292 0.009764 0.171590 0.198220 0.170727 0.000141 0.107115 0.047275 0.017274 0.003617 0.132501 ]
3
Num Evals 1495
GenUC: 5.347479e-03
GenUB: 1.386094e-03
Optimisation 4.656783e+01
Total Time: 4.657456e+01
