Clock Speed: 3.689186
Num threads: 4
Trotterisation: 3
Graph Size: 6
Num Qubits: 10
Space Dimension: 1024
Run-Type: 0
Num_samples: 10
1 Isomorphic
Graph 1:
0 0 0 1 1 1 
0 1 0 0 1 0 
0 1 0 1 1 0 
1 0 1 0 1 1 
0 0 1 0 1 0 
0 0 0 1 1 0 
Graph 2:
0 0 0 1 1 1 
0 1 0 0 1 0 
0 1 0 1 1 0 
1 0 1 0 1 1 
0 0 1 0 1 0 
0 0 0 1 1 0 
Solution: 0 0
Gbest: -14.000000
Expectation: -22.128246
Final Parameters:
Gammas:
[ 4.729778 4.709494 4.738951 ]
Betas:
[ 1.458945 2.477384 1.304609 2.333004 ]
Aggregate results:
[ -1 9 11 5 15 13 17 21 19 23 25 7 1 35 ]
[ 0.001015 0.011036 0.060358 0.013271 0.125044 0.083389 0.188432 0.098407 0.118087 0.022833 0.009952 0.002821 0.007493 0.257863 ]
3
Num Evals 582
GenUC: 2.822283e-04
GenUB: 1.916167e-04
Optimisation 1.059998e+00
Total Time: 1.062310e+00
2 Flipped
Graph 1:
0 0 0 1 1 1 
0 1 0 0 1 0 
0 1 0 1 1 0 
1 0 1 0 1 1 
0 0 1 0 1 0 
0 0 0 1 1 0 
Graph 2:
1 1 1 0 0 0 
0 1 0 0 1 0 
0 1 1 0 1 0 
1 1 0 1 0 1 
0 1 0 1 0 0 
0 1 1 0 0 0 
Solution: -8 41
Gbest: -12.000000
Expectation: -18.377278
Final Parameters:
Gammas:
[ 3.762892 3.210997 2.468350 ]
Betas:
[ 1.109223 1.565748 1.570719 0.980895 ]
Aggregate results:
[ 19 21 17 15 11 9 13 7 23 25 35 ]
[ 0.244522 0.081841 0.242781 0.198601 0.066088 0.024452 0.076618 0.004653 0.015102 0.000358 0.044985 ]
5
Num Evals 1182
GenUC: 1.347517e-04
GenUB: 1.483434e-04
Optimisation 8.689345e-01
Total Time: 8.706122e-01
3 Add 6
Graph 1:
0 0 0 1 1 1 
0 1 0 0 1 0 
0 1 0 1 1 0 
1 0 1 0 1 1 
0 0 1 0 1 0 
0 0 0 1 1 0 
Graph 2:
0 0 1 1 1 1 
0 1 0 0 1 0 
0 1 0 1 1 0 
1 0 1 1 1 1 
0 1 1 0 1 1 
0 0 1 1 1 0 
Solution: -5 0
Gbest: -15.000000
Expectation: -18.288845
Final Parameters:
Gammas:
[ 3.127627 3.050891 3.418041 ]
Betas:
[ 0.758070 2.484270 2.167776 1.611787 ]
Aggregate results:
[ 4 14 12 10 20 18 16 8 22 26 24 6 35 ]
[ 0.000088 0.191874 0.062041 0.012026 0.141316 0.238493 0.225773 0.008665 0.064848 0.005424 0.024235 0.003285 0.021931 ]
5
Num Evals 1782
GenUC: 1.317242e-04
GenUB: 1.680059e-04
Optimisation 1.006032e+00
Total Time: 1.007954e+00
4 Rem 6
Graph 1:
0 0 0 1 1 1 
0 1 0 0 1 0 
0 1 0 1 1 0 
1 0 1 0 1 1 
0 0 1 0 1 0 
0 0 0 1 1 0 
Graph 2:
0 0 0 1 1 1 
0 1 0 0 1 0 
0 1 0 1 0 0 
1 0 1 0 1 0 
0 0 0 0 0 0 
0 0 0 1 0 0 
Solution: -5 0
Gbest: -13.000000
Expectation: -21.489355
Final Parameters:
Gammas:
[ 4.762382 3.101256 3.145433 ]
Betas:
[ 1.336680 2.283273 1.120788 2.366624 ]
Aggregate results:
[ 4 14 12 8 16 18 20 10 22 24 6 35 ]
[ 0.000300 0.145599 0.094720 0.004953 0.229502 0.160793 0.063442 0.026662 0.026106 0.002249 0.001902 0.243772 ]
5
Num Evals 2382
GenUC: 1.260560e-04
GenUB: 1.695264e-04
Optimisation 1.045081e+00
Total Time: 1.047177e+00
5 Add/Rem 6
Graph 1:
0 0 0 1 1 1 
0 1 0 0 1 0 
0 1 0 1 1 0 
1 0 1 0 1 1 
0 0 1 0 1 0 
0 0 0 1 1 0 
Graph 2:
0 1 0 0 1 0 
0 1 0 0 0 0 
1 1 0 1 1 1 
1 0 1 1 1 0 
0 1 1 0 1 0 
0 0 0 1 0 0 
Solution: -10 0
Gbest: -12.000000
Expectation: -17.497680
Final Parameters:
Gammas:
[ 3.121267 3.193877 3.191657 ]
Betas:
[ 2.263408 0.963427 0.680955 2.216411 ]
Aggregate results:
[ 9 13 17 19 11 15 21 23 25 35 ]
[ 0.024180 0.176484 0.207822 0.171261 0.074200 0.206323 0.089740 0.027075 0.002154 0.020763 ]
5
Num Evals 2982
GenUC: 1.259010e-04
GenUB: 1.705463e-04
Optimisation 9.379594e-01
Total Time: 9.398721e-01
