Clock Speed: 3.689254
Num threads: 4
Trotterisation: 6
Num Qubits: 3
Space Dimension: 8
Run-Type: 0
Num_samples: 2024
Optimiser Method: 0
1 Isomorphic
Graph 1:
1 0 1 
1 1 1 
1 0 0 
Graph 2:
1 0 1 
1 1 1 
1 0 0 
Solution: 9 0
Classic Expectation: 5.000000
Initial Expecation: 3.750000
Gbest: 9.000000
Expectation: 3.843750
Final Parameters:
Gammas:
[ 3.141593 3.141593 5.235988 3.141593 3.141593 3.141593 ]
Betas:
[ 2.617994 1.570796 0.523599 1.570796 1.570796 1.570796 ]
Aggregate results:
[ 9 3 5 7 0 ]
[ 0.101563 0.445312 0.242188 0.054688 0.156250 ]
3
Num Evals 77
GenUC: 2.438261e-06
GenUB: 7.206923e-06
Optimisation 2.688899e-02
Total Time: 2.691712e-02
2 Flipped
Graph 1:
1 0 1 
1 1 1 
1 0 0 
Graph 2:
1 0 1 
1 1 1 
0 0 1 
Solution: 7 0
Classic Expectation: 5.000000
Initial Expecation: 3.750000
Gbest: 7.000000
Expectation: 3.843750
Final Parameters:
Gammas:
[ 5.235988 1.047198 3.141593 3.141593 3.141593 3.141593 ]
Betas:
[ 0.523599 1.570796 1.570796 1.570796 1.570796 1.570796 ]
Aggregate results:
[ 7 3 5 0 ]
[ 0.296875 0.250000 0.203125 0.250000 ]
3
Num Evals 33
GenUC: 2.483488e-06
GenUB: 9.231153e-07
Optimisation 1.132018e-02
Total Time: 1.132538e-02
3 Add 3
Graph 1:
1 0 1 
1 1 1 
1 0 0 
Graph 2:
1 0 1 
1 1 1 
1 1 1 
Solution: 7 0
Classic Expectation: 5.666667
Initial Expecation: 4.250000
Gbest: 7.000000
Expectation: 4.250000
Final Parameters:
Gammas:
[ 5.235988 3.141593 3.141593 3.141593 1.047198 3.141593 ]
Betas:
[ 1.570796 1.570796 1.570796 1.570796 1.570796 1.570796 ]
Aggregate results:
[ 7 5 0 ]
[ 0.250000 0.500000 0.250000 ]
3
Num Evals 57
GenUC: 2.623128e-06
GenUB: 5.938928e-07
Optimisation 1.963134e-02
Total Time: 1.963586e-02
4 Rem 3
Graph 1:
1 0 1 
1 1 1 
1 0 0 
Graph 2:
1 0 0 
1 1 0 
1 0 0 
Solution: 7 0
Classic Expectation: 4.333333
Initial Expecation: 3.250000
Gbest: 7.000000
Expectation: 3.437500
Final Parameters:
Gammas:
[ 1.047198 1.047198 3.141593 3.141593 3.141593 3.141593 ]
Betas:
[ 0.523599 1.570796 1.570796 1.570796 1.570796 1.570796 ]
Aggregate results:
[ 7 5 3 1 0 ]
[ 0.195313 0.351562 0.054687 0.148438 0.250000 ]
3
Num Evals 31
GenUC: 2.658344e-06
GenUB: 6.449409e-07
Optimisation 1.086685e-02
Total Time: 1.087162e-02
5 Add/Rem 3
Graph 1:
1 0 1 
1 1 1 
1 0 0 
Graph 2:
0 0 0 
1 1 0 
1 1 1 
Solution: 8 3
Classic Expectation: 4.666667
Initial Expecation: 3.500000
Gbest: 8.000000
Expectation: 3.875000
Final Parameters:
Gammas:
[ 5.235988 1.047198 3.141593 3.141593 3.141593 3.141593 ]
Betas:
[ 0.523599 1.570796 1.570796 1.570796 1.570796 1.570796 ]
Aggregate results:
[ 4 6 2 8 0 ]
[ 0.054687 0.296875 0.343750 0.148438 0.156250 ]
3
Num Evals 31
GenUC: 2.357934e-06
GenUB: 8.045463e-07
Optimisation 1.087138e-02
Total Time: 1.087579e-02
