Clock Speed: 3.689323
Num threads: 4
Trotterisation: 6
Num Qubits: 3
Space Dimension: 8
Run-Type: 0
Num_samples: 2024
Optimiser Method: 0
1 Isomorphic
Graph 1:
0 0 0 
1 1 1 
1 1 1 
Graph 2:
0 0 0 
1 1 1 
1 1 1 
Solution: 9 0
Classic Expectation: 5.000000
Initial Expecation: 3.750000
Gbest: 9.000000
Expectation: 3.750000
Final Parameters:
Gammas:
[ 5.235988 3.141593 3.141593 3.141593 3.141593 3.141593 ]
Betas:
[ 0.523599 1.570796 1.570796 1.570796 1.570796 1.570796 ]
Aggregate results:
[ 9 3 0 ]
[ 0.250000 0.500000 0.250000 ]
3
Num Evals 29
GenUC: 2.757588e-06
GenUB: 7.647090e-06
Optimisation 1.097105e-02
Total Time: 1.099903e-02
2 Flipped
Graph 1:
0 0 0 
1 1 1 
1 1 1 
Graph 2:
0 0 0 
1 1 1 
1 1 1 
Solution: 9 0
Classic Expectation: 5.000000
Initial Expecation: 3.750000
Gbest: 9.000000
Expectation: 3.750000
Final Parameters:
Gammas:
[ 5.235988 3.141593 3.141593 3.141593 3.141593 3.141593 ]
Betas:
[ 0.523599 1.570796 1.570796 1.570796 1.570796 1.570796 ]
Aggregate results:
[ 9 3 0 ]
[ 0.250000 0.500000 0.250000 ]
3
Num Evals 29
GenUC: 2.452987e-06
GenUB: 9.389478e-07
Optimisation 1.085851e-02
Total Time: 1.086352e-02
3 Add 3
Graph 1:
0 0 0 
1 1 1 
1 1 1 
Graph 2:
0 1 1 
1 1 1 
1 1 1 
Solution: 7 0
Classic Expectation: 5.666667
Initial Expecation: 4.250000
Gbest: 7.000000
Expectation: 5.562500
Final Parameters:
Gammas:
[ 5.235988 3.141593 3.141593 3.141593 5.235988 3.141593 ]
Betas:
[ 1.570796 1.570796 1.570796 0.523599 1.570796 1.570796 ]
Aggregate results:
[ 7 5 0 ]
[ 0.437500 0.500000 0.062500 ]
3
Num Evals 55
GenUC: 2.665445e-06
GenUB: 5.926704e-07
Optimisation 1.986512e-02
Total Time: 1.986966e-02
4 Rem 3
Graph 1:
0 0 0 
1 1 1 
1 1 1 
Graph 2:
0 0 0 
1 1 0 
1 0 1 
Solution: 7 0
Classic Expectation: 4.333333
Initial Expecation: 3.250000
Gbest: 7.000000
Expectation: 4.000000
Final Parameters:
Gammas:
[ 1.047198 1.047198 3.141593 3.141593 3.141593 3.141593 ]
Betas:
[ 0.523599 1.570796 1.570796 1.570796 1.570796 1.570796 ]
Aggregate results:
[ 7 3 0 ]
[ 0.437500 0.312500 0.250000 ]
3
Num Evals 31
GenUC: 2.653105e-06
GenUB: 5.821930e-07
Optimisation 1.175428e-02
Total Time: 1.175893e-02
5 Add/Rem 3
Graph 1:
0 0 0 
1 1 1 
1 1 1 
Graph 2:
1 0 1 
1 1 0 
1 0 1 
Solution: 5 0
Classic Expectation: 5.000000
Initial Expecation: 3.750000
Gbest: 5.000000
Expectation: 4.687500
Final Parameters:
Gammas:
[ 3.141593 5.235988 3.141593 5.235988 3.141593 3.141593 ]
Betas:
[ 1.570796 1.570796 0.523599 1.570796 1.570796 1.570796 ]
Aggregate results:
[ 5 0 ]
[ 0.937500 0.062500 ]
3
Num Evals 45
GenUC: 2.396642e-06
GenUB: 8.045463e-07
Optimisation 1.627926e-02
Total Time: 1.628367e-02
