Clock Speed: 3.689188
Num threads: 4
Trotterisation: 6
Num Qubits: 3
Space Dimension: 8
Run-Type: 0
Num_samples: 2024
Optimiser Method: 0
1 Isomorphic
Graph 1:
0 1 1 
1 0 0 
1 0 0 
Graph 2:
0 1 1 
1 0 0 
1 0 0 
Solution: 9 0
Classic Expectation: 6.333333
Initial Expecation: 4.750000
Gbest: 9.000000
Expectation: 6.437500
Final Parameters:
Gammas:
[ 3.141593 5.235988 3.141593 1.047198 3.141593 3.141593 ]
Betas:
[ 1.570796 1.570796 0.523599 1.570796 1.570796 1.570796 ]
Aggregate results:
[ 9 5 0 ]
[ 0.437500 0.500000 0.062500 ]
3
Num Evals 63
GenUC: 2.488785e-06
GenUB: 6.894756e-06
Optimisation 2.412086e-02
Total Time: 2.415746e-02
2 Flipped
Graph 1:
0 1 1 
1 0 0 
1 0 0 
Graph 2:
1 1 0 
0 0 1 
0 0 1 
Solution: 5 2
Classic Expectation: 3.666667
Initial Expecation: 2.750000
Gbest: 5.000000
Expectation: 3.125000
Final Parameters:
Gammas:
[ 1.047198 3.141593 3.141593 3.141593 3.141593 3.141593 ]
Betas:
[ 1.570796 1.570796 2.617994 1.570796 1.570796 1.570796 ]
Aggregate results:
[ 3 5 0 ]
[ 0.312500 0.437500 0.250000 ]
3
Num Evals 31
GenUC: 2.605550e-06
GenUB: 9.794021e-07
Optimisation 1.169041e-02
Total Time: 1.169607e-02
3 Add 3
Graph 1:
0 1 1 
1 0 0 
1 0 0 
Graph 2:
1 1 1 
1 0 0 
1 0 1 
Solution: 7 0
Classic Expectation: 4.333333
Initial Expecation: 3.250000
Gbest: 7.000000
Expectation: 4.000000
Final Parameters:
Gammas:
[ 1.047198 1.047198 3.141593 3.141593 3.141593 3.141593 ]
Betas:
[ 0.523599 1.570796 1.570796 1.570796 1.570796 1.570796 ]
Aggregate results:
[ 7 3 0 ]
[ 0.437500 0.312500 0.250000 ]
3
Num Evals 31
GenUC: 2.745190e-06
GenUB: 6.191549e-07
Optimisation 1.158096e-02
Total Time: 1.158592e-02
4 Rem 3
Graph 1:
0 1 1 
1 0 0 
1 0 0 
Graph 2:
0 0 0 
1 0 0 
1 0 0 
Solution: 7 0
Classic Expectation: 5.666667
Initial Expecation: 4.250000
Gbest: 7.000000
Expectation: 5.562500
Final Parameters:
Gammas:
[ 5.235988 3.141593 3.141593 3.141593 5.235988 3.141593 ]
Betas:
[ 1.570796 1.570796 1.570796 0.523599 1.570796 1.570796 ]
Aggregate results:
[ 7 5 0 ]
[ 0.437500 0.500000 0.062500 ]
3
Num Evals 55
GenUC: 2.710032e-06
GenUB: 6.197370e-07
Optimisation 2.023544e-02
Total Time: 2.024049e-02
5 Add/Rem 3
Graph 1:
0 1 1 
1 0 0 
1 0 0 
Graph 2:
0 1 0 
0 1 1 
0 1 0 
Solution: 7 2
Classic Expectation: 5.000000
Initial Expecation: 3.750000
Gbest: 7.000000
Expectation: 5.437500
Final Parameters:
Gammas:
[ 1.047198 1.047198 3.141593 3.141593 3.141593 3.141593 ]
Betas:
[ 0.523599 1.570796 1.570796 1.570796 1.570796 1.570796 ]
Aggregate results:
[ 3 7 5 0 ]
[ 0.062500 0.437500 0.437500 0.062500 ]
3
Num Evals 31
GenUC: 2.345594e-06
GenUB: 6.736955e-07
Optimisation 1.167488e-02
Total Time: 1.167968e-02
