Clock Speed: 3.688938
Num threads: 4
Trotterisation: 6
Num Qubits: 3
Space Dimension: 8
Run-Type: 0
Num_samples: 2024
Optimiser Method: 0
1 Isomorphic
Graph 1:
1 1 1 
1 1 1 
0 0 0 
Graph 2:
1 1 1 
1 1 1 
0 0 0 
Solution: 9 0
Classic Expectation: 5.000000
Initial Expecation: 3.750000
Gbest: 9.000000
Expectation: 3.750000
Final Parameters:
Gammas:
[ 5.235988 3.141593 3.141593 3.141593 3.141593 3.141593 ]
Betas:
[ 0.523599 1.570796 1.570796 1.570796 1.570796 1.570796 ]
Aggregate results:
[ 9 3 0 ]
[ 0.250000 0.500000 0.250000 ]
3
Num Evals 29
GenUC: 2.834422e-06
GenUB: 7.760304e-06
Optimisation 1.092362e-02
Total Time: 1.095383e-02
2 Flipped
Graph 1:
1 1 1 
1 1 1 
0 0 0 
Graph 2:
1 1 1 
1 1 1 
0 0 0 
Solution: 9 0
Classic Expectation: 5.000000
Initial Expecation: 3.750000
Gbest: 9.000000
Expectation: 3.750000
Final Parameters:
Gammas:
[ 5.235988 3.141593 3.141593 3.141593 3.141593 3.141593 ]
Betas:
[ 0.523599 1.570796 1.570796 1.570796 1.570796 1.570796 ]
Aggregate results:
[ 9 3 0 ]
[ 0.250000 0.500000 0.250000 ]
3
Num Evals 29
GenUC: 2.514047e-06
GenUB: 8.961069e-07
Optimisation 1.062391e-02
Total Time: 1.062899e-02
3 Add 3
Graph 1:
1 1 1 
1 1 1 
0 0 0 
Graph 2:
1 1 1 
1 1 1 
1 0 1 
Solution: 7 0
Classic Expectation: 5.666667
Initial Expecation: 4.250000
Gbest: 7.000000
Expectation: 5.562500
Final Parameters:
Gammas:
[ 5.235988 3.141593 3.141593 3.141593 1.047198 3.141593 ]
Betas:
[ 1.570796 1.570796 1.570796 0.523599 1.570796 1.570796 ]
Aggregate results:
[ 7 5 0 ]
[ 0.437500 0.500000 0.062500 ]
3
Num Evals 55
GenUC: 2.599671e-06
GenUB: 6.208429e-07
Optimisation 1.909860e-02
Total Time: 1.910313e-02
4 Rem 3
Graph 1:
1 1 1 
1 1 1 
0 0 0 
Graph 2:
0 1 1 
1 0 1 
0 0 0 
Solution: 7 0
Classic Expectation: 4.333333
Initial Expecation: 3.250000
Gbest: 7.000000
Expectation: 4.000000
Final Parameters:
Gammas:
[ 1.047198 1.047198 3.141593 3.141593 3.141593 3.141593 ]
Betas:
[ 0.523599 1.570796 1.570796 1.570796 1.570796 1.570796 ]
Aggregate results:
[ 7 3 0 ]
[ 0.437500 0.312500 0.250000 ]
3
Num Evals 31
GenUC: 2.614339e-06
GenUB: 6.261398e-07
Optimisation 1.136901e-02
Total Time: 1.137370e-02
5 Add/Rem 3
Graph 1:
1 1 1 
1 1 1 
0 0 0 
Graph 2:
0 1 1 
1 0 0 
1 0 1 
Solution: 6 1
Classic Expectation: 4.666667
Initial Expecation: 3.500000
Gbest: 6.000000
Expectation: 3.875000
Final Parameters:
Gammas:
[ 1.047198 1.047198 3.141593 3.141593 3.141593 3.141593 ]
Betas:
[ 0.523599 1.570796 1.570796 1.570796 1.570796 1.570796 ]
Aggregate results:
[ 4 6 0 ]
[ 0.593750 0.250000 0.156250 ]
3
Num Evals 31
GenUC: 2.311543e-06
GenUB: 1.110311e-06
Optimisation 1.122183e-02
Total Time: 1.122643e-02
