Clock Speed: 3.688571
Num threads: 4
Trotterisation: 6
Num Qubits: 3
Space Dimension: 8
Run-Type: 0
Num_samples: 2024
Optimiser Method: 0
1 Isomorphic
Graph 1:
0 0 0 
0 1 1 
0 0 1 
Graph 2:
0 0 0 
0 1 1 
0 0 1 
Solution: 9 0
Classic Expectation: 6.000000
Initial Expecation: 4.500000
Gbest: 9.000000
Expectation: 5.296875
Final Parameters:
Gammas:
[ 1.047198 3.141593 1.047198 3.141593 3.141593 3.141593 ]
Betas:
[ 0.523599 1.570796 1.570796 1.570796 1.570796 1.570796 ]
Aggregate results:
[ 9 7 5 0 ]
[ 0.054687 0.195313 0.687500 0.062500 ]
3
Num Evals 35
GenUC: 2.576795e-06
GenUB: 7.075549e-06
Optimisation 1.319554e-02
Total Time: 1.322395e-02
2 Flipped
Graph 1:
0 0 0 
0 1 1 
0 0 1 
Graph 2:
0 0 0 
1 1 0 
1 0 0 
Solution: 7 5
Classic Expectation: 5.000000
Initial Expecation: 3.750000
Gbest: 7.000000
Expectation: 4.171875
Final Parameters:
Gammas:
[ 3.141593 5.235988 1.047198 3.141593 3.141593 3.141593 ]
Betas:
[ 1.570796 1.570796 1.570796 2.617994 1.570796 1.570796 ]
Aggregate results:
[ 5 3 7 0 ]
[ 0.523438 0.007812 0.218750 0.250000 ]
3
Num Evals 65
GenUC: 2.409564e-06
GenUB: 9.207288e-07
Optimisation 2.457543e-02
Total Time: 2.458043e-02
3 Add 3
Graph 1:
0 0 0 
0 1 1 
0 0 1 
Graph 2:
1 0 1 
0 1 1 
0 0 1 
Solution: 7 0
Classic Expectation: 5.666667
Initial Expecation: 4.250000
Gbest: 7.000000
Expectation: 5.562500
Final Parameters:
Gammas:
[ 5.235988 3.141593 3.141593 3.141593 1.047198 3.141593 ]
Betas:
[ 1.570796 1.570796 1.570796 0.523599 1.570796 1.570796 ]
Aggregate results:
[ 7 5 0 ]
[ 0.437500 0.500000 0.062500 ]
3
Num Evals 55
GenUC: 2.732908e-06
GenUB: 7.341150e-07
Optimisation 1.994156e-02
Total Time: 1.994674e-02
4 Rem 3
Graph 1:
0 0 0 
0 1 1 
0 0 1 
Graph 2:
0 0 0 
0 0 1 
0 0 0 
Solution: 7 0
Classic Expectation: 5.333333
Initial Expecation: 4.000000
Gbest: 7.000000
Expectation: 4.984375
Final Parameters:
Gammas:
[ 3.141593 3.141593 1.047198 3.141593 1.047198 3.141593 ]
Betas:
[ 1.570796 1.570796 0.523599 1.570796 1.570796 1.570796 ]
Aggregate results:
[ 7 5 0 ]
[ 0.148437 0.789063 0.062500 ]
3
Num Evals 61
GenUC: 2.684188e-06
GenUB: 6.008777e-07
Optimisation 2.170792e-02
Total Time: 2.171272e-02
5 Add/Rem 3
Graph 1:
0 0 0 
0 1 1 
0 0 1 
Graph 2:
1 1 0 
0 0 0 
0 1 1 
Solution: 6 1
Classic Expectation: 5.333333
Initial Expecation: 4.000000
Gbest: 6.000000
Expectation: 4.169350
Final Parameters:
Gammas:
[ 5.235988 3.141593 2.443461 3.141593 3.141593 3.141593 ]
Betas:
[ 2.967060 1.570796 1.570796 1.570796 1.570796 1.570796 ]
Aggregate results:
[ 4 6 0 ]
[ 0.276399 0.510626 0.212975 ]
3
Num Evals 127
GenUC: 2.384302e-06
GenUB: 8.028001e-07
Optimisation 4.719831e-02
Total Time: 4.720283e-02
