Clock Speed: 3.688860
Num threads: 4
Trotterisation: 6
Num Qubits: 3
Space Dimension: 8
Run-Type: 0
Num_samples: 2024
Optimiser Method: 0
1 Isomorphic
Graph 1:
1 1 1 
0 1 1 
0 0 0 
Graph 2:
1 1 1 
0 1 1 
0 0 0 
Solution: 9 0
Classic Expectation: 4.666667
Initial Expecation: 3.500000
Gbest: 9.000000
Expectation: 3.734375
Final Parameters:
Gammas:
[ 5.235988 3.141593 3.141593 3.141593 3.141593 3.141593 ]
Betas:
[ 1.570796 1.570796 2.617994 1.570796 1.570796 1.570796 ]
Aggregate results:
[ 9 5 7 3 1 0 ]
[ 0.054687 0.007812 0.382813 0.156250 0.054687 0.343750 ]
3
Num Evals 31
GenUC: 2.769288e-06
GenUB: 7.855415e-06
Optimisation 1.169435e-02
Total Time: 1.172542e-02
2 Flipped
Graph 1:
1 1 1 
0 1 1 
0 0 0 
Graph 2:
1 1 1 
1 1 0 
0 0 0 
Solution: 7 0
Classic Expectation: 4.666667
Initial Expecation: 3.500000
Gbest: 7.000000
Expectation: 3.640625
Final Parameters:
Gammas:
[ 5.235988 1.047198 3.141593 3.141593 3.141593 3.141593 ]
Betas:
[ 0.523599 1.570796 1.570796 1.570796 1.570796 1.570796 ]
Aggregate results:
[ 7 5 3 0 ]
[ 0.250000 0.195313 0.304687 0.250000 ]
3
Num Evals 31
GenUC: 2.534536e-06
GenUB: 9.301584e-07
Optimisation 1.158423e-02
Total Time: 1.158940e-02
3 Add 3
Graph 1:
1 1 1 
0 1 1 
0 0 0 
Graph 2:
1 1 1 
1 1 1 
0 1 1 
Solution: 6 0
Classic Expectation: 5.000000
Initial Expecation: 3.750000
Gbest: 6.000000
Expectation: 4.265625
Final Parameters:
Gammas:
[ 1.047198 3.141593 3.141593 3.141593 5.235988 3.141593 ]
Betas:
[ 1.570796 1.570796 0.523599 1.570796 1.570796 1.570796 ]
Aggregate results:
[ 6 4 0 ]
[ 0.257812 0.679687 0.062500 ]
3
Num Evals 61
GenUC: 2.687739e-06
GenUB: 6.009359e-07
Optimisation 2.268103e-02
Total Time: 2.268566e-02
4 Rem 3
Graph 1:
1 1 1 
0 1 1 
0 0 0 
Graph 2:
0 0 1 
0 1 1 
0 0 0 
Solution: 7 0
Classic Expectation: 4.333333
Initial Expecation: 3.250000
Gbest: 7.000000
Expectation: 3.812500
Final Parameters:
Gammas:
[ 5.235988 1.047198 3.141593 3.141593 3.141593 3.141593 ]
Betas:
[ 0.523599 1.570796 1.570796 1.570796 1.570796 1.570796 ]
Aggregate results:
[ 7 3 5 1 0 ]
[ 0.250000 0.343750 0.195313 0.054687 0.156250 ]
3
Num Evals 31
GenUC: 2.690649e-06
GenUB: 5.868496e-07
Optimisation 1.165276e-02
Total Time: 1.165766e-02
5 Add/Rem 3
Graph 1:
1 1 1 
0 1 1 
0 0 0 
Graph 2:
1 1 0 
0 0 1 
1 1 1 
Solution: 8 4
Classic Expectation: 4.666667
Initial Expecation: 3.500000
Gbest: 8.000000
Expectation: 3.968750
Final Parameters:
Gammas:
[ 1.047198 3.141593 3.141593 3.141593 3.141593 3.141593 ]
Betas:
[ 2.617994 1.570796 1.570796 1.570796 1.570796 1.570796 ]
Aggregate results:
[ 4 6 2 8 0 ]
[ 0.304687 0.382813 0.007812 0.054687 0.250000 ]
3
Num Evals 31
GenUC: 2.390763e-06
GenUB: 7.805065e-07
Optimisation 1.127623e-02
Total Time: 1.128068e-02
