Clock Speed: 3.688905
Num threads: 4
Trotterisation: 6
Num Qubits: 3
Space Dimension: 8
Run-Type: 0
Num_samples: 2024
Optimiser Method: 0
1 Isomorphic
Graph 1:
0 0 1 
0 0 1 
1 0 0 
Graph 2:
0 0 1 
0 0 1 
1 0 0 
Solution: 9 0
Classic Expectation: 6.000000
Initial Expecation: 4.500000
Gbest: 9.000000
Expectation: 4.734375
Final Parameters:
Gammas:
[ 5.235988 5.235988 3.141593 3.141593 3.141593 3.141593 ]
Betas:
[ 0.523599 1.570796 1.570796 1.570796 1.570796 1.570796 ]
Aggregate results:
[ 9 3 7 5 0 ]
[ 0.148437 0.101563 0.296875 0.203125 0.250000 ]
3
Num Evals 33
GenUC: 2.721790e-06
GenUB: 7.438764e-06
Optimisation 1.261637e-02
Total Time: 1.265481e-02
2 Flipped
Graph 1:
0 0 1 
0 0 1 
1 0 0 
Graph 2:
1 0 0 
1 0 0 
0 0 1 
Solution: 5 1
Classic Expectation: 4.000000
Initial Expecation: 3.000000
Gbest: 5.000000
Expectation: 4.078125
Final Parameters:
Gammas:
[ 3.141593 1.047198 5.235988 3.141593 3.141593 3.141593 ]
Betas:
[ 1.570796 0.523599 1.570796 1.570796 1.570796 1.570796 ]
Aggregate results:
[ 3 5 0 ]
[ 0.070313 0.773438 0.156250 ]
3
Num Evals 59
GenUC: 2.495828e-06
GenUB: 9.583309e-07
Optimisation 2.099795e-02
Total Time: 2.100369e-02
3 Add 3
Graph 1:
0 0 1 
0 0 1 
1 0 0 
Graph 2:
1 0 1 
0 0 1 
1 1 0 
Solution: 7 0
Classic Expectation: 5.000000
Initial Expecation: 3.750000
Gbest: 7.000000
Expectation: 5.437500
Final Parameters:
Gammas:
[ 1.047198 1.047198 3.141593 3.141593 3.141593 3.141593 ]
Betas:
[ 0.523599 1.570796 1.570796 1.570796 1.570796 1.570796 ]
Aggregate results:
[ 7 3 5 0 ]
[ 0.437500 0.062500 0.437500 0.062500 ]
3
Num Evals 31
GenUC: 2.789835e-06
GenUB: 6.314367e-07
Optimisation 1.126742e-02
Total Time: 1.127258e-02
4 Rem 3
Graph 1:
0 0 1 
0 0 1 
1 0 0 
Graph 2:
0 0 1 
0 0 0 
1 0 0 
Solution: 8 0
Classic Expectation: 6.000000
Initial Expecation: 4.500000
Gbest: 8.000000
Expectation: 5.062500
Final Parameters:
Gammas:
[ 1.047198 5.235988 3.141593 3.141593 3.141593 3.141593 ]
Betas:
[ 0.523599 1.570796 1.570796 1.570796 1.570796 1.570796 ]
Aggregate results:
[ 8 4 6 0 ]
[ 0.390625 0.109375 0.250000 0.250000 ]
3
Num Evals 33
GenUC: 2.742338e-06
GenUB: 6.062328e-07
Optimisation 1.188924e-02
Total Time: 1.189447e-02
5 Add/Rem 3
Graph 1:
0 0 1 
0 0 1 
1 0 0 
Graph 2:
1 1 0 
0 0 0 
0 0 1 
Solution: 5 1
Classic Expectation: 4.000000
Initial Expecation: 3.000000
Gbest: 5.000000
Expectation: 4.078125
Final Parameters:
Gammas:
[ 3.141593 1.047198 5.235988 3.141593 3.141593 3.141593 ]
Betas:
[ 1.570796 0.523599 1.570796 1.570796 1.570796 1.570796 ]
Aggregate results:
[ 3 5 0 ]
[ 0.070313 0.773438 0.156250 ]
3
Num Evals 59
GenUC: 2.353801e-06
GenUB: 7.617055e-07
Optimisation 2.077018e-02
Total Time: 2.077488e-02
