Clock Speed: 3.688423
Num threads: 4
Trotterisation: 6
Graph Size: 8
Num Qubits: 16
Space Dimension: 65536
Run-Type: 0
Num_samples: 10
1 Isomorphic
Graph 1:
0 0 1 0 0 0 0 0 
0 0 1 1 0 1 0 0 
0 0 1 0 0 1 0 1 
0 1 1 0 1 1 1 0 
0 0 0 0 0 0 0 0 
1 0 0 1 1 1 0 1 
1 0 0 0 0 0 1 0 
1 1 1 1 0 0 1 0 
Graph 2:
0 0 1 0 0 0 0 0 
0 0 1 1 0 1 0 0 
0 0 1 0 0 1 0 1 
0 1 1 0 1 1 1 0 
0 0 0 0 0 0 0 0 
1 0 0 1 1 1 0 1 
1 0 0 0 0 0 1 0 
1 1 1 1 0 0 1 0 
Solution: 0 0
Gbest: -20.000000
Expectation: -32.479450
Final Parameters:
Gammas:
[ 2.919521 3.590606 1.795137 2.631875 3.219287 1.106084 ]
Betas:
[ 3.099589 2.112605 1.560946 1.547880 0.034471 1.601906 0.190269 ]
Aggregate results:
[ -1 9 17 15 21 23 19 13 5 11 29 27 25 7 31 35 33 37 39 41 43 45 47 63 ]
[ 0.000020 0.000332 0.015100 0.005821 0.077705 0.116564 0.037098 0.002111 0.000038 0.000743 0.110810 0.140487 0.154543 0.000042 0.081042 0.036318 0.057001 0.020369 0.008741 0.002423 0.000300 0.000183 0.000016 0.132196 ]
5
Num Evals 800
GenUC: 3.521299e-03
GenUB: 1.708117e-02
Optimisation 3.358695e+02
Total Time: 3.363000e+02
2 Flipped
Graph 1:
0 0 1 0 0 0 0 0 
0 0 1 1 0 1 0 0 
0 0 1 0 0 1 0 1 
0 1 1 0 1 1 1 0 
0 0 0 0 0 0 0 0 
1 0 0 1 1 1 0 1 
1 0 0 0 0 0 1 0 
1 1 1 1 0 0 1 0 
Graph 2:
0 0 0 0 0 1 0 0 
0 0 1 0 1 1 0 0 
1 0 1 0 0 1 0 0 
0 1 1 1 0 1 1 0 
0 0 0 0 0 0 0 0 
1 0 1 1 1 0 0 1 
0 1 0 0 0 0 0 1 
0 1 0 0 1 1 1 1 
Solution: -14 21533
Gbest: -22.000000
Expectation: -32.767800
Final Parameters:
Gammas:
[ 3.268603 3.177643 6.222476 6.151550 0.840257 6.271456 ]
Betas:
[ 1.272769 1.361929 3.044494 0.736201 1.540563 1.917832 1.252674 ]
Aggregate results:
[ 19 21 25 23 27 31 29 33 17 37 35 15 39 41 43 13 63 ]
[ 0.008323 0.025913 0.115547 0.059542 0.159903 0.166947 0.182564 0.109890 0.001691 0.023011 0.054637 0.000323 0.006215 0.001269 0.000194 0.000004 0.084029 ]
5
Num Evals 1600
GenUC: 2.628407e-03
GenUB: 1.697656e-02
Optimisation 3.828374e+02
Total Time: 3.833140e+02
3 Add 8
Graph 1:
0 0 1 0 0 0 0 0 
0 0 1 1 0 1 0 0 
0 0 1 0 0 1 0 1 
0 1 1 0 1 1 1 0 
0 0 0 0 0 0 0 0 
1 0 0 1 1 1 0 1 
1 0 0 0 0 0 1 0 
1 1 1 1 0 0 1 0 
Graph 2:
0 0 1 0 0 0 1 0 
1 0 1 1 0 1 0 0 
0 0 1 0 1 1 0 1 
0 1 1 0 1 1 1 0 
0 0 1 1 0 0 0 1 
1 0 0 1 1 1 0 1 
1 0 0 0 0 1 1 0 
1 1 1 1 1 0 1 0 
Solution: -8 0
Gbest: -24.000000
Expectation: -43.311045
Final Parameters:
Gammas:
[ 3.299095 1.790697 4.465244 1.211699 4.235619 3.331603 ]
Betas:
[ 0.896509 1.961045 0.627260 0.209607 2.520938 1.999155 0.649204 ]
Aggregate results:
[ 7 17 25 23 21 27 29 19 13 15 31 11 33 35 37 39 41 43 45 63 ]
[ 0.000041 0.000731 0.039932 0.017294 0.006862 0.074988 0.111159 0.002350 0.000236 0.000342 0.127968 0.000012 0.119273 0.079269 0.040231 0.018946 0.005524 0.001240 0.000262 0.353340 ]
5
Num Evals 2400
GenUC: 3.101658e-03
GenUB: 1.697105e-02
Optimisation 3.210906e+02
Total Time: 3.214985e+02
4 Rem 8
Graph 1:
0 0 1 0 0 0 0 0 
0 0 1 1 0 1 0 0 
0 0 1 0 0 1 0 1 
0 1 1 0 1 1 1 0 
0 0 0 0 0 0 0 0 
1 0 0 1 1 1 0 1 
1 0 0 0 0 0 1 0 
1 1 1 1 0 0 1 0 
Graph 2:
0 0 1 0 0 0 0 0 
0 0 1 1 0 1 0 0 
0 0 1 0 0 1 0 0 
0 1 1 0 0 0 0 0 
0 0 0 0 0 0 0 0 
1 0 0 1 1 1 0 1 
0 0 0 0 0 0 1 0 
1 1 0 0 0 0 1 0 
Solution: -7 0
Gbest: -23.000000
Expectation: -32.226516
Final Parameters:
Gammas:
[ 3.270441 4.299961 5.428950 0.308703 2.544550 3.225350 ]
Betas:
[ 0.064631 0.649734 0.188199 1.435342 3.027073 0.851738 2.391317 ]
Aggregate results:
[ 6 14 20 18 22 16 12 8 10 28 26 24 30 32 34 36 38 40 63 ]
[ 0.000024 0.002639 0.094487 0.043372 0.149673 0.016254 0.000820 0.000017 0.000129 0.096470 0.127218 0.162170 0.071566 0.040595 0.014951 0.006014 0.001645 0.000545 0.171408 ]
5
Num Evals 3200
GenUC: 2.923152e-03
GenUB: 1.680298e-02
Optimisation 3.032975e+02
Total Time: 3.037283e+02
5 Add/Rem 8
Graph 1:
0 0 1 0 0 0 0 0 
0 0 1 1 0 1 0 0 
0 0 1 0 0 1 0 1 
0 1 1 0 1 1 1 0 
0 0 0 0 0 0 0 0 
1 0 0 1 1 1 0 1 
1 0 0 0 0 0 1 0 
1 1 1 1 0 0 1 0 
Graph 2:
0 1 1 1 0 1 0 1 
0 0 1 1 0 1 0 0 
0 0 1 0 0 1 0 1 
1 1 0 0 1 0 0 0 
0 0 0 0 0 0 0 0 
1 0 0 1 0 1 0 1 
0 1 0 0 0 0 1 1 
1 1 1 1 0 0 0 0 
Solution: -13 0
Gbest: -21.000000
Expectation: -27.497145
Final Parameters:
Gammas:
[ 0.043455 6.120204 4.163198 4.635543 0.747237 6.059882 ]
Betas:
[ 2.927451 2.461493 1.518993 3.140335 3.141003 1.771897 0.108483 ]
Aggregate results:
[ 12 18 20 24 22 16 14 28 26 30 32 34 36 38 40 42 44 63 ]
[ 0.000877 0.047056 0.104393 0.215197 0.172150 0.013102 0.002340 0.101820 0.171391 0.053912 0.034931 0.019503 0.007599 0.003141 0.001644 0.000647 0.000137 0.050160 ]
5
Num Evals 4000
GenUC: 2.875283e-03
GenUB: 1.707371e-02
Optimisation 4.295519e+02
Total Time: 4.301015e+02
