Clock Speed: 3.689017
Num threads: 4
Trotterisation: 6
Graph Size: 8
Num Qubits: 16
Space Dimension: 65536
Run-Type: 0
Num_samples: 10
1 Isomorphic
Graph 1:
1 1 1 1 1 1 1 1 
0 0 0 0 0 0 0 0 
1 1 0 1 1 1 1 0 
0 1 0 0 1 1 1 1 
0 1 1 1 0 0 0 1 
1 1 0 0 1 0 1 0 
0 1 0 1 1 0 0 1 
1 1 0 1 0 1 1 0 
Graph 2:
1 1 1 1 1 1 1 1 
0 0 0 0 0 0 0 0 
1 1 0 1 1 1 1 0 
0 1 0 0 1 1 1 1 
0 1 1 1 0 0 0 1 
1 1 0 0 1 0 1 0 
0 1 0 1 1 0 0 1 
1 1 0 1 0 1 1 0 
Solution: 0 0
Gbest: -18.000000
Expectation: -30.023391
Final Parameters:
Gammas:
[ 3.007193 3.155776 1.557574 1.181087 3.668200 3.116365 ]
Betas:
[ 2.980417 0.880152 1.615653 0.134547 0.113100 1.491366 1.549349 ]
Aggregate results:
[ -1 21 25 19 9 15 29 11 23 17 27 35 31 33 13 37 39 43 5 7 41 63 ]
[ 0.000056 0.112924 0.112616 0.081592 0.002142 0.020424 0.099550 0.004882 0.129696 0.047379 0.103949 0.018551 0.082956 0.046272 0.011683 0.009130 0.003403 0.000025 0.000303 0.000451 0.000363 0.111652 ]
5
Num Evals 800
GenUC: 3.510446e-03
GenUB: 1.736221e-02
Optimisation 3.111030e+02
Total Time: 3.115017e+02
2 Flipped
Graph 1:
1 1 1 1 1 1 1 1 
0 0 0 0 0 0 0 0 
1 1 0 1 1 1 1 0 
0 1 0 0 1 1 1 1 
0 1 1 1 0 0 0 1 
1 1 0 0 1 0 1 0 
0 1 0 1 1 0 0 1 
1 1 0 1 0 1 1 0 
Graph 2:
1 1 1 1 1 1 1 1 
0 0 0 0 0 0 0 0 
0 1 1 1 1 0 1 1 
1 1 1 1 0 0 1 0 
1 0 0 0 1 1 1 0 
0 1 0 1 0 0 1 1 
1 0 0 1 1 0 1 0 
0 1 1 0 1 0 1 1 
Solution: -16 37650
Gbest: -20.000000
Expectation: -39.161037
Final Parameters:
Gammas:
[ 3.762479 6.117867 2.995129 0.574444 2.762966 3.516370 ]
Betas:
[ 1.602050 0.064938 0.735187 0.089991 2.491997 2.986585 0.536372 ]
Aggregate results:
[ 31 43 41 39 27 25 33 35 37 29 23 21 19 47 45 49 17 51 15 63 ]
[ 0.094382 0.009388 0.020212 0.038852 0.107034 0.080364 0.109154 0.102690 0.071968 0.096256 0.037100 0.009288 0.001790 0.000632 0.004131 0.000088 0.000289 0.000035 0.000015 0.216331 ]
5
Num Evals 1600
GenUC: 2.616614e-03
GenUB: 1.666382e-02
Optimisation 2.927696e+02
Total Time: 2.931482e+02
3 Add 8
Graph 1:
1 1 1 1 1 1 1 1 
0 0 0 0 0 0 0 0 
1 1 0 1 1 1 1 0 
0 1 0 0 1 1 1 1 
0 1 1 1 0 0 0 1 
1 1 0 0 1 0 1 0 
0 1 0 1 1 0 0 1 
1 1 0 1 0 1 1 0 
Graph 2:
1 1 1 1 1 1 1 1 
0 0 0 0 0 0 0 0 
1 1 0 1 1 1 1 0 
1 1 0 0 1 1 1 1 
1 1 1 1 0 1 1 1 
1 1 0 0 1 1 1 1 
0 1 0 1 1 0 1 1 
1 1 1 1 0 1 1 0 
Solution: -8 0
Gbest: -20.000000
Expectation: -29.509484
Final Parameters:
Gammas:
[ 3.273321 5.032973 5.253864 5.415472 1.739434 2.006862 ]
Betas:
[ 0.207643 2.183469 1.549272 3.138254 0.000073 0.100110 3.139610 ]
Aggregate results:
[ 7 25 27 29 13 17 31 23 19 15 21 33 35 37 39 11 9 63 ]
[ 0.000154 0.150778 0.157768 0.111453 0.010137 0.055297 0.058331 0.106578 0.078160 0.027519 0.085060 0.031061 0.018008 0.007041 0.000708 0.002494 0.000089 0.099364 ]
5
Num Evals 2400
GenUC: 3.286725e-03
GenUB: 1.700977e-02
Optimisation 3.325789e+02
Total Time: 3.329942e+02
4 Rem 8
Graph 1:
1 1 1 1 1 1 1 1 
0 0 0 0 0 0 0 0 
1 1 0 1 1 1 1 0 
0 1 0 0 1 1 1 1 
0 1 1 1 0 0 0 1 
1 1 0 0 1 0 1 0 
0 1 0 1 1 0 0 1 
1 1 0 1 0 1 1 0 
Graph 2:
1 1 0 1 1 1 1 1 
0 0 0 0 0 0 0 0 
0 1 0 1 1 1 1 0 
0 1 0 0 1 1 1 1 
0 1 1 1 0 0 0 1 
0 1 0 0 0 0 1 0 
0 0 0 1 1 0 0 1 
1 1 0 1 0 1 1 0 
Solution: -5 0
Gbest: -19.000000
Expectation: -34.870447
Final Parameters:
Gammas:
[ 1.834563 6.282794 3.083770 3.708142 5.798930 2.663826 ]
Betas:
[ 0.643081 0.561359 2.260325 2.840961 0.144633 0.530039 3.094005 ]
Aggregate results:
[ 4 22 26 20 24 12 16 30 28 14 32 18 34 36 38 40 42 10 44 63 ]
[ 0.000039 0.029899 0.074889 0.052093 0.133592 0.000262 0.007101 0.141474 0.139163 0.003017 0.072036 0.012587 0.124968 0.018414 0.024500 0.003371 0.001024 0.000237 0.000063 0.161270 ]
5
Num Evals 3200
GenUC: 2.921293e-03
GenUB: 1.682463e-02
Optimisation 3.311031e+02
Total Time: 3.315318e+02
5 Add/Rem 8
Graph 1:
1 1 1 1 1 1 1 1 
0 0 0 0 0 0 0 0 
1 1 0 1 1 1 1 0 
0 1 0 0 1 1 1 1 
0 1 1 1 0 0 0 1 
1 1 0 0 1 0 1 0 
0 1 0 1 1 0 0 1 
1 1 0 1 0 1 1 0 
Graph 2:
1 1 1 1 0 0 0 1 
0 0 0 0 1 1 0 0 
1 1 0 1 0 1 1 0 
0 1 0 0 0 1 1 1 
1 1 1 1 1 1 0 1 
1 1 0 0 1 0 1 0 
1 1 0 0 1 0 0 1 
1 1 0 1 1 1 0 0 
Solution: -10 119
Gbest: -22.000000
Expectation: -29.056013
Final Parameters:
Gammas:
[ 0.128131 0.772201 6.254893 5.682435 3.012061 6.281368 ]
Betas:
[ 2.374531 0.405586 3.139389 3.082350 1.443866 1.351088 0.236709 ]
Aggregate results:
[ 13 21 25 27 31 23 19 29 17 33 37 35 15 9 39 41 11 63 ]
[ 0.001426 0.119396 0.199672 0.156137 0.037711 0.177730 0.058428 0.086521 0.025000 0.020112 0.008651 0.014612 0.007565 0.000031 0.002025 0.000480 0.000186 0.084316 ]
5
Num Evals 4000
GenUC: 2.855876e-03
GenUB: 1.671555e-02
Optimisation 3.723560e+02
Total Time: 3.728328e+02
