Clock Speed: 3.689407
Num threads: 4
Trotterisation: 4
Num Qubits: 5
Space Dimension: 32
Run-Type: 0
Num_samples: 6399
Optimiser Method: 29
1 Isomorphic
Graph 1:
0 1 1 1 
0 1 1 1 
1 1 1 1 
0 0 1 1 
Graph 2:
0 1 1 1 
0 1 1 1 
1 1 1 1 
0 0 1 1 
Solution: 16 0
Classic Expectation: 10.000000
Initial Expecation: 7.500000
Gbest: 16.000000
Expectation: 11.418881
Final Parameters:
Gammas:
[ 2.850757 3.440835 2.758320 3.068529 ]
Betas:
[ 0.931549 1.580421 1.720750 1.010501 ]
Aggregate results:
[ 16 12 14 8 10 0 ]
[ 0.304769 0.102347 0.064287 0.361468 0.152265 0.014864 ]
5
Num Evals 3200
GenUC: 8.444593e-06
GenUB: 9.136973e-06
Optimisation 1.080924e+00
Total Time: 1.080960e+00
2 Flipped
Graph 1:
0 1 1 1 
0 1 1 1 
1 1 1 1 
0 0 1 1 
Graph 2:
1 1 1 0 
1 1 1 0 
1 1 1 1 
1 1 0 0 
Solution: 14 19
Classic Expectation: 10.000000
Initial Expecation: 7.500000
Gbest: 14.000000
Expectation: 8.564502
Final Parameters:
Gammas:
[ 3.141593 3.926991 3.141593 3.141593 ]
Betas:
[ 1.562812 2.372163 2.184389 0.957204 ]
Aggregate results:
[ 8 10 12 14 0 ]
[ 0.152967 0.347033 0.252058 0.060410 0.187532 ]
3
Num Evals 164
GenUC: 9.653973e-06
GenUB: 1.990527e-06
Optimisation 5.722629e-02
Total Time: 5.724043e-02
3 Add 4
Graph 1:
0 1 1 1 
0 1 1 1 
1 1 1 1 
0 0 1 1 
Graph 2:
1 1 1 1 
1 1 1 1 
1 1 1 1 
1 0 1 1 
Solution: 13 0
Classic Expectation: 11.500000
Initial Expecation: 8.625000
Gbest: 13.000000
Expectation: 11.551576
Final Parameters:
Gammas:
[ 1.787226 4.099726 3.386454 3.427073 ]
Betas:
[ 2.853419 0.743781 1.155793 2.259305 ]
Aggregate results:
[ 13 11 0 ]
[ 0.276005 0.723956 0.000039 ]
5
Num Evals 3200
GenUC: 8.875271e-06
GenUB: 1.615554e-06
Optimisation 1.112752e+00
Total Time: 1.112764e+00
4 Rem 4
Graph 1:
0 1 1 1 
0 1 1 1 
1 1 1 1 
0 0 1 1 
Graph 2:
0 1 0 1 
0 0 1 1 
1 1 0 1 
0 0 1 0 
Solution: 12 0
Classic Expectation: 8.000000
Initial Expecation: 6.000000
Gbest: 12.000000
Expectation: 8.238481
Final Parameters:
Gammas:
[ 2.897533 3.761876 2.563560 2.820985 ]
Betas:
[ 0.323274 2.280572 0.487483 2.259610 ]
Aggregate results:
[ 12 8 10 6 0 ]
[ 0.148169 0.521771 0.095337 0.222152 0.012570 ]
3
Num Evals 1935
GenUC: 9.778421e-06
GenUB: 1.611421e-06
Optimisation 5.754288e-01
Total Time: 5.754429e-01
5 Add/Rem 4
Graph 1:
0 1 1 1 
0 1 1 1 
1 1 1 1 
0 0 1 1 
Graph 2:
0 0 1 1 
1 1 1 0 
1 0 1 1 
1 1 0 1 
Solution: 11 1
Classic Expectation: 9.500000
Initial Expecation: 7.125000
Gbest: 11.000000
Expectation: 10.163478
Final Parameters:
Gammas:
[ 3.558587 3.345581 2.513227 3.096353 ]
Betas:
[ 2.025971 2.157518 1.508602 1.233875 ]
Aggregate results:
[ 9 11 7 0 ]
[ 0.264554 0.704439 0.004809 0.026198 ]
3
Num Evals 3182
GenUC: 9.362935e-06
GenUB: 1.570908e-06
Optimisation 1.111561e+00
Total Time: 1.111574e+00
