Clock Speed: 3.688211
Num threads: 4
Trotterisation: 4
Num Qubits: 5
Space Dimension: 32
Run-Type: 0
Num_samples: 6399
Optimiser Method: 29
1 Isomorphic
Graph 1:
1 0 0 1 
0 1 0 0 
1 1 0 0 
1 0 1 1 
Graph 2:
1 0 0 1 
0 1 0 0 
1 1 0 0 
1 0 1 1 
Solution: 16 0
Classic Expectation: 8.666667
Initial Expecation: 6.500000
Gbest: 16.000000
Expectation: 9.021836
Final Parameters:
Gammas:
[ 2.943067 4.312171 3.071405 4.420688 ]
Betas:
[ 0.149462 2.538980 1.125617 2.172005 ]
Aggregate results:
[ 16 8 12 6 10 0 ]
[ 0.114449 0.421560 0.108848 0.081642 0.202215 0.071287 ]
3
Num Evals 2665
GenUC: 8.355943e-06
GenUB: 2.861058e-05
Optimisation 1.029606e+00
Total Time: 1.029670e+00
2 Flipped
Graph 1:
1 0 0 1 
0 1 0 0 
1 1 0 0 
1 0 1 1 
Graph 2:
1 0 0 1 
0 0 1 0 
0 0 1 1 
1 1 0 1 
Solution: 14 2
Classic Expectation: 8.666667
Initial Expecation: 6.500000
Gbest: 14.000000
Expectation: 10.139286
Final Parameters:
Gammas:
[ 2.981426 3.082379 3.469020 2.821114 ]
Betas:
[ 1.169992 2.310081 1.760355 0.728267 ]
Aggregate results:
[ 8 10 14 6 12 0 ]
[ 0.411220 0.070872 0.148913 0.002704 0.336650 0.029641 ]
5
Num Evals 3200
GenUC: 9.341224e-06
GenUB: 1.934823e-06
Optimisation 1.260068e+00
Total Time: 1.260083e+00
3 Add 4
Graph 1:
1 0 0 1 
0 1 0 0 
1 1 0 0 
1 0 1 1 
Graph 2:
1 0 0 1 
0 1 1 1 
1 1 1 0 
1 1 1 1 
Solution: 12 0
Classic Expectation: 8.666667
Initial Expecation: 6.500000
Gbest: 12.000000
Expectation: 9.333678
Final Parameters:
Gammas:
[ 5.502346 3.006385 1.808214 3.372537 ]
Betas:
[ 2.775188 2.655543 1.359108 1.250449 ]
Aggregate results:
[ 12 8 10 6 4 0 ]
[ 0.279157 0.162074 0.432189 0.041264 0.029430 0.055885 ]
3
Num Evals 1697
GenUC: 8.844188e-06
GenUB: 1.692446e-06
Optimisation 7.199183e-01
Total Time: 7.199320e-01
4 Rem 4
Graph 1:
1 0 0 1 
0 1 0 0 
1 1 0 0 
1 0 1 1 
Graph 2:
0 0 0 0 
0 1 0 0 
0 1 0 0 
1 0 1 0 
Solution: 12 0
Classic Expectation: 8.000000
Initial Expecation: 6.000000
Gbest: 12.000000
Expectation: 9.408141
Final Parameters:
Gammas:
[ 3.007961 3.380711 2.582088 3.624430 ]
Betas:
[ 2.323029 0.254784 1.379592 1.513911 ]
Aggregate results:
[ 12 8 6 10 4 0 ]
[ 0.192893 0.313952 0.055292 0.421141 0.009662 0.007060 ]
3
Num Evals 1634
GenUC: 9.568350e-06
GenUB: 1.708861e-06
Optimisation 6.027892e-01
Total Time: 6.028032e-01
5 Add/Rem 4
Graph 1:
1 0 0 1 
0 1 0 0 
1 1 0 0 
1 0 1 1 
Graph 2:
1 0 1 1 
0 0 1 0 
0 0 0 1 
1 0 1 1 
Solution: 12 21
Classic Expectation: 8.000000
Initial Expecation: 6.000000
Gbest: 12.000000
Expectation: 9.459257
Final Parameters:
Gammas:
[ 2.965956 1.637842 3.569230 1.198231 ]
Betas:
[ 0.621548 1.611573 1.738620 1.889206 ]
Aggregate results:
[ 10 8 6 12 0 ]
[ 0.289377 0.403702 0.038471 0.258753 0.009696 ]
3
Num Evals 1147
GenUC: 9.270851e-06
GenUB: 1.509325e-06
Optimisation 4.285654e-01
Total Time: 4.285783e-01
