Clock Speed: 3.688900
Num threads: 4
Trotterisation: 4
Num Qubits: 5
Space Dimension: 32
Run-Type: 0
Num_samples: 6399
Optimiser Method: 29
1 Isomorphic
Graph 1:
1 0 1 1 
0 1 0 1 
0 1 0 1 
1 1 0 0 
Graph 2:
1 0 1 1 
0 1 0 1 
0 1 0 1 
1 1 0 0 
Solution: 16 0
Classic Expectation: 8.166667
Initial Expecation: 6.125000
Gbest: 16.000000
Expectation: 9.853252
Final Parameters:
Gammas:
[ 3.628806 3.250791 2.457514 4.492380 ]
Betas:
[ 1.226953 2.326979 1.034991 1.762849 ]
Aggregate results:
[ 16 10 8 6 12 0 ]
[ 0.236972 0.054874 0.473541 0.145214 0.071113 0.018286 ]
3
Num Evals 1420
GenUC: 8.593488e-06
GenUB: 1.154939e-05
Optimisation 5.786878e-01
Total Time: 5.787282e-01
2 Flipped
Graph 1:
1 0 1 1 
0 1 0 1 
0 1 0 1 
1 1 0 0 
Graph 2:
1 1 0 1 
1 0 1 0 
1 0 1 0 
0 0 1 1 
Solution: 12 3
Classic Expectation: 8.000000
Initial Expecation: 6.000000
Gbest: 12.000000
Expectation: 10.013962
Final Parameters:
Gammas:
[ 3.228810 3.526749 2.656729 3.321877 ]
Betas:
[ 0.781152 0.260804 2.680236 0.323022 ]
Aggregate results:
[ 2 8 10 12 6 0 ]
[ 0.000918 0.144475 0.639338 0.199273 0.011946 0.004051 ]
5
Num Evals 3200
GenUC: 9.418000e-06
GenUB: 1.958804e-06
Optimisation 8.459577e-01
Total Time: 8.459713e-01
3 Add 4
Graph 1:
1 0 1 1 
0 1 0 1 
0 1 0 1 
1 1 0 0 
Graph 2:
1 0 1 1 
0 1 1 1 
1 1 0 1 
1 1 0 1 
Solution: 13 0
Classic Expectation: 8.500000
Initial Expecation: 6.375000
Gbest: 13.000000
Expectation: 9.531380
Final Parameters:
Gammas:
[ 2.619242 4.759542 3.491826 3.446215 ]
Betas:
[ 2.664943 0.529054 1.794582 0.587179 ]
Aggregate results:
[ 13 11 7 5 9 0 ]
[ 0.272497 0.038509 0.135487 0.025254 0.498960 0.029293 ]
3
Num Evals 2361
GenUC: 8.734933e-06
GenUB: 2.095010e-06
Optimisation 7.263960e-01
Total Time: 7.264090e-01
4 Rem 4
Graph 1:
1 0 1 1 
0 1 0 1 
0 1 0 1 
1 1 0 0 
Graph 2:
1 0 0 0 
0 1 0 0 
0 1 0 1 
1 0 0 0 
Solution: 12 0
Classic Expectation: 7.500000
Initial Expecation: 5.625000
Gbest: 12.000000
Expectation: 8.676654
Final Parameters:
Gammas:
[ 2.996222 2.984093 3.539174 3.700893 ]
Betas:
[ 0.578784 2.156344 1.829844 1.605240 ]
Aggregate results:
[ 12 8 6 10 4 0 ]
[ 0.086004 0.211092 0.243728 0.448645 0.001762 0.008769 ]
3
Num Evals 3181
GenUC: 9.722542e-06
GenUB: 1.658977e-06
Optimisation 1.044407e+00
Total Time: 1.044420e+00
5 Add/Rem 4
Graph 1:
1 0 1 1 
0 1 0 1 
0 1 0 1 
1 1 0 0 
Graph 2:
1 0 1 0 
1 1 0 0 
0 0 1 1 
0 1 0 1 
Solution: 11 5
Classic Expectation: 7.666667
Initial Expecation: 5.750000
Gbest: 11.000000
Expectation: 8.181384
Final Parameters:
Gammas:
[ 2.986275 1.438583 2.786326 4.228017 ]
Betas:
[ 2.021002 1.025278 1.521911 1.331121 ]
Aggregate results:
[ 9 7 5 11 0 ]
[ 0.183375 0.194050 0.093846 0.427584 0.101144 ]
3
Num Evals 909
GenUC: 9.649200e-06
GenUB: 1.982902e-06
Optimisation 2.981792e-01
Total Time: 2.981928e-01
