Clock Speed: 3.686870
Num threads: 4
Trotterisation: 4
Num Qubits: 5
Space Dimension: 32
Run-Type: 0
Num_samples: 6399
Optimiser Method: 29
1 Isomorphic
Graph 1:
1 1 0 0 
0 1 1 1 
1 0 1 1 
0 1 1 0 
Graph 2:
1 1 0 0 
0 1 1 1 
1 0 1 1 
0 1 1 0 
Solution: 16 0
Classic Expectation: 8.666667
Initial Expecation: 6.500000
Gbest: 16.000000
Expectation: 11.006529
Final Parameters:
Gammas:
[ 3.018005 2.928437 3.388286 2.846887 ]
Betas:
[ 0.608211 2.045134 1.690537 1.859569 ]
Aggregate results:
[ 16 10 8 6 12 0 ]
[ 0.303200 0.197659 0.336990 0.057125 0.095007 0.010020 ]
5
Num Evals 3200
GenUC: 8.884759e-06
GenUB: 9.533775e-06
Optimisation 1.073979e+00
Total Time: 1.074017e+00
2 Flipped
Graph 1:
1 1 0 0 
0 1 1 1 
1 0 1 1 
0 1 1 0 
Graph 2:
0 0 1 1 
1 1 1 0 
1 1 0 1 
0 1 1 0 
Solution: 12 4
Classic Expectation: 8.000000
Initial Expecation: 6.000000
Gbest: 12.000000
Expectation: 8.177332
Final Parameters:
Gammas:
[ 4.726079 2.869963 3.378627 4.064830 ]
Betas:
[ 0.544906 2.397766 1.178480 2.186170 ]
Aggregate results:
[ 8 6 10 12 4 0 ]
[ 0.265003 0.145707 0.271362 0.204530 0.003770 0.109627 ]
3
Num Evals 2386
GenUC: 9.220967e-06
GenUB: 1.968234e-06
Optimisation 7.869596e-01
Total Time: 7.869733e-01
3 Add 4
Graph 1:
1 1 0 0 
0 1 1 1 
1 0 1 1 
0 1 1 0 
Graph 2:
1 1 0 0 
1 1 1 1 
1 0 1 1 
1 1 1 1 
Solution: 13 0
Classic Expectation: 9.500000
Initial Expecation: 7.125000
Gbest: 13.000000
Expectation: 10.960123
Final Parameters:
Gammas:
[ 3.460943 2.576689 3.332931 2.721191 ]
Betas:
[ 3.141593 1.695053 0.881401 2.781498 ]
Aggregate results:
[ 13 11 9 7 0 ]
[ 0.211358 0.610269 0.164766 0.002373 0.011233 ]
3
Num Evals 1450
GenUC: 8.849544e-06
GenUB: 1.721783e-06
Optimisation 5.556826e-01
Total Time: 5.556951e-01
4 Rem 4
Graph 1:
1 1 0 0 
0 1 1 1 
1 0 1 1 
0 1 1 0 
Graph 2:
1 1 0 0 
0 1 1 1 
0 0 1 0 
0 0 1 0 
Solution: 13 0
Classic Expectation: 8.166667
Initial Expecation: 6.125000
Gbest: 13.000000
Expectation: 9.521011
Final Parameters:
Gammas:
[ 3.247574 3.427251 2.981459 3.591612 ]
Betas:
[ 0.504233 0.983014 1.036083 1.601079 ]
Aggregate results:
[ 13 11 9 7 5 0 ]
[ 0.237758 0.153558 0.353254 0.201232 0.030622 0.023576 ]
3
Num Evals 3178
GenUC: 9.404088e-06
GenUB: 1.467124e-06
Optimisation 8.912345e-01
Total Time: 8.912471e-01
5 Add/Rem 4
Graph 1:
1 1 0 0 
0 1 1 1 
1 0 1 1 
0 1 1 0 
Graph 2:
1 1 1 0 
0 1 0 1 
1 0 1 1 
0 0 0 1 
Solution: 13 10
Classic Expectation: 8.833333
Initial Expecation: 6.625000
Gbest: 13.000000
Expectation: 9.771669
Final Parameters:
Gammas:
[ 3.390133 3.217567 4.448034 1.503027 ]
Betas:
[ 1.324644 2.195583 1.554653 1.439272 ]
Aggregate results:
[ 11 9 5 7 13 0 ]
[ 0.436792 0.390427 0.005005 0.084522 0.064341 0.018913 ]
3
Num Evals 2286
GenUC: 9.190466e-06
GenUB: 1.316832e-06
Optimisation 7.760666e-01
Total Time: 7.760789e-01
