Clock Speed: 3.689430
Num threads: 4
Trotterisation: 4
Num Qubits: 5
Space Dimension: 32
Run-Type: 0
Num_samples: 4
Optimiser Method: 29
1 Isomorphic
Graph 1:
0 0 0 0 
0 0 1 0 
0 1 0 1 
0 0 1 0 
Graph 2:
0 0 0 0 
0 0 1 0 
0 1 0 1 
0 0 1 0 
Solution: 16 0
Classic Expectation: 10.666667
Initial Expecation: 8.000000
Gbest: 16.000000
Expectation: 12.919088
Final Parameters:
Gammas:
[ 4.830284 3.304666 5.094594 4.396204 ]
Betas:
[ 2.384424 1.331731 1.786010 1.730629 ]
Aggregate results:
[ 16 12 8 0 ]
[ 0.300673 0.646157 0.044304 0.008866 ]
5
Num Evals 3200
GenUC: 8.476898e-06
GenUB: 9.355950e-06
Optimisation 1.153564e+00
Total Time: 1.153608e+00
2 Flipped
Graph 1:
0 0 0 0 
0 0 1 0 
0 1 0 1 
0 0 1 0 
Graph 2:
0 0 0 0 
0 1 0 0 
1 0 1 0 
0 1 0 0 
Solution: 10 1
Classic Expectation: 9.333333
Initial Expecation: 7.000000
Gbest: 10.000000
Expectation: 9.968029
Final Parameters:
Gammas:
[ 3.207337 2.946479 3.696977 3.567413 ]
Betas:
[ 0.759748 2.550605 1.763624 1.642279 ]
Aggregate results:
[ 8 10 0 ]
[ 0.010115 0.988711 0.001174 ]
5
Num Evals 3200
GenUC: 9.382318e-06
GenUB: 1.806242e-06
Optimisation 1.171326e+00
Total Time: 1.171340e+00
3 Add 4
Graph 1:
0 0 0 0 
0 0 1 0 
0 1 0 1 
0 0 1 0 
Graph 2:
1 1 1 1 
1 0 1 0 
1 1 0 1 
1 0 1 0 
Solution: 9 0
Classic Expectation: 7.666667
Initial Expecation: 5.750000
Gbest: 9.000000
Expectation: 8.866540
Final Parameters:
Gammas:
[ 3.035292 3.678155 4.288777 2.531586 ]
Betas:
[ 2.345610 1.694727 1.543738 1.313803 ]
Aggregate results:
[ 9 5 0 ]
[ 0.975118 0.018096 0.006786 ]
5
Num Evals 3200
GenUC: 8.853618e-06
GenUB: 1.733482e-06
Optimisation 1.154092e+00
Total Time: 1.154105e+00
4 Rem 4
Graph 1:
0 0 0 0 
0 0 1 0 
0 1 0 1 
0 0 1 0 
Graph 2:
0 0 0 0 
0 0 0 0 
0 0 0 0 
0 0 0 0 
Solution: 12 0
Classic Expectation: 12.000000
Initial Expecation: 9.000000
Gbest: 12.000000
Expectation: 12.000000
Final Parameters:
Gammas:
[ 3.059780 4.630577 4.319690 3.926991 ]
Betas:
[ 1.570796 1.963495 2.454369 1.668971 ]
Aggregate results:
[ 12 0 ]
[ 1.000000 0.000000 ]
4
Num Evals 1003
GenUC: 9.560725e-06
GenUB: 1.597335e-06
Optimisation 3.719957e-01
Total Time: 3.720092e-01
5 Add/Rem 4
Graph 1:
0 0 0 0 
0 0 1 0 
0 1 0 1 
0 0 1 0 
Graph 2:
1 1 1 1 
1 1 0 0 
1 0 0 0 
1 0 0 0 
Solution: 12 8
Classic Expectation: 8.000000
Initial Expecation: 6.000000
Gbest: 12.000000
Expectation: 10.862296
Final Parameters:
Gammas:
[ 6.004612 3.245870 4.389281 3.484116 ]
Betas:
[ 0.078688 2.347136 1.334709 1.373659 ]
Aggregate results:
[ 4 8 12 0 ]
[ 0.021548 0.169035 0.785319 0.024098 ]
5
Num Evals 3200
GenUC: 9.090698e-06
GenUB: 1.267530e-06
Optimisation 9.260721e-01
Total Time: 9.260842e-01
