Clock Speed: 3.689330
Num threads: 4
Trotterisation: 4
Num Qubits: 5
Space Dimension: 32
Run-Type: 0
Num_samples: 4
Optimiser Method: 29
1 Isomorphic
Graph 1:
0 0 1 1 
0 0 0 1 
1 0 0 1 
1 1 1 0 
Graph 2:
0 0 1 1 
0 0 0 1 
1 0 0 1 
1 1 1 0 
Solution: 16 0
Classic Expectation: 10.666667
Initial Expecation: 8.000000
Gbest: 16.000000
Expectation: 13.061662
Final Parameters:
Gammas:
[ 6.179414 4.510981 5.135347 6.087089 ]
Betas:
[ 2.478906 2.892577 1.790293 1.620022 ]
Aggregate results:
[ 16 12 8 0 ]
[ 0.329612 0.619577 0.044118 0.006693 ]
5
Num Evals 3200
GenUC: 8.387258e-06
GenUB: 9.339070e-06
Optimisation 1.374096e+00
Total Time: 1.374142e+00
2 Flipped
Graph 1:
0 0 1 1 
0 0 0 1 
1 0 0 1 
1 1 1 0 
Graph 2:
1 1 0 0 
1 0 0 0 
1 0 0 1 
0 1 1 1 
Solution: 10 2
Classic Expectation: 8.000000
Initial Expecation: 6.000000
Gbest: 10.000000
Expectation: 9.388037
Final Parameters:
Gammas:
[ 3.279293 3.219560 3.413404 2.604166 ]
Betas:
[ 2.149892 1.585925 0.276260 2.956711 ]
Aggregate results:
[ 8 6 10 0 ]
[ 0.213638 0.035041 0.746868 0.004452 ]
5
Num Evals 3200
GenUC: 9.520387e-06
GenUB: 1.925335e-06
Optimisation 1.100133e+00
Total Time: 1.100147e+00
3 Add 4
Graph 1:
0 0 1 1 
0 0 0 1 
1 0 0 1 
1 1 1 0 
Graph 2:
1 1 1 1 
1 1 1 1 
1 1 0 1 
1 1 1 1 
Solution: 9 0
Classic Expectation: 9.000000
Initial Expecation: 6.750000
Gbest: 9.000000
Expectation: 9.000000
Final Parameters:
Gammas:
[ 2.907613 2.945243 4.538724 3.126883 ]
Betas:
[ 2.400458 1.271157 1.633838 1.663829 ]
Aggregate results:
[ 9 0 ]
[ 1.000000 0.000000 ]
4
Num Evals 626
GenUC: 8.871953e-06
GenUB: 1.584413e-06
Optimisation 2.257148e-01
Total Time: 2.257277e-01
4 Rem 4
Graph 1:
0 0 1 1 
0 0 0 1 
1 0 0 1 
1 1 1 0 
Graph 2:
0 0 0 0 
0 0 0 0 
0 0 0 1 
0 0 1 0 
Solution: 10 0
Classic Expectation: 8.666667
Initial Expecation: 6.500000
Gbest: 10.000000
Expectation: 9.914080
Final Parameters:
Gammas:
[ 1.361426 4.730073 1.874115 6.076448 ]
Betas:
[ 3.141593 2.215458 1.753147 1.808079 ]
Aggregate results:
[ 10 6 0 ]
[ 0.979699 0.019514 0.000786 ]
5
Num Evals 3200
GenUC: 9.111362e-06
GenUB: 1.305656e-06
Optimisation 1.272157e+00
Total Time: 1.272169e+00
5 Add/Rem 4
Graph 1:
0 0 1 1 
0 0 0 1 
1 0 0 1 
1 1 1 0 
Graph 2:
0 1 0 0 
1 0 1 0 
0 1 0 1 
0 0 1 1 
Solution: 13 4
Classic Expectation: 9.000000
Initial Expecation: 6.750000
Gbest: 13.000000
Expectation: 10.050500
Final Parameters:
Gammas:
[ 4.738025 4.447168 5.114282 4.527434 ]
Betas:
[ 0.751731 1.507292 1.158518 1.199493 ]
Aggregate results:
[ 5 9 13 0 ]
[ 0.082008 0.552400 0.359143 0.006449 ]
4
Num Evals 1965
GenUC: 9.063864e-06
GenUB: 1.263397e-06
Optimisation 5.758891e-01
Total Time: 5.759017e-01
