Clock Speed: 3.688745
Num threads: 4
Trotterisation: 4
Num Qubits: 5
Space Dimension: 32
Run-Type: 0
Num_samples: 6399
Optimiser Method: 29
1 Isomorphic
Graph 1:
1 0 0 0 
0 0 1 1 
0 0 1 0 
0 1 0 0 
Graph 2:
1 0 0 0 
0 0 1 1 
0 0 1 0 
0 1 0 0 
Solution: 16 0
Classic Expectation: 9.500000
Initial Expecation: 7.125000
Gbest: 16.000000
Expectation: 7.125000
Final Parameters:
Gammas:
[ 3.141593 3.141593 3.141593 3.141593 ]
Betas:
[ 1.202641 1.718058 1.570796 1.570796 ]
Aggregate results:
[ 16 12 8 10 14 6 0 ]
[ 0.031250 0.031250 0.250000 0.218750 0.093750 0.125000 0.250000 ]
3
Num Evals 72
GenUC: 8.383533e-06
GenUB: 9.165262e-06
Optimisation 2.347921e-02
Total Time: 2.351737e-02
2 Flipped
Graph 1:
1 0 0 0 
0 0 1 1 
0 0 1 0 
0 1 0 0 
Graph 2:
0 0 0 1 
1 1 0 0 
0 1 0 0 
0 0 1 0 
Solution: 12 2
Classic Expectation: 9.000000
Initial Expecation: 6.750000
Gbest: 12.000000
Expectation: 9.643503
Final Parameters:
Gammas:
[ 2.767219 3.603961 2.937530 4.481542 ]
Betas:
[ 1.438780 0.659274 1.158215 1.654780 ]
Aggregate results:
[ 6 8 12 10 0 ]
[ 0.008769 0.205660 0.169685 0.590939 0.024947 ]
3
Num Evals 1620
GenUC: 9.176380e-06
GenUB: 1.783948e-06
Optimisation 4.914519e-01
Total Time: 4.914646e-01
3 Add 4
Graph 1:
1 0 0 0 
0 0 1 1 
0 0 1 0 
0 1 0 0 
Graph 2:
1 0 1 0 
0 0 1 1 
0 0 1 1 
0 1 0 1 
Solution: 13 0
Classic Expectation: 8.500000
Initial Expecation: 6.375000
Gbest: 13.000000
Expectation: 9.958745
Final Parameters:
Gammas:
[ 2.819736 3.763166 2.075746 3.212605 ]
Betas:
[ 2.678600 0.122549 1.940537 0.980748 ]
Aggregate results:
[ 13 11 7 9 5 0 ]
[ 0.147184 0.413982 0.119894 0.288069 0.011934 0.018937 ]
5
Num Evals 3200
GenUC: 8.644711e-06
GenUB: 1.657812e-06
Optimisation 9.854342e-01
Total Time: 9.854467e-01
4 Rem 4
Graph 1:
1 0 0 0 
0 0 1 1 
0 0 1 0 
0 1 0 0 
Graph 2:
1 0 0 0 
0 0 0 1 
0 0 0 0 
0 1 0 0 
Solution: 14 0
Classic Expectation: 10.000000
Initial Expecation: 7.500000
Gbest: 14.000000
Expectation: 12.372393
Final Parameters:
Gammas:
[ 3.304864 3.527663 2.709557 2.826479 ]
Betas:
[ 2.525035 1.759885 1.321711 1.295446 ]
Aggregate results:
[ 14 12 10 8 0 ]
[ 0.614851 0.095559 0.194736 0.083802 0.011052 ]
5
Num Evals 3200
GenUC: 9.779062e-06
GenUB: 1.612061e-06
Optimisation 1.125031e+00
Total Time: 1.125045e+00
5 Add/Rem 4
Graph 1:
1 0 0 0 
0 0 1 1 
0 0 1 0 
0 1 0 0 
Graph 2:
0 0 0 0 
1 0 0 0 
0 0 1 0 
1 1 0 0 
Solution: 13 14
Classic Expectation: 9.500000
Initial Expecation: 7.125000
Gbest: 13.000000
Expectation: 10.852856
Final Parameters:
Gammas:
[ 3.330146 1.441464 3.613880 3.145241 ]
Betas:
[ 2.308488 1.406794 1.081614 2.553166 ]
Aggregate results:
[ 11 7 9 13 0 ]
[ 0.334235 0.196675 0.025172 0.428692 0.015226 ]
3
Num Evals 1525
GenUC: 9.373005e-06
GenUB: 1.502864e-06
Optimisation 5.653080e-01
Total Time: 5.653211e-01
