Clock Speed: 3.689186
Num threads: 4
Trotterisation: 4
Num Qubits: 5
Space Dimension: 32
Run-Type: 0
Num_samples: 6399
Optimiser Method: 29
1 Isomorphic
Graph 1:
0 0 0 0 
0 1 1 1 
1 1 0 1 
1 1 1 0 
Graph 2:
0 0 0 0 
0 1 1 1 
1 1 0 1 
1 1 1 0 
Solution: 16 0
Classic Expectation: 9.166667
Initial Expecation: 6.875000
Gbest: 16.000000
Expectation: 6.875000
Final Parameters:
Gammas:
[ 4.712389 3.141593 3.141593 3.141593 ]
Betas:
[ 1.570796 1.570796 1.570796 1.570796 ]
Aggregate results:
[ 16 12 10 8 6 0 ]
[ 0.062500 0.125000 0.062500 0.375000 0.125000 0.250000 ]
3
Num Evals 181
GenUC: 8.441450e-06
GenUB: 9.502401e-06
Optimisation 1.351172e-01
Total Time: 1.351558e-01
2 Flipped
Graph 1:
0 0 0 0 
0 1 1 1 
1 1 0 1 
1 1 1 0 
Graph 2:
0 0 0 0 
1 1 1 0 
1 0 1 1 
0 1 1 1 
Solution: 12 4
Classic Expectation: 7.500000
Initial Expecation: 5.625000
Gbest: 12.000000
Expectation: 8.751964
Final Parameters:
Gammas:
[ 3.302007 3.365459 2.751299 3.368303 ]
Betas:
[ 2.399748 1.034971 1.349788 1.438635 ]
Aggregate results:
[ 10 12 6 8 0 ]
[ 0.266271 0.204186 0.284134 0.241776 0.003632 ]
3
Num Evals 1290
GenUC: 9.212585e-06
GenUB: 1.898967e-06
Optimisation 6.110880e-01
Total Time: 6.111013e-01
3 Add 4
Graph 1:
0 0 0 0 
0 1 1 1 
1 1 0 1 
1 1 1 0 
Graph 2:
0 1 1 1 
0 1 1 1 
1 1 0 1 
1 1 1 0 
Solution: 13 0
Classic Expectation: 10.166667
Initial Expecation: 7.625000
Gbest: 13.000000
Expectation: 10.830379
Final Parameters:
Gammas:
[ 3.610488 2.519455 3.533058 3.763406 ]
Betas:
[ 3.141593 2.164173 1.906570 1.730381 ]
Aggregate results:
[ 13 9 11 0 ]
[ 0.164077 0.244327 0.590766 0.000829 ]
3
Num Evals 1440
GenUC: 9.071664e-06
GenUB: 2.102577e-06
Optimisation 7.204847e-01
Total Time: 7.204985e-01
4 Rem 4
Graph 1:
0 0 0 0 
0 1 1 1 
1 1 0 1 
1 1 1 0 
Graph 2:
0 0 0 0 
0 1 1 0 
1 1 0 0 
1 0 0 0 
Solution: 12 0
Classic Expectation: 7.833333
Initial Expecation: 5.875000
Gbest: 12.000000
Expectation: 8.118980
Final Parameters:
Gammas:
[ 3.906097 3.358852 5.202459 3.456464 ]
Betas:
[ 1.287662 0.937224 1.779749 2.160704 ]
Aggregate results:
[ 12 8 6 10 0 ]
[ 0.017108 0.414928 0.170428 0.357169 0.040367 ]
5
Num Evals 3200
GenUC: 9.753567e-06
GenUB: 1.832086e-06
Optimisation 1.194586e+00
Total Time: 1.194600e+00
5 Add/Rem 4
Graph 1:
0 0 0 0 
0 1 1 1 
1 1 0 1 
1 1 1 0 
Graph 2:
0 0 1 1 
0 1 0 1 
1 1 1 1 
0 1 0 0 
Solution: 10 0
Classic Expectation: 8.333333
Initial Expecation: 6.250000
Gbest: 10.000000
Expectation: 8.958168
Final Parameters:
Gammas:
[ 2.181663 4.193094 2.253057 3.631563 ]
Betas:
[ 0.818034 2.772385 2.345926 0.000000 ]
Aggregate results:
[ 10 8 4 6 0 ]
[ 0.614615 0.322656 0.001275 0.037612 0.023842 ]
5
Num Evals 3200
GenUC: 9.332842e-06
GenUB: 1.607346e-06
Optimisation 1.086985e+00
Total Time: 1.086998e+00
