Clock Speed: 3.689136
Num threads: 4
Trotterisation: 4
Graph Size: 7
Num Qubits: 13
Space Dimension: 8192
Run-Type: 0
Num_samples: 10
1 Isomorphic
Graph 1:
0 0 0 0 1 0 0 
0 1 1 0 1 0 1 
0 1 0 1 0 1 0 
1 1 1 1 0 0 1 
1 1 1 0 0 0 0 
0 0 0 0 0 0 1 
0 1 0 0 0 0 0 
Graph 2:
0 0 0 0 1 0 0 
0 1 1 0 1 0 1 
0 1 0 1 0 1 0 
1 1 1 1 0 0 1 
1 1 1 0 0 0 0 
0 0 0 0 0 0 1 
0 1 0 0 0 0 0 
Solution: 0 0
Gbest: -12.000000
Expectation: -20.414600
Final Parameters:
Gammas:
[ 3.165058 3.186238 2.967188 3.174833 ]
Betas:
[ 1.563350 1.071749 2.417691 1.653153 1.646940 ]
Aggregate results:
[ -1 9 15 11 17 21 23 25 19 13 7 29 27 31 33 48 ]
[ 0.000301 0.007426 0.128699 0.020578 0.194308 0.180486 0.103269 0.036268 0.230986 0.051158 0.002906 0.003718 0.012423 0.001143 0.000053 0.026278 ]
5
Num Evals 700
GenUC: 1.468921e-03
GenUB: 2.054047e-03
Optimisation 9.000073e+00
Total Time: 9.016678e+00
2 Flipped
Graph 1:
0 0 0 0 1 0 0 
0 1 1 0 1 0 1 
0 1 0 1 0 1 0 
1 1 1 1 0 0 1 
1 1 1 0 0 0 0 
0 0 0 0 0 0 1 
0 1 0 0 0 0 0 
Graph 2:
0 0 1 0 0 0 0 
1 0 1 0 1 1 0 
0 1 0 1 0 1 0 
1 0 0 1 1 1 1 
0 0 0 0 1 1 1 
1 0 0 0 0 0 0 
0 0 0 0 0 1 0 
Solution: -12 649
Gbest: -18.000000
Expectation: -20.752285
Final Parameters:
Gammas:
[ 3.163890 3.182913 2.970598 2.926298 ]
Betas:
[ 1.439425 1.066687 2.411867 1.704994 1.596293 ]
Aggregate results:
[ 19 21 25 23 27 17 15 13 29 31 11 33 48 ]
[ 0.267151 0.212619 0.030302 0.105860 0.008174 0.231523 0.095465 0.024027 0.002634 0.000493 0.000454 0.000051 0.021246 ]
5
Num Evals 1400
GenUC: 1.123970e-03
GenUB: 1.586207e-03
Optimisation 9.548943e+00
Total Time: 9.564408e+00
3 Add 7
Graph 1:
0 0 0 0 1 0 0 
0 1 1 0 1 0 1 
0 1 0 1 0 1 0 
1 1 1 1 0 0 1 
1 1 1 0 0 0 0 
0 0 0 0 0 0 1 
0 1 0 0 0 0 0 
Graph 2:
0 0 1 1 1 1 0 
0 1 1 1 1 0 1 
0 1 0 1 0 1 0 
1 1 1 1 0 0 1 
1 1 1 0 0 0 1 
0 0 0 0 0 0 1 
0 1 1 0 0 0 1 
Solution: -7 0
Gbest: -17.000000
Expectation: -24.806824
Final Parameters:
Gammas:
[ 3.113744 3.160532 3.115090 3.178866 ]
Betas:
[ 1.747283 1.162078 1.446544 2.483160 1.762421 ]
Aggregate results:
[ 6 14 20 12 18 28 22 16 26 24 10 30 8 32 34 48 ]
[ 0.000510 0.009706 0.126212 0.002280 0.071653 0.109167 0.191800 0.027843 0.161922 0.210510 0.000450 0.057245 0.000419 0.018547 0.002818 0.008917 ]
5
Num Evals 2100
GenUC: 1.275719e-03
GenUB: 1.663299e-03
Optimisation 1.054669e+01
Total Time: 1.056138e+01
4 Rem 7
Graph 1:
0 0 0 0 1 0 0 
0 1 1 0 1 0 1 
0 1 0 1 0 1 0 
1 1 1 1 0 0 1 
1 1 1 0 0 0 0 
0 0 0 0 0 0 1 
0 1 0 0 0 0 0 
Graph 2:
0 0 0 0 0 0 0 
0 0 1 0 1 0 1 
0 0 0 1 0 0 0 
1 0 1 1 0 0 1 
1 1 1 0 0 0 0 
0 0 0 0 0 0 1 
0 1 0 0 0 0 0 
Solution: -5 0
Gbest: -13.000000
Expectation: -21.993666
Final Parameters:
Gammas:
[ 3.163668 3.116862 3.099874 3.071582 ]
Betas:
[ 1.323806 2.026060 2.012304 2.668770 1.196775 ]
Aggregate results:
[ 4 10 14 12 8 16 20 18 22 24 26 28 30 6 48 ]
[ 0.000551 0.003440 0.039540 0.014619 0.000489 0.097592 0.227176 0.170155 0.208042 0.141651 0.056093 0.015185 0.001379 0.000032 0.024055 ]
5
Num Evals 2800
GenUC: 1.038870e-03
GenUB: 1.587700e-03
Optimisation 9.470120e+00
Total Time: 9.486055e+00
5 Add/Rem 7
Graph 1:
0 0 0 0 1 0 0 
0 1 1 0 1 0 1 
0 1 0 1 0 1 0 
1 1 1 1 0 0 1 
1 1 1 0 0 0 0 
0 0 0 0 0 0 1 
0 1 0 0 0 0 0 
Graph 2:
1 0 1 0 0 0 0 
0 1 1 0 0 0 1 
0 1 0 0 0 1 0 
1 1 1 1 0 0 1 
1 1 0 1 1 0 0 
0 0 0 0 1 1 0 
0 1 0 0 0 0 0 
Solution: -11 0
Gbest: -19.000000
Expectation: -23.779720
Final Parameters:
Gammas:
[ 3.110662 3.181632 3.110361 2.844117 ]
Betas:
[ 1.510021 2.099933 1.376338 2.107151 1.561371 ]
Aggregate results:
[ 10 16 20 18 24 22 26 28 30 14 12 32 34 48 ]
[ 0.000433 0.033057 0.169990 0.090490 0.232963 0.239520 0.135427 0.052680 0.014643 0.011207 0.004044 0.001820 0.000043 0.013681 ]
5
Num Evals 3500
GenUC: 1.228772e-03
GenUB: 1.795189e-03
Optimisation 9.229542e+00
Total Time: 9.245711e+00
