Clock Speed: 3.689273
Num threads: 4
Trotterisation: 4
Graph Size: 7
Num Qubits: 13
Space Dimension: 8192
Run-Type: 0
Num_samples: 10
1 Isomorphic
Graph 1:
0 1 1 0 0 1 0 
1 0 0 1 0 0 0 
0 0 0 1 1 1 0 
1 0 1 0 0 0 1 
0 1 0 0 1 1 1 
1 1 0 1 1 1 0 
0 1 1 0 0 1 1 
Graph 2:
0 1 1 0 0 1 0 
1 0 0 1 0 0 0 
0 0 0 1 1 1 0 
1 0 1 0 0 0 1 
0 1 0 0 1 1 1 
1 1 0 1 1 1 0 
0 1 1 0 0 1 1 
Solution: 0 0
Gbest: -16.000000
Expectation: -22.824253
Final Parameters:
Gammas:
[ 3.105920 3.109736 2.963215 3.370269 ]
Betas:
[ 1.642288 1.548983 2.504523 1.707417 1.580117 ]
Aggregate results:
[ -1 11 17 13 15 19 21 9 27 25 29 23 31 7 33 37 35 48 ]
[ 0.000007 0.001891 0.142311 0.022529 0.068457 0.197702 0.231138 0.003129 0.028151 0.087964 0.009307 0.141948 0.004960 0.001097 0.002212 0.000076 0.003604 0.053515 ]
5
Num Evals 700
GenUC: 1.542856e-03
GenUB: 2.023356e-03
Optimisation 9.437086e+00
Total Time: 9.453996e+00
2 Flipped
Graph 1:
0 1 1 0 0 1 0 
1 0 0 1 0 0 0 
0 0 0 1 1 1 0 
1 0 1 0 0 0 1 
0 1 0 0 1 1 1 
1 1 0 1 1 1 0 
0 1 1 0 0 1 1 
Graph 2:
0 1 0 0 1 1 0 
0 0 0 1 0 0 1 
0 1 1 1 0 0 0 
1 0 0 0 1 0 1 
1 1 1 0 0 1 0 
0 1 1 1 0 1 1 
1 1 0 0 1 1 0 
Solution: -8 4982
Gbest: -16.000000
Expectation: -22.482224
Final Parameters:
Gammas:
[ 3.159959 3.184270 2.958988 2.881561 ]
Betas:
[ 1.538007 1.036628 2.416770 1.701524 1.588634 ]
Aggregate results:
[ 21 27 25 19 17 23 29 15 31 11 13 33 35 37 9 7 48 ]
[ 0.226352 0.033036 0.081929 0.205883 0.134665 0.178536 0.012467 0.061569 0.006523 0.000970 0.018946 0.003216 0.001001 0.000227 0.001144 0.000796 0.032740 ]
5
Num Evals 1400
GenUC: 1.255003e-03
GenUB: 1.768682e-03
Optimisation 1.073607e+01
Total Time: 1.075158e+01
3 Add 7
Graph 1:
0 1 1 0 0 1 0 
1 0 0 1 0 0 0 
0 0 0 1 1 1 0 
1 0 1 0 0 0 1 
0 1 0 0 1 1 1 
1 1 0 1 1 1 0 
0 1 1 0 0 1 1 
Graph 2:
0 1 1 0 0 1 0 
1 0 1 1 0 0 0 
1 0 1 1 1 1 0 
1 0 1 1 0 0 1 
1 1 0 0 1 1 1 
1 1 0 1 1 1 0 
1 1 1 0 0 1 1 
Solution: -6 0
Gbest: -18.000000
Expectation: -23.346827
Final Parameters:
Gammas:
[ 3.165854 3.186032 3.327859 3.155818 ]
Betas:
[ 1.386110 1.241206 2.381296 1.522943 1.465482 ]
Aggregate results:
[ 5 11 17 15 19 13 21 23 29 27 25 31 33 9 35 37 48 ]
[ 0.000174 0.001525 0.105442 0.044126 0.180527 0.008801 0.237392 0.197052 0.015431 0.048746 0.107501 0.006440 0.003756 0.000122 0.001321 0.000728 0.040915 ]
5
Num Evals 2100
GenUC: 1.286399e-03
GenUB: 1.795001e-03
Optimisation 9.478890e+00
Total Time: 9.496169e+00
4 Rem 7
Graph 1:
0 1 1 0 0 1 0 
1 0 0 1 0 0 0 
0 0 0 1 1 1 0 
1 0 1 0 0 0 1 
0 1 0 0 1 1 1 
1 1 0 1 1 1 0 
0 1 1 0 0 1 1 
Graph 2:
0 1 1 0 0 0 0 
0 0 0 1 0 0 0 
0 0 0 1 1 0 0 
1 0 1 0 0 0 1 
0 1 0 0 1 0 1 
1 1 0 0 1 1 0 
0 0 1 0 0 1 0 
Solution: -7 0
Gbest: -23.000000
Expectation: -24.842817
Final Parameters:
Gammas:
[ 3.110355 3.156934 3.117137 3.181596 ]
Betas:
[ 1.661060 1.113161 1.517775 2.493258 1.718958 ]
Aggregate results:
[ 6 14 20 18 22 16 24 26 28 30 32 34 12 36 8 10 48 ]
[ 0.000364 0.009559 0.132658 0.065634 0.189249 0.027429 0.218774 0.161962 0.110240 0.048813 0.018341 0.003982 0.002074 0.000534 0.000154 0.000043 0.010190 ]
5
Num Evals 2800
GenUC: 1.278184e-03
GenUB: 1.696306e-03
Optimisation 9.151778e+00
Total Time: 9.167556e+00
5 Add/Rem 7
Graph 1:
0 1 1 0 0 1 0 
1 0 0 1 0 0 0 
0 0 0 1 1 1 0 
1 0 1 0 0 0 1 
0 1 0 0 1 1 1 
1 1 0 1 1 1 0 
0 1 1 0 0 1 1 
Graph 2:
1 1 0 0 0 1 0 
1 0 0 1 0 0 0 
1 1 1 1 1 1 0 
1 0 0 0 0 0 0 
0 1 1 0 1 1 1 
0 1 0 1 1 1 0 
1 1 0 0 0 1 1 
Solution: -11 0
Gbest: -21.000000
Expectation: -26.171039
Final Parameters:
Gammas:
[ 3.273575 3.123773 3.196147 3.106550 ]
Betas:
[ 1.400442 1.389840 1.609757 2.209975 1.423249 ]
Aggregate results:
[ 10 18 20 16 12 14 22 28 30 24 26 32 34 36 48 ]
[ 0.000248 0.076131 0.128989 0.023222 0.001025 0.005487 0.197138 0.100317 0.040449 0.185510 0.152077 0.014864 0.003958 0.000512 0.070072 ]
5
Num Evals 3500
GenUC: 1.242077e-03
GenUB: 1.738334e-03
Optimisation 9.094602e+00
Total Time: 9.110407e+00
