Clock Speed: 3.688894
Num threads: 4
Trotterisation: 4
Num Qubits: 10
Space Dimension: 1024
Run-Type: 0
Num_samples: 32399
Optimiser Method: 20
1 Isomorphic
Graph 1:
0 1 1 1 0 1 
1 0 0 0 1 0 
1 1 1 0 0 0 
1 0 1 1 1 0 
0 1 0 1 0 1 
0 1 1 0 0 1 
Graph 2:
0 1 1 1 0 1 
1 0 0 0 1 0 
1 1 1 0 0 0 
1 0 1 1 1 0 
0 1 0 1 0 1 
0 1 1 0 0 1 
Solution: 36 0
Classic Expectation: 18.066667
Initial Expecation: 12.703125
Gbest: 36.000000
Expectation: 15.276422
Final Parameters:
Gammas:
[ 6.020360 3.653321 1.133651 3.659901 ]
Betas:
[ 2.593461 3.139984 2.915646 1.319737 ]
Aggregate results:
[ 36 22 20 30 26 18 24 16 28 12 14 10 32 0 ]
[ 0.000224 0.086196 0.206992 0.001415 0.020130 0.178395 0.031499 0.160152 0.003534 0.052523 0.094212 0.005618 0.001014 0.158095 ]
5
Num Evals 4800
GenUC: 2.595931e-04
GenUB: 9.177654e-05
Optimisation 1.370917e+01
Total Time: 1.370955e+01
2 Flipped
Graph 1:
0 1 1 1 0 1 
1 0 0 0 1 0 
1 1 1 0 0 0 
1 0 1 1 1 0 
0 1 0 1 0 1 
0 1 1 0 0 1 
Graph 2:
1 0 1 1 1 0 
0 1 0 0 0 1 
0 0 0 1 1 1 
0 1 1 1 0 1 
1 0 1 0 1 0 
1 0 0 1 1 0 
Solution: 26 100
Classic Expectation: 18.000000
Initial Expecation: 12.656250
Gbest: 26.000000
Expectation: 14.323901
Final Parameters:
Gammas:
[ 1.984385 2.960543 6.155058 2.975911 ]
Betas:
[ 1.854319 2.610278 0.992967 0.296468 ]
Aggregate results:
[ 6 20 12 22 14 18 16 24 10 8 26 0 ]
[ 0.001418 0.161355 0.049306 0.078434 0.065500 0.198336 0.184709 0.037264 0.013650 0.003831 0.010277 0.195920 ]
5
Num Evals 4800
GenUC: 3.054180e-04
GenUB: 5.889375e-05
Optimisation 1.089061e+01
Total Time: 1.089098e+01
3 Add 6
Graph 1:
0 1 1 1 0 1 
1 0 0 0 1 0 
1 1 1 0 0 0 
1 0 1 1 1 0 
0 1 0 1 0 1 
0 1 1 0 0 1 
Graph 2:
0 1 1 1 0 1 
1 0 0 1 1 0 
1 1 1 0 1 1 
1 0 1 1 1 1 
0 1 0 1 1 1 
0 1 1 0 0 1 
Solution: 31 0
Classic Expectation: 18.333333
Initial Expecation: 12.890625
Gbest: 31.000000
Expectation: 14.778500
Final Parameters:
Gammas:
[ 4.514922 1.388131 3.952165 1.955457 ]
Betas:
[ 2.530781 1.213073 1.839534 0.246063 ]
Aggregate results:
[ 31 21 23 17 25 19 27 11 15 13 29 9 0 ]
[ 0.003846 0.177692 0.063362 0.178853 0.020999 0.179892 0.004530 0.008386 0.106858 0.033169 0.007468 0.002417 0.212526 ]
5
Num Evals 4800
GenUC: 2.822673e-04
GenUB: 5.125080e-05
Optimisation 1.078915e+01
Total Time: 1.078949e+01
4 Rem 6
Graph 1:
0 1 1 1 0 1 
1 0 0 0 1 0 
1 1 1 0 0 0 
1 0 1 1 1 0 
0 1 0 1 0 1 
0 1 1 0 0 1 
Graph 2:
0 1 1 1 0 0 
1 0 0 0 1 0 
1 0 1 0 0 0 
1 0 1 1 0 0 
0 0 0 1 0 0 
0 1 1 0 0 1 
Solution: 31 0
Classic Expectation: 17.733333
Initial Expecation: 12.468750
Gbest: 31.000000
Expectation: 13.543791
Final Parameters:
Gammas:
[ 5.394147 4.072810 6.030117 0.069537 ]
Betas:
[ 2.212335 1.189293 1.828094 2.981004 ]
Aggregate results:
[ 31 23 21 17 27 25 19 15 13 11 9 0 ]
[ 0.002278 0.039542 0.102621 0.175739 0.003754 0.035016 0.194933 0.136150 0.039798 0.014675 0.002174 0.253320 ]
5
Num Evals 4800
GenUC: 2.801359e-04
GenUB: 5.104538e-05
Optimisation 1.207414e+01
Total Time: 1.207448e+01
5 Add/Rem 6
Graph 1:
0 1 1 1 0 1 
1 0 0 0 1 0 
1 1 1 0 0 0 
1 0 1 1 1 0 
0 1 0 1 0 1 
0 1 1 0 0 1 
Graph 2:
0 0 1 1 0 0 
1 1 1 0 1 0 
1 0 0 0 0 1 
1 0 1 1 0 0 
1 0 0 1 0 1 
1 1 1 0 1 1 
Solution: 28 33
Classic Expectation: 18.066667
Initial Expecation: 12.703125
Gbest: 28.000000
Expectation: 15.774274
Final Parameters:
Gammas:
[ 0.253564 4.854490 3.488672 3.482266 ]
Betas:
[ 2.613777 1.404077 0.321176 1.379926 ]
Aggregate results:
[ 24 16 14 18 10 20 12 26 22 28 8 0 ]
[ 0.061302 0.144137 0.093490 0.209353 0.009021 0.187578 0.034023 0.008565 0.110641 0.000419 0.000129 0.141341 ]
5
Num Evals 4800
GenUC: 2.809187e-04
GenUB: 5.019276e-05
Optimisation 9.919798e+00
Total Time: 9.920132e+00
