Clock Speed: 3.688793
Num threads: 4
Trotterisation: 4
Num Qubits: 10
Space Dimension: 1024
Run-Type: 0
Num_samples: 32399
Optimiser Method: 20
1 Isomorphic
Graph 1:
0 1 1 0 1 0 
1 0 1 1 1 0 
0 0 1 1 1 0 
1 0 1 0 0 1 
1 0 0 1 0 0 
1 1 0 1 1 1 
Graph 2:
0 1 1 0 1 0 
1 0 1 1 1 0 
0 0 1 1 1 0 
1 0 1 0 0 1 
1 0 0 1 0 0 
1 1 0 1 1 1 
Solution: 36 0
Classic Expectation: 18.933333
Initial Expecation: 13.312500
Gbest: 36.000000
Expectation: 18.740501
Final Parameters:
Gammas:
[ 4.843996 4.618451 3.066358 3.139908 ]
Betas:
[ 3.091258 1.065273 1.485175 1.386230 ]
Aggregate results:
[ 36 22 28 16 24 18 26 20 14 30 10 12 0 ]
[ 0.003572 0.190995 0.014249 0.117050 0.074995 0.221751 0.039540 0.212784 0.047542 0.005405 0.003318 0.016852 0.051947 ]
5
Num Evals 4800
GenUC: 2.605277e-04
GenUB: 9.381381e-05
Optimisation 1.167995e+01
Total Time: 1.168032e+01
2 Flipped
Graph 1:
0 1 1 0 1 0 
1 0 1 1 1 0 
0 0 1 1 1 0 
1 0 1 0 0 1 
1 0 0 1 0 0 
1 1 0 1 1 1 
Graph 2:
0 1 0 1 1 0 
0 1 1 1 0 1 
0 1 1 1 0 0 
1 0 0 1 0 1 
0 0 1 0 0 1 
1 1 1 0 1 1 
Solution: 26 151
Classic Expectation: 17.866667
Initial Expecation: 12.562500
Gbest: 26.000000
Expectation: 16.933609
Final Parameters:
Gammas:
[ 2.864819 2.987649 2.818656 1.516265 ]
Betas:
[ 0.401360 2.981248 1.393961 1.592639 ]
Aggregate results:
[ 20 14 22 16 18 24 12 26 10 0 ]
[ 0.241354 0.031103 0.137980 0.096179 0.213265 0.096030 0.026158 0.022061 0.006569 0.129301 ]
5
Num Evals 4800
GenUC: 2.830042e-04
GenUB: 5.026453e-05
Optimisation 1.068580e+01
Total Time: 1.068614e+01
3 Add 6
Graph 1:
0 1 1 0 1 0 
1 0 1 1 1 0 
0 0 1 1 1 0 
1 0 1 0 0 1 
1 0 0 1 0 0 
1 1 0 1 1 1 
Graph 2:
0 1 1 1 1 1 
1 0 1 1 1 0 
0 0 1 1 1 1 
1 1 1 0 0 1 
1 0 1 1 0 1 
1 1 0 1 1 1 
Solution: 30 0
Classic Expectation: 20.133333
Initial Expecation: 14.156250
Gbest: 30.000000
Expectation: 16.057127
Final Parameters:
Gammas:
[ 1.317705 3.665989 5.986607 2.120838 ]
Betas:
[ 0.815892 0.939799 2.374987 0.629076 ]
Aggregate results:
[ 30 22 28 24 18 20 16 26 14 0 ]
[ 0.000422 0.200945 0.006059 0.090454 0.156283 0.229577 0.072780 0.020525 0.012883 0.210072 ]
5
Num Evals 4800
GenUC: 2.806903e-04
GenUB: 5.116529e-05
Optimisation 1.079631e+01
Total Time: 1.079665e+01
4 Rem 6
Graph 1:
0 1 1 0 1 0 
1 0 1 1 1 0 
0 0 1 1 1 0 
1 0 1 0 0 1 
1 0 0 1 0 0 
1 1 0 1 1 1 
Graph 2:
0 1 0 0 1 0 
1 0 1 1 0 0 
0 0 1 1 1 0 
1 0 1 0 0 0 
1 0 0 0 0 0 
1 1 0 0 1 1 
Solution: 31 0
Classic Expectation: 17.933333
Initial Expecation: 12.609375
Gbest: 31.000000
Expectation: 15.982305
Final Parameters:
Gammas:
[ 5.023151 3.282683 4.201510 1.683744 ]
Betas:
[ 0.708703 2.560600 0.854311 1.590736 ]
Aggregate results:
[ 31 21 27 19 25 23 17 13 15 11 9 7 0 ]
[ 0.000537 0.154564 0.010546 0.196958 0.018980 0.066686 0.218079 0.058970 0.130389 0.020135 0.003440 0.000334 0.120381 ]
5
Num Evals 4800
GenUC: 2.808024e-04
GenUB: 5.127618e-05
Optimisation 1.044199e+01
Total Time: 1.044233e+01
5 Add/Rem 6
Graph 1:
0 1 1 0 1 0 
1 0 1 1 1 0 
0 0 1 1 1 0 
1 0 1 0 0 1 
1 0 0 1 0 0 
1 1 0 1 1 1 
Graph 2:
1 0 1 1 1 0 
1 0 0 0 1 0 
0 0 1 1 1 0 
0 0 1 1 0 1 
1 0 0 1 1 0 
1 0 1 1 1 1 
Solution: 26 0
Classic Expectation: 17.333333
Initial Expecation: 12.187500
Gbest: 26.000000
Expectation: 14.698752
Final Parameters:
Gammas:
[ 2.457337 6.040982 2.450877 4.317809 ]
Betas:
[ 2.571233 0.415357 0.577030 3.109244 ]
Aggregate results:
[ 26 16 20 18 22 10 14 12 24 0 ]
[ 0.002141 0.219176 0.143935 0.255669 0.061932 0.005119 0.127319 0.024602 0.006840 0.153268 ]
5
Num Evals 4800
GenUC: 2.814003e-04
GenUB: 4.955969e-05
Optimisation 1.078182e+01
Total Time: 1.078215e+01
