Clock Speed: 3.689273
Num threads: 4
Trotterisation: 4
Num Qubits: 10
Space Dimension: 1024
Run-Type: 0
Num_samples: 32399
Optimiser Method: 20
1 Isomorphic
Graph 1:
1 1 0 1 0 1 
0 0 0 1 1 1 
1 1 0 1 1 0 
1 1 0 0 1 1 
1 1 0 1 1 1 
1 0 0 1 0 1 
Graph 2:
1 1 0 1 0 1 
0 0 0 1 1 1 
1 1 0 1 1 0 
1 1 0 0 1 1 
1 1 0 1 1 1 
1 0 0 1 0 1 
Solution: 36 0
Classic Expectation: 19.666667
Initial Expecation: 13.828125
Gbest: 36.000000
Expectation: 16.872144
Final Parameters:
Gammas:
[ 3.715767 5.561940 2.926338 6.118887 ]
Betas:
[ 0.291901 2.776035 2.631478 1.010372 ]
Aggregate results:
[ 36 28 30 26 24 18 22 20 16 32 14 0 ]
[ 0.000493 0.030235 0.007705 0.030859 0.072365 0.231482 0.101041 0.207706 0.137605 0.002604 0.029204 0.148700 ]
5
Num Evals 4800
GenUC: 2.599251e-04
GenUB: 8.727197e-05
Optimisation 9.117874e+00
Total Time: 9.118248e+00
2 Flipped
Graph 1:
1 1 0 1 0 1 
0 0 0 1 1 1 
1 1 0 1 1 0 
1 1 0 0 1 1 
1 1 0 1 1 1 
1 0 0 1 0 1 
Graph 2:
1 0 1 0 1 1 
1 1 1 0 0 0 
0 1 1 0 1 1 
1 1 0 0 1 1 
1 1 1 0 1 1 
1 0 1 0 0 1 
Solution: 30 129
Classic Expectation: 19.000000
Initial Expecation: 13.359375
Gbest: 30.000000
Expectation: 17.722678
Final Parameters:
Gammas:
[ 0.078101 6.283185 2.551655 0.573976 ]
Betas:
[ 0.245239 1.980091 1.201164 2.922033 ]
Aggregate results:
[ 18 14 16 26 22 24 20 28 30 0 ]
[ 0.245319 0.054147 0.207300 0.096559 0.074891 0.078296 0.123458 0.024797 0.001045 0.094188 ]
5
Num Evals 4800
GenUC: 3.046512e-04
GenUB: 5.465699e-05
Optimisation 1.015935e+01
Total Time: 1.015972e+01
3 Add 6
Graph 1:
1 1 0 1 0 1 
0 0 0 1 1 1 
1 1 0 1 1 0 
1 1 0 0 1 1 
1 1 0 1 1 1 
1 0 0 1 0 1 
Graph 2:
1 1 0 1 0 1 
0 0 0 1 1 1 
1 1 0 1 1 0 
1 1 0 1 1 1 
1 1 0 1 1 1 
1 1 1 1 0 1 
Solution: 33 0
Classic Expectation: 20.333333
Initial Expecation: 14.296875
Gbest: 33.000000
Expectation: 18.625601
Final Parameters:
Gammas:
[ 0.267183 6.283185 1.093492 2.194188 ]
Betas:
[ 2.755471 2.177041 3.004827 0.880028 ]
Aggregate results:
[ 33 27 29 23 19 21 25 17 15 31 13 0 ]
[ 0.000475 0.069041 0.021450 0.121387 0.200365 0.156222 0.132958 0.124971 0.035599 0.005663 0.006637 0.125232 ]
5
Num Evals 4800
GenUC: 2.795864e-04
GenUB: 5.098281e-05
Optimisation 1.282055e+01
Total Time: 1.282088e+01
4 Rem 6
Graph 1:
1 1 0 1 0 1 
0 0 0 1 1 1 
1 1 0 1 1 0 
1 1 0 0 1 1 
1 1 0 1 1 1 
1 0 0 1 0 1 
Graph 2:
1 1 0 1 0 0 
0 0 0 0 1 1 
1 1 0 1 0 0 
1 1 0 0 1 1 
1 1 0 1 1 0 
1 0 0 0 0 0 
Solution: 30 0
Classic Expectation: 18.000000
Initial Expecation: 12.656250
Gbest: 30.000000
Expectation: 15.563704
Final Parameters:
Gammas:
[ 4.978665 4.800645 1.264901 3.524301 ]
Betas:
[ 2.976278 0.278776 1.536898 1.534213 ]
Aggregate results:
[ 30 28 26 22 24 20 18 14 16 12 10 8 0 ]
[ 0.003237 0.007382 0.021043 0.160079 0.110990 0.131073 0.144296 0.065810 0.112888 0.044705 0.002657 0.002246 0.193596 ]
5
Num Evals 4800
GenUC: 2.792249e-04
GenUB: 5.144585e-05
Optimisation 1.041613e+01
Total Time: 1.041646e+01
5 Add/Rem 6
Graph 1:
1 1 0 1 0 1 
0 0 0 1 1 1 
1 1 0 1 1 0 
1 1 0 0 1 1 
1 1 0 1 1 1 
1 0 0 1 0 1 
Graph 2:
1 1 1 1 0 1 
0 0 0 0 0 0 
1 0 1 1 1 0 
1 1 1 0 1 0 
1 1 1 1 1 1 
1 1 0 1 0 0 
Solution: 29 21
Classic Expectation: 19.333333
Initial Expecation: 13.593750
Gbest: 27.000000
Expectation: 15.317813
Final Parameters:
Gammas:
[ 1.344346 5.173176 4.696306 5.041126 ]
Betas:
[ 0.657461 0.184945 0.443165 1.428342 ]
Aggregate results:
[ 25 19 21 23 17 29 15 13 27 11 0 ]
[ 0.029547 0.249002 0.199117 0.085125 0.163563 0.000049 0.050514 0.008589 0.000707 0.003482 0.210304 ]
5
Num Evals 4800
GenUC: 3.044399e-04
GenUB: 5.443930e-05
Optimisation 7.124148e+00
Total Time: 7.124510e+00
