Clock Speed: 3.689438
Num threads: 4
Trotterisation: 3
Num Qubits: 10
Space Dimension: 1024
Run-Type: 0
Num_samples: 6
Optimiser Method: 0
1 Isomorphic
Graph 1:
0 0 1 0 0 0 
0 0 0 1 0 0 
1 0 0 1 0 1 
0 1 1 0 0 0 
0 0 0 0 0 0 
0 0 1 0 0 0 
Graph 2:
0 0 1 0 0 0 
0 0 0 1 0 0 
1 0 0 1 0 1 
0 1 1 0 0 0 
0 0 0 0 0 0 
0 0 1 0 0 0 
Solution: 36 0
Classic Expectation: 24.266667
Initial Expecation: 17.062500
Gbest: 28.000000
Expectation: 22.189876
Final Parameters:
Gammas:
[ 6.165394 3.144576 2.946710 ]
Betas:
[ 1.939255 1.590189 2.518158 ]
Aggregate results:
[ 36 32 28 24 20 0 ]
[ 0.005886 0.043728 0.262762 0.417877 0.159616 0.110132 ]
5
Num Evals 3600
GenUC: 2.597075e-04
GenUB: 8.662080e-05
Optimisation 5.534500e+01
Total Time: 5.534537e+01
2 Flipped
Graph 1:
0 0 1 0 0 0 
0 0 0 1 0 0 
1 0 0 1 0 1 
0 1 1 0 0 0 
0 0 0 0 0 0 
0 0 1 0 0 0 
Graph 2:
0 0 0 1 0 0 
0 0 1 0 0 0 
1 0 1 0 0 1 
0 0 0 1 1 0 
0 0 0 0 0 0 
0 0 0 1 0 0 
Solution: 28 34
Classic Expectation: 23.200000
Initial Expecation: 16.312500
Gbest: 26.000000
Expectation: 19.888801
Final Parameters:
Gammas:
[ 3.839724 1.047198 5.003277 ]
Betas:
[ 0.471885 2.928275 2.385283 ]
Aggregate results:
[ 24 22 26 20 28 0 ]
[ 0.232067 0.320220 0.184039 0.104507 0.014257 0.144910 ]
5
Num Evals 3600
GenUC: 2.793929e-04
GenUB: 6.038503e-05
Optimisation 4.849552e+01
Total Time: 4.849586e+01
3 Add 6
Graph 1:
0 0 1 0 0 0 
0 0 0 1 0 0 
1 0 0 1 0 1 
0 1 1 0 0 0 
0 0 0 0 0 0 
0 0 1 0 0 0 
Graph 2:
0 1 1 1 1 1 
1 1 1 1 1 0 
1 1 1 1 1 1 
1 1 1 0 0 0 
1 1 1 0 0 0 
1 0 1 0 0 0 
Solution: 20 0
Classic Expectation: 15.733333
Initial Expecation: 11.062500
Gbest: 20.000000
Expectation: 13.827272
Final Parameters:
Gammas:
[ 5.987269 3.111426 4.805074 ]
Betas:
[ 1.590189 0.542991 1.551404 ]
Aggregate results:
[ 20 16 12 8 0 ]
[ 0.290386 0.350364 0.187362 0.020672 0.151215 ]
5
Num Evals 3600
GenUC: 2.786564e-04
GenUB: 6.083220e-05
Optimisation 4.627756e+01
Total Time: 4.627791e+01
4 Rem 6
Graph 1:
0 0 1 0 0 0 
0 0 0 1 0 0 
1 0 0 1 0 1 
0 1 1 0 0 0 
0 0 0 0 0 0 
0 0 1 0 0 0 
Graph 2:
0 0 0 0 0 0 
0 0 0 0 0 0 
0 0 0 0 0 0 
0 0 0 0 0 0 
0 0 0 0 0 0 
0 0 0 0 0 0 
Solution: 28 0
Classic Expectation: 28.000000
Initial Expecation: 19.687500
Gbest: 28.000000
Expectation: 27.644796
Final Parameters:
Gammas:
[ 1.981233 1.286903 4.080381 ]
Betas:
[ 2.521031 1.098911 1.733837 ]
Aggregate results:
[ 28 0 ]
[ 0.987314 0.012686 ]
5
Num Evals 3600
GenUC: 2.796635e-04
GenUB: 6.076061e-05
Optimisation 5.299752e+01
Total Time: 5.299786e+01
5 Add/Rem 6
Graph 1:
0 0 1 0 0 0 
0 0 0 1 0 0 
1 0 0 1 0 1 
0 1 1 0 0 0 
0 0 0 0 0 0 
0 0 1 0 0 0 
Graph 2:
1 1 0 1 1 1 
1 1 1 0 0 1 
0 1 1 0 0 0 
1 0 0 0 0 0 
1 0 0 0 0 0 
1 1 0 0 0 0 
Solution: 29 294
Classic Expectation: 19.400000
Initial Expecation: 13.640625
Gbest: 29.000000
Expectation: 19.462873
Final Parameters:
Gammas:
[ 4.550024 0.119707 3.361375 ]
Betas:
[ 0.542991 1.654831 1.698723 ]
Aggregate results:
[ 13 17 21 25 29 0 ]
[ 0.025945 0.154709 0.388189 0.253153 0.069474 0.108530 ]
5
Num Evals 3600
GenUC: 2.815108e-04
GenUB: 6.029231e-05
Optimisation 4.327111e+01
Total Time: 4.327145e+01
