Clock Speed: 3.688351
Num threads: 4
Trotterisation: 3
Graph Size: 7
Num Qubits: 13
Space Dimension: 8192
Run-Type: 0
Num_samples: 10
1 Isomorphic
Graph 1:
0 1 0 1 0 1 1 
1 0 0 0 0 1 1 
1 1 0 1 0 1 1 
0 1 0 1 0 1 1 
0 0 1 1 0 0 1 
0 0 0 0 0 0 0 
1 1 0 0 1 0 0 
Graph 2:
0 1 0 1 0 1 1 
1 0 0 0 0 1 1 
1 1 0 1 0 1 1 
0 1 0 1 0 1 1 
0 0 1 1 0 0 1 
0 0 0 0 0 0 0 
1 1 0 0 1 0 0 
Solution: 0 0
Gbest: -14.000000
Expectation: -23.072359
Final Parameters:
Gammas:
[ 3.313558 1.745912 4.398555 ]
Betas:
[ 0.219611 2.700933 0.048224 0.150407 ]
Aggregate results:
[ -1 3 11 7 13 9 15 19 17 21 23 25 27 31 29 33 5 48 ]
[ 0.002515 0.002241 0.021513 0.012545 0.047673 0.012739 0.086975 0.174104 0.155774 0.177869 0.120553 0.050069 0.017398 0.001149 0.004224 0.000306 0.000977 0.111375 ]
5
Num Evals 700
GenUC: 1.416456e-03
GenUB: 1.994849e-03
Optimisation 6.414675e+00
Total Time: 6.424280e+00
2 Flipped
Graph 1:
0 1 0 1 0 1 1 
1 0 0 0 0 1 1 
1 1 0 1 0 1 1 
0 1 0 1 0 1 1 
0 0 1 1 0 0 1 
0 0 0 0 0 0 0 
1 1 0 0 1 0 0 
Graph 2:
1 1 0 1 0 1 0 
1 1 0 0 0 0 1 
1 1 0 1 0 1 1 
1 1 0 1 0 1 0 
1 0 0 1 1 0 0 
0 0 0 0 0 0 0 
0 0 1 0 0 1 1 
Solution: -14 884
Gbest: -14.000000
Expectation: -27.185309
Final Parameters:
Gammas:
[ 3.200671 0.023052 1.994822 ]
Betas:
[ 2.480135 0.458338 0.053688 0.067409 ]
Aggregate results:
[ 15 17 19 21 23 25 27 29 31 33 35 13 48 ]
[ 0.006710 0.020738 0.053551 0.109944 0.183674 0.212957 0.183248 0.105254 0.046656 0.014929 0.002395 0.001224 0.058722 ]
5
Num Evals 1400
GenUC: 1.055284e-03
GenUB: 1.572732e-03
Optimisation 6.052955e+00
Total Time: 6.061612e+00
3 Add 7
Graph 1:
0 1 0 1 0 1 1 
1 0 0 0 0 1 1 
1 1 0 1 0 1 1 
0 1 0 1 0 1 1 
0 0 1 1 0 0 1 
0 0 0 0 0 0 0 
1 1 0 0 1 0 0 
Graph 2:
0 1 1 1 0 1 1 
1 1 0 0 1 1 1 
1 1 0 1 0 1 1 
0 1 0 1 0 1 1 
1 0 1 1 1 0 1 
0 0 1 0 0 0 1 
1 1 0 0 1 0 0 
Solution: -7 0
Gbest: -21.000000
Expectation: -26.783873
Final Parameters:
Gammas:
[ 3.348277 0.239009 0.120326 ]
Betas:
[ 0.141598 0.288233 1.842849 1.723937 ]
Aggregate results:
[ 6 10 16 14 18 20 12 22 24 26 28 30 32 34 48 ]
[ 0.000190 0.000298 0.030008 0.003764 0.077446 0.136016 0.001085 0.173508 0.177547 0.151020 0.091613 0.040848 0.015851 0.001553 0.099252 ]
5
Num Evals 2100
GenUC: 1.237591e-03
GenUB: 1.766188e-03
Optimisation 5.879139e+00
Total Time: 5.889450e+00
4 Rem 7
Graph 1:
0 1 0 1 0 1 1 
1 0 0 0 0 1 1 
1 1 0 1 0 1 1 
0 1 0 1 0 1 1 
0 0 1 1 0 0 1 
0 0 0 0 0 0 0 
1 1 0 0 1 0 0 
Graph 2:
0 0 0 1 0 1 1 
1 0 0 0 0 1 1 
0 1 0 0 0 1 1 
0 1 0 1 0 1 1 
0 0 1 0 0 0 1 
0 0 0 0 0 0 0 
1 0 0 0 0 0 0 
Solution: -6 0
Gbest: -22.000000
Expectation: -24.748390
Final Parameters:
Gammas:
[ 0.067984 5.264664 0.394840 ]
Betas:
[ 0.423399 1.144171 0.107788 1.746314 ]
Aggregate results:
[ 5 9 13 11 15 7 17 19 21 23 25 27 29 31 33 48 ]
[ 0.000349 0.001822 0.016194 0.006940 0.044079 0.000371 0.090027 0.165947 0.200501 0.184592 0.125044 0.049076 0.014427 0.003100 0.000474 0.097057 ]
5
Num Evals 2800
GenUC: 1.177589e-03
GenUB: 1.785896e-03
Optimisation 5.759480e+00
Total Time: 5.769288e+00
5 Add/Rem 7
Graph 1:
0 1 0 1 0 1 1 
1 0 0 0 0 1 1 
1 1 0 1 0 1 1 
0 1 0 1 0 1 1 
0 0 1 1 0 0 1 
0 0 0 0 0 0 0 
1 1 0 0 1 0 0 
Graph 2:
0 1 0 0 0 1 1 
1 0 0 0 1 1 1 
1 0 0 0 0 0 1 
0 1 0 0 0 0 1 
1 1 1 1 0 1 1 
0 0 0 0 0 0 1 
1 1 1 0 1 1 0 
Solution: -11 57
Gbest: -19.000000
Expectation: -23.770131
Final Parameters:
Gammas:
[ 3.314012 2.898168 0.990839 ]
Betas:
[ 1.674669 0.363193 1.618512 1.659758 ]
Aggregate results:
[ 12 14 16 18 20 22 10 24 26 28 30 32 48 ]
[ 0.009829 0.050439 0.128232 0.189473 0.204993 0.157838 0.001105 0.084886 0.039782 0.021994 0.006403 0.001266 0.103759 ]
5
Num Evals 3500
GenUC: 1.067489e-03
GenUB: 1.518120e-03
Optimisation 6.438616e+00
Total Time: 6.450271e+00
