Clock Speed: 3.390087
Num threads: 4
Trotterisation: 3
Graph Size: 7
Num Qubits: 13
Space Dimension: 8192
Run-Type: 0
Num_samples: 10
1 Isomorphic
Graph 1:
0 0 1 1 0 1 0 
1 1 1 1 1 1 0 
1 0 0 0 1 0 1 
0 1 1 1 1 0 0 
1 0 1 0 0 0 1 
0 0 1 0 1 1 0 
1 1 0 0 1 0 0 
Graph 2:
0 0 1 1 0 1 0 
1 1 1 1 1 1 0 
1 0 0 0 1 0 1 
0 1 1 1 1 0 0 
1 0 1 0 0 0 1 
0 0 1 0 1 1 0 
1 1 0 0 1 0 0 
Solution: 0 0
Gbest: -16.000000
Expectation: -24.507738
Final Parameters:
Gammas:
[ 3.212094 0.123336 0.027352 ]
Betas:
[ 2.753013 0.169859 1.104659 1.846741 ]
Aggregate results:
[ -1 11 21 17 13 19 7 23 29 15 25 27 3 31 33 9 1 5 35 48 ]
[ 0.000548 0.006471 0.195663 0.087871 0.014883 0.156931 0.000945 0.183639 0.020821 0.046487 0.123685 0.067559 0.000511 0.005350 0.003079 0.002088 0.000670 0.000464 0.002410 0.079926 ]
5
Num Evals 700
GenUC: 1.489411e-03
GenUB: 2.045598e-03
Optimisation 7.132670e+00
Total Time: 7.145217e+00
2 Flipped
Graph 1:
0 0 1 1 0 1 0 
1 1 1 1 1 1 0 
1 0 0 0 1 0 1 
0 1 1 1 1 0 0 
1 0 1 0 0 0 1 
0 0 1 0 1 1 0 
1 1 0 0 1 0 0 
Graph 2:
0 1 0 1 1 0 0 
0 1 1 1 1 1 1 
1 0 1 0 0 0 1 
0 0 1 1 1 1 0 
1 0 0 0 1 0 1 
0 1 1 0 1 0 0 
0 0 1 0 0 1 1 
Solution: -10 4788
Gbest: -18.000000
Expectation: -26.427707
Final Parameters:
Gammas:
[ 3.215749 3.152970 0.172905 ]
Betas:
[ 0.768413 1.681300 1.964612 0.400224 ]
Aggregate results:
[ 19 23 25 21 27 29 35 31 15 33 17 11 13 9 48 ]
[ 0.111087 0.188159 0.157018 0.157009 0.111003 0.053982 0.002094 0.025439 0.022239 0.009399 0.060827 0.000870 0.004944 0.000360 0.095572 ]
5
Num Evals 1400
GenUC: 1.124125e-03
GenUB: 1.669665e-03
Optimisation 7.112343e+00
Total Time: 7.123324e+00
3 Add 7
Graph 1:
0 0 1 1 0 1 0 
1 1 1 1 1 1 0 
1 0 0 0 1 0 1 
0 1 1 1 1 0 0 
1 0 1 0 0 0 1 
0 0 1 0 1 1 0 
1 1 0 0 1 0 0 
Graph 2:
0 0 1 1 0 1 0 
1 1 1 1 1 1 1 
1 0 0 0 1 1 1 
0 1 1 1 1 0 1 
1 0 1 0 0 1 1 
0 0 1 1 1 1 0 
1 1 0 0 1 0 1 
Solution: -6 0
Gbest: -20.000000
Expectation: -26.900815
Final Parameters:
Gammas:
[ 0.188520 1.379920 0.205280 ]
Betas:
[ 0.047714 0.395097 0.021278 0.085829 ]
Aggregate results:
[ 5 17 23 19 25 15 13 21 27 31 29 9 33 7 11 35 37 48 ]
[ 0.000323 0.062880 0.178474 0.102400 0.147133 0.024664 0.009720 0.174377 0.093885 0.024645 0.047981 0.000366 0.006125 0.000061 0.000919 0.000555 0.000567 0.124927 ]
5
Num Evals 2100
GenUC: 1.130645e-03
GenUB: 1.719433e-03
Optimisation 5.663966e+00
Total Time: 5.670353e+00
4 Rem 7
Graph 1:
0 0 1 1 0 1 0 
1 1 1 1 1 1 0 
1 0 0 0 1 0 1 
0 1 1 1 1 0 0 
1 0 1 0 0 0 1 
0 0 1 0 1 1 0 
1 1 0 0 1 0 0 
Graph 2:
0 0 0 1 0 1 0 
1 0 1 1 1 1 0 
1 0 0 0 1 0 0 
0 1 1 1 1 0 0 
1 0 1 0 0 0 0 
0 0 1 0 1 0 0 
1 1 0 0 0 0 0 
Solution: -6 0
Gbest: -12.000000
Expectation: -25.204908
Final Parameters:
Gammas:
[ 3.215571 1.374946 3.528418 ]
Betas:
[ 1.808200 2.001295 1.582032 3.081731 ]
Aggregate results:
[ 5 15 23 17 21 19 13 25 31 29 27 11 7 33 48 ]
[ 0.000441 0.025759 0.191061 0.063136 0.210007 0.141984 0.004520 0.140958 0.022450 0.042620 0.080377 0.000255 0.000353 0.006741 0.069338 ]
5
Num Evals 2800
GenUC: 1.219166e-03
GenUB: 1.756684e-03
Optimisation 5.714723e+00
Total Time: 5.735673e+00
5 Add/Rem 7
Graph 1:
0 0 1 1 0 1 0 
1 1 1 1 1 1 0 
1 0 0 0 1 0 1 
0 1 1 1 1 0 0 
1 0 1 0 0 0 1 
0 0 1 0 1 1 0 
1 1 0 0 1 0 0 
Graph 2:
0 0 1 1 0 1 1 
1 1 0 1 1 0 0 
0 0 0 1 1 0 1 
0 1 0 1 0 0 0 
1 1 1 0 0 0 1 
1 0 1 1 1 1 1 
0 1 0 1 1 0 0 
Solution: -11 2857
Gbest: -17.000000
Expectation: -25.521928
Final Parameters:
Gammas:
[ 6.218941 3.186679 2.903644 ]
Betas:
[ 0.538115 2.010479 0.122279 1.583140 ]
Aggregate results:
[ 12 20 24 22 16 18 26 28 30 32 34 14 10 48 ]
[ 0.001481 0.134510 0.206217 0.188815 0.026551 0.081472 0.158110 0.088015 0.044133 0.014612 0.002248 0.005929 0.000166 0.047740 ]
5
Num Evals 3500
GenUC: 1.278897e-03
GenUB: 2.093705e-03
Optimisation 5.574610e+00
Total Time: 5.585692e+00
