Clock Speed: 3.688879
Num threads: 4
Trotterisation: 1
Graph Size: 7
Num Qubits: 13
Space Dimension: 8192
Run-Type: 0
Num_samples: 10
1 Isomorphic
Graph 1:
1 1 1 0 0 0 1 
0 1 0 1 1 0 1 
1 0 0 0 0 0 1 
0 1 0 1 1 0 0 
1 1 0 1 1 0 0 
1 0 0 0 1 0 0 
0 0 1 0 1 1 0 
Graph 2:
1 1 1 0 0 0 1 
0 1 0 1 1 0 1 
1 0 0 0 0 0 1 
0 1 0 1 1 0 0 
1 1 0 1 1 0 0 
1 0 0 0 1 0 0 
0 0 1 0 1 1 0 
Solution: 0 0
Gbest: -16.000000
Expectation: -25.238565
Final Parameters:
Gammas:
[ 3.076299 ]
Betas:
[ 0.130126 2.666502 ]
Aggregate results:
[ -1 13 17 9 19 15 3 11 21 25 27 23 5 29 31 33 35 7 37 41 48 ]
[ 0.000261 0.010785 0.056132 0.002601 0.107137 0.018587 0.000330 0.002618 0.175908 0.168145 0.113818 0.206883 0.000463 0.052868 0.022690 0.005585 0.000723 0.000144 0.000720 0.000198 0.053405 ]
3
Num Evals 437
GenUC: 1.508355e-03
GenUB: 1.889933e-03
Optimisation 1.713623e+00
Total Time: 1.720921e+00
2 Flipped
Graph 1:
1 1 1 0 0 0 1 
0 1 0 1 1 0 1 
1 0 0 0 0 0 1 
0 1 0 1 1 0 0 
1 1 0 1 1 0 0 
1 0 0 0 1 0 0 
0 0 1 0 1 1 0 
Graph 2:
1 0 0 0 1 1 1 
1 0 1 1 0 1 0 
1 0 0 0 0 0 1 
0 0 1 1 0 1 0 
0 0 1 1 0 1 1 
0 0 1 0 0 0 1 
0 1 1 0 1 0 0 
Solution: -12 304
Gbest: -16.000000
Expectation: -26.308693
Final Parameters:
Gammas:
[ 3.329161 ]
Betas:
[ 0.008085 2.575851 ]
Aggregate results:
[ 25 23 19 31 27 33 21 17 29 15 13 11 35 37 48 ]
[ 0.203942 0.231444 0.090231 0.014198 0.125615 0.002811 0.168232 0.030828 0.044810 0.008699 0.000596 0.000495 0.000035 0.000032 0.078032 ]
3
Num Evals 835
GenUC: 1.152419e-03
GenUB: 1.618510e-03
Optimisation 1.447954e+00
Total Time: 1.454615e+00
3 Add 7
Graph 1:
1 1 1 0 0 0 1 
0 1 0 1 1 0 1 
1 0 0 0 0 0 1 
0 1 0 1 1 0 0 
1 1 0 1 1 0 0 
1 0 0 0 1 0 0 
0 0 1 0 1 1 0 
Graph 2:
1 1 1 0 0 0 1 
0 1 0 1 1 0 1 
1 0 0 0 0 0 1 
1 1 1 1 1 1 1 
1 1 0 1 1 0 0 
1 0 0 0 1 0 0 
0 1 1 0 1 1 1 
Solution: -6 0
Gbest: -22.000000
Expectation: -32.794234
Final Parameters:
Gammas:
[ 3.863309 ]
Betas:
[ 0.055067 2.668302 ]
Aggregate results:
[ 5 17 19 15 21 13 7 25 23 27 11 9 29 31 33 35 39 37 48 ]
[ 0.000197 0.031574 0.061467 0.008843 0.095956 0.002283 0.000006 0.162389 0.143004 0.094209 0.000290 0.000069 0.036860 0.020325 0.006457 0.002034 0.000229 0.000006 0.333801 ]
3
Num Evals 1385
GenUC: 1.214081e-03
GenUB: 1.828801e-03
Optimisation 2.150643e+00
Total Time: 2.157565e+00
4 Rem 7
Graph 1:
1 1 1 0 0 0 1 
0 1 0 1 1 0 1 
1 0 0 0 0 0 1 
0 1 0 1 1 0 0 
1 1 0 1 1 0 0 
1 0 0 0 1 0 0 
0 0 1 0 1 1 0 
Graph 2:
1 0 1 0 0 0 1 
0 1 0 1 1 0 1 
1 0 0 0 0 0 0 
0 1 0 0 1 0 0 
0 1 0 1 0 0 0 
1 0 0 0 1 0 0 
0 0 1 0 1 0 0 
Solution: -6 0
Gbest: -18.000000
Expectation: -24.952133
Final Parameters:
Gammas:
[ 3.076856 ]
Betas:
[ 0.130849 2.668106 ]
Aggregate results:
[ 5 17 21 19 11 15 7 13 23 25 29 27 9 31 33 35 48 ]
[ 0.000263 0.052815 0.196273 0.114115 0.003080 0.022597 0.000317 0.009940 0.217495 0.170905 0.040537 0.102504 0.000806 0.011785 0.002089 0.001228 0.053252 ]
3
Num Evals 1882
GenUC: 1.101009e-03
GenUB: 1.594487e-03
Optimisation 2.044217e+00
Total Time: 2.051200e+00
5 Add/Rem 7
Graph 1:
1 1 1 0 0 0 1 
0 1 0 1 1 0 1 
1 0 0 0 0 0 1 
0 1 0 1 1 0 0 
1 1 0 1 1 0 0 
1 0 0 0 1 0 0 
0 0 1 0 1 1 0 
Graph 2:
1 0 0 0 1 0 1 
0 1 0 1 1 0 1 
0 0 1 0 0 1 1 
0 1 0 1 0 0 0 
1 1 0 1 1 1 0 
1 1 0 0 0 0 0 
1 1 1 0 0 1 0 
Solution: -11 33
Gbest: -21.000000
Expectation: -32.197981
Final Parameters:
Gammas:
[ 1.636845 ]
Betas:
[ 0.099581 2.606508 ]
Aggregate results:
[ 12 16 20 22 18 14 24 10 26 28 30 32 34 36 48 ]
[ 0.002196 0.027260 0.124939 0.135824 0.050411 0.008243 0.152858 0.000699 0.080550 0.056897 0.016327 0.006894 0.001319 0.000040 0.335542 ]
3
Num Evals 2361
GenUC: 1.160380e-03
GenUB: 1.657408e-03
Optimisation 1.955064e+00
Total Time: 1.961761e+00
