Clock Speed: 3.498562
Num threads: 16
Trotterisation: 4
Num Qubits: 13
Space Dimension: 8192
Run-Type: 0
Num_samples: 49
Optimiser Method: 29
1 Isomorphic
Graph 1:
1 0 1 0 1 1 0 
1 0 1 1 1 1 1 
1 1 0 1 1 0 1 
1 0 1 0 0 1 1 
1 1 0 0 0 1 1 
1 1 1 1 0 1 0 
1 1 0 1 1 0 1 
Graph 2:
1 0 1 0 1 1 0 
1 0 1 1 1 1 1 
1 1 0 1 1 0 1 
1 0 1 0 0 1 1 
1 1 0 0 0 1 1 
1 1 1 1 0 1 0 
1 1 0 1 1 0 1 
Solution: 49 0
Classic Expectation: 28.428571
Initial Expecation: 17.490234
Gbest: 41.000000
Expectation: 28.583035
Final Parameters:
Gammas:
[ 3.098367 3.157299 3.306989 2.270376 ]
Betas:
[ 2.548652 1.081224 1.728650 1.634209 ]
Aggregate results:
[ 49 41 33 39 35 31 27 29 37 25 21 43 23 19 0 ]
[ 0.000588 0.001903 0.174987 0.013444 0.078374 0.242437 0.122526 0.205537 0.023522 0.051500 0.004118 0.000351 0.016584 0.000479 0.063650 ]
3
Num Evals 2154
GenUC: 2.262306e-03
GenUB: 1.272570e-03
Optimisation 7.990124e+01
Total Time: 7.990479e+01
2 Flipped
Graph 1:
1 0 1 0 1 1 0 
1 0 1 1 1 1 1 
1 1 0 1 1 0 1 
1 0 1 0 0 1 1 
1 1 0 0 0 1 1 
1 1 1 1 0 1 0 
1 1 0 1 1 0 1 
Graph 2:
0 1 1 0 1 0 1 
1 1 1 1 1 0 1 
1 0 1 1 0 1 1 
1 1 0 0 1 0 1 
1 1 0 0 0 1 1 
0 1 0 1 1 1 1 
1 0 1 1 0 1 1 
Solution: 39 4497
Classic Expectation: 27.857143
Initial Expecation: 17.138672
Gbest: 35.000000
Expectation: 28.110145
Final Parameters:
Gammas:
[ 3.293775 3.204131 3.295693 3.244224 ]
Betas:
[ 1.543457 2.316836 1.035479 2.262561 ]
Aggregate results:
[ 27 33 29 23 25 31 21 35 19 37 39 0 ]
[ 0.154592 0.161702 0.222167 0.024399 0.067834 0.211744 0.006946 0.057928 0.001143 0.024310 0.006194 0.061042 ]
3
Num Evals 4476
GenUC: 2.809789e-03
GenUB: 1.202435e-03
Optimisation 1.671730e+02
Total Time: 1.671770e+02
3 Add 7
Graph 1:
1 0 1 0 1 1 0 
1 0 1 1 1 1 1 
1 1 0 1 1 0 1 
1 0 1 0 0 1 1 
1 1 0 0 0 1 1 
1 1 1 1 0 1 0 
1 1 0 1 1 0 1 
Graph 2:
1 0 1 0 1 1 1 
1 1 1 1 1 1 1 
1 1 1 1 1 0 1 
1 0 1 1 0 1 1 
1 1 0 0 1 1 1 
1 1 1 1 0 1 1 
1 1 0 1 1 0 1 
Solution: 43 0
Classic Expectation: 28.714286
Initial Expecation: 17.666016
Gbest: 35.000000
Expectation: 29.282622
Final Parameters:
Gammas:
[ 3.083470 3.196715 3.299461 3.046703 ]
Betas:
[ 1.659945 2.204050 0.819430 2.477306 ]
Aggregate results:
[ 43 37 31 33 35 29 27 25 39 23 0 ]
[ 0.000665 0.016299 0.286496 0.177341 0.059463 0.257532 0.125203 0.032314 0.001969 0.004461 0.038258 ]
3
Num Evals 4020
GenUC: 2.808312e-03
GenUB: 1.184519e-03
Optimisation 1.496148e+02
Total Time: 1.496188e+02
4 Rem 7
Graph 1:
1 0 1 0 1 1 0 
1 0 1 1 1 1 1 
1 1 0 1 1 0 1 
1 0 1 0 0 1 1 
1 1 0 0 0 1 1 
1 1 1 1 0 1 0 
1 1 0 1 1 0 1 
Graph 2:
0 0 1 0 0 1 0 
1 0 1 1 1 1 1 
1 1 0 1 1 0 1 
0 0 1 0 0 1 1 
1 1 0 0 0 1 0 
0 0 1 1 0 1 0 
1 1 0 1 1 0 0 
Solution: 42 0
Classic Expectation: 26.571429
Initial Expecation: 16.347656
Gbest: 36.000000
Expectation: 23.856936
Final Parameters:
Gammas:
[ 3.096736 3.383677 3.247385 3.313010 ]
Betas:
[ 0.255175 2.866470 1.616328 2.349069 ]
Aggregate results:
[ 42 34 28 30 36 26 32 24 22 20 38 18 16 0 ]
[ 0.000168 0.015104 0.191316 0.133002 0.004887 0.219930 0.058662 0.157515 0.082274 0.024584 0.000819 0.004618 0.001365 0.105756 ]
3
Num Evals 1407
GenUC: 2.807499e-03
GenUB: 1.252941e-03
Optimisation 5.150538e+01
Total Time: 5.150944e+01
5 Add/Rem 7
Graph 1:
1 0 1 0 1 1 0 
1 0 1 1 1 1 1 
1 1 0 1 1 0 1 
1 0 1 0 0 1 1 
1 1 0 0 0 1 1 
1 1 1 1 0 1 0 
1 1 0 1 1 0 1 
Graph 2:
1 0 1 0 0 1 0 
1 1 1 1 1 0 1 
1 1 0 1 1 1 1 
1 1 1 0 0 0 1 
1 0 0 0 0 1 0 
1 1 1 1 1 0 0 
1 1 0 1 1 1 1 
Solution: 40 207
Classic Expectation: 28.000000
Initial Expecation: 17.226563
Gbest: 38.000000
Expectation: 26.322093
Final Parameters:
Gammas:
[ 3.096655 3.414213 3.192791 2.021545 ]
Betas:
[ 1.491964 0.800479 1.742339 1.617675 ]
Aggregate results:
[ 38 34 28 32 30 36 26 24 40 22 20 18 0 ]
[ 0.002997 0.044341 0.233301 0.105784 0.206165 0.016483 0.195442 0.085872 0.001934 0.031504 0.004236 0.000401 0.071541 ]
3
Num Evals 1355
GenUC: 2.813180e-03
GenUB: 1.216470e-03
Optimisation 4.560644e+01
Total Time: 4.561047e+01
