Clock Speed: 3.685418
Num threads: 4
Trotterisation: 4
Graph Size: 6
Num Qubits: 10
Space Dimension: 1024
Run-Type: 0
Num_samples: 10
1 Isomorphic
Graph 1:
1 1 1 1 0 0 
1 1 1 1 1 1 
1 0 0 0 0 0 
0 0 0 0 0 0 
1 0 0 1 1 1 
0 0 1 1 0 0 
Graph 2:
1 1 1 1 0 0 
1 1 1 1 1 1 
1 0 0 0 0 0 
0 0 0 0 0 0 
1 0 0 1 1 1 
0 0 1 1 0 0 
Solution: 0 0
Gbest: -12.000000
Expectation: -17.380163
Final Parameters:
Gammas:
[ 4.562181 3.130785 4.763326 3.485335 ]
Betas:
[ 1.642868 1.501247 1.661864 1.842981 1.480578 ]
Aggregate results:
[ -1 7 13 11 9 17 15 3 25 23 21 5 19 27 29 35 ]
[ 0.004085 0.018207 0.161245 0.129163 0.072383 0.118993 0.196298 0.003764 0.014458 0.033474 0.055442 0.011796 0.096242 0.002544 0.001474 0.080430 ]
5
Num Evals 600
GenUC: 6.688795e-03
GenUB: 6.927480e-04
Optimisation 1.289759e+00
Total Time: 1.299191e+00
2 Flipped
Graph 1:
1 1 1 1 0 0 
1 1 1 1 1 1 
1 0 0 0 0 0 
0 0 0 0 0 0 
1 0 0 1 1 1 
0 0 1 1 0 0 
Graph 2:
0 0 1 1 1 1 
1 1 1 1 1 1 
0 0 0 0 0 1 
0 0 0 0 0 0 
1 1 1 0 0 1 
0 0 1 1 0 0 
Solution: -8 10
Gbest: -10.000000
Expectation: -22.134645
Final Parameters:
Gammas:
[ 3.557308 2.532587 3.968156 0.915087 ]
Betas:
[ 0.742694 1.387984 1.390399 1.206681 1.625272 ]
Aggregate results:
[ 9 17 19 13 7 21 25 15 23 11 27 35 ]
[ 0.028618 0.120137 0.091826 0.143503 0.014993 0.063436 0.032816 0.102881 0.068843 0.073228 0.006903 0.252814 ]
5
Num Evals 1200
GenUC: 1.239151e-04
GenUB: 1.505083e-04
Optimisation 1.072506e+00
Total Time: 1.074590e+00
3 Add 6
Graph 1:
1 1 1 1 0 0 
1 1 1 1 1 1 
1 0 0 0 0 0 
0 0 0 0 0 0 
1 0 0 1 1 1 
0 0 1 1 0 0 
Graph 2:
1 1 1 1 0 0 
1 1 1 1 1 1 
1 1 1 0 1 0 
0 1 0 1 1 0 
1 0 0 1 1 1 
0 0 1 1 0 0 
Solution: -6 0
Gbest: -12.000000
Expectation: -19.776007
Final Parameters:
Gammas:
[ 4.854052 2.954364 4.954023 3.262512 ]
Betas:
[ 1.901980 1.657658 1.600671 1.531365 1.333018 ]
Aggregate results:
[ 5 11 15 13 17 9 19 21 23 25 35 ]
[ 0.003292 0.083459 0.252811 0.158870 0.142301 0.002633 0.094060 0.072549 0.026075 0.010745 0.153206 ]
5
Num Evals 1800
GenUC: 1.302518e-04
GenUB: 1.544202e-04
Optimisation 1.136944e+00
Total Time: 1.139108e+00
4 Rem 6
Graph 1:
1 1 1 1 0 0 
1 1 1 1 1 1 
1 0 0 0 0 0 
0 0 0 0 0 0 
1 0 0 1 1 1 
0 0 1 1 0 0 
Graph 2:
1 1 0 0 0 0 
1 1 1 1 0 1 
1 0 0 0 0 0 
0 0 0 0 0 0 
1 0 0 0 0 1 
0 0 0 1 0 0 
Solution: -6 0
Gbest: -14.000000
Expectation: -21.691473
Final Parameters:
Gammas:
[ 3.952326 3.384174 4.026004 2.908770 ]
Betas:
[ 1.643295 2.020155 1.492067 1.737524 1.707350 ]
Aggregate results:
[ 5 11 15 13 17 19 7 21 23 9 25 35 ]
[ 0.000651 0.056116 0.131183 0.091373 0.243960 0.118899 0.001013 0.056219 0.035092 0.026522 0.008854 0.230116 ]
5
Num Evals 2400
GenUC: 1.222919e-04
GenUB: 1.560105e-04
Optimisation 1.227473e+00
Total Time: 1.229944e+00
5 Add/Rem 6
Graph 1:
1 1 1 1 0 0 
1 1 1 1 1 1 
1 0 0 0 0 0 
0 0 0 0 0 0 
1 0 0 1 1 1 
0 0 1 1 0 0 
Graph 2:
1 0 1 1 0 0 
1 0 1 1 1 0 
1 0 0 1 0 1 
0 1 0 0 1 0 
1 0 1 0 1 1 
0 0 0 0 0 0 
Solution: -9 384
Gbest: -11.000000
Expectation: -16.765782
Final Parameters:
Gammas:
[ 3.246123 3.250895 3.330307 4.046327 ]
Betas:
[ 1.423485 2.295920 1.440830 1.412378 1.560346 ]
Aggregate results:
[ 10 16 14 12 18 20 22 24 26 8 35 ]
[ 0.039015 0.264135 0.235777 0.226402 0.129283 0.038625 0.014197 0.005404 0.002251 0.001491 0.043419 ]
5
Num Evals 3000
GenUC: 1.300640e-04
GenUB: 1.630631e-04
Optimisation 1.202599e+00
Total Time: 1.204908e+00
