Clock Speed: 3.688481
Num threads: 4
Trotterisation: 1
Num Qubits: 5
Space Dimension: 32
Run-Type: 0
Num_samples: 6399
Optimiser Method: 0
1 Isomorphic
Graph 1:
0 0 0 1 
0 1 1 0 
1 0 0 1 
1 1 1 1 
Graph 2:
0 0 0 1 
0 1 1 0 
1 0 0 1 
1 1 1 1 
Solution: 16 0
Classic Expectation: 8.166667
Initial Expecation: 6.125000
Gbest: 16.000000
Expectation: 8.293129
Final Parameters:
Gammas:
[ 0.349066 ]
Betas:
[ 0.523599 ]
Aggregate results:
[ 16 8 10 6 12 2 0 ]
[ 0.119928 0.315020 0.191978 0.112480 0.102583 0.014231 0.143779 ]
3
Num Evals 19
GenUC: 8.236850e-06
GenUB: 8.675794e-06
Optimisation 1.779899e-03
Total Time: 1.822957e-03
2 Flipped
Graph 1:
0 0 0 1 
0 1 1 0 
1 0 0 1 
1 1 1 1 
Graph 2:
1 0 0 0 
0 1 1 0 
1 0 0 1 
1 1 1 1 
Solution: 14 0
Classic Expectation: 8.000000
Initial Expecation: 6.000000
Gbest: 14.000000
Expectation: 7.673312
Final Parameters:
Gammas:
[ 0.349066 ]
Betas:
[ 0.523599 ]
Aggregate results:
[ 14 8 6 10 12 2 0 ]
[ 0.063823 0.333375 0.127549 0.243939 0.073304 0.014231 0.143779 ]
3
Num Evals 23
GenUC: 8.871255e-06
GenUB: 1.709443e-06
Optimisation 2.242838e-03
Total Time: 2.254909e-03
3 Add 4
Graph 1:
0 0 0 1 
0 1 1 0 
1 0 0 1 
1 1 1 1 
Graph 2:
0 0 0 1 
1 1 1 1 
1 0 1 1 
1 1 1 1 
Solution: 13 0
Classic Expectation: 8.500000
Initial Expecation: 6.375000
Gbest: 13.000000
Expectation: 8.027372
Final Parameters:
Gammas:
[ 0.349066 ]
Betas:
[ 0.523599 ]
Aggregate results:
[ 13 9 11 7 5 0 ]
[ 0.127871 0.237210 0.221642 0.247266 0.012247 0.153764 ]
3
Num Evals 25
GenUC: 9.171141e-06
GenUB: 1.460663e-06
Optimisation 1.930734e-03
Total Time: 1.942837e-03
4 Rem 4
Graph 1:
0 0 0 1 
0 1 1 0 
1 0 0 1 
1 1 1 1 
Graph 2:
0 0 0 1 
0 1 0 0 
0 0 0 0 
1 0 1 1 
Solution: 12 0
Classic Expectation: 7.500000
Initial Expecation: 5.625000
Gbest: 12.000000
Expectation: 7.436108
Final Parameters:
Gammas:
[ 5.934119 ]
Betas:
[ 2.617994 ]
Aggregate results:
[ 12 8 10 6 4 0 ]
[ 0.181156 0.313082 0.117752 0.211236 0.078158 0.098615 ]
3
Num Evals 23
GenUC: 8.634699e-06
GenUB: 1.032255e-06
Optimisation 1.841909e-03
Total Time: 1.852855e-03
5 Add/Rem 4
Graph 1:
0 0 0 1 
0 1 1 0 
1 0 0 1 
1 1 1 1 
Graph 2:
1 0 1 0 
0 1 1 1 
1 0 1 0 
1 1 0 0 
Solution: 10 1
Classic Expectation: 8.000000
Initial Expecation: 6.000000
Gbest: 10.000000
Expectation: 7.775893
Final Parameters:
Gammas:
[ 6.086883 ]
Betas:
[ 2.792536 ]
Aggregate results:
[ 8 10 6 4 0 ]
[ 0.468359 0.356918 0.071304 0.008006 0.095414 ]
3
Num Evals 191
GenUC: 8.462812e-06
GenUB: 1.245236e-06
Optimisation 1.956429e-02
Total Time: 1.957529e-02
