Clock Speed: 3.688829
Num threads: 4
Trotterisation: 1
Num Qubits: 5
Space Dimension: 32
Run-Type: 0
Num_samples: 6399
Optimiser Method: 0
1 Isomorphic
Graph 1:
1 1 1 0 
0 1 0 1 
0 0 0 0 
1 0 0 1 
Graph 2:
1 1 1 0 
0 1 0 1 
0 0 0 0 
1 0 0 1 
Solution: 16 0
Classic Expectation: 9.166667
Initial Expecation: 6.875000
Gbest: 16.000000
Expectation: 9.277349
Final Parameters:
Gammas:
[ 6.166830 ]
Betas:
[ 2.617994 ]
Aggregate results:
[ 16 8 12 10 6 14 0 ]
[ 0.064309 0.317710 0.041151 0.258166 0.105862 0.142577 0.070225 ]
3
Num Evals 63
GenUC: 8.428760e-06
GenUB: 9.708048e-06
Optimisation 6.311861e-03
Total Time: 6.349962e-03
2 Flipped
Graph 1:
1 1 1 0 
0 1 0 1 
0 0 0 0 
1 0 0 1 
Graph 2:
0 1 1 1 
1 0 1 0 
0 0 0 0 
1 0 0 1 
Solution: 10 0
Classic Expectation: 7.500000
Initial Expecation: 5.625000
Gbest: 10.000000
Expectation: 7.679035
Final Parameters:
Gammas:
[ 0.242396 ]
Betas:
[ 0.465420 ]
Aggregate results:
[ 10 8 6 4 0 ]
[ 0.278286 0.461890 0.197651 0.003786 0.058386 ]
3
Num Evals 431
GenUC: 8.885341e-06
GenUB: 1.749955e-06
Optimisation 4.924620e-02
Total Time: 4.925834e-02
3 Add 4
Graph 1:
1 1 1 0 
0 1 0 1 
0 0 0 0 
1 0 0 1 
Graph 2:
1 1 1 0 
1 1 0 1 
0 0 1 1 
1 0 1 1 
Solution: 12 0
Classic Expectation: 8.666667
Initial Expecation: 6.500000
Gbest: 12.000000
Expectation: 7.521546
Final Parameters:
Gammas:
[ 0.349066 ]
Betas:
[ 0.523599 ]
Aggregate results:
[ 12 6 8 10 0 ]
[ 0.199803 0.048395 0.163146 0.352836 0.235819 ]
3
Num Evals 19
GenUC: 9.428128e-06
GenUB: 1.746463e-06
Optimisation 1.662229e-03
Total Time: 1.675570e-03
4 Rem 4
Graph 1:
1 1 1 0 
0 1 0 1 
0 0 0 0 
1 0 0 1 
Graph 2:
0 1 1 0 
0 1 0 0 
0 0 0 0 
0 0 0 1 
Solution: 13 0
Classic Expectation: 9.333333
Initial Expecation: 7.000000
Gbest: 13.000000
Expectation: 9.388548
Final Parameters:
Gammas:
[ 3.665395 ]
Betas:
[ 0.527181 ]
Aggregate results:
[ 13 9 11 7 0 ]
[ 0.104247 0.523279 0.283774 0.028903 0.059798 ]
3
Num Evals 711
GenUC: 8.431671e-06
GenUB: 1.041626e-06
Optimisation 5.878853e-02
Total Time: 5.879922e-02
5 Add/Rem 4
Graph 1:
1 1 1 0 
0 1 0 1 
0 0 0 0 
1 0 0 1 
Graph 2:
1 0 1 1 
1 1 0 1 
1 0 0 0 
1 0 1 0 
Solution: 10 0
Classic Expectation: 7.666667
Initial Expecation: 5.750000
Gbest: 10.000000
Expectation: 5.924148
Final Parameters:
Gammas:
[ 5.235988 ]
Betas:
[ 0.872665 ]
Aggregate results:
[ 10 8 6 4 0 ]
[ 0.146245 0.362235 0.192260 0.102564 0.196696 ]
3
Num Evals 19
GenUC: 8.876494e-06
GenUB: 1.546869e-06
Optimisation 1.634983e-03
Total Time: 1.647277e-03
