Clock Speed: 3.688848
Num threads: 4
Trotterisation: 1
Graph Size: 6
Num Qubits: 10
Space Dimension: 1024
Run-Type: 0
Num_samples: 10
1 Isomorphic
Graph 1:
0 0 1 0 1 1 
0 1 1 1 1 1 
0 1 1 1 1 1 
0 1 0 1 1 0 
0 0 0 1 0 1 
1 1 1 0 0 1 
Graph 2:
0 0 1 0 1 1 
0 1 1 1 1 1 
0 1 1 1 1 1 
0 1 0 1 1 0 
0 0 0 1 0 1 
1 1 1 0 0 1 
Solution: 0 0
Gbest: -10.000000
Expectation: -21.673974
Final Parameters:
Gammas:
[ 4.777211 ]
Betas:
[ 0.947892 2.580681 ]
Aggregate results:
[ -1 7 9 3 13 15 11 19 23 21 17 35 ]
[ 0.000808 0.002098 0.007914 0.001893 0.115934 0.210414 0.045359 0.151174 0.018537 0.028855 0.171065 0.245947 ]
3
Num Evals 125
GenUC: 2.987427e-04
GenUB: 2.000652e-04
Optimisation 1.014034e-01
Total Time: 1.027531e-01
2 Flipped
Graph 1:
0 0 1 0 1 1 
0 1 1 1 1 1 
0 1 1 1 1 1 
0 1 0 1 1 0 
0 0 0 1 0 1 
1 1 1 0 0 1 
Graph 2:
1 1 0 1 0 0 
1 1 1 1 1 0 
1 1 1 1 1 0 
0 1 1 0 1 0 
1 0 1 0 0 0 
1 0 0 1 1 1 
Solution: -6 630
Gbest: -12.000000
Expectation: -18.396727
Final Parameters:
Gammas:
[ 3.537373 ]
Betas:
[ 1.334184 2.851678 ]
Aggregate results:
[ 19 21 17 15 13 11 7 9 23 5 35 ]
[ 0.074327 0.057382 0.116901 0.178780 0.224772 0.130836 0.008061 0.052899 0.013068 0.002932 0.140043 ]
3
Num Evals 267
GenUC: 1.257625e-04
GenUB: 1.404312e-04
Optimisation 1.257162e-01
Total Time: 1.268788e-01
3 Add 6
Graph 1:
0 0 1 0 1 1 
0 1 1 1 1 1 
0 1 1 1 1 1 
0 1 0 1 1 0 
0 0 0 1 0 1 
1 1 1 0 0 1 
Graph 2:
1 0 1 0 1 1 
1 1 1 1 1 1 
0 1 1 1 1 1 
1 1 0 1 1 0 
0 1 1 1 1 1 
1 1 1 0 0 1 
Solution: -6 0
Gbest: -16.000000
Expectation: -20.584313
Final Parameters:
Gammas:
[ 4.800786 ]
Betas:
[ 1.411249 2.618627 ]
Aggregate results:
[ 5 9 11 13 15 17 19 7 21 35 ]
[ 0.001115 0.027341 0.063979 0.220690 0.231945 0.161476 0.041212 0.001541 0.002334 0.248367 ]
3
Num Evals 386
GenUC: 1.113163e-04
GenUB: 1.580082e-04
Optimisation 1.025870e-01
Total Time: 1.037313e-01
4 Rem 6
Graph 1:
0 0 1 0 1 1 
0 1 1 1 1 1 
0 1 1 1 1 1 
0 1 0 1 1 0 
0 0 0 1 0 1 
1 1 1 0 0 1 
Graph 2:
0 0 0 0 1 0 
0 1 0 1 1 1 
0 1 1 1 0 0 
0 1 0 1 1 0 
0 0 0 1 0 0 
1 1 1 0 0 1 
Solution: -6 0
Gbest: -16.000000
Expectation: -20.552934
Final Parameters:
Gammas:
[ 3.568409 ]
Betas:
[ 2.335131 2.897663 ]
Aggregate results:
[ 5 13 11 7 17 19 15 23 21 25 9 35 ]
[ 0.000982 0.195512 0.060768 0.001728 0.117965 0.069947 0.223206 0.042003 0.054226 0.029809 0.013138 0.190716 ]
3
Num Evals 574
GenUC: 1.294221e-04
GenUB: 1.539731e-04
Optimisation 1.888729e-01
Total Time: 1.901839e-01
5 Add/Rem 6
Graph 1:
0 0 1 0 1 1 
0 1 1 1 1 1 
0 1 1 1 1 1 
0 1 0 1 1 0 
0 0 0 1 0 1 
1 1 1 0 0 1 
Graph 2:
0 0 1 0 1 1 
1 1 0 0 0 1 
1 1 1 1 0 1 
1 0 0 1 1 0 
1 0 0 1 1 1 
1 0 1 0 0 1 
Solution: -9 376
Gbest: -11.000000
Expectation: -17.577554
Final Parameters:
Gammas:
[ 3.384773 ]
Betas:
[ 0.048405 2.873074 ]
Aggregate results:
[ 10 12 14 16 20 18 22 8 24 35 ]
[ 0.071600 0.207377 0.259928 0.181139 0.049817 0.104582 0.021489 0.005391 0.001144 0.097533 ]
3
Num Evals 756
GenUC: 1.312518e-04
GenUB: 1.622962e-04
Optimisation 1.212265e-01
Total Time: 1.221891e-01
