Clock Speed: 3.689240
Num threads: 4
Trotterisation: 5
Num Qubits: 10
Space Dimension: 1024
Run-Type: 0
Num_samples: 6
Optimiser Method: 0
1 Isomorphic
Graph 1:
0 0 1 1 0 0 
0 0 1 0 1 0 
1 1 0 0 0 1 
1 0 0 0 0 1 
0 1 0 0 0 1 
0 0 1 1 1 0 
Graph 2:
0 0 1 1 0 0 
0 0 1 0 1 0 
1 1 0 0 0 1 
1 0 0 0 0 1 
0 1 0 0 0 1 
0 0 1 1 1 0 
Solution: 36 0
Classic Expectation: 21.066667
Initial Expecation: 14.812500
Gbest: 28.000000
Expectation: 21.363920
Final Parameters:
Gammas:
[ 4.312328 3.145902 5.243809 3.149307 3.071205 ]
Betas:
[ 1.551404 1.538475 1.279908 1.577261 0.465421 ]
Aggregate results:
[ 36 24 28 20 32 16 12 0 ]
[ 0.019111 0.283906 0.218556 0.190319 0.085249 0.070651 0.006488 0.125720 ]
5
Num Evals 6000
GenUC: 2.602842e-04
GenUB: 9.012653e-05
Optimisation 1.676349e+01
Total Time: 1.676387e+01
2 Flipped
Graph 1:
0 0 1 1 0 0 
0 0 1 0 1 0 
1 1 0 0 0 1 
1 0 0 0 0 1 
0 1 0 0 0 1 
0 0 1 1 1 0 
Graph 2:
0 0 1 1 0 0 
0 1 0 1 0 0 
1 0 0 0 1 1 
1 0 0 0 0 1 
1 0 0 0 1 0 
0 1 1 1 0 0 
Solution: 28 80
Classic Expectation: 19.200000
Initial Expecation: 13.500000
Gbest: 24.000000
Expectation: 15.817027
Final Parameters:
Gammas:
[ 3.376265 1.034269 5.197203 5.235190 3.142000 ]
Betas:
[ 0.581776 1.628974 1.512619 1.404882 0.357685 ]
Aggregate results:
[ 24 20 16 26 22 14 18 8 12 28 0 ]
[ 0.081318 0.182917 0.175000 0.024319 0.150346 0.016850 0.149414 0.002820 0.026514 0.007181 0.183321 ]
5
Num Evals 6000
GenUC: 2.813317e-04
GenUB: 6.114261e-05
Optimisation 1.574662e+01
Total Time: 1.574697e+01
3 Add 6
Graph 1:
0 0 1 1 0 0 
0 0 1 0 1 0 
1 1 0 0 0 1 
1 0 0 0 0 1 
0 1 0 0 0 1 
0 0 1 1 1 0 
Graph 2:
1 1 1 1 1 1 
1 0 1 1 1 1 
1 1 1 0 0 1 
1 1 0 0 0 1 
1 1 0 0 0 1 
1 1 1 1 1 0 
Solution: 24 0
Classic Expectation: 18.400000
Initial Expecation: 12.937500
Gbest: 20.000000
Expectation: 16.700989
Final Parameters:
Gammas:
[ 5.235509 3.145570 3.842118 3.128664 3.168886 ]
Betas:
[ 1.590189 1.396263 1.542785 1.534166 0.530063 ]
Aggregate results:
[ 24 16 20 0 ]
[ 0.149158 0.287655 0.425935 0.137251 ]
5
Num Evals 6000
GenUC: 2.829320e-04
GenUB: 6.194541e-05
Optimisation 1.597428e+01
Total Time: 1.597463e+01
4 Rem 6
Graph 1:
0 0 1 1 0 0 
0 0 1 0 1 0 
1 1 0 0 0 1 
1 0 0 0 0 1 
0 1 0 0 0 1 
0 0 1 1 1 0 
Graph 2:
0 0 0 0 0 0 
0 0 0 0 0 0 
0 0 0 0 0 0 
0 0 0 0 0 1 
0 0 0 0 0 1 
0 0 0 1 1 0 
Solution: 26 0
Classic Expectation: 21.733333
Initial Expecation: 15.281250
Gbest: 22.000000
Expectation: 19.384051
Final Parameters:
Gammas:
[ 5.248916 3.143987 3.145902 3.386274 2.442024 ]
Betas:
[ 1.577261 1.616046 1.262670 1.673026 0.969627 ]
Aggregate results:
[ 26 22 18 0 ]
[ 0.153417 0.509448 0.232630 0.104504 ]
5
Num Evals 6000
GenUC: 2.805418e-04
GenUB: 7.588166e-05
Optimisation 1.617778e+01
Total Time: 1.617813e+01
5 Add/Rem 6
Graph 1:
0 0 1 1 0 0 
0 0 1 0 1 0 
1 1 0 0 0 1 
1 0 0 0 0 1 
0 1 0 0 0 1 
0 0 1 1 1 0 
Graph 2:
0 1 0 0 1 1 
1 1 0 1 0 0 
0 0 1 1 1 0 
0 1 1 0 0 1 
1 0 1 0 0 1 
1 0 0 1 1 0 
Solution: 32 90
Classic Expectation: 18.933333
Initial Expecation: 13.312500
Gbest: 24.000000
Expectation: 17.455892
Final Parameters:
Gammas:
[ 4.515990 3.131537 3.364248 3.120045 3.145784 ]
Betas:
[ 1.439358 1.572951 1.706544 1.555713 0.517135 ]
Aggregate results:
[ 12 20 16 24 28 8 32 0 ]
[ 0.078356 0.285651 0.281434 0.200193 0.047945 0.011977 0.001774 0.092671 ]
5
Num Evals 6000
GenUC: 2.810119e-04
GenUB: 6.108161e-05
Optimisation 1.582200e+01
Total Time: 1.582235e+01
