Clock Speed: 3.689225
Num threads: 4
Trotterisation: 5
Num Qubits: 10
Space Dimension: 1024
Run-Type: 0
Num_samples: 6
Optimiser Method: 0
1 Isomorphic
Graph 1:
0 0 1 0 1 1 
0 0 0 0 1 1 
1 0 0 0 0 0 
0 0 0 0 0 0 
1 1 0 0 0 1 
1 1 0 0 1 0 
Graph 2:
0 0 1 0 1 1 
0 0 0 0 1 1 
1 0 0 0 0 0 
0 0 0 0 0 0 
1 1 0 0 0 1 
1 1 0 0 1 0 
Solution: 36 0
Classic Expectation: 21.600000
Initial Expecation: 15.187500
Gbest: 28.000000
Expectation: 20.093417
Final Parameters:
Gammas:
[ 0.131093 3.142710 3.344137 3.141752 3.144944 ]
Betas:
[ 1.206647 1.551404 1.641902 1.564332 0.530010 ]
Aggregate results:
[ 36 24 32 28 20 16 12 0 ]
[ 0.010633 0.276563 0.039440 0.189550 0.235646 0.110535 0.001847 0.135786 ]
5
Num Evals 6000
GenUC: 2.600787e-04
GenUB: 9.610888e-05
Optimisation 1.603090e+01
Total Time: 1.603129e+01
2 Flipped
Graph 1:
0 0 1 0 1 1 
0 0 0 0 1 1 
1 0 0 0 0 0 
0 0 0 0 0 0 
1 1 0 0 0 1 
1 1 0 0 1 0 
Graph 2:
1 1 0 1 0 0 
1 1 0 0 0 0 
0 0 0 0 0 1 
0 0 0 0 0 0 
1 0 0 0 1 1 
0 1 0 0 1 1 
Solution: 26 110
Classic Expectation: 18.400000
Initial Expecation: 12.937500
Gbest: 20.000000
Expectation: 14.565821
Final Parameters:
Gammas:
[ 5.240605 3.153563 2.878716 3.102808 3.229076 ]
Betas:
[ 1.469524 1.460905 1.551404 1.586837 0.542991 ]
Aggregate results:
[ 20 16 22 18 14 24 26 12 0 ]
[ 0.161493 0.110083 0.126576 0.254234 0.053774 0.051302 0.001298 0.016326 0.224914 ]
5
Num Evals 6000
GenUC: 3.052641e-04
GenUB: 6.656919e-05
Optimisation 1.607826e+01
Total Time: 1.607864e+01
3 Add 6
Graph 1:
0 0 1 0 1 1 
0 0 0 0 1 1 
1 0 0 0 0 0 
0 0 0 0 0 0 
1 1 0 0 0 1 
1 1 0 0 1 0 
Graph 2:
0 1 1 1 1 1 
1 1 1 0 1 1 
1 1 0 1 1 1 
1 0 1 0 0 0 
1 1 1 0 0 1 
1 1 1 0 1 0 
Solution: 23 0
Classic Expectation: 18.200000
Initial Expecation: 12.796875
Gbest: 23.000000
Expectation: 16.639075
Final Parameters:
Gammas:
[ 5.317867 3.163140 5.248916 3.163140 3.138891 ]
Betas:
[ 1.603117 1.478143 0.698132 1.512619 0.698132 ]
Aggregate results:
[ 23 15 19 11 0 ]
[ 0.352251 0.163194 0.280186 0.069625 0.134745 ]
5
Num Evals 6000
GenUC: 3.054407e-04
GenUB: 6.772939e-05
Optimisation 1.567042e+01
Total Time: 1.567080e+01
4 Rem 6
Graph 1:
0 0 1 0 1 1 
0 0 0 0 1 1 
1 0 0 0 0 0 
0 0 0 0 0 0 
1 1 0 0 0 1 
1 1 0 0 1 0 
Graph 2:
0 0 0 0 0 0 
0 0 0 0 0 1 
0 0 0 0 0 0 
0 0 0 0 0 0 
0 0 0 0 0 1 
0 1 0 0 1 0 
Solution: 28 0
Classic Expectation: 23.200000
Initial Expecation: 16.312500
Gbest: 28.000000
Expectation: 21.464812
Final Parameters:
Gammas:
[ 6.163478 3.142071 2.911418 3.143029 3.171759 ]
Betas:
[ 1.939255 1.590189 1.439358 1.598808 2.614403 ]
Aggregate results:
[ 28 24 20 0 ]
[ 0.226825 0.459471 0.204320 0.109384 ]
5
Num Evals 6000
GenUC: 2.810176e-04
GenUB: 6.151537e-05
Optimisation 1.682291e+01
Total Time: 1.682326e+01
5 Add/Rem 6
Graph 1:
0 0 1 0 1 1 
0 0 0 0 1 1 
1 0 0 0 0 0 
0 0 0 0 0 0 
1 1 0 0 0 1 
1 1 0 0 1 0 
Graph 2:
1 1 0 1 0 0 
1 0 1 0 0 1 
0 1 0 1 1 1 
1 0 1 0 0 0 
0 0 1 0 0 1 
0 1 1 0 1 0 
Solution: 31 194
Classic Expectation: 19.800000
Initial Expecation: 13.921875
Gbest: 23.000000
Expectation: 18.441929
Final Parameters:
Gammas:
[ 1.042889 3.166012 3.118990 3.154520 0.755392 ]
Betas:
[ 1.590189 0.504207 1.628973 2.482245 0.170247 ]
Aggregate results:
[ 15 11 19 23 27 31 0 ]
[ 0.057106 0.021370 0.206820 0.448552 0.108927 0.005257 0.151968 ]
5
Num Evals 6000
GenUC: 2.799954e-04
GenUB: 6.077770e-05
Optimisation 1.713655e+01
Total Time: 1.713689e+01
