Clock Speed: 3.689179
Num threads: 4
Trotterisation: 5
Num Qubits: 10
Space Dimension: 1024
Run-Type: 0
Num_samples: 6
Optimiser Method: 0
1 Isomorphic
Graph 1:
0 1 1 1 1 1 
1 0 0 0 1 0 
1 0 0 0 1 0 
1 0 0 0 0 0 
1 1 1 0 0 1 
1 0 0 0 1 0 
Graph 2:
0 1 1 1 1 1 
1 0 0 0 1 0 
1 0 0 0 1 0 
1 0 0 0 0 0 
1 1 1 0 0 1 
1 0 0 0 1 0 
Solution: 36 0
Classic Expectation: 21.066667
Initial Expecation: 14.812500
Gbest: 36.000000
Expectation: 20.778171
Final Parameters:
Gammas:
[ 6.144431 3.140263 3.141114 3.145902 3.211980 ]
Betas:
[ 1.822899 1.603117 1.568642 1.568642 2.637386 ]
Aggregate results:
[ 36 28 24 32 20 16 12 0 ]
[ 0.019994 0.061438 0.335331 0.120346 0.232311 0.093671 0.024512 0.112397 ]
5
Num Evals 6000
GenUC: 2.596032e-04
GenUB: 8.888547e-05
Optimisation 1.445531e+02
Total Time: 1.445535e+02
2 Flipped
Graph 1:
0 1 1 1 1 1 
1 0 0 0 1 0 
1 0 0 0 1 0 
1 0 0 0 0 0 
1 1 1 0 0 1 
1 0 0 0 1 0 
Graph 2:
1 1 1 1 1 0 
0 1 0 0 0 1 
0 1 0 0 0 1 
0 0 0 0 0 1 
1 0 0 1 1 1 
0 1 0 0 0 1 
Solution: 22 1
Classic Expectation: 16.800000
Initial Expecation: 11.812500
Gbest: 20.000000
Expectation: 15.197751
Final Parameters:
Gammas:
[ 3.076951 1.057253 5.197203 5.208375 3.145902 ]
Betas:
[ 0.659347 1.716600 1.473834 1.525547 0.478349 ]
Aggregate results:
[ 16 22 18 20 14 12 0 ]
[ 0.321329 0.056827 0.251035 0.125349 0.113978 0.015416 0.116066 ]
5
Num Evals 6000
GenUC: 2.817094e-04
GenUB: 6.170370e-05
Optimisation 1.382754e+02
Total Time: 1.382757e+02
3 Add 6
Graph 1:
0 1 1 1 1 1 
1 0 0 0 1 0 
1 0 0 0 1 0 
1 0 0 0 0 0 
1 1 1 0 0 1 
1 0 0 0 1 0 
Graph 2:
0 1 1 1 1 1 
1 0 1 1 1 1 
1 1 1 1 1 0 
1 1 1 0 1 0 
1 1 1 1 0 1 
1 1 0 0 1 0 
Solution: 25 0
Classic Expectation: 20.733333
Initial Expecation: 14.578125
Gbest: 25.000000
Expectation: 18.136652
Final Parameters:
Gammas:
[ 3.131537 3.128664 1.757300 3.179420 3.143029 ]
Betas:
[ 1.745329 1.628974 1.396263 1.551404 2.598601 ]
Aggregate results:
[ 25 21 17 0 ]
[ 0.157066 0.349882 0.403675 0.089377 ]
5
Num Evals 6000
GenUC: 2.824030e-04
GenUB: 6.163270e-05
Optimisation 1.450216e+02
Total Time: 1.450220e+02
4 Rem 6
Graph 1:
0 1 1 1 1 1 
1 0 0 0 1 0 
1 0 0 0 1 0 
1 0 0 0 0 0 
1 1 1 0 0 1 
1 0 0 0 1 0 
Graph 2:
0 0 0 0 0 0 
0 0 0 0 1 0 
0 0 0 0 1 0 
0 0 0 0 0 0 
0 1 1 0 0 1 
0 0 0 0 1 0 
Solution: 26 0
Classic Expectation: 20.400000
Initial Expecation: 14.343750
Gbest: 26.000000
Expectation: 20.644772
Final Parameters:
Gammas:
[ 1.051507 3.141433 3.830627 3.102808 3.800939 ]
Betas:
[ 1.628974 1.473834 1.435048 0.542991 1.861685 ]
Aggregate results:
[ 26 18 14 22 0 ]
[ 0.421279 0.254902 0.060766 0.193297 0.069755 ]
5
Num Evals 6000
GenUC: 2.823473e-04
GenUB: 6.006467e-05
Optimisation 1.332155e+02
Total Time: 1.332159e+02
5 Add/Rem 6
Graph 1:
0 1 1 1 1 1 
1 0 0 0 1 0 
1 0 0 0 1 0 
1 0 0 0 0 0 
1 1 1 0 0 1 
1 0 0 0 1 0 
Graph 2:
0 0 0 0 0 0 
0 1 1 1 0 1 
0 1 0 0 1 0 
0 1 0 0 1 0 
0 0 1 1 0 1 
0 1 0 0 1 0 
Solution: 31 150
Classic Expectation: 19.800000
Initial Expecation: 13.921875
Gbest: 27.000000
Expectation: 19.257785
Final Parameters:
Gammas:
[ 4.552700 3.826796 4.421501 5.248916 2.327106 ]
Betas:
[ 2.831312 1.590189 1.585879 1.455159 1.525547 ]
Aggregate results:
[ 15 11 19 27 23 31 0 ]
[ 0.056760 0.010153 0.134852 0.162393 0.435988 0.042586 0.157267 ]
5
Num Evals 6000
GenUC: 2.822505e-04
GenUB: 6.072251e-05
Optimisation 1.437061e+02
Total Time: 1.437064e+02
