Clock Speed: 3.498887
Num threads: 16
Trotterisation: 4
Num Qubits: 13
Space Dimension: 8192
Run-Type: 0
Num_samples: 49
Optimiser Method: 0
1 Isomorphic
Graph 1:
0 0 1 1 0 0 0 
0 1 0 1 0 0 1 
1 1 0 1 1 1 0 
0 0 0 1 0 0 0 
1 1 1 1 1 0 1 
0 0 1 0 0 0 0 
0 0 0 0 0 0 1 
Graph 2:
0 0 1 1 0 0 0 
0 1 0 1 0 0 1 
1 1 0 1 1 1 0 
0 0 0 1 0 0 0 
1 1 1 1 1 0 1 
0 0 1 0 0 0 0 
0 0 0 0 0 0 1 
Solution: 49 0
Classic Expectation: 26.285714
Initial Expecation: 16.171875
Gbest: 37.000000
Expectation: 23.102545
Final Parameters:
Gammas:
[ 3.102813 3.154515 3.102813 2.989337 ]
Betas:
[ 1.551413 0.271505 0.465430 1.939264 ]
Aggregate results:
[ 49 39 33 35 27 31 37 45 25 21 29 23 19 17 43 41 15 0 ]
[ 0.000235 0.006999 0.044648 0.021622 0.152024 0.098343 0.011856 0.000147 0.147735 0.084118 0.121924 0.131757 0.035461 0.011206 0.000650 0.001470 0.000713 0.129089 ]
3
Num Evals 981
GenUC: 2.248744e-03
GenUB: 1.238375e-03
Optimisation 2.955683e+01
Total Time: 2.956033e+01
2 Flipped
Graph 1:
0 0 1 1 0 0 0 
0 1 0 1 0 0 1 
1 1 0 1 1 1 0 
0 0 0 1 0 0 0 
1 1 1 1 1 0 1 
0 0 1 0 0 0 0 
0 0 0 0 0 0 1 
Graph 2:
0 0 0 1 1 0 0 
1 0 0 1 0 1 0 
0 1 1 1 0 1 1 
0 0 0 1 0 0 0 
1 0 1 1 1 1 1 
0 0 0 0 1 0 0 
1 0 0 0 0 0 0 
Solution: 39 841
Classic Expectation: 25.857143
Initial Expecation: 15.908203
Gbest: 33.000000
Expectation: 19.741353
Final Parameters:
Gammas:
[ 3.141593 2.908882 3.374303 3.141593 ]
Betas:
[ 2.734349 0.872665 1.570796 1.570796 ]
Aggregate results:
[ 33 35 25 29 23 27 31 17 19 21 37 39 15 0 ]
[ 0.033383 0.012269 0.140586 0.114774 0.115713 0.150247 0.065640 0.007279 0.035563 0.076463 0.004669 0.000619 0.000813 0.241981 ]
3
Num Evals 265
GenUC: 2.818210e-03
GenUB: 1.004316e-03
Optimisation 9.053739e+00
Total Time: 9.057564e+00
3 Add 7
Graph 1:
0 0 1 1 0 0 0 
0 1 0 1 0 0 1 
1 1 0 1 1 1 0 
0 0 0 1 0 0 0 
1 1 1 1 1 0 1 
0 0 1 0 0 0 0 
0 0 0 0 0 0 1 
Graph 2:
0 0 1 1 0 1 1 
0 1 0 1 0 0 1 
1 1 0 1 1 1 0 
0 1 0 1 0 0 0 
1 1 1 1 1 0 1 
0 0 1 0 1 0 0 
1 0 0 1 0 0 1 
Solution: 43 0
Classic Expectation: 24.571429
Initial Expecation: 15.117187
Gbest: 35.000000
Expectation: 22.016907
Final Parameters:
Gammas:
[ 3.335518 3.378612 2.878716 2.973541 ]
Betas:
[ 1.396264 0.077571 0.465421 2.055610 ]
Aggregate results:
[ 43 33 29 31 23 27 25 35 41 21 19 17 39 37 15 13 0 ]
[ 0.000085 0.022838 0.085032 0.049874 0.173790 0.137296 0.185286 0.008199 0.000068 0.136476 0.064355 0.021185 0.000461 0.001372 0.006129 0.000918 0.106636 ]
3
Num Evals 1549
GenUC: 2.814219e-03
GenUB: 1.180552e-03
Optimisation 4.545925e+01
Total Time: 4.546325e+01
4 Rem 7
Graph 1:
0 0 1 1 0 0 0 
0 1 0 1 0 0 1 
1 1 0 1 1 1 0 
0 0 0 1 0 0 0 
1 1 1 1 1 0 1 
0 0 1 0 0 0 0 
0 0 0 0 0 0 1 
Graph 2:
0 0 0 0 0 0 0 
0 1 0 1 0 0 0 
0 1 0 1 1 1 0 
0 0 0 0 0 0 0 
1 1 1 1 0 0 1 
0 0 1 0 0 0 0 
0 0 0 0 0 0 0 
Solution: 42 0
Classic Expectation: 27.000000
Initial Expecation: 16.611328
Gbest: 34.000000
Expectation: 18.218509
Final Parameters:
Gammas:
[ 3.141593 1.047198 5.235988 3.141593 ]
Betas:
[ 1.570796 1.570796 1.570796 2.617994 ]
Aggregate results:
[ 42 36 34 30 26 28 40 32 24 22 20 38 18 0 ]
[ 0.000332 0.012911 0.026917 0.108117 0.121911 0.119663 0.000948 0.059989 0.110736 0.072916 0.027949 0.004219 0.006786 0.326606 ]
3
Num Evals 59
GenUC: 2.818302e-03
GenUB: 1.129582e-03
Optimisation 2.039602e+00
Total Time: 2.043552e+00
5 Add/Rem 7
Graph 1:
0 0 1 1 0 0 0 
0 1 0 1 0 0 1 
1 1 0 1 1 1 0 
0 0 0 1 0 0 0 
1 1 1 1 1 0 1 
0 0 1 0 0 0 0 
0 0 0 0 0 0 1 
Graph 2:
0 0 1 1 1 0 0 
0 1 0 1 0 0 0 
1 1 0 0 1 0 0 
0 0 0 1 0 0 0 
1 1 0 1 1 1 1 
0 0 0 1 0 0 0 
0 0 0 1 0 1 1 
Solution: 41 1328
Classic Expectation: 26.285714
Initial Expecation: 16.171875
Gbest: 33.000000
Expectation: 23.274705
Final Parameters:
Gammas:
[ 3.316609 3.401476 2.870098 3.800941 ]
Betas:
[ 1.512620 0.155141 0.478349 1.861686 ]
Aggregate results:
[ 39 37 31 29 33 27 25 23 35 21 19 41 17 0 ]
[ 0.001282 0.007179 0.075080 0.138834 0.043261 0.157944 0.169613 0.155797 0.018493 0.088117 0.027007 0.001047 0.002111 0.114235 ]
3
Num Evals 1555
GenUC: 2.822324e-03
GenUB: 1.275721e-03
Optimisation 4.570734e+01
Total Time: 4.571144e+01
