Clock Speed: 3.498710
Num threads: 16
Trotterisation: 4
Num Qubits: 13
Space Dimension: 8192
Run-Type: 0
Num_samples: 49
Optimiser Method: 0
1 Isomorphic
Graph 1:
1 0 0 1 0 0 0 
0 0 1 0 0 1 1 
0 1 1 0 0 1 1 
0 0 1 1 0 1 1 
1 1 0 1 0 0 1 
0 0 1 0 0 0 1 
0 1 0 1 1 1 1 
Graph 2:
1 0 0 1 0 0 0 
0 0 1 0 0 1 1 
0 1 1 0 0 1 1 
0 0 1 1 0 1 1 
1 1 0 1 0 0 1 
0 0 1 0 0 0 1 
0 1 0 1 1 1 1 
Solution: 49 0
Classic Expectation: 24.619048
Initial Expecation: 15.146484
Gbest: 31.000000
Expectation: 19.254429
Final Parameters:
Gammas:
[ 3.374303 2.908882 3.374303 3.141593 ]
Betas:
[ 2.617994 0.872665 1.570796 1.570796 ]
Aggregate results:
[ 49 37 35 29 25 33 27 31 23 21 43 41 39 15 17 19 13 0 ]
[ 0.000347 0.002654 0.004552 0.063295 0.155571 0.010609 0.110173 0.033762 0.156256 0.146209 0.000438 0.000607 0.000786 0.007664 0.026832 0.081596 0.001818 0.196832 ]
3
Num Evals 315
GenUC: 2.280327e-03
GenUB: 1.235218e-03
Optimisation 1.056328e+01
Total Time: 1.056680e+01
2 Flipped
Graph 1:
1 0 0 1 0 0 0 
0 0 1 0 0 1 1 
0 1 1 0 0 1 1 
0 0 1 1 0 1 1 
1 1 0 1 0 0 1 
0 0 1 0 0 0 1 
0 1 0 1 1 1 1 
Graph 2:
0 0 0 1 0 0 1 
1 1 0 0 1 0 0 
1 1 0 0 1 1 0 
1 1 0 1 1 0 0 
1 0 0 1 0 1 1 
1 0 0 0 1 0 0 
1 1 1 1 0 1 0 
Solution: 35 751
Classic Expectation: 24.238095
Initial Expecation: 14.912109
Gbest: 31.000000
Expectation: 21.533537
Final Parameters:
Gammas:
[ 3.335518 2.895954 3.364248 2.671862 ]
Betas:
[ 1.435048 0.155140 0.504206 1.900470 ]
Aggregate results:
[ 21 23 25 27 29 17 15 19 13 31 33 35 11 0 ]
[ 0.144627 0.202606 0.205854 0.135505 0.077870 0.025381 0.005746 0.061035 0.001014 0.023879 0.008149 0.002099 0.000005 0.106229 ]
3
Num Evals 2565
GenUC: 2.865629e-03
GenUB: 1.232545e-03
Optimisation 7.305442e+01
Total Time: 7.305852e+01
3 Add 7
Graph 1:
1 0 0 1 0 0 0 
0 0 1 0 0 1 1 
0 1 1 0 0 1 1 
0 0 1 1 0 1 1 
1 1 0 1 0 0 1 
0 0 1 0 0 0 1 
0 1 0 1 1 1 1 
Graph 2:
1 0 1 1 0 1 1 
0 0 1 0 0 1 1 
0 1 1 0 1 1 1 
1 0 1 1 0 1 1 
1 1 0 1 0 1 1 
0 0 1 0 0 0 1 
0 1 0 1 1 1 1 
Solution: 43 0
Classic Expectation: 24.333333
Initial Expecation: 14.970703
Gbest: 31.000000
Expectation: 18.894294
Final Parameters:
Gammas:
[ 3.374303 2.908882 3.374303 3.141593 ]
Betas:
[ 2.617994 0.872665 1.570796 1.570796 ]
Aggregate results:
[ 43 33 31 27 23 19 25 29 35 21 37 15 17 39 13 41 0 ]
[ 0.000211 0.009209 0.023104 0.104904 0.182524 0.081624 0.161158 0.046908 0.001773 0.149471 0.000782 0.006364 0.031446 0.000030 0.001801 0.000243 0.198448 ]
3
Num Evals 323
GenUC: 2.863959e-03
GenUB: 1.021968e-03
Optimisation 1.072030e+01
Total Time: 1.072418e+01
4 Rem 7
Graph 1:
1 0 0 1 0 0 0 
0 0 1 0 0 1 1 
0 1 1 0 0 1 1 
0 0 1 1 0 1 1 
1 1 0 1 0 0 1 
0 0 1 0 0 0 1 
0 1 0 1 1 1 1 
Graph 2:
1 0 0 1 0 0 0 
0 0 1 0 0 1 1 
0 0 1 0 0 1 1 
0 0 0 1 0 1 1 
1 1 0 1 0 0 1 
0 0 0 0 0 0 1 
0 1 0 0 0 1 0 
Solution: 43 0
Classic Expectation: 24.714286
Initial Expecation: 15.205078
Gbest: 37.000000
Expectation: 21.500303
Final Parameters:
Gammas:
[ 3.343339 3.154521 3.345733 2.689100 ]
Betas:
[ 1.486762 0.090499 0.504206 1.900470 ]
Aggregate results:
[ 43 39 31 29 27 23 25 33 21 37 19 35 17 15 13 0 ]
[ 0.000404 0.000543 0.025919 0.071587 0.130995 0.223445 0.184053 0.007546 0.154781 0.001681 0.066580 0.002742 0.020581 0.002132 0.000027 0.106984 ]
3
Num Evals 1837
GenUC: 2.860800e-03
GenUB: 1.000236e-03
Optimisation 5.338537e+01
Total Time: 5.338923e+01
5 Add/Rem 7
Graph 1:
1 0 0 1 0 0 0 
0 0 1 0 0 1 1 
0 1 1 0 0 1 1 
0 0 1 1 0 1 1 
1 1 0 1 0 0 1 
0 0 1 0 0 0 1 
0 1 0 1 1 1 1 
Graph 2:
1 0 0 1 0 0 1 
0 1 0 1 1 1 1 
0 1 1 0 1 1 1 
1 0 0 1 0 1 1 
1 1 0 0 0 0 0 
0 0 0 0 0 0 1 
0 1 1 1 1 0 0 
Solution: 37 513
Classic Expectation: 24.619048
Initial Expecation: 15.146484
Gbest: 31.000000
Expectation: 19.063811
Final Parameters:
Gammas:
[ 3.374303 2.908882 3.374303 3.141593 ]
Betas:
[ 2.617994 0.872665 1.570796 1.570796 ]
Aggregate results:
[ 35 31 29 27 23 21 25 19 33 17 37 15 13 0 ]
[ 0.003842 0.033998 0.078313 0.113895 0.155481 0.124645 0.153618 0.068282 0.011095 0.033609 0.000537 0.013116 0.003355 0.206213 ]
3
Num Evals 295
GenUC: 2.872390e-03
GenUB: 1.098818e-03
Optimisation 9.902381e+00
Total Time: 9.906355e+00
