Clock Speed: 3.689272
Num threads: 4
Trotterisation: 6
Num Qubits: 5
Space Dimension: 32
Run-Type: 0
Num_samples: 6399
Optimiser Method: 20
1 Isomorphic
Graph 1:
1 1 0 1 
1 1 1 0 
1 0 0 0 
1 0 0 0 
Graph 2:
1 1 0 1 
1 1 1 0 
1 0 0 0 
1 0 0 0 
Solution: 16 0
Classic Expectation: 8.000000
Initial Expecation: 6.000000
Gbest: 16.000000
Expectation: 9.306701
Final Parameters:
Gammas:
[ 4.657324 1.416817 1.253974 5.230738 3.801731 3.768775 ]
Betas:
[ 2.759801 2.882394 2.046188 2.551482 0.162378 0.276119 ]
Aggregate results:
[ 16 12 10 8 6 4 0 ]
[ 0.075349 0.147693 0.135227 0.584053 0.047718 0.004449 0.005511 ]
5
Num Evals 4800
GenUC: 8.312578e-06
GenUB: 8.351286e-06
Optimisation 2.486976e+00
Total Time: 2.487011e+00
2 Flipped
Graph 1:
1 1 0 1 
1 1 1 0 
1 0 0 0 
1 0 0 0 
Graph 2:
1 0 1 1 
0 1 1 1 
0 0 0 1 
0 0 0 1 
Solution: 12 19
Classic Expectation: 8.000000
Initial Expecation: 6.000000
Gbest: 12.000000
Expectation: 9.520344
Final Parameters:
Gammas:
[ 1.751433 3.518009 1.378629 3.672516 2.379707 4.670861 ]
Betas:
[ 1.815360 1.053142 2.648825 0.952703 2.004807 0.571488 ]
Aggregate results:
[ 8 6 10 12 0 ]
[ 0.531564 0.022652 0.081393 0.359832 0.004558 ]
5
Num Evals 4800
GenUC: 9.276730e-06
GenUB: 1.962413e-06
Optimisation 2.437519e+00
Total Time: 2.437532e+00
3 Add 4
Graph 1:
1 1 0 1 
1 1 1 0 
1 0 0 0 
1 0 0 0 
Graph 2:
1 1 0 1 
1 1 1 0 
1 0 1 1 
1 0 0 0 
Solution: 14 0
Classic Expectation: 8.000000
Initial Expecation: 6.000000
Gbest: 14.000000
Expectation: 9.009519
Final Parameters:
Gammas:
[ 1.977574 5.305188 3.010131 2.245736 4.743536 5.032760 ]
Betas:
[ 0.491855 2.226966 1.057301 1.206155 2.897695 2.365019 ]
Aggregate results:
[ 14 10 12 8 6 4 0 ]
[ 0.107314 0.293552 0.017393 0.460728 0.105306 0.011307 0.004400 ]
5
Num Evals 4800
GenUC: 9.240990e-06
GenUB: 1.737033e-06
Optimisation 2.934104e+00
Total Time: 2.934118e+00
4 Rem 4
Graph 1:
1 1 0 1 
1 1 1 0 
1 0 0 0 
1 0 0 0 
Graph 2:
1 0 0 1 
1 1 0 0 
0 0 0 0 
0 0 0 0 
Solution: 12 0
Classic Expectation: 8.000000
Initial Expecation: 6.000000
Gbest: 12.000000
Expectation: 8.950483
Final Parameters:
Gammas:
[ 0.713539 0.731326 6.211413 1.511932 1.217743 1.349899 ]
Betas:
[ 0.938093 1.746296 3.090434 0.883302 1.717974 2.427086 ]
Aggregate results:
[ 12 10 8 6 4 0 ]
[ 0.188879 0.351114 0.341707 0.063366 0.014737 0.040197 ]
5
Num Evals 4800
GenUC: 9.049079e-06
GenUB: 1.531036e-06
Optimisation 3.198009e+00
Total Time: 3.198022e+00
5 Add/Rem 4
Graph 1:
1 1 0 1 
1 1 1 0 
1 0 0 0 
1 0 0 0 
Graph 2:
1 1 0 1 
1 1 1 0 
1 1 0 1 
0 1 0 0 
Solution: 14 7
Classic Expectation: 8.000000
Initial Expecation: 6.000000
Gbest: 14.000000
Expectation: 9.487030
Final Parameters:
Gammas:
[ 5.963600 2.412443 0.035069 3.963589 2.335706 1.816947 ]
Betas:
[ 2.639230 3.084380 2.231235 2.955089 0.892786 3.093735 ]
Aggregate results:
[ 12 8 10 14 6 4 0 ]
[ 0.165779 0.278731 0.058263 0.232014 0.231557 0.011918 0.021738 ]
5
Num Evals 4800
GenUC: 9.459851e-06
GenUB: 1.541630e-06
Optimisation 4.129826e+00
Total Time: 4.129839e+00
