Clock Speed: 3.689008
Num threads: 4
Trotterisation: 4
Graph Size: 3
Num Qubits: 3
Space Dimension: 8
Run-Type: 0
Num_samples: 10
1 Isomorphic
Graph 1:
1 1 0 
0 1 0 
0 1 1 
Graph 2:
1 1 0 
0 1 0 
0 1 1 
Solution: 0 0
Gbest: 0.000000
Expectation: -1.789691
Final Parameters:
Gammas:
[ 4.202497 4.855390 1.738026 3.850118 ]
Betas:
[ 1.061640 1.844623 2.330485 1.974644 2.709115 ]
Aggregate results:
[ -1 3 8 ]
[ 0.627233 0.313042 0.059725 ]
5
Num Evals 300
GenUC: 2.208674e-04
GenUB: 8.386502e-06
Optimisation 7.314721e-02
Total Time: 7.366610e-02
2 Flipped
Graph 1:
1 1 0 
0 1 0 
0 1 1 
Graph 2:
0 1 1 
0 1 0 
1 1 0 
Solution: -4 0
Gbest: -4.000000
Expectation: -4.870463
Final Parameters:
Gammas:
[ 5.708322 0.745596 1.351601 3.173858 ]
Betas:
[ 0.566491 2.022007 0.918766 1.612261 1.763046 ]
Aggregate results:
[ 3 5 8 ]
[ 0.720604 0.175506 0.103890 ]
5
Num Evals 600
GenUC: 6.526243e-06
GenUB: 5.334965e-06
Optimisation 7.149611e-02
Total Time: 7.174747e-02
3 Add 3
Graph 1:
1 1 0 
0 1 0 
0 1 1 
Graph 2:
1 1 0 
0 1 0 
1 1 1 
Solution: -1 0
Gbest: -1.000000
Expectation: -2.362819
Final Parameters:
Gammas:
[ 2.670453 2.477533 5.174284 5.451539 ]
Betas:
[ 0.263977 1.856257 1.198513 2.700296 2.857756 ]
Aggregate results:
[ 0 2 4 8 ]
[ 0.581476 0.193946 0.205425 0.019154 ]
5
Num Evals 900
GenUC: 6.209360e-06
GenUB: 5.492242e-06
Optimisation 8.774110e-02
Total Time: 8.801654e-02
4 Rem 3
Graph 1:
1 1 0 
0 1 0 
0 1 1 
Graph 2:
0 1 0 
0 1 0 
0 1 0 
Solution: -2 0
Gbest: -2.000000
Expectation: -2.983647
Final Parameters:
Gammas:
[ 2.089165 4.116523 6.278840 3.624427 ]
Betas:
[ 2.430056 2.016214 2.520176 2.546595 1.834872 ]
Aggregate results:
[ 1 5 8 ]
[ 0.780820 0.183537 0.035643 ]
5
Num Evals 1200
GenUC: 8.047326e-06
GenUB: 5.776266e-06
Optimisation 7.345072e-02
Total Time: 7.375003e-02
5 Add/Rem 3
Graph 1:
1 1 0 
0 1 0 
0 1 1 
Graph 2:
1 0 0 
1 1 0 
1 1 0 
Solution: -2 1
Gbest: -2.000000
Expectation: -3.203183
Final Parameters:
Gammas:
[ 4.486342 1.212421 5.535660 3.761162 ]
Betas:
[ 2.645900 1.516232 3.091294 2.443109 2.634324 ]
Aggregate results:
[ 3 1 5 8 ]
[ 0.166778 0.634444 0.173939 0.024838 ]
5
Num Evals 1500
GenUC: 6.079063e-06
GenUB: 5.465234e-06
Optimisation 7.395397e-02
Total Time: 7.426308e-02
