Clock Speed: 3.689245
Num threads: 4
Trotterisation: 4
Graph Size: 3
Num Qubits: 3
Space Dimension: 8
Run-Type: 0
Num_samples: 10
1 Isomorphic
Graph 1:
0 1 1 
0 0 1 
0 1 1 
Graph 2:
0 1 1 
0 0 1 
0 1 1 
Solution: 0 0
Gbest: 0.000000
Expectation: -2.659213
Final Parameters:
Gammas:
[ 5.129760 2.397162 3.242061 6.242110 ]
Betas:
[ 2.326909 2.494337 3.104285 0.785217 1.529999 ]
Aggregate results:
[ -1 3 5 1 8 ]
[ 0.529330 0.171267 0.185970 0.023224 0.090208 ]
5
Num Evals 300
GenUC: 1.469604e-04
GenUB: 8.775038e-06
Optimisation 7.077331e-02
Total Time: 7.125104e-02
2 Flipped
Graph 1:
0 1 1 
0 0 1 
0 1 1 
Graph 2:
1 1 0 
1 0 0 
1 1 0 
Solution: 0 5
Gbest: 0.000000
Expectation: -2.586243
Final Parameters:
Gammas:
[ 0.291243 4.931347 5.653939 1.257521 ]
Betas:
[ 2.886713 2.635111 0.241111 1.646197 1.887486 ]
Aggregate results:
[ 5 1 3 -1 8 ]
[ 0.124750 0.303524 0.100212 0.379309 0.092205 ]
5
Num Evals 600
GenUC: 6.536196e-06
GenUB: 5.607231e-06
Optimisation 7.013328e-02
Total Time: 7.055138e-02
3 Add 3
Graph 1:
0 1 1 
0 0 1 
0 1 1 
Graph 2:
0 1 1 
1 1 1 
1 1 1 
Solution: -3 0
Gbest: -3.000000
Expectation: -3.031713
Final Parameters:
Gammas:
[ 6.226036 0.871045 0.649120 3.857909 ]
Betas:
[ 2.465531 2.185880 1.244126 0.875900 1.811969 ]
Aggregate results:
[ 2 4 8 ]
[ 0.986709 0.012009 0.001283 ]
5
Num Evals 900
GenUC: 6.088463e-06
GenUB: 5.432375e-06
Optimisation 8.399051e-02
Total Time: 8.426172e-02
4 Rem 3
Graph 1:
0 1 1 
0 0 1 
0 1 1 
Graph 2:
0 1 0 
0 0 1 
0 0 0 
Solution: -3 0
Gbest: -3.000000
Expectation: -3.871268
Final Parameters:
Gammas:
[ 2.495703 2.138811 4.020666 3.030195 ]
Betas:
[ 3.139680 1.719270 0.467021 0.115490 1.703415 ]
Aggregate results:
[ 2 4 8 ]
[ 0.742073 0.169074 0.088853 ]
5
Num Evals 1200
GenUC: 7.835479e-06
GenUB: 5.428854e-06
Optimisation 7.115318e-02
Total Time: 7.139734e-02
5 Add/Rem 3
Graph 1:
0 1 1 
0 0 1 
0 1 1 
Graph 2:
1 0 0 
0 0 1 
1 1 1 
Solution: -4 0
Gbest: -4.000000
Expectation: -4.072031
Final Parameters:
Gammas:
[ 3.462772 6.229487 5.189670 5.024902 ]
Betas:
[ 1.885209 0.566849 1.670230 0.772143 1.550883 ]
Aggregate results:
[ 3 5 8 ]
[ 0.970019 0.025958 0.004023 ]
5
Num Evals 1500
GenUC: 6.094895e-06
GenUB: 5.084963e-06
Optimisation 7.099557e-02
Total Time: 7.123821e-02
