Clock Speed: 3.688298
Num threads: 4
Trotterisation: 4
Graph Size: 3
Num Qubits: 3
Space Dimension: 8
Run-Type: 0
Num_samples: 10
1 Isomorphic
Graph 1:
1 0 1 
1 0 1 
1 0 1 
Graph 2:
1 0 1 
1 0 1 
1 0 1 
Solution: 0 0
Gbest: 0.000000
Expectation: -2.251306
Final Parameters:
Gammas:
[ 3.870646 2.387124 2.003958 4.649973 ]
Betas:
[ 3.053917 0.960413 2.711592 0.095464 0.429281 ]
Aggregate results:
[ -1 5 8 ]
[ 0.683653 0.198607 0.117741 ]
5
Num Evals 300
GenUC: 2.294727e-04
GenUB: 7.725146e-06
Optimisation 7.108631e-02
Total Time: 7.157984e-02
2 Flipped
Graph 1:
1 0 1 
1 0 1 
1 0 1 
Graph 2:
1 0 1 
1 0 1 
1 0 1 
Solution: 0 0
Gbest: 0.000000
Expectation: -2.379623
Final Parameters:
Gammas:
[ 0.305230 5.632804 1.184904 4.800231 ]
Betas:
[ 2.564343 2.329575 0.223396 3.105788 2.507442 ]
Aggregate results:
[ -1 5 8 ]
[ 0.632771 0.308480 0.058749 ]
5
Num Evals 600
GenUC: 6.226968e-06
GenUB: 5.380134e-06
Optimisation 7.109651e-02
Total Time: 7.137949e-02
3 Add 3
Graph 1:
1 0 1 
1 0 1 
1 0 1 
Graph 2:
1 1 1 
1 1 1 
1 1 1 
Solution: -3 0
Gbest: -3.000000
Expectation: -3.001744
Final Parameters:
Gammas:
[ 5.454810 1.622341 3.033298 4.005307 ]
Betas:
[ 1.769567 1.170083 3.063222 0.554597 2.320445 ]
Aggregate results:
[ 2 8 ]
[ 0.999709 0.000291 ]
5
Num Evals 900
GenUC: 6.012182e-06
GenUB: 5.361944e-06
Optimisation 8.576654e-02
Total Time: 8.603803e-02
4 Rem 3
Graph 1:
1 0 1 
1 0 1 
1 0 1 
Graph 2:
0 0 0 
1 0 1 
1 0 1 
Solution: -2 0
Gbest: -2.000000
Expectation: -3.262744
Final Parameters:
Gammas:
[ 6.259576 5.986659 4.079590 4.067017 ]
Betas:
[ 2.479021 1.557223 0.759839 0.000070 2.949160 ]
Aggregate results:
[ 1 5 8 ]
[ 0.697272 0.285450 0.017278 ]
5
Num Evals 1200
GenUC: 8.593081e-06
GenUB: 5.393638e-06
Optimisation 7.140706e-02
Total Time: 7.165209e-02
5 Add/Rem 3
Graph 1:
1 0 1 
1 0 1 
1 0 1 
Graph 2:
1 1 0 
1 1 0 
1 1 1 
Solution: -1 3
Gbest: -1.000000
Expectation: -1.880827
Final Parameters:
Gammas:
[ 2.603394 0.843933 4.854792 4.474994 ]
Betas:
[ 2.943956 0.343411 1.447201 2.343723 2.906917 ]
Aggregate results:
[ 4 0 8 ]
[ 0.120481 0.829656 0.049863 ]
5
Num Evals 1500
GenUC: 6.376591e-06
GenUB: 5.276845e-06
Optimisation 7.170826e-02
Total Time: 7.199130e-02
