Clock Speed: 3.689182
Num threads: 4
Trotterisation: 4
Graph Size: 3
Num Qubits: 3
Space Dimension: 8
Run-Type: 0
Num_samples: 10
1 Isomorphic
Graph 1:
0 0 0 
0 0 1 
1 0 1 
Graph 2:
0 0 0 
0 0 1 
1 0 1 
Solution: 0 0
Gbest: 0.000000
Expectation: -2.137680
Final Parameters:
Gammas:
[ 5.985184 2.782140 0.859978 1.584493 ]
Betas:
[ 1.581955 0.672998 0.566902 2.146086 1.204899 ]
Aggregate results:
[ -1 3 5 8 ]
[ 0.554240 0.311816 0.105028 0.028917 ]
5
Num Evals 300
GenUC: 2.135275e-04
GenUB: 8.149422e-06
Optimisation 7.517106e-02
Total Time: 7.579604e-02
2 Flipped
Graph 1:
0 0 0 
0 0 1 
1 0 1 
Graph 2:
0 0 0 
1 0 0 
1 0 1 
Solution: -2 0
Gbest: -2.000000
Expectation: -3.760163
Final Parameters:
Gammas:
[ 5.156462 2.566314 4.114596 4.170430 ]
Betas:
[ 0.524310 2.515483 0.109325 1.250687 1.669496 ]
Aggregate results:
[ 1 3 5 8 ]
[ 0.239357 0.695143 0.029541 0.035959 ]
5
Num Evals 600
GenUC: 7.017399e-06
GenUB: 5.504000e-06
Optimisation 7.242454e-02
Total Time: 7.266250e-02
3 Add 3
Graph 1:
0 0 0 
0 0 1 
1 0 1 
Graph 2:
1 1 0 
1 0 1 
1 0 1 
Solution: -3 0
Gbest: -3.000000
Expectation: -3.862362
Final Parameters:
Gammas:
[ 4.851439 0.993712 1.098671 4.651805 ]
Betas:
[ 1.405518 0.282150 2.144286 1.641546 0.221521 ]
Aggregate results:
[ 2 6 4 8 ]
[ 0.762227 0.124033 0.079052 0.034687 ]
5
Num Evals 900
GenUC: 6.190501e-06
GenUB: 5.415408e-06
Optimisation 8.698101e-02
Total Time: 8.722128e-02
4 Rem 3
Graph 1:
0 0 0 
0 0 1 
1 0 1 
Graph 2:
0 0 0 
0 0 0 
1 0 0 
Solution: -2 0
Gbest: -2.000000
Expectation: -2.718111
Final Parameters:
Gammas:
[ 3.294032 3.465879 1.920081 1.326757 ]
Betas:
[ 2.791507 0.086361 0.188043 2.672638 1.119797 ]
Aggregate results:
[ 1 3 8 ]
[ 0.655700 0.338397 0.005902 ]
5
Num Evals 1200
GenUC: 8.260948e-06
GenUB: 5.587237e-06
Optimisation 7.412776e-02
Total Time: 7.437478e-02
5 Add/Rem 3
Graph 1:
0 0 0 
0 0 1 
1 0 1 
Graph 2:
0 0 1 
1 0 0 
1 0 0 
Solution: -2 5
Gbest: -2.000000
Expectation: -3.322836
Final Parameters:
Gammas:
[ 2.447995 2.284890 1.406511 4.161185 ]
Betas:
[ 1.645021 2.283706 1.479998 1.692035 1.824143 ]
Aggregate results:
[ 3 5 1 8 ]
[ 0.310256 0.099243 0.546879 0.043622 ]
5
Num Evals 1500
GenUC: 6.513321e-06
GenUB: 5.499227e-06
Optimisation 7.323483e-02
Total Time: 7.366414e-02
