Clock Speed: 3.688897
Num threads: 4
Trotterisation: 5
Graph Size: 7
Num Qubits: 13
Space Dimension: 8192
Run-Type: 0
Num_samples: 10
1 Isomorphic
Graph 1:
0 1 0 0 1 1 1 
1 1 1 1 1 0 0 
1 0 1 0 0 0 1 
0 1 0 0 0 1 0 
0 1 0 1 1 1 1 
0 0 0 0 0 1 1 
1 0 1 1 1 1 1 
Graph 2:
0 1 0 0 1 1 1 
1 1 1 1 1 0 0 
1 0 1 0 0 0 1 
0 1 0 0 0 1 0 
0 1 0 1 1 1 1 
0 0 0 0 0 1 1 
1 0 1 1 1 1 1 
Solution: 0 0
Gbest: -20.000000
Expectation: -29.726224
Final Parameters:
Gammas:
[ 0.435677 2.718562 4.418968 3.227828 6.118832 ]
Betas:
[ 3.083998 2.029766 1.539058 1.517602 0.041639 1.593546 ]
Aggregate results:
[ -1 17 15 9 13 21 19 11 7 23 27 25 29 35 31 33 48 ]
[ 0.000311 0.033243 0.009713 0.001534 0.004242 0.169400 0.107744 0.001919 0.001024 0.185108 0.077131 0.121116 0.029632 0.000092 0.013856 0.003661 0.240273 ]
5
Num Evals 700
GenUC: 1.604209e-03
GenUB: 2.083292e-03
Optimisation 1.046811e+01
Total Time: 1.048650e+01
2 Flipped
Graph 1:
0 1 0 0 1 1 1 
1 1 1 1 1 0 0 
1 0 1 0 0 0 1 
0 1 0 0 0 1 0 
0 1 0 1 1 1 1 
0 0 0 0 0 1 1 
1 0 1 1 1 1 1 
Graph 2:
1 1 1 0 0 1 0 
0 0 1 1 1 1 1 
1 0 0 0 1 0 1 
0 1 0 0 0 1 0 
1 1 1 1 0 1 0 
1 1 0 0 0 0 0 
1 1 1 1 1 0 1 
Solution: -14 1576
Gbest: -20.000000
Expectation: -23.992791
Final Parameters:
Gammas:
[ 3.166387 3.170683 3.109637 3.322982 4.002022 ]
Betas:
[ 1.285825 1.525065 2.330946 1.481531 1.413323 1.563350 ]
Aggregate results:
[ 19 21 25 23 31 27 29 17 35 33 15 13 48 ]
[ 0.170848 0.255874 0.136383 0.208009 0.005295 0.050794 0.016287 0.082879 0.001624 0.003865 0.020788 0.000186 0.047168 ]
5
Num Evals 1400
GenUC: 1.206550e-03
GenUB: 1.759904e-03
Optimisation 1.067939e+01
Total Time: 1.069911e+01
3 Add 7
Graph 1:
0 1 0 0 1 1 1 
1 1 1 1 1 0 0 
1 0 1 0 0 0 1 
0 1 0 0 0 1 0 
0 1 0 1 1 1 1 
0 0 0 0 0 1 1 
1 0 1 1 1 1 1 
Graph 2:
1 1 0 0 1 1 1 
1 1 1 1 1 0 0 
1 0 1 1 1 0 1 
0 1 1 0 0 1 1 
0 1 0 1 1 1 1 
1 0 0 0 0 1 1 
1 0 1 1 1 1 1 
Solution: -6 0
Gbest: -18.000000
Expectation: -25.354465
Final Parameters:
Gammas:
[ 3.319140 5.482071 1.815890 1.080550 5.192780 ]
Betas:
[ 2.107803 2.574603 3.027279 3.061296 3.043281 0.102475 ]
Aggregate results:
[ 5 21 19 15 11 23 17 9 13 25 7 29 27 31 35 33 48 ]
[ 0.000311 0.199828 0.148618 0.029782 0.002114 0.193542 0.073135 0.001177 0.005714 0.150914 0.000116 0.020851 0.074625 0.004119 0.000137 0.000224 0.094794 ]
5
Num Evals 2100
GenUC: 1.244885e-03
GenUB: 1.728596e-03
Optimisation 1.283376e+01
Total Time: 1.285462e+01
4 Rem 7
Graph 1:
0 1 0 0 1 1 1 
1 1 1 1 1 0 0 
1 0 1 0 0 0 1 
0 1 0 0 0 1 0 
0 1 0 1 1 1 1 
0 0 0 0 0 1 1 
1 0 1 1 1 1 1 
Graph 2:
0 1 0 0 1 1 1 
1 1 1 1 1 0 0 
1 0 1 0 0 0 1 
0 1 0 0 0 1 0 
0 1 0 1 1 0 0 
0 0 0 0 0 1 1 
1 0 1 0 0 0 0 
Solution: -6 0
Gbest: -20.000000
Expectation: -33.096726
Final Parameters:
Gammas:
[ 1.490884 5.473785 0.431419 5.695254 3.840281 ]
Betas:
[ 0.435888 2.295919 1.095764 1.122873 2.916422 0.457781 ]
Aggregate results:
[ 5 23 21 15 19 25 27 17 13 11 29 31 33 37 35 48 ]
[ 0.000383 0.139529 0.117312 0.008312 0.065999 0.128948 0.092626 0.028228 0.003882 0.000708 0.040603 0.013985 0.004490 0.000469 0.001006 0.353520 ]
5
Num Evals 2800
GenUC: 1.272548e-03
GenUB: 1.755327e-03
Optimisation 9.756125e+00
Total Time: 9.772699e+00
5 Add/Rem 7
Graph 1:
0 1 0 0 1 1 1 
1 1 1 1 1 0 0 
1 0 1 0 0 0 1 
0 1 0 0 0 1 0 
0 1 0 1 1 1 1 
0 0 0 0 0 1 1 
1 0 1 1 1 1 1 
Graph 2:
1 0 1 1 1 1 1 
1 1 1 1 1 1 1 
1 1 1 0 0 0 1 
0 1 0 1 0 1 0 
0 1 0 0 1 1 0 
0 0 0 0 0 0 0 
1 0 1 1 1 1 1 
Solution: -12 0
Gbest: -12.000000
Expectation: -24.414419
Final Parameters:
Gammas:
[ 3.222572 1.961826 4.132089 6.148389 0.047271 ]
Betas:
[ 0.021996 0.636751 0.070375 2.764601 3.075194 2.835278 ]
Aggregate results:
[ 11 17 21 19 13 15 25 23 27 29 31 33 48 ]
[ 0.004788 0.084643 0.212153 0.131491 0.012746 0.036787 0.138899 0.200838 0.078925 0.029298 0.007881 0.001290 0.060261 ]
5
Num Evals 3500
GenUC: 1.002064e-03
GenUB: 1.800194e-03
Optimisation 9.929402e+00
Total Time: 9.946068e+00
