Clock Speed: 3.498801
Num threads: 16
Trotterisation: 6
Num Qubits: 5
Space Dimension: 32
Run-Type: 0
Num_samples: 16
Optimiser Method: 34
1 Isomorphic
Graph 1:
0 0 1 0 
1 0 0 0 
1 0 0 0 
0 1 0 0 
Graph 2:
0 0 1 0 
1 0 0 0 
1 0 0 0 
0 1 0 0 
Solution: 16 0
Classic Expectation: 10.666667
Initial Expecation: 8.000000
Gbest: 16.000000
Expectation: 12.903373
Final Parameters:
Gammas:
[ 2.984134 3.489086 3.323192 3.019514 2.897374 3.463431 ]
Betas:
[ 2.083908 0.650446 1.083187 2.487711 1.226852 1.429255 ]
Aggregate results:
[ 16 10 12 8 14 0 ]
[ 0.288889 0.088161 0.566419 0.014689 0.034643 0.007199 ]
3
Num Evals 2639
GenUC: 9.533949e-06
GenUB: 1.423853e-05
Optimisation 5.693739e-01
Total Time: 5.694060e-01
2 Flipped
Graph 1:
0 0 1 0 
1 0 0 0 
1 0 0 0 
0 1 0 0 
Graph 2:
0 1 0 0 
0 0 0 1 
0 0 0 1 
0 0 1 0 
Solution: 16 21
Classic Expectation: 10.666667
Initial Expecation: 8.000000
Gbest: 16.000000
Expectation: 12.892677
Final Parameters:
Gammas:
[ 3.215164 3.240338 2.675055 3.325614 3.273970 3.040442 ]
Betas:
[ 2.649187 1.168771 0.234129 1.152956 2.440746 2.121172 ]
Aggregate results:
[ 8 12 10 14 16 0 ]
[ 0.008501 0.518343 0.094839 0.133804 0.236431 0.008081 ]
3
Num Evals 2502
GenUC: 1.019379e-05
GenUB: 1.553912e-06
Optimisation 5.575549e-01
Total Time: 5.575686e-01
3 Add 4
Graph 1:
0 0 1 0 
1 0 0 0 
1 0 0 0 
0 1 0 0 
Graph 2:
1 0 1 0 
1 0 0 0 
1 0 0 0 
1 1 0 1 
Solution: 13 0
Classic Expectation: 8.333333
Initial Expecation: 6.250000
Gbest: 13.000000
Expectation: 9.989578
Final Parameters:
Gammas:
[ 3.193256 2.895137 2.910649 2.617404 3.403072 3.198315 ]
Betas:
[ 2.324506 0.879523 1.786593 1.382228 3.034923 1.495437 ]
Aggregate results:
[ 13 9 11 7 5 0 ]
[ 0.214245 0.525165 0.177234 0.071093 0.006137 0.006126 ]
3
Num Evals 1036
GenUC: 9.995420e-06
GenUB: 1.505949e-06
Optimisation 2.499834e-01
Total Time: 2.499967e-01
4 Rem 4
Graph 1:
0 0 1 0 
1 0 0 0 
1 0 0 0 
0 1 0 0 
Graph 2:
0 0 0 0 
0 0 0 0 
1 0 0 0 
0 0 0 0 
Solution: 13 0
Classic Expectation: 11.666667
Initial Expecation: 8.750000
Gbest: 13.000000
Expectation: 12.638415
Final Parameters:
Gammas:
[ 3.355755 3.837610 3.745644 3.101956 2.377882 2.867616 ]
Betas:
[ 0.868092 1.788446 1.905760 2.449443 0.774919 1.866282 ]
Aggregate results:
[ 13 11 0 ]
[ 0.830474 0.167477 0.002049 ]
3
Num Evals 3629
GenUC: 9.967946e-06
GenUB: 1.443084e-06
Optimisation 8.276252e-01
Total Time: 8.276384e-01
5 Add/Rem 4
Graph 1:
0 0 1 0 
1 0 0 0 
1 0 0 0 
0 1 0 0 
Graph 2:
0 1 0 1 
1 0 0 0 
1 0 0 0 
1 0 0 0 
Solution: 13 1
Classic Expectation: 10.333333
Initial Expecation: 7.750000
Gbest: 13.000000
Expectation: 11.687500
Final Parameters:
Gammas:
[ 3.002563 2.884335 3.235505 3.260330 2.643606 2.382550 ]
Betas:
[ 2.703133 2.107689 2.443232 1.325365 1.336853 1.479893 ]
Aggregate results:
[ 11 13 7 9 0 ]
[ 0.463771 0.447826 0.009769 0.077322 0.001312 ]
3
Num Evals 1871
GenUC: 1.003686e-05
GenUB: 1.487788e-06
Optimisation 4.606140e-01
Total Time: 4.606273e-01
