Clock Speed: 3.498795
Num threads: 16
Trotterisation: 2
Num Qubits: 16
Space Dimension: 65536
Run-Type: 0
Num_samples: 64
Optimiser Method: 20
1 Isomorphic
Graph 1:
0 1 0 1 0 0 0 1 
1 1 0 1 1 0 0 1 
0 0 0 0 0 0 1 0 
1 1 0 0 0 0 1 0 
0 1 0 0 0 1 1 0 
0 0 0 0 1 0 0 0 
0 0 1 1 1 0 1 0 
1 1 0 0 0 0 0 1 
Graph 2:
0 1 0 1 0 0 0 1 
1 1 0 1 1 0 0 1 
0 0 0 0 0 0 1 0 
1 1 0 0 0 0 1 0 
0 1 0 0 0 1 1 0 
0 0 0 0 1 0 0 0 
0 0 1 1 1 0 1 0 
1 1 0 0 0 0 0 1 
Solution: 64 0
Classic Expectation: 34.535714
Initial Expecation: 21.247559
Gbest: 44.000000
Expectation: 25.316054
Final Parameters:
Gammas:
[ 6.220528 2.585624 ]
Betas:
[ 0.195016 2.271589 ]
Aggregate results:
[ 64 44 54 42 50 56 40 46 38 36 48 32 30 34 58 52 28 26 22 24 20 18 0 ]
[ 0.000012 0.020472 0.000318 0.041568 0.001953 0.000211 0.064534 0.010656 0.077900 0.117252 0.003150 0.120559 0.066573 0.091356 0.000038 0.000455 0.061941 0.031124 0.007005 0.016385 0.002380 0.000695 0.263464 ]
5
Num Evals 3200
GenUC: 1.834099e-02
GenUB: 1.304002e-02
Optimisation 4.909755e+02
Total Time: 4.910068e+02
2 Flipped
Graph 1:
0 1 0 1 0 0 0 1 
1 1 0 1 1 0 0 1 
0 0 0 0 0 0 1 0 
1 1 0 0 0 0 1 0 
0 1 0 0 0 1 1 0 
0 0 0 0 1 0 0 0 
0 0 1 1 1 0 1 0 
1 1 0 0 0 0 0 1 
Graph 2:
1 0 0 0 1 0 1 0 
1 0 0 1 1 0 1 1 
0 1 0 0 0 0 0 0 
0 1 0 0 0 0 1 1 
0 1 1 0 0 0 1 0 
0 0 0 1 0 0 0 0 
0 1 0 1 1 1 0 0 
1 0 0 0 0 0 1 1 
Solution: 48 3776
Classic Expectation: 34.500000
Initial Expecation: 21.225586
Gbest: 40.000000
Expectation: 23.070739
Final Parameters:
Gammas:
[ 5.216330 0.983512 ]
Betas:
[ 0.760114 3.085708 ]
Aggregate results:
[ 42 38 40 36 34 32 30 46 44 28 26 24 22 20 48 0 ]
[ 0.020484 0.089808 0.048949 0.133568 0.138130 0.110805 0.072948 0.001042 0.005861 0.032679 0.010590 0.003449 0.000665 0.000025 0.000137 0.330859 ]
5
Num Evals 3200
GenUC: 2.310693e-02
GenUB: 1.381347e-02
Optimisation 6.563702e+02
Total Time: 6.564072e+02
3 Add 8
Graph 1:
0 1 0 1 0 0 0 1 
1 1 0 1 1 0 0 1 
0 0 0 0 0 0 1 0 
1 1 0 0 0 0 1 0 
0 1 0 0 0 1 1 0 
0 0 0 0 1 0 0 0 
0 0 1 1 1 0 1 0 
1 1 0 0 0 0 0 1 
Graph 2:
0 1 1 1 1 1 1 1 
1 1 1 1 1 0 1 1 
1 1 0 1 1 0 1 1 
1 1 1 0 0 0 1 1 
1 1 1 0 0 1 1 0 
1 0 0 0 1 0 0 0 
1 1 1 1 1 0 1 0 
1 1 1 1 0 0 0 1 
Solution: 44 0
Classic Expectation: 28.821429
Initial Expecation: 17.731934
Gbest: 38.000000
Expectation: 21.828736
Final Parameters:
Gammas:
[ 3.297336 1.727463 ]
Betas:
[ 2.484192 3.004670 ]
Aggregate results:
[ 44 40 34 30 36 28 24 26 38 32 42 22 20 18 16 14 10 12 0 ]
[ 0.000317 0.006305 0.074265 0.120317 0.031322 0.132420 0.095522 0.095668 0.022902 0.088342 0.002190 0.044331 0.036828 0.010003 0.006537 0.001602 0.000151 0.000269 0.230710 ]
5
Num Evals 3200
GenUC: 2.316867e-02
GenUB: 1.437837e-02
Optimisation 7.177429e+02
Total Time: 7.177804e+02
4 Rem 8
Graph 1:
0 1 0 1 0 0 0 1 
1 1 0 1 1 0 0 1 
0 0 0 0 0 0 1 0 
1 1 0 0 0 0 1 0 
0 1 0 0 0 1 1 0 
0 0 0 0 1 0 0 0 
0 0 1 1 1 0 1 0 
1 1 0 0 0 0 0 1 
Graph 2:
0 0 0 0 0 0 0 0 
0 0 0 0 0 0 0 1 
0 0 0 0 0 0 0 0 
0 0 0 0 0 0 1 0 
0 0 0 0 0 0 1 0 
0 0 0 0 0 0 0 0 
0 0 0 1 1 0 1 0 
0 1 0 0 0 0 0 1 
Solution: 49 0
Classic Expectation: 38.785714
Initial Expecation: 23.862305
Gbest: 45.000000
Expectation: 31.667955
Final Parameters:
Gammas:
[ 1.446603 6.167190 ]
Betas:
[ 1.342288 0.672665 ]
Aggregate results:
[ 49 37 43 39 35 45 33 47 41 0 ]
[ 0.004454 0.162309 0.108043 0.203018 0.100870 0.032117 0.083774 0.015676 0.107408 0.182332 ]
5
Num Evals 3200
GenUC: 2.312193e-02
GenUB: 1.436865e-02
Optimisation 7.978426e+02
Total Time: 7.978801e+02
5 Add/Rem 8
Graph 1:
0 1 0 1 0 0 0 1 
1 1 0 1 1 0 0 1 
0 0 0 0 0 0 1 0 
1 1 0 0 0 0 1 0 
0 1 0 0 0 1 1 0 
0 0 0 0 1 0 0 0 
0 0 1 1 1 0 1 0 
1 1 0 0 0 0 0 1 
Graph 2:
0 0 1 0 1 1 1 0 
0 0 1 1 0 0 0 0 
1 1 0 1 0 1 0 1 
0 1 1 0 0 0 1 1 
1 0 0 0 0 0 1 0 
1 0 1 0 0 0 0 0 
1 0 0 1 1 0 1 0 
0 0 1 1 0 0 0 1 
Solution: 55 6024
Classic Expectation: 33.642857
Initial Expecation: 20.698242
Gbest: 45.000000
Expectation: 29.661112
Final Parameters:
Gammas:
[ 0.052422 6.064550 ]
Betas:
[ 0.668159 3.021284 ]
Aggregate results:
[ 31 35 29 37 33 27 21 25 23 39 41 19 43 45 49 47 51 53 55 17 15 0 ]
[ 0.033725 0.108015 0.020581 0.152955 0.069073 0.022993 0.007779 0.018672 0.018707 0.120935 0.115884 0.006487 0.059133 0.036906 0.005291 0.010188 0.001016 0.000270 0.000070 0.000703 0.000249 0.190366 ]
5
Num Evals 3200
GenUC: 2.313442e-02
GenUB: 1.331900e-02
Optimisation 5.285393e+02
Total Time: 5.285757e+02
