Clock Speed: 3.498847
Num threads: 16
Trotterisation: 2
Num Qubits: 19
Space Dimension: 524288
Run-Type: 0
Num_samples: 81
Optimiser Method: 20
1 Isomorphic
Graph 1:
1 0 1 1 1 0 1 0 0 
0 1 1 1 0 1 0 1 0 
0 0 1 1 1 0 1 0 0 
1 0 0 0 0 1 0 1 0 
1 1 1 1 1 0 1 1 0 
0 1 1 1 0 1 1 1 1 
0 0 1 0 0 0 0 1 0 
0 1 0 0 1 0 0 0 0 
0 0 1 1 0 1 1 0 1 
Graph 2:
1 0 1 1 1 0 1 0 0 
0 1 1 1 0 1 0 1 0 
0 0 1 1 1 0 1 0 0 
1 0 0 0 0 1 0 1 0 
1 1 1 1 1 0 1 1 0 
0 1 1 1 0 1 1 1 1 
0 0 1 0 0 0 0 1 0 
0 1 0 0 1 0 0 0 0 
0 0 1 1 0 1 1 0 1 
Solution: 81 0
Classic Expectation: 41.111111
Initial Expecation: 28.454590
Gbest: 51.000000
Expectation: 36.503157
Final Parameters:
Gammas:
[ 1.435099 1.742232 ]
Betas:
[ 3.141593 2.599735 ]
Aggregate results:
[ 81 59 63 57 65 61 41 53 49 47 55 73 43 45 37 51 39 35 33 31 29 67 27 71 25 23 69 21 19 0 ]
[ 0.000001 0.000941 0.000198 0.002266 0.000065 0.000398 0.134656 0.011151 0.040878 0.067846 0.005185 0.000007 0.122306 0.095834 0.105404 0.022384 0.128502 0.073449 0.043998 0.021226 0.009068 0.000029 0.003132 0.000012 0.001009 0.000234 0.000013 0.000029 0.000006 0.109773 ]
5
Num Evals 3600
GenUC: 1.784477e-01
GenUB: 1.336177e-01
Optimisation 9.890631e+03
Total Time: 9.890943e+03
2 Flipped
Graph 1:
1 0 1 1 1 0 1 0 0 
0 1 1 1 0 1 0 1 0 
0 0 1 1 1 0 1 0 0 
1 0 0 0 0 1 0 1 0 
1 1 1 1 1 0 1 1 0 
0 1 1 1 0 1 1 1 1 
0 0 1 0 0 0 0 1 0 
0 1 0 0 1 0 0 0 0 
0 0 1 1 0 1 1 0 1 
Graph 2:
0 0 1 0 1 1 1 0 1 
0 1 0 1 0 1 1 1 0 
0 0 1 0 1 1 1 0 0 
0 1 0 1 0 0 0 0 1 
0 1 1 0 1 1 1 1 1 
1 1 1 1 0 1 1 1 0 
0 1 0 0 0 0 1 0 0 
0 0 0 0 1 0 0 1 0 
1 0 1 1 0 1 1 0 0 
Solution: 59 264
Classic Expectation: 41.500000
Initial Expecation: 28.723755
Gbest: 49.000000
Expectation: 32.142186
Final Parameters:
Gammas:
[ 1.664407 6.093941 ]
Betas:
[ 2.098435 2.608563 ]
Aggregate results:
[ 53 45 47 41 49 39 37 43 51 33 35 31 59 55 57 29 27 25 0 ]
[ 0.003939 0.101995 0.064972 0.141910 0.031956 0.121276 0.084066 0.133391 0.012839 0.020396 0.047107 0.007345 0.000005 0.000928 0.000161 0.001804 0.000426 0.000045 0.225439 ]
5
Num Evals 3600
GenUC: 3.017659e-01
GenUB: 1.311281e-01
Optimisation 7.665752e+03
Total Time: 7.666185e+03
3 Add 9
Graph 1:
1 0 1 1 1 0 1 0 0 
0 1 1 1 0 1 0 1 0 
0 0 1 1 1 0 1 0 0 
1 0 0 0 0 1 0 1 0 
1 1 1 1 1 0 1 1 0 
0 1 1 1 0 1 1 1 1 
0 0 1 0 0 0 0 1 0 
0 1 0 0 1 0 0 0 0 
0 0 1 1 0 1 1 0 1 
Graph 2:
1 0 1 1 1 0 1 1 1 
0 1 1 1 0 1 0 1 0 
0 0 1 1 1 0 1 1 0 
1 0 1 0 0 1 1 1 0 
1 1 1 1 1 0 1 1 1 
1 1 1 1 0 1 1 1 1 
0 0 1 0 1 0 1 1 0 
0 1 0 0 1 0 0 0 0 
0 0 1 1 0 1 1 0 1 
Solution: 72 0
Classic Expectation: 41.000000
Initial Expecation: 28.377686
Gbest: 56.000000
Expectation: 32.521120
Final Parameters:
Gammas:
[ 0.476791 3.028113 ]
Betas:
[ 1.068930 0.570399 ]
Aggregate results:
[ 72 52 62 56 38 50 46 58 48 42 54 44 64 60 40 34 36 66 32 30 28 68 26 22 24 20 0 ]
[ 0.000000 0.011504 0.000092 0.001819 0.111884 0.023759 0.071188 0.000637 0.044237 0.121735 0.005042 0.101363 0.000021 0.000210 0.126640 0.051562 0.082472 0.000004 0.025806 0.011009 0.003761 0.000002 0.001031 0.000038 0.000184 0.000007 0.203992 ]
5
Num Evals 3600
GenUC: 3.018845e-01
GenUB: 1.295341e-01
Optimisation 4.748411e+03
Total Time: 4.748842e+03
4 Rem 9
Graph 1:
1 0 1 1 1 0 1 0 0 
0 1 1 1 0 1 0 1 0 
0 0 1 1 1 0 1 0 0 
1 0 0 0 0 1 0 1 0 
1 1 1 1 1 0 1 1 0 
0 1 1 1 0 1 1 1 1 
0 0 1 0 0 0 0 1 0 
0 1 0 0 1 0 0 0 0 
0 0 1 1 0 1 1 0 1 
Graph 2:
1 0 1 1 0 0 1 0 0 
0 0 1 0 0 0 0 1 0 
0 0 1 1 0 0 1 0 0 
1 0 0 0 0 1 0 1 0 
1 1 1 0 0 0 1 1 0 
0 1 1 1 0 1 1 1 1 
0 0 1 0 0 0 0 1 0 
0 1 0 0 1 0 0 0 0 
0 0 1 1 0 0 1 0 1 
Solution: 73 0
Classic Expectation: 40.777778
Initial Expecation: 28.223877
Gbest: 57.000000
Expectation: 37.652860
Final Parameters:
Gammas:
[ 0.038947 0.320307 ]
Betas:
[ 0.551714 0.099438 ]
Aggregate results:
[ 73 53 55 51 59 37 47 45 39 43 49 67 65 41 57 61 35 63 31 33 29 27 25 23 21 0 ]
[ 0.000004 0.013366 0.003879 0.035716 0.000220 0.052579 0.119382 0.145354 0.064265 0.136501 0.073815 0.000011 0.000021 0.098728 0.000978 0.000056 0.051635 0.000013 0.027941 0.044689 0.013399 0.004595 0.001255 0.000151 0.000030 0.111416 ]
5
Num Evals 3600
GenUC: 3.019220e-01
GenUB: 1.302314e-01
Optimisation 3.058490e+03
Total Time: 3.058923e+03
5 Add/Rem 9
Graph 1:
1 0 1 1 1 0 1 0 0 
0 1 1 1 0 1 0 1 0 
0 0 1 1 1 0 1 0 0 
1 0 0 0 0 1 0 1 0 
1 1 1 1 1 0 1 1 0 
0 1 1 1 0 1 1 1 1 
0 0 1 0 0 0 0 1 0 
0 1 0 0 1 0 0 0 0 
0 0 1 1 0 1 1 0 1 
Graph 2:
1 0 0 1 1 0 1 0 1 
1 1 1 1 0 1 0 0 0 
0 0 1 1 1 0 1 1 1 
0 0 0 0 0 1 0 1 0 
1 1 0 1 1 0 1 1 0 
0 1 1 1 0 1 1 0 1 
0 1 1 0 0 0 0 1 1 
1 0 0 0 1 1 0 0 0 
0 0 1 0 1 0 0 0 1 
Solution: 63 0
Classic Expectation: 41.111111
Initial Expecation: 28.454590
Gbest: 47.000000
Expectation: 35.763811
Final Parameters:
Gammas:
[ 4.902323 1.264685 ]
Betas:
[ 3.132166 0.572135 ]
Aggregate results:
[ 63 57 55 53 59 47 43 51 49 41 45 39 37 35 31 33 27 29 61 25 23 0 ]
[ 0.000001 0.000448 0.001560 0.005130 0.000120 0.062889 0.135452 0.014151 0.032463 0.152835 0.100323 0.141763 0.108315 0.067580 0.011951 0.033347 0.000719 0.003543 0.000017 0.000145 0.000021 0.127225 ]
5
Num Evals 3600
GenUC: 3.018076e-01
GenUB: 1.292152e-01
Optimisation 7.396078e+03
Total Time: 7.396509e+03
