Clock Speed: 1.518482
Num threads: 12
Trotterisation: 1
Graph Size: 4
Num Qubits: 5
Space Dimension: 32
Run-Type: 0
Num_samples: 1
1 Isomorphic
Graph 1:
0 0 0 0 
0 1 1 0 
1 1 1 0 
0 1 1 1 
Graph 2:
0 0 0 0 
0 1 1 0 
1 1 1 0 
0 1 1 1 
Solution: 0 0
Expectation: -8.557884
Final Parameters:
Gammas:
[ 3.731109 ]
Betas:
[ 2.060339 0.909806 ]
Aggregate results:
[ 0 6 8 2 10 4 12 16 ]
[ 0.080285 0.115053 0.315581 0.066161 0.153298 0.048392 0.013908 0.207322 ]
3
Num Evals 120
GenUC: 6.500575e-03
GenUB: 2.939114e-05
Optimisation 4.076557e-02
Total Time: 4.764623e-02
2 Flipped
Graph 1:
0 0 0 0 
0 1 1 0 
1 1 1 0 
0 1 1 1 
Graph 2:
0 0 0 0 
0 1 1 0 
0 1 1 1 
1 1 1 0 
Solution: -4 0
Expectation: -9.090116
Final Parameters:
Gammas:
[ 5.662928 ]
Betas:
[ 1.349381 2.291712 ]
Aggregate results:
[ 4 8 10 6 12 16 ]
[ 0.159375 0.349683 0.255322 0.061738 0.012652 0.161230 ]
3
Num Evals 245
GenUC: 2.251798e-05
GenUB: 2.265628e-05
Optimisation 5.093308e-02
Total Time: 5.134846e-02
3 Add 4
Graph 1:
0 0 0 0 
0 1 1 0 
1 1 1 0 
0 1 1 1 
Graph 2:
1 1 1 0 
0 1 1 0 
1 1 1 1 
0 1 1 1 
Solution: -4 0
Expectation: -6.783486
Final Parameters:
Gammas:
[ 2.967394 ]
Betas:
[ 1.731331 0.391970 ]
Aggregate results:
[ 4 6 8 12 16 ]
[ 0.151782 0.413365 0.397428 0.020514 0.016911 ]
3
Num Evals 380
GenUC: 2.160063e-05
GenUB: 2.130959e-05
Optimisation 3.701692e-02
Total Time: 3.735937e-02
4 Rem 4
Graph 1:
0 0 0 0 
0 1 1 0 
1 1 1 0 
0 1 1 1 
Graph 2:
0 0 0 0 
0 1 0 0 
1 1 0 0 
0 1 1 0 
Solution: -3 0
Expectation: -9.275415
Final Parameters:
Gammas:
[ 4.624632 ]
Betas:
[ 2.371649 2.591900 ]
Aggregate results:
[ 3 7 9 5 11 16 ]
[ 0.070502 0.329394 0.302472 0.024296 0.091789 0.181547 ]
3
Num Evals 496
GenUC: 2.648728e-05
GenUB: 2.107117e-05
Optimisation 5.758470e-02
Total Time: 5.809779e-02
5 Add/Rem 4
Graph 1:
0 0 0 0 
0 1 1 0 
1 1 1 0 
0 1 1 1 
Graph 2:
0 0 1 0 
0 1 0 1 
0 0 1 1 
0 1 1 1 
Solution: -4 8
Expectation: -8.780234
Final Parameters:
Gammas:
[ 3.360798 ]
Betas:
[ 1.991227 1.326087 ]
Aggregate results:
[ 6 8 10 12 4 16 ]
[ 0.101744 0.305166 0.097091 0.016274 0.259447 0.220279 ]
3
Num Evals 630
GenUC: 2.305070e-05
GenUB: 2.197130e-05
Optimisation 4.836891e-02
Total Time: 4.878954e-02
