Clock Speed: 1.519035
Num threads: 12
Trotterisation: 1
Graph Size: 4
Num Qubits: 5
Space Dimension: 32
Run-Type: 0
Num_samples: 1
1 Isomorphic
Graph 1:
0 1 0 1 
1 1 0 0 
0 1 0 1 
1 1 1 0 
Graph 2:
0 1 0 1 
1 1 0 0 
0 1 0 1 
1 1 1 0 
Solution: 0 0
Expectation: -7.513064
Final Parameters:
Gammas:
[ 3.651898 ]
Betas:
[ 1.277989 0.547431 ]
Aggregate results:
[ 0 6 8 10 2 4 16 ]
[ 0.084625 0.170264 0.331638 0.254352 0.087000 0.002756 0.069364 ]
3
Num Evals 132
GenUC: 1.149562e-02
GenUB: 2.834573e-05
Optimisation 3.647943e-02
Total Time: 4.826922e-02
2 Flipped
Graph 1:
0 1 0 1 
1 1 0 0 
0 1 0 1 
1 1 1 0 
Graph 2:
1 0 1 0 
0 0 1 1 
1 0 1 0 
0 1 1 1 
Solution: -4 3
Expectation: -9.464236
Final Parameters:
Gammas:
[ 5.183033 ]
Betas:
[ 2.382074 2.124236 ]
Aggregate results:
[ 14 8 6 4 12 10 16 ]
[ 0.009705 0.185159 0.184772 0.123152 0.024457 0.268617 0.204138 ]
3
Num Evals 252
GenUC: 2.332591e-05
GenUB: 2.296688e-05
Optimisation 5.279564e-02
Total Time: 5.325258e-02
3 Add 4
Graph 1:
0 1 0 1 
1 1 0 0 
0 1 0 1 
1 1 1 0 
Graph 2:
0 1 1 1 
1 1 0 0 
1 1 0 1 
1 1 1 0 
Solution: -2 0
Expectation: -8.625000
Final Parameters:
Gammas:
[ 3.141593 ]
Betas:
[ 2.356194 1.570796 ]
Aggregate results:
[ 2 6 8 4 16 ]
[ 0.062500 0.250000 0.312500 0.125000 0.250000 ]
3
Num Evals 256
GenUC: 2.116850e-05
GenUB: 2.103066e-05
Optimisation 1.411878e-03
Total Time: 1.821655e-03
4 Rem 4
Graph 1:
0 1 0 1 
1 1 0 0 
0 1 0 1 
1 1 1 0 
Graph 2:
0 1 0 1 
1 0 0 0 
0 0 0 1 
1 0 1 0 
Solution: -3 0
Expectation: -7.687664
Final Parameters:
Gammas:
[ 4.616004 ]
Betas:
[ 2.396441 2.300072 ]
Aggregate results:
[ 3 5 7 9 11 16 ]
[ 0.021584 0.511862 0.084659 0.222454 0.016430 0.143011 ]
3
Num Evals 371
GenUC: 2.562767e-05
GenUB: 2.003321e-05
Optimisation 5.687699e-02
Total Time: 5.735936e-02
5 Add/Rem 4
Graph 1:
0 1 0 1 
1 1 0 0 
0 1 0 1 
1 1 1 0 
Graph 2:
0 1 1 0 
0 1 0 0 
1 0 1 1 
1 1 0 0 
Solution: -5 6
Expectation: -9.283365
Final Parameters:
Gammas:
[ 4.139677 ]
Betas:
[ 1.556263 2.242454 ]
Aggregate results:
[ 7 9 5 11 13 16 ]
[ 0.414210 0.269973 0.075848 0.044661 0.013771 0.181538 ]
3
Num Evals 493
GenUC: 2.226513e-05
GenUB: 2.074288e-05
Optimisation 4.279814e-02
Total Time: 4.318280e-02
