Clock Speed: 1.518956
Num threads: 12
Trotterisation: 2
Graph Size: 4
Num Qubits: 5
Space Dimension: 32
Run-Type: 0
Num_samples: 1
1 Isomorphic
Graph 1:
0 1 0 0 
0 1 1 0 
1 0 1 0 
1 0 0 0 
Graph 2:
0 1 0 0 
0 1 1 0 
1 0 1 0 
1 0 0 0 
Solution: 0 0
Expectation: -7.810987
Final Parameters:
Gammas:
[ 4.354144 3.021158 ]
Betas:
[ 2.694184 1.969726 1.970626 ]
Aggregate results:
[ 0 10 4 6 8 12 16 ]
[ 0.056268 0.149880 0.194455 0.061666 0.428927 0.001979 0.106825 ]
3
Num Evals 253
GenUC: 6.716759e-03
GenUB: 1.749303e-04
Optimisation 1.324206e-01
Total Time: 1.399157e-01
2 Flipped
Graph 1:
0 1 0 0 
0 1 1 0 
1 0 1 0 
1 0 0 0 
Graph 2:
0 0 1 0 
0 1 1 0 
0 1 0 1 
0 0 0 1 
Solution: -2 19
Expectation: -6.831432
Final Parameters:
Gammas:
[ 6.123106 4.290880 ]
Betas:
[ 2.081928 1.916558 1.601900 ]
Aggregate results:
[ 8 6 10 4 12 2 16 ]
[ 0.453237 0.268268 0.043891 0.131260 0.009902 0.070138 0.023305 ]
3
Num Evals 556
GenUC: 2.170401e-05
GenUB: 2.129469e-05
Optimisation 1.667755e-01
Total Time: 1.674256e-01
3 Add 4
Graph 1:
0 1 0 0 
0 1 1 0 
1 0 1 0 
1 0 0 0 
Graph 2:
0 1 1 1 
0 1 1 0 
1 0 1 1 
1 0 1 0 
Solution: -4 0
Expectation: -8.587077
Final Parameters:
Gammas:
[ 5.276855 3.407757 ]
Betas:
[ 1.701114 2.032381 1.667939 ]
Aggregate results:
[ 4 12 6 8 10 14 16 ]
[ 0.050293 0.021422 0.043781 0.645622 0.182443 0.013136 0.043303 ]
3
Num Evals 823
GenUC: 2.217479e-05
GenUB: 2.551498e-05
Optimisation 1.288624e-01
Total Time: 1.293993e-01
4 Rem 4
Graph 1:
0 1 0 0 
0 1 1 0 
1 0 1 0 
1 0 0 0 
Graph 2:
0 1 0 0 
0 1 0 0 
0 0 1 0 
1 0 0 0 
Solution: -2 0
Expectation: -6.758990
Final Parameters:
Gammas:
[ 4.593047 3.779005 ]
Betas:
[ 1.987666 1.144147 2.437767 ]
Aggregate results:
[ 2 8 6 4 10 16 ]
[ 0.158826 0.298806 0.279384 0.118588 0.068351 0.076045 ]
3
Num Evals 1123
GenUC: 2.133660e-05
GenUB: 2.066139e-05
Optimisation 1.901108e-01
Total Time: 1.908399e-01
5 Add/Rem 4
Graph 1:
0 1 0 0 
0 1 1 0 
1 0 1 0 
1 0 0 0 
Graph 2:
0 0 0 1 
0 1 1 0 
0 1 1 0 
0 1 0 1 
Solution: -3 21
Expectation: -6.334492
Final Parameters:
Gammas:
[ 3.582647 3.606823 ]
Betas:
[ 1.821616 1.123659 1.242294 ]
Aggregate results:
[ 7 9 5 11 3 16 ]
[ 0.075815 0.195312 0.453525 0.058548 0.179575 0.037225 ]
3
Num Evals 1450
GenUC: 2.297293e-05
GenUB: 2.191355e-05
Optimisation 1.464724e-01
Total Time: 1.470085e-01
