Clock Speed: 1.522753
Num threads: 12
Trotterisation: 4
Graph Size: 4
Num Qubits: 5
Space Dimension: 32
Run-Type: 0
Num_samples: 1
1 Isomorphic
Graph 1:
1 1 0 0 
0 1 0 1 
1 0 0 0 
0 1 1 1 
Graph 2:
1 1 0 0 
0 1 0 1 
1 0 0 0 
0 1 1 1 
Solution: 0 0
Expectation: -3.447454
Final Parameters:
Gammas:
[ 3.722424 2.579910 3.795810 0.987290 ]
Betas:
[ 2.732541 1.577143 2.163463 1.856384 1.508959 ]
Aggregate results:
[ 0 8 4 10 6 16 ]
[ 0.582678 0.242497 0.086766 0.031188 0.006141 0.050731 ]
5
Num Evals 400
GenUC: 8.937149e-03
GenUB: 1.007030e-04
Optimisation 3.705186e-01
Total Time: 3.804210e-01
2 Flipped
Graph 1:
1 1 0 0 
0 1 0 1 
1 0 0 0 
0 1 1 1 
Graph 2:
0 0 1 1 
1 0 1 0 
0 0 0 1 
1 1 1 0 
Solution: -6 3
Expectation: -8.990295
Final Parameters:
Gammas:
[ 4.207996 3.857122 3.274277 3.855393 ]
Betas:
[ 0.727754 0.838817 1.497906 1.523439 1.198429 ]
Aggregate results:
[ 12 8 6 10 16 ]
[ 0.039878 0.554897 0.121041 0.200100 0.084083 ]
5
Num Evals 800
GenUC: 2.552476e-05
GenUB: 2.331007e-05
Optimisation 2.950119e-01
Total Time: 2.957804e-01
3 Add 4
Graph 1:
1 1 0 0 
0 1 0 1 
1 0 0 0 
0 1 1 1 
Graph 2:
1 1 0 1 
1 1 0 1 
1 0 0 0 
0 1 1 1 
Solution: -2 0
Expectation: -7.161972
Final Parameters:
Gammas:
[ 4.553963 4.567927 2.669338 3.232122 ]
Betas:
[ 2.837115 2.704230 2.423774 1.850966 1.584219 ]
Aggregate results:
[ 2 6 8 10 12 4 16 ]
[ 0.092352 0.475695 0.172639 0.055751 0.021809 0.082108 0.099646 ]
5
Num Evals 1200
GenUC: 2.248213e-05
GenUB: 2.045650e-05
Optimisation 3.765568e-01
Total Time: 3.775635e-01
4 Rem 4
Graph 1:
1 1 0 0 
0 1 0 1 
1 0 0 0 
0 1 1 1 
Graph 2:
0 1 0 0 
0 1 0 1 
1 0 0 0 
0 0 0 0 
Solution: -4 0
Expectation: -6.303134
Final Parameters:
Gammas:
[ 3.308186 3.684747 3.584880 3.373468 ]
Betas:
[ 1.415165 1.063475 1.447236 1.449203 1.253281 ]
Aggregate results:
[ 4 10 12 8 6 16 ]
[ 0.497951 0.068915 0.027870 0.341343 0.046575 0.017347 ]
5
Num Evals 1600
GenUC: 2.113543e-05
GenUB: 2.051424e-05
Optimisation 2.938370e-01
Total Time: 2.947442e-01
5 Add/Rem 4
Graph 1:
1 1 0 0 
0 1 0 1 
1 0 0 0 
0 1 1 1 
Graph 2:
0 0 1 0 
1 1 0 0 
1 0 0 1 
0 1 1 0 
Solution: -3 10
Expectation: -7.511345
Final Parameters:
Gammas:
[ 4.900107 3.748508 3.395464 2.942629 ]
Betas:
[ 1.995746 0.827432 1.451897 2.207945 1.734957 ]
Aggregate results:
[ 7 9 11 5 3 13 16 ]
[ 0.195914 0.265582 0.121297 0.129992 0.216563 0.004877 0.065774 ]
5
Num Evals 2000
GenUC: 2.283975e-05
GenUB: 2.265908e-05
Optimisation 3.161357e-01
Total Time: 3.169473e-01
