Clock Speed: 1.522718
Num threads: 12
Trotterisation: 5
Graph Size: 4
Num Qubits: 5
Space Dimension: 32
Run-Type: 0
Num_samples: 1
1 Isomorphic
Graph 1:
0 1 0 0 
0 1 1 0 
1 0 1 0 
1 0 0 0 
Graph 2:
0 1 0 0 
0 1 1 0 
1 0 1 0 
1 0 0 0 
Solution: 0 0
Expectation: -5.634761
Final Parameters:
Gammas:
[ 4.193039 3.259646 2.644018 3.453771 3.652835 ]
Betas:
[ 1.276425 1.581208 1.712321 0.797320 1.511625 1.378979 ]
Aggregate results:
[ 0 10 4 6 8 12 16 ]
[ 0.243117 0.050842 0.252472 0.094182 0.268371 0.012967 0.078049 ]
5
Num Evals 400
GenUC: 1.115438e-02
GenUB: 1.065442e-04
Optimisation 4.232862e-01
Total Time: 4.355214e-01
2 Flipped
Graph 1:
0 1 0 0 
0 1 1 0 
1 0 1 0 
1 0 0 0 
Graph 2:
0 0 1 0 
0 1 1 0 
0 1 0 1 
0 0 0 1 
Solution: -2 19
Expectation: -6.138670
Final Parameters:
Gammas:
[ 4.067852 3.360965 2.480587 3.245285 4.842361 ]
Betas:
[ 1.143422 1.239045 1.056509 1.589011 1.672911 1.166423 ]
Aggregate results:
[ 8 6 10 4 12 2 16 ]
[ 0.378024 0.091247 0.022196 0.062674 0.009587 0.357219 0.079054 ]
5
Num Evals 800
GenUC: 2.355361e-05
GenUB: 2.268050e-05
Optimisation 3.941736e-01
Total Time: 3.951543e-01
3 Add 4
Graph 1:
0 1 0 0 
0 1 1 0 
1 0 1 0 
1 0 0 0 
Graph 2:
0 1 1 1 
0 1 1 0 
1 0 1 1 
1 0 1 0 
Solution: -4 0
Expectation: -7.537630
Final Parameters:
Gammas:
[ 4.510792 3.496818 3.501879 3.569230 3.807710 ]
Betas:
[ 1.353322 1.312061 1.140541 1.289741 1.585043 1.350979 ]
Aggregate results:
[ 4 12 6 8 10 14 16 ]
[ 0.270182 0.025990 0.122152 0.453518 0.040512 0.011750 0.075897 ]
5
Num Evals 1200
GenUC: 2.217200e-05
GenUB: 2.234336e-05
Optimisation 3.782232e-01
Total Time: 3.792576e-01
4 Rem 4
Graph 1:
0 1 0 0 
0 1 1 0 
1 0 1 0 
1 0 0 0 
Graph 2:
0 1 0 0 
0 1 0 0 
0 0 1 0 
1 0 0 0 
Solution: -2 0
Expectation: -5.849660
Final Parameters:
Gammas:
[ 4.771154 4.540090 2.949876 3.247734 4.469772 ]
Betas:
[ 2.300145 1.893066 1.537573 1.909290 1.728309 2.029914 ]
Aggregate results:
[ 2 8 6 4 10 16 ]
[ 0.168829 0.110032 0.424749 0.209171 0.024824 0.062396 ]
5
Num Evals 1600
GenUC: 2.284860e-05
GenUB: 2.180040e-05
Optimisation 4.511943e-01
Total Time: 4.523098e-01
5 Add/Rem 4
Graph 1:
0 1 0 0 
0 1 1 0 
1 0 1 0 
1 0 0 0 
Graph 2:
0 0 0 1 
0 1 1 0 
0 1 1 0 
0 1 0 1 
Solution: -3 21
Expectation: -6.408953
Final Parameters:
Gammas:
[ 4.747660 3.203077 3.453363 4.621172 4.394850 ]
Betas:
[ 2.309250 2.218258 1.623743 1.759546 2.081845 1.743009 ]
Aggregate results:
[ 7 9 5 11 3 16 ]
[ 0.460853 0.051833 0.315979 0.014370 0.117917 0.039048 ]
5
Num Evals 2000
GenUC: 2.169097e-05
GenUB: 2.702419e-05
Optimisation 4.164980e-01
Total Time: 4.176350e-01
