Clock Speed: 1.518862
Num threads: 12
Trotterisation: 5
Graph Size: 4
Num Qubits: 5
Space Dimension: 32
Run-Type: 0
Num_samples: 1
1 Isomorphic
Graph 1:
1 0 0 0 
0 0 1 1 
0 1 0 1 
0 1 1 0 
Graph 2:
1 0 0 0 
0 0 1 1 
0 1 0 1 
0 1 1 0 
Solution: 0 0
Expectation: -4.515849
Final Parameters:
Gammas:
[ 4.750124 3.041907 2.974439 2.914211 3.060406 ]
Betas:
[ 3.084381 1.486352 2.119088 1.524907 1.766690 1.662967 ]
Aggregate results:
[ 0 10 16 ]
[ 0.574357 0.382405 0.043237 ]
5
Num Evals 400
GenUC: 5.890448e-03
GenUB: 2.965610e-05
Optimisation 4.457602e-01
Total Time: 4.527623e-01
2 Flipped
Graph 1:
1 0 0 0 
0 0 1 1 
0 1 0 1 
0 1 1 0 
Graph 2:
0 0 0 1 
1 1 0 0 
1 0 1 0 
0 1 1 0 
Solution: -6 1
Expectation: -6.959877
Final Parameters:
Gammas:
[ 4.001592 3.937138 3.593426 3.610004 3.272519 ]
Betas:
[ 1.485769 0.703442 1.988122 1.518703 1.906628 1.668301 ]
Aggregate results:
[ 10 6 16 ]
[ 0.162377 0.806586 0.031037 ]
5
Num Evals 800
GenUC: 2.389681e-05
GenUB: 2.169004e-05
Optimisation 4.099815e-01
Total Time: 4.110163e-01
3 Add 4
Graph 1:
1 0 0 0 
0 0 1 1 
0 1 0 1 
0 1 1 0 
Graph 2:
1 1 1 1 
0 0 1 1 
0 1 0 1 
0 1 1 1 
Solution: -4 0
Expectation: -6.428626
Final Parameters:
Gammas:
[ 4.418814 3.340458 3.297969 3.692270 2.960940 ]
Betas:
[ 1.359419 1.693943 1.694996 1.819654 0.743713 1.932751 ]
Aggregate results:
[ 4 10 8 16 ]
[ 0.534157 0.186134 0.255586 0.024123 ]
5
Num Evals 1200
GenUC: 2.230657e-05
GenUB: 2.317224e-05
Optimisation 4.226154e-01
Total Time: 4.237436e-01
4 Rem 4
Graph 1:
1 0 0 0 
0 0 1 1 
0 1 0 1 
0 1 1 0 
Graph 2:
0 0 0 0 
0 0 0 1 
0 1 0 1 
0 0 0 0 
Solution: -4 0
Expectation: -9.250000
Final Parameters:
Gammas:
[ 4.712389 4.712389 4.712389 4.712389 3.141593 ]
Betas:
[ 2.356194 1.570796 1.570796 1.570796 1.570796 1.570796 ]
Aggregate results:
[ 4 8 16 ]
[ 0.187500 0.562500 0.250000 ]
3
Num Evals 1212
GenUC: 2.239086e-05
GenUB: 2.153264e-05
Optimisation 1.296752e-02
Total Time: 1.406474e-02
5 Add/Rem 4
Graph 1:
1 0 0 0 
0 0 1 1 
0 1 0 1 
0 1 1 0 
Graph 2:
1 0 1 0 
1 0 0 1 
0 1 1 0 
0 0 1 0 
Solution: -6 0
Expectation: -7.846881
Final Parameters:
Gammas:
[ 4.506819 4.021548 4.196695 2.686408 3.374288 ]
Betas:
[ 1.562699 1.507380 2.642344 1.546569 1.831139 1.910297 ]
Aggregate results:
[ 6 10 8 16 ]
[ 0.297059 0.033180 0.622931 0.046830 ]
5
Num Evals 1612
GenUC: 2.329051e-05
GenUB: 2.614781e-05
Optimisation 4.339140e-01
Total Time: 4.350426e-01
