Clock Speed: 1.522757
Num threads: 12
Trotterisation: 6
Graph Size: 4
Num Qubits: 5
Space Dimension: 32
Run-Type: 0
Num_samples: 1
1 Isomorphic
Graph 1:
0 1 1 0 
1 1 0 1 
1 1 0 1 
0 0 1 1 
Graph 2:
0 1 1 0 
1 1 0 1 
1 1 0 1 
0 0 1 1 
Solution: 0 0
Expectation: -4.886469
Final Parameters:
Gammas:
[ 3.292918 4.722263 2.882643 3.350965 5.001577 3.845560 ]
Betas:
[ 2.200007 1.092711 1.549453 1.362407 1.961594 1.986967 1.512298 ]
Aggregate results:
[ 0 6 8 10 12 4 16 ]
[ 0.330034 0.312767 0.161322 0.020036 0.030973 0.097553 0.047315 ]
5
Num Evals 400
GenUC: 3.926599e-03
GenUB: 1.023784e-04
Optimisation 5.232790e-01
Total Time: 5.285033e-01
2 Flipped
Graph 1:
0 1 1 0 
1 1 0 1 
1 1 0 1 
0 0 1 1 
Graph 2:
0 1 1 0 
1 0 1 1 
1 0 1 1 
1 1 0 0 
Solution: -2 3
Expectation: -7.081674
Final Parameters:
Gammas:
[ 4.576191 3.406160 3.299830 2.739368 3.314867 3.498063 ]
Betas:
[ 1.975150 2.084254 1.363048 1.434162 1.817779 1.419861 1.756498 ]
Aggregate results:
[ 8 10 2 6 4 16 ]
[ 0.176389 0.038263 0.065485 0.331304 0.253984 0.134575 ]
5
Num Evals 800
GenUC: 2.484117e-05
GenUB: 2.284721e-05
Optimisation 5.502339e-01
Total Time: 5.515654e-01
3 Add 4
Graph 1:
0 1 1 0 
1 1 0 1 
1 1 0 1 
0 0 1 1 
Graph 2:
1 1 1 1 
1 1 0 1 
1 1 1 1 
0 0 1 1 
Solution: -3 0
Expectation: -5.856396
Final Parameters:
Gammas:
[ 5.663540 3.110907 3.248345 3.352310 3.186021 3.492618 ]
Betas:
[ 1.944716 1.612724 1.406912 1.952147 1.819812 2.060851 1.312237 ]
Aggregate results:
[ 3 5 7 9 16 ]
[ 0.275841 0.278821 0.331924 0.071903 0.041511 ]
5
Num Evals 1200
GenUC: 2.171937e-05
GenUB: 2.249330e-05
Optimisation 5.128099e-01
Total Time: 5.142744e-01
4 Rem 4
Graph 1:
0 1 1 0 
1 1 0 1 
1 1 0 1 
0 0 1 1 
Graph 2:
0 0 1 0 
1 0 0 1 
1 0 0 1 
0 0 1 0 
Solution: -4 0
Expectation: -7.031637
Final Parameters:
Gammas:
[ 4.373663 4.629450 3.710910 2.943428 2.372417 2.634010 ]
Betas:
[ 2.372860 1.528941 2.060476 1.819461 1.806049 1.632996 1.214999 ]
Aggregate results:
[ 4 8 6 10 16 ]
[ 0.256150 0.191882 0.387806 0.080241 0.083921 ]
5
Num Evals 1600
GenUC: 2.204161e-05
GenUB: 2.500787e-05
Optimisation 4.959904e-01
Total Time: 4.973114e-01
5 Add/Rem 4
Graph 1:
0 1 1 0 
1 1 0 1 
1 1 0 1 
0 0 1 1 
Graph 2:
0 1 1 0 
0 0 1 1 
0 0 1 1 
1 1 1 1 
Solution: -4 3
Expectation: -7.256934
Final Parameters:
Gammas:
[ 4.553362 3.656410 3.638933 3.294037 3.484918 3.459668 ]
Betas:
[ 1.790302 1.583543 1.359597 1.758935 1.736522 1.439477 0.948672 ]
Aggregate results:
[ 8 10 4 6 16 ]
[ 0.187062 0.124540 0.101472 0.528167 0.058759 ]
5
Num Evals 2000
GenUC: 2.361741e-05
GenUB: 2.301205e-05
Optimisation 4.810936e-01
Total Time: 4.822834e-01
