Clock Speed: 1.522759
Num threads: 12
Trotterisation: 6
Graph Size: 4
Num Qubits: 5
Space Dimension: 32
Run-Type: 0
Num_samples: 1
1 Isomorphic
Graph 1:
1 0 0 0 
0 0 0 1 
1 1 1 1 
1 0 0 0 
Graph 2:
1 0 0 0 
0 0 0 1 
1 1 1 1 
1 0 0 0 
Solution: 0 0
Expectation: -6.058800
Final Parameters:
Gammas:
[ 4.758816 4.631633 3.167895 3.238610 3.332469 3.473420 ]
Betas:
[ 1.700939 1.598008 1.747668 1.847734 1.880164 1.973929 1.433067 ]
Aggregate results:
[ 0 6 10 8 4 16 ]
[ 0.350091 0.028928 0.310098 0.071854 0.134587 0.104442 ]
5
Num Evals 400
GenUC: 3.817300e-03
GenUB: 1.046471e-04
Optimisation 5.232346e-01
Total Time: 5.283975e-01
2 Flipped
Graph 1:
1 0 0 0 
0 0 0 1 
1 1 1 1 
1 0 0 0 
Graph 2:
0 0 0 1 
1 0 0 0 
1 1 1 1 
0 0 0 1 
Solution: 0 21
Expectation: -6.532114
Final Parameters:
Gammas:
[ 4.286097 3.411167 3.306993 3.771079 3.344540 3.171478 ]
Betas:
[ 1.269246 1.633914 1.473098 1.455969 2.028979 1.451441 1.169996 ]
Aggregate results:
[ 6 4 8 10 0 16 ]
[ 0.107360 0.210821 0.068901 0.326290 0.209719 0.076911 ]
5
Num Evals 800
GenUC: 2.264418e-05
GenUB: 2.139807e-05
Optimisation 5.356055e-01
Total Time: 5.368643e-01
3 Add 4
Graph 1:
1 0 0 0 
0 0 0 1 
1 1 1 1 
1 0 0 0 
Graph 2:
1 0 1 0 
1 0 1 1 
1 1 1 1 
1 0 0 0 
Solution: -3 0
Expectation: -6.977744
Final Parameters:
Gammas:
[ 4.884980 3.120999 3.033112 3.614049 3.086017 3.095888 ]
Betas:
[ 1.551878 1.605813 2.165193 1.445948 1.735972 2.048634 1.783698 ]
Aggregate results:
[ 3 9 5 11 7 13 16 ]
[ 0.069060 0.230081 0.468519 0.025304 0.130898 0.018532 0.057605 ]
5
Num Evals 1200
GenUC: 2.286304e-05
GenUB: 2.223626e-05
Optimisation 5.069819e-01
Total Time: 5.082324e-01
4 Rem 4
Graph 1:
1 0 0 0 
0 0 0 1 
1 1 1 1 
1 0 0 0 
Graph 2:
1 0 0 0 
0 0 0 0 
0 1 0 1 
1 0 0 0 
Solution: -3 0
Expectation: -6.907487
Final Parameters:
Gammas:
[ 4.851437 3.399164 3.219211 2.881483 3.268445 3.290112 ]
Betas:
[ 1.808247 1.569904 1.504618 2.108548 1.761987 1.830025 2.046900 ]
Aggregate results:
[ 3 7 11 5 9 16 ]
[ 0.191815 0.368636 0.042699 0.188460 0.142092 0.066299 ]
5
Num Evals 1600
GenUC: 2.344046e-05
GenUB: 2.514571e-05
Optimisation 4.929910e-01
Total Time: 4.943088e-01
5 Add/Rem 4
Graph 1:
1 0 0 0 
0 0 0 1 
1 1 1 1 
1 0 0 0 
Graph 2:
1 0 0 0 
0 1 1 1 
1 0 0 0 
1 1 0 1 
Solution: -3 11
Expectation: -7.494947
Final Parameters:
Gammas:
[ 4.692789 2.995564 3.137453 4.729325 3.474528 3.974080 ]
Betas:
[ 1.352538 1.544662 1.371047 1.509556 2.409597 1.528721 1.758216 ]
Aggregate results:
[ 7 9 5 11 3 16 ]
[ 0.148872 0.293373 0.402638 0.082878 0.020630 0.051609 ]
5
Num Evals 2000
GenUC: 2.484024e-05
GenUB: 2.243835e-05
Optimisation 5.085715e-01
Total Time: 5.097731e-01
