Clock Speed: 3.688492
Num threads: 4
Trotterisation: 3
Graph Size: 4
Num Qubits: 5
Space Dimension: 32
Run-Type: 0
Num_samples: 10
1 Isomorphic
Graph 1:
1 1 1 1 
0 1 1 1 
0 1 0 0 
0 0 1 0 
Graph 2:
1 1 1 1 
0 1 1 1 
0 1 0 0 
0 0 1 0 
Solution: 0 0
Gbest: 0.000000
Expectation: -5.662505
Final Parameters:
Gammas:
[ 0.545089 5.738924 3.374564 ]
Betas:
[ 1.643556 0.256491 2.587178 2.714432 ]
Aggregate results:
[ -1 3 9 5 7 13 11 15 ]
[ 0.199331 0.277111 0.140432 0.100448 0.229407 0.004126 0.033075 0.016071 ]
5
Num Evals 400
GenUC: 1.391834e-04
GenUB: 1.201787e-05
Optimisation 9.167274e-02
Total Time: 9.212926e-02
2 Flipped
Graph 1:
1 1 1 1 
0 1 1 1 
0 1 0 0 
0 0 1 0 
Graph 2:
1 1 1 1 
1 1 1 0 
0 0 1 0 
0 1 0 0 
Solution: -4 3
Gbest: -4.000000
Expectation: -7.222836
Final Parameters:
Gammas:
[ 3.326599 0.698866 2.627690 ]
Betas:
[ 0.116407 1.061691 1.649573 0.033356 ]
Aggregate results:
[ 5 3 7 9 11 15 ]
[ 0.279034 0.176067 0.352937 0.170069 0.007529 0.014365 ]
5
Num Evals 800
GenUC: 9.289070e-06
GenUB: 8.279138e-06
Optimisation 1.023338e-01
Total Time: 1.025438e-01
3 Add 4
Graph 1:
1 1 1 1 
0 1 1 1 
0 1 0 0 
0 0 1 0 
Graph 2:
1 1 1 1 
0 1 1 1 
0 1 0 0 
1 0 1 0 
Solution: -1 0
Gbest: -5.000000
Expectation: -6.623380
Final Parameters:
Gammas:
[ 0.138689 3.755501 6.212894 ]
Betas:
[ 1.652281 2.598321 1.213500 1.702006 ]
Aggregate results:
[ 0 4 10 6 8 12 15 ]
[ 0.078837 0.364988 0.082001 0.310644 0.137037 0.004709 0.021783 ]
5
Num Evals 1200
GenUC: 1.111825e-05
GenUB: 8.567848e-06
Optimisation 1.017529e-01
Total Time: 1.020642e-01
4 Rem 4
Graph 1:
1 1 1 1 
0 1 1 1 
0 1 0 0 
0 0 1 0 
Graph 2:
1 0 0 0 
0 1 1 1 
0 0 0 0 
0 0 1 0 
Solution: -4 0
Gbest: -6.000000
Expectation: -8.290156
Final Parameters:
Gammas:
[ 6.094808 0.046009 0.411254 ]
Betas:
[ 1.899582 2.090329 0.023822 1.626557 ]
Aggregate results:
[ 3 11 9 7 5 13 15 ]
[ 0.098589 0.071186 0.254657 0.282745 0.239693 0.027595 0.025534 ]
5
Num Evals 1600
GenUC: 9.380019e-06
GenUB: 8.911738e-06
Optimisation 9.083541e-02
Total Time: 9.110831e-02
5 Add/Rem 4
Graph 1:
1 1 1 1 
0 1 1 1 
0 1 0 0 
0 0 1 0 
Graph 2:
0 0 1 1 
0 0 1 1 
0 1 1 1 
0 1 1 0 
Solution: -4 3
Gbest: -4.000000
Expectation: -7.067251
Final Parameters:
Gammas:
[ 0.036593 3.333700 3.800314 ]
Betas:
[ 0.072247 1.957615 1.021574 1.761724 ]
Aggregate results:
[ 5 7 3 9 11 15 ]
[ 0.356285 0.368571 0.180139 0.038131 0.007720 0.049155 ]
5
Num Evals 2000
GenUC: 8.520874e-06
GenUB: 8.216302e-06
Optimisation 8.760117e-02
Total Time: 8.785663e-02
