Clock Speed: 3.689069
Num threads: 4
Trotterisation: 3
Graph Size: 4
Num Qubits: 5
Space Dimension: 32
Run-Type: 0
Num_samples: 10
1 Isomorphic
Graph 1:
1 1 0 1 
1 0 0 0 
1 0 0 1 
1 1 0 1 
Graph 2:
1 1 0 1 
1 0 0 0 
1 0 0 1 
1 1 0 1 
Solution: 0 0
Gbest: -2.000000
Expectation: -6.659374
Final Parameters:
Gammas:
[ 1.386872 1.996997 3.240287 ]
Betas:
[ 0.112819 0.002678 1.891905 0.814586 ]
Aggregate results:
[ -1 5 9 11 7 13 1 15 ]
[ 0.041183 0.416722 0.095549 0.031329 0.162922 0.014221 0.177432 0.060642 ]
5
Num Evals 400
GenUC: 1.342873e-04
GenUB: 1.218804e-05
Optimisation 8.410214e-02
Total Time: 8.446075e-02
2 Flipped
Graph 1:
1 1 0 1 
1 0 0 0 
1 0 0 1 
1 1 0 1 
Graph 2:
1 0 1 1 
0 0 0 1 
1 0 0 1 
1 0 1 1 
Solution: -2 3
Gbest: -2.000000
Expectation: -6.400936
Final Parameters:
Gammas:
[ 0.158723 3.213900 0.098132 ]
Betas:
[ 2.698458 2.653970 1.362351 1.918143 ]
Aggregate results:
[ 5 9 3 1 7 11 13 15 ]
[ 0.222229 0.172636 0.210844 0.171155 0.150593 0.050729 0.003504 0.018311 ]
5
Num Evals 800
GenUC: 9.370648e-06
GenUB: 7.973955e-06
Optimisation 1.067569e-01
Total Time: 1.070905e-01
3 Add 4
Graph 1:
1 1 0 1 
1 0 0 0 
1 0 0 1 
1 1 0 1 
Graph 2:
1 1 1 1 
1 0 0 1 
1 0 1 1 
1 1 1 1 
Solution: -4 0
Gbest: -4.000000
Expectation: -7.224333
Final Parameters:
Gammas:
[ 3.299775 2.792615 5.439804 ]
Betas:
[ 0.014725 1.672213 1.878239 2.328747 ]
Aggregate results:
[ 3 7 5 9 15 ]
[ 0.464225 0.143556 0.051141 0.257520 0.083559 ]
5
Num Evals 1200
GenUC: 1.094627e-05
GenUB: 8.250965e-06
Optimisation 9.447203e-02
Total Time: 9.473978e-02
4 Rem 4
Graph 1:
1 1 0 1 
1 0 0 0 
1 0 0 1 
1 1 0 1 
Graph 2:
0 1 0 0 
1 0 0 0 
1 0 0 1 
1 0 0 0 
Solution: -4 0
Gbest: -4.000000
Expectation: -7.828378
Final Parameters:
Gammas:
[ 0.108526 3.499444 0.193398 ]
Betas:
[ 1.606378 2.729711 3.131342 0.002852 ]
Aggregate results:
[ 3 5 7 11 9 15 ]
[ 0.066346 0.321534 0.411619 0.053975 0.108545 0.037980 ]
5
Num Evals 1600
GenUC: 9.338371e-06
GenUB: 8.571951e-06
Optimisation 8.989873e-02
Total Time: 9.018844e-02
5 Add/Rem 4
Graph 1:
1 1 0 1 
1 0 0 0 
1 0 0 1 
1 1 0 1 
Graph 2:
0 1 0 1 
1 1 0 1 
1 1 0 0 
1 1 1 0 
Solution: -3 15
Gbest: -3.000000
Expectation: -6.465146
Final Parameters:
Gammas:
[ 3.346732 0.252638 3.362962 ]
Betas:
[ 0.134415 1.572987 0.586773 2.087678 ]
Aggregate results:
[ 6 4 10 8 2 15 ]
[ 0.294328 0.268830 0.060689 0.138914 0.204072 0.033167 ]
5
Num Evals 2000
GenUC: 8.970412e-06
GenUB: 8.251518e-06
Optimisation 9.132136e-02
Total Time: 9.156895e-02
