Clock Speed: 3.498847
Num threads: 16
Trotterisation: 5
Num Qubits: 7
Space Dimension: 128
Run-Type: 0
Num_samples: 25
Optimiser Method: 29
1 Isomorphic
Graph 1:
0 1 0 1 0 
0 0 1 0 1 
1 0 1 0 1 
0 0 0 0 0 
0 1 1 0 1 
Graph 2:
0 1 0 1 0 
0 0 1 0 1 
1 0 1 0 1 
0 0 0 0 0 
0 1 1 0 1 
Solution: 25 0
Classic Expectation: 13.000000
Initial Expecation: 12.187500
Gbest: 25.000000
Expectation: 13.709970
Final Parameters:
Gammas:
[ 4.758424 3.930619 3.425595 3.337208 2.019372 ]
Betas:
[ 1.621561 1.602925 1.263674 1.464575 0.864744 ]
Aggregate results:
[ 25 13 11 21 17 5 7 19 9 15 0 ]
[ 0.023022 0.387387 0.147948 0.002172 0.113713 0.013038 0.004157 0.091269 0.046975 0.149403 0.020916 ]
3
Num Evals 5347
GenUC: 4.728045e-05
GenUB: 2.256501e-05
Optimisation 2.494436e+00
Total Time: 2.494515e+00
2 Flipped
Graph 1:
0 1 0 1 0 
0 0 1 0 1 
1 0 1 0 1 
0 0 0 0 0 
0 1 1 0 1 
Graph 2:
0 1 0 1 0 
1 0 1 0 0 
1 0 1 0 1 
0 0 0 0 0 
1 0 1 1 0 
Solution: 19 0
Classic Expectation: 13.000000
Initial Expecation: 12.187500
Gbest: 19.000000
Expectation: 13.950690
Final Parameters:
Gammas:
[ 3.868410 3.476232 3.529775 3.472904 3.918836 ]
Betas:
[ 1.531386 1.429187 2.010010 1.650166 2.711560 ]
Aggregate results:
[ 19 13 9 11 7 17 15 0 ]
[ 0.059731 0.329264 0.053298 0.112112 0.007480 0.201344 0.223149 0.013621 ]
3
Num Evals 6380
GenUC: 5.155616e-05
GenUB: 8.350238e-06
Optimisation 3.350393e+00
Total Time: 3.350455e+00
3 Add 5
Graph 1:
0 1 0 1 0 
0 0 1 0 1 
1 0 1 0 1 
0 0 0 0 0 
0 1 1 0 1 
Graph 2:
0 1 1 1 0 
0 0 1 0 1 
1 1 1 0 1 
0 0 1 0 1 
0 1 1 1 1 
Solution: 20 0
Classic Expectation: 12.000000
Initial Expecation: 11.250000
Gbest: 18.000000
Expectation: 13.489958
Final Parameters:
Gammas:
[ 5.016210 4.653137 1.259751 4.592431 5.220428 ]
Betas:
[ 1.526717 1.590806 1.496988 1.325943 1.517631 ]
Aggregate results:
[ 20 10 14 12 18 16 6 8 0 ]
[ 0.058393 0.095390 0.345746 0.258792 0.020723 0.176640 0.006674 0.022870 0.014773 ]
3
Num Evals 9943
GenUC: 5.245628e-05
GenUB: 9.466894e-06
Optimisation 4.591258e+00
Total Time: 4.591323e+00
4 Rem 5
Graph 1:
0 1 0 1 0 
0 0 1 0 1 
1 0 1 0 1 
0 0 0 0 0 
0 1 1 0 1 
Graph 2:
0 1 0 0 0 
0 0 1 0 0 
1 0 0 0 1 
0 0 0 0 0 
0 1 0 0 1 
Solution: 21 0
Classic Expectation: 13.800000
Initial Expecation: 12.937500
Gbest: 19.000000
Expectation: 15.698372
Final Parameters:
Gammas:
[ 4.397043 2.326676 3.365771 3.400931 1.903089 ]
Betas:
[ 1.517770 3.081051 0.053949 1.578070 1.268143 ]
Aggregate results:
[ 21 15 13 17 9 11 19 0 ]
[ 0.039751 0.354462 0.151629 0.255401 0.008661 0.038419 0.143849 0.007829 ]
3
Num Evals 6093
GenUC: 5.183322e-05
GenUB: 9.250361e-06
Optimisation 2.740578e+00
Total Time: 2.740642e+00
5 Add/Rem 5
Graph 1:
0 1 0 1 0 
0 0 1 0 1 
1 0 1 0 1 
0 0 0 0 0 
0 1 1 0 1 
Graph 2:
0 0 1 1 1 
0 0 1 0 0 
1 0 0 0 1 
0 0 1 0 0 
1 1 1 0 1 
Solution: 20 35
Classic Expectation: 12.800000
Initial Expecation: 12.000000
Gbest: 20.000000
Expectation: 14.608067
Final Parameters:
Gammas:
[ 5.384781 3.092444 3.863844 3.455421 4.102284 ]
Betas:
[ 0.941256 2.022488 1.364865 1.471859 3.110438 ]
Aggregate results:
[ 18 12 10 16 14 20 8 0 ]
[ 0.102731 0.217731 0.059690 0.276264 0.231758 0.090216 0.010012 0.011599 ]
3
Num Evals 48041
GenUC: 5.182764e-05
GenUB: 1.108274e-05
Optimisation 2.464771e+01
Total Time: 2.464777e+01
