Clock Speed: 3.688443
Num threads: 4
Trotterisation: 5
Num Qubits: 7
Space Dimension: 128
Run-Type: 0
Num_samples: 15624
Optimiser Method: 29
1 Isomorphic
Graph 1:
0 0 1 0 1 
1 0 1 1 0 
1 0 0 1 0 
1 0 0 1 0 
1 1 1 0 0 
Graph 2:
0 0 1 0 1 
1 0 1 1 0 
1 0 0 1 0 
1 0 0 1 0 
1 1 1 0 0 
Solution: 25 0
Classic Expectation: 13.500000
Initial Expecation: 12.656250
Gbest: 25.000000
Expectation: 14.326759
Final Parameters:
Gammas:
[ 4.141028 2.762553 3.218608 3.125987 3.191333 ]
Betas:
[ 1.752507 1.787620 0.943389 1.487988 2.654438 ]
Aggregate results:
[ 25 13 17 15 21 9 19 11 0 ]
[ 0.024969 0.251253 0.247507 0.270440 0.007011 0.082172 0.021689 0.079377 0.015582 ]
3
Num Evals 4924
GenUC: 4.145899e-05
GenUB: 1.434761e-05
Optimisation 3.531526e+00
Total Time: 3.531602e+00
2 Flipped
Graph 1:
0 0 1 0 1 
1 0 1 1 0 
1 0 0 1 0 
1 0 0 1 0 
1 1 1 0 0 
Graph 2:
1 0 1 0 0 
0 1 1 0 1 
0 1 0 0 1 
0 1 0 0 1 
0 0 1 1 1 
Solution: 17 58
Classic Expectation: 12.100000
Initial Expecation: 11.343750
Gbest: 17.000000
Expectation: 13.086463
Final Parameters:
Gammas:
[ 3.495840 2.517050 3.108540 3.522888 4.728452 ]
Betas:
[ 1.499830 1.882331 0.688563 1.829484 1.943765 ]
Aggregate results:
[ 7 13 5 11 9 15 17 0 ]
[ 0.023498 0.255467 0.003268 0.249307 0.072786 0.195334 0.191595 0.008746 ]
3
Num Evals 1557
GenUC: 4.434912e-05
GenUB: 2.922432e-06
Optimisation 1.059633e+00
Total Time: 1.059683e+00
3 Add 5
Graph 1:
0 0 1 0 1 
1 0 1 1 0 
1 0 0 1 0 
1 0 0 1 0 
1 1 1 0 0 
Graph 2:
0 1 1 0 1 
1 0 1 1 0 
1 1 0 1 1 
1 0 0 1 1 
1 1 1 0 0 
Solution: 21 0
Classic Expectation: 13.900000
Initial Expecation: 13.031250
Gbest: 21.000000
Expectation: 14.815100
Final Parameters:
Gammas:
[ 4.203094 2.295891 2.676131 3.659363 3.557644 ]
Betas:
[ 1.443054 1.751389 1.595365 2.087716 2.020457 ]
Aggregate results:
[ 21 11 13 15 17 19 9 0 ]
[ 0.053060 0.125705 0.201577 0.237048 0.297858 0.043294 0.028411 0.013047 ]
3
Num Evals 1751
GenUC: 4.489260e-05
GenUB: 2.640765e-06
Optimisation 1.274286e+00
Total Time: 1.274336e+00
4 Rem 5
Graph 1:
0 0 1 0 1 
1 0 1 1 0 
1 0 0 1 0 
1 0 0 1 0 
1 1 1 0 0 
Graph 2:
0 0 0 0 1 
1 0 1 0 0 
0 0 0 0 0 
1 0 0 0 0 
1 1 1 0 0 
Solution: 20 0
Classic Expectation: 13.700000
Initial Expecation: 12.843750
Gbest: 20.000000
Expectation: 15.064332
Final Parameters:
Gammas:
[ 3.337181 2.626777 2.962660 3.423604 5.329419 ]
Betas:
[ 1.290260 1.332609 1.606656 1.486095 1.506818 ]
Aggregate results:
[ 20 14 18 12 16 10 8 0 ]
[ 0.019349 0.367564 0.081505 0.068042 0.443931 0.012265 0.002790 0.004554 ]
5
Num Evals 5000
GenUC: 4.434859e-05
GenUB: 2.713525e-06
Optimisation 4.010064e+00
Total Time: 4.010114e+00
5 Add/Rem 5
Graph 1:
0 0 1 0 1 
1 0 1 1 0 
1 0 0 1 0 
1 0 0 1 0 
1 1 1 0 0 
Graph 2:
0 0 0 0 0 
0 0 1 1 1 
1 1 0 0 1 
1 1 1 1 0 
1 1 0 0 0 
Solution: 19 34
Classic Expectation: 13.500000
Initial Expecation: 12.656250
Gbest: 19.000000
Expectation: 15.198783
Final Parameters:
Gammas:
[ 3.659085 2.832296 2.634080 3.382093 3.161240 ]
Betas:
[ 1.600631 1.509727 1.052996 1.869147 1.540625 ]
Aggregate results:
[ 15 17 13 11 19 9 7 0 ]
[ 0.376745 0.376059 0.138208 0.046681 0.035881 0.015658 0.003107 0.007661 ]
5
Num Evals 5000
GenUC: 4.455983e-05
GenUB: 2.915389e-06
Optimisation 3.443602e+00
Total Time: 3.443652e+00
