Clock Speed: 3.688938
Num threads: 4
Trotterisation: 5
Num Qubits: 7
Space Dimension: 128
Run-Type: 0
Num_samples: 15624
Optimiser Method: 29
1 Isomorphic
Graph 1:
0 0 0 0 1 
0 1 1 0 0 
1 0 0 0 1 
1 0 1 1 0 
1 1 1 0 0 
Graph 2:
0 0 0 0 1 
0 1 1 0 0 
1 0 0 0 1 
1 0 1 1 0 
1 1 1 0 0 
Solution: 25 0
Classic Expectation: 12.700000
Initial Expecation: 11.906250
Gbest: 25.000000
Expectation: 15.751664
Final Parameters:
Gammas:
[ 3.185385 2.983147 3.120980 3.424560 3.068321 ]
Betas:
[ 2.383144 1.362419 1.640571 0.487164 2.808580 ]
Aggregate results:
[ 25 17 15 13 11 9 21 7 19 0 ]
[ 0.057195 0.176794 0.255777 0.241801 0.029000 0.025875 0.104388 0.017461 0.077368 0.014342 ]
3
Num Evals 4288
GenUC: 4.112278e-05
GenUB: 1.350965e-05
Optimisation 3.080018e+00
Total Time: 3.080099e+00
2 Flipped
Graph 1:
0 0 0 0 1 
0 1 1 0 0 
1 0 0 0 1 
1 0 1 1 0 
1 1 1 0 0 
Graph 2:
1 0 0 0 0 
0 0 1 1 0 
1 0 0 0 1 
0 1 1 0 1 
0 0 1 1 1 
Solution: 19 50
Classic Expectation: 12.700000
Initial Expecation: 11.906250
Gbest: 19.000000
Expectation: 13.496192
Final Parameters:
Gammas:
[ 3.776824 2.412913 3.032181 3.200526 1.899598 ]
Betas:
[ 1.222910 1.758735 1.154496 1.707746 2.272423 ]
Aggregate results:
[ 13 15 11 7 9 17 19 0 ]
[ 0.261265 0.153454 0.187530 0.022194 0.091762 0.226647 0.047416 0.009733 ]
5
Num Evals 5000
GenUC: 4.490203e-05
GenUB: 2.892513e-06
Optimisation 3.403299e+00
Total Time: 3.403350e+00
3 Add 5
Graph 1:
0 0 0 0 1 
0 1 1 0 0 
1 0 0 0 1 
1 0 1 1 0 
1 1 1 0 0 
Graph 2:
0 0 0 1 1 
0 1 1 1 1 
1 0 0 1 1 
1 0 1 1 0 
1 1 1 1 0 
Solution: 20 0
Classic Expectation: 12.200000
Initial Expecation: 11.437500
Gbest: 20.000000
Expectation: 13.037692
Final Parameters:
Gammas:
[ 3.451437 2.832119 4.777106 3.354081 2.556985 ]
Betas:
[ 1.478520 1.170881 1.373647 1.145777 0.404201 ]
Aggregate results:
[ 20 16 14 12 10 18 8 6 0 ]
[ 0.011613 0.237601 0.267118 0.221600 0.161304 0.032232 0.048157 0.004414 0.015961 ]
3
Num Evals 1323
GenUC: 4.497427e-05
GenUB: 2.699438e-06
Optimisation 7.579564e-01
Total Time: 7.580072e-01
4 Rem 5
Graph 1:
0 0 0 0 1 
0 1 1 0 0 
1 0 0 0 1 
1 0 1 1 0 
1 1 1 0 0 
Graph 2:
0 0 0 0 0 
0 1 1 0 0 
1 0 0 0 1 
0 0 1 0 0 
1 1 0 0 0 
Solution: 21 0
Classic Expectation: 13.200000
Initial Expecation: 12.375000
Gbest: 21.000000
Expectation: 13.935156
Final Parameters:
Gammas:
[ 5.015371 4.155892 2.811489 3.306115 3.382557 ]
Betas:
[ 1.512974 1.944569 1.045755 1.815269 0.963771 ]
Aggregate results:
[ 21 17 15 11 13 19 9 7 0 ]
[ 0.011486 0.090696 0.304488 0.156787 0.277022 0.093292 0.043877 0.013060 0.009292 ]
5
Num Evals 5000
GenUC: 4.479173e-05
GenUB: 2.646062e-06
Optimisation 3.270283e+00
Total Time: 3.270333e+00
5 Add/Rem 5
Graph 1:
0 0 0 0 1 
0 1 1 0 0 
1 0 0 0 1 
1 0 1 1 0 
1 1 1 0 0 
Graph 2:
0 0 0 1 1 
0 1 1 1 0 
1 1 0 0 1 
1 1 0 1 0 
0 0 1 0 0 
Solution: 18 0
Classic Expectation: 12.600000
Initial Expecation: 11.812500
Gbest: 18.000000
Expectation: 13.677140
Final Parameters:
Gammas:
[ 3.191229 2.713250 2.994076 3.318241 3.070133 ]
Betas:
[ 1.811296 2.289011 0.109349 1.608939 2.938075 ]
Aggregate results:
[ 18 16 12 14 10 8 6 0 ]
[ 0.085624 0.271061 0.188995 0.316370 0.082104 0.031111 0.005315 0.019421 ]
5
Num Evals 5000
GenUC: 4.467083e-05
GenUB: 2.676039e-06
Optimisation 3.507388e+00
Total Time: 3.507438e+00
