Clock Speed: 3.689384
Num threads: 4
Trotterisation: 4
Graph Size: 6
Num Qubits: 10
Space Dimension: 1024
Run-Type: 0
Num_samples: 10
1 Isomorphic
Graph 1:
1 1 0 0 1 1 
1 1 0 0 1 1 
1 1 1 0 1 0 
1 1 1 0 0 0 
0 0 1 0 1 1 
1 1 0 0 1 0 
Graph 2:
1 1 0 0 1 1 
1 1 0 0 1 1 
1 1 1 0 1 0 
1 1 1 0 0 0 
0 0 1 0 1 1 
1 1 0 0 1 0 
Solution: 0 0
Gbest: -10.000000
Expectation: -20.052453
Final Parameters:
Gammas:
[ 1.438235 3.018055 3.234728 4.483686 ]
Betas:
[ 0.018752 2.200117 2.884126 2.300594 1.444170 ]
Aggregate results:
[ -1 9 15 7 23 19 11 13 17 21 35 ]
[ 0.013545 0.043947 0.202211 0.020624 0.017593 0.131923 0.093538 0.077591 0.142439 0.061278 0.195310 ]
3
Num Evals 465
GenUC: 3.100322e-04
GenUB: 1.958938e-04
Optimisation 1.010165e+00
Total Time: 1.012635e+00
2 Flipped
Graph 1:
1 1 0 0 1 1 
1 1 0 0 1 1 
1 1 1 0 1 0 
1 1 1 0 0 0 
0 0 1 0 1 1 
1 1 0 0 1 0 
Graph 2:
1 1 0 0 1 1 
1 1 0 0 1 1 
0 1 0 1 1 1 
0 0 0 1 1 1 
1 1 0 1 0 0 
0 1 0 0 1 1 
Solution: -6 630
Gbest: -14.000000
Expectation: -16.261285
Final Parameters:
Gammas:
[ 2.958019 3.157930 3.243522 2.945895 ]
Betas:
[ 1.582966 1.597120 1.349857 1.921765 1.602984 ]
Aggregate results:
[ 17 21 13 15 11 19 23 9 7 25 5 35 ]
[ 0.181445 0.035894 0.177110 0.190475 0.162060 0.071111 0.011638 0.096261 0.011161 0.001455 0.008917 0.052471 ]
5
Num Evals 1065
GenUC: 1.294220e-04
GenUB: 1.498012e-04
Optimisation 1.249917e+00
Total Time: 1.252187e+00
3 Add 6
Graph 1:
1 1 0 0 1 1 
1 1 0 0 1 1 
1 1 1 0 1 0 
1 1 1 0 0 0 
0 0 1 0 1 1 
1 1 0 0 1 0 
Graph 2:
1 1 0 0 1 1 
1 1 0 0 1 1 
1 1 1 0 1 0 
1 1 1 0 1 0 
1 0 1 1 1 1 
1 1 1 0 1 1 
Solution: -5 0
Gbest: -9.000000
Expectation: -14.444895
Final Parameters:
Gammas:
[ 3.166669 3.159156 3.353979 3.120749 ]
Betas:
[ 1.322914 1.185251 2.437102 1.473123 1.454411 ]
Aggregate results:
[ 4 12 10 16 18 8 14 22 24 20 35 ]
[ 0.015859 0.244700 0.183404 0.170727 0.061779 0.079863 0.187311 0.006125 0.000678 0.025286 0.024268 ]
5
Num Evals 1665
GenUC: 1.163584e-04
GenUB: 1.694121e-04
Optimisation 1.172380e+00
Total Time: 1.174565e+00
4 Rem 6
Graph 1:
1 1 0 0 1 1 
1 1 0 0 1 1 
1 1 1 0 1 0 
1 1 1 0 0 0 
0 0 1 0 1 1 
1 1 0 0 1 0 
Graph 2:
1 0 0 0 1 1 
0 1 0 0 1 0 
0 1 1 0 1 0 
0 1 1 0 0 0 
0 0 1 0 1 1 
0 1 0 0 1 0 
Solution: -6 0
Gbest: -12.000000
Expectation: -19.843347
Final Parameters:
Gammas:
[ 2.886974 3.100846 3.255279 3.009100 ]
Betas:
[ 1.720187 1.450748 1.869940 3.141593 2.458391 ]
Aggregate results:
[ 5 11 9 15 17 13 19 23 21 25 27 35 ]
[ 0.006216 0.082255 0.014826 0.128764 0.162626 0.151641 0.148286 0.059763 0.105087 0.019366 0.002164 0.119006 ]
5
Num Evals 2265
GenUC: 1.307448e-04
GenUB: 1.711944e-04
Optimisation 1.377990e+00
Total Time: 1.380690e+00
5 Add/Rem 6
Graph 1:
1 1 0 0 1 1 
1 1 0 0 1 1 
1 1 1 0 1 0 
1 1 1 0 0 0 
0 0 1 0 1 1 
1 1 0 0 1 0 
Graph 2:
1 1 0 0 1 0 
1 0 1 0 1 1 
1 1 1 0 0 0 
1 1 1 1 0 0 
0 0 0 1 1 1 
1 1 0 0 0 1 
Solution: -9 0
Gbest: -9.000000
Expectation: -16.124819
Final Parameters:
Gammas:
[ 3.243433 3.032893 2.909990 3.191884 ]
Betas:
[ 1.417532 1.760739 2.348365 1.722352 1.646182 ]
Aggregate results:
[ 8 14 12 16 18 22 24 20 10 26 35 ]
[ 0.081781 0.299888 0.183413 0.237231 0.085931 0.006404 0.010713 0.019850 0.027017 0.000938 0.046833 ]
3
Num Evals 2835
GenUC: 1.277167e-04
GenUB: 1.681839e-04
Optimisation 1.229141e+00
Total Time: 1.231660e+00
