Clock Speed: 3.688923
Num threads: 4
Trotterisation: 4
Graph Size: 6
Num Qubits: 10
Space Dimension: 1024
Run-Type: 0
Num_samples: 10
1 Isomorphic
Graph 1:
1 1 1 0 0 0 
1 0 1 0 0 0 
0 0 1 0 1 0 
1 1 0 1 0 1 
1 0 1 1 1 0 
0 1 0 1 0 0 
Graph 2:
1 1 1 0 0 0 
1 0 1 0 0 0 
0 0 1 0 1 0 
1 1 0 1 0 1 
1 0 1 1 1 0 
0 1 0 1 0 0 
Solution: 0 0
Gbest: -14.000000
Expectation: -18.321117
Final Parameters:
Gammas:
[ 3.379811 3.157767 3.187076 3.196238 ]
Betas:
[ 1.908525 1.538895 1.694126 1.811109 1.791518 ]
Aggregate results:
[ -1 5 13 7 11 15 17 19 9 21 23 25 35 ]
[ 0.001246 0.003334 0.136567 0.003737 0.079525 0.240375 0.220550 0.134693 0.031378 0.034035 0.020217 0.004886 0.089456 ]
5
Num Evals 600
GenUC: 3.755973e-04
GenUB: 2.052004e-04
Optimisation 1.284558e+00
Total Time: 1.287249e+00
2 Flipped
Graph 1:
1 1 1 0 0 0 
1 0 1 0 0 0 
0 0 1 0 1 0 
1 1 0 1 0 1 
1 0 1 1 1 0 
0 1 0 1 0 0 
Graph 2:
0 0 0 1 1 1 
0 0 0 1 0 1 
0 1 0 1 0 0 
1 0 1 0 1 1 
0 1 1 1 0 1 
0 0 1 0 1 0 
Solution: -10 650
Gbest: -12.000000
Expectation: -18.060878
Final Parameters:
Gammas:
[ 3.184092 3.203962 3.216472 3.254900 ]
Betas:
[ 1.215339 1.481560 1.341590 1.370401 2.955209 ]
Aggregate results:
[ 25 23 19 21 17 15 13 11 27 9 35 ]
[ 0.001906 0.018318 0.196516 0.096912 0.303054 0.238309 0.103382 0.018695 0.001031 0.009490 0.012387 ]
3
Num Evals 1190
GenUC: 1.312852e-04
GenUB: 1.441452e-04
Optimisation 1.223086e+00
Total Time: 1.225407e+00
3 Add 6
Graph 1:
1 1 1 0 0 0 
1 0 1 0 0 0 
0 0 1 0 1 0 
1 1 0 1 0 1 
1 0 1 1 1 0 
0 1 0 1 0 0 
Graph 2:
1 1 1 0 1 0 
1 0 1 0 0 0 
0 0 1 0 1 0 
1 1 1 1 0 1 
1 0 1 1 1 0 
1 1 1 1 1 0 
Solution: -5 0
Gbest: -15.000000
Expectation: -16.421144
Final Parameters:
Gammas:
[ 3.241661 3.050534 2.878349 3.202785 ]
Betas:
[ 1.649087 1.662991 2.092395 1.713632 1.644201 ]
Aggregate results:
[ 4 8 14 12 16 18 20 10 22 24 26 35 ]
[ 0.017791 0.036967 0.285572 0.193917 0.224160 0.102110 0.036833 0.033941 0.008400 0.005425 0.000812 0.054072 ]
5
Num Evals 1790
GenUC: 1.291655e-04
GenUB: 1.705429e-04
Optimisation 1.230246e+00
Total Time: 1.232526e+00
4 Rem 6
Graph 1:
1 1 1 0 0 0 
1 0 1 0 0 0 
0 0 1 0 1 0 
1 1 0 1 0 1 
1 0 1 1 1 0 
0 1 0 1 0 0 
Graph 2:
0 0 1 0 0 0 
1 0 1 0 0 0 
0 0 1 0 0 0 
1 1 0 1 0 0 
1 0 0 1 0 0 
0 1 0 1 0 0 
Solution: -6 0
Gbest: -14.000000
Expectation: -16.225904
Final Parameters:
Gammas:
[ 3.109659 3.163170 3.094117 3.082433 ]
Betas:
[ 1.370239 1.743690 1.833817 2.195268 1.175583 ]
Aggregate results:
[ 5 9 15 13 11 17 19 21 23 35 ]
[ 0.009835 0.014489 0.289248 0.236888 0.085190 0.214684 0.110022 0.028533 0.003098 0.008015 ]
5
Num Evals 2390
GenUC: 1.259244e-04
GenUB: 1.721098e-04
Optimisation 1.241845e+00
Total Time: 1.244171e+00
5 Add/Rem 6
Graph 1:
1 1 1 0 0 0 
1 0 1 0 0 0 
0 0 1 0 1 0 
1 1 0 1 0 1 
1 0 1 1 1 0 
0 1 0 1 0 0 
Graph 2:
0 1 1 1 0 0 
1 1 1 1 0 0 
0 0 1 0 1 0 
0 1 0 0 0 0 
1 1 1 1 0 1 
0 1 0 1 1 0 
Solution: -11 0
Gbest: -15.000000
Expectation: -16.737770
Final Parameters:
Gammas:
[ 3.168024 3.133321 2.858659 2.811809 ]
Betas:
[ 1.502510 1.264945 2.410503 1.738755 1.619125 ]
Aggregate results:
[ 10 18 20 16 14 12 22 24 26 35 ]
[ 0.089117 0.164752 0.043907 0.288661 0.209858 0.153176 0.008406 0.002680 0.002394 0.037049 ]
3
Num Evals 2975
GenUC: 1.288211e-04
GenUB: 1.729795e-04
Optimisation 1.208830e+00
Total Time: 1.211167e+00
