Clock Speed: 3.688902
Num threads: 4
Trotterisation: 4
Graph Size: 6
Num Qubits: 10
Space Dimension: 1024
Run-Type: 0
Num_samples: 10
1 Isomorphic
Graph 1:
0 1 0 1 1 1 
1 1 1 1 0 0 
1 1 1 1 0 1 
1 1 1 0 0 0 
1 1 0 1 1 1 
1 1 1 0 0 1 
Graph 2:
0 1 0 1 1 1 
1 1 1 1 0 0 
1 1 1 1 0 1 
1 1 1 0 0 0 
1 1 0 1 1 1 
1 1 1 0 0 1 
Solution: 0 0
Gbest: -10.000000
Expectation: -14.638774
Final Parameters:
Gammas:
[ 3.183276 3.121861 3.291859 3.044571 ]
Betas:
[ 1.268590 1.748738 2.018947 3.141593 2.177382 ]
Aggregate results:
[ -1 7 9 5 11 13 15 3 19 17 21 35 ]
[ 0.006417 0.032835 0.076117 0.007155 0.187627 0.248525 0.207897 0.006150 0.065627 0.139230 0.009691 0.012731 ]
5
Num Evals 600
GenUC: 2.601347e-04
GenUB: 1.994297e-04
Optimisation 1.376749e+00
Total Time: 1.379464e+00
2 Flipped
Graph 1:
0 1 0 1 1 1 
1 1 1 1 0 0 
1 1 1 1 0 1 
1 1 1 0 0 0 
1 1 0 1 1 1 
1 1 1 0 0 1 
Graph 2:
1 1 1 0 1 0 
0 0 1 1 1 1 
1 0 1 1 1 1 
0 0 0 1 1 1 
1 1 1 0 1 1 
1 0 0 1 1 1 
Solution: -8 370
Gbest: -8.000000
Expectation: -15.392294
Final Parameters:
Gammas:
[ 2.823091 3.116879 3.076443 3.022798 ]
Betas:
[ 1.294477 1.230186 1.629806 2.022224 1.618008 ]
Aggregate results:
[ 21 17 15 19 13 11 9 7 35 ]
[ 0.007053 0.058503 0.167288 0.012603 0.387982 0.223955 0.073949 0.002689 0.065978 ]
5
Num Evals 1200
GenUC: 1.284996e-04
GenUB: 1.511322e-04
Optimisation 1.213225e+00
Total Time: 1.215534e+00
3 Add 6
Graph 1:
0 1 0 1 1 1 
1 1 1 1 0 0 
1 1 1 1 0 1 
1 1 1 0 0 0 
1 1 0 1 1 1 
1 1 1 0 0 1 
Graph 2:
1 1 0 1 1 1 
1 1 1 1 0 1 
1 1 1 1 0 1 
1 1 1 1 0 0 
1 1 0 1 1 1 
1 1 1 1 0 1 
Solution: -4 0
Gbest: -10.000000
Expectation: -14.626634
Final Parameters:
Gammas:
[ 3.288270 3.053399 3.279022 3.198245 ]
Betas:
[ 0.992346 1.579815 2.072813 2.910242 1.808132 ]
Aggregate results:
[ 3 7 9 11 17 13 15 5 35 ]
[ 0.010552 0.026877 0.137856 0.228165 0.088066 0.234817 0.218695 0.003263 0.051710 ]
5
Num Evals 1800
GenUC: 9.968462e-05
GenUB: 1.702063e-04
Optimisation 1.297708e+00
Total Time: 1.300115e+00
4 Rem 6
Graph 1:
0 1 0 1 1 1 
1 1 1 1 0 0 
1 1 1 1 0 1 
1 1 1 0 0 0 
1 1 0 1 1 1 
1 1 1 0 0 1 
Graph 2:
0 1 0 1 1 1 
1 1 1 1 0 0 
1 1 0 0 0 1 
0 1 1 0 0 0 
1 1 0 1 1 1 
1 1 0 0 0 0 
Solution: -5 0
Gbest: -5.000000
Expectation: -15.434450
Final Parameters:
Gammas:
[ 3.220689 3.062493 3.426698 3.106556 ]
Betas:
[ 1.502334 1.636264 2.296459 1.462599 1.463725 ]
Aggregate results:
[ 4 12 10 14 16 8 18 24 20 22 6 35 ]
[ 0.032127 0.208053 0.170594 0.226594 0.176364 0.026401 0.064808 0.005219 0.023702 0.011256 0.001252 0.053629 ]
3
Num Evals 2327
GenUC: 1.368497e-04
GenUB: 1.664892e-04
Optimisation 1.074142e+00
Total Time: 1.076446e+00
5 Add/Rem 6
Graph 1:
0 1 0 1 1 1 
1 1 1 1 0 0 
1 1 1 1 0 1 
1 1 1 0 0 0 
1 1 0 1 1 1 
1 1 1 0 0 1 
Graph 2:
0 1 1 1 1 1 
1 1 1 0 0 0 
1 1 1 1 0 0 
0 0 1 0 1 0 
0 1 1 1 1 1 
1 1 1 0 0 1 
Solution: -8 0
Gbest: -10.000000
Expectation: -16.284461
Final Parameters:
Gammas:
[ 2.629599 3.137575 3.298996 3.097684 ]
Betas:
[ 1.741950 1.524492 1.536573 2.497877 0.923281 ]
Aggregate results:
[ 7 13 9 11 15 17 19 21 23 35 ]
[ 0.031897 0.274521 0.096318 0.186523 0.198749 0.054387 0.038635 0.014414 0.002352 0.102203 ]
5
Num Evals 2927
GenUC: 1.269239e-04
GenUB: 1.703635e-04
Optimisation 1.208858e+00
Total Time: 1.211158e+00
