Clock Speed: 3.689198
Num threads: 4
Trotterisation: 4
Graph Size: 6
Num Qubits: 10
Space Dimension: 1024
Run-Type: 0
Num_samples: 10
1 Isomorphic
Graph 1:
1 1 0 0 0 0 
0 0 0 0 0 0 
0 1 0 1 1 1 
1 0 1 1 0 0 
1 0 0 0 0 1 
0 0 1 0 0 1 
Graph 2:
1 1 0 0 0 0 
0 0 0 0 0 0 
0 1 0 1 1 1 
1 0 1 1 0 0 
1 0 0 0 0 1 
0 0 1 0 0 1 
Solution: 0 0
Gbest: -8.000000
Expectation: -14.718559
Final Parameters:
Gammas:
[ 3.231007 3.166692 2.989419 3.121070 ]
Betas:
[ 1.805606 1.301299 1.592632 2.618179 0.661461 ]
Aggregate results:
[ -1 9 17 13 11 15 19 7 5 21 23 3 35 ]
[ 0.007747 0.094073 0.104308 0.284346 0.171033 0.219165 0.015972 0.036170 0.014754 0.005791 0.000372 0.004341 0.041927 ]
5
Num Evals 600
GenUC: 2.764494e-04
GenUB: 2.000728e-04
Optimisation 1.253400e+00
Total Time: 1.255852e+00
2 Flipped
Graph 1:
1 1 0 0 0 0 
0 0 0 0 0 0 
0 1 0 1 1 1 
1 0 1 1 0 0 
1 0 0 0 0 1 
0 0 1 0 0 1 
Graph 2:
0 0 0 0 1 1 
0 0 0 0 0 0 
1 1 1 0 1 0 
0 0 1 1 0 1 
1 0 0 0 0 1 
1 0 0 1 0 0 
Solution: -8 125
Gbest: -12.000000
Expectation: -16.519062
Final Parameters:
Gammas:
[ 3.180337 3.226941 3.224847 3.037510 ]
Betas:
[ 1.160601 1.437143 1.385282 2.825960 1.722337 ]
Aggregate results:
[ 13 15 19 9 11 17 21 23 7 25 35 ]
[ 0.231633 0.272469 0.089852 0.015440 0.124911 0.197228 0.031490 0.000902 0.003220 0.000674 0.032181 ]
5
Num Evals 1200
GenUC: 1.291633e-04
GenUB: 1.503200e-04
Optimisation 1.255229e+00
Total Time: 1.257594e+00
3 Add 6
Graph 1:
1 1 0 0 0 0 
0 0 0 0 0 0 
0 1 0 1 1 1 
1 0 1 1 0 0 
1 0 0 0 0 1 
0 0 1 0 0 1 
Graph 2:
1 1 0 0 0 0 
0 0 0 0 0 1 
0 1 1 1 1 1 
1 0 1 1 0 0 
1 0 1 1 0 1 
0 0 1 0 1 1 
Solution: -5 0
Gbest: -13.000000
Expectation: -15.904505
Final Parameters:
Gammas:
[ 3.161558 3.141470 2.921220 3.151121 ]
Betas:
[ 1.506164 1.232978 2.318829 1.634147 1.673585 ]
Aggregate results:
[ 4 14 16 22 12 20 18 8 10 24 26 6 35 ]
[ 0.006382 0.269530 0.244294 0.009446 0.208771 0.029491 0.099192 0.027899 0.064426 0.004998 0.001253 0.003882 0.030435 ]
5
Num Evals 1800
GenUC: 1.326462e-04
GenUB: 1.674669e-04
Optimisation 1.249276e+00
Total Time: 1.251557e+00
4 Rem 6
Graph 1:
1 1 0 0 0 0 
0 0 0 0 0 0 
0 1 0 1 1 1 
1 0 1 1 0 0 
1 0 0 0 0 1 
0 0 1 0 0 1 
Graph 2:
1 1 0 0 0 0 
0 0 0 0 0 0 
0 0 0 1 1 0 
0 0 1 1 0 0 
1 0 0 0 0 1 
0 0 1 0 0 0 
Solution: -4 0
Gbest: -10.000000
Expectation: -17.900782
Final Parameters:
Gammas:
[ 3.673001 3.095480 3.107855 1.819399 ]
Betas:
[ 0.132570 1.357666 1.139907 2.664731 1.521681 ]
Aggregate results:
[ 3 9 15 13 17 19 11 21 7 5 35 ]
[ 0.000151 0.059442 0.187842 0.246967 0.126290 0.062301 0.157705 0.011428 0.004091 0.000977 0.142807 ]
5
Num Evals 2400
GenUC: 1.221670e-04
GenUB: 1.694709e-04
Optimisation 1.071198e+00
Total Time: 1.073232e+00
5 Add/Rem 6
Graph 1:
1 1 0 0 0 0 
0 0 0 0 0 0 
0 1 0 1 1 1 
1 0 1 1 0 0 
1 0 0 0 0 1 
0 0 1 0 0 1 
Graph 2:
1 1 0 1 0 0 
1 0 0 0 0 0 
0 1 0 0 1 0 
0 0 1 1 0 0 
0 0 0 1 1 1 
0 0 1 1 0 1 
Solution: -9 0
Gbest: -11.000000
Expectation: -14.817216
Final Parameters:
Gammas:
[ 3.163323 3.151470 3.390269 2.828696 ]
Betas:
[ 1.690886 1.169386 2.350493 1.406205 1.554880 ]
Aggregate results:
[ 8 12 16 18 14 20 10 22 35 ]
[ 0.026288 0.312164 0.166753 0.044629 0.293882 0.008252 0.121203 0.003142 0.023687 ]
5
Num Evals 3000
GenUC: 1.314649e-04
GenUB: 1.689023e-04
Optimisation 1.235557e+00
Total Time: 1.237850e+00
