Clock Speed: 3.688273
Num threads: 4
Trotterisation: 3
Graph Size: 7
Num Qubits: 13
Space Dimension: 8192
Run-Type: 0
Num_samples: 10
1 Isomorphic
Graph 1:
1 0 1 0 0 0 1 
1 0 1 0 0 0 1 
0 1 0 1 0 0 0 
0 1 1 1 1 0 0 
1 1 0 0 1 0 1 
1 0 0 1 1 0 0 
1 0 1 0 1 1 0 
Graph 2:
1 0 1 0 0 0 1 
1 0 1 0 0 0 1 
0 1 0 1 0 0 0 
0 1 1 1 1 0 0 
1 1 0 0 1 0 1 
1 0 0 1 1 0 0 
1 0 1 0 1 1 0 
Solution: 0 0
Gbest: -22.000000
Expectation: -26.653745
Final Parameters:
Gammas:
[ 4.531300 4.713480 0.036686 ]
Betas:
[ 0.032617 0.000000 1.918502 1.827816 ]
Aggregate results:
[ -1 11 15 19 21 17 23 13 27 25 9 29 31 33 37 39 7 48 ]
[ 0.000355 0.003878 0.020637 0.096497 0.164469 0.036283 0.191308 0.005705 0.115869 0.177524 0.000389 0.062667 0.021616 0.004141 0.000393 0.000217 0.000003 0.098049 ]
5
Num Evals 700
GenUC: 4.005162e-03
GenUB: 1.970936e-03
Optimisation 4.766626e+00
Total Time: 4.778794e+00
2 Flipped
Graph 1:
1 0 1 0 0 0 1 
1 0 1 0 0 0 1 
0 1 0 1 0 0 0 
0 1 1 1 1 0 0 
1 1 0 0 1 0 1 
1 0 0 1 1 0 0 
1 0 1 0 1 1 0 
Graph 2:
1 0 0 0 1 0 1 
1 0 0 0 1 0 1 
0 0 0 1 0 1 0 
0 0 1 1 1 1 0 
1 0 1 0 0 1 1 
0 0 1 1 0 0 1 
0 1 1 0 1 0 1 
Solution: -10 273
Gbest: -10.000000
Expectation: -28.136048
Final Parameters:
Gammas:
[ 3.791738 2.232575 0.207955 ]
Betas:
[ 0.033874 3.031782 2.175169 1.544969 ]
Aggregate results:
[ 19 21 23 25 31 29 27 17 15 13 9 11 33 37 35 48 ]
[ 0.081250 0.142369 0.190145 0.180021 0.015201 0.061829 0.116134 0.040082 0.013120 0.003550 0.000771 0.000499 0.003112 0.000073 0.000145 0.151698 ]
5
Num Evals 1400
GenUC: 1.268201e-03
GenUB: 1.717538e-03
Optimisation 6.720882e+00
Total Time: 6.733556e+00
3 Add 7
Graph 1:
1 0 1 0 0 0 1 
1 0 1 0 0 0 1 
0 1 0 1 0 0 0 
0 1 1 1 1 0 0 
1 1 0 0 1 0 1 
1 0 0 1 1 0 0 
1 0 1 0 1 1 0 
Graph 2:
1 0 1 0 0 1 1 
1 1 1 0 0 1 1 
0 1 0 1 0 1 0 
0 1 1 1 1 0 0 
1 1 0 0 1 0 1 
1 0 0 1 1 1 0 
1 0 1 1 1 1 1 
Solution: -7 0
Gbest: -17.000000
Expectation: -23.980345
Final Parameters:
Gammas:
[ 0.056376 3.275659 0.060731 ]
Betas:
[ 0.451432 2.498390 1.571895 1.440780 ]
Aggregate results:
[ 6 16 22 18 20 24 26 32 28 30 14 12 38 34 36 10 48 ]
[ 0.001496 0.057855 0.231233 0.126414 0.201152 0.170148 0.100637 0.002511 0.035192 0.008789 0.009654 0.003122 0.000157 0.000925 0.000316 0.000263 0.050136 ]
5
Num Evals 2100
GenUC: 1.278679e-03
GenUB: 1.779229e-03
Optimisation 6.698040e+00
Total Time: 6.710959e+00
4 Rem 7
Graph 1:
1 0 1 0 0 0 1 
1 0 1 0 0 0 1 
0 1 0 1 0 0 0 
0 1 1 1 1 0 0 
1 1 0 0 1 0 1 
1 0 0 1 1 0 0 
1 0 1 0 1 1 0 
Graph 2:
0 0 1 0 0 0 1 
1 0 1 0 0 0 1 
0 1 0 1 0 0 0 
0 0 1 1 1 0 0 
1 1 0 0 1 0 1 
1 0 0 0 0 0 0 
0 0 1 0 1 1 0 
Solution: -5 0
Gbest: -15.000000
Expectation: -24.753384
Final Parameters:
Gammas:
[ 3.141887 3.171821 2.950496 ]
Betas:
[ 1.695334 0.193358 2.569710 2.780790 ]
Aggregate results:
[ 4 10 16 18 20 22 14 26 24 28 30 12 32 36 34 38 48 ]
[ 0.000406 0.000981 0.042893 0.096320 0.173420 0.221407 0.011402 0.125225 0.163815 0.067463 0.031863 0.001540 0.011680 0.002990 0.002457 0.000739 0.045399 ]
5
Num Evals 2800
GenUC: 1.281954e-03
GenUB: 1.765600e-03
Optimisation 7.001363e+00
Total Time: 7.014857e+00
5 Add/Rem 7
Graph 1:
1 0 1 0 0 0 1 
1 0 1 0 0 0 1 
0 1 0 1 0 0 0 
0 1 1 1 1 0 0 
1 1 0 0 1 0 1 
1 0 0 1 1 0 0 
1 0 1 0 1 1 0 
Graph 2:
1 0 0 1 1 0 1 
1 0 1 0 1 0 0 
1 1 0 0 0 1 0 
0 1 1 1 1 0 0 
1 1 0 0 1 0 1 
0 0 0 0 0 0 0 
1 0 1 1 0 1 1 
Solution: -12 2414
Gbest: -20.000000
Expectation: -32.125757
Final Parameters:
Gammas:
[ 4.562106 3.579208 3.368792 ]
Betas:
[ 0.017960 2.756557 2.463454 2.203115 ]
Aggregate results:
[ 13 21 23 17 19 25 27 15 29 31 33 35 37 39 11 48 ]
[ 0.001798 0.115457 0.151386 0.032887 0.074314 0.142645 0.090090 0.006430 0.051535 0.016434 0.004618 0.001241 0.000281 0.000033 0.000066 0.310784 ]
5
Num Evals 3500
GenUC: 1.252123e-03
GenUB: 1.757288e-03
Optimisation 7.166246e+00
Total Time: 7.179369e+00
