Clock Speed: 3.389897
Num threads: 4
Trotterisation: 3
Graph Size: 7
Num Qubits: 13
Space Dimension: 8192
Run-Type: 0
Num_samples: 10
1 Isomorphic
Graph 1:
0 0 1 0 1 0 0 
1 1 0 1 1 0 1 
0 1 1 1 1 0 0 
1 0 1 1 1 1 0 
0 0 0 0 1 1 0 
0 1 1 0 1 1 1 
1 0 0 1 1 0 1 
Graph 2:
0 0 1 0 1 0 0 
1 1 0 1 1 0 1 
0 1 1 1 1 0 0 
1 0 1 1 1 1 0 
0 0 0 0 1 1 0 
0 1 1 0 1 1 1 
1 0 0 1 1 0 1 
Solution: 0 0
Gbest: -16.000000
Expectation: -24.723050
Final Parameters:
Gammas:
[ 6.073907 2.936960 0.449401 ]
Betas:
[ 0.083884 2.910762 1.907698 1.551927 ]
Aggregate results:
[ -1 17 11 9 13 19 15 23 7 25 21 27 29 31 35 33 3 48 ]
[ 0.000450 0.103925 0.007176 0.004575 0.016200 0.186069 0.050727 0.156823 0.001070 0.076659 0.200359 0.052163 0.027879 0.008559 0.000114 0.001089 0.000590 0.105573 ]
5
Num Evals 700
GenUC: 1.514395e-03
GenUB: 2.026221e-03
Optimisation 6.761261e+00
Total Time: 6.774318e+00
2 Flipped
Graph 1:
0 0 1 0 1 0 0 
1 1 0 1 1 0 1 
0 1 1 1 1 0 0 
1 0 1 1 1 1 0 
0 0 0 0 1 1 0 
0 1 1 0 1 1 1 
1 0 0 1 1 0 1 
Graph 2:
0 0 1 0 1 0 0 
1 0 1 1 0 1 1 
0 0 1 1 1 1 0 
0 1 1 1 1 0 1 
0 1 1 0 0 0 0 
1 1 1 0 1 1 0 
1 0 1 1 0 0 1 
Solution: -10 562
Gbest: -20.000000
Expectation: -27.289413
Final Parameters:
Gammas:
[ 6.008803 2.964929 6.088501 ]
Betas:
[ 0.718664 2.926409 2.276250 1.669054 ]
Aggregate results:
[ 17 23 21 19 25 29 27 15 13 11 31 9 33 48 ]
[ 0.041438 0.205744 0.175085 0.085801 0.178393 0.046900 0.108038 0.011954 0.003635 0.000530 0.013029 0.000159 0.002327 0.126966 ]
5
Num Evals 1400
GenUC: 1.258320e-03
GenUB: 1.737274e-03
Optimisation 7.630252e+00
Total Time: 7.644145e+00
3 Add 7
Graph 1:
0 0 1 0 1 0 0 
1 1 0 1 1 0 1 
0 1 1 1 1 0 0 
1 0 1 1 1 1 0 
0 0 0 0 1 1 0 
0 1 1 0 1 1 1 
1 0 0 1 1 0 1 
Graph 2:
0 0 1 0 1 0 1 
1 1 1 1 1 0 1 
0 1 1 1 1 0 0 
1 0 1 1 1 1 0 
0 0 0 0 1 1 1 
0 1 1 0 1 1 1 
1 0 1 1 1 1 1 
Solution: -5 0
Gbest: -19.000000
Expectation: -23.554918
Final Parameters:
Gammas:
[ 2.947829 3.076555 4.071524 ]
Betas:
[ 0.003270 2.594945 1.703591 1.584956 ]
Aggregate results:
[ 4 18 12 16 14 22 24 20 28 26 30 10 32 8 48 ]
[ 0.000661 0.169132 0.016037 0.094946 0.056822 0.180245 0.111538 0.200885 0.017227 0.052902 0.004924 0.003383 0.000713 0.001735 0.088849 ]
5
Num Evals 2100
GenUC: 1.248913e-03
GenUB: 1.728673e-03
Optimisation 6.706340e+00
Total Time: 6.718280e+00
4 Rem 7
Graph 1:
0 0 1 0 1 0 0 
1 1 0 1 1 0 1 
0 1 1 1 1 0 0 
1 0 1 1 1 1 0 
0 0 0 0 1 1 0 
0 1 1 0 1 1 1 
1 0 0 1 1 0 1 
Graph 2:
0 0 1 0 1 0 0 
0 1 0 1 1 0 0 
0 1 1 1 1 0 0 
1 0 0 0 1 1 0 
0 0 0 0 0 1 0 
0 1 1 0 0 1 1 
1 0 0 1 1 0 0 
Solution: -7 0
Gbest: -17.000000
Expectation: -23.839384
Final Parameters:
Gammas:
[ 3.084321 3.144177 3.414703 ]
Betas:
[ 1.723665 1.687330 2.063200 3.014396 ]
Aggregate results:
[ 6 20 16 10 14 18 24 28 12 22 26 30 32 36 34 38 8 48 ]
[ 0.000278 0.207247 0.080062 0.002184 0.026078 0.152477 0.130019 0.027985 0.004586 0.198808 0.053450 0.029473 0.023190 0.001033 0.008401 0.000405 0.000357 0.053967 ]
5
Num Evals 2800
GenUC: 1.278669e-03
GenUB: 1.743021e-03
Optimisation 9.458422e+00
Total Time: 9.473005e+00
5 Add/Rem 7
Graph 1:
0 0 1 0 1 0 0 
1 1 0 1 1 0 1 
0 1 1 1 1 0 0 
1 0 1 1 1 1 0 
0 0 0 0 1 1 0 
0 1 1 0 1 1 1 
1 0 0 1 1 0 1 
Graph 2:
0 0 1 0 1 0 0 
1 1 1 1 1 1 1 
1 1 1 1 0 1 1 
0 0 1 1 0 1 0 
0 0 0 0 1 1 0 
0 1 1 0 0 0 1 
0 0 0 1 1 0 1 
Solution: -11 0
Gbest: -21.000000
Expectation: -27.521781
Final Parameters:
Gammas:
[ 5.984256 2.511669 6.035206 ]
Betas:
[ 0.008055 2.121776 0.019641 1.576410 ]
Aggregate results:
[ 10 20 18 14 16 22 24 32 26 30 28 34 12 48 ]
[ 0.000119 0.152240 0.090485 0.004317 0.032120 0.208586 0.178741 0.005571 0.104119 0.013225 0.048854 0.000701 0.000112 0.160808 ]
5
Num Evals 3500
GenUC: 1.371259e-03
GenUB: 1.661952e-03
Optimisation 4.938727e+00
Total Time: 4.948196e+00
