Clock Speed: 3.688915
Num threads: 4
Trotterisation: 2
Graph Size: 8
Num Qubits: 16
Space Dimension: 65536
Run-Type: 0
Num_samples: 10
1 Isomorphic
Graph 1:
1 0 0 0 1 0 0 0 
1 0 0 1 0 1 0 0 
0 1 0 0 0 0 1 0 
1 0 1 1 0 1 0 0 
0 0 0 0 1 0 0 0 
0 1 0 1 0 0 0 0 
0 0 1 0 1 0 1 0 
0 0 1 1 0 1 1 0 
Graph 2:
1 0 0 0 1 0 0 0 
1 0 0 1 0 1 0 0 
0 1 0 0 0 0 1 0 
1 0 1 1 0 1 0 0 
0 0 0 0 1 0 0 0 
0 1 0 1 0 0 0 0 
0 0 1 0 1 0 1 0 
0 0 1 1 0 1 1 0 
Solution: 0 0
Gbest: -22.000000
Expectation: -29.374586
Final Parameters:
Gammas:
[ 3.189741 3.192157 ]
Betas:
[ 2.253246 1.014928 1.597068 ]
Aggregate results:
[ -1 15 19 17 13 21 23 9 27 11 25 29 31 7 33 35 37 39 63 ]
[ 0.000063 0.005162 0.032082 0.014372 0.002313 0.070890 0.125749 0.000342 0.200941 0.000500 0.180856 0.161120 0.094881 0.000303 0.037387 0.011185 0.002126 0.000237 0.059490 ]
5
Num Evals 800
GenUC: 3.550705e-03
GenUB: 1.682972e-02
Optimisation 1.343896e+02
Total Time: 1.346020e+02
2 Flipped
Graph 1:
1 0 0 0 1 0 0 0 
1 0 0 1 0 1 0 0 
0 1 0 0 0 0 1 0 
1 0 1 1 0 1 0 0 
0 0 0 0 1 0 0 0 
0 1 0 1 0 0 0 0 
0 0 1 0 1 0 1 0 
0 0 1 1 0 1 1 0 
Graph 2:
0 0 0 1 0 0 0 1 
0 0 1 0 1 0 0 1 
0 1 0 0 0 0 1 0 
0 0 1 0 1 1 0 1 
0 0 0 1 0 0 0 0 
0 0 0 0 1 0 1 0 
0 1 0 1 0 1 0 0 
0 1 1 0 1 1 0 0 
Solution: -18 1725
Gbest: -26.000000
Expectation: -31.883684
Final Parameters:
Gammas:
[ 0.052340 0.501817 ]
Betas:
[ 2.129130 1.054937 1.468547 ]
Aggregate results:
[ 29 27 31 33 25 23 21 19 37 35 17 39 41 63 ]
[ 0.213322 0.202580 0.157340 0.080342 0.138705 0.067105 0.021325 0.004763 0.006508 0.029826 0.000837 0.000900 0.000029 0.076416 ]
5
Num Evals 1600
GenUC: 2.600428e-03
GenUB: 1.694833e-02
Optimisation 1.294894e+02
Total Time: 1.297052e+02
3 Add 8
Graph 1:
1 0 0 0 1 0 0 0 
1 0 0 1 0 1 0 0 
0 1 0 0 0 0 1 0 
1 0 1 1 0 1 0 0 
0 0 0 0 1 0 0 0 
0 1 0 1 0 0 0 0 
0 0 1 0 1 0 1 0 
0 0 1 1 0 1 1 0 
Graph 2:
1 0 0 0 1 0 1 0 
1 0 0 1 0 1 0 1 
0 1 1 0 1 0 1 0 
1 1 1 1 0 1 0 0 
0 0 0 0 1 0 0 0 
0 1 0 1 1 0 0 0 
0 0 1 1 1 0 1 1 
0 0 1 1 0 1 1 0 
Solution: -8 0
Gbest: -22.000000
Expectation: -29.386329
Final Parameters:
Gammas:
[ 0.046032 0.212691 ]
Betas:
[ 0.173635 2.610204 3.075745 ]
Aggregate results:
[ 7 21 23 15 25 19 29 27 35 31 33 17 13 37 11 39 41 43 63 ]
[ 0.000047 0.057578 0.120251 0.002188 0.188118 0.023327 0.180605 0.217702 0.011945 0.098730 0.035958 0.006132 0.000485 0.005633 0.000112 0.002733 0.001034 0.000278 0.047146 ]
5
Num Evals 2400
GenUC: 2.855991e-03
GenUB: 1.735856e-02
Optimisation 1.309636e+02
Total Time: 1.311905e+02
4 Rem 8
Graph 1:
1 0 0 0 1 0 0 0 
1 0 0 1 0 1 0 0 
0 1 0 0 0 0 1 0 
1 0 1 1 0 1 0 0 
0 0 0 0 1 0 0 0 
0 1 0 1 0 0 0 0 
0 0 1 0 1 0 1 0 
0 0 1 1 0 1 1 0 
Graph 2:
1 0 0 0 1 0 0 0 
0 0 0 1 0 1 0 0 
0 1 0 0 0 0 0 0 
1 0 1 0 0 1 0 0 
0 0 0 0 1 0 0 0 
0 1 0 1 0 0 0 0 
0 0 0 0 0 0 1 0 
0 0 1 0 0 1 0 0 
Solution: -7 0
Gbest: -23.000000
Expectation: -27.286891
Final Parameters:
Gammas:
[ 3.193450 0.180284 ]
Betas:
[ 0.169903 0.838279 2.789794 ]
Aggregate results:
[ 6 20 22 18 14 10 24 12 26 16 28 30 32 8 34 63 ]
[ 0.000061 0.074090 0.153562 0.029892 0.003269 0.000326 0.226345 0.001035 0.239358 0.009251 0.152687 0.055221 0.011032 0.000082 0.000724 0.043065 ]
5
Num Evals 3200
GenUC: 2.760008e-03
GenUB: 1.683180e-02
Optimisation 1.212738e+02
Total Time: 1.214537e+02
5 Add/Rem 8
Graph 1:
1 0 0 0 1 0 0 0 
1 0 0 1 0 1 0 0 
0 1 0 0 0 0 1 0 
1 0 1 1 0 1 0 0 
0 0 0 0 1 0 0 0 
0 1 0 1 0 0 0 0 
0 0 1 0 1 0 1 0 
0 0 1 1 0 1 1 0 
Graph 2:
1 0 0 0 1 0 0 0 
1 0 0 1 1 0 1 0 
0 1 1 0 1 0 1 0 
1 0 1 1 0 1 0 1 
0 0 0 0 0 0 0 1 
0 1 0 1 0 0 0 0 
0 0 0 0 1 0 0 0 
0 0 1 1 0 0 1 0 
Solution: -11 0
Gbest: -21.000000
Expectation: -30.803577
Final Parameters:
Gammas:
[ 3.195840 5.258203 ]
Betas:
[ 1.572037 2.055500 1.570796 ]
Aggregate results:
[ 10 22 20 24 18 28 16 26 32 30 36 34 14 12 38 40 63 ]
[ 0.000018 0.063835 0.023247 0.127388 0.006076 0.207930 0.001455 0.189459 0.094705 0.167829 0.010582 0.039949 0.000223 0.000027 0.001799 0.000235 0.065243 ]
5
Num Evals 4000
GenUC: 2.772190e-03
GenUB: 1.673454e-02
Optimisation 1.386527e+02
Total Time: 1.388785e+02
