Clock Speed: 3.689391
Num threads: 4
Trotterisation: 2
Graph Size: 8
Num Qubits: 16
Space Dimension: 65536
Run-Type: 0
Num_samples: 10
1 Isomorphic
Graph 1:
0 1 0 0 0 0 0 1 
1 1 0 0 1 1 0 1 
0 1 0 1 0 1 1 1 
1 0 0 0 1 1 1 0 
1 0 0 0 0 1 1 0 
0 1 0 0 0 1 0 1 
0 0 1 0 0 0 0 1 
1 0 1 0 0 1 1 1 
Graph 2:
0 1 0 0 0 0 0 1 
1 1 0 0 1 1 0 1 
0 1 0 1 0 1 1 1 
1 0 0 0 1 1 1 0 
1 0 0 0 0 1 1 0 
0 1 0 0 0 1 0 1 
0 0 1 0 0 0 0 1 
1 0 1 0 0 1 1 1 
Solution: 0 0
Gbest: -24.000000
Expectation: -32.382157
Final Parameters:
Gammas:
[ 6.252241 3.302655 ]
Betas:
[ 0.302678 0.407364 0.308613 ]
Aggregate results:
[ -1 15 23 19 13 25 21 9 29 27 17 31 5 11 33 35 37 41 39 43 3 7 45 47 63 ]
[ 0.000015 0.001836 0.051255 0.010277 0.000517 0.094984 0.024734 0.000121 0.165896 0.138665 0.003238 0.159284 0.000004 0.000060 0.126003 0.085497 0.050073 0.011397 0.027341 0.003403 0.000008 0.000027 0.000416 0.000224 0.044725 ]
5
Num Evals 800
GenUC: 3.525250e-03
GenUB: 1.748688e-02
Optimisation 1.000950e+02
Total Time: 1.002141e+02
2 Flipped
Graph 1:
0 1 0 0 0 0 0 1 
1 1 0 0 1 1 0 1 
0 1 0 1 0 1 1 1 
1 0 0 0 1 1 1 0 
1 0 0 0 0 1 1 0 
0 1 0 0 0 1 0 1 
0 0 1 0 0 0 0 1 
1 0 1 0 0 1 1 1 
Graph 2:
1 0 0 0 0 0 1 0 
1 0 1 1 0 0 1 1 
1 1 1 0 1 0 1 0 
0 1 1 1 0 0 0 1 
0 1 1 0 0 0 0 1 
1 0 1 0 0 0 1 0 
1 0 0 0 0 1 0 0 
1 1 1 0 0 1 0 1 
Solution: -16 16471
Gbest: -24.000000
Expectation: -34.182333
Final Parameters:
Gammas:
[ 3.289063 0.049752 ]
Betas:
[ 2.074448 2.059113 1.768874 ]
Aggregate results:
[ 41 33 31 29 35 27 37 25 23 21 19 39 43 17 45 15 47 49 63 ]
[ 0.009992 0.145856 0.173621 0.168964 0.097005 0.130370 0.054175 0.072417 0.031474 0.008177 0.001346 0.024200 0.003631 0.000257 0.001242 0.000005 0.000105 0.000036 0.077127 ]
5
Num Evals 1600
GenUC: 2.639990e-03
GenUB: 1.677028e-02
Optimisation 1.525285e+02
Total Time: 1.527645e+02
3 Add 8
Graph 1:
0 1 0 0 0 0 0 1 
1 1 0 0 1 1 0 1 
0 1 0 1 0 1 1 1 
1 0 0 0 1 1 1 0 
1 0 0 0 0 1 1 0 
0 1 0 0 0 1 0 1 
0 0 1 0 0 0 0 1 
1 0 1 0 0 1 1 1 
Graph 2:
0 1 1 0 0 0 0 1 
1 1 0 1 1 1 0 1 
0 1 1 1 0 1 1 1 
1 0 1 0 1 1 1 0 
1 0 0 0 0 1 1 0 
0 1 1 0 1 1 0 1 
1 1 1 0 0 0 0 1 
1 0 1 0 0 1 1 1 
Solution: -8 0
Gbest: -24.000000
Expectation: -32.502989
Final Parameters:
Gammas:
[ 0.037990 2.891404 ]
Betas:
[ 1.876709 2.575431 0.041480 ]
Aggregate results:
[ 7 23 17 21 27 25 31 19 29 33 11 35 37 41 39 15 43 13 45 47 63 ]
[ 0.000012 0.048287 0.002063 0.019806 0.154560 0.096293 0.175596 0.005666 0.187868 0.124057 0.000092 0.068985 0.033040 0.007176 0.016525 0.000392 0.002367 0.000211 0.000526 0.000077 0.056402 ]
5
Num Evals 2400
GenUC: 2.869700e-03
GenUB: 1.680965e-02
Optimisation 1.228131e+02
Total Time: 1.230034e+02
4 Rem 8
Graph 1:
0 1 0 0 0 0 0 1 
1 1 0 0 1 1 0 1 
0 1 0 1 0 1 1 1 
1 0 0 0 1 1 1 0 
1 0 0 0 0 1 1 0 
0 1 0 0 0 1 0 1 
0 0 1 0 0 0 0 1 
1 0 1 0 0 1 1 1 
Graph 2:
0 1 0 0 0 0 0 1 
1 1 0 0 0 0 0 1 
0 0 0 1 0 1 1 1 
1 0 0 0 0 1 1 0 
1 0 0 0 0 0 1 0 
0 1 0 0 0 1 0 1 
0 0 1 0 0 0 0 1 
1 0 1 0 0 1 1 0 
Solution: -6 0
Gbest: -28.000000
Expectation: -33.736670
Final Parameters:
Gammas:
[ 3.283090 3.150285 ]
Betas:
[ 0.948745 0.498096 0.005371 ]
Aggregate results:
[ 5 15 25 21 19 27 23 29 31 17 7 13 33 35 41 37 39 11 9 43 45 63 ]
[ 0.000041 0.000884 0.075916 0.014757 0.005622 0.132487 0.036204 0.179597 0.184063 0.001537 0.000026 0.000388 0.143976 0.087015 0.002298 0.039333 0.013151 0.000118 0.000033 0.000329 0.000104 0.082119 ]
5
Num Evals 3200
GenUC: 2.769106e-03
GenUB: 1.670685e-02
Optimisation 1.341428e+02
Total Time: 1.342644e+02
5 Add/Rem 8
Graph 1:
0 1 0 0 0 0 0 1 
1 1 0 0 1 1 0 1 
0 1 0 1 0 1 1 1 
1 0 0 0 1 1 1 0 
1 0 0 0 0 1 1 0 
0 1 0 0 0 1 0 1 
0 0 1 0 0 0 0 1 
1 0 1 0 0 1 1 1 
Graph 2:
0 1 0 0 1 0 1 1 
0 1 0 0 1 1 0 1 
0 0 0 1 1 1 1 0 
1 0 0 0 1 0 1 0 
1 0 1 0 0 0 1 0 
0 0 0 1 0 1 0 1 
0 0 1 0 1 1 0 1 
1 0 1 0 0 0 1 1 
Solution: -14 0
Gbest: -28.000000
Expectation: -32.944967
Final Parameters:
Gammas:
[ 3.186542 3.141593 ]
Betas:
[ 2.122974 2.452185 0.138595 ]
Aggregate results:
[ 13 23 29 25 21 27 19 31 33 17 35 37 39 41 43 45 63 ]
[ 0.000046 0.029873 0.185904 0.073657 0.010007 0.131819 0.003537 0.194222 0.160854 0.001021 0.097884 0.043286 0.015384 0.003602 0.000704 0.000017 0.048184 ]
5
Num Evals 4000
GenUC: 2.757071e-03
GenUB: 1.663018e-02
Optimisation 1.435435e+02
Total Time: 1.437446e+02
