Clock Speed: 3.688707
Num threads: 4
Trotterisation: 3
Num Qubits: 3
Space Dimension: 8
Run-Type: 0
Num_samples: 2024
Optimiser Method: 0
1 Isomorphic
Graph 1:
0 0 1 
0 0 1 
1 0 1 
Graph 2:
0 0 1 
0 0 1 
1 0 1 
Solution: 9 0
Classic Expectation: 4.666667
Initial Expecation: 3.500000
Gbest: 9.000000
Expectation: 4.578125
Final Parameters:
Gammas:
[ 1.047198 5.235988 3.141593 ]
Betas:
[ 1.570796 0.523599 1.570796 ]
Aggregate results:
[ 9 1 7 3 5 0 ]
[ 0.125000 0.125000 0.125000 0.179687 0.382812 0.062500 ]
3
Num Evals 25
GenUC: 2.685934e-06
GenUB: 7.350114e-06
Optimisation 4.602117e-03
Total Time: 4.641326e-03
2 Flipped
Graph 1:
0 0 1 
0 0 1 
1 0 1 
Graph 2:
1 0 0 
1 0 0 
1 0 1 
Solution: 7 3
Classic Expectation: 4.333333
Initial Expecation: 3.250000
Gbest: 7.000000
Expectation: 4.046875
Final Parameters:
Gammas:
[ 5.235988 3.141593 3.141593 ]
Betas:
[ 2.617994 1.570796 1.570796 ]
Aggregate results:
[ 5 3 7 1 0 ]
[ 0.382813 0.109375 0.226563 0.218750 0.062500 ]
3
Num Evals 19
GenUC: 2.541579e-06
GenUB: 8.714851e-07
Optimisation 3.437908e-03
Total Time: 3.443122e-03
3 Add 3
Graph 1:
0 0 1 
0 0 1 
1 0 1 
Graph 2:
1 0 1 
0 1 1 
1 1 1 
Solution: 6 0
Classic Expectation: 4.000000
Initial Expecation: 3.000000
Gbest: 6.000000
Expectation: 4.500000
Final Parameters:
Gammas:
[ 5.235988 3.141593 1.047198 ]
Betas:
[ 0.523599 1.570796 1.570796 ]
Aggregate results:
[ 6 2 4 0 ]
[ 0.437500 0.062500 0.437500 0.062500 ]
3
Num Evals 23
GenUC: 2.522778e-06
GenUB: 5.527982e-07
Optimisation 3.909252e-03
Total Time: 3.913632e-03
4 Rem 3
Graph 1:
0 0 1 
0 0 1 
1 0 1 
Graph 2:
0 0 0 
0 0 0 
1 0 1 
Solution: 7 0
Classic Expectation: 4.666667
Initial Expecation: 3.500000
Gbest: 7.000000
Expectation: 3.734375
Final Parameters:
Gammas:
[ 5.235988 1.047198 3.141593 ]
Betas:
[ 0.523599 1.570796 1.570796 ]
Aggregate results:
[ 7 3 5 0 ]
[ 0.148438 0.390625 0.304687 0.156250 ]
3
Num Evals 19
GenUC: 2.537447e-06
GenUB: 5.158363e-07
Optimisation 3.298016e-03
Total Time: 3.302414e-03
5 Add/Rem 3
Graph 1:
0 0 1 
0 0 1 
1 0 1 
Graph 2:
1 0 0 
1 0 0 
1 1 0 
Solution: 7 3
Classic Expectation: 4.666667
Initial Expecation: 3.500000
Gbest: 7.000000
Expectation: 3.546875
Final Parameters:
Gammas:
[ 1.047198 1.047198 3.141593 ]
Betas:
[ 0.523599 1.570796 1.570796 ]
Aggregate results:
[ 3 5 7 0 ]
[ 0.539062 0.101562 0.203125 0.156250 ]
3
Num Evals 19
GenUC: 2.452987e-06
GenUB: 6.443588e-07
Optimisation 3.243826e-03
Total Time: 3.248158e-03
