Clock Speed: 3.688881
Num threads: 4
Trotterisation: 3
Num Qubits: 3
Space Dimension: 8
Run-Type: 0
Num_samples: 2024
Optimiser Method: 0
1 Isomorphic
Graph 1:
1 1 0 
0 1 1 
1 1 0 
Graph 2:
1 1 0 
0 1 1 
1 1 0 
Solution: 9 0
Classic Expectation: 5.000000
Initial Expecation: 3.750000
Gbest: 9.000000
Expectation: 4.078125
Final Parameters:
Gammas:
[ 5.235988 5.235988 3.141593 ]
Betas:
[ 0.523599 1.570796 1.570796 ]
Aggregate results:
[ 9 3 5 0 ]
[ 0.218750 0.507813 0.117187 0.156250 ]
3
Num Evals 19
GenUC: 2.692454e-06
GenUB: 8.992676e-06
Optimisation 6.085515e-02
Total Time: 6.088527e-02
2 Flipped
Graph 1:
1 1 0 
0 1 1 
1 1 0 
Graph 2:
0 1 1 
1 1 0 
0 1 1 
Solution: 9 5
Classic Expectation: 5.000000
Initial Expecation: 3.750000
Gbest: 9.000000
Expectation: 5.202443
Final Parameters:
Gammas:
[ 0.349066 2.443461 3.141593 ]
Betas:
[ 0.523599 1.570796 1.570796 ]
Aggregate results:
[ 3 5 9 0 ]
[ 0.086278 0.468409 0.289062 0.156250 ]
3
Num Evals 59
GenUC: 2.439483e-06
GenUB: 8.479692e-07
Optimisation 1.008590e-02
Total Time: 1.009067e-02
3 Add 3
Graph 1:
1 1 0 
0 1 1 
1 1 0 
Graph 2:
1 1 0 
1 1 1 
1 1 1 
Solution: 7 0
Classic Expectation: 5.666667
Initial Expecation: 4.250000
Gbest: 7.000000
Expectation: 6.736699
Final Parameters:
Gammas:
[ 1.047676 5.429915 3.102810 ]
Betas:
[ 1.745330 1.512618 0.698131 ]
Aggregate results:
[ 7 5 0 ]
[ 0.933870 0.039922 0.026208 ]
3
Num Evals 1003
GenUC: 2.656016e-06
GenUB: 5.880138e-07
Optimisation 1.733042e-01
Total Time: 1.733087e-01
4 Rem 3
Graph 1:
1 1 0 
0 1 1 
1 1 0 
Graph 2:
0 0 0 
0 1 1 
0 1 0 
Solution: 6 0
Classic Expectation: 4.000000
Initial Expecation: 3.000000
Gbest: 6.000000
Expectation: 3.468750
Final Parameters:
Gammas:
[ 1.047198 5.235988 3.141593 ]
Betas:
[ 0.523599 1.570796 1.570796 ]
Aggregate results:
[ 6 4 2 0 ]
[ 0.335938 0.312500 0.101562 0.250000 ]
3
Num Evals 19
GenUC: 2.691231e-06
GenUB: 7.253257e-07
Optimisation 3.408698e-03
Total Time: 3.413844e-03
5 Add/Rem 3
Graph 1:
1 1 0 
0 1 1 
1 1 0 
Graph 2:
1 1 1 
0 0 1 
0 1 0 
Solution: 6 0
Classic Expectation: 4.666667
Initial Expecation: 3.500000
Gbest: 6.000000
Expectation: 3.875000
Final Parameters:
Gammas:
[ 5.235988 1.047198 3.141593 ]
Betas:
[ 0.523599 1.570796 1.570796 ]
Aggregate results:
[ 6 4 0 ]
[ 0.062500 0.875000 0.062500 ]
3
Num Evals 19
GenUC: 2.347981e-06
GenUB: 7.869676e-07
Optimisation 3.430522e-03
Total Time: 3.434943e-03
