Clock Speed: 3.688401
Num threads: 4
Trotterisation: 3
Num Qubits: 3
Space Dimension: 8
Run-Type: 0
Num_samples: 2024
Optimiser Method: 0
1 Isomorphic
Graph 1:
1 1 1 
1 1 0 
1 1 1 
Graph 2:
1 1 1 
1 1 0 
1 1 1 
Solution: 9 0
Classic Expectation: 7.333333
Initial Expecation: 5.500000
Gbest: 9.000000
Expectation: 5.500000
Final Parameters:
Gammas:
[ 1.047198 1.047198 3.141593 ]
Betas:
[ 1.570796 1.570796 1.570796 ]
Aggregate results:
[ 9 7 0 ]
[ 0.125000 0.625000 0.250000 ]
3
Num Evals 17
GenUC: 2.655433e-06
GenUB: 7.189345e-06
Optimisation 3.197102e-03
Total Time: 3.224860e-03
2 Flipped
Graph 1:
1 1 1 
1 1 0 
1 1 1 
Graph 2:
1 1 1 
0 1 1 
1 1 1 
Solution: 9 5
Classic Expectation: 7.333333
Initial Expecation: 5.500000
Gbest: 9.000000
Expectation: 7.920527
Final Parameters:
Gammas:
[ 5.934119 1.021341 5.899644 ]
Betas:
[ 0.833880 1.583725 2.527495 ]
Aggregate results:
[ 7 9 0 ]
[ 0.511414 0.482292 0.006294 ]
5
Num Evals 1800
GenUC: 2.445944e-06
GenUB: 8.521019e-07
Optimisation 3.122515e-01
Total Time: 3.122565e-01
3 Add 3
Graph 1:
1 1 1 
1 1 0 
1 1 1 
Graph 2:
1 1 1 
1 1 1 
1 1 1 
Solution: 8 0
Classic Expectation: 8.000000
Initial Expecation: 6.000000
Gbest: 8.000000
Expectation: 7.939693
Final Parameters:
Gammas:
[ 1.745329 2.443461 2.443461 ]
Betas:
[ 0.523599 1.570796 1.919862 ]
Aggregate results:
[ 8 0 ]
[ 0.992462 0.007538 ]
3
Num Evals 99
GenUC: 2.671906e-06
GenUB: 6.601913e-07
Optimisation 1.702356e-02
Total Time: 1.702842e-02
4 Rem 3
Graph 1:
1 1 1 
1 1 0 
1 1 1 
Graph 2:
1 0 1 
0 1 0 
1 0 1 
Solution: 6 0
Classic Expectation: 5.333333
Initial Expecation: 4.000000
Gbest: 6.000000
Expectation: 4.375000
Final Parameters:
Gammas:
[ 1.047198 1.047198 3.141593 ]
Betas:
[ 0.523599 1.570796 1.570796 ]
Aggregate results:
[ 6 4 0 ]
[ 0.687500 0.062500 0.250000 ]
3
Num Evals 19
GenUC: 2.523419e-06
GenUB: 5.721813e-07
Optimisation 3.348735e-03
Total Time: 3.353087e-03
5 Add/Rem 3
Graph 1:
1 1 1 
1 1 0 
1 1 1 
Graph 2:
0 0 1 
1 0 1 
1 1 1 
Solution: 7 4
Classic Expectation: 5.333333
Initial Expecation: 4.000000
Gbest: 7.000000
Expectation: 4.234375
Final Parameters:
Gammas:
[ 5.235988 3.141593 3.141593 ]
Betas:
[ 2.617994 1.570796 1.570796 ]
Aggregate results:
[ 5 7 0 ]
[ 0.507812 0.242188 0.250000 ]
3
Num Evals 21
GenUC: 2.340879e-06
GenUB: 7.171184e-07
Optimisation 3.870115e-03
Total Time: 3.874383e-03
