Clock Speed: 3.689436
Num threads: 4
Trotterisation: 1
Num Qubits: 3
Space Dimension: 8
Run-Type: 0
Num_samples: 2024
Optimiser Method: 0
1 Isomorphic
Graph 1:
0 1 0 
0 1 1 
0 0 0 
Graph 2:
0 1 0 
0 1 1 
0 0 0 
Solution: 9 0
Classic Expectation: 5.000000
Initial Expecation: 3.750000
Gbest: 9.000000
Expectation: 6.118004
Final Parameters:
Gammas:
[ 1.047198 ]
Betas:
[ 2.268928 ]
Aggregate results:
[ 9 3 5 0 ]
[ 0.341044 0.031129 0.591044 0.036783 ]
3
Num Evals 23
GenUC: 2.650660e-06
GenUB: 7.662748e-06
Optimisation 5.245968e-03
Total Time: 5.283409e-03
2 Flipped
Graph 1:
0 1 0 
0 1 1 
0 0 0 
Graph 2:
0 1 0 
1 1 0 
0 0 0 
Solution: 7 0
Classic Expectation: 5.000000
Initial Expecation: 3.750000
Gbest: 7.000000
Expectation: 5.984947
Final Parameters:
Gammas:
[ 0.294054 ]
Betas:
[ 0.749499 ]
Aggregate results:
[ 7 3 5 0 ]
[ 0.597712 0.065733 0.320753 0.015802 ]
3
Num Evals 303
GenUC: 2.451183e-06
GenUB: 9.700307e-07
Optimisation 1.970974e-02
Total Time: 1.971470e-02
3 Add 3
Graph 1:
0 1 0 
0 1 1 
0 0 0 
Graph 2:
0 1 0 
1 1 1 
0 1 1 
Solution: 6 0
Classic Expectation: 4.000000
Initial Expecation: 3.000000
Gbest: 6.000000
Expectation: 3.412750
Final Parameters:
Gammas:
[ 2.443461 ]
Betas:
[ 2.617994 ]
Aggregate results:
[ 6 4 2 0 ]
[ 0.346758 0.250000 0.166100 0.237141 ]
3
Num Evals 19
GenUC: 2.520974e-06
GenUB: 7.024501e-07
Optimisation 1.103282e-03
Total Time: 1.107893e-03
4 Rem 3
Graph 1:
0 1 0 
0 1 1 
0 0 0 
Graph 2:
0 0 0 
0 1 0 
0 0 0 
Solution: 7 0
Classic Expectation: 5.666667
Initial Expecation: 4.250000
Gbest: 7.000000
Expectation: 6.027644
Final Parameters:
Gammas:
[ 2.373339 ]
Betas:
[ 2.447300 ]
Aggregate results:
[ 7 5 0 ]
[ 0.699146 0.226725 0.074130 ]
3
Num Evals 499
GenUC: 2.442335e-06
GenUB: 6.331829e-07
Optimisation 3.014292e-02
Total Time: 3.014718e-02
5 Add/Rem 3
Graph 1:
0 1 0 
0 1 1 
0 0 0 
Graph 2:
0 0 1 
1 1 0 
0 0 0 
Solution: 7 2
Classic Expectation: 5.000000
Initial Expecation: 3.750000
Gbest: 7.000000
Expectation: 5.558705
Final Parameters:
Gammas:
[ 0.349066 ]
Betas:
[ 0.523599 ]
Aggregate results:
[ 5 7 3 0 ]
[ 0.250000 0.579676 0.083658 0.086666 ]
3
Num Evals 49
GenUC: 2.589659e-06
GenUB: 8.028001e-07
Optimisation 2.750895e-03
Total Time: 2.755849e-03
