Clock Speed: 3.688869
Num threads: 4
Trotterisation: 1
Num Qubits: 3
Space Dimension: 8
Run-Type: 0
Num_samples: 2024
Optimiser Method: 0
1 Isomorphic
Graph 1:
0 1 1 
1 0 0 
0 0 0 
Graph 2:
0 1 1 
1 0 0 
0 0 0 
Solution: 9 0
Classic Expectation: 6.000000
Initial Expecation: 4.500000
Gbest: 9.000000
Expectation: 6.367132
Final Parameters:
Gammas:
[ 0.465581 ]
Betas:
[ 0.768120 ]
Aggregate results:
[ 9 7 5 3 0 ]
[ 0.405826 0.089265 0.341802 0.126944 0.036163 ]
3
Num Evals 233
GenUC: 2.438319e-06
GenUB: 6.612507e-06
Optimisation 1.353842e-02
Total Time: 1.357480e-02
2 Flipped
Graph 1:
0 1 1 
1 0 0 
0 0 0 
Graph 2:
1 1 0 
0 0 1 
0 0 0 
Solution: 7 2
Classic Expectation: 5.000000
Initial Expecation: 3.750000
Gbest: 7.000000
Expectation: 3.750000
Final Parameters:
Gammas:
[ 5.235988 ]
Betas:
[ 0.523599 ]
Aggregate results:
[ 5 7 3 0 ]
[ 0.500000 0.054688 0.289063 0.156250 ]
3
Num Evals 7
GenUC: 2.420158e-06
GenUB: 9.013456e-07
Optimisation 3.666830e-04
Total Time: 3.716981e-04
3 Add 3
Graph 1:
0 1 1 
1 0 0 
0 0 0 
Graph 2:
1 1 1 
1 0 1 
0 0 1 
Solution: 6 0
Classic Expectation: 4.000000
Initial Expecation: 3.000000
Gbest: 6.000000
Expectation: 4.000000
Final Parameters:
Gammas:
[ 0.785438 ]
Betas:
[ 0.785411 ]
Aggregate results:
[ 6 4 2 0 ]
[ 0.500000 0.000000 0.500000 0.000000 ]
3
Num Evals 301
GenUC: 2.500543e-06
GenUB: 5.663023e-07
Optimisation 1.819850e-02
Total Time: 1.820255e-02
4 Rem 3
Graph 1:
0 1 1 
1 0 0 
0 0 0 
Graph 2:
0 0 0 
1 0 0 
0 0 0 
Solution: 7 0
Classic Expectation: 6.000000
Initial Expecation: 4.500000
Gbest: 7.000000
Expectation: 5.215854
Final Parameters:
Gammas:
[ 1.047198 ]
Betas:
[ 2.152573 ]
Aggregate results:
[ 7 5 0 ]
[ 0.235928 0.712872 0.051200 ]
3
Num Evals 41
GenUC: 2.560962e-06
GenUB: 7.617055e-07
Optimisation 2.177173e-03
Total Time: 2.181948e-03
5 Add/Rem 3
Graph 1:
0 1 1 
1 0 0 
0 0 0 
Graph 2:
0 1 0 
0 1 0 
1 1 0 
Solution: 6 1
Classic Expectation: 5.000000
Initial Expecation: 3.750000
Gbest: 6.000000
Expectation: 5.245739
Final Parameters:
Gammas:
[ 0.349066 ]
Betas:
[ 0.756309 ]
Aggregate results:
[ 4 6 0 ]
[ 0.275551 0.690589 0.033860 ]
3
Num Evals 45
GenUC: 2.452405e-06
GenUB: 6.179325e-07
Optimisation 2.741887e-03
Total Time: 2.746181e-03
