Clock Speed: 3.689300
Num threads: 4
Trotterisation: 2
Graph Size: 6
Num Qubits: 10
Space Dimension: 1024
Run-Type: 0
Num_samples: 10
1 Isomorphic
Graph 1:
1 1 0 1 0 0 
1 1 1 0 1 1 
1 1 0 1 1 0 
1 1 1 1 0 1 
1 0 0 1 1 1 
0 0 0 0 0 1 
Graph 2:
1 1 0 1 0 0 
1 1 1 0 1 1 
1 1 0 1 1 0 
1 1 1 1 0 1 
1 0 0 1 1 1 
0 0 0 0 0 1 
Solution: 0 0
Gbest: -8.000000
Expectation: -15.955228
Final Parameters:
Gammas:
[ 3.208206 5.849343 ]
Betas:
[ 1.692010 2.397262 0.133660 ]
Aggregate results:
[ -1 9 11 7 15 13 5 3 17 19 21 23 35 ]
[ 0.000336 0.100422 0.177848 0.033074 0.196206 0.223793 0.009043 0.005435 0.103594 0.038379 0.027242 0.006199 0.078430 ]
5
Num Evals 600
GenUC: 2.836828e-04
GenUB: 1.967986e-04
Optimisation 6.436612e-01
Total Time: 6.452401e-01
2 Flipped
Graph 1:
1 1 0 1 0 0 
1 1 1 0 1 1 
1 1 0 1 1 0 
1 1 1 1 0 1 
1 0 0 1 1 1 
0 0 0 0 0 1 
Graph 2:
0 0 1 0 1 1 
1 1 0 1 1 1 
0 1 1 0 1 1 
1 0 1 1 1 1 
1 1 1 0 0 1 
1 0 0 0 0 0 
Solution: -10 29
Gbest: -12.000000
Expectation: -18.048428
Final Parameters:
Gammas:
[ 0.070931 3.368632 ]
Betas:
[ 1.945844 1.209179 1.588105 ]
Aggregate results:
[ 19 15 17 13 11 9 21 23 35 ]
[ 0.177312 0.260319 0.276034 0.107799 0.049187 0.016348 0.055182 0.015826 0.041992 ]
5
Num Evals 1200
GenUC: 1.285763e-04
GenUB: 1.498896e-04
Optimisation 5.734095e-01
Total Time: 5.747961e-01
3 Add 6
Graph 1:
1 1 0 1 0 0 
1 1 1 0 1 1 
1 1 0 1 1 0 
1 1 1 1 0 1 
1 0 0 1 1 1 
0 0 0 0 0 1 
Graph 2:
1 1 0 1 1 0 
1 1 1 1 1 1 
1 1 0 1 1 1 
1 1 1 1 1 1 
1 0 1 1 1 1 
0 0 1 0 0 1 
Solution: -6 0
Gbest: -10.000000
Expectation: -14.443995
Final Parameters:
Gammas:
[ 0.046164 0.069150 ]
Betas:
[ 0.297816 0.700031 2.119844 ]
Aggregate results:
[ 5 11 9 13 7 15 17 19 21 35 ]
[ 0.012953 0.243227 0.123803 0.225446 0.018210 0.173058 0.140464 0.036805 0.004500 0.021533 ]
5
Num Evals 1800
GenUC: 1.036004e-04
GenUB: 1.656832e-04
Optimisation 5.496486e-01
Total Time: 5.508369e-01
4 Rem 6
Graph 1:
1 1 0 1 0 0 
1 1 1 0 1 1 
1 1 0 1 1 0 
1 1 1 1 0 1 
1 0 0 1 1 1 
0 0 0 0 0 1 
Graph 2:
1 1 0 1 0 0 
1 1 1 0 1 1 
0 1 0 0 0 0 
1 1 0 1 0 1 
1 0 0 1 0 0 
0 0 0 0 0 1 
Solution: -6 0
Gbest: -14.000000
Expectation: -17.893991
Final Parameters:
Gammas:
[ 0.034567 3.218728 ]
Betas:
[ 1.775234 0.320279 2.603083 ]
Aggregate results:
[ 5 15 11 9 17 13 19 7 21 23 25 35 ]
[ 0.002490 0.239521 0.058734 0.030364 0.242241 0.145047 0.146791 0.006999 0.052710 0.015484 0.002205 0.057414 ]
5
Num Evals 2400
GenUC: 1.280921e-04
GenUB: 1.687242e-04
Optimisation 5.871865e-01
Total Time: 5.886445e-01
5 Add/Rem 6
Graph 1:
1 1 0 1 0 0 
1 1 1 0 1 1 
1 1 0 1 1 0 
1 1 1 1 0 1 
1 0 0 1 1 1 
0 0 0 0 0 1 
Graph 2:
1 1 0 0 0 0 
1 0 1 1 0 1 
0 1 1 0 1 1 
1 0 1 1 0 1 
1 0 1 1 1 1 
1 1 0 0 0 1 
Solution: -8 621
Gbest: -12.000000
Expectation: -17.879375
Final Parameters:
Gammas:
[ 0.066723 3.462848 ]
Betas:
[ 1.781965 2.296812 0.388473 ]
Aggregate results:
[ 11 15 13 9 17 19 21 23 7 35 ]
[ 0.127045 0.180353 0.177307 0.020389 0.189277 0.142197 0.081849 0.013574 0.001526 0.066484 ]
5
Num Evals 3000
GenUC: 1.306889e-04
GenUB: 1.730839e-04
Optimisation 6.406547e-01
Total Time: 6.420806e-01
