Clock Speed: 3.688993
Num threads: 4
Trotterisation: 2
Graph Size: 6
Num Qubits: 10
Space Dimension: 1024
Run-Type: 0
Num_samples: 10
1 Isomorphic
Graph 1:
1 1 0 1 1 1 
1 0 0 0 0 1 
0 1 0 1 0 0 
0 1 1 1 1 0 
0 0 0 0 1 1 
0 1 0 0 0 0 
Graph 2:
1 1 0 1 1 1 
1 0 0 0 0 1 
0 1 0 1 0 0 
0 1 1 1 1 0 
0 0 0 0 1 1 
0 1 0 0 0 0 
Solution: 0 0
Gbest: 0.000000
Expectation: -16.335929
Final Parameters:
Gammas:
[ 0.076651 3.259394 ]
Betas:
[ 1.418300 2.525895 2.951800 ]
Aggregate results:
[ -1 11 15 9 19 13 5 17 7 21 23 25 27 35 ]
[ 0.011750 0.120240 0.231235 0.060000 0.073711 0.180467 0.011345 0.209054 0.010779 0.036280 0.007775 0.000794 0.000834 0.045736 ]
5
Num Evals 600
GenUC: 2.896449e-04
GenUB: 1.955649e-04
Optimisation 7.186081e-01
Total Time: 7.205317e-01
2 Flipped
Graph 1:
1 1 0 1 1 1 
1 0 0 0 0 1 
0 1 0 1 0 0 
0 1 1 1 1 0 
0 0 0 0 1 1 
0 1 0 0 0 0 
Graph 2:
1 1 1 0 1 1 
1 0 0 0 0 1 
0 0 1 0 1 0 
0 1 1 1 1 0 
1 1 0 0 0 0 
0 0 0 0 1 0 
Solution: -8 33
Gbest: -12.000000
Expectation: -16.556638
Final Parameters:
Gammas:
[ 3.218476 3.259604 ]
Betas:
[ 1.670119 2.482104 2.981870 ]
Aggregate results:
[ 11 17 15 21 13 19 9 23 7 25 27 35 ]
[ 0.105948 0.183513 0.288002 0.031254 0.164207 0.077034 0.063931 0.004960 0.029409 0.000567 0.000481 0.050695 ]
5
Num Evals 1200
GenUC: 1.329135e-04
GenUB: 1.505468e-04
Optimisation 6.855707e-01
Total Time: 6.872785e-01
3 Add 6
Graph 1:
1 1 0 1 1 1 
1 0 0 0 0 1 
0 1 0 1 0 0 
0 1 1 1 1 0 
0 0 0 0 1 1 
0 1 0 0 0 0 
Graph 2:
1 1 0 1 1 1 
1 0 0 0 0 1 
0 1 1 1 1 0 
1 1 1 1 1 0 
0 0 0 1 1 1 
0 1 0 0 0 1 
Solution: -5 0
Gbest: -15.000000
Expectation: -19.532805
Final Parameters:
Gammas:
[ 0.284828 4.056397 ]
Betas:
[ 0.132286 2.011816 1.590960 ]
Aggregate results:
[ 4 14 16 18 8 12 20 6 10 22 24 26 28 35 ]
[ 0.000625 0.181920 0.218294 0.177039 0.001371 0.076560 0.144111 0.000104 0.017663 0.044580 0.039452 0.004055 0.002304 0.091924 ]
5
Num Evals 1800
GenUC: 1.324804e-04
GenUB: 1.667165e-04
Optimisation 6.191496e-01
Total Time: 6.204443e-01
4 Rem 6
Graph 1:
1 1 0 1 1 1 
1 0 0 0 0 1 
0 1 0 1 0 0 
0 1 1 1 1 0 
0 0 0 0 1 1 
0 1 0 0 0 0 
Graph 2:
1 1 0 0 1 1 
1 0 0 0 0 0 
0 1 0 1 0 0 
0 0 0 0 1 0 
0 0 0 0 1 1 
0 1 0 0 0 0 
Solution: -5 0
Gbest: -11.000000
Expectation: -18.489832
Final Parameters:
Gammas:
[ 0.071468 4.004565 ]
Betas:
[ 2.782549 0.897089 1.573167 ]
Aggregate results:
[ 4 12 14 18 20 6 16 10 22 24 8 35 ]
[ 0.003169 0.081266 0.224722 0.209624 0.096163 0.003317 0.229664 0.033836 0.028225 0.006098 0.002885 0.081031 ]
5
Num Evals 2400
GenUC: 1.259102e-04
GenUB: 1.664207e-04
Optimisation 5.616247e-01
Total Time: 5.631633e-01
5 Add/Rem 6
Graph 1:
1 1 0 1 1 1 
1 0 0 0 0 1 
0 1 0 1 0 0 
0 1 1 1 1 0 
0 0 0 0 1 1 
0 1 0 0 0 0 
Graph 2:
1 0 1 0 1 1 
0 0 0 0 0 1 
1 1 1 1 0 0 
0 1 1 1 1 0 
0 0 0 1 1 0 
0 1 0 0 0 0 
Solution: -8 0
Gbest: -14.000000
Expectation: -19.618252
Final Parameters:
Gammas:
[ 0.266867 6.217939 ]
Betas:
[ 1.978027 0.671831 0.098151 ]
Aggregate results:
[ 7 15 13 11 17 9 19 21 23 25 35 ]
[ 0.011366 0.182421 0.150336 0.043157 0.235710 0.041676 0.107318 0.056104 0.017752 0.002996 0.151162 ]
5
Num Evals 3000
GenUC: 1.255915e-04
GenUB: 1.674424e-04
Optimisation 6.241311e-01
Total Time: 6.252945e-01
