Clock Speed: 3.390064
Num threads: 4
Trotterisation: 3
Graph Size: 7
Num Qubits: 13
Space Dimension: 8192
Run-Type: 0
Num_samples: 10
1 Isomorphic
Graph 1:
0 1 0 1 1 0 0 
1 1 0 0 1 0 0 
0 1 0 0 1 1 1 
1 0 0 0 0 1 1 
1 1 1 0 0 1 1 
0 0 0 0 1 0 0 
1 0 0 1 0 1 1 
Graph 2:
0 1 0 1 1 0 0 
1 1 0 0 1 0 0 
0 1 0 0 1 1 1 
1 0 0 0 0 1 1 
1 1 1 0 0 1 1 
0 0 0 0 1 0 0 
1 0 0 1 0 1 1 
Solution: 0 0
Gbest: -14.000000
Expectation: -21.673023
Final Parameters:
Gammas:
[ 3.218103 2.962050 6.165897 ]
Betas:
[ 2.081331 0.476750 1.726226 1.552182 ]
Aggregate results:
[ -1 9 15 11 17 19 13 23 25 21 29 7 27 31 33 35 48 ]
[ 0.000780 0.006775 0.082240 0.012480 0.156696 0.205753 0.036295 0.141772 0.058366 0.224464 0.008877 0.003717 0.018914 0.003329 0.001703 0.000501 0.037340 ]
5
Num Evals 700
GenUC: 1.509686e-03
GenUB: 2.204349e-03
Optimisation 6.817839e+00
Total Time: 6.830699e+00
2 Flipped
Graph 1:
0 1 0 1 1 0 0 
1 1 0 0 1 0 0 
0 1 0 0 1 1 1 
1 0 0 0 0 1 1 
1 1 1 0 0 1 1 
0 0 0 0 1 0 0 
1 0 0 1 0 1 1 
Graph 2:
0 0 1 1 0 1 0 
0 0 1 0 0 1 1 
1 1 1 0 0 1 0 
1 1 0 0 0 0 1 
1 1 0 0 1 1 1 
0 0 1 0 0 0 0 
1 1 0 1 0 0 1 
Solution: -10 243
Gbest: -16.000000
Expectation: -25.363124
Final Parameters:
Gammas:
[ 4.669001 1.554181 0.923327 ]
Betas:
[ 2.569549 0.000000 0.570752 0.017982 ]
Aggregate results:
[ 21 23 13 17 25 27 19 15 29 31 33 9 11 35 48 ]
[ 0.164963 0.203196 0.005857 0.052874 0.177654 0.115666 0.110684 0.022426 0.066533 0.022523 0.004503 0.000819 0.000881 0.001143 0.050278 ]
5
Num Evals 1400
GenUC: 1.251836e-03
GenUB: 1.722163e-03
Optimisation 4.296240e+00
Total Time: 4.305025e+00
3 Add 7
Graph 1:
0 1 0 1 1 0 0 
1 1 0 0 1 0 0 
0 1 0 0 1 1 1 
1 0 0 0 0 1 1 
1 1 1 0 0 1 1 
0 0 0 0 1 0 0 
1 0 0 1 0 1 1 
Graph 2:
0 1 0 1 1 0 0 
1 1 0 0 1 0 1 
1 1 1 0 1 1 1 
1 1 1 0 0 1 1 
1 1 1 1 0 1 1 
0 0 1 0 1 0 0 
1 0 0 1 0 1 1 
Solution: -7 0
Gbest: -17.000000
Expectation: -29.671716
Final Parameters:
Gammas:
[ 2.701430 2.986972 0.045793 ]
Betas:
[ 0.686059 1.089271 3.064299 1.392520 ]
Aggregate results:
[ 6 12 16 18 22 14 20 24 26 10 28 30 32 48 ]
[ 0.000264 0.000818 0.020968 0.051427 0.163833 0.004815 0.101794 0.174824 0.156029 0.000065 0.083061 0.023818 0.004970 0.213314 ]
5
Num Evals 2100
GenUC: 1.212790e-03
GenUB: 1.649352e-03
Optimisation 7.550178e+00
Total Time: 7.562762e+00
4 Rem 7
Graph 1:
0 1 0 1 1 0 0 
1 1 0 0 1 0 0 
0 1 0 0 1 1 1 
1 0 0 0 0 1 1 
1 1 1 0 0 1 1 
0 0 0 0 1 0 0 
1 0 0 1 0 1 1 
Graph 2:
0 1 0 0 1 0 0 
1 0 0 0 1 0 0 
0 1 0 0 1 1 1 
1 0 0 0 0 0 1 
1 1 1 0 0 0 1 
0 0 0 0 0 0 0 
1 0 0 1 0 1 0 
Solution: -6 0
Gbest: -20.000000
Expectation: -24.325651
Final Parameters:
Gammas:
[ 6.226949 5.781719 3.025179 ]
Betas:
[ 2.264887 2.129247 1.925668 2.769556 ]
Aggregate results:
[ 5 11 17 15 19 21 13 25 23 27 9 29 31 33 48 ]
[ 0.000596 0.004448 0.084881 0.040071 0.153844 0.206632 0.008986 0.143223 0.185645 0.074016 0.000781 0.025943 0.008695 0.000977 0.061262 ]
5
Num Evals 2800
GenUC: 1.191773e-03
GenUB: 1.855498e-03
Optimisation 1.016503e+01
Total Time: 1.018003e+01
5 Add/Rem 7
Graph 1:
0 1 0 1 1 0 0 
1 1 0 0 1 0 0 
0 1 0 0 1 1 1 
1 0 0 0 0 1 1 
1 1 1 0 0 1 1 
0 0 0 0 1 0 0 
1 0 0 1 0 1 1 
Graph 2:
0 1 0 1 0 0 0 
1 1 0 1 0 0 0 
0 1 1 0 0 1 1 
0 1 0 0 0 1 1 
1 1 0 1 0 0 1 
0 0 0 0 1 0 1 
0 1 0 1 0 1 1 
Solution: -13 0
Gbest: -17.000000
Expectation: -23.030479
Final Parameters:
Gammas:
[ 6.230927 5.996724 6.253234 ]
Betas:
[ 3.105758 0.562339 1.799700 1.472864 ]
Aggregate results:
[ 12 24 22 16 20 14 18 26 30 28 32 34 36 48 ]
[ 0.003815 0.097883 0.215626 0.078258 0.247176 0.023156 0.197419 0.033310 0.018501 0.026248 0.007652 0.001847 0.000212 0.048896 ]
5
Num Evals 3500
GenUC: 1.317911e-03
GenUB: 1.649396e-03
Optimisation 7.792803e+00
Total Time: 7.806062e+00
