Clock Speed: 3.389371
Num threads: 4
Trotterisation: 3
Graph Size: 7
Num Qubits: 13
Space Dimension: 8192
Run-Type: 0
Num_samples: 10
1 Isomorphic
Graph 1:
0 1 0 0 0 0 1 
0 1 0 0 1 0 0 
1 0 1 1 0 1 1 
1 1 1 0 1 1 0 
0 0 0 1 1 1 1 
0 0 1 1 1 0 0 
1 0 0 1 0 1 0 
Graph 2:
0 1 0 0 0 0 1 
0 1 0 0 1 0 0 
1 0 1 1 0 1 1 
1 1 1 0 1 1 0 
0 0 0 1 1 1 1 
0 0 1 1 1 0 0 
1 0 0 1 0 1 0 
Solution: 0 0
Gbest: -16.000000
Expectation: -26.863715
Final Parameters:
Gammas:
[ 3.335725 5.132143 3.390350 ]
Betas:
[ 3.134008 1.216794 0.086730 1.688586 ]
Aggregate results:
[ -1 11 15 13 19 23 21 25 27 3 31 29 17 7 33 37 35 39 9 48 ]
[ 0.000244 0.006158 0.039226 0.015124 0.133385 0.168191 0.160831 0.115845 0.064139 0.001045 0.023378 0.035166 0.074831 0.000711 0.007403 0.000444 0.004468 0.000497 0.000152 0.148761 ]
5
Num Evals 700
GenUC: 1.538033e-03
GenUB: 1.905456e-03
Optimisation 6.575215e+00
Total Time: 6.587837e+00
2 Flipped
Graph 1:
0 1 0 0 0 0 1 
0 1 0 0 1 0 0 
1 0 1 1 0 1 1 
1 1 1 0 1 1 0 
0 0 0 1 1 1 1 
0 0 1 1 1 0 0 
1 0 0 1 0 1 0 
Graph 2:
1 0 0 0 0 1 0 
0 0 1 0 0 1 0 
1 1 0 1 1 0 1 
0 1 1 0 1 1 1 
1 1 1 1 0 0 0 
0 0 1 1 1 0 0 
0 1 0 1 0 0 1 
Solution: -10 4305
Gbest: -16.000000
Expectation: -29.454671
Final Parameters:
Gammas:
[ 1.863252 3.149026 2.951422 ]
Betas:
[ 0.029233 0.942559 0.984075 0.213459 ]
Aggregate results:
[ 23 19 21 27 25 31 29 17 33 15 13 35 11 37 9 48 ]
[ 0.140141 0.121608 0.142683 0.064609 0.115328 0.018940 0.036434 0.062103 0.007359 0.031216 0.009336 0.001197 0.005289 0.000362 0.000807 0.242588 ]
5
Num Evals 1400
GenUC: 1.183750e-03
GenUB: 1.756754e-03
Optimisation 3.920864e+00
Total Time: 3.929276e+00
3 Add 7
Graph 1:
0 1 0 0 0 0 1 
0 1 0 0 1 0 0 
1 0 1 1 0 1 1 
1 1 1 0 1 1 0 
0 0 0 1 1 1 1 
0 0 1 1 1 0 0 
1 0 0 1 0 1 0 
Graph 2:
0 1 0 0 0 0 1 
0 1 1 0 1 1 0 
1 1 1 1 0 1 1 
1 1 1 1 1 1 0 
1 0 0 1 1 1 1 
1 0 1 1 1 0 1 
1 0 0 1 0 1 0 
Solution: -7 0
Gbest: -17.000000
Expectation: -32.581912
Final Parameters:
Gammas:
[ 1.529650 6.277737 0.517308 ]
Betas:
[ 2.902083 0.091941 2.574504 2.968583 ]
Aggregate results:
[ 6 16 18 22 24 20 14 26 28 30 32 8 34 36 12 48 ]
[ 0.000638 0.018255 0.065021 0.149355 0.111149 0.104873 0.003560 0.098273 0.068056 0.028452 0.009031 0.000159 0.003832 0.000383 0.000108 0.338856 ]
5
Num Evals 2100
GenUC: 1.130065e-03
GenUB: 1.703237e-03
Optimisation 8.234824e+00
Total Time: 8.248706e+00
4 Rem 7
Graph 1:
0 1 0 0 0 0 1 
0 1 0 0 1 0 0 
1 0 1 1 0 1 1 
1 1 1 0 1 1 0 
0 0 0 1 1 1 1 
0 0 1 1 1 0 0 
1 0 0 1 0 1 0 
Graph 2:
0 1 0 0 0 0 1 
0 0 0 0 1 0 0 
1 0 1 1 0 1 1 
1 1 0 0 1 0 0 
0 0 0 1 1 1 0 
0 0 1 0 0 0 0 
1 0 0 0 0 1 0 
Solution: -7 0
Gbest: -19.000000
Expectation: -29.397823
Final Parameters:
Gammas:
[ 1.017217 3.059163 0.067046 ]
Betas:
[ 3.124147 0.899429 1.282614 2.545848 ]
Aggregate results:
[ 6 16 22 20 24 26 28 18 14 10 30 32 12 34 48 ]
[ 0.000244 0.021480 0.167328 0.109444 0.184700 0.142002 0.073139 0.058073 0.005680 0.000159 0.021504 0.005477 0.001015 0.001242 0.208513 ]
5
Num Evals 2800
GenUC: 1.262810e-03
GenUB: 1.792920e-03
Optimisation 7.957075e+00
Total Time: 7.971358e+00
5 Add/Rem 7
Graph 1:
0 1 0 0 0 0 1 
0 1 0 0 1 0 0 
1 0 1 1 0 1 1 
1 1 1 0 1 1 0 
0 0 0 1 1 1 1 
0 0 1 1 1 0 0 
1 0 0 1 0 1 0 
Graph 2:
0 1 0 0 1 0 0 
0 1 1 0 0 0 0 
1 1 0 0 0 1 1 
1 1 1 0 1 1 0 
0 1 0 1 0 1 0 
0 0 1 1 1 0 0 
1 0 1 1 0 1 0 
Solution: -11 0
Gbest: -19.000000
Expectation: -29.450268
Final Parameters:
Gammas:
[ 5.840179 6.031573 3.754327 ]
Betas:
[ 0.054217 2.852820 1.191442 1.571890 ]
Aggregate results:
[ 10 14 12 20 16 24 26 22 28 30 18 32 34 36 48 ]
[ 0.000999 0.007341 0.001574 0.124785 0.040639 0.163422 0.108723 0.145041 0.054765 0.028948 0.079799 0.012761 0.007938 0.000026 0.223239 ]
5
Num Evals 3500
GenUC: 1.225429e-03
GenUB: 1.578125e-03
Optimisation 6.845733e+00
Total Time: 6.857400e+00
