Clock Speed: 3.688846
Num threads: 4
Trotterisation: 2
Num Qubits: 3
Space Dimension: 8
Run-Type: 0
Num_samples: 2024
Optimiser Method: 29
1 Isomorphic
Graph 1:
0 0 1 
0 1 0 
1 0 0 
Graph 2:
0 0 1 
0 1 0 
1 0 0 
Solution: 9 0
Classic Expectation: 5.000000
Initial Expecation: 3.750000
Gbest: 9.000000
Expectation: 8.123960
Final Parameters:
Gammas:
[ 3.316179 2.967092 ]
Betas:
[ 1.585356 2.355704 ]
Aggregate results:
[ 9 3 0 ]
[ 0.870311 0.097055 0.032635 ]
3
Num Evals 217
GenUC: 2.639601e-06
GenUB: 7.747440e-06
Optimisation 3.982954e-02
Total Time: 3.986823e-02
2 Flipped
Graph 1:
0 0 1 
0 1 0 
1 0 0 
Graph 2:
1 0 0 
0 1 0 
0 0 1 
Solution: 5 0
Classic Expectation: 5.000000
Initial Expecation: 3.750000
Gbest: 5.000000
Expectation: 5.000000
Final Parameters:
Gammas:
[ 4.713745 5.007979 ]
Betas:
[ 0.748954 1.607400 ]
Aggregate results:
[ 5 0 ]
[ 1.000000 0.000000 ]
3
Num Evals 211
GenUC: 2.787507e-06
GenUB: 8.321367e-07
Optimisation 2.224505e-02
Total Time: 2.225064e-02
3 Add 3
Graph 1:
0 0 1 
0 1 0 
1 0 0 
Graph 2:
0 0 1 
0 1 0 
1 0 1 
Solution: 8 0
Classic Expectation: 4.666667
Initial Expecation: 3.500000
Gbest: 8.000000
Expectation: 6.203832
Final Parameters:
Gammas:
[ 5.132868 1.416659 ]
Betas:
[ 2.751572 0.548320 ]
Aggregate results:
[ 8 4 2 0 ]
[ 0.645065 0.226568 0.068521 0.059846 ]
3
Num Evals 899
GenUC: 2.625515e-06
GenUB: 6.901100e-07
Optimisation 1.094290e-01
Total Time: 1.094340e-01
4 Rem 3
Graph 1:
0 0 1 
0 1 0 
1 0 0 
Graph 2:
0 0 0 
0 1 0 
1 0 0 
Solution: 8 0
Classic Expectation: 5.333333
Initial Expecation: 4.000000
Gbest: 8.000000
Expectation: 6.770571
Final Parameters:
Gammas:
[ 4.089095 2.183119 ]
Betas:
[ 1.608819 0.776613 ]
Aggregate results:
[ 8 4 0 ]
[ 0.710086 0.272471 0.017443 ]
3
Num Evals 574
GenUC: 2.690649e-06
GenUB: 7.775379e-07
Optimisation 6.077862e-02
Total Time: 6.078382e-02
5 Add/Rem 3
Graph 1:
0 0 1 
0 1 0 
1 0 0 
Graph 2:
1 0 0 
1 0 1 
1 0 0 
Solution: 6 2
Classic Expectation: 4.666667
Initial Expecation: 3.500000
Gbest: 6.000000
Expectation: 6.000000
Final Parameters:
Gammas:
[ 5.497739 3.926944 ]
Betas:
[ 1.570784 0.785403 ]
Aggregate results:
[ 4 6 0 ]
[ 0.000000 1.000000 0.000000 ]
3
Num Evals 243
GenUC: 2.663641e-06
GenUB: 6.490154e-07
Optimisation 2.583246e-02
Total Time: 2.583739e-02
