Clock Speed: 3.688468
Num threads: 4
Trotterisation: 2
Num Qubits: 3
Space Dimension: 8
Run-Type: 0
Num_samples: 2024
Optimiser Method: 29
1 Isomorphic
Graph 1:
0 1 1 
0 1 0 
1 0 0 
Graph 2:
0 1 1 
0 1 0 
1 0 0 
Solution: 9 0
Classic Expectation: 4.666667
Initial Expecation: 3.500000
Gbest: 9.000000
Expectation: 6.938363
Final Parameters:
Gammas:
[ 2.968328 3.314545 ]
Betas:
[ 1.572337 0.785358 ]
Aggregate results:
[ 9 5 1 3 7 0 ]
[ 0.332907 0.163877 0.002202 0.090987 0.406808 0.003220 ]
3
Num Evals 470
GenUC: 2.674235e-06
GenUB: 7.540861e-06
Optimisation 5.175946e-02
Total Time: 5.178796e-02
2 Flipped
Graph 1:
0 1 1 
0 1 0 
1 0 0 
Graph 2:
1 1 0 
0 1 0 
0 0 1 
Solution: 5 0
Classic Expectation: 4.000000
Initial Expecation: 3.000000
Gbest: 5.000000
Expectation: 3.999306
Final Parameters:
Gammas:
[ 2.959687 3.747222 ]
Betas:
[ 0.587056 0.540123 ]
Aggregate results:
[ 5 3 0 ]
[ 0.499703 0.500264 0.000033 ]
3
Num Evals 1192
GenUC: 2.502289e-06
GenUB: 8.385978e-07
Optimisation 1.018050e-01
Total Time: 1.018100e-01
3 Add 3
Graph 1:
0 1 1 
0 1 0 
1 0 0 
Graph 2:
1 1 1 
1 1 0 
1 1 0 
Solution: 6 0
Classic Expectation: 4.333333
Initial Expecation: 3.250000
Gbest: 6.000000
Expectation: 5.352895
Final Parameters:
Gammas:
[ 5.140571 3.845794 ]
Betas:
[ 2.863058 2.446636 ]
Aggregate results:
[ 6 4 2 0 ]
[ 0.807190 0.125179 0.004519 0.063112 ]
3
Num Evals 632
GenUC: 2.488145e-06
GenUB: 7.581548e-07
Optimisation 9.946287e-02
Total Time: 9.946738e-02
4 Rem 3
Graph 1:
0 1 1 
0 1 0 
1 0 0 
Graph 2:
0 0 0 
0 0 0 
1 0 0 
Solution: 6 0
Classic Expectation: 5.000000
Initial Expecation: 3.750000
Gbest: 6.000000
Expectation: 5.244097
Final Parameters:
Gammas:
[ 3.950240 2.558824 ]
Betas:
[ 0.591856 1.382057 ]
Aggregate results:
[ 6 4 0 ]
[ 0.622317 0.377548 0.000134 ]
3
Num Evals 446
GenUC: 2.516957e-06
GenUB: 6.989576e-07
Optimisation 4.598413e-02
Total Time: 4.598852e-02
5 Add/Rem 3
Graph 1:
0 1 1 
0 1 0 
1 0 0 
Graph 2:
1 0 1 
0 0 0 
1 0 0 
Solution: 6 0
Classic Expectation: 4.666667
Initial Expecation: 3.500000
Gbest: 6.000000
Expectation: 6.000000
Final Parameters:
Gammas:
[ 2.748954 3.926987 ]
Betas:
[ 0.785379 1.178175 ]
Aggregate results:
[ 6 4 2 0 ]
[ 1.000000 0.000000 0.000000 0.000000 ]
3
Num Evals 372
GenUC: 2.316840e-06
GenUB: 6.678747e-07
Optimisation 3.876957e-02
Total Time: 3.877359e-02
