Clock Speed: 3.688980
Num threads: 4
Trotterisation: 2
Num Qubits: 3
Space Dimension: 8
Run-Type: 0
Num_samples: 2024
Optimiser Method: 29
1 Isomorphic
Graph 1:
1 0 1 
1 0 1 
0 1 0 
Graph 2:
1 0 1 
1 0 1 
0 1 0 
Solution: 9 0
Classic Expectation: 5.000000
Initial Expecation: 3.750000
Gbest: 9.000000
Expectation: 6.150846
Final Parameters:
Gammas:
[ 3.385951 2.913078 ]
Betas:
[ 1.482178 2.354287 ]
Aggregate results:
[ 9 5 3 0 ]
[ 0.377544 0.465624 0.141610 0.015222 ]
3
Num Evals 367
GenUC: 2.563291e-06
GenUB: 7.420604e-06
Optimisation 4.847193e-02
Total Time: 4.850980e-02
2 Flipped
Graph 1:
1 0 1 
1 0 1 
0 1 0 
Graph 2:
1 0 1 
1 0 1 
0 1 0 
Solution: 9 0
Classic Expectation: 5.000000
Initial Expecation: 3.750000
Gbest: 9.000000
Expectation: 6.150846
Final Parameters:
Gammas:
[ 3.385951 2.913078 ]
Betas:
[ 1.482178 2.354287 ]
Aggregate results:
[ 9 5 3 0 ]
[ 0.377544 0.465624 0.141610 0.015222 ]
3
Num Evals 367
GenUC: 2.646586e-06
GenUB: 9.242794e-07
Optimisation 4.826784e-02
Total Time: 4.827315e-02
3 Add 3
Graph 1:
1 0 1 
1 0 1 
0 1 0 
Graph 2:
1 0 1 
1 1 1 
1 1 0 
Solution: 7 0
Classic Expectation: 5.000000
Initial Expecation: 3.750000
Gbest: 7.000000
Expectation: 4.999999
Final Parameters:
Gammas:
[ 3.618629 4.297342 ]
Betas:
[ 0.569482 1.796444 ]
Aggregate results:
[ 7 5 3 0 ]
[ 0.500000 0.000000 0.500000 0.000000 ]
3
Num Evals 530
GenUC: 2.427143e-06
GenUB: 6.983173e-07
Optimisation 5.608360e-02
Total Time: 5.608817e-02
4 Rem 3
Graph 1:
1 0 1 
1 0 1 
0 1 0 
Graph 2:
0 0 1 
0 0 0 
0 1 0 
Solution: 6 0
Classic Expectation: 4.666667
Initial Expecation: 3.500000
Gbest: 6.000000
Expectation: 3.500000
Final Parameters:
Gammas:
[ 1.570796 4.712389 ]
Betas:
[ 1.276272 1.276272 ]
Aggregate results:
[ 6 4 2 0 ]
[ 0.375000 0.250000 0.125000 0.250000 ]
3
Num Evals 34
GenUC: 2.518122e-06
GenUB: 9.395299e-07
Optimisation 4.323579e-03
Total Time: 4.328471e-03
5 Add/Rem 3
Graph 1:
1 0 1 
1 0 1 
0 1 0 
Graph 2:
1 0 0 
1 1 0 
1 1 1 
Solution: 6 3
Classic Expectation: 4.000000
Initial Expecation: 3.000000
Gbest: 6.000000
Expectation: 4.701155
Final Parameters:
Gammas:
[ 5.195657 2.184650 ]
Betas:
[ 2.581681 1.989094 ]
Aggregate results:
[ 4 2 6 0 ]
[ 0.611713 0.005595 0.373852 0.008839 ]
5
Num Evals 1200
GenUC: 2.424815e-06
GenUB: 5.874317e-07
Optimisation 1.707477e-01
Total Time: 1.707521e-01
