Clock Speed: 3.688523
Num threads: 4
Trotterisation: 2
Num Qubits: 3
Space Dimension: 8
Run-Type: 0
Num_samples: 2024
Optimiser Method: 29
1 Isomorphic
Graph 1:
1 0 0 
0 0 0 
1 0 1 
Graph 2:
1 0 0 
0 0 0 
1 0 1 
Solution: 9 0
Classic Expectation: 6.000000
Initial Expecation: 4.500000
Gbest: 9.000000
Expectation: 6.861653
Final Parameters:
Gammas:
[ 2.967698 3.283147 ]
Betas:
[ 1.658925 0.816268 ]
Aggregate results:
[ 9 5 7 0 ]
[ 0.326620 0.348266 0.311535 0.013579 ]
3
Num Evals 357
GenUC: 2.684770e-06
GenUB: 7.594877e-06
Optimisation 3.733100e-02
Total Time: 3.736880e-02
2 Flipped
Graph 1:
1 0 0 
0 0 0 
1 0 1 
Graph 2:
0 0 1 
0 0 0 
1 0 1 
Solution: 7 0
Classic Expectation: 5.000000
Initial Expecation: 3.750000
Gbest: 7.000000
Expectation: 6.076609
Final Parameters:
Gammas:
[ 3.294434 2.989801 ]
Betas:
[ 1.564474 2.354192 ]
Aggregate results:
[ 7 3 5 0 ]
[ 0.610881 0.051999 0.328889 0.008231 ]
3
Num Evals 239
GenUC: 2.531626e-06
GenUB: 1.389068e-06
Optimisation 3.174971e-02
Total Time: 3.175554e-02
3 Add 3
Graph 1:
1 0 0 
0 0 0 
1 0 1 
Graph 2:
1 0 1 
0 1 1 
1 0 1 
Solution: 6 0
Classic Expectation: 5.000000
Initial Expecation: 3.750000
Gbest: 6.000000
Expectation: 5.244097
Final Parameters:
Gammas:
[ 3.950240 2.558824 ]
Betas:
[ 0.591856 1.382057 ]
Aggregate results:
[ 6 4 0 ]
[ 0.622317 0.377548 0.000134 ]
3
Num Evals 446
GenUC: 2.458226e-06
GenUB: 7.217750e-07
Optimisation 4.461402e-02
Total Time: 4.461864e-02
4 Rem 3
Graph 1:
1 0 0 
0 0 0 
1 0 1 
Graph 2:
0 0 0 
0 0 0 
0 0 0 
Solution: 6 0
Classic Expectation: 6.000000
Initial Expecation: 4.500000
Gbest: 6.000000
Expectation: 6.000000
Final Parameters:
Gammas:
[ 3.926991 2.612267 ]
Betas:
[ 0.785398 1.570796 ]
Aggregate results:
[ 6 0 ]
[ 1.000000 0.000000 ]
3
Num Evals 310
GenUC: 2.566259e-06
GenUB: 6.631017e-07
Optimisation 3.296603e-02
Total Time: 3.297071e-02
5 Add/Rem 3
Graph 1:
1 0 0 
0 0 0 
1 0 1 
Graph 2:
1 0 1 
1 1 0 
0 0 0 
Solution: 8 1
Classic Expectation: 5.333333
Initial Expecation: 4.000000
Gbest: 8.000000
Expectation: 6.141088
Final Parameters:
Gammas:
[ 2.837235 2.648264 ]
Betas:
[ 0.823340 1.718776 ]
Aggregate results:
[ 4 8 6 0 ]
[ 0.206277 0.312418 0.469439 0.011866 ]
5
Num Evals 1200
GenUC: 2.492918e-06
GenUB: 5.803304e-07
Optimisation 1.310165e-01
Total Time: 1.310210e-01
