Clock Speed: 3.688995
Num threads: 4
Trotterisation: 2
Num Qubits: 3
Space Dimension: 8
Run-Type: 0
Num_samples: 2024
Optimiser Method: 29
1 Isomorphic
Graph 1:
1 1 0 
0 0 1 
1 0 0 
Graph 2:
1 1 0 
0 0 1 
1 0 0 
Solution: 9 0
Classic Expectation: 4.666667
Initial Expecation: 3.500000
Gbest: 9.000000
Expectation: 5.305519
Final Parameters:
Gammas:
[ 5.093421 6.283185 ]
Betas:
[ 2.359964 0.123369 ]
Aggregate results:
[ 9 3 1 7 0 ]
[ 0.186140 0.173433 0.193752 0.416601 0.030074 ]
3
Num Evals 226
GenUC: 2.666609e-06
GenUB: 7.502735e-06
Optimisation 2.085474e-02
Total Time: 2.088566e-02
2 Flipped
Graph 1:
1 1 0 
0 0 1 
1 0 0 
Graph 2:
0 1 1 
1 0 0 
0 0 1 
Solution: 7 5
Classic Expectation: 4.666667
Initial Expecation: 3.500000
Gbest: 7.000000
Expectation: 5.321264
Final Parameters:
Gammas:
[ 3.338910 2.342562 ]
Betas:
[ 0.665879 1.276949 ]
Aggregate results:
[ 3 5 7 0 ]
[ 0.022216 0.771093 0.199879 0.006812 ]
5
Num Evals 1200
GenUC: 2.518122e-06
GenUB: 8.937786e-07
Optimisation 1.183588e-01
Total Time: 1.183637e-01
3 Add 3
Graph 1:
1 1 0 
0 0 1 
1 0 0 
Graph 2:
1 1 0 
0 0 1 
1 0 1 
Solution: 8 0
Classic Expectation: 4.333333
Initial Expecation: 3.250000
Gbest: 8.000000
Expectation: 6.136392
Final Parameters:
Gammas:
[ 4.792014 4.404930 ]
Betas:
[ 1.742949 1.041602 ]
Aggregate results:
[ 8 2 0 6 ]
[ 0.586406 0.061967 0.131426 0.220201 ]
3
Num Evals 286
GenUC: 2.454210e-06
GenUB: 7.441267e-07
Optimisation 3.201019e-02
Total Time: 3.201479e-02
4 Rem 3
Graph 1:
1 1 0 
0 0 1 
1 0 0 
Graph 2:
0 0 0 
0 0 0 
1 0 0 
Solution: 6 0
Classic Expectation: 5.000000
Initial Expecation: 3.750000
Gbest: 6.000000
Expectation: 5.221110
Final Parameters:
Gammas:
[ 1.621112 4.331960 ]
Betas:
[ 3.141593 2.540348 ]
Aggregate results:
[ 6 4 0 ]
[ 0.670676 0.299264 0.030061 ]
3
Num Evals 290
GenUC: 2.481160e-06
GenUB: 6.702030e-07
Optimisation 4.490834e-02
Total Time: 4.491271e-02
5 Add/Rem 3
Graph 1:
1 1 0 
0 0 1 
1 0 0 
Graph 2:
1 1 1 
0 0 0 
0 1 1 
Solution: 6 1
Classic Expectation: 4.333333
Initial Expecation: 3.250000
Gbest: 6.000000
Expectation: 5.082837
Final Parameters:
Gammas:
[ 3.816160 2.213885 ]
Betas:
[ 1.807792 2.346391 ]
Aggregate results:
[ 4 6 2 0 ]
[ 0.361737 0.594516 0.034398 0.009350 ]
5
Num Evals 1200
GenUC: 2.709450e-06
GenUB: 1.383713e-06
Optimisation 1.587548e-01
Total Time: 1.587602e-01
