Clock Speed: 3.688877
Num threads: 4
Trotterisation: 2
Num Qubits: 3
Space Dimension: 8
Run-Type: 0
Num_samples: 2024
Optimiser Method: 29
1 Isomorphic
Graph 1:
1 0 1 
1 0 0 
0 0 1 
Graph 2:
1 0 1 
1 0 0 
0 0 1 
Solution: 9 0
Classic Expectation: 5.000000
Initial Expecation: 3.750000
Gbest: 9.000000
Expectation: 6.364639
Final Parameters:
Gammas:
[ 3.371926 2.965884 ]
Betas:
[ 1.381275 2.336556 ]
Aggregate results:
[ 9 3 5 0 ]
[ 0.404518 0.043930 0.518438 0.033114 ]
3
Num Evals 266
GenUC: 2.768706e-06
GenUB: 7.944065e-06
Optimisation 3.499341e-02
Total Time: 3.502288e-02
2 Flipped
Graph 1:
1 0 1 
1 0 0 
0 0 1 
Graph 2:
1 0 1 
0 0 1 
1 0 0 
Solution: 7 5
Classic Expectation: 4.333333
Initial Expecation: 3.250000
Gbest: 7.000000
Expectation: 5.101122
Final Parameters:
Gammas:
[ 2.952068 3.652845 ]
Betas:
[ 3.141593 0.732946 ]
Aggregate results:
[ 5 3 7 0 ]
[ 0.399166 0.185475 0.364124 0.051235 ]
3
Num Evals 205
GenUC: 2.602581e-06
GenUB: 8.351053e-07
Optimisation 2.685378e-02
Total Time: 2.685866e-02
3 Add 3
Graph 1:
1 0 1 
1 0 0 
0 0 1 
Graph 2:
1 0 1 
1 1 0 
1 1 1 
Solution: 6 0
Classic Expectation: 4.666667
Initial Expecation: 3.500000
Gbest: 6.000000
Expectation: 5.210660
Final Parameters:
Gammas:
[ 1.622466 4.335548 ]
Betas:
[ 0.000000 2.610059 ]
Aggregate results:
[ 6 4 2 0 ]
[ 0.704199 0.240232 0.012270 0.043299 ]
3
Num Evals 275
GenUC: 2.496992e-06
GenUB: 7.394119e-07
Optimisation 2.400952e-02
Total Time: 2.401396e-02
4 Rem 3
Graph 1:
1 0 1 
1 0 0 
0 0 1 
Graph 2:
1 0 0 
1 0 0 
0 0 0 
Solution: 7 0
Classic Expectation: 5.000000
Initial Expecation: 3.750000
Gbest: 7.000000
Expectation: 5.229213
Final Parameters:
Gammas:
[ 3.852053 3.488629 ]
Betas:
[ 0.972223 2.456252 ]
Aggregate results:
[ 7 5 3 0 ]
[ 0.468334 0.271198 0.198293 0.062174 ]
3
Num Evals 526
GenUC: 2.586807e-06
GenUB: 9.089708e-07
Optimisation 6.513689e-02
Total Time: 6.514159e-02
5 Add/Rem 3
Graph 1:
1 0 1 
1 0 0 
0 0 1 
Graph 2:
0 0 0 
1 1 1 
0 0 0 
Solution: 6 2
Classic Expectation: 4.666667
Initial Expecation: 3.500000
Gbest: 6.000000
Expectation: 4.867908
Final Parameters:
Gammas:
[ 4.148576 2.567949 ]
Betas:
[ 0.000000 0.785405 ]
Aggregate results:
[ 4 6 0 ]
[ 0.556158 0.440546 0.003296 ]
3
Num Evals 352
GenUC: 2.536923e-06
GenUB: 6.683986e-07
Optimisation 2.944945e-02
Total Time: 2.945386e-02
