Clock Speed: 3.689004
Num threads: 4
Trotterisation: 2
Num Qubits: 3
Space Dimension: 8
Run-Type: 0
Num_samples: 2024
Optimiser Method: 29
1 Isomorphic
Graph 1:
1 1 1 
0 1 0 
0 0 1 
Graph 2:
1 1 1 
0 1 0 
0 0 1 
Solution: 9 0
Classic Expectation: 6.333333
Initial Expecation: 4.750000
Gbest: 9.000000
Expectation: 7.000000
Final Parameters:
Gammas:
[ 5.934134 4.188826 ]
Betas:
[ 0.836296 1.671709 ]
Aggregate results:
[ 9 5 0 ]
[ 0.500000 0.500000 0.000000 ]
3
Num Evals 287
GenUC: 2.619054e-06
GenUB: 9.755604e-06
Optimisation 2.962522e-02
Total Time: 2.965327e-02
2 Flipped
Graph 1:
1 1 1 
0 1 0 
0 0 1 
Graph 2:
1 1 1 
0 1 0 
1 0 0 
Solution: 7 0
Classic Expectation: 5.000000
Initial Expecation: 3.750000
Gbest: 7.000000
Expectation: 5.967456
Final Parameters:
Gammas:
[ 3.182055 3.441809 ]
Betas:
[ 0.000000 0.785398 ]
Aggregate results:
[ 7 3 5 0 ]
[ 0.494607 0.005393 0.497805 0.002195 ]
3
Num Evals 242
GenUC: 2.548681e-06
GenUB: 9.096111e-07
Optimisation 1.407218e-02
Total Time: 1.407711e-02
3 Add 3
Graph 1:
1 1 1 
0 1 0 
0 0 1 
Graph 2:
1 1 1 
1 1 0 
1 0 1 
Solution: 7 0
Classic Expectation: 5.666667
Initial Expecation: 4.250000
Gbest: 7.000000
Expectation: 5.976969
Final Parameters:
Gammas:
[ 6.159703 2.084956 ]
Betas:
[ 1.570809 2.356203 ]
Aggregate results:
[ 7 5 0 ]
[ 0.489163 0.510565 0.000272 ]
3
Num Evals 351
GenUC: 2.527493e-06
GenUB: 7.470371e-07
Optimisation 4.462328e-02
Total Time: 4.462780e-02
4 Rem 3
Graph 1:
1 1 1 
0 1 0 
0 0 1 
Graph 2:
1 1 1 
0 1 0 
0 0 0 
Solution: 8 0
Classic Expectation: 5.333333
Initial Expecation: 4.000000
Gbest: 8.000000
Expectation: 6.000000
Final Parameters:
Gammas:
[ 2.932080 3.326911 ]
Betas:
[ 1.478487 0.853840 ]
Aggregate results:
[ 8 4 0 ]
[ 0.500000 0.500000 0.000000 ]
3
Num Evals 268
GenUC: 2.525747e-06
GenUB: 7.100753e-07
Optimisation 2.741709e-02
Total Time: 2.742150e-02
5 Add/Rem 3
Graph 1:
1 1 1 
0 1 0 
0 0 1 
Graph 2:
0 1 0 
0 1 1 
0 1 0 
Solution: 4 0
Classic Expectation: 4.000000
Initial Expecation: 3.000000
Gbest: 4.000000
Expectation: 4.000000
Final Parameters:
Gammas:
[ 4.319690 3.926991 ]
Betas:
[ 1.943042 2.728440 ]
Aggregate results:
[ 4 0 ]
[ 1.000000 0.000000 ]
3
Num Evals 238
GenUC: 2.559216e-06
GenUB: 6.278860e-07
Optimisation 3.164347e-02
Total Time: 3.164781e-02
