Clock Speed: 3.688934
Num threads: 4
Trotterisation: 1
Graph Size: 6
Num Qubits: 10
Space Dimension: 1024
Run-Type: 0
Num_samples: 10
1 Isomorphic
Graph 1:
0 0 0 1 1 0 
0 1 1 0 0 0 
1 1 1 0 1 1 
1 0 1 1 1 0 
1 1 0 0 0 1 
0 1 0 1 0 1 
Graph 2:
0 0 0 1 1 0 
0 1 1 0 0 0 
1 1 1 0 1 1 
1 0 1 1 1 0 
1 1 0 0 0 1 
0 1 0 1 0 1 
Solution: 0 0
Gbest: -14.000000
Expectation: -19.876534
Final Parameters:
Gammas:
[ 3.178399 ]
Betas:
[ 0.328091 2.633469 ]
Aggregate results:
[ -1 11 17 13 15 19 9 21 23 7 5 25 35 ]
[ 0.001105 0.053056 0.221235 0.101723 0.165827 0.193603 0.008118 0.095769 0.033123 0.003363 0.002224 0.006581 0.114272 ]
5
Num Evals 600
GenUC: 2.844827e-04
GenUB: 1.996639e-04
Optimisation 4.431645e-01
Total Time: 4.443713e-01
2 Flipped
Graph 1:
0 0 0 1 1 0 
0 1 1 0 0 0 
1 1 1 0 1 1 
1 0 1 1 1 0 
1 1 0 0 0 1 
0 1 0 1 0 1 
Graph 2:
0 1 1 0 0 0 
0 0 0 1 1 0 
1 1 0 1 1 1 
0 1 1 1 0 1 
1 0 0 0 1 1 
1 0 1 0 1 0 
Solution: -10 238
Gbest: -12.000000
Expectation: -18.863877
Final Parameters:
Gammas:
[ 6.197579 ]
Betas:
[ 0.299642 0.268824 ]
Aggregate results:
[ 21 11 17 23 19 15 25 13 9 27 31 29 35 ]
[ 0.078468 0.056228 0.238942 0.037437 0.172241 0.205549 0.009357 0.120830 0.011726 0.000794 0.001034 0.000642 0.066750 ]
5
Num Evals 1200
GenUC: 1.319203e-04
GenUB: 1.473096e-04
Optimisation 3.162246e-01
Total Time: 3.169033e-01
3 Add 6
Graph 1:
0 0 0 1 1 0 
0 1 1 0 0 0 
1 1 1 0 1 1 
1 0 1 1 1 0 
1 1 0 0 0 1 
0 1 0 1 0 1 
Graph 2:
0 1 0 1 1 0 
0 1 1 1 0 0 
1 1 1 0 1 1 
1 1 1 1 1 0 
1 1 0 1 0 1 
1 1 0 1 1 1 
Solution: -6 0
Gbest: -10.000000
Expectation: -18.212683
Final Parameters:
Gammas:
[ 3.060242 ]
Betas:
[ 0.423090 0.299095 ]
Aggregate results:
[ 5 11 17 15 13 19 21 7 23 9 35 ]
[ 0.002341 0.046773 0.237229 0.214187 0.142384 0.190703 0.078669 0.004723 0.009145 0.019754 0.054091 ]
5
Num Evals 1800
GenUC: 1.242920e-04
GenUB: 1.716763e-04
Optimisation 4.512924e-01
Total Time: 4.520220e-01
4 Rem 6
Graph 1:
0 0 0 1 1 0 
0 1 1 0 0 0 
1 1 1 0 1 1 
1 0 1 1 1 0 
1 1 0 0 0 1 
0 1 0 1 0 1 
Graph 2:
0 0 0 0 1 0 
0 1 0 0 0 0 
0 1 1 0 1 1 
1 0 1 1 1 0 
1 1 0 0 0 0 
0 1 0 1 0 1 
Solution: -4 0
Gbest: -12.000000
Expectation: -18.229635
Final Parameters:
Gammas:
[ 3.059121 ]
Betas:
[ 1.976104 0.276619 ]
Aggregate results:
[ 3 11 17 13 15 21 19 23 9 5 7 25 35 ]
[ 0.002989 0.062430 0.256504 0.136833 0.198156 0.071824 0.155754 0.021097 0.020381 0.002733 0.007185 0.002206 0.061909 ]
5
Num Evals 2400
GenUC: 1.317138e-04
GenUB: 1.663948e-04
Optimisation 4.512597e-01
Total Time: 4.521944e-01
5 Add/Rem 6
Graph 1:
0 0 0 1 1 0 
0 1 1 0 0 0 
1 1 1 0 1 1 
1 0 1 1 1 0 
1 1 0 0 0 1 
0 1 0 1 0 1 
Graph 2:
0 0 0 1 0 0 
0 0 1 1 0 1 
1 1 1 0 1 1 
0 0 1 1 1 1 
0 1 0 1 0 1 
0 1 0 0 0 0 
Solution: -8 712
Gbest: -12.000000
Expectation: -18.848543
Final Parameters:
Gammas:
[ 6.198664 ]
Betas:
[ 0.008872 0.271960 ]
Aggregate results:
[ 9 13 21 19 15 17 25 23 11 27 7 35 ]
[ 0.021899 0.108505 0.107704 0.182256 0.184599 0.243666 0.005084 0.025664 0.052230 0.000943 0.002614 0.064836 ]
5
Num Evals 3000
GenUC: 1.318698e-04
GenUB: 1.662205e-04
Optimisation 3.820158e-01
Total Time: 3.826101e-01
