Clock Speed: 3.498727
Num threads: 16
Trotterisation: 3
Num Qubits: 10
Space Dimension: 1024
Run-Type: 0
Num_samples: 36
Optimiser Method: 33
1 Isomorphic
Graph 1:
1 0 0 0 1 0 
0 1 1 1 1 1 
1 0 0 1 0 1 
0 1 1 0 1 0 
1 1 0 0 0 1 
0 0 0 1 0 1 
Graph 2:
1 0 0 0 1 0 
0 1 1 1 1 1 
1 0 0 1 0 1 
0 1 1 0 1 0 
1 1 0 0 0 1 
0 0 0 1 0 1 
Solution: 36 0
Classic Expectation: 18.000000
Initial Expecation: 12.656250
Gbest: 26.000000
Expectation: 12.656250
Final Parameters:
Gammas:
[ 3.141593 3.141593 3.141593 ]
Betas:
[ 1.570796 1.570796 1.570796 ]
Aggregate results:
[ 36 20 22 24 26 30 14 16 18 28 12 10 8 0 ]
[ 0.000977 0.163086 0.059570 0.036133 0.008789 0.001953 0.078125 0.148437 0.157227 0.001953 0.038086 0.006836 0.001953 0.296875 ]
4
Num Evals 3
GenUC: 3.305953e-04
GenUB: 1.450386e-04
Optimisation 1.038820e-01
Total Time: 1.043675e-01
2 Flipped
Graph 1:
1 0 0 0 1 0 
0 1 1 1 1 1 
1 0 0 1 0 1 
0 1 1 0 1 0 
1 1 0 0 0 1 
0 0 0 1 0 1 
Graph 2:
0 1 0 0 0 1 
1 1 1 1 1 0 
1 0 1 0 0 1 
0 1 0 1 1 0 
1 0 0 0 1 1 
1 0 1 0 0 0 
Solution: 28 450
Classic Expectation: 18.000000
Initial Expecation: 12.656250
Gbest: 24.000000
Expectation: 13.039041
Final Parameters:
Gammas:
[ 2.393171 5.160014 3.141593 ]
Betas:
[ 2.161107 2.082406 1.227417 ]
Aggregate results:
[ 20 18 14 22 16 8 12 24 10 26 28 0 ]
[ 0.170013 0.175354 0.063153 0.084071 0.155421 0.002482 0.022712 0.026894 0.006383 0.008983 0.000955 0.283580 ]
3
Num Evals 54
GenUC: 3.679288e-04
GenUB: 1.373226e-04
Optimisation 1.787297e-01
Total Time: 1.792372e-01
3 Add 6
Graph 1:
1 0 0 0 1 0 
0 1 1 1 1 1 
1 0 0 1 0 1 
0 1 1 0 1 0 
1 1 0 0 0 1 
0 0 0 1 0 1 
Graph 2:
1 1 1 1 1 0 
0 1 1 1 1 1 
1 0 0 1 1 1 
0 1 1 1 1 0 
1 1 0 0 0 1 
0 1 0 1 0 1 
Solution: 30 0
Classic Expectation: 18.000000
Initial Expecation: 12.656250
Gbest: 28.000000
Expectation: 12.656250
Final Parameters:
Gammas:
[ 3.141593 3.141593 3.141593 ]
Betas:
[ 1.570796 1.570796 1.570796 ]
Aggregate results:
[ 30 18 20 24 22 16 26 10 14 28 12 0 ]
[ 0.000977 0.183594 0.121094 0.022461 0.090820 0.170898 0.006836 0.006836 0.085937 0.000977 0.012695 0.296875 ]
4
Num Evals 3
GenUC: 3.646286e-04
GenUB: 1.320452e-04
Optimisation 8.878602e-03
Total Time: 9.377373e-03
4 Rem 6
Graph 1:
1 0 0 0 1 0 
0 1 1 1 1 1 
1 0 0 1 0 1 
0 1 1 0 1 0 
1 1 0 0 0 1 
0 0 0 1 0 1 
Graph 2:
1 0 0 0 0 0 
0 1 1 1 0 1 
1 0 0 1 0 1 
0 1 1 0 1 0 
0 0 0 0 0 0 
0 0 0 1 0 0 
Solution: 30 0
Classic Expectation: 18.000000
Initial Expecation: 12.656250
Gbest: 22.000000
Expectation: 13.157752
Final Parameters:
Gammas:
[ 3.561835 3.561835 5.430101 ]
Betas:
[ 2.576038 2.576038 2.410551 ]
Aggregate results:
[ 30 24 22 26 20 28 18 16 14 12 10 8 0 ]
[ 0.000479 0.039281 0.080024 0.002514 0.149979 0.001373 0.184019 0.150582 0.095578 0.017126 0.003921 0.004032 0.271092 ]
3
Num Evals 50
GenUC: 3.649974e-04
GenUB: 1.245812e-04
Optimisation 1.890515e-01
Total Time: 1.895429e-01
5 Add/Rem 6
Graph 1:
1 0 0 0 1 0 
0 1 1 1 1 1 
1 0 0 1 0 1 
0 1 1 0 1 0 
1 1 0 0 0 1 
0 0 0 1 0 1 
Graph 2:
0 0 0 0 1 0 
0 0 1 1 1 1 
0 1 1 1 0 1 
0 1 0 1 1 1 
1 1 0 0 0 1 
1 1 0 1 0 1 
Solution: 28 340
Classic Expectation: 18.000000
Initial Expecation: 12.656250
Gbest: 22.000000
Expectation: 12.656250
Final Parameters:
Gammas:
[ 3.141593 3.141593 3.141593 ]
Betas:
[ 1.570797 1.570797 1.570796 ]
Aggregate results:
[ 26 16 22 18 20 24 14 12 10 28 8 0 ]
[ 0.007813 0.150391 0.079102 0.199219 0.131836 0.026367 0.073242 0.029297 0.003906 0.000977 0.000977 0.296875 ]
3
Num Evals 45
GenUC: 3.661066e-04
GenUB: 1.095431e-04
Optimisation 1.341721e-01
Total Time: 1.346496e-01
