Clock Speed: 3.498465
Num threads: 16
Trotterisation: 3
Num Qubits: 5
Space Dimension: 32
Run-Type: 0
Num_samples: 16
Optimiser Method: 0
1 Isomorphic
Graph 1:
1 1 1 0 
1 0 1 1 
0 1 1 0 
1 1 1 0 
Graph 2:
1 1 1 0 
1 0 1 1 
0 1 1 0 
1 1 1 0 
Solution: 16 0
Classic Expectation: 9.500000
Initial Expecation: 7.125000
Gbest: 12.000000
Expectation: 8.458008
Final Parameters:
Gammas:
[ 1.047198 1.047198 3.141593 ]
Betas:
[ 2.617994 1.570796 1.570796 ]
Aggregate results:
[ 16 8 10 12 6 14 0 ]
[ 0.005249 0.179321 0.366089 0.126221 0.112549 0.077759 0.132812 ]
3
Num Evals 19
GenUC: 9.840820e-06
GenUB: 1.567742e-05
Optimisation 2.133079e-03
Total Time: 2.166926e-03
2 Flipped
Graph 1:
1 1 1 0 
1 0 1 1 
0 1 1 0 
1 1 1 0 
Graph 2:
0 1 1 1 
1 1 0 1 
0 1 1 0 
0 1 1 1 
Solution: 14 21
Classic Expectation: 9.000000
Initial Expecation: 6.750000
Gbest: 12.000000
Expectation: 7.738770
Final Parameters:
Gammas:
[ 1.047198 5.235988 3.141593 ]
Betas:
[ 2.617994 1.570796 1.570796 ]
Aggregate results:
[ 10 8 6 12 14 0 ]
[ 0.352539 0.197876 0.070923 0.126343 0.049194 0.203125 ]
3
Num Evals 21
GenUC: 1.066783e-05
GenUB: 1.963228e-06
Optimisation 2.263332e-03
Total Time: 2.277510e-03
3 Add 4
Graph 1:
1 1 1 0 
1 0 1 1 
0 1 1 0 
1 1 1 0 
Graph 2:
1 1 1 1 
1 0 1 1 
0 1 1 1 
1 1 1 0 
Solution: 14 0
Classic Expectation: 10.500000
Initial Expecation: 7.875000
Gbest: 14.000000
Expectation: 10.466155
Final Parameters:
Gammas:
[ 0.376359 2.482246 3.167391 ]
Betas:
[ 1.396263 1.551404 2.460699 ]
Aggregate results:
[ 14 10 8 12 0 ]
[ 0.189329 0.411084 0.164013 0.199383 0.036190 ]
3
Num Evals 1031
GenUC: 1.006573e-05
GenUB: 1.730863e-06
Optimisation 1.128872e-01
Total Time: 1.129004e-01
4 Rem 4
Graph 1:
1 1 1 0 
1 0 1 1 
0 1 1 0 
1 1 1 0 
Graph 2:
1 1 1 0 
1 0 1 0 
0 1 0 0 
1 1 0 0 
Solution: 13 0
Classic Expectation: 8.500000
Initial Expecation: 6.375000
Gbest: 13.000000
Expectation: 7.716310
Final Parameters:
Gammas:
[ 5.934119 3.839724 3.141593 ]
Betas:
[ 2.617994 1.570796 1.570796 ]
Aggregate results:
[ 13 9 11 7 5 0 ]
[ 0.128130 0.256529 0.209822 0.197643 0.010064 0.197812 ]
3
Num Evals 57
GenUC: 1.024455e-05
GenUB: 2.162065e-05
Optimisation 6.100505e-03
Total Time: 6.134049e-03
5 Add/Rem 4
Graph 1:
1 1 1 0 
1 0 1 1 
0 1 1 0 
1 1 1 0 
Graph 2:
1 1 1 1 
0 1 1 1 
0 1 1 0 
0 1 0 1 
Solution: 12 15
Classic Expectation: 8.500000
Initial Expecation: 6.375000
Gbest: 12.000000
Expectation: 6.474609
Final Parameters:
Gammas:
[ 1.047198 5.235988 3.141593 ]
Betas:
[ 0.523599 1.570796 1.570796 ]
Aggregate results:
[ 10 8 6 12 0 ]
[ 0.182373 0.384521 0.150635 0.055908 0.226562 ]
3
Num Evals 23
GenUC: 9.877142e-06
GenUB: 1.367182e-06
Optimisation 2.405631e-03
Total Time: 2.418271e-03
