Clock Speed: 3.498818
Num threads: 16
Trotterisation: 3
Num Qubits: 10
Space Dimension: 1024
Run-Type: 0
Num_samples: 36
Optimiser Method: 0
1 Isomorphic
Graph 1:
1 0 1 1 0 0 
1 0 0 1 1 0 
1 0 0 1 1 0 
0 1 1 1 1 0 
1 0 0 1 1 1 
0 1 1 1 1 0 
Graph 2:
1 0 1 1 0 0 
1 0 0 1 1 0 
1 0 0 1 1 0 
0 1 1 1 1 0 
1 0 0 1 1 1 
0 1 1 1 1 0 
Solution: 36 0
Classic Expectation: 18.600000
Initial Expecation: 13.078125
Gbest: 34.000000
Expectation: 13.905035
Final Parameters:
Gammas:
[ 1.047198 3.141593 3.141593 ]
Betas:
[ 1.570796 1.570796 0.523599 ]
Aggregate results:
[ 36 22 26 20 14 18 16 24 34 12 28 10 30 0 ]
[ 0.003413 0.097879 0.017525 0.161694 0.070357 0.176402 0.137960 0.039569 0.001139 0.033988 0.002365 0.010823 0.000034 0.246853 ]
3
Num Evals 19
GenUC: 2.922574e-04
GenUB: 1.276904e-04
Optimisation 5.989684e-02
Total Time: 6.032706e-02
2 Flipped
Graph 1:
1 0 1 1 0 0 
1 0 0 1 1 0 
1 0 0 1 1 0 
0 1 1 1 1 0 
1 0 0 1 1 1 
0 1 1 1 1 0 
Graph 2:
0 0 1 1 0 1 
0 1 1 0 0 1 
0 1 1 0 0 1 
0 1 1 1 1 0 
1 1 1 0 0 1 
0 1 1 1 1 0 
Solution: 30 361
Classic Expectation: 18.600000
Initial Expecation: 13.078125
Gbest: 24.000000
Expectation: 13.832252
Final Parameters:
Gammas:
[ 5.235988 3.141593 3.141593 ]
Betas:
[ 1.570796 1.570796 0.523599 ]
Aggregate results:
[ 18 12 16 22 20 14 10 24 26 28 30 0 ]
[ 0.185086 0.038690 0.116203 0.118773 0.142146 0.074889 0.006723 0.034836 0.018589 0.009300 0.000860 0.253905 ]
3
Num Evals 19
GenUC: 3.639688e-04
GenUB: 1.360769e-04
Optimisation 5.719123e-02
Total Time: 5.769339e-02
3 Add 6
Graph 1:
1 0 1 1 0 0 
1 0 0 1 1 0 
1 0 0 1 1 0 
0 1 1 1 1 0 
1 0 0 1 1 1 
0 1 1 1 1 0 
Graph 2:
1 1 1 1 0 0 
1 0 0 1 1 1 
1 1 0 1 1 0 
0 1 1 1 1 0 
1 1 0 1 1 1 
0 1 1 1 1 1 
Solution: 31 0
Classic Expectation: 19.400000
Initial Expecation: 13.640625
Gbest: 25.000000
Expectation: 14.234988
Final Parameters:
Gammas:
[ 5.235988 5.235988 1.047198 ]
Betas:
[ 0.523599 1.570796 1.570796 ]
Aggregate results:
[ 31 23 21 25 17 19 27 15 29 13 11 0 ]
[ 0.001129 0.082254 0.148218 0.028413 0.163523 0.230655 0.008343 0.061358 0.000523 0.011838 0.000744 0.263000 ]
3
Num Evals 27
GenUC: 3.636237e-04
GenUB: 1.333761e-04
Optimisation 7.771184e-02
Total Time: 7.821083e-02
4 Rem 6
Graph 1:
1 0 1 1 0 0 
1 0 0 1 1 0 
1 0 0 1 1 0 
0 1 1 1 1 0 
1 0 0 1 1 1 
0 1 1 1 1 0 
Graph 2:
0 0 1 1 0 0 
1 0 0 1 1 0 
1 0 0 1 0 0 
0 0 1 1 1 0 
1 0 0 1 1 1 
0 0 1 0 1 0 
Solution: 31 0
Classic Expectation: 17.800000
Initial Expecation: 12.515625
Gbest: 25.000000
Expectation: 12.979224
Final Parameters:
Gammas:
[ 5.235988 3.141593 1.047198 ]
Betas:
[ 0.523599 1.570796 1.570796 ]
Aggregate results:
[ 31 21 23 17 19 13 29 15 11 9 25 27 7 0 ]
[ 0.001030 0.116477 0.052180 0.140755 0.173272 0.083981 0.004017 0.109067 0.027363 0.002520 0.016461 0.001126 0.000901 0.270851 ]
3
Num Evals 27
GenUC: 3.629513e-04
GenUB: 1.255511e-04
Optimisation 7.886597e-02
Total Time: 7.935632e-02
5 Add/Rem 6
Graph 1:
1 0 1 1 0 0 
1 0 0 1 1 0 
1 0 0 1 1 0 
0 1 1 1 1 0 
1 0 0 1 1 1 
0 1 1 1 1 0 
Graph 2:
0 0 1 1 0 1 
1 1 0 0 1 0 
1 1 0 0 1 0 
0 1 1 0 1 0 
1 1 1 1 1 1 
0 1 1 0 1 0 
Solution: 30 191
Classic Expectation: 18.800000
Initial Expecation: 13.218750
Gbest: 26.000000
Expectation: 14.430384
Final Parameters:
Gammas:
[ 1.047198 3.141593 3.141593 ]
Betas:
[ 1.570796 1.570796 0.523599 ]
Aggregate results:
[ 26 16 20 24 22 18 14 12 30 0 ]
[ 0.012988 0.114067 0.164695 0.084495 0.097325 0.213667 0.055100 0.012952 0.001062 0.243649 ]
3
Num Evals 19
GenUC: 3.848025e-04
GenUB: 1.181713e-04
Optimisation 5.756307e-02
Total Time: 5.806789e-02
