Clock Speed: 3.688872
Num threads: 4
Trotterisation: 3
Num Qubits: 10
Space Dimension: 1024
Run-Type: 0
Num_samples: 32399
Optimiser Method: 0
1 Isomorphic
Graph 1:
1 1 0 1 0 0 
1 0 1 0 0 1 
0 1 0 1 1 0 
1 0 1 1 0 1 
1 0 0 0 1 1 
1 0 0 1 0 1 
Graph 2:
1 1 0 1 0 0 
1 0 1 0 0 1 
0 1 0 1 1 0 
1 0 1 1 0 1 
1 0 0 0 1 1 
1 0 0 1 0 1 
Solution: 36 0
Classic Expectation: 18.333333
Initial Expecation: 12.890625
Gbest: 36.000000
Expectation: 13.390158
Final Parameters:
Gammas:
[ 5.235988 3.141593 3.141593 ]
Betas:
[ 1.570796 1.570796 0.523599 ]
Aggregate results:
[ 36 26 30 24 20 18 22 16 14 32 28 12 0 ]
[ 0.000587 0.020412 0.005181 0.039935 0.096313 0.235040 0.054826 0.165353 0.096814 0.000254 0.007492 0.011864 0.265930 ]
3
Num Evals 19
GenUC: 2.612079e-04
GenUB: 8.866726e-05
Optimisation 3.090670e-02
Total Time: 3.127745e-02
2 Flipped
Graph 1:
1 1 0 1 0 0 
1 0 1 0 0 1 
0 1 0 1 1 0 
1 0 1 1 0 1 
1 0 0 0 1 1 
1 0 0 1 0 1 
Graph 2:
0 0 1 0 1 1 
1 0 0 1 0 1 
0 1 1 0 1 0 
1 0 1 1 0 1 
1 1 0 0 0 1 
1 0 1 0 0 1 
Solution: 26 72
Classic Expectation: 18.000000
Initial Expecation: 12.656250
Gbest: 26.000000
Expectation: 13.303362
Final Parameters:
Gammas:
[ 5.235988 3.141593 3.141593 ]
Betas:
[ 1.570796 1.570796 0.523599 ]
Aggregate results:
[ 22 14 18 20 16 26 24 10 12 8 0 ]
[ 0.078762 0.076734 0.212195 0.145662 0.150187 0.009847 0.030911 0.005499 0.025582 0.000085 0.264534 ]
3
Num Evals 19
GenUC: 2.798171e-04
GenUB: 4.922872e-05
Optimisation 3.101177e-02
Total Time: 3.134263e-02
3 Add 6
Graph 1:
1 1 0 1 0 0 
1 0 1 0 0 1 
0 1 0 1 1 0 
1 0 1 1 0 1 
1 0 0 0 1 1 
1 0 0 1 0 1 
Graph 2:
1 1 1 1 0 1 
1 0 1 0 1 1 
0 1 0 1 1 0 
1 0 1 1 1 1 
1 0 0 0 1 1 
1 0 1 1 1 1 
Solution: 30 0
Classic Expectation: 18.333333
Initial Expecation: 12.890625
Gbest: 30.000000
Expectation: 13.544578
Final Parameters:
Gammas:
[ 5.235988 3.141593 3.141593 ]
Betas:
[ 1.570796 1.570796 0.523599 ]
Aggregate results:
[ 30 26 20 28 24 16 22 18 14 12 0 ]
[ 0.000504 0.005202 0.135364 0.001345 0.053128 0.169395 0.077883 0.209493 0.073500 0.012547 0.261639 ]
3
Num Evals 19
GenUC: 2.797057e-04
GenUB: 5.076273e-05
Optimisation 3.116026e-02
Total Time: 3.149229e-02
4 Rem 6
Graph 1:
1 1 0 1 0 0 
1 0 1 0 0 1 
0 1 0 1 1 0 
1 0 1 1 0 1 
1 0 0 0 1 1 
1 0 0 1 0 1 
Graph 2:
1 1 0 0 0 0 
1 0 1 0 0 1 
0 1 0 1 0 0 
1 0 0 0 0 0 
1 0 0 0 1 1 
0 0 0 1 0 1 
Solution: 30 0
Classic Expectation: 18.000000
Initial Expecation: 12.656250
Gbest: 30.000000
Expectation: 13.575874
Final Parameters:
Gammas:
[ 5.235988 3.141593 3.141593 ]
Betas:
[ 1.570796 1.570796 0.523599 ]
Aggregate results:
[ 30 24 28 26 22 18 20 16 14 12 10 0 ]
[ 0.003502 0.036945 0.004069 0.010468 0.048448 0.248371 0.129837 0.164715 0.080994 0.021986 0.003157 0.247508 ]
3
Num Evals 19
GenUC: 2.806364e-04
GenUB: 5.068642e-05
Optimisation 3.077980e-02
Total Time: 3.111275e-02
5 Add/Rem 6
Graph 1:
1 1 0 1 0 0 
1 0 1 0 0 1 
0 1 0 1 1 0 
1 0 1 1 0 1 
1 0 0 0 1 1 
1 0 0 1 0 1 
Graph 2:
1 1 0 1 1 1 
1 0 0 1 0 1 
1 0 0 1 1 0 
1 0 1 1 0 1 
0 0 0 0 1 0 
1 0 0 0 1 1 
Solution: 26 0
Classic Expectation: 18.333333
Initial Expecation: 12.890625
Gbest: 26.000000
Expectation: 13.655099
Final Parameters:
Gammas:
[ 1.047198 3.141593 3.141593 ]
Betas:
[ 1.570796 1.570796 0.523599 ]
Aggregate results:
[ 26 22 20 24 18 16 14 12 10 0 ]
[ 0.006144 0.130238 0.142906 0.049323 0.183545 0.125489 0.072631 0.017168 0.005375 0.267180 ]
3
Num Evals 19
GenUC: 2.804345e-04
GenUB: 4.970940e-05
Optimisation 3.083498e-02
Total Time: 3.116658e-02
