Clock Speed: 3.688386
Num threads: 4
Trotterisation: 3
Num Qubits: 10
Space Dimension: 1024
Run-Type: 0
Num_samples: 32399
Optimiser Method: 0
1 Isomorphic
Graph 1:
1 1 1 1 0 0 
0 0 1 1 0 1 
0 1 1 0 1 1 
1 0 1 1 1 1 
1 0 0 1 0 1 
1 0 0 0 1 0 
Graph 2:
1 1 1 1 0 0 
0 0 1 1 0 1 
0 1 1 0 1 1 
1 0 1 1 1 1 
1 0 0 1 0 1 
1 0 0 0 1 0 
Solution: 36 0
Classic Expectation: 18.600000
Initial Expecation: 13.078125
Gbest: 36.000000
Expectation: 13.842010
Final Parameters:
Gammas:
[ 1.047198 3.141593 3.141593 ]
Betas:
[ 1.570796 1.570796 0.523599 ]
Aggregate results:
[ 36 32 24 26 28 22 20 14 18 16 12 10 0 ]
[ 0.003784 0.002536 0.039813 0.016781 0.004144 0.126494 0.121335 0.066922 0.190715 0.131901 0.025689 0.011875 0.258011 ]
3
Num Evals 19
GenUC: 2.593452e-04
GenUB: 2.370141e-04
Optimisation 3.176017e-02
Total Time: 3.227562e-02
2 Flipped
Graph 1:
1 1 1 1 0 0 
0 0 1 1 0 1 
0 1 1 0 1 1 
1 0 1 1 1 1 
1 0 0 1 0 1 
1 0 0 0 1 0 
Graph 2:
0 0 1 1 1 1 
1 0 1 1 0 0 
1 1 0 1 1 0 
1 1 1 1 0 1 
1 0 1 0 0 1 
0 1 0 0 0 1 
Solution: 28 94
Classic Expectation: 18.800000
Initial Expecation: 13.218750
Gbest: 28.000000
Expectation: 13.977654
Final Parameters:
Gammas:
[ 1.047198 3.141593 3.141593 ]
Betas:
[ 1.570796 1.570796 0.523599 ]
Aggregate results:
[ 18 14 16 20 12 22 24 28 26 10 0 ]
[ 0.226230 0.051486 0.111022 0.165260 0.007702 0.135993 0.037400 0.000652 0.003701 0.000680 0.259873 ]
3
Num Evals 19
GenUC: 2.798557e-04
GenUB: 4.971289e-05
Optimisation 3.054517e-02
Total Time: 3.087676e-02
3 Add 6
Graph 1:
1 1 1 1 0 0 
0 0 1 1 0 1 
0 1 1 0 1 1 
1 0 1 1 1 1 
1 0 0 1 0 1 
1 0 0 0 1 0 
Graph 2:
1 1 1 1 1 0 
1 0 1 1 0 1 
0 1 1 0 1 1 
1 1 1 1 1 1 
1 1 0 1 0 1 
1 0 0 1 1 0 
Solution: 31 0
Classic Expectation: 19.600000
Initial Expecation: 13.781250
Gbest: 31.000000
Expectation: 14.928185
Final Parameters:
Gammas:
[ 5.934119 5.934119 4.537856 ]
Betas:
[ 0.523599 0.523599 1.570796 ]
Aggregate results:
[ 31 29 23 21 25 19 15 13 27 17 0 ]
[ 0.000312 0.001424 0.098258 0.177366 0.041932 0.188550 0.066194 0.018917 0.016203 0.152091 0.238753 ]
3
Num Evals 85
GenUC: 2.792754e-04
GenUB: 5.058432e-05
Optimisation 1.270843e-01
Total Time: 1.274159e-01
4 Rem 6
Graph 1:
1 1 1 1 0 0 
0 0 1 1 0 1 
0 1 1 0 1 1 
1 0 1 1 1 1 
1 0 0 1 0 1 
1 0 0 0 1 0 
Graph 2:
1 1 1 0 0 0 
0 0 1 1 0 1 
0 1 0 0 1 0 
0 0 1 1 1 1 
1 0 0 1 0 0 
1 0 0 0 1 0 
Solution: 31 0
Classic Expectation: 17.800000
Initial Expecation: 12.515625
Gbest: 31.000000
Expectation: 13.239701
Final Parameters:
Gammas:
[ 1.047198 5.235988 1.047198 ]
Betas:
[ 0.523599 1.570796 1.570796 ]
Aggregate results:
[ 31 27 21 25 23 19 17 15 11 13 9 7 0 ]
[ 0.001177 0.003629 0.116974 0.021161 0.049935 0.171657 0.163115 0.119248 0.019443 0.062895 0.008112 0.006225 0.256429 ]
3
Num Evals 27
GenUC: 2.794508e-04
GenUB: 5.075213e-05
Optimisation 4.233057e-02
Total Time: 4.266245e-02
5 Add/Rem 6
Graph 1:
1 1 1 1 0 0 
0 0 1 1 0 1 
0 1 1 0 1 1 
1 0 1 1 1 1 
1 0 0 1 0 1 
1 0 0 0 1 0 
Graph 2:
0 1 1 0 1 0 
0 1 1 1 0 0 
0 1 1 0 1 0 
1 1 0 1 1 1 
1 0 0 1 0 1 
1 0 1 1 1 0 
Solution: 28 230
Classic Expectation: 18.600000
Initial Expecation: 13.078125
Gbest: 28.000000
Expectation: 13.577399
Final Parameters:
Gammas:
[ 5.235988 3.141593 3.141593 ]
Betas:
[ 1.570796 1.570796 0.523599 ]
Aggregate results:
[ 26 22 24 18 20 16 14 12 28 10 8 0 ]
[ 0.008997 0.102637 0.040513 0.193614 0.160792 0.128211 0.073365 0.025975 0.000257 0.000343 0.001431 0.263865 ]
3
Num Evals 19
GenUC: 2.803446e-04
GenUB: 4.968239e-05
Optimisation 3.124969e-02
Total Time: 3.158132e-02
