Clock Speed: 3.689382
Num threads: 4
Trotterisation: 3
Num Qubits: 10
Space Dimension: 1024
Run-Type: 0
Num_samples: 32399
Optimiser Method: 0
1 Isomorphic
Graph 1:
0 0 1 1 0 1 
1 0 0 1 1 1 
1 0 1 0 1 1 
0 1 0 1 0 1 
0 1 1 1 0 1 
1 0 1 0 0 0 
Graph 2:
0 0 1 1 0 1 
1 0 0 1 1 1 
1 0 1 0 1 1 
0 1 0 1 0 1 
0 1 1 1 0 1 
1 0 1 0 0 0 
Solution: 36 0
Classic Expectation: 18.933333
Initial Expecation: 13.312500
Gbest: 36.000000
Expectation: 14.044706
Final Parameters:
Gammas:
[ 5.235988 3.141593 3.141593 ]
Betas:
[ 1.570796 1.570796 0.523599 ]
Aggregate results:
[ 36 24 26 20 18 14 22 28 16 10 12 32 30 0 ]
[ 0.008794 0.057611 0.013603 0.144762 0.190843 0.084788 0.100312 0.008330 0.108929 0.000892 0.017016 0.000572 0.001998 0.261550 ]
3
Num Evals 19
GenUC: 2.600731e-04
GenUB: 8.845015e-05
Optimisation 3.082007e-02
Total Time: 3.119859e-02
2 Flipped
Graph 1:
0 0 1 1 0 1 
1 0 0 1 1 1 
1 0 1 0 1 1 
0 1 0 1 0 1 
0 1 1 1 0 1 
1 0 1 0 0 0 
Graph 2:
1 0 1 1 0 0 
1 1 1 0 0 1 
1 1 0 1 0 1 
1 0 1 0 1 0 
1 0 1 1 1 0 
0 0 0 1 0 1 
Solution: 26 16
Classic Expectation: 17.866667
Initial Expecation: 12.562500
Gbest: 26.000000
Expectation: 13.276555
Final Parameters:
Gammas:
[ 5.235988 3.141593 3.141593 ]
Betas:
[ 1.570796 1.570796 0.523599 ]
Aggregate results:
[ 12 16 14 20 18 22 26 24 8 10 0 ]
[ 0.029093 0.142190 0.089537 0.162641 0.205461 0.071236 0.005646 0.029717 0.000094 0.001978 0.262405 ]
3
Num Evals 19
GenUC: 2.800114e-04
GenUB: 4.927278e-05
Optimisation 3.197414e-02
Total Time: 3.230601e-02
3 Add 6
Graph 1:
0 0 1 1 0 1 
1 0 0 1 1 1 
1 0 1 0 1 1 
0 1 0 1 0 1 
0 1 1 1 0 1 
1 0 1 0 0 0 
Graph 2:
0 0 1 1 0 1 
1 0 0 1 1 1 
1 1 1 0 1 1 
0 1 0 1 0 1 
0 1 1 1 0 1 
1 1 1 0 1 0 
Solution: 33 0
Classic Expectation: 19.533333
Initial Expecation: 13.734375
Gbest: 33.000000
Expectation: 14.275705
Final Parameters:
Gammas:
[ 5.235988 1.047198 3.141593 ]
Betas:
[ 0.523599 1.570796 1.570796 ]
Aggregate results:
[ 33 25 23 21 19 17 15 27 13 11 31 0 ]
[ 0.000327 0.033626 0.083505 0.180477 0.225716 0.138014 0.049415 0.008761 0.005560 0.000794 0.000646 0.273160 ]
3
Num Evals 19
GenUC: 2.796265e-04
GenUB: 5.067239e-05
Optimisation 3.015733e-02
Total Time: 3.048968e-02
4 Rem 6
Graph 1:
0 0 1 1 0 1 
1 0 0 1 1 1 
1 0 1 0 1 1 
0 1 0 1 0 1 
0 1 1 1 0 1 
1 0 1 0 0 0 
Graph 2:
0 0 1 1 0 0 
1 0 0 1 1 0 
1 0 1 0 1 0 
0 0 0 1 0 1 
0 1 0 1 0 1 
1 0 1 0 0 0 
Solution: 31 0
Classic Expectation: 17.933333
Initial Expecation: 12.609375
Gbest: 31.000000
Expectation: 13.184603
Final Parameters:
Gammas:
[ 5.235988 1.047198 3.141593 ]
Betas:
[ 0.523599 1.570796 1.570796 ]
Aggregate results:
[ 31 21 23 17 19 13 11 25 15 27 9 0 ]
[ 0.000316 0.091280 0.057700 0.208092 0.169976 0.061720 0.014506 0.016136 0.111873 0.003814 0.001928 0.262660 ]
3
Num Evals 19
GenUC: 2.800114e-04
GenUB: 5.060376e-05
Optimisation 2.992991e-02
Total Time: 3.026264e-02
5 Add/Rem 6
Graph 1:
0 0 1 1 0 1 
1 0 0 1 1 1 
1 0 1 0 1 1 
0 1 0 1 0 1 
0 1 1 1 0 1 
1 0 1 0 0 0 
Graph 2:
0 1 1 1 0 1 
1 0 0 1 0 1 
1 0 1 1 1 1 
0 0 0 1 1 1 
0 1 1 0 0 1 
0 1 0 0 1 0 
Solution: 30 134
Classic Expectation: 18.933333
Initial Expecation: 13.312500
Gbest: 30.000000
Expectation: 13.907215
Final Parameters:
Gammas:
[ 1.047198 3.141593 3.141593 ]
Betas:
[ 1.570796 1.570796 0.523599 ]
Aggregate results:
[ 26 24 22 20 18 16 14 12 30 28 0 ]
[ 0.014192 0.057478 0.113471 0.155654 0.187072 0.114730 0.064360 0.015867 0.001286 0.007725 0.268165 ]
3
Num Evals 19
GenUC: 2.793589e-04
GenUB: 4.955265e-05
Optimisation 3.082843e-02
Total Time: 3.115919e-02
