Clock Speed: 3.689336
Num threads: 4
Trotterisation: 3
Num Qubits: 10
Space Dimension: 1024
Run-Type: 0
Num_samples: 32399
Optimiser Method: 0
1 Isomorphic
Graph 1:
1 0 1 1 1 1 
1 1 0 1 1 0 
0 1 0 0 0 1 
0 0 0 0 1 1 
0 1 1 1 0 1 
1 1 1 0 1 1 
Graph 2:
1 0 1 1 1 1 
1 1 0 1 1 0 
0 1 0 0 0 1 
0 0 0 0 1 1 
0 1 1 1 0 1 
1 1 1 0 1 1 
Solution: 36 0
Classic Expectation: 19.066667
Initial Expecation: 13.406250
Gbest: 36.000000
Expectation: 14.284366
Final Parameters:
Gammas:
[ 5.235988 3.141593 3.141593 ]
Betas:
[ 1.570796 1.570796 0.523599 ]
Aggregate results:
[ 36 26 30 22 28 24 18 20 16 14 12 10 0 ]
[ 0.000507 0.021945 0.000302 0.125327 0.005941 0.057461 0.187373 0.171151 0.103809 0.050827 0.017951 0.000018 0.257387 ]
3
Num Evals 19
GenUC: 2.600682e-04
GenUB: 9.251811e-05
Optimisation 3.127878e-02
Total Time: 3.166066e-02
2 Flipped
Graph 1:
1 0 1 1 1 1 
1 1 0 1 1 0 
0 1 0 0 0 1 
0 0 0 0 1 1 
0 1 1 1 0 1 
1 1 1 0 1 1 
Graph 2:
1 1 1 1 0 1 
0 1 1 0 1 1 
1 0 0 0 1 0 
1 1 0 0 0 0 
1 0 1 1 1 0 
1 1 0 1 1 1 
Solution: 30 639
Classic Expectation: 18.800000
Initial Expecation: 13.218750
Gbest: 30.000000
Expectation: 13.831733
Final Parameters:
Gammas:
[ 5.235988 3.141593 3.141593 ]
Betas:
[ 1.570796 1.570796 0.523599 ]
Aggregate results:
[ 16 18 20 24 22 14 26 12 28 8 10 30 0 ]
[ 0.112259 0.201917 0.158870 0.076133 0.085460 0.058059 0.015043 0.021076 0.001102 0.001327 0.000248 0.000519 0.267987 ]
3
Num Evals 19
GenUC: 2.794445e-04
GenUB: 4.930329e-05
Optimisation 3.172201e-02
Total Time: 3.205296e-02
3 Add 6
Graph 1:
1 0 1 1 1 1 
1 1 0 1 1 0 
0 1 0 0 0 1 
0 0 0 0 1 1 
0 1 1 1 0 1 
1 1 1 0 1 1 
Graph 2:
1 0 1 1 1 1 
1 1 0 1 1 0 
0 1 0 1 0 1 
1 0 1 0 1 1 
0 1 1 1 1 1 
1 1 1 0 1 1 
Solution: 32 0
Classic Expectation: 19.866667
Initial Expecation: 13.968750
Gbest: 32.000000
Expectation: 14.663137
Final Parameters:
Gammas:
[ 1.047198 3.141593 3.141593 ]
Betas:
[ 1.570796 1.570796 0.523599 ]
Aggregate results:
[ 32 24 28 22 20 26 16 18 14 12 0 ]
[ 0.002108 0.081681 0.009262 0.174554 0.169537 0.017644 0.119524 0.137120 0.020032 0.002114 0.266425 ]
3
Num Evals 19
GenUC: 2.806763e-04
GenUB: 5.281612e-05
Optimisation 3.067035e-02
Total Time: 3.100583e-02
4 Rem 6
Graph 1:
1 0 1 1 1 1 
1 1 0 1 1 0 
0 1 0 0 0 1 
0 0 0 0 1 1 
0 1 1 1 0 1 
1 1 1 0 1 1 
Graph 2:
1 0 1 1 0 1 
1 1 0 1 0 0 
0 1 0 0 0 1 
0 0 0 0 1 0 
0 0 1 1 0 1 
1 1 1 0 0 1 
Solution: 31 0
Classic Expectation: 17.733333
Initial Expecation: 12.468750
Gbest: 29.000000
Expectation: 13.021618
Final Parameters:
Gammas:
[ 1.047198 5.235988 3.141593 ]
Betas:
[ 0.523599 1.570796 1.570796 ]
Aggregate results:
[ 31 23 29 19 21 25 27 15 17 11 13 9 0 ]
[ 0.000040 0.030186 0.000218 0.168557 0.099044 0.010193 0.001290 0.120835 0.216074 0.023034 0.071680 0.008515 0.250335 ]
3
Num Evals 19
GenUC: 2.797050e-04
GenUB: 5.057262e-05
Optimisation 3.022758e-02
Total Time: 3.055987e-02
5 Add/Rem 6
Graph 1:
1 0 1 1 1 1 
1 1 0 1 1 0 
0 1 0 0 0 1 
0 0 0 0 1 1 
0 1 1 1 0 1 
1 1 1 0 1 1 
Graph 2:
1 0 1 0 1 0 
0 1 1 1 0 0 
1 1 1 0 0 1 
0 0 1 1 1 1 
1 1 1 1 0 1 
1 0 1 0 1 1 
Solution: 27 299
Classic Expectation: 18.800000
Initial Expecation: 13.218750
Gbest: 27.000000
Expectation: 13.978526
Final Parameters:
Gammas:
[ 1.047198 5.235988 3.141593 ]
Betas:
[ 0.523599 1.570796 1.570796 ]
Aggregate results:
[ 25 19 21 15 17 23 13 11 27 0 ]
[ 0.020057 0.214153 0.134214 0.079272 0.205765 0.070557 0.012971 0.004623 0.002235 0.256154 ]
3
Num Evals 19
GenUC: 2.798834e-04
GenUB: 4.954386e-05
Optimisation 3.014416e-02
Total Time: 3.047572e-02
