Clock Speed: 3.688266
Num threads: 4
Trotterisation: 2
Graph Size: 7
Num Qubits: 13
Space Dimension: 8192
Run-Type: 0
Num_samples: 10
1 Isomorphic
Graph 1:
0 1 1 0 0 1 1 
1 0 0 1 1 1 0 
1 1 1 1 0 0 1 
0 0 1 1 0 0 1 
0 1 0 0 1 1 1 
0 1 0 1 0 1 0 
1 0 1 1 0 0 0 
Graph 2:
0 1 1 0 0 1 1 
1 0 0 1 1 1 0 
1 1 1 1 0 0 1 
0 0 1 1 0 0 1 
0 1 0 0 1 1 1 
0 1 0 1 0 1 0 
1 0 1 1 0 0 0 
Solution: 0 0
Gbest: -22.000000
Expectation: -31.745744
Final Parameters:
Gammas:
[ 0.707716 6.151266 ]
Betas:
[ 2.617420 0.987873 1.098794 ]
Aggregate results:
[ -1 13 19 17 9 23 15 21 7 27 25 11 29 33 31 35 37 5 48 ]
[ 0.000058 0.005116 0.080344 0.043437 0.000715 0.132307 0.016769 0.105769 0.000690 0.102147 0.126664 0.001067 0.054525 0.006239 0.020755 0.002724 0.000644 0.000003 0.300027 ]
5
Num Evals 700
GenUC: 1.412552e-03
GenUB: 2.066473e-03
Optimisation 5.510789e+00
Total Time: 5.521548e+00
2 Flipped
Graph 1:
0 1 1 0 0 1 1 
1 0 0 1 1 1 0 
1 1 1 1 0 0 1 
0 0 1 1 0 0 1 
0 1 0 0 1 1 1 
0 1 0 1 0 1 0 
1 0 1 1 0 0 0 
Graph 2:
1 1 0 0 1 1 0 
0 1 1 1 0 0 1 
1 0 0 1 1 1 1 
1 0 0 1 1 0 0 
1 1 1 0 0 1 0 
0 1 0 1 0 1 0 
0 0 0 1 1 0 1 
Solution: -14 102
Gbest: -20.000000
Expectation: -26.516932
Final Parameters:
Gammas:
[ 1.202140 1.812270 ]
Betas:
[ 0.107910 3.015487 0.483109 ]
Aggregate results:
[ 25 23 21 19 27 31 17 15 29 13 33 35 48 ]
[ 0.221518 0.217161 0.166643 0.088540 0.123969 0.012471 0.030539 0.006993 0.044629 0.000941 0.000897 0.000378 0.085320 ]
5
Num Evals 1400
GenUC: 1.227261e-03
GenUB: 1.724492e-03
Optimisation 3.978212e+00
Total Time: 3.987484e+00
3 Add 7
Graph 1:
0 1 1 0 0 1 1 
1 0 0 1 1 1 0 
1 1 1 1 0 0 1 
0 0 1 1 0 0 1 
0 1 0 0 1 1 1 
0 1 0 1 0 1 0 
1 0 1 1 0 0 0 
Graph 2:
0 1 1 0 1 1 1 
1 1 0 1 1 1 1 
1 1 1 1 0 1 1 
0 1 1 1 0 0 1 
0 1 0 0 1 1 1 
1 1 0 1 1 1 0 
1 0 1 1 0 0 0 
Solution: -7 0
Gbest: -13.000000
Expectation: -22.897681
Final Parameters:
Gammas:
[ 6.232318 3.051366 ]
Betas:
[ 3.004114 0.595028 0.130310 ]
Aggregate results:
[ 6 14 16 22 18 20 12 10 26 24 28 8 30 32 34 36 38 48 ]
[ 0.002662 0.038102 0.079914 0.206816 0.154863 0.194254 0.010153 0.004095 0.082824 0.147787 0.027959 0.001633 0.007661 0.001164 0.000245 0.000060 0.000024 0.039783 ]
5
Num Evals 2100
GenUC: 1.239164e-03
GenUB: 1.914862e-03
Optimisation 5.121414e+00
Total Time: 5.130635e+00
4 Rem 7
Graph 1:
0 1 1 0 0 1 1 
1 0 0 1 1 1 0 
1 1 1 1 0 0 1 
0 0 1 1 0 0 1 
0 1 0 0 1 1 1 
0 1 0 1 0 1 0 
1 0 1 1 0 0 0 
Graph 2:
0 1 1 0 0 1 1 
1 0 0 0 1 1 0 
1 1 1 1 0 0 1 
0 0 1 1 0 0 0 
0 1 0 0 0 0 1 
0 1 0 0 0 0 0 
0 0 1 1 0 0 0 
Solution: -7 0
Gbest: -21.000000
Expectation: -25.843425
Final Parameters:
Gammas:
[ 6.094989 3.300870 ]
Betas:
[ 3.116785 2.510767 3.011449 ]
Aggregate results:
[ 6 16 24 18 22 26 12 20 28 30 14 10 32 34 36 38 48 ]
[ 0.001039 0.067337 0.157020 0.106814 0.184895 0.086442 0.006965 0.177111 0.037612 0.013881 0.025265 0.001943 0.006611 0.001298 0.000493 0.000163 0.125111 ]
5
Num Evals 2800
GenUC: 1.244393e-03
GenUB: 1.738981e-03
Optimisation 6.845641e+00
Total Time: 6.859882e+00
5 Add/Rem 7
Graph 1:
0 1 1 0 0 1 1 
1 0 0 1 1 1 0 
1 1 1 1 0 0 1 
0 0 1 1 0 0 1 
0 1 0 0 1 1 1 
0 1 0 1 0 1 0 
1 0 1 1 0 0 0 
Graph 2:
0 0 0 0 0 1 1 
1 0 0 0 1 1 0 
1 1 1 1 0 1 1 
0 0 1 1 1 1 0 
1 1 0 1 1 1 1 
0 1 0 1 0 1 1 
0 0 1 0 0 0 0 
Solution: -12 0
Gbest: -18.000000
Expectation: -25.507255
Final Parameters:
Gammas:
[ 3.075519 4.607300 ]
Betas:
[ 3.071787 2.687023 3.123778 ]
Aggregate results:
[ 11 17 23 27 19 21 29 15 25 31 13 33 35 48 ]
[ 0.000340 0.043758 0.213310 0.108572 0.117501 0.185122 0.055824 0.011956 0.177754 0.023775 0.001749 0.005650 0.000874 0.053814 ]
5
Num Evals 3500
GenUC: 1.218295e-03
GenUB: 1.722151e-03
Optimisation 7.251551e+00
Total Time: 7.265380e+00
