Clock Speed: 3.688840
Num threads: 4
Trotterisation: 3
Graph Size: 4
Num Qubits: 5
Space Dimension: 32
Run-Type: 0
Num_samples: 10
1 Isomorphic
Graph 1:
0 1 0 1 
0 1 0 0 
1 0 0 0 
1 0 0 0 
Graph 2:
0 1 0 1 
0 1 0 0 
1 0 0 0 
1 0 0 0 
Solution: 0 0
Gbest: 0.000000
Expectation: -5.883610
Final Parameters:
Gammas:
[ 6.283185 3.688214 3.738525 ]
Betas:
[ 1.514547 2.733751 2.271745 1.450019 ]
Aggregate results:
[ -1 9 7 5 1 3 15 ]
[ 0.169286 0.130432 0.244031 0.190184 0.069470 0.149880 0.046717 ]
5
Num Evals 400
GenUC: 4.968364e-04
GenUB: 3.693662e-04
Optimisation 1.382587e-01
Total Time: 1.394668e-01
2 Flipped
Graph 1:
0 1 0 1 
0 1 0 0 
1 0 0 0 
1 0 0 0 
Graph 2:
1 0 1 0 
0 0 1 0 
0 0 0 1 
0 0 0 1 
Solution: -2 16
Gbest: -6.000000
Expectation: -6.763172
Final Parameters:
Gammas:
[ 4.034071 3.542995 3.824678 ]
Betas:
[ 1.261577 1.016323 0.736555 0.965884 ]
Aggregate results:
[ 9 7 3 5 1 15 ]
[ 0.029414 0.302881 0.018991 0.477402 0.116813 0.054499 ]
5
Num Evals 800
GenUC: 9.778539e-06
GenUB: 8.275638e-06
Optimisation 8.971930e-02
Total Time: 8.995996e-02
3 Add 4
Graph 1:
0 1 0 1 
0 1 0 0 
1 0 0 0 
1 0 0 0 
Graph 2:
1 1 0 1 
0 1 0 0 
1 1 0 1 
1 0 0 1 
Solution: -4 0
Gbest: -4.000000
Expectation: -8.126124
Final Parameters:
Gammas:
[ 4.858553 3.051026 1.990430 ]
Betas:
[ 2.986913 2.403700 1.815107 2.021408 ]
Aggregate results:
[ 3 9 7 11 5 15 ]
[ 0.153384 0.115094 0.301486 0.089196 0.257403 0.083437 ]
5
Num Evals 1200
GenUC: 9.686405e-06
GenUB: 8.121886e-06
Optimisation 1.732962e-01
Total Time: 1.736395e-01
4 Rem 4
Graph 1:
0 1 0 1 
0 1 0 0 
1 0 0 0 
1 0 0 0 
Graph 2:
0 0 0 1 
0 1 0 0 
0 0 0 0 
0 0 0 0 
Solution: -3 0
Gbest: -3.000000
Expectation: -5.599831
Final Parameters:
Gammas:
[ 5.046252 3.072535 2.867613 ]
Betas:
[ 1.958085 1.318078 1.396246 2.813581 ]
Aggregate results:
[ 2 6 4 15 ]
[ 0.262508 0.283018 0.403673 0.050801 ]
5
Num Evals 1600
GenUC: 1.047571e-05
GenUB: 8.351341e-06
Optimisation 1.672004e-01
Total Time: 1.675079e-01
5 Add/Rem 4
Graph 1:
0 1 0 1 
0 1 0 0 
1 0 0 0 
1 0 0 0 
Graph 2:
0 1 0 0 
0 0 0 1 
0 0 1 0 
1 0 1 0 
Solution: -2 18
Gbest: -2.000000
Expectation: -6.719279
Final Parameters:
Gammas:
[ 5.422681 5.256491 3.285466 ]
Betas:
[ 2.460156 1.534500 2.344427 1.709210 ]
Aggregate results:
[ 5 7 3 9 1 15 ]
[ 0.418476 0.115516 0.259733 0.066262 0.046962 0.093051 ]
5
Num Evals 2000
GenUC: 1.696617e-05
GenUB: 8.651217e-06
Optimisation 2.383057e-01
Total Time: 2.387884e-01
