Clock Speed: 3.498830
Num threads: 16
Trotterisation: 1
Num Qubits: 19
Space Dimension: 524288
Run-Type: 0
Num_samples: 81
Optimiser Method: 0
1 Isomorphic
Graph 1:
0 0 1 0 1 1 1 1 1 
0 0 1 1 1 1 1 0 0 
1 1 1 1 1 0 0 0 1 
0 1 1 1 1 0 1 1 0 
1 1 1 1 0 0 1 1 0 
1 1 0 0 0 1 1 1 1 
1 1 0 1 1 1 1 0 1 
1 0 0 1 1 1 0 0 0 
1 0 1 0 0 1 1 0 0 
Graph 2:
0 0 1 0 1 1 1 1 1 
0 0 1 1 1 1 1 0 0 
1 1 1 1 1 0 0 0 1 
0 1 1 1 1 0 1 1 0 
1 1 1 1 0 0 1 1 0 
1 1 0 0 0 1 1 1 1 
1 1 0 1 1 1 1 0 1 
1 0 0 1 1 1 0 0 0 
1 0 1 0 0 1 1 0 0 
Solution: 81 0
Classic Expectation: 43.333333
Initial Expecation: 29.992676
Gbest: 59.000000
Expectation: 31.956644
Final Parameters:
Gammas:
[ 5.934119 ]
Betas:
[ 2.617994 ]
Aggregate results:
[ 81 65 71 59 63 69 57 47 55 41 49 67 61 53 45 51 75 35 43 39 37 33 31 77 29 27 25 23 21 73 0 ]
[ 0.000001 0.000266 0.000030 0.004074 0.000790 0.000014 0.008013 0.074179 0.015666 0.092084 0.067891 0.000143 0.001505 0.029067 0.097995 0.042814 0.000001 0.038948 0.087747 0.069525 0.059821 0.024226 0.013336 0.000001 0.005247 0.002173 0.000520 0.000243 0.000013 0.000002 0.263667 ]
3
Num Evals 19
GenUC: 1.795666e-01
GenUB: 1.333160e-01
Optimisation 1.673981e+01
Total Time: 1.705271e+01
2 Flipped
Graph 1:
0 0 1 0 1 1 1 1 1 
0 0 1 1 1 1 1 0 0 
1 1 1 1 1 0 0 0 1 
0 1 1 1 1 0 1 1 0 
1 1 1 1 0 0 1 1 0 
1 1 0 0 0 1 1 1 1 
1 1 0 1 1 1 1 0 1 
1 0 0 1 1 1 0 0 0 
1 0 1 0 0 1 1 0 0 
Graph 2:
1 1 1 1 1 0 1 0 0 
0 0 1 1 1 1 1 0 0 
1 0 0 0 1 1 1 1 1 
0 1 1 0 1 1 1 1 0 
0 1 1 0 0 1 1 1 1 
1 1 1 1 0 0 0 1 1 
1 0 1 1 1 1 0 1 1 
0 0 0 1 1 1 0 0 1 
0 0 1 1 0 0 1 0 1 
Solution: 59 33033
Classic Expectation: 44.111111
Initial Expecation: 30.531006
Gbest: 55.000000
Expectation: 33.763576
Final Parameters:
Gammas:
[ 0.349066 ]
Betas:
[ 0.523599 ]
Aggregate results:
[ 49 41 45 37 43 39 51 47 35 31 33 53 55 29 57 59 0 ]
[ 0.077503 0.109122 0.149665 0.029125 0.146303 0.063847 0.035765 0.122404 0.010201 0.000483 0.002688 0.012481 0.003202 0.000017 0.000314 0.000077 0.236802 ]
3
Num Evals 35
GenUC: 2.205450e-01
GenUB: 1.316126e-01
Optimisation 3.140474e+01
Total Time: 3.175690e+01
3 Add 9
Graph 1:
0 0 1 0 1 1 1 1 1 
0 0 1 1 1 1 1 0 0 
1 1 1 1 1 0 0 0 1 
0 1 1 1 1 0 1 1 0 
1 1 1 1 0 0 1 1 0 
1 1 0 0 0 1 1 1 1 
1 1 0 1 1 1 1 0 1 
1 0 0 1 1 1 0 0 0 
1 0 1 0 0 1 1 0 0 
Graph 2:
0 1 1 1 1 1 1 1 1 
1 1 1 1 1 1 1 1 1 
1 1 1 1 1 1 1 1 1 
1 1 1 1 1 0 1 1 0 
1 1 1 1 1 1 1 1 0 
1 1 1 0 1 1 1 1 1 
1 1 1 1 1 1 1 0 1 
1 1 1 1 1 1 0 0 0 
1 1 1 0 0 1 1 0 0 
Solution: 63 0
Classic Expectation: 47.555556
Initial Expecation: 32.915039
Gbest: 59.000000
Expectation: 34.714583
Final Parameters:
Gammas:
[ 5.235988 ]
Betas:
[ 2.617994 ]
Aggregate results:
[ 63 51 57 49 53 55 47 41 45 39 43 59 61 37 0 ]
[ 0.000291 0.081329 0.013824 0.134582 0.067968 0.025894 0.124800 0.039737 0.123984 0.022295 0.087633 0.004661 0.000903 0.002638 0.269461 ]
3
Num Evals 13
GenUC: 2.248159e-01
GenUB: 1.306139e-01
Optimisation 1.043814e+01
Total Time: 1.079358e+01
4 Rem 9
Graph 1:
0 0 1 0 1 1 1 1 1 
0 0 1 1 1 1 1 0 0 
1 1 1 1 1 0 0 0 1 
0 1 1 1 1 0 1 1 0 
1 1 1 1 0 0 1 1 0 
1 1 0 0 0 1 1 1 1 
1 1 0 1 1 1 1 0 1 
1 0 0 1 1 1 0 0 0 
1 0 1 0 0 1 1 0 0 
Graph 2:
0 0 0 0 0 0 0 0 0 
0 0 0 0 1 0 1 0 0 
0 0 1 0 0 0 0 0 1 
0 0 0 1 1 0 1 0 0 
0 1 0 1 0 0 1 1 0 
0 0 0 0 0 1 1 1 1 
0 1 0 1 1 1 1 0 1 
0 0 0 0 1 1 0 0 0 
0 0 1 0 0 1 1 0 0 
Solution: 57 0
Classic Expectation: 36.666667
Initial Expecation: 25.378418
Gbest: 47.000000
Expectation: 27.036233
Final Parameters:
Gammas:
[ 5.934119 ]
Betas:
[ 2.617994 ]
Aggregate results:
[ 57 45 47 35 39 37 31 27 43 25 33 29 41 21 23 49 55 51 53 17 19 15 13 9 11 0 ]
[ 0.000019 0.038266 0.018425 0.094291 0.088262 0.112992 0.062456 0.024376 0.053736 0.009681 0.087271 0.039705 0.088837 0.001274 0.004917 0.007468 0.000199 0.002663 0.000681 0.000134 0.000625 0.000046 0.000001 0.000003 0.000000 0.263673 ]
3
Num Evals 19
GenUC: 2.249669e-01
GenUB: 1.303943e-01
Optimisation 1.663797e+01
Total Time: 1.699333e+01
5 Add/Rem 9
Graph 1:
0 0 1 0 1 1 1 1 1 
0 0 1 1 1 1 1 0 0 
1 1 1 1 1 0 0 0 1 
0 1 1 1 1 0 1 1 0 
1 1 1 1 0 0 1 1 0 
1 1 0 0 0 1 1 1 1 
1 1 0 1 1 1 1 0 1 
1 0 0 1 1 1 0 0 0 
1 0 1 0 0 1 1 0 0 
Graph 2:
1 1 0 1 0 0 0 0 0 
1 1 0 0 0 1 1 1 1 
0 0 1 0 0 1 1 0 1 
1 0 0 1 0 1 0 1 0 
0 0 0 0 1 0 1 1 0 
0 1 1 1 0 1 1 1 1 
0 1 1 0 1 1 1 0 1 
0 1 0 1 1 1 0 0 0 
0 1 1 0 0 1 1 0 0 
Solution: 62 45446
Classic Expectation: 39.666667
Initial Expecation: 27.454834
Gbest: 52.000000
Expectation: 29.014470
Final Parameters:
Gammas:
[ 4.537856 ]
Betas:
[ 0.523599 ]
Aggregate results:
[ 38 22 32 28 20 34 16 24 18 26 30 42 36 40 46 44 48 52 50 56 54 58 12 60 62 14 0 ]
[ 0.078474 0.000892 0.053513 0.019083 0.000593 0.049199 0.000028 0.003937 0.000075 0.005278 0.019013 0.080359 0.096566 0.113423 0.052735 0.082962 0.036993 0.009524 0.021759 0.001494 0.005714 0.000882 0.000011 0.000080 0.000093 0.000009 0.267311 ]
3
Num Evals 19
GenUC: 2.249897e-01
GenUB: 1.309261e-01
Optimisation 1.821327e+01
Total Time: 1.856919e+01
