Clock Speed: 3.688814
Num threads: 4
Trotterisation: 1
Num Qubits: 5
Space Dimension: 32
Run-Type: 0
Num_samples: 4
Optimiser Method: 20
1 Isomorphic
Graph 1:
0 0 0 1 
0 0 1 1 
0 1 0 1 
1 1 1 0 
Graph 2:
0 0 0 1 
0 0 1 1 
0 1 0 1 
1 1 1 0 
Solution: 16 0
Classic Expectation: 10.666667
Initial Expecation: 8.000000
Gbest: 16.000000
Expectation: 10.736113
Final Parameters:
Gammas:
[ 3.348006 ]
Betas:
[ 0.596396 ]
Aggregate results:
[ 16 12 8 0 ]
[ 0.171929 0.399046 0.399586 0.029438 ]
5
Num Evals 800
GenUC: 8.379473e-06
GenUB: 8.819596e-06
Optimisation 1.516627e+00
Total Time: 1.516670e+00
2 Flipped
Graph 1:
0 0 0 1 
0 0 1 1 
0 1 0 1 
1 1 1 0 
Graph 2:
1 0 0 0 
1 1 0 0 
1 0 1 0 
0 1 1 1 
Solution: 6 1
Classic Expectation: 5.333333
Initial Expecation: 4.000000
Gbest: 6.000000
Expectation: 5.296626
Final Parameters:
Gammas:
[ 0.305172 ]
Betas:
[ 0.537532 ]
Aggregate results:
[ 4 6 0 ]
[ 0.232511 0.727764 0.039725 ]
5
Num Evals 800
GenUC: 8.965144e-06
GenUB: 1.853812e-06
Optimisation 1.859843e+00
Total Time: 1.859855e+00
3 Add 4
Graph 1:
0 0 0 1 
0 0 1 1 
0 1 0 1 
1 1 1 0 
Graph 2:
1 1 1 1 
1 0 1 1 
1 1 0 1 
1 1 1 1 
Solution: 10 0
Classic Expectation: 10.000000
Initial Expecation: 7.500000
Gbest: 10.000000
Expectation: 10.000000
Final Parameters:
Gammas:
[ 4.241150 ]
Betas:
[ 2.356198 ]
Aggregate results:
[ 10 0 ]
[ 1.000000 0.000000 ]
5
Num Evals 800
GenUC: 9.171708e-06
GenUB: 1.672495e-06
Optimisation 2.717518e+00
Total Time: 2.717531e+00
4 Rem 4
Graph 1:
0 0 0 1 
0 0 1 1 
0 1 0 1 
1 1 1 0 
Graph 2:
0 0 0 0 
0 0 0 0 
0 0 0 1 
0 0 1 0 
Solution: 10 0
Classic Expectation: 8.666667
Initial Expecation: 6.500000
Gbest: 10.000000
Expectation: 7.469217
Final Parameters:
Gammas:
[ 5.314901 ]
Betas:
[ 0.404803 ]
Aggregate results:
[ 10 6 0 ]
[ 0.632130 0.191320 0.176550 ]
5
Num Evals 800
GenUC: 9.183452e-06
GenUB: 1.527544e-06
Optimisation 1.407989e+00
Total Time: 1.408002e+00
5 Add/Rem 4
Graph 1:
0 0 0 1 
0 0 1 1 
0 1 0 1 
1 1 1 0 
Graph 2:
1 1 1 0 
1 0 0 0 
1 0 0 1 
0 0 1 1 
Solution: 12 9
Classic Expectation: 8.000000
Initial Expecation: 6.000000
Gbest: 12.000000
Expectation: 8.499148
Final Parameters:
Gammas:
[ 1.374478 ]
Betas:
[ 2.680472 ]
Aggregate results:
[ 4 8 12 0 ]
[ 0.045595 0.566123 0.315649 0.072633 ]
5
Num Evals 800
GenUC: 8.860690e-06
GenUB: 1.319218e-06
Optimisation 3.008904e+00
Total Time: 3.008917e+00
