Clock Speed: 3.689448
Num threads: 4
Trotterisation: 6
Num Qubits: 10
Space Dimension: 1024
Run-Type: 0
Num_samples: 32399
Optimiser Method: 29
1 Isomorphic
Graph 1:
0 0 1 1 1 0 
0 0 0 0 1 0 
1 0 0 1 0 0 
1 0 0 0 1 0 
0 1 0 1 1 1 
0 1 1 0 1 1 
Graph 2:
0 0 1 1 1 0 
0 0 0 0 1 0 
1 0 0 1 0 0 
1 0 0 0 1 0 
0 1 0 1 1 1 
0 1 1 0 1 1 
Solution: 36 0
Classic Expectation: 18.400000
Initial Expecation: 12.937500
Gbest: 36.000000
Expectation: 15.044854
Final Parameters:
Gammas:
[ 4.675923 3.964026 3.217451 3.897766 2.143874 5.041208 ]
Betas:
[ 1.259592 2.724535 0.689730 2.813646 1.753618 1.186000 ]
Aggregate results:
[ 36 26 22 18 24 28 20 16 12 14 30 32 0 ]
[ 0.000262 0.013667 0.087325 0.153889 0.061159 0.005973 0.188616 0.166779 0.032569 0.106217 0.001113 0.000056 0.182374 ]
3
Num Evals 9064
GenUC: 2.600711e-04
GenUB: 9.275496e-05
Optimisation 3.141142e+01
Total Time: 3.141179e+01
2 Flipped
Graph 1:
0 0 1 1 1 0 
0 0 0 0 1 0 
1 0 0 1 0 0 
1 0 0 0 1 0 
0 1 0 1 1 1 
0 1 1 0 1 1 
Graph 2:
0 1 1 1 0 0 
0 1 0 0 0 0 
0 0 1 0 0 1 
0 1 0 0 0 1 
1 1 1 0 1 0 
1 1 0 1 1 0 
Solution: 26 370
Classic Expectation: 18.133333
Initial Expecation: 12.750000
Gbest: 26.000000
Expectation: 18.696875
Final Parameters:
Gammas:
[ 2.963850 3.232598 3.226094 1.455539 0.020490 4.762684 ]
Betas:
[ 2.083163 1.231435 2.120223 1.382111 1.822155 0.681048 ]
Aggregate results:
[ 16 22 18 24 20 14 12 8 26 0 ]
[ 0.132945 0.155529 0.272118 0.053104 0.304552 0.039194 0.000543 0.000017 0.012658 0.029341 ]
3
Num Evals 8596
GenUC: 3.049924e-04
GenUB: 5.501660e-05
Optimisation 2.934674e+01
Total Time: 2.934710e+01
3 Add 6
Graph 1:
0 0 1 1 1 0 
0 0 0 0 1 0 
1 0 0 1 0 0 
1 0 0 0 1 0 
0 1 0 1 1 1 
0 1 1 0 1 1 
Graph 2:
0 0 1 1 1 0 
1 1 0 0 1 0 
1 0 1 1 0 0 
1 1 1 0 1 0 
1 1 0 1 1 1 
0 1 1 0 1 1 
Solution: 30 0
Classic Expectation: 17.466667
Initial Expecation: 12.281250
Gbest: 30.000000
Expectation: 16.478594
Final Parameters:
Gammas:
[ 5.025847 3.730936 3.743712 4.439145 1.926733 1.098993 ]
Betas:
[ 1.366219 0.050818 1.699657 1.463787 2.284459 3.063324 ]
Aggregate results:
[ 30 20 18 14 22 24 16 12 26 10 8 0 ]
[ 0.001512 0.204293 0.217955 0.127348 0.072633 0.029156 0.220783 0.044718 0.006191 0.009890 0.001826 0.063694 ]
3
Num Evals 5843
GenUC: 2.799755e-04
GenUB: 5.114407e-05
Optimisation 1.948087e+01
Total Time: 1.948121e+01
4 Rem 6
Graph 1:
0 0 1 1 1 0 
0 0 0 0 1 0 
1 0 0 1 0 0 
1 0 0 0 1 0 
0 1 0 1 1 1 
0 1 1 0 1 1 
Graph 2:
0 0 1 1 1 0 
0 0 0 0 0 0 
0 0 0 1 0 0 
1 0 0 0 0 0 
0 1 0 1 1 1 
0 1 1 0 0 1 
Solution: 32 0
Classic Expectation: 18.666667
Initial Expecation: 13.125000
Gbest: 32.000000
Expectation: 15.648876
Final Parameters:
Gammas:
[ 3.888844 2.586518 3.169220 3.570537 1.212603 3.287899 ]
Betas:
[ 1.928230 1.072577 1.899444 2.300238 1.394870 1.413520 ]
Aggregate results:
[ 32 26 22 18 20 28 24 16 14 12 0 ]
[ 0.000019 0.022274 0.126559 0.211158 0.195555 0.003164 0.032170 0.173783 0.059624 0.008081 0.167613 ]
3
Num Evals 9247
GenUC: 2.937456e-04
GenUB: 5.171858e-05
Optimisation 3.135112e+01
Total Time: 3.135147e+01
5 Add/Rem 6
Graph 1:
0 0 1 1 1 0 
0 0 0 0 1 0 
1 0 0 1 0 0 
1 0 0 0 1 0 
0 1 0 1 1 1 
0 1 1 0 1 1 
Graph 2:
0 1 1 1 0 1 
0 1 0 1 1 1 
0 0 0 1 0 0 
1 0 0 0 0 0 
0 0 0 1 1 1 
0 1 0 1 1 1 
Solution: 29 81
Classic Expectation: 18.066667
Initial Expecation: 12.703125
Gbest: 29.000000
Expectation: 16.417584
Final Parameters:
Gammas:
[ 6.192921 4.609789 4.648273 2.742317 3.154756 3.293699 ]
Betas:
[ 2.549405 1.594517 1.487152 0.235872 1.931702 1.484557 ]
Aggregate results:
[ 25 27 17 19 23 15 21 11 13 29 9 0 ]
[ 0.021589 0.014146 0.192299 0.254449 0.061881 0.129078 0.151923 0.009511 0.051079 0.000859 0.005440 0.107747 ]
3
Num Evals 4004
GenUC: 2.791803e-04
GenUB: 4.908544e-05
Optimisation 1.287753e+01
Total Time: 1.287786e+01
