Clock Speed: 3.688180
Num threads: 4
Trotterisation: 6
Num Qubits: 10
Space Dimension: 1024
Run-Type: 0
Num_samples: 32399
Optimiser Method: 29
1 Isomorphic
Graph 1:
0 1 1 0 1 1 
1 0 0 1 1 1 
1 0 0 0 0 0 
1 0 0 1 1 1 
1 0 0 1 0 0 
0 0 1 0 1 0 
Graph 2:
0 1 1 0 1 1 
1 0 0 1 1 1 
1 0 0 0 0 0 
1 0 0 1 1 1 
1 0 0 1 0 0 
0 0 1 0 1 0 
Solution: 36 0
Classic Expectation: 19.400000
Initial Expecation: 13.640625
Gbest: 36.000000
Expectation: 18.334361
Final Parameters:
Gammas:
[ 5.152325 3.982027 4.026704 3.960378 3.343465 4.662930 ]
Betas:
[ 1.732275 1.435763 1.693297 1.432159 1.699652 0.844918 ]
Aggregate results:
[ 36 28 26 24 22 20 30 18 16 14 12 0 ]
[ 0.000699 0.009199 0.016199 0.054415 0.184969 0.297169 0.003338 0.215290 0.098029 0.043903 0.012776 0.064014 ]
5
Num Evals 7200
GenUC: 2.598257e-04
GenUB: 9.775086e-05
Optimisation 2.686411e+01
Total Time: 2.686449e+01
2 Flipped
Graph 1:
0 1 1 0 1 1 
1 0 0 1 1 1 
1 0 0 0 0 0 
1 0 0 1 1 1 
1 0 0 1 0 0 
0 0 1 0 1 0 
Graph 2:
1 1 0 1 1 0 
1 1 1 0 0 1 
0 0 0 0 0 1 
1 1 1 0 0 1 
0 0 1 0 0 1 
0 1 0 1 0 0 
Solution: 26 61
Classic Expectation: 18.666667
Initial Expecation: 13.125000
Gbest: 26.000000
Expectation: 15.077431
Final Parameters:
Gammas:
[ 5.240236 6.027242 3.196173 2.787742 2.768517 4.384666 ]
Betas:
[ 1.360793 1.534056 0.582736 1.508198 2.158428 1.482836 ]
Aggregate results:
[ 14 20 16 18 22 12 10 24 26 0 ]
[ 0.053370 0.210402 0.095900 0.211428 0.133718 0.028216 0.007374 0.049087 0.009611 0.200894 ]
3
Num Evals 5532
GenUC: 2.792718e-04
GenUB: 5.049101e-05
Optimisation 2.546421e+01
Total Time: 2.546455e+01
3 Add 6
Graph 1:
0 1 1 0 1 1 
1 0 0 1 1 1 
1 0 0 0 0 0 
1 0 0 1 1 1 
1 0 0 1 0 0 
0 0 1 0 1 0 
Graph 2:
1 1 1 0 1 1 
1 1 1 1 1 1 
1 0 0 0 0 0 
1 0 1 1 1 1 
1 0 0 1 0 1 
0 1 1 0 1 0 
Solution: 30 0
Classic Expectation: 18.333333
Initial Expecation: 12.890625
Gbest: 30.000000
Expectation: 16.314994
Final Parameters:
Gammas:
[ 3.479037 2.763207 4.656549 4.582893 4.637947 4.808486 ]
Betas:
[ 1.278290 2.386562 1.573924 1.516424 1.590384 1.229926 ]
Aggregate results:
[ 30 24 20 22 18 28 16 14 26 12 0 ]
[ 0.002212 0.095638 0.224680 0.153513 0.173813 0.004805 0.102993 0.052932 0.012495 0.008791 0.168130 ]
3
Num Evals 3124
GenUC: 2.795130e-04
GenUB: 5.756540e-05
Optimisation 2.151023e+01
Total Time: 2.151057e+01
4 Rem 6
Graph 1:
0 1 1 0 1 1 
1 0 0 1 1 1 
1 0 0 0 0 0 
1 0 0 1 1 1 
1 0 0 1 0 0 
0 0 1 0 1 0 
Graph 2:
0 0 1 0 1 1 
0 0 0 1 1 1 
0 0 0 0 0 0 
1 0 0 1 1 1 
1 0 0 1 0 0 
0 0 0 0 0 0 
Solution: 31 0
Classic Expectation: 19.066667
Initial Expecation: 13.406250
Gbest: 31.000000
Expectation: 17.991405
Final Parameters:
Gammas:
[ 3.840900 3.548191 3.135827 4.880920 2.258374 4.182587 ]
Betas:
[ 1.655108 1.557370 1.628410 1.508518 1.595891 0.776378 ]
Aggregate results:
[ 31 27 25 23 21 19 17 15 13 11 0 ]
[ 0.001137 0.007235 0.023153 0.113297 0.226251 0.280904 0.163624 0.095091 0.018769 0.003251 0.067289 ]
5
Num Evals 7200
GenUC: 2.804350e-04
GenUB: 5.127443e-05
Optimisation 3.073597e+01
Total Time: 3.073631e+01
5 Add/Rem 6
Graph 1:
0 1 1 0 1 1 
1 0 0 1 1 1 
1 0 0 0 0 0 
1 0 0 1 1 1 
1 0 0 1 0 0 
0 0 1 0 1 0 
Graph 2:
0 1 1 0 1 0 
1 0 1 1 1 1 
1 0 1 0 0 0 
0 0 1 1 0 0 
1 0 0 0 0 1 
0 0 0 0 1 1 
Solution: 29 5
Classic Expectation: 17.866667
Initial Expecation: 12.562500
Gbest: 29.000000
Expectation: 15.333734
Final Parameters:
Gammas:
[ 4.866442 4.703573 3.263937 3.047369 1.713094 3.241326 ]
Betas:
[ 2.044224 1.497229 1.530592 3.099103 0.516138 2.153651 ]
Aggregate results:
[ 25 23 21 29 27 17 19 15 13 11 9 0 ]
[ 0.016168 0.051669 0.122220 0.000794 0.000496 0.208515 0.225037 0.171497 0.045593 0.011019 0.003474 0.143518 ]
5
Num Evals 7200
GenUC: 2.801397e-04
GenUB: 4.977622e-05
Optimisation 3.497352e+01
Total Time: 3.497386e+01
