Clock Speed: 3.688874
Num threads: 4
Trotterisation: 6
Num Qubits: 10
Space Dimension: 1024
Run-Type: 0
Num_samples: 32399
Optimiser Method: 29
1 Isomorphic
Graph 1:
1 1 1 1 0 0 
0 0 0 0 1 1 
1 0 1 1 0 1 
1 0 0 0 0 0 
0 0 0 1 1 1 
1 0 0 0 0 0 
Graph 2:
1 1 1 1 0 0 
0 0 0 0 1 1 
1 0 1 1 0 1 
1 0 0 0 0 0 
0 0 0 1 1 1 
1 0 0 0 0 0 
Solution: 36 0
Classic Expectation: 18.600000
Initial Expecation: 13.078125
Gbest: 36.000000
Expectation: 18.652744
Final Parameters:
Gammas:
[ 4.840058 3.168397 3.205035 4.553811 5.198541 2.780677 ]
Betas:
[ 1.273172 0.618032 1.241814 0.808755 1.628631 2.977033 ]
Aggregate results:
[ 36 26 22 32 28 18 24 30 14 20 16 10 6 12 0 ]
[ 0.001079 0.012869 0.224751 0.002094 0.005370 0.188547 0.078377 0.000651 0.089541 0.262049 0.076475 0.004401 0.001797 0.004176 0.047826 ]
5
Num Evals 7200
GenUC: 2.600217e-04
GenUB: 9.348628e-05
Optimisation 2.193514e+01
Total Time: 2.193551e+01
2 Flipped
Graph 1:
1 1 1 1 0 0 
0 0 0 0 1 1 
1 0 1 1 0 1 
1 0 0 0 0 0 
0 0 0 1 1 1 
1 0 0 0 0 0 
Graph 2:
0 0 1 1 1 1 
1 1 0 0 0 0 
1 0 1 1 0 1 
0 0 0 0 0 1 
1 1 1 0 0 0 
0 0 0 0 0 1 
Solution: 28 713
Classic Expectation: 18.600000
Initial Expecation: 13.078125
Gbest: 28.000000
Expectation: 14.660918
Final Parameters:
Gammas:
[ 5.437659 4.537141 4.742230 3.200264 0.799686 3.338087 ]
Betas:
[ 1.713101 0.753292 2.023250 1.601138 1.294499 0.538551 ]
Aggregate results:
[ 18 20 16 22 24 26 14 12 10 28 0 ]
[ 0.187337 0.236900 0.155486 0.107063 0.026663 0.009611 0.050464 0.003457 0.001666 0.001902 0.219451 ]
5
Num Evals 7200
GenUC: 3.175202e-04
GenUB: 5.563168e-05
Optimisation 2.221932e+01
Total Time: 2.221970e+01
3 Add 6
Graph 1:
1 1 1 1 0 0 
0 0 0 0 1 1 
1 0 1 1 0 1 
1 0 0 0 0 0 
0 0 0 1 1 1 
1 0 0 0 0 0 
Graph 2:
1 1 1 1 1 0 
0 0 0 0 1 1 
1 0 1 1 0 1 
1 0 0 1 0 0 
0 0 1 1 1 1 
1 1 1 0 0 1 
Solution: 30 0
Classic Expectation: 17.800000
Initial Expecation: 12.515625
Gbest: 30.000000
Expectation: 17.491138
Final Parameters:
Gammas:
[ 5.632846 5.217080 0.584767 4.522427 3.042185 6.109698 ]
Betas:
[ 1.608262 1.527148 1.546526 0.523620 1.346051 1.459000 ]
Aggregate results:
[ 30 22 20 18 26 24 16 14 12 8 10 0 ]
[ 0.005086 0.244767 0.256802 0.162487 0.013368 0.080013 0.069759 0.019503 0.013719 0.004178 0.003775 0.126542 ]
3
Num Evals 7081
GenUC: 3.046725e-04
GenUB: 5.669915e-05
Optimisation 2.268995e+01
Total Time: 2.269032e+01
4 Rem 6
Graph 1:
1 1 1 1 0 0 
0 0 0 0 1 1 
1 0 1 1 0 1 
1 0 0 0 0 0 
0 0 0 1 1 1 
1 0 0 0 0 0 
Graph 2:
1 1 1 1 0 0 
0 0 0 0 1 0 
1 0 1 1 0 1 
1 0 0 0 0 0 
0 0 0 1 0 0 
1 0 0 0 0 0 
Solution: 33 0
Classic Expectation: 19.000000
Initial Expecation: 13.359375
Gbest: 33.000000
Expectation: 14.640204
Final Parameters:
Gammas:
[ 5.535588 3.987223 3.085115 3.131536 4.354307 4.960875 ]
Betas:
[ 1.363096 1.118676 1.279827 1.085026 2.016481 1.263815 ]
Aggregate results:
[ 33 27 23 25 31 19 21 17 15 13 9 11 0 ]
[ 0.000237 0.005158 0.083137 0.022882 0.001595 0.185241 0.179716 0.161730 0.101518 0.025881 0.002011 0.003555 0.227339 ]
3
Num Evals 6009
GenUC: 2.799003e-04
GenUB: 5.099864e-05
Optimisation 1.963388e+01
Total Time: 1.963421e+01
5 Add/Rem 6
Graph 1:
1 1 1 1 0 0 
0 0 0 0 1 1 
1 0 1 1 0 1 
1 0 0 0 0 0 
0 0 0 1 1 1 
1 0 0 0 0 0 
Graph 2:
1 1 0 0 0 0 
0 0 1 0 1 1 
0 1 1 1 0 0 
0 0 0 0 0 0 
0 1 0 0 1 1 
1 1 0 0 1 0 
Solution: 27 590
Classic Expectation: 18.800000
Initial Expecation: 13.218750
Gbest: 27.000000
Expectation: 14.581848
Final Parameters:
Gammas:
[ 4.580415 4.982324 3.200719 3.088144 3.573925 3.221519 ]
Betas:
[ 1.358182 2.342473 1.727104 1.997877 1.955059 2.092337 ]
Aggregate results:
[ 25 21 17 19 23 15 13 11 27 0 ]
[ 0.014930 0.159758 0.192907 0.200751 0.090160 0.093403 0.012076 0.000132 0.004697 0.231185 ]
5
Num Evals 7200
GenUC: 3.045065e-04
GenUB: 5.388819e-05
Optimisation 2.610473e+01
Total Time: 2.610509e+01
