Clock Speed: 3.389853
Num threads: 4
Trotterisation: 3
Graph Size: 7
Num Qubits: 13
Space Dimension: 8192
Run-Type: 0
Num_samples: 10
1 Isomorphic
Graph 1:
1 1 1 1 1 0 0 
1 0 1 1 1 1 1 
0 0 1 0 1 0 1 
1 0 1 1 1 0 0 
1 0 0 1 1 1 1 
1 1 1 1 1 1 0 
1 0 0 0 0 1 1 
Graph 2:
1 1 1 1 1 0 0 
1 0 1 1 1 1 1 
0 0 1 0 1 0 1 
1 0 1 1 1 0 0 
1 0 0 1 1 1 1 
1 1 1 1 1 1 0 
1 0 0 0 0 1 1 
Solution: 0 0
Gbest: -16.000000
Expectation: -28.756255
Final Parameters:
Gammas:
[ 4.673850 3.139187 3.150379 ]
Betas:
[ 1.548649 2.332632 1.542723 2.355884 ]
Aggregate results:
[ -1 11 17 19 13 15 7 9 21 3 23 25 27 29 31 33 48 ]
[ 0.000447 0.016488 0.075286 0.138683 0.018625 0.050292 0.002046 0.000740 0.167722 0.000383 0.126592 0.106215 0.020413 0.012720 0.000443 0.000034 0.262871 ]
5
Num Evals 700
GenUC: 1.419832e-03
GenUB: 2.094540e-03
Optimisation 8.740154e+00
Total Time: 8.754802e+00
2 Flipped
Graph 1:
1 1 1 1 1 0 0 
1 0 1 1 1 1 1 
0 0 1 0 1 0 1 
1 0 1 1 1 0 0 
1 0 0 1 1 1 1 
1 1 1 1 1 1 0 
1 0 0 0 0 1 1 
Graph 2:
0 0 1 1 1 1 1 
1 1 1 1 1 0 1 
1 0 1 0 1 0 0 
0 0 1 1 1 0 1 
1 1 1 1 0 0 1 
0 1 1 1 1 1 1 
1 1 0 0 0 0 1 
Solution: -10 278
Gbest: -14.000000
Expectation: -29.152218
Final Parameters:
Gammas:
[ 4.554160 3.150639 3.159121 ]
Betas:
[ 1.600586 2.272675 1.487279 2.318876 ]
Aggregate results:
[ 17 13 23 21 19 15 25 27 29 11 9 31 33 48 ]
[ 0.093695 0.007500 0.126067 0.166060 0.150484 0.044336 0.089142 0.041819 0.011672 0.000648 0.000028 0.002428 0.000116 0.266005 ]
5
Num Evals 1400
GenUC: 1.117291e-03
GenUB: 1.673174e-03
Optimisation 9.277211e+00
Total Time: 9.290619e+00
3 Add 7
Graph 1:
1 1 1 1 1 0 0 
1 0 1 1 1 1 1 
0 0 1 0 1 0 1 
1 0 1 1 1 0 0 
1 0 0 1 1 1 1 
1 1 1 1 1 1 0 
1 0 0 0 0 1 1 
Graph 2:
1 1 1 1 1 0 1 
1 1 1 1 1 1 1 
0 0 1 0 1 1 1 
1 0 1 1 1 0 0 
1 1 0 1 1 1 1 
1 1 1 1 1 1 0 
1 1 1 0 0 1 1 
Solution: -6 0
Gbest: -14.000000
Expectation: -27.153397
Final Parameters:
Gammas:
[ 4.557486 3.149179 3.160871 ]
Betas:
[ 1.643954 2.269956 1.474155 2.301811 ]
Aggregate results:
[ 5 9 17 13 15 11 19 21 23 25 27 48 ]
[ 0.000283 0.001586 0.179517 0.029967 0.094474 0.007182 0.186543 0.164066 0.059853 0.016087 0.003308 0.257134 ]
5
Num Evals 2100
GenUC: 1.096463e-03
GenUB: 1.603219e-03
Optimisation 7.991031e+00
Total Time: 8.004612e+00
4 Rem 7
Graph 1:
1 1 1 1 1 0 0 
1 0 1 1 1 1 1 
0 0 1 0 1 0 1 
1 0 1 1 1 0 0 
1 0 0 1 1 1 1 
1 1 1 1 1 1 0 
1 0 0 0 0 1 1 
Graph 2:
1 0 0 1 1 0 0 
1 0 0 1 1 1 1 
0 0 1 0 1 0 1 
0 0 1 1 1 0 0 
1 0 0 1 1 1 1 
1 1 1 1 0 1 0 
1 0 0 0 0 0 0 
Solution: -7 0
Gbest: -17.000000
Expectation: -24.744197
Final Parameters:
Gammas:
[ 3.031124 3.095818 3.172718 ]
Betas:
[ 1.016235 0.994478 1.160662 1.144863 ]
Aggregate results:
[ 6 16 20 14 22 18 12 24 8 26 28 30 10 32 34 48 ]
[ 0.000233 0.060156 0.165803 0.029881 0.209290 0.092409 0.006651 0.175312 0.000471 0.117808 0.052353 0.015635 0.000148 0.003486 0.000097 0.070268 ]
5
Num Evals 2800
GenUC: 1.259858e-03
GenUB: 1.895689e-03
Optimisation 5.890881e+00
Total Time: 5.902609e+00
5 Add/Rem 7
Graph 1:
1 1 1 1 1 0 0 
1 0 1 1 1 1 1 
0 0 1 0 1 0 1 
1 0 1 1 1 0 0 
1 0 0 1 1 1 1 
1 1 1 1 1 1 0 
1 0 0 0 0 1 1 
Graph 2:
1 1 1 1 1 0 0 
1 0 1 1 1 0 1 
0 1 1 1 0 0 1 
1 0 0 1 1 1 1 
1 0 1 1 1 1 0 
1 1 1 1 1 1 0 
0 0 0 0 1 1 0 
Solution: -6 79
Gbest: -20.000000
Expectation: -28.881536
Final Parameters:
Gammas:
[ 4.359224 3.109780 3.123381 ]
Betas:
[ 1.540286 2.542001 1.764385 2.383422 ]
Aggregate results:
[ 11 19 15 17 21 13 23 5 7 9 25 27 29 33 31 48 ]
[ 0.001901 0.151463 0.041347 0.076541 0.159974 0.012496 0.152976 0.000134 0.000115 0.000510 0.096677 0.039293 0.011716 0.000086 0.002027 0.252744 ]
5
Num Evals 3500
GenUC: 1.188919e-03
GenUB: 1.748123e-03
Optimisation 8.152099e+00
Total Time: 8.166419e+00
