Clock Speed: 3.689339
Num threads: 4
Trotterisation: 6
Graph Size: 8
Num Qubits: 16
Space Dimension: 65536
Run-Type: 0
Num_samples: 10
1 Isomorphic
Graph 1:
0 0 0 1 0 1 1 1 
1 0 0 0 1 0 0 1 
0 1 0 1 0 1 0 0 
0 0 0 0 1 0 1 1 
1 1 0 1 1 1 1 0 
0 1 1 1 1 0 1 0 
1 1 0 0 0 1 0 1 
1 0 1 0 1 0 0 0 
Graph 2:
0 0 0 1 0 1 1 1 
1 0 0 0 1 0 0 1 
0 1 0 1 0 1 0 0 
0 0 0 0 1 0 1 1 
1 1 0 1 1 1 1 0 
0 1 1 1 1 0 1 0 
1 1 0 0 0 1 0 1 
1 0 1 0 1 0 0 0 
Solution: 0 0
Gbest: -18.000000
Expectation: -26.300507
Final Parameters:
Gammas:
[ 3.171742 3.174368 3.474910 3.471632 2.959345 1.759188 ]
Betas:
[ 2.339947 0.615892 2.003800 1.562821 1.649327 1.487467 1.506454 ]
Aggregate results:
[ -1 15 19 17 13 23 21 25 29 7 31 33 27 9 39 35 37 11 41 3 45 43 63 ]
[ 0.000169 0.007612 0.069561 0.021748 0.003979 0.201894 0.128837 0.219022 0.085879 0.000160 0.037719 0.018699 0.164343 0.000327 0.002339 0.010969 0.005426 0.001538 0.001052 0.000202 0.000036 0.000129 0.018363 ]
5
Num Evals 811
GenUC: 3.540521e-03
GenUB: 1.746260e-02
Optimisation 3.693220e+02
Total Time: 3.698005e+02
2 Flipped
Graph 1:
0 0 0 1 0 1 1 1 
1 0 0 0 1 0 0 1 
0 1 0 1 0 1 0 0 
0 0 0 0 1 0 1 1 
1 1 0 1 1 1 1 0 
0 1 1 1 1 0 1 0 
1 1 0 0 0 1 0 1 
1 0 1 0 1 0 0 0 
Graph 2:
1 1 1 0 1 0 0 0 
1 0 0 1 0 0 0 1 
0 0 1 0 1 0 1 0 
1 1 0 1 0 0 0 0 
0 1 1 1 1 0 1 1 
0 1 0 1 1 1 1 0 
1 0 1 0 0 0 1 1 
0 0 0 1 0 1 0 1 
Solution: -18 31844
Gbest: -26.000000
Expectation: -33.789078
Final Parameters:
Gammas:
[ 3.123180 2.969486 3.803915 3.133970 2.700913 0.000002 ]
Betas:
[ 0.108223 1.004138 2.759504 1.620946 1.517086 1.588145 1.440472 ]
Aggregate results:
[ 37 35 29 33 31 27 25 41 39 23 43 45 21 47 19 49 17 63 ]
[ 0.031270 0.067094 0.206306 0.140163 0.217918 0.138268 0.065000 0.016429 0.021888 0.015558 0.008417 0.003291 0.002520 0.000453 0.000519 0.000183 0.000082 0.064640 ]
5
Num Evals 1512
GenUC: 2.598278e-03
GenUB: 1.670947e-02
Optimisation 3.001743e+02
Total Time: 3.006323e+02
3 Add 8
Graph 1:
0 0 0 1 0 1 1 1 
1 0 0 0 1 0 0 1 
0 1 0 1 0 1 0 0 
0 0 0 0 1 0 1 1 
1 1 0 1 1 1 1 0 
0 1 1 1 1 0 1 0 
1 1 0 0 0 1 0 1 
1 0 1 0 1 0 0 0 
Graph 2:
1 0 0 1 0 1 1 1 
1 0 1 0 1 1 0 1 
0 1 1 1 0 1 0 0 
0 0 0 1 1 0 1 1 
1 1 0 1 1 1 1 0 
0 1 1 1 1 0 1 0 
1 1 0 0 0 1 0 1 
1 1 1 0 1 1 0 1 
Solution: -8 0
Gbest: -24.000000
Expectation: -30.586152
Final Parameters:
Gammas:
[ 3.187490 2.861513 3.019024 3.059184 2.882261 2.852346 ]
Betas:
[ 1.530217 0.979849 1.589276 1.713984 1.577300 1.637023 1.606212 ]
Aggregate results:
[ 7 19 23 31 25 27 29 15 33 35 21 13 37 17 41 39 43 45 11 49 47 63 ]
[ 0.000099 0.011246 0.096730 0.105801 0.184754 0.213553 0.171398 0.000485 0.057007 0.032444 0.036888 0.000148 0.016492 0.003548 0.003662 0.007934 0.002179 0.000571 0.000106 0.000090 0.000014 0.054849 ]
5
Num Evals 2314
GenUC: 2.919978e-03
GenUB: 1.661240e-02
Optimisation 3.553414e+02
Total Time: 3.558931e+02
4 Rem 8
Graph 1:
0 0 0 1 0 1 1 1 
1 0 0 0 1 0 0 1 
0 1 0 1 0 1 0 0 
0 0 0 0 1 0 1 1 
1 1 0 1 1 1 1 0 
0 1 1 1 1 0 1 0 
1 1 0 0 0 1 0 1 
1 0 1 0 1 0 0 0 
Graph 2:
0 0 0 1 0 1 1 1 
1 0 0 0 1 0 0 1 
0 1 0 1 0 0 0 0 
0 0 0 0 1 0 1 0 
1 1 0 1 0 0 1 0 
0 1 1 0 1 0 1 0 
1 1 0 0 0 1 0 1 
0 0 1 0 0 0 0 0 
Solution: -7 0
Gbest: -21.000000
Expectation: -26.806592
Final Parameters:
Gammas:
[ 3.098491 3.104268 3.266165 3.211531 0.213532 0.000344 ]
Betas:
[ 1.229614 1.570971 2.611337 1.389071 1.608765 1.521520 1.522712 ]
Aggregate results:
[ 6 20 24 22 26 28 30 18 14 32 16 34 36 38 12 40 8 44 42 46 10 63 ]
[ 0.000007 0.110804 0.232214 0.187121 0.190680 0.106007 0.044988 0.038907 0.001062 0.020726 0.011954 0.008871 0.003269 0.001485 0.000397 0.000760 0.000047 0.000028 0.000152 0.000029 0.000297 0.040195 ]
5
Num Evals 3008
GenUC: 2.956613e-03
GenUB: 1.713837e-02
Optimisation 3.264024e+02
Total Time: 3.268816e+02
5 Add/Rem 8
Graph 1:
0 0 0 1 0 1 1 1 
1 0 0 0 1 0 0 1 
0 1 0 1 0 1 0 0 
0 0 0 0 1 0 1 1 
1 1 0 1 1 1 1 0 
0 1 1 1 1 0 1 0 
1 1 0 0 0 1 0 1 
1 0 1 0 1 0 0 0 
Graph 2:
0 0 0 1 1 1 1 1 
0 0 1 1 0 1 0 1 
1 1 0 1 0 1 0 1 
0 0 0 0 1 0 1 1 
1 1 0 1 1 1 0 0 
0 1 1 0 0 0 1 1 
1 1 0 0 0 0 0 1 
0 0 0 1 1 0 0 0 
Solution: -14 3714
Gbest: -22.000000
Expectation: -38.599776
Final Parameters:
Gammas:
[ 2.312459 3.211410 2.485198 2.396677 3.199534 3.916308 ]
Betas:
[ 3.060177 0.930483 2.088611 2.391102 1.498939 1.534971 1.478101 ]
Aggregate results:
[ 15 17 23 27 29 19 21 25 33 35 31 37 39 41 43 13 63 ]
[ 0.000466 0.003155 0.059841 0.140738 0.150725 0.009221 0.025874 0.099592 0.073705 0.033351 0.119257 0.012536 0.002813 0.000623 0.000116 0.000007 0.267983 ]
5
Num Evals 3760
GenUC: 2.910191e-03
GenUB: 1.714208e-02
Optimisation 3.306336e+02
Total Time: 3.311467e+02
