Clock Speed: 3.689435
Num threads: 4
Trotterisation: 4
Graph Size: 3
Num Qubits: 3
Space Dimension: 8
Run-Type: 0
Num_samples: 10
1 Isomorphic
Graph 1:
1 0 0 
0 0 0 
0 1 1 
Graph 2:
1 0 0 
0 0 0 
0 1 1 
Solution: 0 0
Gbest: 0.000000
Expectation: -4.500000
Final Parameters:
Gammas:
[ 5.235988 3.141593 5.235988 3.141593 ]
Betas:
[ 1.570796 1.570796 1.570796 1.570796 1.570796 ]
Aggregate results:
[ -1 3 1 8 ]
[ 0.125000 0.500000 0.125000 0.250000 ]
3
Num Evals 25
GenUC: 1.275229e-04
GenUB: 7.871771e-06
Optimisation 6.241604e-03
Total Time: 6.652791e-03
2 Flipped
Graph 1:
1 0 0 
0 0 0 
0 1 1 
Graph 2:
0 0 1 
0 0 0 
1 1 0 
Solution: -4 0
Gbest: -4.000000
Expectation: -6.000000
Final Parameters:
Gammas:
[ 1.047198 5.235988 3.141593 3.141593 ]
Betas:
[ 1.570796 1.570796 1.570796 1.570796 1.570796 ]
Aggregate results:
[ 3 5 8 ]
[ 0.375000 0.375000 0.250000 ]
3
Num Evals 48
GenUC: 6.793765e-06
GenUB: 6.344286e-06
Optimisation 5.582405e-03
Total Time: 5.851180e-03
3 Add 3
Graph 1:
1 0 0 
0 0 0 
0 1 1 
Graph 2:
1 1 0 
1 0 0 
1 1 1 
Solution: -3 0
Gbest: -3.000000
Expectation: -6.000000
Final Parameters:
Gammas:
[ 1.047198 1.047198 3.141593 3.141593 ]
Betas:
[ 1.570796 1.570796 1.570796 1.570796 1.570796 ]
Aggregate results:
[ 2 4 6 8 ]
[ 0.250000 0.250000 0.250000 0.250000 ]
3
Num Evals 71
GenUC: 6.164075e-06
GenUB: 5.631824e-06
Optimisation 5.582955e-03
Total Time: 5.849014e-03
4 Rem 3
Graph 1:
1 0 0 
0 0 0 
0 1 1 
Graph 2:
1 0 0 
0 0 0 
0 0 0 
Solution: -2 0
Gbest: -2.000000
Expectation: -4.250000
Final Parameters:
Gammas:
[ 1.047198 5.235988 3.141593 3.141593 ]
Betas:
[ 1.570796 1.570796 1.570796 1.570796 1.570796 ]
Aggregate results:
[ 1 3 8 ]
[ 0.500000 0.250000 0.250000 ]
3
Num Evals 94
GenUC: 6.103772e-06
GenUB: 5.851383e-06
Optimisation 5.719285e-03
Total Time: 5.985458e-03
5 Add/Rem 3
Graph 1:
1 0 0 
0 0 0 
0 1 1 
Graph 2:
0 0 1 
1 1 0 
0 0 0 
Solution: -2 2
Gbest: -2.000000
Expectation: -5.250000
Final Parameters:
Gammas:
[ 5.235988 3.141593 3.141593 1.047198 ]
Betas:
[ 1.570796 1.570796 1.570796 1.570796 1.570796 ]
Aggregate results:
[ 5 3 1 8 ]
[ 0.250000 0.250000 0.250000 0.250000 ]
3
Num Evals 129
GenUC: 6.401213e-06
GenUB: 5.678856e-06
Optimisation 8.471741e-03
Total Time: 8.734550e-03
