Clock Speed: 3.688858
Num threads: 4
Trotterisation: 4
Graph Size: 4
Num Qubits: 5
Space Dimension: 32
Run-Type: 0
Num_samples: 10
1 Isomorphic
Graph 1:
0 0 0 0 
0 0 1 0 
0 1 0 0 
0 0 1 0 
Graph 2:
0 0 0 0 
0 0 1 0 
0 1 0 0 
0 0 1 0 
Solution: 0 0
Gbest: 0.000000
Expectation: -4.341269
Final Parameters:
Gammas:
[ 3.608624 1.162592 1.254654 2.941532 ]
Betas:
[ 1.147452 2.149802 2.340571 0.905413 1.548100 ]
Aggregate results:
[ -1 3 5 1 15 ]
[ 0.108778 0.165253 0.246290 0.390882 0.088797 ]
5
Num Evals 400
GenUC: 2.398943e-04
GenUB: 1.251791e-05
Optimisation 1.416562e-01
Total Time: 1.422758e-01
2 Flipped
Graph 1:
0 0 0 0 
0 0 1 0 
0 1 0 0 
0 0 1 0 
Graph 2:
0 0 0 0 
0 1 0 0 
0 0 1 0 
0 1 0 0 
Solution: -4 2
Gbest: -4.000000
Expectation: -6.241652
Final Parameters:
Gammas:
[ 2.245574 4.735799 3.976902 1.897125 ]
Betas:
[ 1.388511 2.970018 2.439057 2.661449 0.020777 ]
Aggregate results:
[ 5 3 15 ]
[ 0.356855 0.515817 0.127329 ]
5
Num Evals 800
GenUC: 8.792034e-06
GenUB: 8.204021e-06
Optimisation 1.430066e-01
Total Time: 1.433789e-01
3 Add 4
Graph 1:
0 0 0 0 
0 0 1 0 
0 1 0 0 
0 0 1 0 
Graph 2:
1 1 0 0 
0 1 1 0 
0 1 0 0 
0 0 1 0 
Solution: -3 0
Gbest: -7.000000
Expectation: -7.459673
Final Parameters:
Gammas:
[ 1.593124 3.050035 2.390455 0.375071 ]
Betas:
[ 1.858026 0.346021 0.029890 1.062003 2.553153 ]
Aggregate results:
[ 2 6 4 8 15 ]
[ 0.056868 0.448397 0.254349 0.138234 0.102153 ]
5
Num Evals 1200
GenUC: 1.172558e-05
GenUB: 8.426374e-06
Optimisation 1.302758e-01
Total Time: 1.305840e-01
4 Rem 4
Graph 1:
0 0 0 0 
0 0 1 0 
0 1 0 0 
0 0 1 0 
Graph 2:
0 0 0 0 
0 0 1 0 
0 0 0 0 
0 0 0 0 
Solution: -2 0
Gbest: -2.000000
Expectation: -3.737116
Final Parameters:
Gammas:
[ 6.221436 1.133830 1.113194 1.931826 ]
Betas:
[ 0.715143 0.668025 1.015545 0.260260 1.606051 ]
Aggregate results:
[ 1 3 15 ]
[ 0.552699 0.377091 0.070209 ]
5
Num Evals 1600
GenUC: 8.276780e-06
GenUB: 7.955241e-06
Optimisation 1.324452e-01
Total Time: 1.327301e-01
5 Add/Rem 4
Graph 1:
0 0 0 0 
0 0 1 0 
0 1 0 0 
0 0 1 0 
Graph 2:
0 1 0 0 
1 0 0 0 
1 0 1 0 
0 0 0 0 
Solution: -1 6
Gbest: -1.000000
Expectation: -5.280892
Final Parameters:
Gammas:
[ 3.582300 1.854649 0.010145 3.781870 ]
Betas:
[ 1.875794 2.537193 2.306592 0.645466 0.005117 ]
Aggregate results:
[ 6 4 2 0 15 ]
[ 0.215778 0.272543 0.218720 0.195718 0.097241 ]
5
Num Evals 2000
GenUC: 8.503906e-06
GenUB: 7.837778e-06
Optimisation 1.405563e-01
Total Time: 1.408804e-01
