Clock Speed: 3.685508
Num threads: 4
Trotterisation: 3
Num Qubits: 7
Space Dimension: 128
Run-Type: 0
Num_samples: 15624
Optimiser Method: 0
1 Isomorphic
Graph 1:
0 1 1 1 1 
0 0 0 1 1 
1 0 0 1 1 
0 0 0 0 0 
0 0 0 0 1 
Graph 2:
0 1 1 1 1 
0 0 0 1 1 
1 0 0 1 1 
0 0 0 0 0 
0 0 0 0 1 
Solution: 25 0
Classic Expectation: 13.500000
Initial Expecation: 12.656250
Gbest: 25.000000
Expectation: 12.656250
Final Parameters:
Gammas:
[ 5.235988 1.047198 3.141593 ]
Betas:
[ 1.570796 1.570796 1.570796 ]
Aggregate results:
[ 25 23 17 15 21 19 13 9 11 5 7 0 ]
[ 0.007813 0.023438 0.093750 0.203125 0.031250 0.039062 0.289062 0.093750 0.062500 0.031250 0.062500 0.062500 ]
3
Num Evals 19
GenUC: 4.105875e-05
GenUB: 1.446385e-05
Optimisation 8.734231e-03
Total Time: 8.809147e-03
2 Flipped
Graph 1:
0 1 1 1 1 
0 0 0 1 1 
1 0 0 1 1 
0 0 0 0 0 
0 0 0 0 1 
Graph 2:
1 1 1 1 0 
1 1 0 0 0 
1 1 0 0 1 
0 0 0 0 0 
1 0 0 0 0 
Solution: 19 15
Classic Expectation: 13.000000
Initial Expecation: 12.187500
Gbest: 19.000000
Expectation: 12.429817
Final Parameters:
Gammas:
[ 5.235988 3.141593 3.141593 ]
Betas:
[ 1.570796 1.570796 0.523599 ]
Aggregate results:
[ 15 11 13 17 19 9 7 0 ]
[ 0.213213 0.279099 0.243290 0.109087 0.011786 0.097124 0.006607 0.039795 ]
3
Num Evals 19
GenUC: 4.450232e-05
GenUB: 2.757588e-06
Optimisation 9.548119e-03
Total Time: 9.597200e-03
3 Add 5
Graph 1:
0 1 1 1 1 
0 0 0 1 1 
1 0 0 1 1 
0 0 0 0 0 
0 0 0 0 1 
Graph 2:
0 1 1 1 1 
0 0 0 1 1 
1 1 0 1 1 
1 0 1 0 0 
0 0 0 1 1 
Solution: 21 0
Classic Expectation: 13.100000
Initial Expecation: 12.281250
Gbest: 21.000000
Expectation: 12.955568
Final Parameters:
Gammas:
[ 0.349066 3.141593 3.839724 ]
Betas:
[ 2.617994 1.221730 1.570796 ]
Aggregate results:
[ 21 19 17 15 13 11 9 7 0 ]
[ 0.008446 0.024357 0.148652 0.234615 0.274145 0.148921 0.105208 0.017176 0.038481 ]
3
Num Evals 107
GenUC: 4.447706e-05
GenUB: 2.560962e-06
Optimisation 4.784649e-02
Total Time: 4.789536e-02
4 Rem 5
Graph 1:
0 1 1 1 1 
0 0 0 1 1 
1 0 0 1 1 
0 0 0 0 0 
0 0 0 0 1 
Graph 2:
0 1 1 1 0 
0 0 0 0 1 
0 0 0 1 0 
0 0 0 0 0 
0 0 0 0 0 
Solution: 20 0
Classic Expectation: 14.500000
Initial Expecation: 13.593750
Gbest: 20.000000
Expectation: 13.593750
Final Parameters:
Gammas:
[ 3.141593 1.047198 3.141593 ]
Betas:
[ 0.523599 1.570796 1.570796 ]
Aggregate results:
[ 20 18 16 14 12 10 0 ]
[ 0.031250 0.125000 0.265625 0.234375 0.187500 0.093750 0.062500 ]
3
Num Evals 19
GenUC: 4.375703e-05
GenUB: 2.501707e-06
Optimisation 9.585491e-03
Total Time: 9.633700e-03
5 Add/Rem 5
Graph 1:
0 1 1 1 1 
0 0 0 1 1 
1 0 0 1 1 
0 0 0 0 0 
0 0 0 0 1 
Graph 2:
1 1 0 1 0 
0 1 0 1 0 
1 0 0 1 0 
0 0 0 0 0 
1 0 0 1 1 
Solution: 17 0
Classic Expectation: 12.500000
Initial Expecation: 11.718750
Gbest: 17.000000
Expectation: 12.971787
Final Parameters:
Gammas:
[ 3.180360 1.163535 3.120063 ]
Betas:
[ 1.551413 1.396255 2.594283 ]
Aggregate results:
[ 17 15 11 9 13 7 0 ]
[ 0.196945 0.179191 0.263213 0.095930 0.235631 0.016278 0.012812 ]
3
Num Evals 773
GenUC: 4.378636e-05
GenUB: 2.447108e-06
Optimisation 6.921370e-01
Total Time: 6.921850e-01
