Clock Speed: 3.498795
Num threads: 16
Trotterisation: 1
Num Qubits: 13
Space Dimension: 8192
Run-Type: 0
Num_samples: 49
Optimiser Method: 33
1 Isomorphic
Graph 1:
1 1 1 1 1 1 0 
0 1 1 0 1 1 1 
1 1 1 1 0 0 0 
1 0 0 1 0 0 0 
0 1 1 1 0 0 1 
0 0 1 0 1 1 0 
1 0 0 0 0 0 0 
Graph 2:
1 1 1 1 1 1 0 
0 1 1 0 1 1 1 
1 1 1 1 0 0 0 
1 0 0 1 0 0 0 
0 1 1 1 0 0 1 
0 0 1 0 1 1 0 
1 0 0 0 0 0 0 
Solution: 49 0
Classic Expectation: 25.190476
Initial Expecation: 15.498047
Gbest: 31.000000
Expectation: 15.498047
Final Parameters:
Gammas:
[ 3.141593 ]
Betas:
[ 1.570796 ]
Aggregate results:
[ 49 37 39 35 31 23 33 29 25 27 41 21 19 17 15 13 0 ]
[ 0.000122 0.001953 0.000977 0.005737 0.040527 0.101440 0.013184 0.080811 0.139648 0.104736 0.000488 0.068115 0.038696 0.014038 0.003784 0.000977 0.384766 ]
4
Num Evals 3
GenUC: 2.322603e-03
GenUB: 1.372854e-03
Optimisation 3.101879e-02
Total Time: 3.472614e-02
2 Flipped
Graph 1:
1 1 1 1 1 1 0 
0 1 1 0 1 1 1 
1 1 1 1 0 0 0 
1 0 0 1 0 0 0 
0 1 1 1 0 0 1 
0 0 1 0 1 1 0 
1 0 0 0 0 0 0 
Graph 2:
0 1 1 1 1 1 1 
1 1 1 0 1 1 0 
0 0 0 1 1 1 1 
0 0 0 1 0 0 1 
1 0 0 1 1 1 0 
0 1 1 0 1 0 0 
0 0 0 0 0 0 1 
Solution: 39 566
Classic Expectation: 24.714286
Initial Expecation: 15.205078
Gbest: 29.000000
Expectation: 15.205078
Final Parameters:
Gammas:
[ 3.141593 ]
Betas:
[ 1.570796 ]
Aggregate results:
[ 27 29 31 23 25 21 19 33 35 17 39 37 15 13 0 ]
[ 0.108887 0.073608 0.032104 0.118774 0.128174 0.082031 0.036499 0.009888 0.001831 0.018188 0.000122 0.000122 0.004517 0.000488 0.384766 ]
4
Num Evals 3
GenUC: 2.868504e-03
GenUB: 1.400697e-03
Optimisation 2.675997e-02
Total Time: 3.103124e-02
3 Add 7
Graph 1:
1 1 1 1 1 1 0 
0 1 1 0 1 1 1 
1 1 1 1 0 0 0 
1 0 0 1 0 0 0 
0 1 1 1 0 0 1 
0 0 1 0 1 1 0 
1 0 0 0 0 0 0 
Graph 2:
1 1 1 1 1 1 0 
0 1 1 0 1 1 1 
1 1 1 1 0 1 0 
1 0 0 1 1 1 0 
0 1 1 1 0 0 1 
0 1 1 0 1 1 0 
1 0 0 0 1 0 0 
Solution: 44 0
Classic Expectation: 24.952381
Initial Expecation: 15.351563
Gbest: 32.000000
Expectation: 15.351563
Final Parameters:
Gammas:
[ 3.141593 ]
Betas:
[ 1.570796 ]
Aggregate results:
[ 44 34 36 32 30 28 22 26 24 38 20 18 16 40 14 12 0 ]
[ 0.000122 0.004883 0.001709 0.018921 0.048218 0.092041 0.099731 0.137329 0.132568 0.000488 0.054688 0.018433 0.005371 0.000122 0.000488 0.000122 0.384766 ]
4
Num Evals 39
GenUC: 2.869086e-03
GenUB: 1.340859e-03
Optimisation 3.428967e-01
Total Time: 3.471084e-01
4 Rem 7
Graph 1:
1 1 1 1 1 1 0 
0 1 1 0 1 1 1 
1 1 1 1 0 0 0 
1 0 0 1 0 0 0 
0 1 1 1 0 0 1 
0 0 1 0 1 1 0 
1 0 0 0 0 0 0 
Graph 2:
1 1 0 1 0 0 0 
0 1 1 0 1 1 1 
0 1 1 1 0 0 0 
1 0 0 0 0 0 0 
0 1 1 0 0 0 0 
0 0 1 0 1 1 0 
1 0 0 0 0 0 0 
Solution: 42 0
Classic Expectation: 25.047619
Initial Expecation: 15.410156
Gbest: 32.000000
Expectation: 15.410156
Final Parameters:
Gammas:
[ 3.141593 ]
Betas:
[ 1.570796 ]
Aggregate results:
[ 42 34 36 32 30 24 28 26 38 20 22 18 16 14 0 ]
[ 0.000122 0.004639 0.000366 0.020142 0.055542 0.128418 0.098145 0.134033 0.000244 0.048706 0.097778 0.020630 0.005981 0.000488 0.384766 ]
4
Num Evals 37
GenUC: 2.869925e-03
GenUB: 1.335689e-03
Optimisation 3.244242e-01
Total Time: 3.286315e-01
5 Add/Rem 7
Graph 1:
1 1 1 1 1 1 0 
0 1 1 0 1 1 1 
1 1 1 1 0 0 0 
1 0 0 1 0 0 0 
0 1 1 1 0 0 1 
0 0 1 0 1 1 0 
1 0 0 0 0 0 0 
Graph 2:
1 1 0 1 0 0 0 
0 0 1 0 1 1 1 
1 1 1 1 1 0 0 
1 1 0 1 0 1 1 
0 1 0 1 0 0 1 
0 0 1 0 0 0 0 
1 0 0 0 1 1 1 
Solution: 37 1681
Classic Expectation: 24.714286
Initial Expecation: 15.205078
Gbest: 33.000000
Expectation: 15.205078
Final Parameters:
Gammas:
[ 3.141593 ]
Betas:
[ 1.570796 ]
Aggregate results:
[ 35 33 29 31 27 25 23 21 19 17 15 37 13 9 11 0 ]
[ 0.003906 0.011963 0.068481 0.030518 0.103027 0.137695 0.116577 0.080566 0.039429 0.017456 0.004272 0.000732 0.000366 0.000122 0.000122 0.384766 ]
4
Num Evals 39
GenUC: 2.881054e-03
GenUB: 1.299026e-03
Optimisation 3.436194e-01
Total Time: 3.478012e-01
