Clock Speed: 3.688905
Num threads: 4
Trotterisation: 5
Graph Size: 4
Num Qubits: 5
Space Dimension: 32
Run-Type: 0
Num_samples: 10
1 Isomorphic
Graph 1:
1 1 1 1 
0 0 0 0 
0 0 1 0 
1 1 0 1 
Graph 2:
1 1 1 1 
0 0 0 0 
0 0 1 0 
1 1 0 1 
Solution: 0 0
Gbest: -2.000000
Expectation: -9.240356
Final Parameters:
Gammas:
[ 5.235988 5.235988 3.141593 3.141593 3.141593 ]
Betas:
[ 1.570796 2.617994 1.570796 1.570796 1.570796 1.570796 ]
Aggregate results:
[ -1 7 9 3 5 11 1 15 ]
[ 0.015594 0.391541 0.064880 0.056488 0.108734 0.051941 0.072540 0.238281 ]
3
Num Evals 47
GenUC: 1.334548e-04
GenUB: 1.175204e-05
Optimisation 1.863231e-02
Total Time: 1.922415e-02
2 Flipped
Graph 1:
1 1 1 1 
0 0 0 0 
0 0 1 0 
1 1 0 1 
Graph 2:
1 1 1 1 
0 0 0 0 
0 1 0 0 
1 0 1 1 
Solution: -2 3
Gbest: -2.000000
Expectation: -8.897483
Final Parameters:
Gammas:
[ 3.141593 3.141593 3.141593 2.443461 3.374303 ]
Betas:
[ 2.617994 1.570796 1.570796 1.570796 1.919862 0.523599 ]
Aggregate results:
[ 3 11 7 1 9 5 15 ]
[ 0.114035 0.147409 0.338001 0.035102 0.146737 0.106859 0.111856 ]
5
Num Evals 447
GenUC: 9.099516e-06
GenUB: 8.540257e-06
Optimisation 1.721511e-01
Total Time: 1.726129e-01
3 Add 4
Graph 1:
1 1 1 1 
0 0 0 0 
0 0 1 0 
1 1 0 1 
Graph 2:
1 1 1 1 
0 1 1 0 
1 0 1 0 
1 1 1 1 
Solution: -4 0
Gbest: -4.000000
Expectation: -9.500000
Final Parameters:
Gammas:
[ 3.141593 3.141593 3.141593 3.141593 3.141593 ]
Betas:
[ 2.617994 1.570796 1.570796 1.570796 1.570796 0.523599 ]
Aggregate results:
[ 3 7 11 5 9 15 ]
[ 0.125000 0.343750 0.031250 0.156250 0.093750 0.250000 ]
3
Num Evals 552
GenUC: 1.089994e-05
GenUB: 8.699892e-06
Optimisation 4.232374e-02
Total Time: 4.274879e-02
4 Rem 4
Graph 1:
1 1 1 1 
0 0 0 0 
0 0 1 0 
1 1 0 1 
Graph 2:
0 1 0 0 
0 0 0 0 
0 0 1 0 
1 1 0 0 
Solution: -4 0
Gbest: -6.000000
Expectation: -8.082520
Final Parameters:
Gammas:
[ 1.047198 5.235988 1.047198 3.141593 3.141593 ]
Betas:
[ 1.570796 2.617994 1.570796 1.570796 1.570796 1.570796 ]
Aggregate results:
[ 3 5 7 9 15 ]
[ 0.084473 0.338867 0.355713 0.111572 0.109375 ]
3
Num Evals 605
GenUC: 9.960990e-06
GenUB: 8.455769e-06
Optimisation 2.116762e-02
Total Time: 2.159883e-02
5 Add/Rem 4
Graph 1:
1 1 1 1 
0 0 0 0 
0 0 1 0 
1 1 0 1 
Graph 2:
1 0 0 0 
1 1 0 0 
0 1 1 0 
1 1 0 0 
Solution: -5 1
Gbest: -5.000000
Expectation: -9.375000
Final Parameters:
Gammas:
[ 1.047198 3.141593 3.141593 3.141593 3.141593 ]
Betas:
[ 0.523599 1.570796 1.570796 1.570796 1.570796 1.570796 ]
Aggregate results:
[ 6 4 8 15 ]
[ 0.437500 0.125000 0.187500 0.250000 ]
3
Num Evals 630
GenUC: 8.449308e-06
GenUB: 8.374191e-06
Optimisation 9.763500e-03
Total Time: 1.016068e-02
