Clock Speed: 3.689097
Num threads: 4
Trotterisation: 5
Graph Size: 4
Num Qubits: 5
Space Dimension: 32
Run-Type: 0
Num_samples: 10
1 Isomorphic
Graph 1:
1 0 0 1 
0 0 0 1 
0 0 1 0 
0 1 0 1 
Graph 2:
1 0 0 1 
0 0 0 1 
0 0 1 0 
0 1 0 1 
Solution: 0 0
Gbest: -6.000000
Expectation: -8.416138
Final Parameters:
Gammas:
[ 3.141593 5.235988 1.047198 3.141593 3.141593 ]
Betas:
[ 1.570796 1.570796 2.617994 1.570796 1.570796 1.570796 ]
Aggregate results:
[ -1 3 5 1 7 15 ]
[ 0.043243 0.086884 0.287994 0.028961 0.320496 0.232422 ]
3
Num Evals 77
GenUC: 1.480688e-04
GenUB: 1.205015e-05
Optimisation 3.035878e-02
Total Time: 3.095275e-02
2 Flipped
Graph 1:
1 0 0 1 
0 0 0 1 
0 0 1 0 
0 1 0 1 
Graph 2:
1 0 0 1 
1 0 0 0 
0 1 0 0 
1 0 1 0 
Solution: -4 20
Gbest: -6.000000
Expectation: -8.722290
Final Parameters:
Gammas:
[ 1.047198 1.047198 3.141593 3.141593 3.141593 ]
Betas:
[ 1.570796 2.617994 1.570796 1.570796 1.570796 1.570796 ]
Aggregate results:
[ 7 5 9 11 3 15 ]
[ 0.403442 0.266357 0.142395 0.024750 0.036102 0.126953 ]
3
Num Evals 114
GenUC: 9.787298e-06
GenUB: 8.266798e-06
Optimisation 1.463708e-02
Total Time: 1.506867e-02
3 Add 4
Graph 1:
1 0 0 1 
0 0 0 1 
0 0 1 0 
0 1 0 1 
Graph 2:
1 0 0 1 
0 0 0 1 
0 1 1 1 
1 1 0 1 
Solution: -3 0
Gbest: -3.000000
Expectation: -9.625000
Final Parameters:
Gammas:
[ 1.047198 3.141593 3.141593 3.141593 3.141593 ]
Betas:
[ 0.523599 1.570796 1.570796 1.570796 1.570796 1.570796 ]
Aggregate results:
[ 2 4 6 8 10 15 ]
[ 0.062500 0.093750 0.281250 0.218750 0.093750 0.250000 ]
3
Num Evals 139
GenUC: 8.850126e-06
GenUB: 8.104224e-06
Optimisation 1.000162e-02
Total Time: 1.039259e-02
4 Rem 4
Graph 1:
1 0 0 1 
0 0 0 1 
0 0 1 0 
0 1 0 1 
Graph 2:
0 0 0 0 
0 0 0 0 
0 0 1 0 
0 0 0 1 
Solution: -4 0
Gbest: -4.000000
Expectation: -6.774414
Final Parameters:
Gammas:
[ 1.047198 3.141593 5.235988 3.141593 3.141593 ]
Betas:
[ 1.570796 1.570796 0.523599 1.570796 1.570796 1.570796 ]
Aggregate results:
[ 3 5 15 ]
[ 0.159668 0.730957 0.109375 ]
3
Num Evals 230
GenUC: 7.708120e-06
GenUB: 8.497416e-06
Optimisation 3.658386e-02
Total Time: 3.697266e-02
5 Add/Rem 4
Graph 1:
1 0 0 1 
0 0 0 1 
0 0 1 0 
0 1 0 1 
Graph 2:
0 1 1 1 
0 0 0 1 
0 0 1 0 
1 0 1 0 
Solution: -5 1
Gbest: -5.000000
Expectation: -10.375000
Final Parameters:
Gammas:
[ 1.047198 3.141593 3.141593 3.141593 3.141593 ]
Betas:
[ 0.523599 1.570796 1.570796 1.570796 1.570796 1.570796 ]
Aggregate results:
[ 6 4 8 10 12 15 ]
[ 0.250000 0.031250 0.375000 0.062500 0.031250 0.250000 ]
3
Num Evals 293
GenUC: 8.887670e-06
GenUB: 8.320203e-06
Optimisation 2.417456e-02
Total Time: 2.457179e-02
