Clock Speed: 3.689397
Num threads: 4
Trotterisation: 5
Graph Size: 4
Num Qubits: 5
Space Dimension: 32
Run-Type: 0
Num_samples: 10
1 Isomorphic
Graph 1:
0 0 0 0 
1 1 1 0 
1 1 0 0 
1 1 1 0 
Graph 2:
0 0 0 0 
1 1 1 0 
1 1 0 0 
1 1 1 0 
Solution: 0 0
Gbest: 0.000000
Expectation: -9.197144
Final Parameters:
Gammas:
[ 5.235988 5.235988 3.141593 3.141593 3.141593 ]
Betas:
[ 1.570796 0.523599 1.570796 1.570796 1.570796 1.570796 ]
Aggregate results:
[ -1 5 1 3 7 9 11 15 ]
[ 0.109161 0.230896 0.006989 0.011230 0.197937 0.101471 0.080597 0.261719 ]
3
Num Evals 71
GenUC: 1.179475e-04
GenUB: 1.379068e-05
Optimisation 7.824694e-02
Total Time: 7.878050e-02
2 Flipped
Graph 1:
0 0 0 0 
1 1 1 0 
1 1 0 0 
1 1 1 0 
Graph 2:
0 0 0 0 
0 1 1 1 
0 0 1 1 
0 1 1 1 
Solution: -6 12
Gbest: -6.000000
Expectation: -9.782593
Final Parameters:
Gammas:
[ 1.047198 1.047198 3.141593 3.141593 3.141593 ]
Betas:
[ 1.570796 2.617994 1.570796 1.570796 1.570796 1.570796 ]
Aggregate results:
[ 7 11 9 5 15 ]
[ 0.288727 0.193451 0.135132 0.232300 0.150391 ]
3
Num Evals 108
GenUC: 9.792624e-06
GenUB: 8.422299e-06
Optimisation 1.482008e-02
Total Time: 1.526457e-02
3 Add 4
Graph 1:
0 0 0 0 
1 1 1 0 
1 1 0 0 
1 1 1 0 
Graph 2:
1 0 0 1 
1 1 1 1 
1 1 1 0 
1 1 1 0 
Solution: -4 0
Gbest: -6.000000
Expectation: -8.877930
Final Parameters:
Gammas:
[ 5.235988 5.235988 1.047198 1.047198 3.141593 ]
Betas:
[ 1.570796 1.570796 0.523599 1.570796 1.570796 1.570796 ]
Aggregate results:
[ 3 7 9 5 11 15 ]
[ 0.014893 0.503296 0.229858 0.153442 0.000854 0.097656 ]
3
Num Evals 275
GenUC: 8.885283e-06
GenUB: 8.601346e-06
Optimisation 7.854980e-02
Total Time: 7.895327e-02
4 Rem 4
Graph 1:
0 0 0 0 
1 1 1 0 
1 1 0 0 
1 1 1 0 
Graph 2:
0 0 0 0 
1 1 1 0 
1 1 0 0 
0 0 0 0 
Solution: -3 0
Gbest: -5.000000
Expectation: -9.875000
Final Parameters:
Gammas:
[ 3.141593 1.047198 3.141593 3.141593 3.141593 ]
Betas:
[ 0.523599 1.570796 1.570796 1.570796 1.570796 1.570796 ]
Aggregate results:
[ 2 8 4 6 10 15 ]
[ 0.031250 0.281250 0.093750 0.250000 0.093750 0.250000 ]
3
Num Evals 310
GenUC: 1.039938e-05
GenUB: 8.749776e-06
Optimisation 1.427574e-02
Total Time: 1.467200e-02
5 Add/Rem 4
Graph 1:
0 0 0 0 
1 1 1 0 
1 1 0 0 
1 1 1 0 
Graph 2:
0 1 0 1 
1 1 1 1 
1 1 0 0 
0 0 0 1 
Solution: -3 6
Gbest: -5.000000
Expectation: -9.875000
Final Parameters:
Gammas:
[ 5.235988 3.141593 3.141593 3.141593 3.141593 ]
Betas:
[ 2.617994 1.570796 1.570796 1.570796 1.570796 1.570796 ]
Aggregate results:
[ 6 10 8 2 4 15 ]
[ 0.343750 0.125000 0.187500 0.031250 0.062500 0.250000 ]
3
Num Evals 337
GenUC: 9.117648e-06
GenUB: 8.674688e-06
Optimisation 1.199029e-02
Total Time: 1.269573e-02
