Clock Speed: 3.689303
Num threads: 4
Trotterisation: 6
Graph Size: 8
Num Qubits: 16
Space Dimension: 65536
Run-Type: 0
Num_samples: 10
1 Isomorphic
Graph 1:
0 0 1 0 0 1 1 1 
1 0 1 1 0 0 1 1 
1 1 1 1 1 0 0 0 
1 0 0 1 0 0 0 0 
0 1 1 1 1 1 0 0 
1 0 1 0 0 1 1 0 
0 1 1 0 1 0 1 1 
0 0 0 1 0 0 0 0 
Graph 2:
0 0 1 0 0 1 1 1 
1 0 1 1 0 0 1 1 
1 1 1 1 1 0 0 0 
1 0 0 1 0 0 0 0 
0 1 1 1 1 1 0 0 
1 0 1 0 0 1 1 0 
0 1 1 0 1 0 1 1 
0 0 0 1 0 0 0 0 
Solution: 0 0
Gbest: -28.000000
Expectation: -43.671749
Final Parameters:
Gammas:
[ 5.235988 3.141593 3.141593 3.141593 3.141593 3.141593 ]
Betas:
[ 1.570796 1.570796 1.570796 1.570796 1.570796 1.570796 2.617994 ]
Aggregate results:
[ -1 13 21 11 19 27 25 23 31 17 29 15 33 9 35 37 39 41 43 45 63 ]
[ 0.000027 0.000275 0.008397 0.000118 0.002707 0.083946 0.046487 0.020881 0.120908 0.001439 0.110640 0.000497 0.104532 0.000048 0.069305 0.037186 0.013532 0.004497 0.000910 0.000125 0.373540 ]
3
Num Evals 33
GenUC: 4.605046e-03
GenUB: 1.743794e-02
Optimisation 1.495594e+01
Total Time: 1.545239e+01
2 Flipped
Graph 1:
0 0 1 0 0 1 1 1 
1 0 1 1 0 0 1 1 
1 1 1 1 1 0 0 0 
1 0 0 1 0 0 0 0 
0 1 1 1 1 1 0 0 
1 0 1 0 0 1 1 0 
0 1 1 0 1 0 1 1 
0 0 0 1 0 0 0 0 
Graph 2:
1 1 1 0 0 1 0 0 
1 1 0 0 1 1 0 1 
0 0 0 1 1 1 1 1 
0 0 0 0 1 0 0 1 
0 0 1 1 1 1 1 0 
0 1 1 0 0 1 0 1 
1 1 0 1 0 1 1 0 
0 0 0 0 1 0 0 0 
Solution: -12 22903
Gbest: -28.000000
Expectation: -43.755396
Final Parameters:
Gammas:
[ 1.047198 3.141593 3.141593 3.141593 3.141593 3.141593 ]
Betas:
[ 1.570796 1.570796 1.570796 1.570796 1.570796 1.570796 2.617994 ]
Aggregate results:
[ 33 31 27 29 37 35 25 23 21 19 17 39 41 43 45 15 47 13 11 63 ]
[ 0.104921 0.124851 0.079123 0.111064 0.035859 0.071356 0.045693 0.021251 0.008523 0.002507 0.000601 0.014054 0.004261 0.000827 0.000169 0.000261 0.000005 0.000017 0.000009 0.374648 ]
3
Num Evals 66
GenUC: 2.422402e-03
GenUB: 1.685167e-02
Optimisation 1.467780e+01
Total Time: 1.516886e+01
3 Add 8
Graph 1:
0 0 1 0 0 1 1 1 
1 0 1 1 0 0 1 1 
1 1 1 1 1 0 0 0 
1 0 0 1 0 0 0 0 
0 1 1 1 1 1 0 0 
1 0 1 0 0 1 1 0 
0 1 1 0 1 0 1 1 
0 0 0 1 0 0 0 0 
Graph 2:
1 0 1 0 0 1 1 1 
1 1 1 1 0 0 1 1 
1 1 1 1 1 0 0 0 
1 0 0 1 0 0 0 0 
1 1 1 1 1 1 0 0 
1 0 1 0 0 1 1 0 
0 1 1 1 1 1 1 1 
0 1 0 1 0 0 0 0 
Solution: -6 0
Gbest: -24.000000
Expectation: -43.502663
Final Parameters:
Gammas:
[ 1.047198 3.141593 3.141593 3.141593 3.141593 3.141593 ]
Betas:
[ 1.570796 1.570796 1.570796 1.570796 1.570796 1.570796 2.617994 ]
Aggregate results:
[ 5 17 23 15 21 27 25 19 13 29 31 33 35 37 39 43 41 45 63 ]
[ 0.000037 0.000924 0.021784 0.000119 0.007761 0.089868 0.049461 0.002185 0.000189 0.119909 0.126119 0.100990 0.062922 0.029884 0.011119 0.000658 0.002975 0.000147 0.372950 ]
3
Num Evals 99
GenUC: 2.992862e-03
GenUB: 1.687098e-02
Optimisation 1.472597e+01
Total Time: 1.521701e+01
4 Rem 8
Graph 1:
0 0 1 0 0 1 1 1 
1 0 1 1 0 0 1 1 
1 1 1 1 1 0 0 0 
1 0 0 1 0 0 0 0 
0 1 1 1 1 1 0 0 
1 0 1 0 0 1 1 0 
0 1 1 0 1 0 1 1 
0 0 0 1 0 0 0 0 
Graph 2:
0 0 0 0 0 1 1 0 
1 0 1 1 0 0 1 1 
1 1 1 1 1 0 0 0 
1 0 0 1 0 0 0 0 
0 0 1 1 0 0 0 0 
0 0 1 0 0 1 1 0 
0 1 1 0 1 0 0 1 
0 0 0 1 0 0 0 0 
Solution: -7 0
Gbest: -27.000000
Expectation: -33.982936
Final Parameters:
Gammas:
[ 3.141593 3.141593 3.141593 3.141593 3.141593 3.141593 ]
Betas:
[ 1.570796 1.570796 1.570796 1.570796 1.221730 1.570796 2.268928 ]
Aggregate results:
[ 6 16 26 24 30 18 32 20 36 28 22 12 34 38 40 42 14 44 46 63 ]
[ 0.000004 0.000142 0.101128 0.051348 0.186624 0.001084 0.175380 0.004839 0.060779 0.160759 0.018022 0.000062 0.123180 0.023377 0.008142 0.002030 0.000098 0.000664 0.000001 0.082337 ]
3
Num Evals 396
GenUC: 2.972389e-03
GenUB: 1.680505e-02
Optimisation 1.363716e+02
Total Time: 1.368457e+02
5 Add/Rem 8
Graph 1:
0 0 1 0 0 1 1 1 
1 0 1 1 0 0 1 1 
1 1 1 1 1 0 0 0 
1 0 0 1 0 0 0 0 
0 1 1 1 1 1 0 0 
1 0 1 0 0 1 1 0 
0 1 1 0 1 0 1 1 
0 0 0 1 0 0 0 0 
Graph 2:
0 0 0 0 1 1 1 1 
1 0 0 1 0 0 0 0 
1 1 1 1 1 0 1 0 
1 0 0 1 0 0 1 0 
0 1 1 1 1 0 1 1 
0 1 1 0 0 0 1 0 
1 1 1 0 1 0 1 1 
0 0 0 1 0 0 0 1 
Solution: -15 0
Gbest: -25.000000
Expectation: -34.138472
Final Parameters:
Gammas:
[ 3.141593 3.141593 3.141593 3.141593 3.141593 3.141593 ]
Betas:
[ 1.570796 1.570796 1.570796 1.570796 1.221730 1.570796 2.268928 ]
Aggregate results:
[ 14 22 24 16 26 28 30 32 20 34 18 36 38 40 42 44 46 63 ]
[ 0.000004 0.022438 0.055148 0.000174 0.096927 0.144859 0.177007 0.165243 0.008555 0.120370 0.001977 0.071269 0.034379 0.014059 0.004130 0.000893 0.000229 0.082337 ]
3
Num Evals 669
GenUC: 2.916411e-03
GenUB: 1.665719e-02
Optimisation 1.269327e+02
Total Time: 1.274097e+02
