Clock Speed: 3.689407
Num threads: 4
Trotterisation: 2
Graph Size: 5
Num Qubits: 7
Space Dimension: 128
Run-Type: 0
Num_samples: 10
1 Isomorphic
Graph 1:
0 1 1 1 0 
1 1 0 0 1 
1 0 1 1 1 
0 0 1 0 1 
1 0 1 1 0 
Graph 2:
0 1 1 1 0 
1 1 0 0 1 
1 0 1 1 1 
0 0 1 0 1 
1 0 1 1 0 
Solution: 0 0
Gbest: -6.000000
Expectation: -9.060947
Final Parameters:
Gammas:
[ 3.446099 3.161776 ]
Betas:
[ 2.869251 1.218148 1.680558 ]
Aggregate results:
[ -1 11 13 5 9 15 3 7 17 24 ]
[ 0.033293 0.170100 0.052956 0.163848 0.227628 0.012387 0.032214 0.288894 0.012314 0.006366 ]
5
Num Evals 500
GenUC: 1.439698e-04
GenUB: 2.981319e-05
Optimisation 1.809557e-01
Total Time: 1.815103e-01
2 Flipped
Graph 1:
0 1 1 1 0 
1 1 0 0 1 
1 0 1 1 1 
0 0 1 0 1 
1 0 1 1 0 
Graph 2:
0 1 1 1 0 
1 0 0 1 1 
1 1 1 0 1 
1 0 1 0 0 
0 1 1 0 1 
Solution: -4 63
Gbest: -6.000000
Expectation: -9.751451
Final Parameters:
Gammas:
[ 3.433408 3.124430 ]
Betas:
[ 2.674780 1.547820 1.357476 ]
Aggregate results:
[ 9 11 15 13 7 17 5 3 24 ]
[ 0.244542 0.208738 0.023339 0.029308 0.363275 0.015137 0.083847 0.021888 0.009925 ]
5
Num Evals 1000
GenUC: 2.350231e-05
GenUB: 1.813567e-05
Optimisation 1.758563e-01
Total Time: 1.762571e-01
3 Add 5
Graph 1:
0 1 1 1 0 
1 1 0 0 1 
1 0 1 1 1 
0 0 1 0 1 
1 0 1 1 0 
Graph 2:
1 1 1 1 0 
1 1 0 0 1 
1 0 1 1 1 
0 1 1 1 1 
1 1 1 1 0 
Solution: -4 0
Gbest: -8.000000
Expectation: -11.338758
Final Parameters:
Gammas:
[ 3.349382 3.448152 ]
Betas:
[ 2.959843 2.076802 1.668488 ]
Aggregate results:
[ 3 11 5 13 9 7 15 24 ]
[ 0.014204 0.268779 0.014542 0.170872 0.245836 0.218310 0.034903 0.032554 ]
5
Num Evals 1500
GenUC: 2.093548e-05
GenUB: 1.699603e-05
Optimisation 1.980051e-01
Total Time: 1.984312e-01
4 Rem 5
Graph 1:
0 1 1 1 0 
1 1 0 0 1 
1 0 1 1 1 
0 0 1 0 1 
1 0 1 1 0 
Graph 2:
0 1 1 0 0 
1 1 0 0 1 
1 0 1 0 1 
0 0 0 0 1 
0 0 1 1 0 
Solution: -4 0
Gbest: -4.000000
Expectation: -11.921322
Final Parameters:
Gammas:
[ 3.340837 3.222309 ]
Betas:
[ 2.933063 2.351000 1.324181 ]
Aggregate results:
[ 3 11 5 13 9 15 7 17 21 19 24 ]
[ 0.031782 0.319565 0.065355 0.115604 0.173266 0.071528 0.132036 0.030089 0.012705 0.001488 0.046583 ]
5
Num Evals 2000
GenUC: 2.171422e-05
GenUB: 1.707408e-05
Optimisation 1.982111e-01
Total Time: 1.986319e-01
5 Add/Rem 5
Graph 1:
0 1 1 1 0 
1 1 0 0 1 
1 0 1 1 1 
0 0 1 0 1 
1 0 1 1 0 
Graph 2:
0 1 0 1 0 
0 0 0 1 1 
1 0 0 1 0 
0 1 1 1 1 
1 0 1 1 0 
Solution: -6 39
Gbest: -6.000000
Expectation: -10.117253
Final Parameters:
Gammas:
[ 3.470083 4.207284 ]
Betas:
[ 3.141593 1.355545 1.564717 ]
Aggregate results:
[ 7 13 11 9 15 5 24 ]
[ 0.287088 0.033115 0.204446 0.424326 0.011939 0.026729 0.012357 ]
3
Num Evals 2497
GenUC: 2.277053e-05
GenUB: 1.725365e-05
Optimisation 1.899513e-01
Total Time: 1.905915e-01
