Clock Speed: 3.688968
Num threads: 4
Trotterisation: 1
Graph Size: 6
Num Qubits: 10
Space Dimension: 1024
Run-Type: 0
Num_samples: 10
1 Isomorphic
Graph 1:
0 0 0 0 0 1 
0 1 0 0 1 0 
1 0 1 0 0 0 
1 1 1 0 0 0 
0 0 0 1 1 0 
1 0 0 1 0 0 
Graph 2:
0 0 0 0 0 1 
0 1 0 0 1 0 
1 0 1 0 0 0 
1 1 1 0 0 0 
0 0 0 1 1 0 
1 0 0 1 0 0 
Solution: 0 0
Gbest: -10.000000
Expectation: -16.246523
Final Parameters:
Gammas:
[ 0.077983 ]
Betas:
[ 2.789685 2.827862 ]
Aggregate results:
[ -1 9 3 7 13 19 15 17 21 11 5 23 35 ]
[ 0.002890 0.050918 0.001918 0.017064 0.246871 0.077894 0.211678 0.167706 0.024925 0.139488 0.004477 0.002141 0.052030 ]
5
Num Evals 600
GenUC: 2.896009e-04
GenUB: 1.935254e-04
Optimisation 4.970151e-01
Total Time: 4.986795e-01
2 Flipped
Graph 1:
0 0 0 0 0 1 
0 1 0 0 1 0 
1 0 1 0 0 0 
1 1 1 0 0 0 
0 0 0 1 1 0 
1 0 0 1 0 0 
Graph 2:
1 0 0 0 0 0 
0 1 0 0 1 0 
0 0 0 1 0 1 
0 0 0 1 1 1 
0 1 1 0 0 0 
0 0 1 0 0 1 
Solution: -6 218
Gbest: -10.000000
Expectation: -16.279932
Final Parameters:
Gammas:
[ 0.225153 ]
Betas:
[ 0.826458 0.475424 ]
Aggregate results:
[ 19 21 15 13 9 11 17 7 5 35 ]
[ 0.063731 0.013005 0.207757 0.238259 0.077082 0.164939 0.133460 0.026498 0.000486 0.074784 ]
5
Num Evals 1200
GenUC: 1.208712e-04
GenUB: 1.420772e-04
Optimisation 3.813279e-01
Total Time: 3.821260e-01
3 Add 6
Graph 1:
0 0 0 0 0 1 
0 1 0 0 1 0 
1 0 1 0 0 0 
1 1 1 0 0 0 
0 0 0 1 1 0 
1 0 0 1 0 0 
Graph 2:
1 0 0 0 0 1 
0 1 0 0 1 1 
1 1 1 0 0 0 
1 1 1 0 0 1 
0 0 1 1 1 0 
1 0 1 1 0 0 
Solution: -6 0
Gbest: -12.000000
Expectation: -19.743705
Final Parameters:
Gammas:
[ 3.104943 ]
Betas:
[ 0.884496 0.532263 ]
Aggregate results:
[ 5 9 11 15 13 19 21 23 17 25 7 27 35 ]
[ 0.001123 0.015643 0.047195 0.170122 0.124305 0.191819 0.101593 0.018328 0.205124 0.006223 0.002503 0.001272 0.114751 ]
5
Num Evals 1800
GenUC: 1.339431e-04
GenUB: 1.709650e-04
Optimisation 3.777263e-01
Total Time: 3.785941e-01
4 Rem 6
Graph 1:
0 0 0 0 0 1 
0 1 0 0 1 0 
1 0 1 0 0 0 
1 1 1 0 0 0 
0 0 0 1 1 0 
1 0 0 1 0 0 
Graph 2:
0 0 0 0 0 1 
0 0 0 0 1 0 
1 0 0 0 0 0 
0 1 1 0 0 0 
0 0 0 1 0 0 
0 0 0 1 0 0 
Solution: -5 0
Gbest: -11.000000
Expectation: -15.530890
Final Parameters:
Gammas:
[ 3.229497 ]
Betas:
[ 0.613555 0.471610 ]
Aggregate results:
[ 4 10 8 12 16 14 18 6 35 ]
[ 0.002326 0.094419 0.030757 0.237514 0.209867 0.314379 0.065763 0.001236 0.043738 ]
5
Num Evals 2400
GenUC: 1.085094e-04
GenUB: 1.698406e-04
Optimisation 3.044041e-01
Total Time: 3.051881e-01
5 Add/Rem 6
Graph 1:
0 0 0 0 0 1 
0 1 0 0 1 0 
1 0 1 0 0 0 
1 1 1 0 0 0 
0 0 0 1 1 0 
1 0 0 1 0 0 
Graph 2:
0 0 0 0 0 0 
0 1 1 0 1 1 
1 1 1 0 0 0 
0 1 0 0 1 1 
0 1 0 0 1 0 
1 0 0 0 0 0 
Solution: -9 362
Gbest: -11.000000
Expectation: -16.815630
Final Parameters:
Gammas:
[ 3.240775 ]
Betas:
[ 0.022665 0.426045 ]
Aggregate results:
[ 10 14 16 12 18 20 22 8 35 ]
[ 0.059166 0.281981 0.274189 0.150683 0.140973 0.027996 0.003919 0.008922 0.052171 ]
5
Num Evals 3000
GenUC: 1.268916e-04
GenUB: 1.615615e-04
Optimisation 3.305538e-01
Total Time: 3.311897e-01
