Clock Speed: 3.498932
Num threads: 16
Trotterisation: 2
Num Qubits: 19
Space Dimension: 524288
Run-Type: 0
Num_samples: 81
Optimiser Method: 20
1 Isomorphic
Graph 1:
1 1 0 1 1 0 0 1 1 
0 0 0 0 0 1 0 1 0 
0 0 1 1 0 0 1 0 0 
1 0 1 1 1 1 1 0 1 
0 0 1 1 1 1 0 1 1 
1 1 1 1 0 1 1 0 0 
0 1 0 0 1 0 0 0 1 
0 0 0 0 0 0 1 0 0 
0 1 0 0 1 1 1 0 0 
Graph 2:
1 1 0 1 1 0 0 1 1 
0 0 0 0 0 1 0 1 0 
0 0 1 1 0 0 1 0 0 
1 0 1 1 1 1 1 0 1 
0 0 1 1 1 1 0 1 1 
1 1 1 1 0 1 1 0 0 
0 1 0 0 1 0 0 0 1 
0 0 0 0 0 0 1 0 0 
0 1 0 0 1 1 1 0 0 
Solution: 81 0
Classic Expectation: 40.805556
Initial Expecation: 28.243103
Gbest: 57.000000
Expectation: 31.184721
Final Parameters:
Gammas:
[ 3.491570 1.397159 ]
Betas:
[ 2.571662 0.147484 ]
Aggregate results:
[ 81 69 59 51 47 53 65 55 63 43 61 49 45 57 41 67 39 37 35 31 33 71 29 27 25 23 21 0 ]
[ 0.000005 0.000015 0.000397 0.014423 0.050142 0.006487 0.000020 0.002513 0.000035 0.105655 0.000131 0.032409 0.084314 0.001039 0.122803 0.000017 0.118336 0.095418 0.067796 0.019182 0.035515 0.000009 0.006295 0.002569 0.000501 0.000138 0.000010 0.233826 ]
5
Num Evals 3600
GenUC: 1.783942e-01
GenUB: 1.331020e-01
Optimisation 4.765861e+03
Total Time: 4.766172e+03
2 Flipped
Graph 1:
1 1 0 1 1 0 0 1 1 
0 0 0 0 0 1 0 1 0 
0 0 1 1 0 0 1 0 0 
1 0 1 1 1 1 1 0 1 
0 0 1 1 1 1 0 1 1 
1 1 1 1 0 1 1 0 0 
0 1 0 0 1 0 0 0 1 
0 0 0 0 0 0 1 0 0 
0 1 0 0 1 1 1 0 0 
Graph 2:
1 1 0 0 1 1 0 1 1 
0 1 0 1 0 0 0 0 0 
0 0 1 0 0 1 1 0 0 
1 0 1 1 1 1 1 0 1 
1 1 0 1 1 1 1 0 0 
0 0 1 1 0 1 1 1 1 
1 0 0 0 1 0 0 1 0 
0 0 1 0 0 0 0 0 0 
0 0 1 1 1 0 0 1 0 
Solution: 65 358865
Classic Expectation: 41.000000
Initial Expecation: 28.377686
Gbest: 53.000000
Expectation: 30.854058
Final Parameters:
Gammas:
[ 2.387918 0.717744 ]
Betas:
[ 2.974635 3.056035 ]
Aggregate results:
[ 51 49 47 45 41 43 55 53 39 57 35 37 59 61 33 31 29 27 25 63 23 21 19 65 0 ]
[ 0.021623 0.042467 0.063092 0.086995 0.134777 0.122579 0.003278 0.008536 0.099049 0.001219 0.046467 0.063917 0.000364 0.000105 0.028744 0.010912 0.002989 0.000934 0.000253 0.000032 0.000068 0.000013 0.000000 0.000006 0.261581 ]
5
Num Evals 3600
GenUC: 2.207109e-01
GenUB: 1.324454e-01
Optimisation 8.371523e+03
Total Time: 8.371877e+03
3 Add 9
Graph 1:
1 1 0 1 1 0 0 1 1 
0 0 0 0 0 1 0 1 0 
0 0 1 1 0 0 1 0 0 
1 0 1 1 1 1 1 0 1 
0 0 1 1 1 1 0 1 1 
1 1 1 1 0 1 1 0 0 
0 1 0 0 1 0 0 0 1 
0 0 0 0 0 0 1 0 0 
0 1 0 0 1 1 1 0 0 
Graph 2:
1 1 0 1 1 1 0 1 1 
0 0 0 0 0 1 0 1 1 
0 0 1 1 1 0 1 1 0 
1 0 1 1 1 1 1 0 1 
0 0 1 1 1 1 0 1 1 
1 1 1 1 0 1 1 0 0 
1 1 0 0 1 0 0 0 1 
0 0 0 0 1 0 1 1 0 
1 1 0 1 1 1 1 0 0 
Solution: 72 0
Classic Expectation: 40.250000
Initial Expecation: 27.858582
Gbest: 50.000000
Expectation: 35.427926
Final Parameters:
Gammas:
[ 6.169309 1.902629 ]
Betas:
[ 2.262618 1.376141 ]
Aggregate results:
[ 72 64 54 56 52 60 48 50 44 46 62 58 42 40 38 36 34 32 30 28 26 24 22 0 ]
[ 0.000006 0.000012 0.002131 0.000573 0.005877 0.000066 0.034682 0.015967 0.104723 0.065903 0.000040 0.000176 0.139556 0.154139 0.140538 0.105499 0.063213 0.031962 0.012677 0.003809 0.000984 0.000192 0.000015 0.117260 ]
5
Num Evals 3600
GenUC: 2.204488e-01
GenUB: 1.301131e-01
Optimisation 6.028098e+03
Total Time: 6.028448e+03
4 Rem 9
Graph 1:
1 1 0 1 1 0 0 1 1 
0 0 0 0 0 1 0 1 0 
0 0 1 1 0 0 1 0 0 
1 0 1 1 1 1 1 0 1 
0 0 1 1 1 1 0 1 1 
1 1 1 1 0 1 1 0 0 
0 1 0 0 1 0 0 0 1 
0 0 0 0 0 0 1 0 0 
0 1 0 0 1 1 1 0 0 
Graph 2:
1 1 0 1 0 0 0 1 1 
0 0 0 0 0 1 0 1 0 
0 0 1 1 0 0 1 0 0 
1 0 1 1 1 0 0 0 1 
0 0 1 1 1 1 0 1 1 
1 1 0 1 0 1 1 0 0 
0 1 0 0 1 0 0 0 0 
0 0 0 0 0 0 1 0 0 
0 1 0 0 1 1 0 0 0 
Solution: 75 0
Classic Expectation: 41.305556
Initial Expecation: 28.589172
Gbest: 53.000000
Expectation: 35.182242
Final Parameters:
Gammas:
[ 2.976562 3.337347 ]
Betas:
[ 2.725246 0.717472 ]
Aggregate results:
[ 75 65 59 57 63 51 47 53 49 61 45 43 55 41 39 37 31 33 35 67 29 27 25 23 21 19 0 ]
[ 0.000009 0.000029 0.000306 0.000906 0.000033 0.018596 0.072823 0.007298 0.039270 0.000055 0.112195 0.138535 0.002659 0.144454 0.122921 0.088502 0.012139 0.026722 0.052410 0.000004 0.004496 0.001651 0.000368 0.000093 0.000009 0.000002 0.153514 ]
5
Num Evals 3600
GenUC: 2.204026e-01
GenUB: 1.303985e-01
Optimisation 5.769612e+03
Total Time: 5.769962e+03
5 Add/Rem 9
Graph 1:
1 1 0 1 1 0 0 1 1 
0 0 0 0 0 1 0 1 0 
0 0 1 1 0 0 1 0 0 
1 0 1 1 1 1 1 0 1 
0 0 1 1 1 1 0 1 1 
1 1 1 1 0 1 1 0 0 
0 1 0 0 1 0 0 0 1 
0 0 0 0 0 0 1 0 0 
0 1 0 0 1 1 1 0 0 
Graph 2:
1 1 0 1 1 0 0 1 0 
0 0 0 1 0 1 0 0 0 
1 0 1 1 0 1 0 0 0 
1 0 1 0 1 1 1 0 1 
0 0 1 0 1 1 0 1 0 
1 0 1 1 0 1 1 0 0 
0 1 0 0 1 1 1 0 1 
1 0 0 0 1 0 0 0 0 
0 1 0 1 1 1 1 0 0 
Solution: 65 0
Classic Expectation: 40.805556
Initial Expecation: 28.243103
Gbest: 55.000000
Expectation: 36.434485
Final Parameters:
Gammas:
[ 6.243180 4.231311 ]
Betas:
[ 2.596510 0.003544 ]
Aggregate results:
[ 65 57 51 55 63 53 47 41 45 39 49 43 37 59 33 35 31 29 61 27 25 23 0 ]
[ 0.000001 0.000339 0.012782 0.001312 0.000004 0.004236 0.062419 0.158676 0.105048 0.145116 0.031207 0.142132 0.108078 0.000060 0.033148 0.066052 0.013426 0.004527 0.000017 0.001292 0.000281 0.000035 0.109811 ]
5
Num Evals 3600
GenUC: 2.203836e-01
GenUB: 1.311436e-01
Optimisation 7.620061e+03
Total Time: 7.620413e+03
