Clock Speed: 3.688769
Num threads: 4
Trotterisation: 1
Graph Size: 6
Num Qubits: 10
Space Dimension: 1024
Run-Type: 0
Num_samples: 10
1 Isomorphic
Graph 1:
1 1 0 1 0 0 
0 0 0 0 1 0 
1 0 1 1 0 1 
1 0 1 0 0 1 
1 0 0 0 0 1 
0 1 0 0 0 1 
Graph 2:
1 1 0 1 0 0 
0 0 0 0 1 0 
1 0 1 1 0 1 
1 0 1 0 0 1 
1 0 0 0 0 1 
0 1 0 0 0 1 
Solution: 0 0
Gbest: -12.000000
Expectation: -19.001769
Final Parameters:
Gammas:
[ 2.721038 ]
Betas:
[ 1.456476 0.258113 ]
Aggregate results:
[ -1 15 7 9 17 3 11 13 19 21 23 1 35 ]
[ 0.002120 0.212298 0.011498 0.043843 0.105811 0.000167 0.113483 0.197358 0.069795 0.074210 0.003192 0.001315 0.164910 ]
3
Num Evals 137
GenUC: 3.737007e-04
GenUB: 1.954872e-04
Optimisation 8.497075e-02
Total Time: 8.612785e-02
2 Flipped
Graph 1:
1 1 0 1 0 0 
0 0 0 0 1 0 
1 0 1 1 0 1 
1 0 1 0 0 1 
1 0 0 0 0 1 
0 1 0 0 0 1 
Graph 2:
0 0 1 0 1 1 
0 1 0 0 0 0 
1 0 1 1 0 1 
1 0 0 1 0 1 
1 0 0 0 0 1 
1 0 0 0 1 0 
Solution: -12 11
Gbest: -16.000000
Expectation: -19.650193
Final Parameters:
Gammas:
[ 2.739494 ]
Betas:
[ 1.570015 0.581939 ]
Aggregate results:
[ 13 17 19 15 11 23 21 35 ]
[ 0.124696 0.276744 0.180487 0.235002 0.017390 0.005684 0.039406 0.120590 ]
3
Num Evals 226
GenUC: 1.279555e-04
GenUB: 1.427955e-04
Optimisation 5.827529e-02
Total Time: 5.919793e-02
3 Add 6
Graph 1:
1 1 0 1 0 0 
0 0 0 0 1 0 
1 0 1 1 0 1 
1 0 1 0 0 1 
1 0 0 0 0 1 
0 1 0 0 0 1 
Graph 2:
1 1 0 1 0 0 
1 1 1 0 1 0 
1 0 1 1 0 1 
1 1 1 0 0 1 
1 0 0 1 0 1 
0 1 0 0 0 1 
Solution: -5 0
Gbest: -13.000000
Expectation: -23.484375
Final Parameters:
Gammas:
[ 3.102641 ]
Betas:
[ 1.568301 1.570796 ]
Aggregate results:
[ 4 14 12 10 18 16 8 22 20 24 26 6 35 ]
[ 0.000977 0.120117 0.042969 0.006836 0.180664 0.149414 0.002930 0.050781 0.127930 0.015625 0.003906 0.000977 0.296875 ]
3
Num Evals 238
GenUC: 1.323803e-04
GenUB: 1.601941e-04
Optimisation 9.460826e-03
Total Time: 1.053203e-02
4 Rem 6
Graph 1:
1 1 0 1 0 0 
0 0 0 0 1 0 
1 0 1 1 0 1 
1 0 1 0 0 1 
1 0 0 0 0 1 
0 1 0 0 0 1 
Graph 2:
1 0 0 1 0 0 
0 0 0 0 1 0 
0 0 1 1 0 1 
0 0 1 0 0 0 
1 0 0 0 0 1 
0 1 0 0 0 0 
Solution: -5 0
Gbest: -13.000000
Expectation: -22.359375
Final Parameters:
Gammas:
[ 3.102323 ]
Betas:
[ 1.570796 1.570796 ]
Aggregate results:
[ 4 14 16 18 8 12 10 20 22 6 35 ]
[ 0.000977 0.132813 0.215820 0.155273 0.009766 0.088867 0.027344 0.059570 0.010742 0.001953 0.296875 ]
3
Num Evals 250
GenUC: 1.237761e-04
GenUB: 1.574999e-04
Optimisation 2.137440e-02
Total Time: 2.246038e-02
5 Add/Rem 6
Graph 1:
1 1 0 1 0 0 
0 0 0 0 1 0 
1 0 1 1 0 1 
1 0 1 0 0 1 
1 0 0 0 0 1 
0 1 0 0 0 1 
Graph 2:
1 1 0 1 1 0 
0 0 0 0 1 0 
1 0 0 0 1 1 
0 0 0 0 1 0 
1 0 0 1 1 1 
1 1 0 0 0 1 
Solution: -7 61
Gbest: -13.000000
Expectation: -23.062500
Final Parameters:
Gammas:
[ 3.102323 ]
Betas:
[ 1.570796 1.570796 ]
Aggregate results:
[ 10 20 18 12 16 14 22 8 6 24 35 ]
[ 0.018555 0.097656 0.168945 0.068359 0.171875 0.119141 0.043945 0.002930 0.000977 0.010742 0.296875 ]
3
Num Evals 262
GenUC: 1.319930e-04
GenUB: 1.681293e-04
Optimisation 9.133786e-03
Total Time: 1.018635e-02
