Clock Speed: 3.689018
Num threads: 4
Trotterisation: 1
Graph Size: 8
Num Qubits: 16
Space Dimension: 65536
Run-Type: 0
Num_samples: 10
1 Isomorphic
Graph 1:
1 1 0 0 0 0 0 0 
0 1 1 1 0 1 1 1 
1 0 1 0 0 0 1 1 
1 1 1 0 0 0 1 0 
0 0 1 0 0 1 1 1 
0 0 1 0 1 0 0 1 
1 1 0 0 0 1 1 1 
1 0 1 0 1 1 0 1 
Graph 2:
1 1 0 0 0 0 0 0 
0 1 1 1 0 1 1 1 
1 0 1 0 0 0 1 1 
1 1 1 0 0 0 1 0 
0 0 1 0 0 1 1 1 
0 0 1 0 1 0 0 1 
1 1 0 0 0 1 1 1 
1 0 1 0 1 1 0 1 
Solution: 0 0
Gbest: -22.000000
Expectation: -33.376046
Final Parameters:
Gammas:
[ 0.044664 ]
Betas:
[ 1.742404 2.540878 ]
Aggregate results:
[ -1 15 17 21 23 27 13 11 31 29 25 33 19 35 37 5 39 9 43 41 45 47 63 ]
[ 0.000036 0.001309 0.002879 0.016968 0.035020 0.113863 0.000610 0.000478 0.178580 0.158688 0.069877 0.159010 0.007342 0.107242 0.058542 0.000074 0.024598 0.000077 0.001374 0.006537 0.000228 0.000049 0.056619 ]
5
Num Evals 800
GenUC: 3.521066e-03
GenUB: 1.728207e-02
Optimisation 1.001896e+02
Total Time: 1.003628e+02
2 Flipped
Graph 1:
1 1 0 0 0 0 0 0 
0 1 1 1 0 1 1 1 
1 0 1 0 0 0 1 1 
1 1 1 0 0 0 1 0 
0 0 1 0 0 1 1 1 
0 0 1 0 1 0 0 1 
1 1 0 0 0 1 1 1 
1 0 1 0 1 1 0 1 
Graph 2:
0 0 0 0 0 0 1 1 
1 1 1 0 1 1 1 0 
1 1 0 0 0 1 0 1 
0 1 0 0 0 1 1 1 
1 1 1 0 0 1 0 0 
1 0 0 1 0 1 0 0 
1 1 1 0 0 0 1 1 
1 0 1 1 0 1 0 1 
Solution: -16 80
Gbest: -26.000000
Expectation: -33.937172
Final Parameters:
Gammas:
[ 0.043375 ]
Betas:
[ 0.098408 2.712738 ]
Aggregate results:
[ 29 31 27 25 37 35 33 39 41 21 19 23 15 17 43 45 63 ]
[ 0.152943 0.177668 0.109488 0.065652 0.068395 0.119265 0.161403 0.029255 0.009064 0.011296 0.002832 0.029785 0.000088 0.000626 0.002505 0.000347 0.059390 ]
5
Num Evals 1600
GenUC: 2.611025e-03
GenUB: 1.674546e-02
Optimisation 8.450320e+01
Total Time: 8.463082e+01
3 Add 8
Graph 1:
1 1 0 0 0 0 0 0 
0 1 1 1 0 1 1 1 
1 0 1 0 0 0 1 1 
1 1 1 0 0 0 1 0 
0 0 1 0 0 1 1 1 
0 0 1 0 1 0 0 1 
1 1 0 0 0 1 1 1 
1 0 1 0 1 1 0 1 
Graph 2:
1 1 0 0 0 1 0 1 
0 1 1 1 0 1 1 1 
1 0 1 0 0 0 1 1 
1 1 1 1 0 0 1 0 
0 0 1 0 1 1 1 1 
0 0 1 0 1 0 1 1 
1 1 1 0 0 1 1 1 
1 0 1 0 1 1 1 1 
Solution: -7 0
Gbest: -25.000000
Expectation: -33.467368
Final Parameters:
Gammas:
[ 3.181550 ]
Betas:
[ 1.665555 0.536526 ]
Aggregate results:
[ 6 18 16 22 24 26 28 20 32 30 34 36 38 10 12 14 40 42 44 63 ]
[ 0.000028 0.002321 0.001068 0.019889 0.051994 0.101401 0.160466 0.007817 0.177796 0.196177 0.118498 0.061997 0.022074 0.000073 0.000143 0.000251 0.005944 0.000945 0.000066 0.071055 ]
5
Num Evals 2400
GenUC: 2.885817e-03
GenUB: 1.682958e-02
Optimisation 7.649899e+01
Total Time: 7.662083e+01
4 Rem 8
Graph 1:
1 1 0 0 0 0 0 0 
0 1 1 1 0 1 1 1 
1 0 1 0 0 0 1 1 
1 1 1 0 0 0 1 0 
0 0 1 0 0 1 1 1 
0 0 1 0 1 0 0 1 
1 1 0 0 0 1 1 1 
1 0 1 0 1 1 0 1 
Graph 2:
1 1 0 0 0 0 0 0 
0 0 1 1 0 1 1 1 
1 0 0 0 0 0 1 0 
1 1 1 0 0 0 1 0 
0 0 1 0 0 1 1 1 
0 0 0 0 1 0 0 0 
1 0 0 0 0 1 1 1 
1 0 1 0 1 1 0 0 
Solution: -7 0
Gbest: -29.000000
Expectation: -34.586364
Final Parameters:
Gammas:
[ 0.040528 ]
Betas:
[ 1.821655 2.712781 ]
Aggregate results:
[ 6 22 16 20 18 28 14 24 26 32 30 36 34 40 12 38 42 44 46 8 63 ]
[ 0.000027 0.013590 0.000928 0.005446 0.001731 0.117028 0.000265 0.033110 0.069177 0.179792 0.169551 0.104236 0.159832 0.020618 0.000122 0.051773 0.005980 0.000976 0.000073 0.000019 0.065726 ]
5
Num Evals 3200
GenUC: 2.863481e-03
GenUB: 1.685637e-02
Optimisation 1.067388e+02
Total Time: 1.069162e+02
5 Add/Rem 8
Graph 1:
1 1 0 0 0 0 0 0 
0 1 1 1 0 1 1 1 
1 0 1 0 0 0 1 1 
1 1 1 0 0 0 1 0 
0 0 1 0 0 1 1 1 
0 0 1 0 1 0 0 1 
1 1 0 0 0 1 1 1 
1 0 1 0 1 1 0 1 
Graph 2:
1 1 0 0 0 0 1 1 
0 1 1 1 0 0 0 1 
1 0 1 0 0 0 1 1 
1 1 0 0 0 0 1 0 
1 0 1 0 1 1 1 1 
0 0 1 0 0 0 0 0 
1 1 0 0 0 1 1 1 
1 1 0 1 1 1 0 0 
Solution: -13 0
Gbest: -25.000000
Expectation: -33.783128
Final Parameters:
Gammas:
[ 0.048168 ]
Betas:
[ 0.390787 2.480891 ]
Aggregate results:
[ 12 18 20 24 14 22 28 26 30 32 34 16 36 40 38 44 42 46 48 63 ]
[ 0.000032 0.002241 0.006997 0.048255 0.000125 0.020826 0.141524 0.094350 0.184532 0.173166 0.130974 0.000388 0.076188 0.012454 0.036786 0.001020 0.003320 0.000045 0.000008 0.066770 ]
5
Num Evals 4000
GenUC: 2.914822e-03
GenUB: 1.685001e-02
Optimisation 8.809459e+01
Total Time: 8.823625e+01
