Clock Speed: 3.688607
Num threads: 4
Trotterisation: 4
Graph Size: 4
Num Qubits: 5
Space Dimension: 32
Run-Type: 0
Num_samples: 10
1 Isomorphic
Graph 1:
1 1 0 1 
0 1 0 1 
0 1 1 1 
1 1 0 1 
Graph 2:
1 1 0 1 
0 1 0 1 
0 1 1 1 
1 1 0 1 
Solution: 0 0
Gbest: -4.000000
Expectation: -5.985816
Final Parameters:
Gammas:
[ 4.870406 3.276870 2.846321 3.047097 ]
Betas:
[ 1.612479 1.470310 1.295622 1.201222 1.234720 ]
Aggregate results:
[ -1 3 5 1 7 9 15 ]
[ 0.010981 0.222915 0.417806 0.124671 0.075885 0.105494 0.042247 ]
5
Num Evals 400
GenUC: 1.467318e-04
GenUB: 1.286877e-05
Optimisation 1.413479e-01
Total Time: 1.418813e-01
2 Flipped
Graph 1:
1 1 0 1 
0 1 0 1 
0 1 1 1 
1 1 0 1 
Graph 2:
1 0 1 1 
1 0 1 0 
1 1 1 0 
1 0 1 1 
Solution: -2 10
Gbest: -2.000000
Expectation: -6.422853
Final Parameters:
Gammas:
[ 4.983903 2.982736 2.409529 3.339494 ]
Betas:
[ 1.890539 1.720653 2.011039 1.867146 1.808218 ]
Aggregate results:
[ 9 7 5 3 1 15 ]
[ 0.062610 0.077692 0.406633 0.267901 0.092772 0.092392 ]
5
Num Evals 800
GenUC: 2.034567e-05
GenUB: 8.391784e-06
Optimisation 1.604382e-01
Total Time: 1.608343e-01
3 Add 4
Graph 1:
1 1 0 1 
0 1 0 1 
0 1 1 1 
1 1 0 1 
Graph 2:
1 1 0 1 
0 1 1 1 
1 1 1 1 
1 1 1 1 
Solution: -3 0
Gbest: -3.000000
Expectation: -5.307657
Final Parameters:
Gammas:
[ 5.013212 3.733115 3.018363 2.587650 ]
Betas:
[ 1.450085 2.207943 2.315791 1.311588 1.891196 ]
Aggregate results:
[ 2 4 6 15 ]
[ 0.216533 0.564534 0.185282 0.033651 ]
5
Num Evals 1200
GenUC: 1.065170e-05
GenUB: 7.978058e-06
Optimisation 1.646643e-01
Total Time: 1.650451e-01
4 Rem 4
Graph 1:
1 1 0 1 
0 1 0 1 
0 1 1 1 
1 1 0 1 
Graph 2:
1 0 0 1 
0 1 0 1 
0 1 0 1 
1 1 0 1 
Solution: -2 0
Gbest: -4.000000
Expectation: -6.280749
Final Parameters:
Gammas:
[ 4.806216 4.429872 3.305807 3.009610 ]
Betas:
[ 2.167551 1.727567 0.736545 1.006893 1.292458 ]
Aggregate results:
[ 1 3 5 7 9 11 15 ]
[ 0.071020 0.212024 0.491161 0.103557 0.072124 0.001973 0.048143 ]
5
Num Evals 1600
GenUC: 1.183065e-05
GenUB: 8.229224e-06
Optimisation 1.351965e-01
Total Time: 1.355460e-01
5 Add/Rem 4
Graph 1:
1 1 0 1 
0 1 0 1 
0 1 1 1 
1 1 0 1 
Graph 2:
1 1 1 1 
0 1 1 1 
1 1 1 1 
0 1 1 0 
Solution: -4 4
Gbest: -4.000000
Expectation: -5.129526
Final Parameters:
Gammas:
[ 4.606337 3.580842 2.547209 2.648460 ]
Betas:
[ 1.650800 2.342798 1.285033 1.577727 1.985744 ]
Aggregate results:
[ 5 7 3 15 ]
[ 0.069695 0.132040 0.759768 0.038498 ]
5
Num Evals 2000
GenUC: 1.062294e-05
GenUB: 8.235686e-06
Optimisation 1.528983e-01
Total Time: 1.532715e-01
