Clock Speed: 3.688314
Num threads: 4
Trotterisation: 4
Graph Size: 4
Num Qubits: 5
Space Dimension: 32
Run-Type: 0
Num_samples: 10
1 Isomorphic
Graph 1:
1 1 1 0 
1 1 1 0 
1 0 1 1 
1 0 1 0 
Graph 2:
1 1 1 0 
1 1 1 0 
1 0 1 1 
1 0 1 0 
Solution: 0 0
Gbest: 0.000000
Expectation: -7.004959
Final Parameters:
Gammas:
[ 4.766837 2.891298 2.744734 2.877318 ]
Betas:
[ 1.619973 1.686720 1.582880 1.993907 1.126279 ]
Aggregate results:
[ -1 3 5 7 9 1 15 ]
[ 0.099899 0.195737 0.239566 0.239390 0.108253 0.006251 0.110904 ]
5
Num Evals 400
GenUC: 1.563628e-04
GenUB: 1.246680e-05
Optimisation 1.443019e-01
Total Time: 1.448649e-01
2 Flipped
Graph 1:
1 1 1 0 
1 1 1 0 
1 0 1 1 
1 0 1 0 
Graph 2:
0 1 1 1 
0 1 1 1 
1 1 0 1 
0 1 0 1 
Solution: -4 9
Gbest: -4.000000
Expectation: -7.127013
Final Parameters:
Gammas:
[ 4.484456 2.354721 3.474286 3.591351 ]
Betas:
[ 1.889602 1.217336 1.162380 1.288487 1.110077 ]
Aggregate results:
[ 9 7 5 3 15 ]
[ 0.106435 0.154816 0.376889 0.268913 0.092947 ]
5
Num Evals 800
GenUC: 9.355368e-06
GenUB: 8.140574e-06
Optimisation 1.402124e-01
Total Time: 1.405476e-01
3 Add 4
Graph 1:
1 1 1 0 
1 1 1 0 
1 0 1 1 
1 0 1 0 
Graph 2:
1 1 1 0 
1 1 1 1 
1 1 1 1 
1 0 1 1 
Solution: -3 0
Gbest: -3.000000
Expectation: -5.490389
Final Parameters:
Gammas:
[ 4.005759 2.970337 3.039770 3.202068 ]
Betas:
[ 1.636264 1.655284 1.459365 1.406568 1.280441 ]
Aggregate results:
[ 2 4 6 15 ]
[ 0.184193 0.617120 0.147420 0.051267 ]
5
Num Evals 1200
GenUC: 1.025794e-05
GenUB: 8.535513e-06
Optimisation 1.317129e-01
Total Time: 1.320735e-01
4 Rem 4
Graph 1:
1 1 1 0 
1 1 1 0 
1 0 1 1 
1 0 1 0 
Graph 2:
0 1 0 0 
1 0 0 0 
1 0 1 1 
1 0 1 0 
Solution: -4 0
Gbest: -4.000000
Expectation: -8.402013
Final Parameters:
Gammas:
[ 4.944468 3.586153 3.857451 2.710455 ]
Betas:
[ 2.314483 1.230762 1.398312 1.237105 1.007559 ]
Aggregate results:
[ 3 7 9 11 5 15 ]
[ 0.133802 0.194097 0.456996 0.001770 0.169053 0.044282 ]
5
Num Evals 1600
GenUC: 8.972769e-06
GenUB: 8.016184e-06
Optimisation 1.271332e-01
Total Time: 1.274733e-01
5 Add/Rem 4
Graph 1:
1 1 1 0 
1 1 1 0 
1 0 1 1 
1 0 1 0 
Graph 2:
1 0 1 1 
1 0 0 0 
0 0 1 1 
1 1 1 1 
Solution: -3 12
Gbest: -3.000000
Expectation: -6.301879
Final Parameters:
Gammas:
[ 3.386208 3.148482 3.254433 3.317882 ]
Betas:
[ 1.653498 1.308711 1.245964 0.752528 1.379315 ]
Aggregate results:
[ 6 10 8 4 2 15 ]
[ 0.353485 0.067663 0.066381 0.441390 0.066038 0.005044 ]
5
Num Evals 2000
GenUC: 8.735049e-06
GenUB: 8.084229e-06
Optimisation 1.347631e-01
Total Time: 1.350874e-01
