Clock Speed: 3.689254
Num threads: 4
Trotterisation: 1
Graph Size: 4
Num Qubits: 5
Space Dimension: 32
Run-Type: 0
Num_samples: 10
1 Isomorphic
Graph 1:
1 1 1 0 
0 0 1 1 
0 0 1 0 
0 0 0 0 
Graph 2:
1 1 1 0 
0 0 1 1 
0 0 1 0 
0 0 0 0 
Solution: 0 0
Gbest: 0.000000
Expectation: -6.203349
Final Parameters:
Gammas:
[ 2.953765 ]
Betas:
[ 1.690683 0.442397 ]
Aggregate results:
[ -1 5 7 3 9 11 15 ]
[ 0.133945 0.315026 0.420431 0.077246 0.029796 0.008524 0.015032 ]
5
Num Evals 400
GenUC: 1.311574e-04
GenUB: 1.251436e-05
Optimisation 5.004737e-02
Total Time: 5.032825e-02
2 Flipped
Graph 1:
1 1 1 0 
0 0 1 1 
0 0 1 0 
0 0 0 0 
Graph 2:
0 1 1 1 
1 1 0 0 
0 1 0 0 
0 0 0 0 
Solution: -4 1
Gbest: -4.000000
Expectation: -6.900175
Final Parameters:
Gammas:
[ 2.950183 ]
Betas:
[ 1.855932 0.579218 ]
Aggregate results:
[ 7 3 9 5 11 15 ]
[ 0.377125 0.337031 0.142001 0.116793 0.004629 0.022421 ]
5
Num Evals 800
GenUC: 9.419949e-06
GenUB: 8.292613e-06
Optimisation 4.746935e-02
Total Time: 4.760423e-02
3 Add 4
Graph 1:
1 1 1 0 
0 0 1 1 
0 0 1 0 
0 0 0 0 
Graph 2:
1 1 1 0 
1 0 1 1 
0 0 1 0 
1 0 0 1 
Solution: -3 0
Gbest: -3.000000
Expectation: -7.192169
Final Parameters:
Gammas:
[ 0.235958 ]
Betas:
[ 1.768033 2.753233 ]
Aggregate results:
[ 2 6 10 8 4 12 15 ]
[ 0.088302 0.384416 0.040705 0.191834 0.240266 0.003623 0.050854 ]
5
Num Evals 1200
GenUC: 8.884759e-06
GenUB: 8.052593e-06
Optimisation 4.757086e-02
Total Time: 4.774001e-02
4 Rem 4
Graph 1:
1 1 1 0 
0 0 1 1 
0 0 1 0 
0 0 0 0 
Graph 2:
0 1 0 0 
0 0 0 0 
0 0 1 0 
0 0 0 0 
Solution: -4 0
Gbest: -4.000000
Expectation: -6.444006
Final Parameters:
Gammas:
[ 0.139762 ]
Betas:
[ 2.896072 2.565471 ]
Aggregate results:
[ 3 5 7 15 ]
[ 0.198790 0.461849 0.319003 0.020358 ]
5
Num Evals 1600
GenUC: 8.252129e-06
GenUB: 7.988623e-06
Optimisation 6.247289e-02
Total Time: 6.266481e-02
5 Add/Rem 4
Graph 1:
1 1 1 0 
0 0 1 1 
0 0 1 0 
0 0 0 0 
Graph 2:
1 0 1 0 
0 0 0 1 
0 0 1 0 
1 0 1 1 
Solution: -3 14
Gbest: -3.000000
Expectation: -7.020613
Final Parameters:
Gammas:
[ 2.635051 ]
Betas:
[ 0.856035 0.530562 ]
Aggregate results:
[ 4 8 10 6 2 15 ]
[ 0.337911 0.131326 0.105462 0.247923 0.121882 0.055496 ]
5
Num Evals 2000
GenUC: 1.096565e-05
GenUB: 8.041476e-06
Optimisation 4.755371e-02
Total Time: 4.767179e-02
