Clock Speed: 1.519056
Num threads: 12
Trotterisation: 1
Graph Size: 6
Num Qubits: 10
Space Dimension: 1024
Run-Type: 0
Num_samples: 1
1 Isomorphic
Graph 1:
1 1 1 0 0 0 
1 1 1 0 0 1 
0 1 0 1 1 0 
0 1 0 1 1 1 
0 1 1 1 0 1 
0 1 0 0 1 1 
Graph 2:
1 1 1 0 0 0 
1 1 1 0 0 1 
0 1 0 1 1 0 
0 1 0 1 1 1 
0 1 1 1 0 1 
0 1 0 0 1 1 
Solution: 0 0
Expectation: -17.876943
Final Parameters:
Gammas:
[ 3.223242 ]
Betas:
[ 1.988402 2.869637 ]
Aggregate results:
[ 0 10 16 14 12 18 20 24 22 6 26 8 36 ]
[ 0.003783 0.041377 0.224811 0.140287 0.067234 0.198163 0.149070 0.018551 0.071243 0.005560 0.002097 0.012680 0.065142 ]
3
Num Evals 156
GenUC: 3.319721e-02
GenUB: 3.550481e-04
Optimisation 4.197327e-01
Total Time: 4.560953e-01
2 Flipped
Graph 1:
1 1 1 0 0 0 
1 1 1 0 0 1 
0 1 0 1 1 0 
0 1 0 1 1 1 
0 1 1 1 0 1 
0 1 0 0 1 1 
Graph 2:
0 0 0 1 1 1 
1 0 0 1 1 1 
0 1 1 0 1 0 
1 1 1 0 1 0 
1 0 1 1 1 0 
1 1 0 0 1 0 
Solution: -10 25
Expectation: -18.283014
Final Parameters:
Gammas:
[ 3.224588 ]
Betas:
[ 2.942484 2.855079 ]
Aggregate results:
[ 22 18 24 20 16 14 10 12 26 36 ]
[ 0.090011 0.234170 0.023424 0.161759 0.183417 0.133152 0.050706 0.059039 0.003957 0.060366 ]
3
Num Evals 329
GenUC: 2.610823e-04
GenUB: 2.398929e-04
Optimisation 5.063174e-01
Total Time: 5.099242e-01
3 Add 6
Graph 1:
1 1 1 0 0 0 
1 1 1 0 0 1 
0 1 0 1 1 0 
0 1 0 1 1 1 
0 1 1 1 0 1 
0 1 0 0 1 1 
Graph 2:
1 1 1 0 1 1 
1 1 1 0 0 1 
0 1 0 1 1 0 
1 1 0 1 1 1 
1 1 1 1 0 1 
1 1 0 0 1 1 
Solution: -5 0
Expectation: -20.160616
Final Parameters:
Gammas:
[ 5.700730 ]
Betas:
[ 2.030829 2.659160 ]
Aggregate results:
[ 5 7 13 19 17 11 15 9 21 23 36 ]
[ 0.001455 0.003341 0.102933 0.146068 0.203824 0.019464 0.244579 0.005297 0.063688 0.019467 0.189886 ]
3
Num Evals 500
GenUC: 2.545705e-04
GenUB: 2.811132e-04
Optimisation 4.561811e-01
Total Time: 4.594652e-01
4 Rem 6
Graph 1:
1 1 1 0 0 0 
1 1 1 0 0 1 
0 1 0 1 1 0 
0 1 0 1 1 1 
0 1 1 1 0 1 
0 1 0 0 1 1 
Graph 2:
1 1 1 0 0 0 
0 0 0 0 0 1 
0 1 0 1 1 0 
0 1 0 0 1 1 
0 1 0 1 0 1 
0 0 0 0 1 1 
Solution: -6 0
Expectation: -19.724598
Final Parameters:
Gammas:
[ 2.860896 ]
Betas:
[ 0.164290 2.652599 ]
Aggregate results:
[ 6 14 20 16 18 12 22 24 8 26 28 36 ]
[ 0.000680 0.106451 0.171008 0.185061 0.234434 0.037186 0.108923 0.047715 0.001879 0.019810 0.001906 0.084947 ]
3
Num Evals 646
GenUC: 2.575926e-04
GenUB: 3.056154e-04
Optimisation 2.895253e-01
Total Time: 2.920858e-01
5 Add/Rem 6
Graph 1:
1 1 1 0 0 0 
1 1 1 0 0 1 
0 1 0 1 1 0 
0 1 0 1 1 1 
0 1 1 1 0 1 
0 1 0 0 1 1 
Graph 2:
1 1 1 0 0 0 
1 1 0 0 1 1 
0 1 0 1 1 0 
0 1 1 1 1 0 
1 1 1 1 0 0 
0 0 0 0 1 1 
Solution: -5 682
Expectation: -18.097667
Final Parameters:
Gammas:
[ 3.387779 ]
Betas:
[ 0.090929 2.910038 ]
Aggregate results:
[ 7 13 15 17 11 19 23 21 9 25 27 5 36 ]
[ 0.009587 0.182195 0.181814 0.160344 0.109630 0.096341 0.033527 0.043368 0.026385 0.013608 0.004281 0.006571 0.132351 ]
3
Num Evals 812
GenUC: 2.603820e-04
GenUB: 2.818890e-04
Optimisation 3.366297e-01
Total Time: 3.392032e-01
