Clock Speed: 1.522768
Num threads: 12
Trotterisation: 3
Graph Size: 6
Num Qubits: 10
Space Dimension: 1024
Run-Type: 0
Num_samples: 1
1 Isomorphic
Graph 1:
1 1 0 0 1 0 
0 0 1 1 0 0 
1 0 1 0 0 1 
0 1 1 0 1 1 
1 0 0 0 1 0 
1 1 1 1 0 1 
Graph 2:
1 1 0 0 1 0 
0 0 1 1 0 0 
1 0 1 0 0 1 
0 1 1 0 1 1 
1 0 0 0 1 0 
1 1 1 1 0 1 
Solution: 0 0
Expectation: -22.062475
Final Parameters:
Gammas:
[ 4.051718 3.405342 2.647551 ]
Betas:
[ 1.851774 1.734619 0.535396 1.694717 ]
Aggregate results:
[ 0 16 12 14 18 10 6 20 24 22 8 28 26 36 ]
[ 0.001103 0.182984 0.028471 0.078093 0.223204 0.017029 0.003001 0.112163 0.010904 0.090370 0.001342 0.001338 0.004744 0.245255 ]
3
Num Evals 453
GenUC: 1.269658e-02
GenUB: 3.721286e-04
Optimisation 1.915507e+00
Total Time: 1.932933e+00
2 Flipped
Graph 1:
1 1 0 0 1 0 
0 0 1 1 0 0 
1 0 1 0 0 1 
0 1 1 0 1 1 
1 0 0 0 1 0 
1 1 1 1 0 1 
Graph 2:
0 1 0 0 1 1 
0 0 1 1 0 0 
1 0 0 1 0 1 
1 1 0 1 1 0 
0 1 0 0 0 1 
1 0 1 1 1 1 
Solution: -10 26
Expectation: -22.180460
Final Parameters:
Gammas:
[ 4.435094 3.020374 4.330474 ]
Betas:
[ 1.661696 2.000749 1.525607 2.346741 ]
Aggregate results:
[ 14 22 18 20 16 12 10 24 26 30 36 ]
[ 0.088911 0.072970 0.226916 0.157446 0.151102 0.026835 0.005478 0.026823 0.009909 0.001471 0.232140 ]
3
Num Evals 1031
GenUC: 2.535265e-04
GenUB: 2.740799e-04
Optimisation 2.857610e+00
Total Time: 2.863082e+00
3 Add 6
Graph 1:
1 1 0 0 1 0 
0 0 1 1 0 0 
1 0 1 0 0 1 
0 1 1 0 1 1 
1 0 0 0 1 0 
1 1 1 1 0 1 
Graph 2:
1 1 0 1 1 1 
0 0 1 1 1 1 
1 0 1 0 1 1 
0 1 1 0 1 1 
1 0 0 1 1 0 
1 1 1 1 0 1 
Solution: -6 0
Expectation: -18.114641
Final Parameters:
Gammas:
[ 4.008692 3.226732 2.284973 ]
Betas:
[ 2.177167 1.534897 1.628865 1.274421 ]
Aggregate results:
[ 6 18 12 16 14 20 22 24 26 10 36 ]
[ 0.005203 0.197346 0.043006 0.267252 0.163500 0.152763 0.070881 0.023397 0.003395 0.017370 0.055888 ]
5
Num Evals 1631
GenUC: 2.577119e-04
GenUB: 3.205473e-04
Optimisation 2.669837e+00
Total Time: 2.674924e+00
4 Rem 6
Graph 1:
1 1 0 0 1 0 
0 0 1 1 0 0 
1 0 1 0 0 1 
0 1 1 0 1 1 
1 0 0 0 1 0 
1 1 1 1 0 1 
Graph 2:
1 1 0 0 1 0 
0 0 0 1 0 0 
1 0 1 0 0 0 
0 0 0 0 1 1 
1 0 0 0 1 0 
1 0 1 1 0 0 
Solution: -6 0
Expectation: -20.021178
Final Parameters:
Gammas:
[ 4.563801 4.441704 1.350375 ]
Betas:
[ 2.280637 0.000000 1.812953 1.532534 ]
Aggregate results:
[ 6 18 14 16 20 12 22 10 26 24 28 8 36 ]
[ 0.000334 0.108984 0.213070 0.217404 0.056810 0.098019 0.055621 0.008634 0.008117 0.043031 0.001808 0.003387 0.184779 ]
5
Num Evals 2231
GenUC: 2.549579e-04
GenUB: 3.261389e-04
Optimisation 2.360867e+00
Total Time: 2.365332e+00
5 Add/Rem 6
Graph 1:
1 1 0 0 1 0 
0 0 1 1 0 0 
1 0 1 0 0 1 
0 1 1 0 1 1 
1 0 0 0 1 0 
1 1 1 1 0 1 
Graph 2:
1 1 0 0 0 0 
0 0 1 1 0 0 
0 0 0 1 0 1 
0 0 1 1 1 1 
1 1 0 0 1 1 
1 1 0 1 0 1 
Solution: -9 0
Expectation: -17.651711
Final Parameters:
Gammas:
[ 3.032263 3.250627 3.093890 ]
Betas:
[ 1.602354 0.858722 3.093520 1.894924 ]
Aggregate results:
[ 9 17 19 15 11 13 21 25 23 27 36 ]
[ 0.008705 0.256114 0.236924 0.172652 0.034180 0.110836 0.111434 0.008438 0.031957 0.001131 0.027628 ]
5
Num Evals 2831
GenUC: 2.617687e-04
GenUB: 3.221296e-04
Optimisation 2.835996e+00
Total Time: 2.841421e+00
