Clock Speed: 1.522755
Num threads: 12
Trotterisation: 3
Graph Size: 6
Num Qubits: 10
Space Dimension: 1024
Run-Type: 0
Num_samples: 1
1 Isomorphic
Graph 1:
0 1 0 0 0 1 
1 0 1 0 1 0 
1 0 0 0 0 0 
1 0 1 1 1 0 
1 1 1 1 0 1 
0 0 0 1 0 0 
Graph 2:
0 1 0 0 0 1 
1 0 1 0 1 0 
1 0 0 0 0 0 
1 0 1 1 1 0 
1 1 1 1 0 1 
0 0 0 1 0 0 
Solution: 0 0
Expectation: -20.750335
Final Parameters:
Gammas:
[ 4.419708 2.752340 4.910781 ]
Betas:
[ 1.414380 2.552205 1.704775 1.689404 ]
Aggregate results:
[ 0 10 8 6 16 14 12 18 20 24 22 36 ]
[ 0.002151 0.026469 0.010564 0.003176 0.253249 0.100797 0.082632 0.133157 0.120948 0.009185 0.027504 0.230167 ]
3
Num Evals 437
GenUC: 7.856928e-03
GenUB: 5.351054e-04
Optimisation 2.056006e+00
Total Time: 2.069065e+00
2 Flipped
Graph 1:
0 1 0 0 0 1 
1 0 1 0 1 0 
1 0 0 0 0 0 
1 0 1 1 1 0 
1 1 1 1 0 1 
0 0 0 1 0 0 
Graph 2:
1 0 0 0 1 0 
0 1 0 1 0 1 
0 0 0 0 0 1 
0 1 1 1 0 1 
1 0 1 1 1 1 
0 0 1 0 0 0 
Solution: -10 612
Expectation: -22.515517
Final Parameters:
Gammas:
[ 4.423793 4.159209 2.613219 ]
Betas:
[ 1.532896 2.710444 1.906590 1.789700 ]
Aggregate results:
[ 20 14 18 16 12 22 24 26 28 10 36 ]
[ 0.185461 0.070093 0.204462 0.130516 0.026722 0.105886 0.034657 0.004696 0.000046 0.003749 0.233712 ]
3
Num Evals 1011
GenUC: 2.561798e-04
GenUB: 2.858518e-04
Optimisation 2.845380e+00
Total Time: 2.850984e+00
3 Add 6
Graph 1:
0 1 0 0 0 1 
1 0 1 0 1 0 
1 0 0 0 0 0 
1 0 1 1 1 0 
1 1 1 1 0 1 
0 0 0 1 0 0 
Graph 2:
0 1 1 1 0 1 
1 0 1 0 1 0 
1 0 0 1 0 1 
1 0 1 1 1 1 
1 1 1 1 0 1 
0 0 0 1 0 1 
Solution: -6 0
Expectation: -22.875000
Final Parameters:
Gammas:
[ 3.141593 3.141593 3.141593 ]
Betas:
[ 1.570796 1.570796 1.570796 1.570796 ]
Aggregate results:
[ 6 14 10 12 8 16 20 18 22 24 36 ]
[ 0.000977 0.106445 0.006836 0.025391 0.000977 0.174805 0.125000 0.200195 0.044922 0.017578 0.296875 ]
3
Num Evals 1019
GenUC: 2.536858e-04
GenUB: 3.235443e-04
Optimisation 3.648927e-02
Total Time: 4.147949e-02
4 Rem 6
Graph 1:
0 1 0 0 0 1 
1 0 1 0 1 0 
1 0 0 0 0 0 
1 0 1 1 1 0 
1 1 1 1 0 1 
0 0 0 1 0 0 
Graph 2:
0 1 0 0 0 1 
0 0 1 0 0 0 
1 0 0 0 0 0 
1 0 1 1 0 0 
1 0 1 0 0 0 
0 0 0 1 0 0 
Solution: -6 0
Expectation: -17.490428
Final Parameters:
Gammas:
[ 3.398273 3.223485 2.519402 ]
Betas:
[ 1.721444 1.934350 0.101683 1.610715 ]
Aggregate results:
[ 6 14 10 12 20 16 18 8 22 24 36 ]
[ 0.007070 0.207658 0.027408 0.062453 0.113051 0.289366 0.187770 0.006189 0.020183 0.007139 0.071713 ]
5
Num Evals 1619
GenUC: 2.494995e-04
GenUB: 3.445353e-04
Optimisation 2.444436e+00
Total Time: 2.449054e+00
5 Add/Rem 6
Graph 1:
0 1 0 0 0 1 
1 0 1 0 1 0 
1 0 0 0 0 0 
1 0 1 1 1 0 
1 1 1 1 0 1 
0 0 0 1 0 0 
Graph 2:
1 1 0 1 0 0 
1 0 1 0 0 0 
1 0 0 0 1 1 
1 0 0 1 1 1 
1 1 0 0 0 1 
0 1 0 1 0 0 
Solution: -9 203
Expectation: -17.758414
Final Parameters:
Gammas:
[ 3.121969 3.094628 2.880316 ]
Betas:
[ 1.667081 1.991963 2.368383 1.593768 ]
Aggregate results:
[ 11 17 13 15 19 21 23 9 25 36 ]
[ 0.015748 0.241540 0.081695 0.217674 0.238834 0.121073 0.048410 0.007982 0.007940 0.019103 ]
5
Num Evals 2219
GenUC: 2.597459e-04
GenUB: 3.315508e-04
Optimisation 2.834993e+00
Total Time: 2.840492e+00
