Clock Speed: 1.522728
Num threads: 12
Trotterisation: 6
Graph Size: 6
Num Qubits: 10
Space Dimension: 1024
Run-Type: 0
Num_samples: 1
1 Isomorphic
Graph 1:
0 0 0 0 0 0 
1 1 0 0 0 0 
0 0 0 0 1 0 
1 1 1 1 0 0 
1 1 0 1 1 1 
1 1 0 0 1 0 
Graph 2:
0 0 0 0 0 0 
1 1 0 0 0 0 
0 0 0 0 1 0 
1 1 1 1 0 0 
1 1 0 1 1 1 
1 1 0 0 1 0 
Solution: 0 0
Expectation: -22.921875
Final Parameters:
Gammas:
[ 3.141593 3.141593 3.141593 3.141593 3.141593 3.141593 ]
Betas:
[ 1.570796 1.570796 1.570796 2.356194 1.570796 1.570796 1.570796 ]
Aggregate results:
[ 0 4 10 8 16 14 18 12 6 20 22 24 26 28 30 36 ]
[ 0.000977 0.000977 0.022461 0.002930 0.131836 0.107422 0.161133 0.034180 0.002930 0.140625 0.068359 0.022461 0.003906 0.001953 0.000977 0.296875 ]
3
Num Evals 14
GenUC: 7.589385e-03
GenUB: 4.417021e-04
Optimisation 1.280148e-01
Total Time: 1.440487e-01
2 Flipped
Graph 1:
0 0 0 0 0 0 
1 1 0 0 0 0 
0 0 0 0 1 0 
1 1 1 1 0 0 
1 1 0 1 1 1 
1 1 0 0 1 0 
Graph 2:
0 0 0 0 0 0 
0 0 0 0 1 1 
0 1 0 0 0 0 
0 0 1 1 1 1 
1 1 1 0 1 1 
0 1 0 0 1 1 
Solution: -8 432
Expectation: -21.546818
Final Parameters:
Gammas:
[ 4.797783 4.711770 3.308350 3.064729 4.369287 4.479041 ]
Betas:
[ 1.684418 1.513869 1.949821 1.341128 1.546954 1.872628 1.430596 ]
Aggregate results:
[ 14 12 16 20 18 22 24 10 26 8 36 ]
[ 0.171723 0.074752 0.125725 0.098883 0.159772 0.075162 0.019878 0.018900 0.005222 0.002653 0.247330 ]
5
Num Evals 614
GenUC: 2.512136e-04
GenUB: 2.845842e-04
Optimisation 4.806189e+00
Total Time: 4.814815e+00
3 Add 6
Graph 1:
0 0 0 0 0 0 
1 1 0 0 0 0 
0 0 0 0 1 0 
1 1 1 1 0 0 
1 1 0 1 1 1 
1 1 0 0 1 0 
Graph 2:
0 0 1 0 0 0 
1 1 1 0 0 0 
1 0 1 0 1 0 
1 1 1 1 0 0 
1 1 0 1 1 1 
1 1 0 0 1 0 
Solution: -4 0
Expectation: -23.343750
Final Parameters:
Gammas:
[ 3.141593 3.141593 3.141593 3.141593 3.141593 3.141593 ]
Betas:
[ 1.570796 1.570796 1.570796 2.356194 1.570796 1.570796 1.570796 ]
Aggregate results:
[ 4 8 12 10 16 14 18 20 22 26 24 28 36 ]
[ 0.000977 0.001953 0.035156 0.011719 0.120117 0.080078 0.172852 0.158203 0.085937 0.008789 0.026367 0.000977 0.296875 ]
3
Num Evals 628
GenUC: 2.571642e-04
GenUB: 3.157775e-04
Optimisation 1.117510e-01
Total Time: 1.203573e-01
4 Rem 6
Graph 1:
0 0 0 0 0 0 
1 1 0 0 0 0 
0 0 0 0 1 0 
1 1 1 1 0 0 
1 1 0 1 1 1 
1 1 0 0 1 0 
Graph 2:
0 0 0 0 0 0 
1 1 0 0 0 0 
0 0 0 0 0 0 
1 1 1 0 0 0 
0 1 0 1 1 0 
1 0 0 0 1 0 
Solution: -5 0
Expectation: -14.642864
Final Parameters:
Gammas:
[ 3.131411 3.155693 3.079931 3.192852 3.372323 3.255255 ]
Betas:
[ 1.772958 1.344157 2.294746 1.728511 1.647749 1.356349 1.640970 ]
Aggregate results:
[ 5 9 11 15 17 13 19 21 23 25 36 ]
[ 0.012428 0.117478 0.135215 0.280832 0.145153 0.202891 0.047531 0.015493 0.003456 0.001121 0.038400 ]
5
Num Evals 1228
GenUC: 2.460675e-04
GenUB: 3.183950e-04
Optimisation 4.792989e+00
Total Time: 4.801534e+00
5 Add/Rem 6
Graph 1:
0 0 0 0 0 0 
1 1 0 0 0 0 
0 0 0 0 1 0 
1 1 1 1 0 0 
1 1 0 1 1 1 
1 1 0 0 1 0 
Graph 2:
0 1 0 0 0 1 
0 1 1 0 0 1 
1 0 1 0 0 0 
0 1 1 1 0 0 
1 0 0 1 1 1 
0 1 0 0 1 0 
Solution: -9 645
Expectation: -16.039979
Final Parameters:
Gammas:
[ 3.176276 3.141574 2.893991 3.468848 4.394345 4.176234 ]
Betas:
[ 1.539220 1.271170 2.316978 1.779351 1.597537 1.566006 1.606313 ]
Aggregate results:
[ 11 15 13 17 19 21 23 25 9 36 ]
[ 0.115046 0.316360 0.144886 0.249535 0.096445 0.026696 0.006536 0.001573 0.008314 0.034608 ]
5
Num Evals 1828
GenUC: 2.594497e-04
GenUB: 3.249627e-04
Optimisation 4.810417e+00
Total Time: 4.818947e+00
