Clock Speed: 3.390227
Num threads: 4
Trotterisation: 6
Graph Size: 7
Num Qubits: 13
Space Dimension: 8192
Run-Type: 0
Num_samples: 10
1 Isomorphic
Graph 1:
0 1 1 1 1 1 1 
0 1 1 0 0 1 0 
0 0 0 1 0 1 1 
1 0 0 0 0 0 1 
1 1 1 0 0 1 1 
0 1 1 0 0 0 1 
1 0 1 0 0 1 1 
Graph 2:
0 1 1 1 1 1 1 
0 1 1 0 0 1 0 
0 0 0 1 0 1 1 
1 0 0 0 0 0 1 
1 1 1 0 0 1 1 
0 1 1 0 0 0 1 
1 0 1 0 0 1 1 
Solution: 0 0
Gbest: -18.000000
Expectation: -29.691931
Final Parameters:
Gammas:
[ 3.001380 1.817901 0.502745 5.754398 3.394621 2.195979 ]
Betas:
[ 1.136923 0.627120 2.203864 2.906228 2.525778 1.596434 0.092735 ]
Aggregate results:
[ -1 15 17 9 11 21 19 25 13 23 27 7 5 29 3 31 33 35 48 ]
[ 0.000045 0.021333 0.061286 0.002071 0.002376 0.120077 0.092963 0.112022 0.010186 0.196954 0.092805 0.000978 0.000720 0.028023 0.000334 0.008186 0.001924 0.000230 0.247487 ]
5
Num Evals 700
GenUC: 4.535814e-03
GenUB: 2.689208e-03
Optimisation 1.226360e+01
Total Time: 1.228756e+01
2 Flipped
Graph 1:
0 1 1 1 1 1 1 
0 1 1 0 0 1 0 
0 0 0 1 0 1 1 
1 0 0 0 0 0 1 
1 1 1 0 0 1 1 
0 1 1 0 0 0 1 
1 0 1 0 0 1 1 
Graph 2:
1 1 1 1 1 1 0 
0 1 0 0 1 1 0 
1 1 0 1 0 0 0 
1 0 0 0 0 0 1 
1 1 0 0 1 1 1 
1 0 0 0 1 1 0 
1 1 0 0 1 0 1 
Solution: -14 182
Gbest: -20.000000
Expectation: -31.391623
Final Parameters:
Gammas:
[ 6.222166 2.347332 1.757926 3.010835 4.259799 2.328585 ]
Betas:
[ 2.737120 0.542519 1.585216 2.410816 1.754862 0.153945 0.002106 ]
Aggregate results:
[ 19 23 21 27 29 31 33 25 15 17 13 35 48 ]
[ 0.054921 0.169170 0.115121 0.125440 0.064776 0.029830 0.007534 0.142025 0.004242 0.024740 0.000474 0.000227 0.261500 ]
5
Num Evals 1400
GenUC: 1.231789e-03
GenUB: 1.742625e-03
Optimisation 1.216743e+01
Total Time: 1.218509e+01
3 Add 7
Graph 1:
0 1 1 1 1 1 1 
0 1 1 0 0 1 0 
0 0 0 1 0 1 1 
1 0 0 0 0 0 1 
1 1 1 0 0 1 1 
0 1 1 0 0 0 1 
1 0 1 0 0 1 1 
Graph 2:
1 1 1 1 1 1 1 
0 1 1 0 1 1 0 
0 0 0 1 0 1 1 
1 0 0 0 1 0 1 
1 1 1 0 0 1 1 
1 1 1 0 1 1 1 
1 0 1 0 0 1 1 
Solution: -6 0
Gbest: -18.000000
Expectation: -29.610687
Final Parameters:
Gammas:
[ 0.049072 6.040987 2.574458 3.664618 3.246461 3.661583 ]
Betas:
[ 2.198879 1.429930 2.793730 3.026122 1.707224 0.997708 1.143777 ]
Aggregate results:
[ 5 15 19 17 23 21 25 27 13 11 9 29 31 33 48 ]
[ 0.000732 0.015863 0.096619 0.043833 0.175259 0.149535 0.142142 0.084078 0.007840 0.001627 0.001853 0.036192 0.007131 0.000268 0.237028 ]
5
Num Evals 2100
GenUC: 1.224681e-03
GenUB: 1.763577e-03
Optimisation 1.245154e+01
Total Time: 1.247358e+01
4 Rem 7
Graph 1:
0 1 1 1 1 1 1 
0 1 1 0 0 1 0 
0 0 0 1 0 1 1 
1 0 0 0 0 0 1 
1 1 1 0 0 1 1 
0 1 1 0 0 0 1 
1 0 1 0 0 1 1 
Graph 2:
0 0 0 1 0 1 1 
0 1 1 0 0 1 0 
0 0 0 1 0 1 0 
1 0 0 0 0 0 0 
1 1 0 0 0 1 1 
0 1 0 0 0 0 1 
1 0 1 0 0 1 1 
Solution: -7 0
Gbest: -19.000000
Expectation: -30.605881
Final Parameters:
Gammas:
[ 1.180919 0.178282 1.889725 2.618193 4.363991 4.914269 ]
Betas:
[ 0.670318 0.112660 0.080947 2.561425 1.135251 1.717088 1.316992 ]
Aggregate results:
[ 6 18 14 16 10 22 20 24 26 12 28 30 32 34 8 36 48 ]
[ 0.000336 0.058492 0.003220 0.022821 0.000428 0.151618 0.102877 0.170640 0.126454 0.003136 0.067076 0.027151 0.005932 0.001127 0.000222 0.000550 0.257921 ]
5
Num Evals 2800
GenUC: 1.301137e-03
GenUB: 1.958224e-03
Optimisation 1.225369e+01
Total Time: 1.227057e+01
5 Add/Rem 7
Graph 1:
0 1 1 1 1 1 1 
0 1 1 0 0 1 0 
0 0 0 1 0 1 1 
1 0 0 0 0 0 1 
1 1 1 0 0 1 1 
0 1 1 0 0 0 1 
1 0 1 0 0 1 1 
Graph 2:
1 1 1 1 1 1 0 
0 0 1 0 0 1 1 
1 0 0 1 0 1 0 
1 0 0 0 0 0 1 
1 0 0 1 1 1 1 
1 1 1 0 1 0 1 
0 0 1 0 0 1 1 
Solution: -11 4953
Gbest: -19.000000
Expectation: -30.274899
Final Parameters:
Gammas:
[ 0.440487 1.443850 4.340226 5.183631 1.176137 6.199144 ]
Betas:
[ 1.851510 0.092770 2.988003 0.421706 2.722851 1.210999 1.597807 ]
Aggregate results:
[ 12 16 20 22 24 18 14 26 30 28 32 34 36 10 48 ]
[ 0.000941 0.022754 0.119649 0.162083 0.184960 0.060619 0.008217 0.108873 0.019449 0.050687 0.004650 0.000976 0.000084 0.000360 0.255698 ]
5
Num Evals 3500
GenUC: 1.258599e-03
GenUB: 1.722707e-03
Optimisation 1.398549e+01
Total Time: 1.400485e+01
