Clock Speed: 3.688982
Num threads: 4
Trotterisation: 2
Graph Size: 8
Num Qubits: 16
Space Dimension: 65536
Run-Type: 0
Num_samples: 10
1 Isomorphic
Graph 1:
0 0 0 1 0 0 1 0 
1 0 1 1 1 0 0 1 
0 0 0 1 1 1 0 0 
1 1 1 0 0 0 0 0 
1 0 0 1 1 1 1 1 
0 1 0 0 1 1 1 0 
0 0 0 1 1 0 1 0 
1 0 1 1 1 1 0 0 
Graph 2:
0 0 0 1 0 0 1 0 
1 0 1 1 1 0 0 1 
0 0 0 1 1 1 0 0 
1 1 1 0 0 0 0 0 
1 0 0 1 1 1 1 1 
0 1 0 0 1 1 1 0 
0 0 0 1 1 0 1 0 
1 0 1 1 1 1 0 0 
Solution: 0 0
Gbest: -28.000000
Expectation: -34.091062
Final Parameters:
Gammas:
[ 3.208033 3.395092 ]
Betas:
[ 2.799938 2.762805 0.297599 ]
Aggregate results:
[ -1 15 17 11 7 25 19 23 27 13 21 9 29 31 33 35 37 39 45 41 43 63 ]
[ 0.000048 0.000410 0.001814 0.000123 0.000006 0.093712 0.006752 0.042091 0.146855 0.000297 0.017272 0.000004 0.170924 0.158947 0.110331 0.074443 0.043372 0.022820 0.000273 0.009727 0.002033 0.097747 ]
3
Num Evals 475
GenUC: 5.550205e-03
GenUB: 4.711904e-02
Optimisation 1.095421e+02
Total Time: 1.098117e+02
2 Flipped
Graph 1:
0 0 0 1 0 0 1 0 
1 0 1 1 1 0 0 1 
0 0 0 1 1 1 0 0 
1 1 1 0 0 0 0 0 
1 0 0 1 1 1 1 1 
0 1 0 0 1 1 1 0 
0 0 0 1 1 0 1 0 
1 0 1 1 1 1 0 0 
Graph 2:
0 1 0 0 1 0 0 0 
1 0 0 1 1 1 0 1 
0 0 1 1 1 0 0 0 
0 0 0 0 0 1 1 1 
1 1 1 1 1 0 0 1 
0 1 1 1 0 0 1 0 
0 1 0 1 1 0 0 0 
0 0 1 1 1 1 0 1 
Solution: -14 11577
Gbest: -24.000000
Expectation: -34.259066
Final Parameters:
Gammas:
[ 2.994214 3.434793 ]
Betas:
[ 2.692200 1.139347 1.652614 ]
Aggregate results:
[ 25 29 27 31 35 33 23 21 17 19 37 39 41 15 43 45 13 63 ]
[ 0.075054 0.170168 0.125143 0.183756 0.088206 0.152532 0.034259 0.012607 0.001065 0.004351 0.041692 0.014392 0.003445 0.000211 0.000650 0.000036 0.000056 0.092376 ]
3
Num Evals 740
GenUC: 2.621742e-03
GenUB: 1.892875e-02
Optimisation 5.519397e+01
Total Time: 5.543106e+01
3 Add 8
Graph 1:
0 0 0 1 0 0 1 0 
1 0 1 1 1 0 0 1 
0 0 0 1 1 1 0 0 
1 1 1 0 0 0 0 0 
1 0 0 1 1 1 1 1 
0 1 0 0 1 1 1 0 
0 0 0 1 1 0 1 0 
1 0 1 1 1 1 0 0 
Graph 2:
1 0 0 1 0 0 1 0 
1 0 1 1 1 0 0 1 
1 1 1 1 1 1 0 0 
1 1 1 0 0 0 0 0 
1 0 1 1 1 1 1 1 
0 1 1 0 1 1 1 1 
1 0 0 1 1 0 1 0 
1 0 1 1 1 1 0 0 
Solution: -8 0
Gbest: -26.000000
Expectation: -36.324474
Final Parameters:
Gammas:
[ 3.384462 2.904211 ]
Betas:
[ 2.171648 1.026623 1.542754 ]
Aggregate results:
[ 7 23 13 19 17 27 21 25 29 15 31 33 35 37 39 41 43 45 49 47 11 63 ]
[ 0.000054 0.022385 0.000156 0.002343 0.000845 0.104547 0.007092 0.056194 0.151527 0.000200 0.172934 0.154931 0.108838 0.052182 0.021218 0.006851 0.000994 0.000133 0.000012 0.000018 0.000003 0.136542 ]
3
Num Evals 1053
GenUC: 2.987473e-03
GenUB: 1.719878e-02
Optimisation 6.220706e+01
Total Time: 6.241821e+01
4 Rem 8
Graph 1:
0 0 0 1 0 0 1 0 
1 0 1 1 1 0 0 1 
0 0 0 1 1 1 0 0 
1 1 1 0 0 0 0 0 
1 0 0 1 1 1 1 1 
0 1 0 0 1 1 1 0 
0 0 0 1 1 0 1 0 
1 0 1 1 1 1 0 0 
Graph 2:
0 0 0 1 0 0 1 0 
1 0 1 1 0 0 0 1 
0 0 0 1 1 1 0 0 
1 1 0 0 0 0 0 0 
1 0 0 0 0 1 1 0 
0 1 0 0 0 1 1 0 
0 0 0 1 1 0 1 0 
0 0 1 1 1 0 0 0 
Solution: -8 0
Gbest: -28.000000
Expectation: -32.382268
Final Parameters:
Gammas:
[ 3.178109 3.098917 ]
Betas:
[ 2.254639 1.116145 1.101008 ]
Aggregate results:
[ 7 19 23 15 29 25 21 27 31 33 17 35 37 13 39 41 43 9 45 63 ]
[ 0.000064 0.004024 0.034302 0.000681 0.179100 0.074469 0.013200 0.131143 0.191231 0.162801 0.001265 0.109123 0.046505 0.000131 0.017327 0.003593 0.000397 0.000033 0.000011 0.030600 ]
3
Num Evals 1400
GenUC: 2.937598e-03
GenUB: 1.785021e-02
Optimisation 6.714306e+01
Total Time: 6.734803e+01
5 Add/Rem 8
Graph 1:
0 0 0 1 0 0 1 0 
1 0 1 1 1 0 0 1 
0 0 0 1 1 1 0 0 
1 1 1 0 0 0 0 0 
1 0 0 1 1 1 1 1 
0 1 0 0 1 1 1 0 
0 0 0 1 1 0 1 0 
1 0 1 1 1 1 0 0 
Graph 2:
0 0 1 1 0 0 1 0 
1 0 1 0 1 0 1 1 
0 0 0 1 1 1 1 0 
1 1 1 0 1 0 0 0 
0 0 0 1 1 0 0 1 
0 1 0 1 1 1 0 0 
0 0 1 0 1 0 1 0 
0 1 0 1 1 1 1 0 
Solution: -16 0
Gbest: -22.000000
Expectation: -38.210665
Final Parameters:
Gammas:
[ 3.381705 3.138289 ]
Betas:
[ 2.502586 1.430079 1.516544 ]
Aggregate results:
[ 15 21 23 25 19 27 29 31 33 35 37 17 39 41 43 45 47 63 ]
[ 0.000128 0.034588 0.071871 0.117372 0.009549 0.132613 0.104762 0.074658 0.061786 0.059757 0.049524 0.001995 0.028221 0.009492 0.002395 0.000485 0.000085 0.240718 ]
3
Num Evals 1868
GenUC: 2.916564e-03
GenUB: 1.721221e-02
Optimisation 1.775192e+02
Total Time: 1.780075e+02
