Clock Speed: 3.689422
Num threads: 4
Trotterisation: 2
Num Qubits: 10
Space Dimension: 1024
Run-Type: 0
Num_samples: 32399
Optimiser Method: 20
1 Isomorphic
Graph 1:
0 1 0 0 1 0 
0 1 1 1 0 1 
1 0 0 0 0 0 
1 1 1 1 1 0 
0 1 1 1 0 0 
0 1 0 0 0 0 
Graph 2:
0 1 0 0 1 0 
0 1 1 1 0 1 
1 0 0 0 0 0 
1 1 1 1 1 0 
0 1 1 1 0 0 
0 1 0 0 0 0 
Solution: 36 0
Classic Expectation: 18.400000
Initial Expecation: 12.937500
Gbest: 36.000000
Expectation: 16.922428
Final Parameters:
Gammas:
[ 3.226307 2.563645 ]
Betas:
[ 2.336826 1.254483 ]
Aggregate results:
[ 36 26 28 22 20 18 24 16 12 14 10 30 0 ]
[ 0.000232 0.014572 0.008779 0.126217 0.233463 0.174153 0.070753 0.138285 0.043327 0.082130 0.010531 0.000764 0.096794 ]
5
Num Evals 2400
GenUC: 2.602145e-04
GenUB: 9.050331e-05
Optimisation 2.865817e+00
Total Time: 2.866184e+00
2 Flipped
Graph 1:
0 1 0 0 1 0 
0 1 1 1 0 1 
1 0 0 0 0 0 
1 1 1 1 1 0 
0 1 1 1 0 0 
0 1 0 0 0 0 
Graph 2:
0 1 0 0 1 0 
1 0 1 1 1 0 
0 0 0 0 0 1 
0 1 1 1 1 1 
0 0 1 1 1 0 
0 0 0 0 1 0 
Solution: 32 713
Classic Expectation: 18.400000
Initial Expecation: 12.937500
Gbest: 32.000000
Expectation: 16.048927
Final Parameters:
Gammas:
[ 4.903125 1.521584 ]
Betas:
[ 0.151180 0.247015 ]
Aggregate results:
[ 24 20 22 16 18 14 12 26 30 10 28 8 32 0 ]
[ 0.071780 0.216179 0.142510 0.092918 0.149283 0.042905 0.021801 0.050977 0.009078 0.001403 0.003631 0.001523 0.003303 0.192708 ]
5
Num Evals 2400
GenUC: 2.792245e-04
GenUB: 4.904967e-05
Optimisation 1.220715e+00
Total Time: 1.221045e+00
3 Add 6
Graph 1:
0 1 0 0 1 0 
0 1 1 1 0 1 
1 0 0 0 0 0 
1 1 1 1 1 0 
0 1 1 1 0 0 
0 1 0 0 0 0 
Graph 2:
0 1 1 0 1 0 
0 1 1 1 1 1 
1 0 0 0 0 0 
1 1 1 1 1 0 
0 1 1 1 1 0 
1 1 0 1 0 0 
Solution: 31 0
Classic Expectation: 17.800000
Initial Expecation: 12.515625
Gbest: 31.000000
Expectation: 17.356603
Final Parameters:
Gammas:
[ 2.917038 6.194999 ]
Betas:
[ 0.955520 1.964671 ]
Aggregate results:
[ 31 25 27 21 23 19 15 17 11 13 7 9 0 ]
[ 0.003246 0.078290 0.015623 0.218115 0.128865 0.215927 0.055980 0.116558 0.013620 0.018837 0.000799 0.000942 0.133197 ]
5
Num Evals 2400
GenUC: 2.800713e-04
GenUB: 5.147862e-05
Optimisation 2.582252e+00
Total Time: 2.582586e+00
4 Rem 6
Graph 1:
0 1 0 0 1 0 
0 1 1 1 0 1 
1 0 0 0 0 0 
1 1 1 1 1 0 
0 1 1 1 0 0 
0 1 0 0 0 0 
Graph 2:
0 0 0 0 1 0 
0 0 1 0 0 0 
0 0 0 0 0 0 
0 1 1 1 1 0 
0 1 1 1 0 0 
0 1 0 0 0 0 
Solution: 30 0
Classic Expectation: 19.066667
Initial Expecation: 13.406250
Gbest: 30.000000
Expectation: 16.017345
Final Parameters:
Gammas:
[ 3.517455 3.734196 ]
Betas:
[ 0.816982 2.724425 ]
Aggregate results:
[ 30 22 26 20 16 18 14 24 12 28 0 ]
[ 0.001610 0.143835 0.029357 0.191413 0.119915 0.194786 0.048628 0.077577 0.013597 0.002949 0.176334 ]
5
Num Evals 2400
GenUC: 2.800167e-04
GenUB: 5.205133e-05
Optimisation 2.742703e+00
Total Time: 2.743037e+00
5 Add/Rem 6
Graph 1:
0 1 0 0 1 0 
0 1 1 1 0 1 
1 0 0 0 0 0 
1 1 1 1 1 0 
0 1 1 1 0 0 
0 1 0 0 0 0 
Graph 2:
1 1 0 0 1 0 
0 0 1 0 0 1 
1 0 0 1 1 0 
1 1 1 1 1 0 
0 0 0 1 0 0 
0 1 0 1 0 0 
Solution: 28 0
Classic Expectation: 18.400000
Initial Expecation: 12.937500
Gbest: 28.000000
Expectation: 13.816134
Final Parameters:
Gammas:
[ 4.425649 3.526259 ]
Betas:
[ 0.610013 0.201817 ]
Aggregate results:
[ 28 22 14 20 18 24 16 12 10 26 8 0 ]
[ 0.000047 0.104437 0.068792 0.173968 0.147776 0.067328 0.129424 0.022079 0.002790 0.016278 0.001509 0.265573 ]
5
Num Evals 2400
GenUC: 2.799775e-04
GenUB: 4.926679e-05
Optimisation 1.390700e+00
Total Time: 1.391031e+00
