Clock Speed: 3.689336
Num threads: 4
Trotterisation: 2
Num Qubits: 10
Space Dimension: 1024
Run-Type: 0
Num_samples: 32399
Optimiser Method: 20
1 Isomorphic
Graph 1:
0 0 0 1 1 0 
1 1 1 0 0 0 
1 0 1 1 1 1 
0 0 0 0 0 1 
0 1 0 0 1 0 
0 0 1 1 1 1 
Graph 2:
0 0 0 1 1 0 
1 1 1 0 0 0 
1 0 1 1 1 1 
0 0 0 0 0 1 
0 1 0 0 1 0 
0 0 1 1 1 1 
Solution: 36 0
Classic Expectation: 18.600000
Initial Expecation: 13.078125
Gbest: 36.000000
Expectation: 16.529229
Final Parameters:
Gammas:
[ 0.902746 2.344371 ]
Betas:
[ 0.022496 0.270646 ]
Aggregate results:
[ 36 24 30 28 14 20 22 26 18 16 12 10 0 ]
[ 0.004447 0.079352 0.005874 0.008487 0.060563 0.201475 0.147896 0.022867 0.187838 0.111226 0.012318 0.001667 0.155990 ]
5
Num Evals 2400
GenUC: 2.611703e-04
GenUB: 9.327568e-05
Optimisation 1.015631e+00
Total Time: 1.016013e+00
2 Flipped
Graph 1:
0 0 0 1 1 0 
1 1 1 0 0 0 
1 0 1 1 1 1 
0 0 0 0 0 1 
0 1 0 0 1 0 
0 0 1 1 1 1 
Graph 2:
0 1 1 0 0 0 
0 0 0 1 1 1 
1 1 1 1 0 1 
1 0 0 0 0 0 
0 1 0 0 1 0 
1 1 1 1 0 0 
Solution: 26 211
Classic Expectation: 17.666667
Initial Expecation: 12.421875
Gbest: 26.000000
Expectation: 15.927876
Final Parameters:
Gammas:
[ 3.050276 4.791159 ]
Betas:
[ 0.982578 1.803558 ]
Aggregate results:
[ 18 14 12 16 20 22 24 10 26 0 ]
[ 0.240602 0.114909 0.036266 0.192041 0.179867 0.088871 0.025970 0.013976 0.006343 0.101155 ]
5
Num Evals 2400
GenUC: 2.944581e-04
GenUB: 5.052681e-05
Optimisation 2.489399e+00
Total Time: 2.489747e+00
3 Add 6
Graph 1:
0 0 0 1 1 0 
1 1 1 0 0 0 
1 0 1 1 1 1 
0 0 0 0 0 1 
0 1 0 0 1 0 
0 0 1 1 1 1 
Graph 2:
0 0 0 1 1 0 
1 1 1 1 1 0 
1 0 1 1 1 1 
0 0 0 0 0 1 
0 1 1 0 1 1 
1 0 1 1 1 1 
Solution: 31 0
Classic Expectation: 17.933333
Initial Expecation: 12.609375
Gbest: 31.000000
Expectation: 15.598976
Final Parameters:
Gammas:
[ 4.861917 4.366980 ]
Betas:
[ 0.177362 2.465647 ]
Aggregate results:
[ 31 23 27 19 21 15 17 25 11 13 9 0 ]
[ 0.001366 0.054122 0.005122 0.223992 0.117899 0.133847 0.229401 0.014661 0.019593 0.072279 0.001404 0.126315 ]
5
Num Evals 2400
GenUC: 2.949059e-04
GenUB: 5.144818e-05
Optimisation 2.334282e+00
Total Time: 2.334632e+00
4 Rem 6
Graph 1:
0 0 0 1 1 0 
1 1 1 0 0 0 
1 0 1 1 1 1 
0 0 0 0 0 1 
0 1 0 0 1 0 
0 0 1 1 1 1 
Graph 2:
0 0 0 1 1 0 
1 1 1 0 0 0 
1 0 1 1 1 0 
0 0 0 0 0 1 
0 0 0 0 0 0 
0 0 0 1 0 0 
Solution: 30 0
Classic Expectation: 18.466667
Initial Expecation: 12.984375
Gbest: 30.000000
Expectation: 16.368908
Final Parameters:
Gammas:
[ 0.246980 4.298852 ]
Betas:
[ 2.623111 3.075306 ]
Aggregate results:
[ 30 24 28 26 18 16 20 22 12 10 14 0 ]
[ 0.001100 0.058829 0.002212 0.017590 0.204341 0.161402 0.233142 0.117196 0.022751 0.002542 0.043187 0.135710 ]
5
Num Evals 2400
GenUC: 2.945420e-04
GenUB: 5.179027e-05
Optimisation 3.644717e+00
Total Time: 3.645067e+00
5 Add/Rem 6
Graph 1:
0 0 0 1 1 0 
1 1 1 0 0 0 
1 0 1 1 1 1 
0 0 0 0 0 1 
0 1 0 0 1 0 
0 0 1 1 1 1 
Graph 2:
0 0 0 1 0 1 
0 1 1 1 0 0 
1 0 1 1 1 0 
0 1 0 1 1 1 
0 1 0 0 1 0 
1 0 0 0 1 1 
Solution: 29 270
Classic Expectation: 18.933333
Initial Expecation: 13.312500
Gbest: 29.000000
Expectation: 16.816178
Final Parameters:
Gammas:
[ 2.417053 3.971893 ]
Betas:
[ 0.040179 0.256211 ]
Aggregate results:
[ 25 23 19 17 21 15 27 13 29 11 9 0 ]
[ 0.040067 0.148328 0.205613 0.117827 0.208789 0.071353 0.026022 0.012392 0.005145 0.001441 0.001076 0.161949 ]
5
Num Evals 2400
GenUC: 2.943678e-04
GenUB: 5.197455e-05
Optimisation 1.056283e+00
Total Time: 1.056633e+00
