Clock Speed: 3.689398
Num threads: 4
Trotterisation: 6
Graph Size: 5
Num Qubits: 7
Space Dimension: 128
Run-Type: 0
Num_samples: 10
1 Isomorphic
Graph 1:
1 1 0 1 1 
0 0 0 0 0 
0 0 1 0 0 
0 1 0 1 1 
0 0 0 0 0 
Graph 2:
1 1 0 1 1 
0 0 0 0 0 
0 0 1 0 0 
0 1 0 1 1 
0 0 0 0 0 
Solution: 0 0
Gbest: 0.000000
Expectation: -6.460189
Final Parameters:
Gammas:
[ 3.090179 3.201830 3.123600 3.369757 3.147809 2.892748 ]
Betas:
[ 1.593268 1.282640 1.941641 1.189104 3.140150 1.353585 1.519632 ]
Aggregate results:
[ -1 9 5 11 7 1 13 24 ]
[ 0.119572 0.109152 0.368902 0.043548 0.245483 0.082883 0.023497 0.006964 ]
5
Num Evals 443
GenUC: 1.542401e-04
GenUB: 2.991004e-05
Optimisation 3.865247e-01
Total Time: 3.875579e-01
2 Flipped
Graph 1:
1 1 0 1 1 
0 0 0 0 0 
0 0 1 0 0 
0 1 0 1 1 
0 0 0 0 0 
Graph 2:
1 1 0 1 1 
0 0 0 0 0 
0 0 1 0 0 
1 1 0 1 0 
0 0 0 0 0 
Solution: -2 0
Gbest: -6.000000
Expectation: -8.305116
Final Parameters:
Gammas:
[ 2.947497 3.030559 3.195055 2.937985 3.193068 5.989943 ]
Betas:
[ 1.342068 2.252127 2.032758 1.719663 1.514490 1.385326 1.535052 ]
Aggregate results:
[ 1 9 7 11 5 13 24 ]
[ 0.097251 0.156307 0.343897 0.118160 0.218572 0.052573 0.013240 ]
5
Num Evals 927
GenUC: 2.186740e-05
GenUB: 2.178052e-05
Optimisation 4.095053e-01
Total Time: 4.103884e-01
3 Add 5
Graph 1:
1 1 0 1 1 
0 0 0 0 0 
0 0 1 0 0 
0 1 0 1 1 
0 0 0 0 0 
Graph 2:
1 1 0 1 1 
1 0 0 0 0 
0 0 1 1 0 
1 1 0 1 1 
0 1 0 0 1 
Solution: -5 0
Gbest: -9.000000
Expectation: -10.454495
Final Parameters:
Gammas:
[ 2.970517 2.337572 2.830166 2.850553 2.907371 2.391748 ]
Betas:
[ 0.228180 1.859485 1.438324 1.385825 1.564533 1.669596 1.721756 ]
Aggregate results:
[ 4 10 14 8 12 6 16 24 ]
[ 0.106729 0.303417 0.052925 0.269395 0.177599 0.065194 0.002356 0.022385 ]
5
Num Evals 1439
GenUC: 2.480453e-05
GenUB: 1.738922e-05
Optimisation 4.088129e-01
Total Time: 4.096138e-01
4 Rem 5
Graph 1:
1 1 0 1 1 
0 0 0 0 0 
0 0 1 0 0 
0 1 0 1 1 
0 0 0 0 0 
Graph 2:
0 1 0 0 1 
0 0 0 0 0 
0 0 0 0 0 
0 1 0 1 0 
0 0 0 0 0 
Solution: -4 0
Gbest: -4.000000
Expectation: -7.537142
Final Parameters:
Gammas:
[ 2.672710 3.176080 3.126972 3.083186 4.205948 2.282707 ]
Betas:
[ 2.565206 1.493831 1.585837 1.448448 1.939856 1.420381 1.538291 ]
Aggregate results:
[ 3 9 7 11 5 24 ]
[ 0.112650 0.149155 0.329437 0.058259 0.342215 0.008284 ]
5
Num Evals 1939
GenUC: 2.036037e-05
GenUB: 1.725834e-05
Optimisation 4.126277e-01
Total Time: 4.135048e-01
5 Add/Rem 5
Graph 1:
1 1 0 1 1 
0 0 0 0 0 
0 0 1 0 0 
0 1 0 1 1 
0 0 0 0 0 
Graph 2:
1 1 1 1 0 
0 0 0 0 0 
0 0 0 1 0 
1 0 0 1 0 
1 0 0 1 0 
Solution: -7 24
Gbest: -7.000000
Expectation: -8.476541
Final Parameters:
Gammas:
[ 3.264732 3.169223 3.399869 3.169289 3.623277 2.810648 ]
Betas:
[ 1.370165 1.420796 1.473146 1.389169 1.531172 1.421645 1.588498 ]
Aggregate results:
[ 8 12 10 14 6 24 ]
[ 0.454417 0.013183 0.082169 0.011222 0.435111 0.003898 ]
5
Num Evals 2451
GenUC: 2.204580e-05
GenUB: 1.680592e-05
Optimisation 4.267096e-01
Total Time: 4.276399e-01
