Clock Speed: 3.688881
Num threads: 4
Trotterisation: 6
Graph Size: 5
Num Qubits: 7
Space Dimension: 128
Run-Type: 0
Num_samples: 10
1 Isomorphic
Graph 1:
1 0 1 0 1 
1 0 1 1 0 
1 0 1 0 0 
0 1 0 0 0 
0 0 1 0 0 
Graph 2:
1 0 1 0 1 
1 0 1 1 0 
1 0 1 0 0 
0 1 0 0 0 
0 0 1 0 0 
Solution: 0 0
Gbest: 0.000000
Expectation: -8.387367
Final Parameters:
Gammas:
[ 3.101962 3.111274 3.316724 3.163458 3.373844 2.886067 ]
Betas:
[ 1.958697 1.681304 1.688106 1.614245 1.222199 1.421186 1.492264 ]
Aggregate results:
[ -1 11 13 3 9 7 15 5 17 19 24 ]
[ 0.099273 0.213826 0.064303 0.157559 0.206300 0.156828 0.021619 0.071782 0.000881 0.001965 0.005664 ]
5
Num Evals 501
GenUC: 1.669580e-04
GenUB: 3.012418e-05
Optimisation 4.147493e-01
Total Time: 4.158547e-01
2 Flipped
Graph 1:
1 0 1 0 1 
1 0 1 1 0 
1 0 1 0 0 
0 1 0 0 0 
0 0 1 0 0 
Graph 2:
1 0 1 0 1 
0 1 1 0 1 
0 0 1 0 1 
0 0 0 1 0 
0 0 1 0 0 
Solution: -8 0
Gbest: -8.000000
Expectation: -10.131777
Final Parameters:
Gammas:
[ 3.243810 3.142919 3.193145 3.099507 3.571676 3.288414 ]
Betas:
[ 3.135994 1.398637 1.851270 1.429618 1.401933 1.407560 1.487817 ]
Aggregate results:
[ 7 9 13 11 15 24 ]
[ 0.255302 0.482510 0.037917 0.218066 0.004278 0.001928 ]
5
Num Evals 967
GenUC: 2.269715e-05
GenUB: 2.182747e-05
Optimisation 4.069437e-01
Total Time: 4.078221e-01
3 Add 5
Graph 1:
1 0 1 0 1 
1 0 1 1 0 
1 0 1 0 0 
0 1 0 0 0 
0 0 1 0 0 
Graph 2:
1 0 1 0 1 
1 0 1 1 0 
1 0 1 1 0 
1 1 1 1 0 
0 0 1 0 0 
Solution: -4 0
Gbest: -4.000000
Expectation: -10.036711
Final Parameters:
Gammas:
[ 3.419456 3.155507 3.204390 3.146908 3.305735 2.087033 ]
Betas:
[ 0.030565 1.207960 1.603933 1.714475 1.571176 1.379659 1.493614 ]
Aggregate results:
[ 3 13 15 11 7 9 17 19 24 ]
[ 0.120744 0.070329 0.026946 0.208996 0.268208 0.263874 0.024132 0.001607 0.015165 ]
5
Num Evals 1455
GenUC: 2.480039e-05
GenUB: 1.750188e-05
Optimisation 3.677308e-01
Total Time: 3.684962e-01
4 Rem 5
Graph 1:
1 0 1 0 1 
1 0 1 1 0 
1 0 1 0 0 
0 1 0 0 0 
0 0 1 0 0 
Graph 2:
1 0 0 0 0 
1 0 1 0 0 
0 0 1 0 0 
0 1 0 0 0 
0 0 1 0 0 
Solution: -4 0
Gbest: -6.000000
Expectation: -8.459572
Final Parameters:
Gammas:
[ 3.365933 3.273947 2.993703 3.029378 3.475449 3.201693 ]
Betas:
[ 0.001356 1.621463 1.627416 0.952172 1.714970 1.538083 1.370531 ]
Aggregate results:
[ 3 9 11 5 13 7 15 24 ]
[ 0.129545 0.292092 0.061775 0.129721 0.034119 0.335122 0.010937 0.006688 ]
5
Num Evals 1933
GenUC: 2.238320e-05
GenUB: 1.721433e-05
Optimisation 3.575574e-01
Total Time: 3.582981e-01
5 Add/Rem 5
Graph 1:
1 0 1 0 1 
1 0 1 1 0 
1 0 1 0 0 
0 1 0 0 0 
0 0 1 0 0 
Graph 2:
0 0 1 0 0 
1 1 1 1 1 
0 0 1 1 0 
0 0 0 1 0 
0 1 1 0 0 
Solution: -5 108
Gbest: -5.000000
Expectation: -9.170587
Final Parameters:
Gammas:
[ 2.960130 3.151434 2.922026 3.129523 3.348214 3.107918 ]
Betas:
[ 2.330207 1.757750 1.660791 1.811347 1.563252 1.260772 1.747621 ]
Aggregate results:
[ 8 10 12 14 6 16 18 4 24 ]
[ 0.376023 0.206139 0.056352 0.026008 0.266625 0.005700 0.003517 0.056242 0.003393 ]
5
Num Evals 2444
GenUC: 2.167901e-05
GenUB: 1.742854e-05
Optimisation 4.335898e-01
Total Time: 4.344633e-01
