Clock Speed: 3.689277
Num threads: 4
Trotterisation: 5
Num Qubits: 7
Space Dimension: 128
Run-Type: 0
Num_samples: 5
Optimiser Method: 20
1 Isomorphic
Graph 1:
0 0 0 1 1 
0 0 0 0 0 
0 0 0 1 1 
1 0 1 0 0 
1 0 1 0 0 
Graph 2:
0 0 0 1 1 
0 0 0 0 0 
0 0 0 1 1 
1 0 1 0 0 
1 0 1 0 0 
Solution: 25 0
Classic Expectation: 15.400000
Initial Expecation: 14.437500
Gbest: 25.000000
Expectation: 17.954909
Final Parameters:
Gammas:
[ 3.736766 4.548803 5.309766 1.770073 5.587051 ]
Betas:
[ 0.853817 0.219405 0.619625 2.827014 1.094062 ]
Aggregate results:
[ 25 17 13 0 ]
[ 0.330352 0.350040 0.288110 0.031498 ]
5
Num Evals 5000
GenUC: 4.094485e-05
GenUB: 1.353718e-05
Optimisation 7.030352e+01
Total Time: 7.030360e+01
2 Flipped
Graph 1:
0 0 0 1 1 
0 0 0 0 0 
0 0 0 1 1 
1 0 1 0 0 
1 0 1 0 0 
Graph 2:
1 1 0 0 0 
0 0 0 0 0 
1 1 0 0 0 
0 0 1 0 1 
0 0 1 0 1 
Solution: 15 2
Classic Expectation: 13.800000
Initial Expecation: 12.937500
Gbest: 15.000000
Expectation: 14.280611
Final Parameters:
Gammas:
[ 1.728386 2.907845 0.310556 1.771611 0.243129 ]
Betas:
[ 2.835121 0.872264 0.301533 0.388498 0.056589 ]
Aggregate results:
[ 13 15 9 0 ]
[ 0.250167 0.721390 0.023066 0.005377 ]
5
Num Evals 5000
GenUC: 4.442307e-05
GenUB: 3.083245e-06
Optimisation 5.777471e+01
Total Time: 5.777476e+01
3 Add 5
Graph 1:
0 0 0 1 1 
0 0 0 0 0 
0 0 0 1 1 
1 0 1 0 0 
1 0 1 0 0 
Graph 2:
0 1 1 1 1 
1 0 0 1 1 
1 0 0 1 1 
1 1 1 0 0 
1 1 1 0 0 
Solution: 17 0
Classic Expectation: 13.800000
Initial Expecation: 12.937500
Gbest: 17.000000
Expectation: 15.155976
Final Parameters:
Gammas:
[ 5.065726 0.756609 0.359975 2.767700 5.080833 ]
Betas:
[ 1.961348 2.003712 2.596993 3.132130 1.051160 ]
Aggregate results:
[ 17 13 9 0 ]
[ 0.615211 0.348864 0.018016 0.017908 ]
5
Num Evals 5000
GenUC: 4.457915e-05
GenUB: 2.951798e-06
Optimisation 9.857178e+01
Total Time: 9.857183e+01
4 Rem 5
Graph 1:
0 0 0 1 1 
0 0 0 0 0 
0 0 0 1 1 
1 0 1 0 0 
1 0 1 0 0 
Graph 2:
0 0 0 0 0 
0 0 0 0 0 
0 0 0 0 0 
0 0 0 0 0 
0 0 0 0 0 
Solution: 17 0
Classic Expectation: 17.000000
Initial Expecation: 15.937500
Gbest: 17.000000
Expectation: 17.000000
Final Parameters:
Gammas:
[ 5.690632 4.892201 6.047990 0.738365 4.897218 ]
Betas:
[ 1.829728 1.360761 2.892666 0.999514 1.343167 ]
Aggregate results:
[ 17 0 ]
[ 1.000000 0.000000 ]
5
Num Evals 5000
GenUC: 4.772109e-05
GenUB: 2.863773e-06
Optimisation 8.951680e+01
Total Time: 8.951686e+01
5 Add/Rem 5
Graph 1:
0 0 0 1 1 
0 0 0 0 0 
0 0 0 1 1 
1 0 1 0 0 
1 0 1 0 0 
Graph 2:
1 1 1 0 0 
1 1 1 1 1 
1 1 0 0 1 
0 1 0 0 0 
0 1 1 0 0 
Solution: 19 16
Classic Expectation: 12.600000
Initial Expecation: 11.812500
Gbest: 15.000000
Expectation: 13.955144
Final Parameters:
Gammas:
[ 0.636679 2.838375 2.554744 4.716600 2.448943 ]
Betas:
[ 0.404733 2.818834 1.809769 0.012219 2.223500 ]
Aggregate results:
[ 7 11 15 19 0 ]
[ 0.059616 0.320214 0.408268 0.204814 0.007089 ]
5
Num Evals 5000
GenUC: 4.758494e-05
GenUB: 3.040986e-06
Optimisation 7.791233e+01
Total Time: 7.791239e+01
