Clock Speed: 3.689328
Num threads: 4
Trotterisation: 4
Graph Size: 8
Num Qubits: 16
Space Dimension: 65536
Run-Type: 0
Num_samples: 10
1 Isomorphic
Graph 1:
1 0 1 1 0 1 0 1 
1 0 0 0 1 0 0 1 
1 0 1 1 1 1 0 0 
1 1 1 1 0 0 1 1 
0 0 1 0 1 1 0 1 
1 1 0 1 0 0 0 1 
1 0 0 0 1 1 1 1 
0 1 0 0 1 1 0 0 
Graph 2:
1 0 1 1 0 1 0 1 
1 0 0 0 1 0 0 1 
1 0 1 1 1 1 0 0 
1 1 1 1 0 0 1 1 
0 0 1 0 1 1 0 1 
1 1 0 1 0 0 0 1 
1 0 0 0 1 1 1 1 
0 1 0 0 1 1 0 0 
Solution: 0 0
Gbest: -28.000000
Expectation: -37.769255
Final Parameters:
Gammas:
[ 2.818128 3.117646 3.175501 3.209205 ]
Betas:
[ 2.439130 2.405814 2.434171 2.445713 1.535268 ]
Aggregate results:
[ -1 17 21 15 11 25 29 13 23 9 19 27 31 33 7 35 37 39 43 41 45 47 63 ]
[ 0.000055 0.002300 0.017268 0.000859 0.000089 0.070934 0.139656 0.000236 0.038432 0.000050 0.006845 0.108230 0.140297 0.123192 0.000132 0.079406 0.044230 0.018767 0.001608 0.004719 0.000253 0.000026 0.202418 ]
5
Num Evals 800
GenUC: 3.628577e-03
GenUB: 3.670057e-02
Optimisation 3.275046e+02
Total Time: 3.279492e+02
2 Flipped
Graph 1:
1 0 1 1 0 1 0 1 
1 0 0 0 1 0 0 1 
1 0 1 1 1 1 0 0 
1 1 1 1 0 0 1 1 
0 0 1 0 1 1 0 1 
1 1 0 1 0 0 0 1 
1 0 0 0 1 1 1 1 
0 1 0 0 1 1 0 0 
Graph 2:
1 0 1 0 1 1 0 1 
1 0 0 1 0 0 0 1 
0 0 1 1 1 1 0 1 
1 1 0 0 1 1 1 1 
1 0 1 1 0 1 0 0 
1 0 0 0 1 0 1 1 
1 1 1 1 0 0 0 1 
0 0 1 1 0 0 1 0 
Solution: -12 2261
Gbest: -26.000000
Expectation: -40.904369
Final Parameters:
Gammas:
[ 2.389478 3.084614 3.180239 3.077516 ]
Betas:
[ 2.392344 2.305366 2.358311 2.453090 1.706633 ]
Aggregate results:
[ 29 33 35 41 37 31 39 27 25 23 19 21 17 13 11 15 43 45 47 63 ]
[ 0.128334 0.126086 0.083706 0.005626 0.045064 0.148310 0.017972 0.088087 0.047371 0.020071 0.001945 0.005406 0.000242 0.000002 0.000060 0.000045 0.001180 0.000340 0.000025 0.280130 ]
5
Num Evals 1600
GenUC: 2.630766e-03
GenUB: 1.665817e-02
Optimisation 3.170356e+02
Total Time: 3.174555e+02
3 Add 8
Graph 1:
1 0 1 1 0 1 0 1 
1 0 0 0 1 0 0 1 
1 0 1 1 1 1 0 0 
1 1 1 1 0 0 1 1 
0 0 1 0 1 1 0 1 
1 1 0 1 0 0 0 1 
1 0 0 0 1 1 1 1 
0 1 0 0 1 1 0 0 
Graph 2:
1 0 1 1 1 1 1 1 
1 0 0 0 1 0 0 1 
1 0 1 1 1 1 0 0 
1 1 1 1 0 1 1 1 
0 0 1 1 1 1 0 1 
1 1 0 1 0 1 0 1 
1 0 1 0 1 1 1 1 
0 1 1 0 1 1 1 0 
Solution: -8 0
Gbest: -26.000000
Expectation: -35.424923
Final Parameters:
Gammas:
[ 2.997898 1.424594 3.141099 3.330238 ]
Betas:
[ 2.272464 2.366059 2.420612 2.035619 1.661635 ]
Aggregate results:
[ 7 23 25 21 15 31 29 17 27 13 33 19 35 39 37 41 43 45 63 ]
[ 0.000054 0.039515 0.087145 0.015550 0.000748 0.160083 0.176886 0.001671 0.133349 0.000105 0.124916 0.005865 0.069463 0.008115 0.029618 0.002125 0.000452 0.000020 0.144321 ]
5
Num Evals 2400
GenUC: 2.999858e-03
GenUB: 1.676425e-02
Optimisation 3.082633e+02
Total Time: 3.086650e+02
4 Rem 8
Graph 1:
1 0 1 1 0 1 0 1 
1 0 0 0 1 0 0 1 
1 0 1 1 1 1 0 0 
1 1 1 1 0 0 1 1 
0 0 1 0 1 1 0 1 
1 1 0 1 0 0 0 1 
1 0 0 0 1 1 1 1 
0 1 0 0 1 1 0 0 
Graph 2:
1 0 1 1 0 1 0 0 
0 0 0 0 1 0 0 1 
1 0 1 0 1 1 0 0 
1 1 1 1 0 0 1 1 
0 0 0 0 0 1 0 1 
0 1 0 1 0 0 0 1 
1 0 0 0 0 1 0 1 
0 1 0 0 1 1 0 0 
Solution: -8 0
Gbest: -24.000000
Expectation: -31.084599
Final Parameters:
Gammas:
[ 3.183848 3.376081 3.135419 3.316779 ]
Betas:
[ 2.451602 2.437514 2.647067 2.016274 1.500085 ]
Aggregate results:
[ 7 23 25 19 21 11 17 27 29 33 31 15 35 37 13 39 41 43 45 47 51 63 ]
[ 0.000008 0.084443 0.139089 0.017871 0.043095 0.000274 0.005085 0.187344 0.191396 0.065937 0.128476 0.001800 0.028540 0.018930 0.000249 0.015630 0.009319 0.003959 0.000782 0.000140 0.000038 0.057596 ]
5
Num Evals 3200
GenUC: 2.993746e-03
GenUB: 1.659932e-02
Optimisation 3.139639e+02
Total Time: 3.143780e+02
5 Add/Rem 8
Graph 1:
1 0 1 1 0 1 0 1 
1 0 0 0 1 0 0 1 
1 0 1 1 1 1 0 0 
1 1 1 1 0 0 1 1 
0 0 1 0 1 1 0 1 
1 1 0 1 0 0 0 1 
1 0 0 0 1 1 1 1 
0 1 0 0 1 1 0 0 
Graph 2:
1 1 1 1 0 1 0 0 
0 0 0 1 1 0 0 0 
1 0 1 1 1 1 0 1 
1 1 1 1 1 0 1 1 
0 0 0 0 1 0 1 1 
1 0 0 1 1 0 0 0 
0 0 1 1 1 1 1 1 
0 1 0 0 1 1 0 0 
Solution: -16 0
Gbest: -28.000000
Expectation: -35.760186
Final Parameters:
Gammas:
[ 2.995320 2.381123 3.142227 3.141935 ]
Betas:
[ 2.401423 2.448667 2.581523 1.627354 1.906589 ]
Aggregate results:
[ 15 25 21 19 29 31 23 27 17 33 35 37 39 41 43 45 47 63 ]
[ 0.000151 0.070961 0.012177 0.003374 0.159318 0.156758 0.032171 0.116916 0.001570 0.143912 0.098986 0.049033 0.016537 0.004461 0.000669 0.000148 0.000011 0.132848 ]
5
Num Evals 4000
GenUC: 3.105253e-03
GenUB: 1.696774e-02
Optimisation 3.131481e+02
Total Time: 3.135658e+02
