Clock Speed: 3.689257
Num threads: 4
Trotterisation: 4
Graph Size: 8
Num Qubits: 16
Space Dimension: 65536
Run-Type: 0
Num_samples: 10
1 Isomorphic
Graph 1:
0 0 0 0 0 1 0 0 
0 1 1 1 1 1 1 1 
1 0 0 0 1 0 0 1 
0 0 1 0 1 1 0 1 
0 0 1 1 0 0 1 1 
1 1 0 1 1 0 1 0 
1 1 1 0 0 0 1 0 
0 1 1 1 1 1 1 1 
Graph 2:
0 0 0 0 0 1 0 0 
0 1 1 1 1 1 1 1 
1 0 0 0 1 0 0 1 
0 0 1 0 1 1 0 1 
0 0 1 1 0 0 1 1 
1 1 0 1 1 0 1 0 
1 1 1 0 0 0 1 0 
0 1 1 1 1 1 1 1 
Solution: 0 0
Gbest: -16.000000
Expectation: -39.879227
Final Parameters:
Gammas:
[ 2.082875 3.080086 3.176011 3.074612 ]
Betas:
[ 2.491785 2.247373 2.178817 2.505447 1.883136 ]
Aggregate results:
[ -1 15 21 17 23 9 19 27 25 29 11 13 31 5 33 39 35 37 41 43 45 47 7 49 63 ]
[ 0.000017 0.001182 0.013913 0.002497 0.031502 0.000158 0.005519 0.097672 0.062599 0.134491 0.000163 0.000443 0.134906 0.000003 0.114839 0.016113 0.070835 0.040507 0.005843 0.001460 0.000408 0.000008 0.000054 0.000010 0.264857 ]
5
Num Evals 800
GenUC: 3.539950e-03
GenUB: 1.739235e-02
Optimisation 3.242999e+02
Total Time: 3.247187e+02
2 Flipped
Graph 1:
0 0 0 0 0 1 0 0 
0 1 1 1 1 1 1 1 
1 0 0 0 1 0 0 1 
0 0 1 0 1 1 0 1 
0 0 1 1 0 0 1 1 
1 1 0 1 1 0 1 0 
1 1 1 0 0 0 1 0 
0 1 1 1 1 1 1 1 
Graph 2:
0 0 1 0 0 0 0 0 
1 1 1 1 1 1 1 0 
1 0 0 1 0 0 0 1 
1 0 1 1 0 1 0 0 
1 1 0 0 1 1 0 0 
0 1 0 1 1 0 1 1 
0 1 0 0 0 1 1 1 
1 1 1 1 1 1 1 0 
Solution: -16 3373
Gbest: -30.000000
Expectation: -38.401720
Final Parameters:
Gammas:
[ 2.796635 3.101833 3.153128 3.181629 ]
Betas:
[ 2.224537 2.424768 2.408291 2.463366 1.527719 ]
Aggregate results:
[ 25 35 39 31 29 33 23 37 27 21 17 43 19 41 15 45 47 63 ]
[ 0.075039 0.079367 0.018486 0.132116 0.132177 0.118672 0.041315 0.044648 0.107708 0.017605 0.000593 0.001340 0.004294 0.005447 0.000046 0.000190 0.000009 0.220948 ]
5
Num Evals 1600
GenUC: 2.638074e-03
GenUB: 1.696278e-02
Optimisation 3.195613e+02
Total Time: 3.200312e+02
3 Add 8
Graph 1:
0 0 0 0 0 1 0 0 
0 1 1 1 1 1 1 1 
1 0 0 0 1 0 0 1 
0 0 1 0 1 1 0 1 
0 0 1 1 0 0 1 1 
1 1 0 1 1 0 1 0 
1 1 1 0 0 0 1 0 
0 1 1 1 1 1 1 1 
Graph 2:
1 1 0 0 0 1 0 0 
0 1 1 1 1 1 1 1 
1 1 0 0 1 0 0 1 
1 0 1 0 1 1 0 1 
0 1 1 1 0 0 1 1 
1 1 0 1 1 0 1 1 
1 1 1 0 1 0 1 0 
1 1 1 1 1 1 1 1 
Solution: -8 0
Gbest: -24.000000
Expectation: -36.352400
Final Parameters:
Gammas:
[ 2.997714 2.045320 3.234224 3.133674 ]
Betas:
[ 2.053668 2.432195 2.611470 1.305728 1.520387 ]
Aggregate results:
[ 7 17 21 23 27 15 19 29 25 13 31 33 37 35 39 41 11 43 63 ]
[ 0.000024 0.001217 0.016117 0.039544 0.141594 0.000301 0.003738 0.167785 0.085198 0.000094 0.156729 0.116068 0.026136 0.061160 0.007439 0.001630 0.000020 0.000178 0.175028 ]
5
Num Evals 2400
GenUC: 3.052108e-03
GenUB: 1.689144e-02
Optimisation 2.998516e+02
Total Time: 3.002448e+02
4 Rem 8
Graph 1:
0 0 0 0 0 1 0 0 
0 1 1 1 1 1 1 1 
1 0 0 0 1 0 0 1 
0 0 1 0 1 1 0 1 
0 0 1 1 0 0 1 1 
1 1 0 1 1 0 1 0 
1 1 1 0 0 0 1 0 
0 1 1 1 1 1 1 1 
Graph 2:
0 0 0 0 0 1 0 0 
0 0 1 1 1 1 1 0 
1 0 0 0 0 0 0 1 
0 0 1 0 1 1 0 1 
0 0 1 1 0 0 1 0 
0 1 0 1 0 0 0 0 
1 1 1 0 0 0 1 0 
0 1 1 1 0 1 1 1 
Solution: -8 0
Gbest: -24.000000
Expectation: -33.408228
Final Parameters:
Gammas:
[ 3.188905 2.389964 3.142195 3.141598 ]
Betas:
[ 2.676051 2.443750 2.308284 1.638495 2.297583 ]
Aggregate results:
[ 7 19 25 23 21 29 27 17 15 31 11 33 35 13 37 39 41 43 45 47 63 ]
[ 0.000047 0.005380 0.074951 0.037252 0.014026 0.164842 0.128027 0.001915 0.000488 0.184456 0.000052 0.155642 0.095224 0.000095 0.046204 0.019792 0.006293 0.001714 0.000283 0.000020 0.063298 ]
5
Num Evals 3200
GenUC: 2.965888e-03
GenUB: 1.674312e-02
Optimisation 3.249144e+02
Total Time: 3.253704e+02
5 Add/Rem 8
Graph 1:
0 0 0 0 0 1 0 0 
0 1 1 1 1 1 1 1 
1 0 0 0 1 0 0 1 
0 0 1 0 1 1 0 1 
0 0 1 1 0 0 1 1 
1 1 0 1 1 0 1 0 
1 1 1 0 0 0 1 0 
0 1 1 1 1 1 1 1 
Graph 2:
0 0 0 0 0 1 0 0 
1 1 1 1 1 1 1 1 
1 1 0 0 1 0 0 1 
0 0 1 1 1 1 1 0 
0 0 1 0 0 1 1 0 
1 1 1 0 1 0 0 0 
1 0 1 0 0 0 1 1 
0 1 1 1 1 1 0 1 
Solution: -12 2522
Gbest: -30.000000
Expectation: -39.177608
Final Parameters:
Gammas:
[ 2.596240 3.200369 3.108731 3.062321 ]
Betas:
[ 2.438291 2.439168 2.295650 2.143064 1.427342 ]
Aggregate results:
[ 13 27 33 25 23 19 29 15 31 21 35 37 17 39 41 43 11 45 47 63 ]
[ 0.000094 0.093584 0.129909 0.054545 0.027603 0.003586 0.128159 0.000328 0.145510 0.011814 0.091165 0.050707 0.001039 0.022495 0.007842 0.002502 0.000012 0.000459 0.000060 0.228586 ]
5
Num Evals 4000
GenUC: 3.039624e-03
GenUB: 1.698678e-02
Optimisation 3.180482e+02
Total Time: 3.184590e+02
