Clock Speed: 3.688420
Num threads: 4
Trotterisation: 6
Graph Size: 4
Num Qubits: 5
Space Dimension: 32
Run-Type: 0
Num_samples: 10
1 Isomorphic
Graph 1:
0 0 1 1 
1 0 0 0 
0 1 0 1 
0 1 0 0 
Graph 2:
0 0 1 1 
1 0 0 0 
0 1 0 1 
0 1 0 0 
Solution: 0 0
Gbest: 0.000000
Expectation: -3.922045
Final Parameters:
Gammas:
[ 4.455540 3.223916 3.328056 3.032187 3.571396 3.841957 ]
Betas:
[ 1.787806 1.535058 2.473507 1.300344 1.534822 1.266947 1.537203 ]
Aggregate results:
[ -1 9 3 5 7 1 11 15 ]
[ 0.318206 0.039195 0.156856 0.137678 0.022318 0.236353 0.001237 0.088157 ]
5
Num Evals 400
GenUC: 1.631826e-04
GenUB: 1.166959e-05
Optimisation 2.288398e-01
Total Time: 2.295166e-01
2 Flipped
Graph 1:
0 0 1 1 
1 0 0 0 
0 1 0 1 
0 1 0 0 
Graph 2:
1 1 0 0 
0 0 0 1 
1 0 1 0 
0 0 1 0 
Solution: -4 3
Gbest: -4.000000
Expectation: -6.064321
Final Parameters:
Gammas:
[ 6.118822 6.000560 3.702161 3.610773 4.628292 3.215156 ]
Betas:
[ 2.174961 1.912969 1.747403 1.590017 1.804126 1.547511 1.503744 ]
Aggregate results:
[ 11 5 9 3 7 15 ]
[ 0.028864 0.151018 0.019339 0.483435 0.299099 0.018245 ]
5
Num Evals 800
GenUC: 2.665236e-05
GenUB: 8.384523e-06
Optimisation 2.307423e-01
Total Time: 2.312741e-01
3 Add 4
Graph 1:
0 0 1 1 
1 0 0 0 
0 1 0 1 
0 1 0 0 
Graph 2:
0 1 1 1 
1 1 0 1 
1 1 0 1 
0 1 0 0 
Solution: -4 0
Gbest: -4.000000
Expectation: -6.832521
Final Parameters:
Gammas:
[ 3.933813 3.853536 3.007231 3.520739 3.461100 3.359534 ]
Betas:
[ 1.537805 1.411527 1.726324 1.753563 1.631623 1.382373 1.069168 ]
Aggregate results:
[ 3 7 5 9 15 ]
[ 0.087576 0.292638 0.565038 0.020846 0.033901 ]
5
Num Evals 1200
GenUC: 1.101231e-05
GenUB: 8.389819e-06
Optimisation 2.292099e-01
Total Time: 2.297022e-01
4 Rem 4
Graph 1:
0 0 1 1 
1 0 0 0 
0 1 0 1 
0 1 0 0 
Graph 2:
0 0 0 1 
0 0 0 0 
0 1 0 1 
0 0 0 0 
Solution: -3 0
Gbest: -5.000000
Expectation: -5.846057
Final Parameters:
Gammas:
[ 4.992111 2.916124 3.261884 3.280485 3.232417 3.728941 ]
Betas:
[ 1.624637 1.996542 1.946422 1.566994 1.545282 1.371306 1.139092 ]
Aggregate results:
[ 2 6 4 8 15 ]
[ 0.071243 0.208849 0.661276 0.010588 0.048045 ]
5
Num Evals 1600
GenUC: 1.052464e-05
GenUB: 7.790106e-06
Optimisation 2.093036e-01
Total Time: 2.098140e-01
5 Add/Rem 4
Graph 1:
0 0 1 1 
1 0 0 0 
0 1 0 1 
0 1 0 0 
Graph 2:
0 1 1 0 
1 0 0 0 
1 1 0 0 
1 1 0 1 
Solution: -4 13
Gbest: -4.000000
Expectation: -6.963699
Final Parameters:
Gammas:
[ 4.524657 3.265067 3.357592 3.217801 3.289523 3.749040 ]
Betas:
[ 1.808796 1.814459 1.682576 0.898632 1.794314 1.638175 1.222274 ]
Aggregate results:
[ 5 7 9 3 15 ]
[ 0.512091 0.228448 0.005761 0.171103 0.082596 ]
5
Num Evals 2000
GenUC: 1.169951e-05
GenUB: 8.747214e-06
Optimisation 1.879558e-01
Total Time: 1.884623e-01
