Clock Speed: 3.688940
Num threads: 4
Trotterisation: 6
Num Qubits: 5
Space Dimension: 32
Run-Type: 0
Num_samples: 4
Optimiser Method: 0
1 Isomorphic
Graph 1:
0 1 0 0 
1 0 0 1 
0 0 0 0 
0 1 0 0 
Graph 2:
0 1 0 0 
1 0 0 1 
0 0 0 0 
0 1 0 0 
Solution: 16 0
Classic Expectation: 10.666667
Initial Expecation: 8.000000
Gbest: 16.000000
Expectation: 12.298683
Final Parameters:
Gammas:
[ 3.141593 4.575205 2.658934 3.026674 3.365684 3.098498 ]
Betas:
[ 1.596653 2.561971 1.471679 1.471679 1.437203 1.514773 ]
Aggregate results:
[ 16 12 8 0 ]
[ 0.213077 0.714688 0.039149 0.033086 ]
5
Num Evals 4800
GenUC: 8.663439e-06
GenUB: 8.879986e-06
Optimisation 7.883237e+01
Total Time: 7.883241e+01
2 Flipped
Graph 1:
0 1 0 0 
1 0 0 1 
0 0 0 0 
0 1 0 0 
Graph 2:
0 0 1 0 
1 0 0 1 
0 0 0 0 
0 0 1 0 
Solution: 12 0
Classic Expectation: 10.666667
Initial Expecation: 8.000000
Gbest: 12.000000
Expectation: 10.093705
Final Parameters:
Gammas:
[ 1.008413 3.102808 3.128665 3.128665 3.151647 3.413088 ]
Betas:
[ 1.435049 1.581570 1.564332 0.524317 1.926326 1.460905 ]
Aggregate results:
[ 12 10 0 ]
[ 0.552533 0.346331 0.101136 ]
5
Num Evals 4800
GenUC: 9.409305e-06
GenUB: 1.887260e-06
Optimisation 8.148015e+01
Total Time: 8.148017e+01
3 Add 4
Graph 1:
0 1 0 0 
1 0 0 1 
0 0 0 0 
0 1 0 0 
Graph 2:
1 1 1 1 
1 1 0 1 
1 0 0 0 
1 1 0 0 
Solution: 10 0
Classic Expectation: 7.333333
Initial Expecation: 5.500000
Gbest: 10.000000
Expectation: 8.073686
Final Parameters:
Gammas:
[ 1.163074 3.257469 3.127228 3.026674 5.144053 2.173402 ]
Betas:
[ 1.576542 1.513337 0.621280 1.603835 2.095113 1.513337 ]
Aggregate results:
[ 10 6 2 0 ]
[ 0.726863 0.124456 0.029159 0.119521 ]
5
Num Evals 4800
GenUC: 9.257899e-06
GenUB: 1.713554e-06
Optimisation 7.795195e+01
Total Time: 7.795197e+01
4 Rem 4
Graph 1:
0 1 0 0 
1 0 0 1 
0 0 0 0 
0 1 0 0 
Graph 2:
0 0 0 0 
0 0 0 0 
0 0 0 0 
0 0 0 0 
Solution: 12 0
Classic Expectation: 12.000000
Initial Expecation: 9.000000
Gbest: 12.000000
Expectation: 12.000000
Final Parameters:
Gammas:
[ 4.537537 3.141593 5.235976 3.842917 3.862401 5.675860 ]
Betas:
[ 2.024885 1.572392 0.523758 1.905657 1.569360 1.585161 ]
Aggregate results:
[ 12 0 ]
[ 1.000000 0.000000 ]
5
Num Evals 4800
GenUC: 9.568925e-06
GenUB: 1.563916e-06
Optimisation 7.820090e+01
Total Time: 7.820092e+01
5 Add/Rem 4
Graph 1:
0 1 0 0 
1 0 0 1 
0 0 0 0 
0 1 0 0 
Graph 2:
0 0 1 1 
0 1 0 0 
1 0 0 0 
1 0 0 0 
Solution: 15 12
Classic Expectation: 9.666667
Initial Expecation: 7.250000
Gbest: 11.000000
Expectation: 10.603525
Final Parameters:
Gammas:
[ 1.057253 5.266154 3.140156 3.800939 3.108057 0.698132 ]
Betas:
[ 2.443461 1.900470 1.551404 1.547094 2.495174 1.745329 ]
Aggregate results:
[ 7 11 15 0 ]
[ 0.192997 0.452564 0.284956 0.069483 ]
5
Num Evals 4800
GenUC: 9.632298e-06
GenUB: 1.579763e-06
Optimisation 8.414438e+01
Total Time: 8.414440e+01
