Clock Speed: 3.688538
Num threads: 4
Trotterisation: 6
Num Qubits: 5
Space Dimension: 32
Run-Type: 0
Num_samples: 4
Optimiser Method: 0
1 Isomorphic
Graph 1:
0 0 0 1 
0 0 0 0 
0 0 0 0 
1 0 0 0 
Graph 2:
0 0 0 1 
0 0 0 0 
0 0 0 0 
1 0 0 0 
Solution: 16 0
Classic Expectation: 12.666667
Initial Expecation: 9.500000
Gbest: 16.000000
Expectation: 14.795428
Final Parameters:
Gammas:
[ 1.045761 5.205822 3.154521 5.245879 3.232091 3.179420 ]
Betas:
[ 1.590189 0.426636 1.577261 1.745329 1.588752 2.055610 ]
Aggregate results:
[ 16 12 0 ]
[ 0.795027 0.172916 0.032057 ]
5
Num Evals 4800
GenUC: 8.196948e-06
GenUB: 9.216288e-06
Optimisation 7.825896e+01
Total Time: 7.825901e+01
2 Flipped
Graph 1:
0 0 0 1 
0 0 0 0 
0 0 0 0 
1 0 0 0 
Graph 2:
1 0 0 0 
0 0 0 0 
0 0 0 0 
0 0 0 1 
Solution: 12 0
Classic Expectation: 12.000000
Initial Expecation: 9.000000
Gbest: 12.000000
Expectation: 12.000000
Final Parameters:
Gammas:
[ 4.537537 3.141593 5.235976 3.842917 3.862401 5.675860 ]
Betas:
[ 2.024885 1.572392 0.523758 1.905657 1.569360 1.585161 ]
Aggregate results:
[ 12 0 ]
[ 1.000000 0.000000 ]
5
Num Evals 4800
GenUC: 9.215699e-06
GenUB: 1.850887e-06
Optimisation 7.456697e+01
Total Time: 7.456699e+01
3 Add 4
Graph 1:
0 0 0 1 
0 0 0 0 
0 0 0 0 
1 0 0 0 
Graph 2:
1 1 1 1 
1 1 0 1 
1 0 0 0 
1 1 0 0 
Solution: 8 0
Classic Expectation: 6.666667
Initial Expecation: 5.000000
Gbest: 8.000000
Expectation: 7.570403
Final Parameters:
Gammas:
[ 1.070181 1.012722 5.945611 1.147751 3.595522 3.078387 ]
Betas:
[ 2.678326 2.199977 1.320848 1.346705 1.743175 1.575106 ]
Aggregate results:
[ 8 4 0 ]
[ 0.927758 0.037084 0.035157 ]
5
Num Evals 4800
GenUC: 9.273790e-06
GenUB: 1.754059e-06
Optimisation 8.248193e+01
Total Time: 8.248195e+01
4 Rem 4
Graph 1:
0 0 0 1 
0 0 0 0 
0 0 0 0 
1 0 0 0 
Graph 2:
0 0 0 0 
0 0 0 0 
0 0 0 0 
0 0 0 0 
Solution: 14 0
Classic Expectation: 14.000000
Initial Expecation: 10.500000
Gbest: 14.000000
Expectation: 14.000000
Final Parameters:
Gammas:
[ 5.235988 5.235988 0.356727 5.225465 2.377371 3.909633 ]
Betas:
[ 0.562390 1.226040 1.609581 1.570796 1.572235 1.570796 ]
Aggregate results:
[ 14 0 ]
[ 1.000000 0.000000 ]
5
Num Evals 4800
GenUC: 9.514399e-06
GenUB: 1.542794e-06
Optimisation 8.077901e+01
Total Time: 8.077903e+01
5 Add/Rem 4
Graph 1:
0 0 0 1 
0 0 0 0 
0 0 0 0 
1 0 0 0 
Graph 2:
1 1 1 0 
1 0 0 1 
1 0 0 0 
0 1 0 0 
Solution: 11 1
Classic Expectation: 9.000000
Initial Expecation: 6.750000
Gbest: 11.000000
Expectation: 9.653360
Final Parameters:
Gammas:
[ 1.037545 5.257535 3.128664 3.142071 3.142036 5.274773 ]
Betas:
[ 0.465421 1.654831 1.628974 1.564332 0.530063 1.965111 ]
Aggregate results:
[ 7 11 0 ]
[ 0.224818 0.734512 0.040670 ]
5
Num Evals 4800
GenUC: 9.632349e-06
GenUB: 1.464163e-06
Optimisation 7.336114e+01
Total Time: 7.336116e+01
