Clock Speed: 3.688822
Num threads: 4
Trotterisation: 3
Num Qubits: 3
Space Dimension: 8
Run-Type: 0
Num_samples: 3
Optimiser Method: 0
1 Isomorphic
Graph 1:
0 0 0 
0 0 1 
0 1 0 
Graph 2:
0 0 0 
0 0 1 
0 1 0 
Solution: 9 0
Classic Expectation: 6.333333
Initial Expecation: 4.750000
Gbest: 9.000000
Expectation: 7.000000
Final Parameters:
Gammas:
[ 1.047198 5.235988 1.047198 ]
Betas:
[ 2.526059 1.570796 1.878683 ]
Aggregate results:
[ 9 5 0 ]
[ 0.500000 0.500000 0.000000 ]
5
Num Evals 1800
GenUC: 2.903049e-06
GenUB: 7.251510e-06
Optimisation 3.468868e-01
Total Time: 3.469248e-01
2 Flipped
Graph 1:
0 0 0 
0 0 1 
0 1 0 
Graph 2:
0 0 0 
1 0 0 
0 1 0 
Solution: 7 0
Classic Expectation: 6.333333
Initial Expecation: 4.750000
Gbest: 7.000000
Expectation: 6.982081
Final Parameters:
Gammas:
[ 5.235988 1.047198 5.235988 ]
Betas:
[ 2.617994 1.570796 1.919862 ]
Aggregate results:
[ 7 5 0 ]
[ 0.996018 0.001991 0.001991 ]
5
Num Evals 1800
GenUC: 2.979359e-06
GenUB: 1.028704e-06
Optimisation 3.391013e-01
Total Time: 3.391077e-01
3 Add 3
Graph 1:
0 0 0 
0 0 1 
0 1 0 
Graph 2:
1 1 1 
1 0 1 
1 1 0 
Solution: 4 0
Classic Expectation: 4.000000
Initial Expecation: 3.000000
Gbest: 4.000000
Expectation: 4.000000
Final Parameters:
Gammas:
[ 1.047198 3.374622 3.141597 ]
Betas:
[ 2.577719 1.570796 1.234659 ]
Aggregate results:
[ 4 0 ]
[ 1.000000 0.000000 ]
5
Num Evals 1800
GenUC: 2.913061e-06
GenUB: 6.666523e-07
Optimisation 3.410511e-01
Total Time: 3.410566e-01
4 Rem 3
Graph 1:
0 0 0 
0 0 1 
0 1 0 
Graph 2:
0 0 0 
0 0 0 
0 0 0 
Solution: 7 0
Classic Expectation: 7.000000
Initial Expecation: 5.250000
Gbest: 7.000000
Expectation: 7.000000
Final Parameters:
Gammas:
[ 1.046240 5.235988 1.047198 ]
Betas:
[ 0.575578 1.609053 1.221270 ]
Aggregate results:
[ 7 0 ]
[ 1.000000 0.000000 ]
5
Num Evals 1800
GenUC: 2.934190e-06
GenUB: 8.878997e-07
Optimisation 3.382268e-01
Total Time: 3.382330e-01
5 Add/Rem 3
Graph 1:
0 0 0 
0 0 1 
0 1 0 
Graph 2:
0 1 1 
1 0 0 
1 0 0 
Solution: 7 2
Classic Expectation: 5.666667
Initial Expecation: 4.250000
Gbest: 7.000000
Expectation: 6.999987
Final Parameters:
Gammas:
[ 5.235952 5.235988 5.999737 ]
Betas:
[ 3.016645 0.788657 1.296215 ]
Aggregate results:
[ 3 7 0 ]
[ 0.000003 0.999997 0.000000 ]
5
Num Evals 1800
GenUC: 3.300956e-06
GenUB: 8.867355e-07
Optimisation 4.030469e-01
Total Time: 4.030538e-01
