Clock Speed: 3.689383
Num threads: 4
Trotterisation: 6
Graph Size: 7
Num Qubits: 13
Space Dimension: 8192
Run-Type: 0
Num_samples: 10
1 Isomorphic
Graph 1:
0 0 0 0 0 1 1 
1 0 0 1 0 1 1 
0 0 1 1 1 0 1 
1 1 1 1 0 1 0 
1 1 1 0 1 1 1 
0 0 0 1 0 1 1 
1 1 1 0 1 0 1 
Graph 2:
0 0 0 0 0 1 1 
1 0 0 1 0 1 1 
0 0 1 1 1 0 1 
1 1 1 1 0 1 0 
1 1 1 0 1 1 1 
0 0 0 1 0 1 1 
1 1 1 0 1 0 1 
Solution: 0 0
Gbest: -18.000000
Expectation: -24.021576
Final Parameters:
Gammas:
[ 3.216606 3.210232 3.132771 3.125636 3.144074 3.208320 ]
Betas:
[ 1.565599 1.466529 1.448523 1.639810 1.486634 1.453474 2.283764 ]
Aggregate results:
[ -1 3 9 7 21 19 23 17 13 25 15 11 27 29 31 35 33 48 ]
[ 0.000417 0.000448 0.002666 0.002121 0.189421 0.138807 0.191431 0.072703 0.011349 0.164545 0.037041 0.005220 0.100058 0.035509 0.010861 0.000169 0.000511 0.036725 ]
5
Num Evals 700
GenUC: 1.463609e-03
GenUB: 2.009523e-03
Optimisation 1.403153e+01
Total Time: 1.405238e+01
2 Flipped
Graph 1:
0 0 0 0 0 1 1 
1 0 0 1 0 1 1 
0 0 1 1 1 0 1 
1 1 1 1 0 1 0 
1 1 1 0 1 1 1 
0 0 0 1 0 1 1 
1 1 1 0 1 0 1 
Graph 2:
1 1 0 0 0 0 0 
1 1 0 1 0 0 1 
1 0 1 1 1 0 0 
0 1 0 1 1 1 1 
1 1 1 0 1 1 1 
1 1 0 1 0 0 0 
1 0 1 0 1 1 1 
Solution: -10 273
Gbest: -14.000000
Expectation: -22.876276
Final Parameters:
Gammas:
[ 3.109329 3.103860 3.166262 3.115774 3.208583 3.157894 ]
Betas:
[ 1.409093 1.574262 2.500383 1.560101 1.702443 1.510554 1.452339 ]
Aggregate results:
[ 17 19 23 25 27 21 29 31 15 13 9 33 11 48 ]
[ 0.099499 0.195250 0.213948 0.106968 0.034614 0.245503 0.007109 0.001129 0.042195 0.016523 0.000136 0.000081 0.002190 0.034855 ]
5
Num Evals 1400
GenUC: 1.120226e-03
GenUB: 1.593122e-03
Optimisation 1.272708e+01
Total Time: 1.274759e+01
3 Add 7
Graph 1:
0 0 0 0 0 1 1 
1 0 0 1 0 1 1 
0 0 1 1 1 0 1 
1 1 1 1 0 1 0 
1 1 1 0 1 1 1 
0 0 0 1 0 1 1 
1 1 1 0 1 0 1 
Graph 2:
0 0 1 0 0 1 1 
1 0 1 1 1 1 1 
0 0 1 1 1 1 1 
1 1 1 1 0 1 0 
1 1 1 0 1 1 1 
0 0 1 1 0 1 1 
1 1 1 0 1 0 1 
Solution: -5 0
Gbest: -19.000000
Expectation: -26.433389
Final Parameters:
Gammas:
[ 3.422289 3.121482 3.241997 3.155206 3.171396 2.988227 ]
Betas:
[ 1.651303 1.418367 1.588631 1.480466 1.419901 2.095853 1.779532 ]
Aggregate results:
[ 4 8 12 10 18 16 20 22 24 14 26 28 30 32 48 ]
[ 0.000088 0.000185 0.004341 0.001650 0.124623 0.054346 0.152787 0.163728 0.161594 0.023244 0.113079 0.049119 0.009209 0.001201 0.140807 ]
5
Num Evals 2100
GenUC: 1.183297e-03
GenUB: 1.719885e-03
Optimisation 1.295125e+01
Total Time: 1.297196e+01
4 Rem 7
Graph 1:
0 0 0 0 0 1 1 
1 0 0 1 0 1 1 
0 0 1 1 1 0 1 
1 1 1 1 0 1 0 
1 1 1 0 1 1 1 
0 0 0 1 0 1 1 
1 1 1 0 1 0 1 
Graph 2:
0 0 0 0 0 1 1 
0 0 0 1 0 1 1 
0 0 0 1 0 0 0 
1 1 0 0 0 1 0 
1 1 1 0 1 1 1 
0 0 0 1 0 1 1 
1 1 1 0 0 0 1 
Solution: -7 0
Gbest: -17.000000
Expectation: -25.109983
Final Parameters:
Gammas:
[ 3.130426 3.159867 3.139885 3.177572 3.130403 3.201450 ]
Betas:
[ 1.544327 1.592248 1.639740 1.892373 1.577619 2.205552 1.680292 ]
Aggregate results:
[ 6 8 10 18 20 16 22 24 26 14 28 12 30 32 34 36 48 ]
[ 0.000510 0.001031 0.001542 0.054710 0.122580 0.018495 0.190213 0.218412 0.166271 0.008814 0.118267 0.003562 0.061691 0.018393 0.003721 0.000660 0.011128 ]
5
Num Evals 2800
GenUC: 1.238867e-03
GenUB: 1.597994e-03
Optimisation 1.315190e+01
Total Time: 1.317300e+01
5 Add/Rem 7
Graph 1:
0 0 0 0 0 1 1 
1 0 0 1 0 1 1 
0 0 1 1 1 0 1 
1 1 1 1 0 1 0 
1 1 1 0 1 1 1 
0 0 0 1 0 1 1 
1 1 1 0 1 0 1 
Graph 2:
0 1 0 1 0 1 1 
1 0 0 1 0 1 1 
0 1 1 1 1 0 1 
1 0 1 1 0 0 0 
1 0 1 1 1 1 1 
0 0 0 0 0 0 1 
1 1 1 0 0 0 0 
Solution: -11 0
Gbest: -13.000000
Expectation: -21.486164
Final Parameters:
Gammas:
[ 3.099160 3.134372 3.083301 3.349876 3.253087 3.251257 ]
Betas:
[ 1.660136 0.908235 1.576609 1.100407 1.507754 3.061371 1.551949 ]
Aggregate results:
[ 10 18 16 24 22 20 14 26 28 30 32 34 12 48 ]
[ 0.009682 0.194058 0.101811 0.103553 0.195792 0.233813 0.056167 0.039477 0.014199 0.010370 0.004572 0.001387 0.016728 0.018390 ]
5
Num Evals 3500
GenUC: 1.249024e-03
GenUB: 1.754943e-03
Optimisation 1.274762e+01
Total Time: 1.276781e+01
