Clock Speed: 3.389536
Num threads: 4
Trotterisation: 6
Graph Size: 7
Num Qubits: 13
Space Dimension: 8192
Run-Type: 0
Num_samples: 10
1 Isomorphic
Graph 1:
0 1 1 1 0 1 0 
1 0 0 0 1 0 1 
0 0 0 1 1 0 1 
1 0 0 0 1 0 0 
1 0 1 0 0 0 1 
0 1 0 0 0 1 0 
0 0 0 0 0 0 0 
Graph 2:
0 1 1 1 0 1 0 
1 0 0 0 1 0 1 
0 0 0 1 1 0 1 
1 0 0 0 1 0 0 
1 0 1 0 0 0 1 
0 1 0 0 0 1 0 
0 0 0 0 0 0 0 
Solution: 0 0
Gbest: -18.000000
Expectation: -18.491089
Final Parameters:
Gammas:
[ 3.070136 3.076046 2.785930 3.138673 3.303775 3.140437 ]
Betas:
[ 1.647655 0.651209 1.968935 1.513703 1.543689 1.639730 1.707030 ]
Aggregate results:
[ -1 15 17 7 13 19 9 21 5 11 25 23 29 27 31 48 ]
[ 0.001080 0.169039 0.262512 0.005818 0.136041 0.190073 0.029728 0.092523 0.001475 0.035203 0.015295 0.026746 0.003728 0.004797 0.000720 0.025221 ]
5
Num Evals 701
GenUC: 2.403582e-03
GenUB: 6.702292e-03
Optimisation 1.250434e+01
Total Time: 1.253077e+01
2 Flipped
Graph 1:
0 1 1 1 0 1 0 
1 0 0 0 1 0 1 
0 0 0 1 1 0 1 
1 0 0 0 1 0 0 
1 0 1 0 0 0 1 
0 1 0 0 0 1 0 
0 0 0 0 0 0 0 
Graph 2:
0 1 0 1 1 1 0 
1 0 1 0 0 0 1 
1 0 1 1 0 0 0 
0 0 1 0 0 0 1 
1 0 0 0 1 0 1 
0 1 0 0 0 1 0 
0 0 0 0 0 0 0 
Solution: -6 50
Gbest: -16.000000
Expectation: -21.026046
Final Parameters:
Gammas:
[ 3.151488 3.164049 2.956860 2.991224 2.902408 3.468299 ]
Betas:
[ 0.000156 1.343239 2.329119 1.760831 1.548914 1.658003 1.601232 ]
Aggregate results:
[ 13 19 17 11 9 15 23 21 5 7 25 27 29 31 33 48 ]
[ 0.050499 0.257818 0.222700 0.010370 0.000388 0.125830 0.070894 0.175829 0.000023 0.000436 0.022027 0.008068 0.002651 0.000557 0.000026 0.051885 ]
5
Num Evals 1343
GenUC: 1.168507e-03
GenUB: 1.741979e-03
Optimisation 1.147567e+01
Total Time: 1.149489e+01
3 Add 7
Graph 1:
0 1 1 1 0 1 0 
1 0 0 0 1 0 1 
0 0 0 1 1 0 1 
1 0 0 0 1 0 0 
1 0 1 0 0 0 1 
0 1 0 0 0 1 0 
0 0 0 0 0 0 0 
Graph 2:
0 1 1 1 0 1 1 
1 0 1 0 1 0 1 
0 0 0 1 1 0 1 
1 0 0 0 1 0 0 
1 1 1 1 0 0 1 
0 1 0 1 1 1 0 
0 0 0 1 0 0 0 
Solution: -7 0
Gbest: -15.000000
Expectation: -21.903199
Final Parameters:
Gammas:
[ 3.200293 2.696883 3.106618 3.127050 3.343350 3.145047 ]
Betas:
[ 1.814369 0.918374 1.428412 1.508638 1.843328 1.006763 2.009978 ]
Aggregate results:
[ 6 16 20 12 18 10 14 22 24 26 28 30 32 48 ]
[ 0.002066 0.149249 0.194977 0.020133 0.206946 0.004137 0.077677 0.143514 0.083058 0.036145 0.018651 0.007521 0.000940 0.054988 ]
5
Num Evals 2054
GenUC: 1.220935e-03
GenUB: 1.942746e-03
Optimisation 1.229545e+01
Total Time: 1.232474e+01
4 Rem 7
Graph 1:
0 1 1 1 0 1 0 
1 0 0 0 1 0 1 
0 0 0 1 1 0 1 
1 0 0 0 1 0 0 
1 0 1 0 0 0 1 
0 1 0 0 0 1 0 
0 0 0 0 0 0 0 
Graph 2:
0 1 1 1 0 1 0 
1 0 0 0 0 0 1 
0 0 0 1 0 0 1 
1 0 0 0 1 0 0 
1 0 0 0 0 0 1 
0 0 0 0 0 0 0 
0 0 0 0 0 0 0 
Solution: -5 0
Gbest: -11.000000
Expectation: -19.575753
Final Parameters:
Gammas:
[ 3.126849 3.161015 3.126647 3.118269 3.165582 3.294208 ]
Betas:
[ 1.615701 2.072917 0.740589 0.708365 1.163752 0.947336 1.607543 ]
Aggregate results:
[ 4 16 18 8 10 20 14 12 22 24 26 28 48 ]
[ 0.000666 0.173404 0.268534 0.003896 0.011190 0.231745 0.083015 0.029075 0.133136 0.045263 0.012042 0.001903 0.006130 ]
5
Num Evals 2748
GenUC: 1.294261e-03
GenUB: 2.094778e-03
Optimisation 1.121103e+01
Total Time: 1.122977e+01
5 Add/Rem 7
Graph 1:
0 1 1 1 0 1 0 
1 0 0 0 1 0 1 
0 0 0 1 1 0 1 
1 0 0 0 1 0 0 
1 0 1 0 0 0 1 
0 1 0 0 0 1 0 
0 0 0 0 0 0 0 
Graph 2:
0 0 1 1 0 1 0 
1 0 0 1 1 0 1 
0 0 0 0 1 0 0 
0 0 1 0 0 0 1 
1 0 1 1 0 0 0 
1 1 1 0 0 1 0 
0 0 0 0 0 0 1 
Solution: -9 11
Gbest: -15.000000
Expectation: -21.672737
Final Parameters:
Gammas:
[ 3.125633 3.159888 3.166946 3.124306 3.160200 2.509776 ]
Betas:
[ 1.868499 1.572316 0.671154 1.182337 1.687633 0.661349 1.570952 ]
Aggregate results:
[ 12 22 18 14 20 16 8 24 10 28 26 30 32 48 ]
[ 0.011477 0.217586 0.171610 0.040807 0.228132 0.089841 0.000846 0.135233 0.001324 0.020491 0.075589 0.002912 0.000222 0.003929 ]
5
Num Evals 3449
GenUC: 1.238933e-03
GenUB: 1.775972e-03
Optimisation 1.132951e+01
Total Time: 1.134781e+01
