Clock Speed: 3.689384
Num threads: 4
Trotterisation: 2
Num Qubits: 5
Space Dimension: 32
Run-Type: 0
Num_samples: 6399
Optimiser Method: 0
1 Isomorphic
Graph 1:
0 0 1 1 
1 1 0 1 
1 0 1 1 
1 0 0 0 
Graph 2:
0 0 1 1 
1 1 0 1 
1 0 1 1 
1 0 0 0 
Solution: 16 0
Classic Expectation: 8.166667
Initial Expecation: 6.125000
Gbest: 16.000000
Expectation: 7.646240
Final Parameters:
Gammas:
[ 5.235988 1.047198 ]
Betas:
[ 0.523599 1.570796 ]
Aggregate results:
[ 16 10 14 8 6 2 0 ]
[ 0.062012 0.222046 0.101074 0.294800 0.071411 0.115845 0.132813 ]
3
Num Evals 15
GenUC: 8.365372e-06
GenUB: 1.163408e-05
Optimisation 2.614460e-03
Total Time: 2.654428e-03
2 Flipped
Graph 1:
0 0 1 1 
1 1 0 1 
1 0 1 1 
1 0 0 0 
Graph 2:
1 1 0 0 
1 0 1 1 
1 1 0 1 
0 0 0 1 
Solution: 10 6
Classic Expectation: 8.166667
Initial Expecation: 6.125000
Gbest: 10.000000
Expectation: 6.265625
Final Parameters:
Gammas:
[ 1.047198 3.141593 ]
Betas:
[ 2.617994 1.570796 ]
Aggregate results:
[ 6 8 10 0 ]
[ 0.286377 0.278809 0.231689 0.203125 ]
3
Num Evals 15
GenUC: 9.069568e-06
GenUB: 1.649605e-06
Optimisation 2.616909e-03
Total Time: 2.629136e-03
3 Add 4
Graph 1:
0 0 1 1 
1 1 0 1 
1 0 1 1 
1 0 0 0 
Graph 2:
0 0 1 1 
1 1 0 1 
1 1 1 1 
1 1 1 1 
Solution: 12 0
Classic Expectation: 8.666667
Initial Expecation: 6.500000
Gbest: 12.000000
Expectation: 6.946777
Final Parameters:
Gammas:
[ 5.235988 1.047198 ]
Betas:
[ 0.523599 1.570796 ]
Aggregate results:
[ 12 10 8 6 0 ]
[ 0.113892 0.202271 0.266235 0.237915 0.179687 ]
3
Num Evals 15
GenUC: 9.287323e-06
GenUB: 1.339184e-06
Optimisation 2.558715e-03
Total Time: 2.570983e-03
4 Rem 4
Graph 1:
0 0 1 1 
1 1 0 1 
1 0 1 1 
1 0 0 0 
Graph 2:
0 0 0 1 
1 1 0 0 
1 0 1 1 
0 0 0 0 
Solution: 13 0
Classic Expectation: 7.666667
Initial Expecation: 5.750000
Gbest: 13.000000
Expectation: 8.210516
Final Parameters:
Gammas:
[ 0.349066 5.235988 ]
Betas:
[ 0.523599 0.523599 ]
Aggregate results:
[ 13 9 7 1 3 0 ]
[ 0.365527 0.176799 0.242793 0.017559 0.050120 0.147201 ]
3
Num Evals 345
GenUC: 8.637086e-06
GenUB: 1.377892e-06
Optimisation 8.707440e-02
Total Time: 8.708594e-02
5 Add/Rem 4
Graph 1:
0 0 1 1 
1 1 0 1 
1 0 1 1 
1 0 0 0 
Graph 2:
1 1 1 0 
0 1 1 1 
1 1 1 1 
1 0 0 0 
Solution: 10 0
Classic Expectation: 8.333333
Initial Expecation: 6.250000
Gbest: 10.000000
Expectation: 7.234375
Final Parameters:
Gammas:
[ 1.047198 3.141593 ]
Betas:
[ 2.617994 1.570796 ]
Aggregate results:
[ 10 6 8 0 ]
[ 0.320923 0.078735 0.444092 0.156250 ]
3
Num Evals 15
GenUC: 8.845411e-06
GenUB: 1.597393e-06
Optimisation 2.463514e-03
Total Time: 2.475978e-03
