Clock Speed: 3.689310
Num threads: 4
Trotterisation: 5
Graph Size: 6
Num Qubits: 10
Space Dimension: 1024
Run-Type: 0
Num_samples: 10
1 Isomorphic
Graph 1:
1 0 1 1 1 1 
1 0 1 0 1 1 
0 0 0 1 0 0 
0 1 0 1 1 0 
1 1 1 1 1 1 
1 1 0 1 1 1 
Graph 2:
1 0 1 1 1 1 
1 0 1 0 1 1 
0 0 0 1 0 0 
0 1 0 1 1 0 
1 1 1 1 1 1 
1 1 0 1 1 1 
Solution: 0 0
Gbest: -10.000000
Expectation: -16.519140
Final Parameters:
Gammas:
[ 2.380180 3.606450 3.977688 2.677823 2.881910 ]
Betas:
[ 0.985327 1.575329 1.536918 1.609345 2.816314 1.642789 ]
Aggregate results:
[ -1 7 15 9 11 13 23 17 21 5 19 3 35 ]
[ 0.002719 0.015097 0.218983 0.057536 0.128778 0.222291 0.010364 0.146891 0.030366 0.006735 0.090161 0.008295 0.061784 ]
5
Num Evals 600
GenUC: 3.053311e-04
GenUB: 1.953538e-04
Optimisation 1.550144e+00
Total Time: 1.553151e+00
2 Flipped
Graph 1:
1 0 1 1 1 1 
1 0 1 0 1 1 
0 0 0 1 0 0 
0 1 0 1 1 0 
1 1 1 1 1 1 
1 1 0 1 1 1 
Graph 2:
1 1 1 1 0 1 
1 1 0 1 0 1 
0 0 1 0 0 0 
0 1 1 0 1 0 
1 1 1 1 1 1 
1 1 1 0 1 1 
Solution: -8 11
Gbest: -8.000000
Expectation: -13.368414
Final Parameters:
Gammas:
[ 3.112663 3.070594 3.099238 3.401558 0.000000 ]
Betas:
[ 1.654604 0.407205 2.172805 1.328522 2.038573 0.936734 ]
Aggregate results:
[ 11 13 15 9 7 19 17 21 35 ]
[ 0.284116 0.285946 0.137424 0.127750 0.079140 0.021354 0.037822 0.015262 0.011188 ]
5
Num Evals 1200
GenUC: 1.167934e-04
GenUB: 1.493482e-04
Optimisation 1.401823e+00
Total Time: 1.404528e+00
3 Add 6
Graph 1:
1 0 1 1 1 1 
1 0 1 0 1 1 
0 0 0 1 0 0 
0 1 0 1 1 0 
1 1 1 1 1 1 
1 1 0 1 1 1 
Graph 2:
1 1 1 1 1 1 
1 1 1 1 1 1 
0 0 1 1 0 0 
0 1 0 1 1 0 
1 1 1 1 1 1 
1 1 1 1 1 1 
Solution: -5 0
Gbest: -7.000000
Expectation: -13.349293
Final Parameters:
Gammas:
[ 3.141593 3.148367 3.390263 3.400569 3.255295 ]
Betas:
[ 0.614601 1.912319 2.361360 1.391429 1.544220 1.388346 ]
Aggregate results:
[ 4 6 12 14 10 18 16 8 35 ]
[ 0.027759 0.065870 0.238258 0.136367 0.362182 0.023344 0.091107 0.013108 0.042006 ]
5
Num Evals 1800
GenUC: 7.904216e-05
GenUB: 1.652456e-04
Optimisation 1.440120e+00
Total Time: 1.442645e+00
4 Rem 6
Graph 1:
1 0 1 1 1 1 
1 0 1 0 1 1 
0 0 0 1 0 0 
0 1 0 1 1 0 
1 1 1 1 1 1 
1 1 0 1 1 1 
Graph 2:
1 0 1 1 1 1 
1 0 1 0 1 1 
0 0 0 1 0 0 
0 0 0 1 1 0 
1 1 1 0 0 0 
0 0 0 1 1 1 
Solution: -6 0
Gbest: -10.000000
Expectation: -15.934785
Final Parameters:
Gammas:
[ 3.279228 3.079120 3.484392 3.645606 0.852758 ]
Betas:
[ 0.000000 0.144360 2.765134 1.424420 3.141593 1.575843 ]
Aggregate results:
[ 5 11 17 13 15 19 25 21 7 23 9 27 35 ]
[ 0.005735 0.120651 0.139605 0.253785 0.293745 0.033972 0.004222 0.009463 0.018857 0.007135 0.063328 0.006011 0.043491 ]
5
Num Evals 2400
GenUC: 1.334889e-04
GenUB: 1.743991e-04
Optimisation 1.333293e+00
Total Time: 1.335846e+00
5 Add/Rem 6
Graph 1:
1 0 1 1 1 1 
1 0 1 0 1 1 
0 0 0 1 0 0 
0 1 0 1 1 0 
1 1 1 1 1 1 
1 1 0 1 1 1 
Graph 2:
1 1 1 1 1 1 
1 1 1 0 1 1 
1 1 0 1 0 0 
0 1 1 1 1 0 
1 1 0 1 0 1 
0 1 1 1 1 0 
Solution: -8 134
Gbest: -12.000000
Expectation: -15.783653
Final Parameters:
Gammas:
[ 2.829339 2.849665 3.507633 3.518806 0.000000 ]
Betas:
[ 1.244231 1.578434 1.568290 1.542568 1.131805 1.684961 ]
Aggregate results:
[ 9 13 19 15 17 11 7 21 35 ]
[ 0.051302 0.279614 0.032771 0.251012 0.136730 0.192220 0.000475 0.007050 0.048827 ]
5
Num Evals 3000
GenUC: 1.219435e-04
GenUB: 1.741109e-04
Optimisation 1.423536e+00
Total Time: 1.426150e+00
