Clock Speed: 3.688773
Num threads: 4
Trotterisation: 5
Graph Size: 6
Num Qubits: 10
Space Dimension: 1024
Run-Type: 0
Num_samples: 10
1 Isomorphic
Graph 1:
1 1 1 1 0 0 
1 1 1 1 0 0 
1 1 1 0 1 1 
1 1 0 1 0 1 
1 0 1 0 1 1 
1 0 1 0 1 0 
Graph 2:
1 1 1 1 0 0 
1 1 1 1 0 0 
1 1 1 0 1 1 
1 1 0 1 0 1 
1 0 1 0 1 1 
1 0 1 0 1 0 
Solution: 0 0
Gbest: -12.000000
Expectation: -15.617199
Final Parameters:
Gammas:
[ 3.113107 3.156148 3.163061 3.161794 2.884741 ]
Betas:
[ 0.913100 0.597191 0.964414 0.595509 1.861749 2.717274 ]
Aggregate results:
[ -1 3 11 7 15 9 5 13 17 19 21 23 35 ]
[ 0.001107 0.006209 0.184460 0.046492 0.156859 0.058641 0.011321 0.199832 0.163948 0.109827 0.019509 0.003021 0.038774 ]
5
Num Evals 600
GenUC: 2.753498e-04
GenUB: 2.011653e-04
Optimisation 1.307646e+00
Total Time: 1.310287e+00
2 Flipped
Graph 1:
1 1 1 1 0 0 
1 1 1 1 0 0 
1 1 1 0 1 1 
1 1 0 1 0 1 
1 0 1 0 1 1 
1 0 1 0 1 0 
Graph 2:
0 0 1 1 1 1 
0 0 1 1 1 1 
1 1 0 1 1 1 
1 0 1 0 1 1 
1 1 0 1 0 1 
0 1 0 1 0 1 
Solution: -10 132
Gbest: -14.000000
Expectation: -17.164020
Final Parameters:
Gammas:
[ 2.945243 2.585685 3.127189 3.465709 3.405434 ]
Betas:
[ 2.050096 2.941371 1.476534 1.629627 1.908146 1.544531 ]
Aggregate results:
[ 23 21 19 17 15 13 11 9 35 ]
[ 0.004161 0.026409 0.031184 0.165994 0.343493 0.257085 0.091730 0.007778 0.072166 ]
5
Num Evals 1200
GenUC: 1.068843e-04
GenUB: 1.540233e-04
Optimisation 1.584692e+00
Total Time: 1.587574e+00
3 Add 6
Graph 1:
1 1 1 1 0 0 
1 1 1 1 0 0 
1 1 1 0 1 1 
1 1 0 1 0 1 
1 0 1 0 1 1 
1 0 1 0 1 0 
Graph 2:
1 1 1 1 0 1 
1 1 1 1 0 0 
1 1 1 1 1 1 
1 1 0 1 0 1 
1 0 1 0 1 1 
1 1 1 1 1 1 
Solution: -5 0
Gbest: -9.000000
Expectation: -12.932376
Final Parameters:
Gammas:
[ 3.135513 3.141593 3.120146 2.872418 4.799949 ]
Betas:
[ 1.444339 1.911503 2.499562 1.543285 1.734174 1.561752 ]
Aggregate results:
[ 4 6 12 10 8 14 16 18 35 ]
[ 0.011588 0.022978 0.359649 0.268753 0.134250 0.135617 0.025956 0.005024 0.036185 ]
5
Num Evals 1800
GenUC: 1.043381e-04
GenUB: 1.675623e-04
Optimisation 1.589155e+00
Total Time: 1.591897e+00
4 Rem 6
Graph 1:
1 1 1 1 0 0 
1 1 1 1 0 0 
1 1 1 0 1 1 
1 1 0 1 0 1 
1 0 1 0 1 1 
1 0 1 0 1 0 
Graph 2:
0 1 1 1 0 0 
1 1 1 1 0 0 
1 1 1 0 1 1 
1 1 0 1 0 0 
0 0 0 0 1 1 
1 0 1 0 0 0 
Solution: -5 0
Gbest: -9.000000
Expectation: -15.490669
Final Parameters:
Gammas:
[ 3.129329 3.152539 3.140936 3.342550 2.568978 ]
Betas:
[ 0.556746 1.877494 2.363701 1.599069 1.431884 1.544780 ]
Aggregate results:
[ 4 6 14 12 10 8 16 24 20 18 22 35 ]
[ 0.011208 0.019918 0.256558 0.189536 0.090993 0.054844 0.191977 0.001042 0.037405 0.105300 0.005493 0.035727 ]
5
Num Evals 2400
GenUC: 1.324165e-04
GenUB: 1.762123e-04
Optimisation 1.701641e+00
Total Time: 1.704269e+00
5 Add/Rem 6
Graph 1:
1 1 1 1 0 0 
1 1 1 1 0 0 
1 1 1 0 1 1 
1 1 0 1 0 1 
1 0 1 0 1 1 
1 0 1 0 1 0 
Graph 2:
0 1 1 0 0 1 
1 0 1 1 1 1 
1 1 1 0 0 0 
1 0 0 1 0 1 
1 0 1 1 1 1 
1 0 1 1 1 1 
Solution: -8 194
Gbest: -10.000000
Expectation: -17.495157
Final Parameters:
Gammas:
[ 3.190598 2.955722 3.272199 3.534292 3.778087 ]
Betas:
[ 0.767610 1.848692 1.495714 1.593363 2.132502 1.542530 ]
Aggregate results:
[ 11 15 13 19 17 9 21 7 35 ]
[ 0.088035 0.264753 0.199730 0.094229 0.229452 0.022131 0.019556 0.007711 0.074404 ]
5
Num Evals 3000
GenUC: 1.247137e-04
GenUB: 1.796711e-04
Optimisation 1.740179e+00
Total Time: 1.742819e+00
