Clock Speed: 3.688948
Num threads: 4
Trotterisation: 3
Num Qubits: 7
Space Dimension: 128
Run-Type: 0
Num_samples: 5
Optimiser Method: 20
1 Isomorphic
Graph 1:
0 1 1 0 0 
1 0 0 1 1 
1 0 0 0 0 
0 1 0 0 1 
0 1 0 1 0 
Graph 2:
0 1 1 0 0 
1 0 0 1 1 
1 0 0 0 0 
0 1 0 0 1 
0 1 0 1 0 
Solution: 25 0
Classic Expectation: 15.000000
Initial Expecation: 14.062500
Gbest: 21.000000
Expectation: 17.836954
Final Parameters:
Gammas:
[ 2.995075 3.407640 3.645113 ]
Betas:
[ 1.867880 1.799968 1.676864 ]
Aggregate results:
[ 25 13 17 21 9 0 ]
[ 0.046133 0.113987 0.482735 0.325903 0.016818 0.014425 ]
5
Num Evals 3000
GenUC: 4.111271e-05
GenUB: 1.406827e-05
Optimisation 1.096010e+00
Total Time: 1.096092e+00
2 Flipped
Graph 1:
0 1 1 0 0 
1 0 0 1 1 
1 0 0 0 0 
0 1 0 0 1 
0 1 0 1 0 
Graph 2:
0 0 1 1 0 
1 1 0 0 1 
0 0 0 0 1 
1 0 0 1 0 
0 1 0 1 0 
Solution: 17 2
Classic Expectation: 13.000000
Initial Expecation: 12.187500
Gbest: 15.000000
Expectation: 13.944774
Final Parameters:
Gammas:
[ 2.019727 4.851624 4.739711 ]
Betas:
[ 0.315688 0.509790 0.450395 ]
Aggregate results:
[ 15 17 7 13 9 11 0 ]
[ 0.365985 0.190056 0.016001 0.283904 0.034408 0.101056 0.008590 ]
5
Num Evals 3000
GenUC: 4.473998e-05
GenUB: 2.852001e-06
Optimisation 7.381618e-01
Total Time: 7.382115e-01
3 Add 5
Graph 1:
0 1 1 0 0 
1 0 0 1 1 
1 0 0 0 0 
0 1 0 0 1 
0 1 0 1 0 
Graph 2:
0 1 1 1 1 
1 1 1 1 1 
1 1 0 0 0 
1 1 0 0 1 
1 1 0 1 0 
Solution: 18 0
Classic Expectation: 14.000000
Initial Expecation: 13.125000
Gbest: 14.000000
Expectation: 14.869441
Final Parameters:
Gammas:
[ 4.960886 4.692140 2.142046 ]
Betas:
[ 2.163415 1.748731 1.411647 ]
Aggregate results:
[ 18 14 10 0 ]
[ 0.358980 0.525525 0.105044 0.010450 ]
5
Num Evals 3000
GenUC: 4.422944e-05
GenUB: 2.699438e-06
Optimisation 1.361802e+00
Total Time: 1.361851e+00
4 Rem 5
Graph 1:
0 1 1 0 0 
1 0 0 1 1 
1 0 0 0 0 
0 1 0 0 1 
0 1 0 1 0 
Graph 2:
0 0 0 0 0 
0 0 0 0 0 
0 0 0 0 0 
0 0 0 0 1 
0 0 0 1 0 
Solution: 17 0
Classic Expectation: 15.000000
Initial Expecation: 14.062500
Gbest: 17.000000
Expectation: 15.919096
Final Parameters:
Gammas:
[ 5.668813 3.770636 1.076509 ]
Betas:
[ 0.473460 2.665203 2.120719 ]
Aggregate results:
[ 17 13 0 ]
[ 0.754580 0.237787 0.007633 ]
5
Num Evals 3000
GenUC: 4.447938e-05
GenUB: 6.165938e-06
Optimisation 1.277142e+00
Total Time: 1.277195e+00
5 Add/Rem 5
Graph 1:
0 1 1 0 0 
1 0 0 1 1 
1 0 0 0 0 
0 1 0 0 1 
0 1 0 1 0 
Graph 2:
1 0 0 1 1 
0 1 1 0 0 
0 1 1 0 0 
1 0 0 0 1 
1 0 0 1 0 
Solution: 20 24
Classic Expectation: 12.000000
Initial Expecation: 11.250000
Gbest: 20.000000
Expectation: 12.998455
Final Parameters:
Gammas:
[ 4.361929 5.974639 6.131728 ]
Betas:
[ 1.279563 2.029004 2.843016 ]
Aggregate results:
[ 8 12 16 20 0 ]
[ 0.140598 0.557113 0.114727 0.167634 0.019928 ]
5
Num Evals 3000
GenUC: 4.472880e-05
GenUB: 2.745248e-06
Optimisation 1.424674e+00
Total Time: 1.424724e+00
