Clock Speed: 3.688952
Num threads: 4
Trotterisation: 4
Graph Size: 6
Num Qubits: 10
Space Dimension: 1024
Run-Type: 0
Num_samples: 10
1 Isomorphic
Graph 1:
1 1 1 0 1 0 
1 1 1 1 0 0 
1 0 0 1 1 1 
1 1 1 0 0 1 
0 0 1 0 0 1 
0 0 1 0 0 1 
Graph 2:
1 1 1 0 1 0 
1 1 1 1 0 0 
1 0 0 1 1 1 
1 1 1 0 0 1 
0 0 1 0 0 1 
0 0 1 0 0 1 
Solution: 0 0
Gbest: -12.000000
Expectation: -22.606044
Final Parameters:
Gammas:
[ 3.141593 5.235988 3.141593 1.047198 ]
Betas:
[ 1.570796 0.523599 1.570796 2.617994 1.570796 ]
Aggregate results:
[ -1 5 13 11 15 9 7 17 19 21 23 25 35 ]
[ 0.001092 0.001473 0.067666 0.044781 0.153241 0.008234 0.003817 0.210411 0.137638 0.066976 0.033323 0.003416 0.267934 ]
3
Num Evals 83
GenUC: 2.999697e-04
GenUB: 1.979279e-04
Optimisation 1.861743e-01
Total Time: 1.886487e-01
2 Flipped
Graph 1:
1 1 1 0 1 0 
1 1 1 1 0 0 
1 0 0 1 1 1 
1 1 1 0 0 1 
0 0 1 0 0 1 
0 0 1 0 0 1 
Graph 2:
0 1 0 1 1 1 
0 0 1 1 1 1 
1 1 1 0 0 1 
1 0 0 1 1 1 
1 0 0 1 0 0 
1 0 0 1 0 0 
Solution: -8 193
Gbest: -14.000000
Expectation: -22.448679
Final Parameters:
Gammas:
[ 3.141593 1.047198 3.141593 3.141593 ]
Betas:
[ 1.570796 0.523599 1.570796 1.570796 0.523599 ]
Aggregate results:
[ 23 17 19 13 15 9 21 11 7 25 35 ]
[ 0.039853 0.204116 0.139893 0.097309 0.162293 0.008500 0.044333 0.036200 0.001072 0.003358 0.263073 ]
3
Num Evals 182
GenUC: 1.279892e-04
GenUB: 1.465657e-04
Optimisation 2.225874e-01
Total Time: 2.285721e-01
3 Add 6
Graph 1:
1 1 1 0 1 0 
1 1 1 1 0 0 
1 0 0 1 1 1 
1 1 1 0 0 1 
0 0 1 0 0 1 
0 0 1 0 0 1 
Graph 2:
1 1 1 0 1 1 
1 1 1 1 1 1 
1 0 0 1 1 1 
1 1 1 0 0 1 
0 0 1 1 0 1 
0 0 1 0 1 1 
Solution: -5 0
Gbest: -13.000000
Expectation: -20.682358
Final Parameters:
Gammas:
[ 3.141593 3.141593 1.047198 3.141593 ]
Betas:
[ 1.570796 1.570796 2.617994 1.570796 1.570796 ]
Aggregate results:
[ 4 8 14 12 16 10 18 20 22 35 ]
[ 0.001949 0.006226 0.158199 0.066940 0.250557 0.017826 0.185665 0.107487 0.019421 0.185730 ]
3
Num Evals 211
GenUC: 1.234923e-04
GenUB: 1.657588e-04
Optimisation 6.726538e-02
Total Time: 6.973893e-02
4 Rem 6
Graph 1:
1 1 1 0 1 0 
1 1 1 1 0 0 
1 0 0 1 1 1 
1 1 1 0 0 1 
0 0 1 0 0 1 
0 0 1 0 0 1 
Graph 2:
1 1 0 0 0 0 
1 1 1 1 0 0 
0 0 0 0 1 1 
0 1 1 0 0 1 
0 0 1 0 0 1 
0 0 1 0 0 0 
Solution: -6 0
Gbest: -12.000000
Expectation: -22.843951
Final Parameters:
Gammas:
[ 5.235988 1.047198 3.141593 5.235988 ]
Betas:
[ 1.221730 0.523599 0.523599 1.570796 1.570796 ]
Aggregate results:
[ 5 7 15 17 19 13 11 21 9 23 25 27 35 ]
[ 0.000634 0.000267 0.132600 0.176703 0.181076 0.061854 0.027825 0.109964 0.008951 0.041384 0.010180 0.000058 0.248504 ]
3
Num Evals 378
GenUC: 1.320372e-04
GenUB: 1.715831e-04
Optimisation 3.744772e-01
Total Time: 3.764421e-01
5 Add/Rem 6
Graph 1:
1 1 1 0 1 0 
1 1 1 1 0 0 
1 0 0 1 1 1 
1 1 1 0 0 1 
0 0 1 0 0 1 
0 0 1 0 0 1 
Graph 2:
1 1 1 0 0 0 
1 0 1 1 0 1 
1 1 1 1 0 1 
1 1 1 1 0 0 
0 1 1 0 0 1 
0 0 1 0 1 1 
Solution: -8 14
Gbest: -18.000000
Expectation: -22.075079
Final Parameters:
Gammas:
[ 3.141593 5.235988 1.047198 3.141593 ]
Betas:
[ 1.570796 1.570796 0.523599 1.570796 1.570796 ]
Aggregate results:
[ 9 11 17 15 13 7 19 21 23 25 35 ]
[ 0.015409 0.055274 0.198631 0.136827 0.085995 0.008400 0.154723 0.065460 0.025250 0.006371 0.247660 ]
3
Num Evals 451
GenUC: 1.309376e-04
GenUB: 1.678918e-04
Optimisation 1.443538e-01
Total Time: 1.465798e-01
