Clock Speed: 3.689407
Num threads: 4
Trotterisation: 4
Graph Size: 6
Num Qubits: 10
Space Dimension: 1024
Run-Type: 0
Num_samples: 10
1 Isomorphic
Graph 1:
1 1 0 0 0 1 
0 0 1 0 1 1 
1 0 1 1 1 0 
1 0 1 1 1 0 
1 0 1 1 0 1 
1 1 1 1 0 1 
Graph 2:
1 1 0 0 0 1 
0 0 1 0 1 1 
1 0 1 1 1 0 
1 0 1 1 1 0 
1 0 1 1 0 1 
1 1 1 1 0 1 
Solution: 0 0
Gbest: -10.000000
Expectation: -21.658762
Final Parameters:
Gammas:
[ 3.141593 5.235988 3.141593 3.141593 ]
Betas:
[ 1.570796 0.523599 1.570796 1.570796 0.523599 ]
Aggregate results:
[ -1 13 11 15 1 17 9 19 7 5 21 23 25 35 ]
[ 0.001214 0.119769 0.067817 0.173749 0.001975 0.200142 0.017030 0.101171 0.004029 0.000086 0.039599 0.011679 0.001891 0.259851 ]
3
Num Evals 111
GenUC: 2.821933e-04
GenUB: 1.984511e-04
Optimisation 2.626385e-01
Total Time: 2.648502e-01
2 Flipped
Graph 1:
1 1 0 0 0 1 
0 0 1 0 1 1 
1 0 1 1 1 0 
1 0 1 1 1 0 
1 0 1 1 0 1 
1 1 1 1 0 1 
Graph 2:
1 0 0 0 1 1 
1 1 0 1 0 0 
0 1 1 1 0 1 
0 1 1 1 0 1 
1 0 1 1 0 1 
1 0 1 1 1 1 
Solution: -6 526
Gbest: -14.000000
Expectation: -22.060510
Final Parameters:
Gammas:
[ 5.235988 1.047198 3.141593 3.141593 ]
Betas:
[ 1.570796 2.617994 1.570796 1.570796 1.570796 ]
Aggregate results:
[ 17 11 13 19 15 9 21 7 23 25 5 35 ]
[ 0.170128 0.029887 0.119311 0.078724 0.254080 0.020309 0.030999 0.003711 0.004160 0.001419 0.002127 0.285144 ]
3
Num Evals 152
GenUC: 1.253277e-04
GenUB: 1.479439e-04
Optimisation 8.399972e-02
Total Time: 8.631908e-02
3 Add 6
Graph 1:
1 1 0 0 0 1 
0 0 1 0 1 1 
1 0 1 1 1 0 
1 0 1 1 1 0 
1 0 1 1 0 1 
1 1 1 1 0 1 
Graph 2:
1 1 0 1 1 1 
1 0 1 1 1 1 
1 1 1 1 1 0 
1 0 1 1 1 1 
1 0 1 1 0 1 
1 1 1 1 0 1 
Solution: -6 0
Gbest: -16.000000
Expectation: -20.636853
Final Parameters:
Gammas:
[ 1.047198 1.047198 3.141593 3.141593 ]
Betas:
[ 1.570796 1.570796 0.523599 1.570796 1.570796 ]
Aggregate results:
[ 5 13 15 9 11 17 19 7 35 ]
[ 0.002626 0.185194 0.220969 0.049261 0.112370 0.120076 0.029237 0.006567 0.273699 ]
3
Num Evals 187
GenUC: 9.687268e-05
GenUB: 1.597034e-04
Optimisation 7.794072e-02
Total Time: 8.006137e-02
4 Rem 6
Graph 1:
1 1 0 0 0 1 
0 0 1 0 1 1 
1 0 1 1 1 0 
1 0 1 1 1 0 
1 0 1 1 0 1 
1 1 1 1 0 1 
Graph 2:
1 1 0 0 0 0 
0 0 1 0 0 0 
1 0 1 1 1 0 
1 0 0 1 1 0 
1 0 1 1 0 1 
1 0 1 1 0 0 
Solution: -6 0
Gbest: -14.000000
Expectation: -23.531250
Final Parameters:
Gammas:
[ 3.141593 5.235988 3.141593 3.141593 ]
Betas:
[ 2.617994 1.570796 1.570796 1.570796 1.570796 ]
Aggregate results:
[ 5 17 15 11 13 7 19 21 23 25 27 9 35 ]
[ 0.000977 0.172852 0.147461 0.027344 0.059570 0.002930 0.147461 0.085937 0.044922 0.006836 0.000977 0.005859 0.296875 ]
3
Num Evals 214
GenUC: 1.292326e-04
GenUB: 1.632780e-04
Optimisation 6.263917e-02
Total Time: 6.543631e-02
5 Add/Rem 6
Graph 1:
1 1 0 0 0 1 
0 0 1 0 1 1 
1 0 1 1 1 0 
1 0 1 1 1 0 
1 0 1 1 0 1 
1 1 1 1 0 1 
Graph 2:
1 1 0 0 0 0 
0 0 1 0 0 1 
1 0 0 1 1 1 
1 1 1 1 1 0 
1 1 1 1 1 1 
0 0 0 1 0 1 
Solution: -8 50
Gbest: -12.000000
Expectation: -21.820306
Final Parameters:
Gammas:
[ 0.349066 5.235988 3.141593 2.443461 ]
Betas:
[ 1.221730 2.617994 2.617994 1.570796 1.570796 ]
Aggregate results:
[ 9 17 15 19 11 21 13 7 23 25 35 ]
[ 0.013956 0.220376 0.194444 0.101024 0.048905 0.061115 0.093832 0.004599 0.009389 0.000970 0.251388 ]
3
Num Evals 411
GenUC: 1.229986e-04
GenUB: 1.659720e-04
Optimisation 4.555965e-01
Total Time: 4.580704e-01
