Clock Speed: 3.689314
Num threads: 4
Trotterisation: 6
Graph Size: 6
Num Qubits: 10
Space Dimension: 1024
Run-Type: 0
Num_samples: 10
1 Isomorphic
Graph 1:
0 1 1 0 1 1 
0 1 1 0 1 1 
1 0 0 0 0 0 
1 1 0 1 1 1 
1 0 1 1 1 1 
1 1 1 0 0 1 
Graph 2:
0 1 1 0 1 1 
0 1 1 0 1 1 
1 0 0 0 0 0 
1 1 0 1 1 1 
1 0 1 1 1 1 
1 1 1 0 0 1 
Solution: 0 0
Gbest: -8.000000
Expectation: -14.037759
Final Parameters:
Gammas:
[ 3.075319 3.166032 3.018215 3.154324 0.294084 4.057267 ]
Betas:
[ 1.526225 1.809208 1.654989 2.025350 1.213275 1.434030 1.559912 ]
Aggregate results:
[ -1 7 11 13 9 15 17 19 21 5 35 ]
[ 0.015576 0.054362 0.195604 0.249402 0.112388 0.196748 0.070343 0.024058 0.011142 0.034463 0.035914 ]
5
Num Evals 600
GenUC: 2.791391e-04
GenUB: 1.952013e-04
Optimisation 1.746341e+00
Total Time: 1.749783e+00
2 Flipped
Graph 1:
0 1 1 0 1 1 
0 1 1 0 1 1 
1 0 0 0 0 0 
1 1 0 1 1 1 
1 0 1 1 1 1 
1 1 1 0 0 1 
Graph 2:
1 1 0 1 1 0 
1 1 0 1 1 0 
0 0 0 0 0 1 
1 1 1 0 1 1 
1 1 1 1 0 1 
1 0 0 1 1 1 
Solution: -10 134
Gbest: -10.000000
Expectation: -17.572161
Final Parameters:
Gammas:
[ 3.413485 3.147557 3.127691 3.216696 1.355422 3.656089 ]
Betas:
[ 0.171645 1.063333 1.651746 2.464359 1.599658 1.656760 1.584787 ]
Aggregate results:
[ 17 13 15 11 19 21 9 35 ]
[ 0.241960 0.214186 0.237952 0.082722 0.114111 0.027762 0.015448 0.065859 ]
5
Num Evals 1200
GenUC: 1.069531e-04
GenUB: 1.539899e-04
Optimisation 1.636217e+00
Total Time: 1.639182e+00
3 Add 6
Graph 1:
0 1 1 0 1 1 
0 1 1 0 1 1 
1 0 0 0 0 0 
1 1 0 1 1 1 
1 0 1 1 1 1 
1 1 1 0 0 1 
Graph 2:
0 1 1 1 1 1 
1 1 1 1 1 1 
1 1 1 0 0 1 
1 1 0 1 1 1 
1 0 1 1 1 1 
1 1 1 0 0 1 
Solution: -6 0
Gbest: -12.000000
Expectation: -16.129584
Final Parameters:
Gammas:
[ 3.373511 2.916760 3.141593 3.392210 1.893631 2.362332 ]
Betas:
[ 0.930915 1.877822 1.120098 2.411182 1.439297 1.572756 1.501155 ]
Aggregate results:
[ 5 9 13 11 15 17 19 7 35 ]
[ 0.001931 0.069180 0.273298 0.168841 0.248863 0.128838 0.020061 0.011849 0.077140 ]
5
Num Evals 1800
GenUC: 1.104266e-04
GenUB: 1.691762e-04
Optimisation 1.645794e+00
Total Time: 1.648755e+00
4 Rem 6
Graph 1:
0 1 1 0 1 1 
0 1 1 0 1 1 
1 0 0 0 0 0 
1 1 0 1 1 1 
1 0 1 1 1 1 
1 1 1 0 0 1 
Graph 2:
0 0 1 0 1 1 
0 0 0 0 1 1 
0 0 0 0 0 0 
1 0 0 1 1 1 
1 0 1 1 1 1 
0 1 1 0 0 1 
Solution: -6 0
Gbest: -12.000000
Expectation: -15.308635
Final Parameters:
Gammas:
[ 3.083899 3.029596 3.170646 3.455726 2.886312 3.855144 ]
Betas:
[ 0.676518 0.628238 1.521448 0.292188 1.597679 1.689429 1.635779 ]
Aggregate results:
[ 5 7 13 11 15 17 19 21 23 9 35 ]
[ 0.028504 0.020948 0.184993 0.225966 0.194543 0.139486 0.064021 0.019203 0.005555 0.076739 0.040042 ]
5
Num Evals 2400
GenUC: 1.433506e-04
GenUB: 1.922149e-04
Optimisation 1.438289e+00
Total Time: 1.441198e+00
5 Add/Rem 6
Graph 1:
0 1 1 0 1 1 
0 1 1 0 1 1 
1 0 0 0 0 0 
1 1 0 1 1 1 
1 0 1 1 1 1 
1 1 1 0 0 1 
Graph 2:
0 1 1 1 1 0 
0 0 1 1 1 1 
1 1 0 0 1 0 
1 1 0 1 1 1 
1 1 1 0 1 0 
1 1 1 0 0 1 
Solution: -7 358
Gbest: -9.000000
Expectation: -14.598834
Final Parameters:
Gammas:
[ 3.235445 3.223286 3.429074 2.993580 0.367407 3.558066 ]
Betas:
[ 1.585094 1.964909 1.436233 1.187247 1.707006 1.452171 1.517440 ]
Aggregate results:
[ 8 10 12 14 16 18 20 22 6 35 ]
[ 0.062086 0.217374 0.299148 0.222012 0.079410 0.043301 0.023037 0.007546 0.002045 0.044042 ]
5
Num Evals 3000
GenUC: 1.258199e-04
GenUB: 1.724261e-04
Optimisation 1.685069e+00
Total Time: 1.688177e+00
