Clock Speed: 3.689326
Num threads: 4
Trotterisation: 6
Graph Size: 6
Num Qubits: 10
Space Dimension: 1024
Run-Type: 0
Num_samples: 10
1 Isomorphic
Graph 1:
1 1 1 1 1 1 
1 1 0 1 0 1 
0 1 0 1 1 0 
0 0 0 1 1 1 
1 0 0 1 0 0 
0 1 1 0 0 0 
Graph 2:
1 1 1 1 1 1 
1 1 0 1 0 1 
0 1 0 1 1 0 
0 0 0 1 1 1 
1 0 0 1 0 0 
0 1 1 0 0 0 
Solution: 0 0
Gbest: -14.000000
Expectation: -18.956230
Final Parameters:
Gammas:
[ 3.351691 3.997323 3.245371 3.152089 0.000000 5.479902 ]
Betas:
[ 1.389525 1.881669 1.572897 1.930799 1.522491 1.261762 2.332480 ]
Aggregate results:
[ -1 9 11 15 19 17 13 7 23 21 25 35 ]
[ 0.007501 0.035628 0.058719 0.226026 0.130849 0.198013 0.106270 0.015133 0.024158 0.079706 0.009235 0.108761 ]
5
Num Evals 600
GenUC: 2.727476e-04
GenUB: 1.974995e-04
Optimisation 1.808567e+00
Total Time: 1.812234e+00
2 Flipped
Graph 1:
1 1 1 1 1 1 
1 1 0 1 0 1 
0 1 0 1 1 0 
0 0 0 1 1 1 
1 0 0 1 0 0 
0 1 1 0 0 0 
Graph 2:
1 1 1 1 1 1 
1 0 1 0 1 1 
0 1 1 0 1 0 
1 1 1 0 0 0 
0 0 1 0 0 1 
0 0 0 1 1 0 
Solution: -8 38
Gbest: -8.000000
Expectation: -15.270335
Final Parameters:
Gammas:
[ 3.102537 3.216887 3.099281 2.995824 0.207173 4.988489 ]
Betas:
[ 1.487586 1.962839 1.431308 2.234104 1.501739 1.380200 1.586354 ]
Aggregate results:
[ 19 21 17 13 11 9 15 7 23 25 27 35 ]
[ 0.045468 0.025568 0.122277 0.275688 0.169473 0.095990 0.212135 0.017623 0.005905 0.000587 0.000268 0.029018 ]
5
Num Evals 1200
GenUC: 1.335534e-04
GenUB: 1.494984e-04
Optimisation 1.761543e+00
Total Time: 1.764834e+00
3 Add 6
Graph 1:
1 1 1 1 1 1 
1 1 0 1 0 1 
0 1 0 1 1 0 
0 0 0 1 1 1 
1 0 0 1 0 0 
0 1 1 0 0 0 
Graph 2:
1 1 1 1 1 1 
1 1 1 1 0 1 
1 1 0 1 1 0 
0 0 0 1 1 1 
1 1 1 1 1 0 
0 1 1 0 0 0 
Solution: -5 0
Gbest: -11.000000
Expectation: -15.482113
Final Parameters:
Gammas:
[ 2.834796 3.128597 3.348866 3.171502 0.220374 0.000000 ]
Betas:
[ 1.208262 1.576462 1.483675 1.849774 1.741081 1.273298 1.734846 ]
Aggregate results:
[ 4 8 12 10 16 18 14 20 22 24 6 35 ]
[ 0.016435 0.032973 0.223510 0.153746 0.160946 0.045137 0.264526 0.015217 0.009199 0.005616 0.011854 0.060840 ]
5
Num Evals 1800
GenUC: 1.234997e-04
GenUB: 1.586707e-04
Optimisation 1.658190e+00
Total Time: 1.661209e+00
4 Rem 6
Graph 1:
1 1 1 1 1 1 
1 1 0 1 0 1 
0 1 0 1 1 0 
0 0 0 1 1 1 
1 0 0 1 0 0 
0 1 1 0 0 0 
Graph 2:
0 0 1 1 1 1 
0 1 0 1 0 1 
0 1 0 1 0 0 
0 0 0 1 1 1 
1 0 0 0 0 0 
0 0 1 0 0 0 
Solution: -6 0
Gbest: -14.000000
Expectation: -20.510560
Final Parameters:
Gammas:
[ 4.696388 5.862018 1.556559 4.722902 1.598888 3.133043 ]
Betas:
[ 1.391452 0.982451 2.202694 2.799198 0.901352 1.950889 1.170764 ]
Aggregate results:
[ 5 13 15 11 9 17 21 19 27 23 25 35 ]
[ 0.001343 0.137054 0.236089 0.038312 0.007422 0.174880 0.066663 0.099357 0.007359 0.067227 0.006329 0.157965 ]
5
Num Evals 2400
GenUC: 1.320816e-04
GenUB: 1.598714e-04
Optimisation 1.703982e+00
Total Time: 1.707051e+00
5 Add/Rem 6
Graph 1:
1 1 1 1 1 1 
1 1 0 1 0 1 
0 1 0 1 1 0 
0 0 0 1 1 1 
1 0 0 1 0 0 
0 1 1 0 0 0 
Graph 2:
1 1 1 1 1 0 
0 1 0 1 0 1 
1 1 0 1 1 0 
0 0 0 0 0 1 
1 1 1 1 1 0 
1 1 1 0 1 0 
Solution: -8 572
Gbest: -12.000000
Expectation: -21.492724
Final Parameters:
Gammas:
[ 4.312809 3.939452 3.174498 3.371174 3.284365 5.872736 ]
Betas:
[ 1.406007 0.754598 1.632889 1.062170 1.443726 2.468888 0.804420 ]
Aggregate results:
[ 9 13 15 11 17 19 23 21 25 7 35 ]
[ 0.027821 0.086738 0.210210 0.059631 0.177578 0.114106 0.016030 0.066529 0.002722 0.002401 0.236232 ]
5
Num Evals 3000
GenUC: 1.179030e-04
GenUB: 1.630949e-04
Optimisation 1.578776e+00
Total Time: 1.581706e+00
