Clock Speed: 3.689234
Num threads: 4
Trotterisation: 5
Graph Size: 5
Num Qubits: 7
Space Dimension: 128
Run-Type: 0
Num_samples: 10
1 Isomorphic
Graph 1:
0 0 1 1 0 
1 1 0 1 1 
0 0 1 1 0 
1 1 0 1 0 
1 0 1 0 1 
Graph 2:
0 0 1 1 0 
1 1 0 1 1 
0 0 1 1 0 
1 1 0 1 0 
1 0 1 0 1 
Solution: 0 0
Gbest: -8.000000
Expectation: -9.198860
Final Parameters:
Gammas:
[ 3.022814 3.386487 3.031414 3.461114 3.413157 ]
Betas:
[ 1.022577 1.644252 1.240049 1.617797 1.349678 1.602979 ]
Aggregate results:
[ -1 9 7 11 13 17 5 15 24 ]
[ 0.050770 0.376686 0.267258 0.099861 0.074299 0.001982 0.113612 0.005580 0.009951 ]
5
Num Evals 500
GenUC: 2.837712e-04
GenUB: 2.984381e-05
Optimisation 3.439774e-01
Total Time: 3.450921e-01
2 Flipped
Graph 1:
0 0 1 1 0 
1 1 0 1 1 
0 0 1 1 0 
1 1 0 1 0 
1 0 1 0 1 
Graph 2:
0 1 1 0 0 
1 1 0 1 1 
0 1 1 0 0 
0 1 0 1 1 
1 0 1 0 1 
Solution: -2 15
Gbest: -8.000000
Expectation: -9.173802
Final Parameters:
Gammas:
[ 2.746480 3.424209 3.432505 2.899095 3.442474 ]
Betas:
[ 2.056112 1.542070 1.657565 0.960501 1.952361 1.488964 ]
Aggregate results:
[ 5 13 11 9 17 1 7 15 24 ]
[ 0.091367 0.058112 0.113731 0.300768 0.007144 0.063465 0.341358 0.016463 0.007591 ]
5
Num Evals 1000
GenUC: 2.529109e-05
GenUB: 1.711464e-05
Optimisation 3.474454e-01
Total Time: 3.482145e-01
3 Add 5
Graph 1:
0 0 1 1 0 
1 1 0 1 1 
0 0 1 1 0 
1 1 0 1 0 
1 0 1 0 1 
Graph 2:
1 0 1 1 0 
1 1 0 1 1 
1 0 1 1 0 
1 1 0 1 1 
1 1 1 0 1 
Solution: -4 0
Gbest: -4.000000
Expectation: -9.775989
Final Parameters:
Gammas:
[ 3.521881 3.227311 2.872915 3.096722 3.227119 ]
Betas:
[ 2.434134 1.593251 1.575422 1.864716 2.344010 1.070033 ]
Aggregate results:
[ 3 9 7 11 15 13 5 24 ]
[ 0.082775 0.485036 0.201345 0.155734 0.007259 0.050515 0.007463 0.009873 ]
5
Num Evals 1500
GenUC: 2.152240e-05
GenUB: 1.949662e-05
Optimisation 3.646098e-01
Total Time: 3.655310e-01
4 Rem 5
Graph 1:
0 0 1 1 0 
1 1 0 1 1 
0 0 1 1 0 
1 1 0 1 0 
1 0 1 0 1 
Graph 2:
0 0 0 1 0 
1 1 0 0 1 
0 0 1 1 0 
1 1 0 0 0 
1 0 1 0 1 
Solution: -3 0
Gbest: -9.000000
Expectation: -11.215412
Final Parameters:
Gammas:
[ 3.150822 2.629554 5.184914 2.854682 5.213418 ]
Betas:
[ 2.276763 1.758417 1.792680 1.800899 1.389458 1.413313 ]
Aggregate results:
[ 2 10 12 8 20 14 16 6 4 18 24 ]
[ 0.023363 0.292621 0.151186 0.315037 0.000101 0.095050 0.041334 0.037206 0.015400 0.009967 0.018735 ]
5
Num Evals 2000
GenUC: 2.378409e-05
GenUB: 1.635937e-05
Optimisation 3.686588e-01
Total Time: 3.694232e-01
5 Add/Rem 5
Graph 1:
0 0 1 1 0 
1 1 0 1 1 
0 0 1 1 0 
1 1 0 1 0 
1 0 1 0 1 
Graph 2:
0 0 1 1 1 
1 0 1 0 1 
0 0 1 1 1 
1 1 0 1 0 
0 1 1 1 1 
Solution: -6 81
Gbest: -10.000000
Expectation: -10.520598
Final Parameters:
Gammas:
[ 3.042116 3.467994 2.498584 3.262527 4.689149 ]
Betas:
[ 1.834347 1.618887 1.351502 1.482891 1.714105 1.611129 ]
Aggregate results:
[ 7 11 13 9 19 15 17 5 24 ]
[ 0.187562 0.292187 0.074420 0.360628 0.005674 0.009384 0.002390 0.059728 0.008028 ]
5
Num Evals 2500
GenUC: 2.365498e-05
GenUB: 1.669681e-05
Optimisation 3.558495e-01
Total Time: 3.565828e-01
