Clock Speed: 3.688871
Num threads: 4
Trotterisation: 5
Graph Size: 5
Num Qubits: 7
Space Dimension: 128
Run-Type: 0
Num_samples: 10
1 Isomorphic
Graph 1:
0 1 0 1 1 
0 0 0 0 1 
1 0 0 1 0 
1 1 0 1 0 
1 0 0 0 0 
Graph 2:
0 1 0 1 1 
0 0 0 0 1 
1 0 0 1 0 
1 1 0 1 0 
1 0 0 0 0 
Solution: 0 0
Gbest: 0.000000
Expectation: -10.045850
Final Parameters:
Gammas:
[ 3.434134 3.439440 3.513143 3.290473 2.923056 ]
Betas:
[ 1.464771 1.711010 1.237280 1.297730 1.628446 1.839885 ]
Aggregate results:
[ -1 7 9 11 13 15 5 17 24 ]
[ 0.057373 0.208771 0.252600 0.264220 0.089091 0.013605 0.084772 0.004821 0.024748 ]
5
Num Evals 500
GenUC: 1.623095e-04
GenUB: 2.959143e-05
Optimisation 3.493881e-01
Total Time: 3.502582e-01
2 Flipped
Graph 1:
0 1 0 1 1 
0 0 0 0 1 
1 0 0 1 0 
1 1 0 1 0 
1 0 0 0 0 
Graph 2:
1 1 0 1 0 
1 0 0 0 0 
0 1 0 0 1 
0 1 0 1 1 
0 0 0 0 1 
Solution: -8 20
Gbest: -8.000000
Expectation: -12.249871
Final Parameters:
Gammas:
[ 3.413835 3.058943 4.359165 4.218706 3.171707 ]
Betas:
[ 2.216127 1.630382 1.718137 1.921295 1.559523 1.792249 ]
Aggregate results:
[ 11 15 9 13 17 7 24 ]
[ 0.324039 0.061453 0.324990 0.207170 0.004897 0.046856 0.030596 ]
5
Num Evals 1000
GenUC: 2.486091e-05
GenUB: 1.772669e-05
Optimisation 3.716364e-01
Total Time: 3.723838e-01
3 Add 5
Graph 1:
0 1 0 1 1 
0 0 0 0 1 
1 0 0 1 0 
1 1 0 1 0 
1 0 0 0 0 
Graph 2:
1 1 0 1 1 
0 1 0 0 1 
1 0 0 1 1 
1 1 1 1 1 
1 0 0 0 0 
Solution: -5 0
Gbest: -9.000000
Expectation: -12.732073
Final Parameters:
Gammas:
[ 3.233773 3.593981 4.176920 4.184369 3.931000 ]
Betas:
[ 1.644446 1.861016 1.391912 1.971542 1.970758 1.714698 ]
Aggregate results:
[ 4 12 10 16 14 6 8 18 24 ]
[ 0.044838 0.337445 0.261530 0.067449 0.144986 0.003259 0.092223 0.022791 0.025480 ]
5
Num Evals 1500
GenUC: 2.267317e-05
GenUB: 1.929825e-05
Optimisation 3.717295e-01
Total Time: 3.726211e-01
4 Rem 5
Graph 1:
0 1 0 1 1 
0 0 0 0 1 
1 0 0 1 0 
1 1 0 1 0 
1 0 0 0 0 
Graph 2:
0 0 0 1 0 
0 0 0 0 1 
1 0 0 1 0 
0 1 0 1 0 
1 0 0 0 0 
Solution: -3 0
Gbest: -9.000000
Expectation: -12.062500
Final Parameters:
Gammas:
[ 3.141593 3.141593 3.141593 3.141593 3.141593 ]
Betas:
[ 2.356194 2.356194 1.570796 1.570796 1.570796 1.570796 ]
Aggregate results:
[ 2 8 10 6 12 14 16 24 ]
[ 0.007813 0.164062 0.382812 0.070312 0.203125 0.101562 0.007813 0.062500 ]
3
Num Evals 1512
GenUC: 2.220898e-05
GenUB: 1.690159e-05
Optimisation 8.284907e-03
Total Time: 9.038802e-03
5 Add/Rem 5
Graph 1:
0 1 0 1 1 
0 0 0 0 1 
1 0 0 1 0 
1 1 0 1 0 
1 0 0 0 0 
Graph 2:
0 0 0 1 0 
1 1 0 0 1 
1 0 0 0 1 
1 1 1 1 0 
0 0 0 0 0 
Solution: -8 0
Gbest: -8.000000
Expectation: -10.345537
Final Parameters:
Gammas:
[ 3.253610 3.504298 3.355336 3.721529 3.748368 ]
Betas:
[ 1.244363 1.495619 1.375848 1.532415 1.445852 1.676472 ]
Aggregate results:
[ 7 9 11 17 13 15 24 ]
[ 0.245590 0.486833 0.205412 0.012238 0.021589 0.020382 0.007956 ]
5
Num Evals 2012
GenUC: 2.186920e-05
GenUB: 1.688399e-05
Optimisation 3.396084e-01
Total Time: 3.404246e-01
