Clock Speed: 3.688920
Num threads: 4
Trotterisation: 5
Graph Size: 5
Num Qubits: 7
Space Dimension: 128
Run-Type: 0
Num_samples: 10
1 Isomorphic
Graph 1:
1 1 1 0 1 
1 0 0 0 1 
1 0 0 0 0 
0 1 0 0 1 
0 0 0 0 1 
Graph 2:
1 1 1 0 1 
1 0 0 0 1 
1 0 0 0 0 
0 1 0 0 1 
0 0 0 0 1 
Solution: 0 0
Gbest: 0.000000
Expectation: -9.166727
Final Parameters:
Gammas:
[ 3.327415 3.465104 3.217543 3.340482 3.428533 ]
Betas:
[ 1.618327 2.722507 1.088335 1.303042 1.608067 1.288123 ]
Aggregate results:
[ -1 7 9 3 11 5 13 15 17 24 ]
[ 0.172384 0.161636 0.119330 0.081176 0.270519 0.016992 0.084370 0.051572 0.007057 0.034964 ]
5
Num Evals 500
GenUC: 2.942312e-04
GenUB: 2.974582e-05
Optimisation 3.520735e-01
Total Time: 3.531124e-01
2 Flipped
Graph 1:
1 1 1 0 1 
1 0 0 0 1 
1 0 0 0 0 
0 1 0 0 1 
0 0 0 0 1 
Graph 2:
1 0 1 1 1 
1 0 0 0 1 
0 0 0 0 1 
1 0 0 1 0 
1 0 0 0 0 
Solution: -6 11
Gbest: -6.000000
Expectation: -10.120748
Final Parameters:
Gammas:
[ 2.985146 3.474642 3.845743 2.909396 3.486606 ]
Betas:
[ 1.684272 1.511866 1.312943 1.633352 1.437678 1.672492 ]
Aggregate results:
[ 9 11 13 7 5 15 17 24 ]
[ 0.327894 0.229400 0.062325 0.199861 0.135808 0.029574 0.006987 0.008151 ]
5
Num Evals 1000
GenUC: 2.493020e-05
GenUB: 1.745736e-05
Optimisation 3.416233e-01
Total Time: 3.423372e-01
3 Add 5
Graph 1:
1 1 1 0 1 
1 0 0 0 1 
1 0 0 0 0 
0 1 0 0 1 
0 0 0 0 1 
Graph 2:
1 1 1 0 1 
1 0 0 0 1 
1 0 0 0 0 
0 1 1 0 1 
1 0 1 1 1 
Solution: -4 0
Gbest: -4.000000
Expectation: -10.348447
Final Parameters:
Gammas:
[ 3.028750 3.461800 3.574730 3.394729 3.129689 ]
Betas:
[ 1.521116 1.940423 1.258714 1.612038 1.608933 1.354468 ]
Aggregate results:
[ 3 11 13 5 15 9 7 17 19 24 ]
[ 0.067384 0.225632 0.079400 0.062303 0.019516 0.302656 0.200159 0.015996 0.003195 0.023760 ]
5
Num Evals 1500
GenUC: 2.335805e-05
GenUB: 1.929007e-05
Optimisation 3.470498e-01
Total Time: 3.477795e-01
4 Rem 5
Graph 1:
1 1 1 0 1 
1 0 0 0 1 
1 0 0 0 0 
0 1 0 0 1 
0 0 0 0 1 
Graph 2:
1 1 0 0 1 
0 0 0 0 1 
0 0 0 0 0 
0 1 0 0 0 
0 0 0 0 1 
Solution: -4 0
Gbest: -4.000000
Expectation: -8.767673
Final Parameters:
Gammas:
[ 3.402773 3.418365 2.931192 3.508651 2.886899 ]
Betas:
[ 1.980191 2.070197 1.173066 1.716619 1.287643 1.667881 ]
Aggregate results:
[ 3 7 11 9 5 13 15 24 ]
[ 0.069892 0.313012 0.169059 0.253132 0.169892 0.018115 0.002383 0.004516 ]
5
Num Evals 2000
GenUC: 2.135399e-05
GenUB: 1.733471e-05
Optimisation 3.559512e-01
Total Time: 3.567088e-01
5 Add/Rem 5
Graph 1:
1 1 1 0 1 
1 0 0 0 1 
1 0 0 0 0 
0 1 0 0 1 
0 0 0 0 1 
Graph 2:
0 1 1 0 0 
1 1 1 1 1 
1 1 0 0 0 
0 1 0 0 0 
0 1 0 0 0 
Solution: -7 10
Gbest: -7.000000
Expectation: -9.039318
Final Parameters:
Gammas:
[ 3.132177 3.009929 4.308622 2.866130 5.119611 ]
Betas:
[ 2.409995 1.615317 1.811583 1.588240 1.567397 1.721973 ]
Aggregate results:
[ 8 12 16 14 6 10 24 ]
[ 0.468619 0.095701 0.009014 0.011188 0.344089 0.066912 0.004477 ]
5
Num Evals 2500
GenUC: 1.913045e-05
GenUB: 1.697322e-05
Optimisation 3.761962e-01
Total Time: 3.771607e-01
