Clock Speed: 3.689310
Num threads: 4
Trotterisation: 5
Graph Size: 5
Num Qubits: 7
Space Dimension: 128
Run-Type: 0
Num_samples: 10
1 Isomorphic
Graph 1:
0 1 0 0 0 
1 1 1 0 0 
1 0 0 1 1 
1 1 0 0 0 
1 0 1 1 1 
Graph 2:
0 1 0 0 0 
1 1 1 0 0 
1 0 0 1 1 
1 1 0 0 0 
1 0 1 1 1 
Solution: 0 0
Gbest: -8.000000
Expectation: -11.460197
Final Parameters:
Gammas:
[ 3.783288 3.077939 2.669739 3.205868 4.645068 ]
Betas:
[ 2.403674 1.730669 1.117414 1.637967 1.673019 2.170751 ]
Aggregate results:
[ -1 7 11 13 9 15 3 5 17 19 24 ]
[ 0.064807 0.092479 0.197431 0.314749 0.181966 0.047505 0.040790 0.006068 0.026202 0.001263 0.026740 ]
5
Num Evals 500
GenUC: 1.595238e-04
GenUB: 3.083553e-05
Optimisation 4.161789e-01
Total Time: 4.170964e-01
2 Flipped
Graph 1:
0 1 0 0 0 
1 1 1 0 0 
1 0 0 1 1 
1 1 0 0 0 
1 0 1 1 1 
Graph 2:
0 0 0 1 0 
0 0 1 1 1 
1 1 0 0 1 
0 0 0 1 1 
1 1 1 0 1 
Solution: -6 15
Gbest: -6.000000
Expectation: -10.883467
Final Parameters:
Gammas:
[ 3.963418 3.482430 3.293637 3.359722 2.317267 ]
Betas:
[ 1.591955 1.676132 1.205227 1.476429 1.989710 1.286698 ]
Aggregate results:
[ 13 15 11 7 9 5 17 24 ]
[ 0.118733 0.055385 0.237140 0.026385 0.360336 0.174886 0.007539 0.019597 ]
5
Num Evals 1000
GenUC: 2.377702e-05
GenUB: 1.682589e-05
Optimisation 4.055000e-01
Total Time: 4.062359e-01
3 Add 5
Graph 1:
0 1 0 0 0 
1 1 1 0 0 
1 0 0 1 1 
1 1 0 0 0 
1 0 1 1 1 
Graph 2:
1 1 0 1 1 
1 1 1 0 0 
1 0 1 1 1 
1 1 0 0 0 
1 1 1 1 1 
Solution: -5 0
Gbest: -5.000000
Expectation: -11.270543
Final Parameters:
Gammas:
[ 3.247849 2.976103 2.900674 4.767683 4.642834 ]
Betas:
[ 1.970749 2.098807 1.735972 1.715572 1.876670 1.654112 ]
Aggregate results:
[ 4 8 12 14 10 6 16 18 24 ]
[ 0.080696 0.132756 0.275873 0.090197 0.343077 0.046567 0.016995 0.000292 0.013547 ]
5
Num Evals 1500
GenUC: 2.348183e-05
GenUB: 1.987277e-05
Optimisation 4.919816e-01
Total Time: 4.927640e-01
4 Rem 5
Graph 1:
0 1 0 0 0 
1 1 1 0 0 
1 0 0 1 1 
1 1 0 0 0 
1 0 1 1 1 
Graph 2:
0 1 0 0 0 
1 1 1 0 0 
1 0 0 1 0 
1 1 0 0 0 
0 0 0 0 1 
Solution: -4 0
Gbest: -8.000000
Expectation: -11.355491
Final Parameters:
Gammas:
[ 3.338411 3.187053 3.239179 3.336446 3.942652 ]
Betas:
[ 1.978545 1.889956 1.592390 1.667162 1.328507 1.522520 ]
Aggregate results:
[ 3 9 11 13 7 15 17 24 ]
[ 0.002436 0.306816 0.343774 0.128797 0.162836 0.034743 0.003483 0.017115 ]
5
Num Evals 2000
GenUC: 2.289675e-05
GenUB: 1.759172e-05
Optimisation 4.123514e-01
Total Time: 4.130981e-01
5 Add/Rem 5
Graph 1:
0 1 0 0 0 
1 1 1 0 0 
1 0 0 1 1 
1 1 0 0 0 
1 0 1 1 1 
Graph 2:
0 1 0 1 0 
0 1 1 0 0 
0 0 0 1 1 
0 1 1 1 1 
1 0 1 1 0 
Solution: -6 21
Gbest: -10.000000
Expectation: -10.416549
Final Parameters:
Gammas:
[ 3.470326 3.271164 3.547350 4.082281 3.948263 ]
Betas:
[ 0.425826 1.231182 1.653131 1.454789 1.685108 0.062874 ]
Aggregate results:
[ 7 13 15 19 11 9 5 17 24 ]
[ 0.220776 0.053305 0.028176 0.002257 0.155526 0.462777 0.051455 0.005415 0.020313 ]
5
Num Evals 2500
GenUC: 2.414262e-05
GenUB: 1.634175e-05
Optimisation 3.478987e-01
Total Time: 3.485106e-01
