Clock Speed: 3.689348
Num threads: 4
Trotterisation: 1
Graph Size: 5
Num Qubits: 7
Space Dimension: 128
Run-Type: 0
Num_samples: 10
1 Isomorphic
Graph 1:
1 1 0 0 0 
1 0 0 0 1 
0 0 1 0 1 
1 1 1 0 1 
1 1 1 0 1 
Graph 2:
1 1 0 0 0 
1 0 0 0 1 
0 0 1 0 1 
1 1 1 0 1 
1 1 1 0 1 
Solution: 0 0
Gbest: -4.000000
Expectation: -13.093750
Final Parameters:
Gammas:
[ 0.000000 ]
Betas:
[ 2.748894 1.767146 ]
Aggregate results:
[ -1 3 7 5 13 11 15 9 17 24 ]
[ 0.007812 0.015625 0.101562 0.046875 0.320312 0.210937 0.117187 0.078125 0.039062 0.062500 ]
3
Num Evals 20
GenUC: 1.680834e-04
GenUB: 3.316515e-05
Optimisation 5.267096e-03
Total Time: 5.815441e-03
2 Flipped
Graph 1:
1 1 0 0 0 
1 0 0 0 1 
0 0 1 0 1 
1 1 1 0 1 
1 1 1 0 1 
Graph 2:
0 0 0 1 1 
1 0 0 0 1 
1 0 1 0 0 
1 0 1 1 1 
1 0 1 1 1 
Solution: -6 13
Gbest: -8.000000
Expectation: -13.093750
Final Parameters:
Gammas:
[ 0.000000 ]
Betas:
[ 2.748894 1.767146 ]
Aggregate results:
[ 9 7 11 13 15 5 24 ]
[ 0.171875 0.054687 0.296875 0.250000 0.132812 0.031250 0.062500 ]
3
Num Evals 40
GenUC: 2.249761e-05
GenUB: 1.797191e-05
Optimisation 5.539897e-03
Total Time: 5.884576e-03
3 Add 5
Graph 1:
1 1 0 0 0 
1 0 0 0 1 
0 0 1 0 1 
1 1 1 0 1 
1 1 1 0 1 
Graph 2:
1 1 0 0 1 
1 0 1 0 1 
0 0 1 1 1 
1 1 1 0 1 
1 1 1 1 1 
Solution: -4 0
Gbest: -8.000000
Expectation: -12.718750
Final Parameters:
Gammas:
[ 0.000000 ]
Betas:
[ 3.141593 3.141593 ]
Aggregate results:
[ 3 5 9 7 11 13 15 24 ]
[ 0.007812 0.031250 0.156250 0.101562 0.273437 0.296875 0.070312 0.062500 ]
3
Num Evals 52
GenUC: 2.064323e-05
GenUB: 1.718383e-05
Optimisation 3.069322e-03
Total Time: 3.420736e-03
4 Rem 5
Graph 1:
1 1 0 0 0 
1 0 0 0 1 
0 0 1 0 1 
1 1 1 0 1 
1 1 1 0 1 
Graph 2:
1 1 0 0 0 
1 0 0 0 1 
0 0 0 0 0 
1 1 1 0 1 
0 1 1 0 1 
Solution: -3 0
Gbest: -5.000000
Expectation: -11.996610
Final Parameters:
Gammas:
[ 2.597496 ]
Betas:
[ 2.823860 2.602706 ]
Aggregate results:
[ 2 6 8 14 12 16 10 4 18 24 ]
[ 0.029625 0.104421 0.198876 0.152618 0.193295 0.078137 0.172269 0.018642 0.005771 0.046346 ]
5
Num Evals 552
GenUC: 2.161798e-05
GenUB: 1.734926e-05
Optimisation 1.420769e-01
Total Time: 1.424011e-01
5 Add/Rem 5
Graph 1:
1 1 0 0 0 
1 0 0 0 1 
0 0 1 0 1 
1 1 1 0 1 
1 1 1 0 1 
Graph 2:
0 1 0 1 0 
0 1 1 0 1 
0 1 1 0 0 
1 1 1 1 1 
1 1 0 0 0 
Solution: -6 32
Gbest: -10.000000
Expectation: -13.093750
Final Parameters:
Gammas:
[ 0.000000 ]
Betas:
[ 2.748894 1.767146 ]
Aggregate results:
[ 9 11 7 15 13 17 5 24 ]
[ 0.242187 0.218750 0.078125 0.125000 0.218750 0.039062 0.015625 0.062500 ]
3
Num Evals 572
GenUC: 2.337905e-05
GenUB: 1.696666e-05
Optimisation 1.631220e-02
Total Time: 1.662032e-02
