Clock Speed: 3.498642
Num threads: 16
Trotterisation: 1
Num Qubits: 10
Space Dimension: 1024
Run-Type: 0
Num_samples: 36
Optimiser Method: 12
1 Isomorphic
Graph 1:
0 0 0 1 0 0 
1 1 0 0 1 0 
1 1 0 1 1 0 
1 0 1 0 0 1 
1 0 0 0 1 0 
0 0 1 0 1 1 
Graph 2:
0 0 0 1 0 0 
1 1 0 0 1 0 
1 1 0 1 1 0 
1 0 1 0 0 1 
1 0 0 0 1 0 
0 0 1 0 1 1 
Solution: 36 0
Classic Expectation: 18.266667
Initial Expecation: 12.843750
Gbest: 26.000000
Expectation: 13.630526
Final Parameters:
Gammas:
[ 3.907644 ]
Betas:
[ 0.555867 ]
Aggregate results:
[ 36 24 22 26 20 18 16 32 28 14 12 10 0 ]
[ 0.001802 0.045132 0.101970 0.011227 0.130535 0.161001 0.176113 0.006128 0.002424 0.064292 0.033186 0.005843 0.260346 ]
3
Num Evals 101
GenUC: 3.604158e-04
GenUB: 1.573837e-04
Optimisation 1.522246e-01
Total Time: 1.527530e-01
2 Flipped
Graph 1:
0 0 0 1 0 0 
1 1 0 0 1 0 
1 1 0 1 1 0 
1 0 1 0 0 1 
1 0 0 0 1 0 
0 0 1 0 1 1 
Graph 2:
0 0 1 0 0 0 
0 1 0 0 1 1 
0 1 1 0 1 1 
1 0 0 1 0 1 
0 1 0 0 0 1 
1 1 0 1 0 0 
Solution: 26 63
Classic Expectation: 18.266667
Initial Expecation: 12.843750
Gbest: 24.000000
Expectation: 15.446437
Final Parameters:
Gammas:
[ 2.743697 ]
Betas:
[ 2.508772 ]
Aggregate results:
[ 16 18 20 14 22 24 26 12 10 8 0 ]
[ 0.154169 0.217902 0.215270 0.058439 0.099650 0.050285 0.010269 0.019491 0.003002 0.000487 0.171036 ]
3
Num Evals 103
GenUC: 3.645360e-04
GenUB: 1.374995e-04
Optimisation 1.294815e-01
Total Time: 1.299856e-01
3 Add 6
Graph 1:
0 0 0 1 0 0 
1 1 0 0 1 0 
1 1 0 1 1 0 
1 0 1 0 0 1 
1 0 0 0 1 0 
0 0 1 0 1 1 
Graph 2:
1 0 1 1 0 0 
1 1 0 0 1 1 
1 1 0 1 1 0 
1 0 1 1 0 1 
1 0 0 0 1 0 
1 0 1 1 1 1 
Solution: 30 0
Classic Expectation: 17.733333
Initial Expecation: 12.468750
Gbest: 24.000000
Expectation: 12.533417
Final Parameters:
Gammas:
[ 2.400717 ]
Betas:
[ 1.733437 ]
Aggregate results:
[ 30 22 20 24 16 18 14 26 12 10 8 6 0 ]
[ 0.000433 0.055617 0.146089 0.028436 0.151028 0.182945 0.090290 0.009142 0.033022 0.006435 0.002027 0.000761 0.293775 ]
3
Num Evals 89
GenUC: 3.647781e-04
GenUB: 1.347470e-04
Optimisation 9.359335e-02
Total Time: 9.409488e-02
4 Rem 6
Graph 1:
0 0 0 1 0 0 
1 1 0 0 1 0 
1 1 0 1 1 0 
1 0 1 0 0 1 
1 0 0 0 1 0 
0 0 1 0 1 1 
Graph 2:
0 0 0 0 0 0 
1 1 0 0 1 0 
0 0 0 1 0 0 
1 0 1 0 0 0 
1 0 0 0 1 0 
0 0 1 0 1 1 
Solution: 31 0
Classic Expectation: 18.933333
Initial Expecation: 13.312500
Gbest: 29.000000
Expectation: 16.656178
Final Parameters:
Gammas:
[ 3.058247 ]
Betas:
[ 0.500881 ]
Aggregate results:
[ 31 23 19 29 21 25 17 27 15 13 11 0 ]
[ 0.001194 0.089720 0.246485 0.002074 0.156445 0.026441 0.211585 0.003272 0.117554 0.030897 0.001422 0.112912 ]
3
Num Evals 89
GenUC: 3.680689e-04
GenUB: 1.257276e-04
Optimisation 5.635024e-02
Total Time: 5.684598e-02
5 Add/Rem 6
Graph 1:
0 0 0 1 0 0 
1 1 0 0 1 0 
1 1 0 1 1 0 
1 0 1 0 0 1 
1 0 0 0 1 0 
0 0 1 0 1 1 
Graph 2:
0 0 0 1 1 1 
1 1 0 0 0 1 
0 1 0 1 1 0 
0 1 0 1 0 0 
1 1 0 0 1 0 
0 0 1 0 1 1 
Solution: 27 174
Classic Expectation: 18.266667
Initial Expecation: 12.843750
Gbest: 23.000000
Expectation: 13.903098
Final Parameters:
Gammas:
[ 2.393048 ]
Betas:
[ 0.509838 ]
Aggregate results:
[ 25 19 23 21 17 15 13 11 27 9 0 ]
[ 0.012866 0.190789 0.088544 0.147482 0.159196 0.085381 0.045522 0.013361 0.002846 0.002237 0.251774 ]
3
Num Evals 81
GenUC: 3.647865e-04
GenUB: 9.834021e-05
Optimisation 5.227775e-02
Total Time: 5.274266e-02
