Clock Speed: 3.498704
Num threads: 16
Trotterisation: 4
Num Qubits: 10
Space Dimension: 1024
Run-Type: 0
Num_samples: 36
Optimiser Method: 28
1 Isomorphic
Graph 1:
0 0 1 0 1 0 
0 1 1 1 0 1 
1 1 1 1 0 1 
0 0 0 1 1 1 
0 0 0 1 1 0 
1 1 0 0 0 0 
Graph 2:
0 0 1 0 1 0 
0 1 1 1 0 1 
1 1 1 1 0 1 
0 0 0 1 1 1 
0 0 0 1 1 0 
1 1 0 0 0 0 
Solution: 36 0
Classic Expectation: 18.400000
Initial Expecation: 12.937500
Gbest: 28.000000
Expectation: 17.661589
Final Parameters:
Gammas:
[ 6.040139 5.051510 3.271869 4.110987 ]
Betas:
[ 2.252053 1.536438 1.561635 1.790379 ]
Aggregate results:
[ 36 22 28 20 24 14 16 18 26 30 12 10 0 ]
[ 0.004017 0.192166 0.022257 0.192971 0.087916 0.058286 0.098934 0.189181 0.025672 0.001227 0.011695 0.004791 0.110888 ]
3
Num Evals 1986
GenUC: 3.311406e-04
GenUB: 1.400374e-04
Optimisation 8.155916e+00
Total Time: 8.156396e+00
2 Flipped
Graph 1:
0 0 1 0 1 0 
0 1 1 1 0 1 
1 1 1 1 0 1 
0 0 0 1 1 1 
0 0 0 1 1 0 
1 1 0 0 0 0 
Graph 2:
0 1 0 1 0 0 
1 0 1 1 1 0 
1 0 1 1 1 1 
1 1 1 0 0 0 
0 1 1 0 0 0 
0 0 0 0 1 1 
Solution: 26 561
Classic Expectation: 17.600000
Initial Expecation: 12.375000
Gbest: 24.000000
Expectation: 14.645526
Final Parameters:
Gammas:
[ 3.901661 3.563188 3.567619 3.182663 ]
Betas:
[ 0.898025 0.349576 1.234007 2.133487 ]
Aggregate results:
[ 12 18 14 22 20 24 16 10 8 26 0 ]
[ 0.032211 0.150481 0.064767 0.156935 0.192056 0.049100 0.116593 0.017240 0.002609 0.004337 0.213672 ]
3
Num Evals 3072
GenUC: 3.637872e-04
GenUB: 1.316518e-04
Optimisation 1.000329e+01
Total Time: 1.000379e+01
3 Add 6
Graph 1:
0 0 1 0 1 0 
0 1 1 1 0 1 
1 1 1 1 0 1 
0 0 0 1 1 1 
0 0 0 1 1 0 
1 1 0 0 0 0 
Graph 2:
1 0 1 0 1 0 
1 1 1 1 0 1 
1 1 1 1 0 1 
1 1 0 1 1 1 
0 0 0 1 1 0 
1 1 0 0 0 1 
Solution: 31 0
Classic Expectation: 18.866667
Initial Expecation: 13.265625
Gbest: 27.000000
Expectation: 15.490838
Final Parameters:
Gammas:
[ 4.908488 4.973819 3.409012 3.938206 ]
Betas:
[ 2.694387 1.714432 1.256317 2.136920 ]
Aggregate results:
[ 31 19 23 21 17 25 15 13 27 11 0 ]
[ 0.000123 0.193894 0.079125 0.196889 0.163591 0.046813 0.071963 0.021939 0.019649 0.000177 0.205837 ]
3
Num Evals 3121
GenUC: 3.659469e-04
GenUB: 1.165560e-04
Optimisation 1.343931e+01
Total Time: 1.343979e+01
4 Rem 6
Graph 1:
0 0 1 0 1 0 
0 1 1 1 0 1 
1 1 1 1 0 1 
0 0 0 1 1 1 
0 0 0 1 1 0 
1 1 0 0 0 0 
Graph 2:
0 0 1 0 1 0 
0 1 1 1 0 0 
1 1 1 1 0 0 
0 0 0 0 0 1 
0 0 0 1 1 0 
1 1 0 0 0 0 
Solution: 32 0
Classic Expectation: 18.266667
Initial Expecation: 12.843750
Gbest: 26.000000
Expectation: 14.162555
Final Parameters:
Gammas:
[ 4.734950 4.778360 3.337951 3.331624 ]
Betas:
[ 2.167888 2.120178 1.455048 1.902243 ]
Aggregate results:
[ 32 22 24 18 12 20 16 14 26 10 28 0 ]
[ 0.000856 0.112663 0.040371 0.163113 0.011662 0.175092 0.136334 0.084921 0.023033 0.004020 0.003592 0.244344 ]
3
Num Evals 1260
GenUC: 3.811587e-04
GenUB: 1.163008e-04
Optimisation 5.386206e+00
Total Time: 5.386706e+00
5 Add/Rem 6
Graph 1:
0 0 1 0 1 0 
0 1 1 1 0 1 
1 1 1 1 0 1 
0 0 0 1 1 1 
0 0 0 1 1 0 
1 1 0 0 0 0 
Graph 2:
0 1 1 0 0 0 
1 1 0 1 0 0 
1 1 1 1 0 0 
0 1 0 1 1 0 
0 0 0 1 1 0 
1 1 0 0 1 0 
Solution: 29 657
Classic Expectation: 18.466667
Initial Expecation: 12.984375
Gbest: 25.000000
Expectation: 15.237196
Final Parameters:
Gammas:
[ 4.524000 5.103076 4.820154 3.333402 ]
Betas:
[ 2.302638 0.783661 1.734249 2.103338 ]
Aggregate results:
[ 27 19 23 15 21 17 13 11 25 9 29 0 ]
[ 0.012063 0.205004 0.084206 0.130953 0.130407 0.192078 0.040031 0.004840 0.017965 0.001109 0.002716 0.178628 ]
3
Num Evals 2041
GenUC: 3.661029e-04
GenUB: 1.111324e-04
Optimisation 8.390633e+00
Total Time: 8.391113e+00
