Clock Speed: 3.498687
Num threads: 16
Trotterisation: 5
Num Qubits: 7
Space Dimension: 128
Run-Type: 0
Num_samples: 25
Optimiser Method: 34
1 Isomorphic
Graph 1:
1 0 0 0 0 
0 0 0 1 1 
1 1 0 0 0 
1 1 0 0 1 
1 1 0 1 0 
Graph 2:
1 0 0 0 0 
0 0 0 1 1 
1 1 0 0 0 
1 1 0 0 1 
1 1 0 1 0 
Solution: 25 0
Classic Expectation: 13.400000
Initial Expecation: 12.562500
Gbest: 19.000000
Expectation: 12.562500
Final Parameters:
Gammas:
[ 4.869469 2.984513 3.141593 3.141593 3.141593 ]
Betas:
[ 1.570796 1.570796 1.570796 1.570796 1.570796 ]
Aggregate results:
[ 25 19 13 15 21 17 11 0 ]
[ 0.015625 0.046875 0.171875 0.203125 0.031250 0.031250 0.437500 0.062500 ]
3
Num Evals 24
GenUC: 7.446576e-05
GenUB: 2.651382e-05
Optimisation 1.229634e-02
Total Time: 1.240949e-02
2 Flipped
Graph 1:
1 0 0 0 0 
0 0 0 1 1 
1 1 0 0 0 
1 1 0 0 1 
1 1 0 1 0 
Graph 2:
0 0 0 0 1 
1 1 0 0 0 
0 0 0 1 1 
1 0 0 1 1 
0 1 0 1 1 
Solution: 17 38
Classic Expectation: 12.200000
Initial Expecation: 11.437500
Gbest: 17.000000
Expectation: 14.227681
Final Parameters:
Gammas:
[ 3.308660 2.801381 3.311705 3.606631 3.590640 ]
Betas:
[ 1.722438 1.044590 1.936260 1.674362 1.669978 ]
Aggregate results:
[ 11 9 15 13 17 7 0 ]
[ 0.065000 0.036442 0.646918 0.168601 0.075242 0.001430 0.006367 ]
3
Num Evals 667
GenUC: 5.163578e-05
GenUB: 6.623100e-06
Optimisation 3.433607e-01
Total Time: 3.434211e-01
3 Add 5
Graph 1:
1 0 0 0 0 
0 0 0 1 1 
1 1 0 0 0 
1 1 0 0 1 
1 1 0 1 0 
Graph 2:
1 0 0 0 1 
0 1 1 1 1 
1 1 0 1 0 
1 1 0 0 1 
1 1 0 1 1 
Solution: 20 0
Classic Expectation: 12.200000
Initial Expecation: 11.437500
Gbest: 18.000000
Expectation: 13.733763
Final Parameters:
Gammas:
[ 6.111662 3.235269 3.309454 2.929958 3.205851 ]
Betas:
[ 0.608774 1.404268 1.633650 0.742360 1.183503 ]
Aggregate results:
[ 20 16 18 12 14 10 8 6 0 ]
[ 0.044231 0.043436 0.214529 0.249291 0.231373 0.180806 0.030898 0.001114 0.004322 ]
3
Num Evals 783
GenUC: 5.171727e-05
GenUB: 5.987473e-06
Optimisation 3.270640e-01
Total Time: 3.271239e-01
4 Rem 5
Graph 1:
1 0 0 0 0 
0 0 0 1 1 
1 1 0 0 0 
1 1 0 0 1 
1 1 0 1 0 
Graph 2:
0 0 0 0 0 
0 0 0 1 1 
0 0 0 0 0 
1 1 0 0 1 
1 0 0 1 0 
Solution: 21 0
Classic Expectation: 14.000000
Initial Expecation: 13.125000
Gbest: 19.000000
Expectation: 15.535667
Final Parameters:
Gammas:
[ 3.226041 3.478955 3.010188 2.885920 3.263516 ]
Betas:
[ 1.541852 1.326696 1.688136 2.377679 1.868769 ]
Aggregate results:
[ 21 15 13 19 17 11 9 0 ]
[ 0.021772 0.282769 0.224735 0.085223 0.350167 0.029774 0.001753 0.003807 ]
3
Num Evals 836
GenUC: 5.153520e-05
GenUB: 5.916227e-06
Optimisation 4.384555e-01
Total Time: 4.385156e-01
5 Add/Rem 5
Graph 1:
1 0 0 0 0 
0 0 0 1 1 
1 1 0 0 0 
1 1 0 0 1 
1 1 0 1 0 
Graph 2:
1 1 0 1 0 
0 0 1 1 0 
1 0 1 0 0 
1 1 0 1 1 
1 1 0 0 0 
Solution: 17 0
Classic Expectation: 12.200000
Initial Expecation: 11.437500
Gbest: 17.000000
Expectation: 13.912356
Final Parameters:
Gammas:
[ 3.262162 3.254979 2.845357 2.980146 3.289627 ]
Betas:
[ 1.267077 1.932491 1.419178 2.600302 2.004194 ]
Aggregate results:
[ 17 15 11 13 9 7 0 ]
[ 0.126335 0.381275 0.091410 0.363945 0.032128 0.002798 0.002108 ]
3
Num Evals 887
GenUC: 5.146069e-05
GenUB: 6.272458e-06
Optimisation 4.750590e-01
Total Time: 4.751187e-01
