Clock Speed: 3.688325
Num threads: 4
Trotterisation: 4
Graph Size: 7
Num Qubits: 13
Space Dimension: 8192
Run-Type: 0
Num_samples: 10
1 Isomorphic
Graph 1:
0 0 1 0 0 1 0 
1 1 0 1 1 0 1 
0 1 0 1 1 0 0 
0 1 1 0 0 1 1 
1 1 1 1 0 1 1 
0 0 0 1 0 0 1 
0 0 0 1 0 1 0 
Graph 2:
0 0 1 0 0 1 0 
1 1 0 1 1 0 1 
0 1 0 1 1 0 0 
0 1 1 0 0 1 1 
1 1 1 1 0 1 1 
0 0 0 1 0 0 1 
0 0 0 1 0 1 0 
Solution: 0 0
Gbest: -18.000000
Expectation: -24.667948
Final Parameters:
Gammas:
[ 0.185183 0.233644 0.230007 4.632126 ]
Betas:
[ 1.661689 2.111236 1.339977 0.339110 3.135787 ]
Aggregate results:
[ -1 17 11 9 13 19 23 15 21 7 25 27 29 31 5 33 3 48 ]
[ 0.000155 0.109399 0.009093 0.003055 0.023127 0.153640 0.174328 0.049912 0.188114 0.000606 0.102857 0.054064 0.020977 0.008624 0.000432 0.002213 0.000117 0.099287 ]
5
Num Evals 700
GenUC: 1.448147e-03
GenUB: 2.075884e-03
Optimisation 8.999301e+00
Total Time: 9.015662e+00
2 Flipped
Graph 1:
0 0 1 0 0 1 0 
1 1 0 1 1 0 1 
0 1 0 1 1 0 0 
0 1 1 0 0 1 1 
1 1 1 1 0 1 1 
0 0 0 1 0 0 1 
0 0 0 1 0 1 0 
Graph 2:
0 1 0 0 1 0 0 
1 0 1 1 0 1 1 
0 0 1 1 0 1 0 
1 1 0 0 1 1 0 
1 1 0 1 1 1 1 
1 0 0 1 0 0 0 
0 1 0 1 0 0 0 
Solution: -12 516
Gbest: -20.000000
Expectation: -28.418683
Final Parameters:
Gammas:
[ 4.826589 4.820154 4.528760 3.012965 ]
Betas:
[ 0.131265 0.386186 2.792297 1.116560 1.655826 ]
Aggregate results:
[ 21 19 15 23 25 13 17 29 27 31 33 11 35 48 ]
[ 0.201187 0.101381 0.018343 0.142306 0.172684 0.003745 0.061892 0.039614 0.050966 0.008115 0.001378 0.001131 0.000105 0.197153 ]
5
Num Evals 1400
GenUC: 1.215444e-03
GenUB: 1.591506e-03
Optimisation 7.306266e+00
Total Time: 7.319305e+00
3 Add 7
Graph 1:
0 0 1 0 0 1 0 
1 1 0 1 1 0 1 
0 1 0 1 1 0 0 
0 1 1 0 0 1 1 
1 1 1 1 0 1 1 
0 0 0 1 0 0 1 
0 0 0 1 0 1 0 
Graph 2:
0 0 1 1 0 1 1 
1 1 0 1 1 1 1 
1 1 0 1 1 0 0 
0 1 1 0 0 1 1 
1 1 1 1 1 1 1 
0 0 1 1 0 0 1 
0 0 1 1 0 1 0 
Solution: -7 0
Gbest: -17.000000
Expectation: -30.250437
Final Parameters:
Gammas:
[ 3.804090 4.573605 5.336511 2.635538 ]
Betas:
[ 2.455324 0.648854 1.678274 1.594001 3.116830 ]
Aggregate results:
[ 6 16 14 18 20 22 12 10 24 26 28 30 32 48 ]
[ 0.000660 0.034968 0.014705 0.075353 0.147442 0.198616 0.002967 0.001112 0.153341 0.057407 0.018545 0.004425 0.000446 0.290012 ]
5
Num Evals 2100
GenUC: 1.122091e-03
GenUB: 1.959009e-03
Optimisation 9.828910e+00
Total Time: 9.847608e+00
4 Rem 7
Graph 1:
0 0 1 0 0 1 0 
1 1 0 1 1 0 1 
0 1 0 1 1 0 0 
0 1 1 0 0 1 1 
1 1 1 1 0 1 1 
0 0 0 1 0 0 1 
0 0 0 1 0 1 0 
Graph 2:
0 0 1 0 0 0 0 
1 0 0 1 0 0 0 
0 1 0 1 1 0 0 
0 0 1 0 0 1 1 
1 1 1 1 0 1 0 
0 0 0 0 0 0 1 
0 0 0 1 0 1 0 
Solution: -7 0
Gbest: -19.000000
Expectation: -24.490873
Final Parameters:
Gammas:
[ 0.009864 6.101817 5.070962 1.853233 ]
Betas:
[ 2.301069 0.452129 0.906844 1.582250 3.139870 ]
Aggregate results:
[ 6 14 12 8 18 16 22 20 24 10 26 28 30 32 34 48 ]
[ 0.000857 0.020163 0.007384 0.001162 0.139240 0.055235 0.208581 0.197622 0.166288 0.001820 0.080073 0.030421 0.007017 0.000836 0.000305 0.082996 ]
5
Num Evals 2800
GenUC: 1.214314e-03
GenUB: 1.707511e-03
Optimisation 8.803658e+00
Total Time: 8.819276e+00
5 Add/Rem 7
Graph 1:
0 0 1 0 0 1 0 
1 1 0 1 1 0 1 
0 1 0 1 1 0 0 
0 1 1 0 0 1 1 
1 1 1 1 0 1 1 
0 0 0 1 0 0 1 
0 0 0 1 0 1 0 
Graph 2:
0 0 1 0 0 0 0 
1 1 0 1 1 0 1 
0 1 1 1 1 0 0 
0 1 1 0 0 1 1 
0 0 0 1 0 1 1 
1 0 0 1 1 0 0 
1 0 1 1 0 1 1 
Solution: -11 0
Gbest: -17.000000
Expectation: -27.098402
Final Parameters:
Gammas:
[ 4.222896 5.026845 5.926192 4.502453 ]
Betas:
[ 0.017940 3.118808 2.418814 1.333923 1.460436 ]
Aggregate results:
[ 10 26 20 18 22 24 30 28 16 14 32 34 12 48 ]
[ 0.000260 0.135725 0.138044 0.086650 0.155528 0.164689 0.049024 0.084968 0.040889 0.009504 0.010152 0.002044 0.001121 0.121402 ]
5
Num Evals 3500
GenUC: 1.310634e-03
GenUB: 1.812589e-03
Optimisation 9.189555e+00
Total Time: 9.205676e+00
