Clock Speed: 3.390234
Num threads: 4
Trotterisation: 6
Graph Size: 7
Num Qubits: 13
Space Dimension: 8192
Run-Type: 0
Num_samples: 10
1 Isomorphic
Graph 1:
0 0 1 0 1 0 1 
0 1 0 0 0 1 1 
1 0 0 0 1 1 0 
0 1 1 0 1 0 1 
1 0 0 1 0 0 0 
0 1 1 1 0 1 1 
1 1 1 1 0 0 1 
Graph 2:
0 0 1 0 1 0 1 
0 1 0 0 0 1 1 
1 0 0 0 1 1 0 
0 1 1 0 1 0 1 
1 0 0 1 0 0 0 
0 1 1 1 0 1 1 
1 1 1 1 0 0 1 
Solution: 0 0
Gbest: -20.000000
Expectation: -29.663489
Final Parameters:
Gammas:
[ 5.242112 4.089075 5.257083 5.265769 2.014296 5.147785 ]
Betas:
[ 1.774980 0.503861 0.128556 2.500079 1.838855 1.591308 0.276757 ]
Aggregate results:
[ -1 15 17 9 13 21 19 11 5 27 23 25 29 31 33 35 37 48 ]
[ 0.000036 0.021274 0.039253 0.000930 0.008146 0.134848 0.084682 0.001834 0.000531 0.088690 0.151041 0.142580 0.074097 0.026020 0.007427 0.002023 0.000124 0.216464 ]
5
Num Evals 700
GenUC: 1.532000e-03
GenUB: 2.018335e-03
Optimisation 1.073444e+01
Total Time: 1.075287e+01
2 Flipped
Graph 1:
0 0 1 0 1 0 1 
0 1 0 0 0 1 1 
1 0 0 0 1 1 0 
0 1 1 0 1 0 1 
1 0 0 1 0 0 0 
0 1 1 1 0 1 1 
1 1 1 1 0 0 1 
Graph 2:
1 0 1 0 1 0 0 
1 1 0 0 0 1 0 
0 1 1 0 0 0 1 
1 0 1 0 1 1 0 
0 0 0 1 0 0 1 
1 1 0 1 1 1 0 
1 0 0 1 1 1 1 
Solution: -12 3730
Gbest: -26.000000
Expectation: -28.757337
Final Parameters:
Gammas:
[ 2.958288 5.789934 1.987730 4.902257 0.777459 0.265004 ]
Betas:
[ 2.154559 0.677943 2.852042 1.480359 1.596377 3.071504 0.284928 ]
Aggregate results:
[ 23 25 21 19 29 27 31 17 15 33 13 35 11 48 ]
[ 0.169064 0.201619 0.118967 0.068786 0.067823 0.132310 0.024630 0.036083 0.011301 0.004081 0.002848 0.001554 0.000364 0.160571 ]
5
Num Evals 1400
GenUC: 1.266570e-03
GenUB: 1.779738e-03
Optimisation 1.313420e+01
Total Time: 1.315505e+01
3 Add 7
Graph 1:
0 0 1 0 1 0 1 
0 1 0 0 0 1 1 
1 0 0 0 1 1 0 
0 1 1 0 1 0 1 
1 0 0 1 0 0 0 
0 1 1 1 0 1 1 
1 1 1 1 0 0 1 
Graph 2:
0 1 1 0 1 0 1 
0 1 0 0 1 1 1 
1 0 0 1 1 1 0 
0 1 1 0 1 1 1 
1 0 1 1 1 0 0 
0 1 1 1 0 1 1 
1 1 1 1 0 0 1 
Solution: -6 0
Gbest: -18.000000
Expectation: -29.067763
Final Parameters:
Gammas:
[ 2.826693 2.547495 5.844994 3.151892 4.843892 3.129224 ]
Betas:
[ 0.434621 2.665620 1.610056 1.446926 1.476518 1.514209 3.118682 ]
Aggregate results:
[ 5 19 11 13 17 23 7 21 25 27 29 15 31 33 35 9 37 48 ]
[ 0.000147 0.090674 0.001277 0.008119 0.048411 0.175069 0.000095 0.161515 0.128811 0.081728 0.043830 0.015833 0.029295 0.010040 0.002604 0.000064 0.000322 0.202166 ]
5
Num Evals 2100
GenUC: 1.269329e-03
GenUB: 1.791933e-03
Optimisation 1.321011e+01
Total Time: 1.323163e+01
4 Rem 7
Graph 1:
0 0 1 0 1 0 1 
0 1 0 0 0 1 1 
1 0 0 0 1 1 0 
0 1 1 0 1 0 1 
1 0 0 1 0 0 0 
0 1 1 1 0 1 1 
1 1 1 1 0 0 1 
Graph 2:
0 0 0 0 0 0 1 
0 1 0 0 0 0 1 
1 0 0 0 1 1 0 
0 1 0 0 1 0 1 
1 0 0 0 0 0 0 
0 1 0 1 0 1 0 
1 1 1 1 0 0 1 
Solution: -7 0
Gbest: -21.000000
Expectation: -30.996527
Final Parameters:
Gammas:
[ 2.703869 1.605867 6.052332 0.667523 3.676512 2.080621 ]
Betas:
[ 1.997862 0.281009 2.895708 2.408242 0.152980 3.135899 2.533709 ]
Aggregate results:
[ 6 16 14 20 12 18 22 26 24 28 30 34 32 10 38 48 ]
[ 0.000059 0.016263 0.003606 0.100421 0.000594 0.042267 0.162149 0.131458 0.158209 0.075645 0.032376 0.003187 0.012930 0.000002 0.000459 0.260375 ]
5
Num Evals 2800
GenUC: 1.247175e-03
GenUB: 1.811269e-03
Optimisation 1.376314e+01
Total Time: 1.378459e+01
5 Add/Rem 7
Graph 1:
0 0 1 0 1 0 1 
0 1 0 0 0 1 1 
1 0 0 0 1 1 0 
0 1 1 0 1 0 1 
1 0 0 1 0 0 0 
0 1 1 1 0 1 1 
1 1 1 1 0 0 1 
Graph 2:
0 0 1 1 1 0 1 
0 1 0 0 0 1 0 
1 0 0 0 1 1 0 
1 1 1 1 0 0 1 
1 0 1 1 1 1 0 
0 0 1 1 0 1 1 
0 1 1 1 0 0 0 
Solution: -9 885
Gbest: -21.000000
Expectation: -27.748730
Final Parameters:
Gammas:
[ 3.446341 4.255746 1.809348 4.263272 0.347443 5.945029 ]
Betas:
[ 0.299538 1.070231 0.099776 0.173114 1.825448 0.070373 2.994947 ]
Aggregate results:
[ 10 22 18 24 16 20 26 30 28 32 14 34 8 12 36 48 ]
[ 0.000406 0.164866 0.122176 0.113530 0.051296 0.187170 0.075979 0.030525 0.043350 0.011412 0.009201 0.005263 0.000055 0.000412 0.000247 0.184112 ]
5
Num Evals 3500
GenUC: 1.226898e-03
GenUB: 1.754355e-03
Optimisation 9.407744e+00
Total Time: 9.423005e+00
