Clock Speed: 3.688635
Num threads: 4
Trotterisation: 2
Graph Size: 7
Num Qubits: 13
Space Dimension: 8192
Run-Type: 0
Num_samples: 10
1 Isomorphic
Graph 1:
1 1 1 0 1 1 1 
1 0 0 1 1 0 1 
1 0 0 0 0 1 0 
0 0 1 0 1 1 0 
1 1 1 1 0 0 1 
0 0 0 1 0 1 1 
0 1 1 1 0 1 0 
Graph 2:
1 1 1 0 1 1 1 
1 0 0 1 1 0 1 
1 0 0 0 0 1 0 
0 0 1 0 1 1 0 
1 1 1 1 0 0 1 
0 0 0 1 0 1 1 
0 1 1 1 0 1 0 
Solution: 0 0
Gbest: -16.000000
Expectation: -24.358739
Final Parameters:
Gammas:
[ 0.025092 3.195028 ]
Betas:
[ 1.527963 2.253857 0.361740 ]
Aggregate results:
[ -1 11 17 9 13 19 21 15 25 5 23 27 29 31 33 7 48 ]
[ 0.000367 0.004903 0.084553 0.001109 0.014920 0.146708 0.198197 0.034868 0.147439 0.000686 0.182055 0.083618 0.030726 0.007556 0.002941 0.000352 0.059002 ]
5
Num Evals 700
GenUC: 1.373065e-03
GenUB: 2.057532e-03
Optimisation 4.632403e+00
Total Time: 4.642738e+00
2 Flipped
Graph 1:
1 1 1 0 1 1 1 
1 0 0 1 1 0 1 
1 0 0 0 0 1 0 
0 0 1 0 1 1 0 
1 1 1 1 0 0 1 
0 0 0 1 0 1 1 
0 1 1 1 0 1 0 
Graph 2:
1 1 1 0 1 1 1 
1 0 1 1 0 0 1 
0 1 0 0 0 0 1 
0 1 1 0 1 0 0 
1 0 0 1 1 1 1 
1 1 0 1 0 0 0 
0 1 0 1 1 1 0 
Solution: -10 152
Gbest: -20.000000
Expectation: -24.484781
Final Parameters:
Gammas:
[ 3.199203 0.271132 ]
Betas:
[ 0.216353 2.091795 1.628221 ]
Aggregate results:
[ 17 23 19 25 31 27 29 21 13 15 11 9 33 48 ]
[ 0.070410 0.202388 0.146120 0.157470 0.007948 0.085612 0.029355 0.203459 0.009302 0.029484 0.002530 0.000741 0.000554 0.054625 ]
5
Num Evals 1400
GenUC: 1.269416e-03
GenUB: 1.743666e-03
Optimisation 4.425438e+00
Total Time: 4.434777e+00
3 Add 7
Graph 1:
1 1 1 0 1 1 1 
1 0 0 1 1 0 1 
1 0 0 0 0 1 0 
0 0 1 0 1 1 0 
1 1 1 1 0 0 1 
0 0 0 1 0 1 1 
0 1 1 1 0 1 0 
Graph 2:
1 1 1 0 1 1 1 
1 0 0 1 1 1 1 
1 1 0 1 1 1 0 
0 0 1 0 1 1 0 
1 1 1 1 0 1 1 
0 0 1 1 0 1 1 
0 1 1 1 0 1 0 
Solution: -6 0
Gbest: -16.000000
Expectation: -23.089524
Final Parameters:
Gammas:
[ 0.052617 3.284400 ]
Betas:
[ 1.582527 0.949035 1.645225 ]
Aggregate results:
[ 5 13 17 9 15 19 11 23 21 25 27 31 29 48 ]
[ 0.000309 0.011793 0.120081 0.000293 0.041693 0.188772 0.004718 0.198692 0.232270 0.108746 0.040098 0.000831 0.006831 0.044875 ]
5
Num Evals 2100
GenUC: 1.071073e-03
GenUB: 1.735388e-03
Optimisation 4.356205e+00
Total Time: 4.366049e+00
4 Rem 7
Graph 1:
1 1 1 0 1 1 1 
1 0 0 1 1 0 1 
1 0 0 0 0 1 0 
0 0 1 0 1 1 0 
1 1 1 1 0 0 1 
0 0 0 1 0 1 1 
0 1 1 1 0 1 0 
Graph 2:
1 1 1 0 1 0 1 
1 0 0 1 1 0 1 
0 0 0 0 0 1 0 
0 0 0 0 0 1 0 
1 0 1 1 0 0 0 
0 0 0 1 0 1 1 
0 1 1 1 0 0 0 
Solution: -7 0
Gbest: -21.000000
Expectation: -26.684665
Final Parameters:
Gammas:
[ 0.201982 3.153168 ]
Betas:
[ 1.697071 1.706099 1.868683 ]
Aggregate results:
[ 6 14 20 18 22 12 16 24 26 10 28 30 32 34 36 48 ]
[ 0.000087 0.009531 0.143758 0.076880 0.190338 0.002647 0.030412 0.185936 0.137649 0.000509 0.072148 0.028203 0.008179 0.002970 0.000469 0.110285 ]
5
Num Evals 2800
GenUC: 1.234652e-03
GenUB: 1.809095e-03
Optimisation 4.990868e+00
Total Time: 5.001881e+00
5 Add/Rem 7
Graph 1:
1 1 1 0 1 1 1 
1 0 0 1 1 0 1 
1 0 0 0 0 1 0 
0 0 1 0 1 1 0 
1 1 1 1 0 0 1 
0 0 0 1 0 1 1 
0 1 1 1 0 1 0 
Graph 2:
1 1 1 0 1 1 0 
1 0 1 1 1 0 1 
1 0 0 0 0 0 0 
0 0 1 0 1 1 0 
1 1 1 0 0 1 0 
0 1 1 1 1 0 0 
0 1 0 1 1 1 0 
Solution: -11 907
Gbest: -17.000000
Expectation: -24.580546
Final Parameters:
Gammas:
[ 3.058166 6.097028 ]
Betas:
[ 1.588888 0.184119 0.214542 ]
Aggregate results:
[ 12 22 26 20 24 30 28 14 18 16 32 10 48 ]
[ 0.022929 0.142530 0.058246 0.167165 0.103089 0.005092 0.021403 0.055181 0.168666 0.115965 0.000464 0.007314 0.131957 ]
5
Num Evals 3500
GenUC: 1.222150e-03
GenUB: 1.792697e-03
Optimisation 4.260417e+00
Total Time: 4.268356e+00
