Clock Speed: 3.498807
Num threads: 24
Trotterisation: 6
Graph Size: 10
Num Qubits: 22
Space Dimension: 4194304
Run-Type: 1
Num_samples: 1
1 Isomorphic
Graph 1:
0 1 1 1 1 0 1 0 1 0 
1 0 1 1 1 0 0 1 0 0 
1 0 1 0 1 0 0 1 1 0 
0 1 0 0 1 1 0 0 1 0 
1 1 0 0 0 0 0 1 1 1 
1 1 1 0 0 0 1 0 0 0 
0 0 0 0 0 0 1 1 1 1 
1 0 0 0 0 1 0 1 1 0 
0 0 0 1 0 0 0 0 0 0 
1 0 1 1 1 0 0 1 0 1 
Graph 2:
0 1 1 1 1 0 1 0 1 0 
1 0 1 1 1 0 0 1 0 0 
1 0 1 0 1 0 0 1 1 0 
0 1 0 0 1 1 0 0 1 0 
1 1 0 0 0 0 0 1 1 1 
1 1 1 0 0 0 1 0 0 0 
0 0 0 0 0 0 1 1 1 1 
1 0 0 0 0 1 0 1 1 0 
0 0 0 1 0 0 0 0 0 0 
1 0 1 1 1 0 0 1 0 1 
Solution: 0 0
Expectation: -51.150583
Final Parameters:
Gammas:
[ 4.287571 5.744259 4.859817 3.573181 3.664288 3.229985 ]
Betas:
[ 2.055089 1.641189 1.546260 1.591256 1.594793 1.573513 1.447268 ]
Aggregate results:
[ 0 14 20 22 28 24 18 32 30 16 26 36 34 12 38 40 46 44 42 48 50 54 52 56 10 58 60 62 64 66 68 72 70 76 100 ]
[ 0.000000 0.000002 0.000005 0.000009 0.000276 0.000030 0.000001 0.002701 0.000879 0.000001 0.000100 0.022671 0.008044 0.000000 0.050484 0.090201 0.114467 0.146065 0.134543 0.086930 0.062138 0.044004 0.051691 0.035915 0.000000 0.027659 0.015500 0.007103 0.002638 0.000624 0.000117 0.000003 0.000016 0.000000 0.095184 ]
5
Num Evals 1000
GenUC: 5.641088e-01
GenUB: 2.502933e+00
Optimisation 3.632288e+04
Total Time: 3.636298e+04
