Clock Speed: 3.498738
Num threads: 24
Trotterisation: 1
Graph Size: 10
Num Qubits: 22
Space Dimension: 4194304
Run-Type: 0
Num_samples: 1
1 Isomorphic
Graph 1:
0 0 0 1 0 1 1 0 1 1 
1 1 0 0 1 1 0 0 0 1 
1 0 1 0 1 0 1 1 1 0 
0 1 0 0 1 1 1 0 0 0 
0 1 0 1 0 1 1 1 0 1 
1 1 1 0 0 1 1 1 0 0 
0 0 0 0 1 1 0 1 0 0 
1 0 0 0 1 0 1 1 1 0 
0 1 0 0 1 0 1 0 0 0 
1 0 1 1 1 0 1 1 1 1 
Graph 2:
0 0 0 1 0 1 1 0 1 1 
1 1 0 0 1 1 0 0 0 1 
1 0 1 0 1 0 1 1 1 0 
0 1 0 0 1 1 1 0 0 0 
0 1 0 1 0 1 1 1 0 1 
1 1 1 0 0 1 1 1 0 0 
0 0 0 0 1 1 0 1 0 0 
1 0 0 0 1 0 1 1 1 0 
0 1 0 0 1 0 1 0 0 0 
1 0 1 1 1 0 1 1 1 1 
Solution: 0 0
Expectation: -50.908023
Final Parameters:
Gammas:
[ 3.292278 ]
Betas:
[ 1.785209 2.776062 ]
Aggregate results:
[ 0 24 30 18 32 26 22 36 20 38 42 28 34 40 44 46 16 14 48 50 52 54 56 58 60 12 62 6 64 68 66 70 8 72 74 100 ]
[ 0.000000 0.000022 0.000305 0.000005 0.000798 0.000050 0.000008 0.005422 0.000006 0.012965 0.052915 0.000111 0.002077 0.028228 0.085567 0.118072 0.000001 0.000000 0.142225 0.146972 0.131415 0.101609 0.068309 0.040372 0.020645 0.000001 0.009297 0.000000 0.003573 0.000290 0.001065 0.000070 0.000000 0.000005 0.000002 0.027597 ]
3
Num Evals 184
GenUC: 6.165753e-01
GenUB: 2.491332e+00
Optimisation 2.326427e+03
Total Time: 2.342790e+03
2 Flipped
Graph 1:
0 0 0 1 0 1 1 0 1 1 
1 1 0 0 1 1 0 0 0 1 
1 0 1 0 1 0 1 1 1 0 
0 1 0 0 1 1 1 0 0 0 
0 1 0 1 0 1 1 1 0 1 
1 1 1 0 0 1 1 1 0 0 
0 0 0 0 1 1 0 1 0 0 
1 0 0 0 1 0 1 1 1 0 
0 1 0 0 1 0 1 0 0 0 
1 0 1 1 1 0 1 1 1 1 
Graph 2:
1 1 0 1 1 0 1 0 0 0 
1 0 0 0 1 1 0 0 1 1 
0 1 1 1 0 1 0 1 0 1 
0 0 0 1 1 1 0 0 1 0 
1 0 1 1 1 0 1 0 1 0 
0 0 1 1 1 0 0 1 1 1 
0 0 1 0 1 1 0 0 0 0 
0 1 1 1 0 1 0 0 0 1 
0 0 0 1 0 1 0 0 1 0 
1 1 1 1 0 1 1 1 0 1 
Solution: -24 264954
Expectation: -56.529764
Final Parameters:
Gammas:
[ 4.843637 ]
Betas:
[ 1.908420 2.783933 ]
Aggregate results:
[ 58 52 56 48 54 50 44 46 42 40 38 36 32 60 64 62 66 34 30 68 28 26 24 70 72 74 100 ]
[ 0.040193 0.124466 0.063435 0.126542 0.108911 0.146248 0.067384 0.100123 0.036230 0.018904 0.007089 0.002800 0.000241 0.016316 0.001915 0.006898 0.000544 0.000790 0.000058 0.000102 0.000013 0.000002 0.000000 0.000014 0.000002 0.000001 0.130778 ]
3
Num Evals 330
GenUC: 5.506838e-01
GenUB: 2.492861e+00
Optimisation 1.917068e+03
Total Time: 1.933617e+03
3 Add 10
Graph 1:
0 0 0 1 0 1 1 0 1 1 
1 1 0 0 1 1 0 0 0 1 
1 0 1 0 1 0 1 1 1 0 
0 1 0 0 1 1 1 0 0 0 
0 1 0 1 0 1 1 1 0 1 
1 1 1 0 0 1 1 1 0 0 
0 0 0 0 1 1 0 1 0 0 
1 0 0 0 1 0 1 1 1 0 
0 1 0 0 1 0 1 0 0 0 
1 0 1 1 1 0 1 1 1 1 
Graph 2:
0 1 0 1 0 1 1 0 1 1 
1 1 0 0 1 1 0 1 0 1 
1 0 1 1 1 0 1 1 1 1 
0 1 0 1 1 1 1 0 0 0 
0 1 0 1 0 1 1 1 0 1 
1 1 1 0 1 1 1 1 0 1 
0 0 0 0 1 1 0 1 0 0 
1 0 0 0 1 1 1 1 1 0 
0 1 0 1 1 1 1 0 0 0 
1 0 1 1 1 0 1 1 1 1 
Solution: -10 0
Expectation: -56.337531
Final Parameters:
Gammas:
[ 4.421863 ]
Betas:
[ 1.122587 2.780336 ]
Aggregate results:
[ 10 32 34 24 36 28 40 38 26 30 22 42 44 46 20 48 50 52 16 54 56 58 60 62 64 66 68 70 14 18 72 100 ]
[ 0.000000 0.000614 0.001859 0.000010 0.004436 0.000080 0.023190 0.011006 0.000029 0.000236 0.000006 0.041115 0.074384 0.095091 0.000002 0.126550 0.135656 0.116247 0.000001 0.105175 0.063000 0.040278 0.019551 0.007194 0.002858 0.000612 0.000143 0.000016 0.000000 0.000000 0.000001 0.130658 ]
3
Num Evals 461
GenUC: 5.358027e-01
GenUB: 2.492167e+00
Optimisation 1.592277e+03
Total Time: 1.607280e+03
4 Rem 10
Graph 1:
0 0 0 1 0 1 1 0 1 1 
1 1 0 0 1 1 0 0 0 1 
1 0 1 0 1 0 1 1 1 0 
0 1 0 0 1 1 1 0 0 0 
0 1 0 1 0 1 1 1 0 1 
1 1 1 0 0 1 1 1 0 0 
0 0 0 0 1 1 0 1 0 0 
1 0 0 0 1 0 1 1 1 0 
0 1 0 0 1 0 1 0 0 0 
1 0 1 1 1 0 1 1 1 1 
Graph 2:
0 0 0 1 0 1 1 0 0 1 
0 1 0 0 1 1 0 0 0 1 
1 0 1 0 0 0 1 1 1 0 
0 0 0 0 1 1 1 0 0 0 
0 1 0 1 0 0 0 0 0 1 
1 1 1 0 0 1 1 1 0 0 
0 0 0 0 1 1 0 1 0 0 
1 0 0 0 1 0 1 1 1 0 
0 0 0 0 1 0 1 0 0 0 
1 0 1 1 1 0 0 1 1 1 
Solution: -9 0
Expectation: -56.689464
Final Parameters:
Gammas:
[ 4.544290 ]
Betas:
[ 2.622608 2.781454 ]
Aggregate results:
[ 9 25 29 23 33 37 31 35 27 21 43 41 45 39 19 47 49 51 55 53 61 57 59 63 65 13 67 69 17 71 73 75 100 ]
[ 0.000000 0.000010 0.000097 0.000005 0.000794 0.005703 0.000247 0.002042 0.000031 0.000003 0.051171 0.027252 0.076273 0.012646 0.000001 0.116252 0.122693 0.142787 0.091058 0.110705 0.015192 0.055712 0.030392 0.005424 0.002098 0.000000 0.000493 0.000164 0.000000 0.000029 0.000006 0.000001 0.130721 ]
3
Num Evals 613
GenUC: 5.373844e-01
GenUB: 2.518864e+00
Optimisation 2.208715e+03
Total Time: 2.226920e+03
5 Add/Rem 10
Graph 1:
0 0 0 1 0 1 1 0 1 1 
1 1 0 0 1 1 0 0 0 1 
1 0 1 0 1 0 1 1 1 0 
0 1 0 0 1 1 1 0 0 0 
0 1 0 1 0 1 1 1 0 1 
1 1 1 0 0 1 1 1 0 0 
0 0 0 0 1 1 0 1 0 0 
1 0 0 0 1 0 1 1 1 0 
0 1 0 0 1 0 1 0 0 0 
1 0 1 1 1 0 1 1 1 1 
Graph 2:
0 0 0 1 0 1 1 0 1 1 
1 1 1 1 1 1 1 0 0 1 
1 0 1 0 0 0 1 0 0 0 
0 1 1 1 1 0 1 0 0 0 
0 1 0 1 0 1 1 1 0 1 
1 0 0 0 1 1 1 1 0 0 
0 1 0 0 1 1 0 0 0 0 
1 0 0 1 1 0 1 1 0 0 
0 1 0 1 1 0 1 0 1 0 
1 0 1 0 1 0 1 1 1 1 
Solution: -19 0
Expectation: -50.391799
Final Parameters:
Gammas:
[ 3.229470 ]
Betas:
[ 1.836654 2.779520 ]
Aggregate results:
[ 19 39 41 29 31 35 37 27 25 33 45 43 47 51 49 53 57 23 55 59 61 63 65 21 67 71 69 73 100 ]
[ 0.000000 0.020719 0.039976 0.000158 0.000490 0.003763 0.009451 0.000047 0.000019 0.001377 0.098572 0.067033 0.127388 0.143665 0.145166 0.123599 0.058267 0.000004 0.091504 0.031779 0.014405 0.005359 0.001587 0.000002 0.000397 0.000007 0.000066 0.000002 0.015199 ]
3
Num Evals 793
GenUC: 5.467153e-01
GenUB: 2.492848e+00
Optimisation 2.414277e+03
Total Time: 2.430656e+03
