Clock Speed: 3.498647
Num threads: 24
Trotterisation: 2
Graph Size: 10
Num Qubits: 22
Space Dimension: 4194304
Run-Type: 0
Num_samples: 1
1 Isomorphic
Graph 1:
1 1 0 1 1 1 1 1 1 0 
1 0 1 0 0 1 0 0 0 0 
0 1 0 0 1 0 0 1 0 1 
0 1 0 1 1 1 0 1 0 0 
1 0 1 1 0 1 1 1 0 1 
1 0 0 0 1 0 0 1 1 1 
1 1 1 1 0 0 1 1 1 0 
1 1 0 0 0 1 0 1 0 0 
1 0 1 0 0 0 0 1 0 1 
0 1 1 1 0 0 0 0 1 0 
Graph 2:
1 1 0 1 1 1 1 1 1 0 
1 0 1 0 0 1 0 0 0 0 
0 1 0 0 1 0 0 1 0 1 
0 1 0 1 1 1 0 1 0 0 
1 0 1 1 0 1 1 1 0 1 
1 0 0 0 1 0 0 1 1 1 
1 1 1 1 0 0 1 1 1 0 
1 1 0 0 0 1 0 1 0 0 
1 0 1 0 0 0 0 1 0 1 
0 1 1 1 0 0 0 0 1 0 
Solution: 0 0
Expectation: -50.066023
Final Parameters:
Gammas:
[ 3.116897 3.220178 ]
Betas:
[ 1.462697 1.916156 1.551131 ]
Aggregate results:
[ 0 26 32 20 18 22 24 30 12 34 16 40 36 44 42 38 46 28 48 14 50 52 54 56 58 60 62 66 64 68 70 72 100 ]
[ 0.000000 0.000060 0.000860 0.000005 0.000003 0.000015 0.000026 0.000334 0.000000 0.002243 0.000002 0.025821 0.005357 0.080833 0.048474 0.012468 0.116554 0.000136 0.146993 0.000003 0.157103 0.143255 0.110598 0.071675 0.039892 0.018048 0.006975 0.000623 0.002331 0.000132 0.000017 0.000001 0.009164 ]
3
Num Evals 372
GenUC: 5.596104e-01
GenUB: 2.469588e+00
Optimisation 6.222291e+03
Total Time: 6.242078e+03
2 Flipped
Graph 1:
1 1 0 1 1 1 1 1 1 0 
1 0 1 0 0 1 0 0 0 0 
0 1 0 0 1 0 0 1 0 1 
0 1 0 1 1 1 0 1 0 0 
1 0 1 1 0 1 1 1 0 1 
1 0 0 0 1 0 0 1 1 1 
1 1 1 1 0 0 1 1 1 0 
1 1 0 0 0 1 0 1 0 0 
1 0 1 0 0 0 0 1 0 1 
0 1 1 1 0 0 0 0 1 0 
Graph 2:
0 1 1 1 1 1 1 0 1 1 
0 0 0 0 1 0 0 1 0 1 
1 0 1 0 0 1 0 0 1 0 
0 0 1 0 1 1 1 0 1 0 
1 0 1 1 1 0 1 1 0 1 
1 1 1 0 0 1 0 0 0 1 
0 1 1 1 0 0 1 1 1 1 
0 0 1 0 1 0 0 0 1 1 
1 0 1 0 0 0 0 1 0 1 
0 1 0 0 0 0 1 1 1 0 
Solution: -18 237288
Expectation: -55.914882
Final Parameters:
Gammas:
[ 4.080312 2.988397 ]
Betas:
[ 0.000000 1.105265 0.089625 ]
Aggregate results:
[ 46 52 40 36 44 42 48 54 50 56 58 60 38 34 62 66 64 32 30 28 26 24 68 70 18 72 74 100 ]
[ 0.110902 0.109736 0.030669 0.006245 0.083957 0.054667 0.127034 0.083419 0.126545 0.055612 0.032066 0.016190 0.014802 0.002135 0.006976 0.000764 0.002516 0.000604 0.000166 0.000040 0.000010 0.000004 0.000212 0.000049 0.000000 0.000008 0.000000 0.134671 ]
3
Num Evals 786
GenUC: 5.457816e-01
GenUB: 2.481072e+00
Optimisation 3.187073e+03
Total Time: 3.196438e+03
3 Add 10
Graph 1:
1 1 0 1 1 1 1 1 1 0 
1 0 1 0 0 1 0 0 0 0 
0 1 0 0 1 0 0 1 0 1 
0 1 0 1 1 1 0 1 0 0 
1 0 1 1 0 1 1 1 0 1 
1 0 0 0 1 0 0 1 1 1 
1 1 1 1 0 0 1 1 1 0 
1 1 0 0 0 1 0 1 0 0 
1 0 1 0 0 0 0 1 0 1 
0 1 1 1 0 0 0 0 1 0 
Graph 2:
1 1 1 1 1 1 1 1 1 1 
1 0 1 0 0 1 1 0 1 0 
0 1 0 0 1 0 0 1 0 1 
0 1 0 1 1 1 0 1 0 0 
1 0 1 1 0 1 1 1 0 1 
1 0 1 0 1 0 0 1 1 1 
1 1 1 1 0 0 1 1 1 0 
1 1 0 0 0 1 0 1 0 0 
1 0 1 0 0 1 1 1 0 1 
0 1 1 1 0 0 0 1 1 0 
Solution: -8 0
Expectation: -53.684318
Final Parameters:
Gammas:
[ 3.492136 3.877410 ]
Betas:
[ 1.922207 1.988200 1.576492 ]
Aggregate results:
[ 8 28 36 26 32 22 34 30 40 18 38 24 44 48 42 46 52 50 20 54 58 56 62 60 16 64 66 70 68 72 74 100 ]
[ 0.000000 0.000065 0.004586 0.000024 0.000517 0.000006 0.001603 0.000173 0.026740 0.000002 0.011872 0.000012 0.080423 0.132431 0.050673 0.109939 0.131671 0.141264 0.000001 0.103869 0.033670 0.065984 0.004491 0.013767 0.000000 0.001205 0.000270 0.000011 0.000048 0.000002 0.000001 0.084679 ]
3
Num Evals 1284
GenUC: 5.317997e-01
GenUB: 2.476392e+00
Optimisation 9.010722e+03
Total Time: 9.031393e+03
4 Rem 10
Graph 1:
1 1 0 1 1 1 1 1 1 0 
1 0 1 0 0 1 0 0 0 0 
0 1 0 0 1 0 0 1 0 1 
0 1 0 1 1 1 0 1 0 0 
1 0 1 1 0 1 1 1 0 1 
1 0 0 0 1 0 0 1 1 1 
1 1 1 1 0 0 1 1 1 0 
1 1 0 0 0 1 0 1 0 0 
1 0 1 0 0 0 0 1 0 1 
0 1 1 1 0 0 0 0 1 0 
Graph 2:
1 0 0 1 1 1 0 1 1 0 
1 0 1 0 0 1 0 0 0 0 
0 0 0 0 1 0 0 1 0 0 
0 1 0 1 1 0 0 1 0 0 
1 0 1 1 0 1 1 1 0 1 
1 0 0 0 1 0 0 1 1 1 
0 1 1 1 0 0 1 0 1 0 
0 1 0 0 0 1 0 1 0 0 
1 0 1 0 0 0 0 1 0 0 
0 1 1 1 0 0 0 0 1 0 
Solution: -9 0
Expectation: -56.637012
Final Parameters:
Gammas:
[ 4.454471 3.997244 ]
Betas:
[ 1.806533 1.918793 1.561272 ]
Aggregate results:
[ 9 31 35 25 33 21 27 17 29 23 39 37 43 45 47 41 49 53 51 55 19 57 59 61 63 65 67 69 71 73 13 100 ]
[ 0.000000 0.000198 0.001784 0.000015 0.000694 0.000002 0.000032 0.000000 0.000071 0.000005 0.011467 0.005206 0.049185 0.075971 0.119245 0.026364 0.125409 0.116352 0.147667 0.089074 0.000001 0.056515 0.026157 0.012681 0.003689 0.001186 0.000239 0.000045 0.000003 0.000000 0.000000 0.130745 ]
3
Num Evals 1573
GenUC: 5.313283e-01
GenUB: 2.481877e+00
Optimisation 5.001404e+03
Total Time: 5.021808e+03
5 Add/Rem 10
Graph 1:
1 1 0 1 1 1 1 1 1 0 
1 0 1 0 0 1 0 0 0 0 
0 1 0 0 1 0 0 1 0 1 
0 1 0 1 1 1 0 1 0 0 
1 0 1 1 0 1 1 1 0 1 
1 0 0 0 1 0 0 1 1 1 
1 1 1 1 0 0 1 1 1 0 
1 1 0 0 0 1 0 1 0 0 
1 0 1 0 0 0 0 1 0 1 
0 1 1 1 0 0 0 0 1 0 
Graph 2:
1 1 0 0 1 1 1 1 1 1 
1 0 1 0 0 1 0 0 0 0 
1 0 1 0 1 0 0 1 0 1 
0 0 0 1 0 1 0 1 1 0 
1 0 1 1 0 1 1 1 0 1 
0 1 0 0 1 0 0 1 1 1 
1 1 1 1 0 0 1 0 1 0 
1 0 0 0 0 1 1 0 0 0 
1 1 1 0 0 0 1 0 0 1 
0 1 1 0 1 0 0 0 1 0 
Solution: -19 0
Expectation: -56.329898
Final Parameters:
Gammas:
[ 4.236638 3.509160 ]
Betas:
[ 1.715810 1.924003 1.563559 ]
Aggregate results:
[ 19 31 35 37 29 33 27 41 39 47 45 43 49 51 55 53 57 59 61 23 63 25 65 67 69 21 71 73 100 ]
[ 0.000001 0.000190 0.002190 0.006292 0.000049 0.000633 0.000009 0.031145 0.013642 0.123625 0.080890 0.056251 0.135939 0.126673 0.079587 0.121387 0.047151 0.027538 0.010576 0.000000 0.003902 0.000003 0.001262 0.000260 0.000046 0.000000 0.000006 0.000000 0.130751 ]
3
Num Evals 1867
GenUC: 5.433464e-01
GenUB: 2.480818e+00
Optimisation 5.115776e+03
Total Time: 5.136102e+03
