Clock Speed: 3.689012
Num threads: 4
Trotterisation: 2
Graph Size: 5
Num Qubits: 7
Space Dimension: 128
Run-Type: 0
Num_samples: 10
1 Isomorphic
Graph 1:
0 0 1 0 0 
1 0 1 0 0 
1 0 0 0 0 
0 0 1 1 1 
0 1 1 0 1 
Graph 2:
0 0 1 0 0 
1 0 1 0 0 
1 0 0 0 0 
0 0 1 1 1 
0 1 1 0 1 
Solution: 0 0
Gbest: -8.000000
Expectation: -12.812500
Final Parameters:
Gammas:
[ 3.141593 3.252665 ]
Betas:
[ 2.411731 1.570796 1.570796 ]
Aggregate results:
[ -1 5 7 3 11 13 15 17 9 19 24 ]
[ 0.007813 0.046875 0.101562 0.015625 0.218750 0.210937 0.148437 0.023437 0.156250 0.007812 0.062500 ]
3
Num Evals 16
GenUC: 1.760309e-04
GenUB: 3.356428e-05
Optimisation 5.334758e-03
Total Time: 5.925625e-03
2 Flipped
Graph 1:
0 0 1 0 0 
1 0 1 0 0 
1 0 0 0 0 
0 0 1 1 1 
0 1 1 0 1 
Graph 2:
0 0 1 0 0 
0 0 1 0 1 
0 0 0 0 1 
1 1 1 0 0 
1 0 1 1 0 
Solution: -6 15
Gbest: -6.000000
Expectation: -12.812500
Final Parameters:
Gammas:
[ 3.363737 3.141593 ]
Betas:
[ 2.467267 1.570796 1.570796 ]
Aggregate results:
[ 11 9 15 13 7 5 17 24 ]
[ 0.328125 0.164062 0.085937 0.234375 0.085937 0.031250 0.007812 0.062500 ]
3
Num Evals 29
GenUC: 2.264429e-05
GenUB: 1.749943e-05
Optimisation 4.478938e-03
Total Time: 4.872695e-03
3 Add 5
Graph 1:
0 0 1 0 0 
1 0 1 0 0 
1 0 0 0 0 
0 0 1 1 1 
0 1 1 0 1 
Graph 2:
0 0 1 0 1 
1 1 1 1 0 
1 0 0 0 0 
0 0 1 1 1 
0 1 1 0 1 
Solution: -3 0
Gbest: -5.000000
Expectation: -10.480613
Final Parameters:
Gammas:
[ 3.285426 2.989755 ]
Betas:
[ 3.124723 1.387934 1.479062 ]
Aggregate results:
[ 2 8 10 6 12 16 18 14 4 24 ]
[ 0.036227 0.228818 0.208280 0.143601 0.201419 0.028400 0.004247 0.073004 0.058042 0.017963 ]
3
Num Evals 230
GenUC: 2.238015e-05
GenUB: 1.635519e-05
Optimisation 7.575590e-02
Total Time: 7.615411e-02
4 Rem 5
Graph 1:
0 0 1 0 0 
1 0 1 0 0 
1 0 0 0 0 
0 0 1 1 1 
0 1 1 0 1 
Graph 2:
0 0 1 0 0 
0 0 1 0 0 
1 0 0 0 0 
0 0 1 1 0 
0 0 0 0 1 
Solution: -4 0
Gbest: -6.000000
Expectation: -12.062500
Final Parameters:
Gammas:
[ 2.879793 3.141593 ]
Betas:
[ 2.487094 1.570796 1.570796 ]
Aggregate results:
[ 3 5 7 9 11 13 15 24 ]
[ 0.015625 0.062500 0.140625 0.187500 0.218750 0.281250 0.031250 0.062500 ]
3
Num Evals 242
GenUC: 1.938036e-05
GenUB: 1.787685e-05
Optimisation 3.970757e-03
Total Time: 4.362547e-03
5 Add/Rem 5
Graph 1:
0 0 1 0 0 
1 0 1 0 0 
1 0 0 0 0 
0 0 1 1 1 
0 1 1 0 1 
Graph 2:
0 0 1 0 1 
0 0 0 0 1 
1 0 0 1 1 
0 0 0 1 1 
1 1 0 0 1 
Solution: -7 5
Gbest: -7.000000
Expectation: -9.844417
Final Parameters:
Gammas:
[ 3.002858 2.845029 ]
Betas:
[ 3.130204 0.200091 0.169332 ]
Aggregate results:
[ 8 10 6 12 14 16 24 ]
[ 0.240741 0.347665 0.275265 0.108904 0.015179 0.002876 0.009370 ]
3
Num Evals 471
GenUC: 2.242019e-05
GenUB: 1.674891e-05
Optimisation 8.890985e-02
Total Time: 8.922033e-02
