Clock Speed: 3.689288
Num threads: 4
Trotterisation: 3
Graph Size: 3
Num Qubits: 3
Space Dimension: 8
Run-Type: 0
Num_samples: 10
1 Isomorphic
Graph 1:
1 1 0 
0 0 1 
1 0 1 
Graph 2:
1 1 0 
0 0 1 
1 0 1 
Solution: 0 0
Gbest: 0.000000
Expectation: -1.551887
Final Parameters:
Gammas:
[ 4.222890 4.150118 3.465601 ]
Betas:
[ 1.867709 1.712123 1.164240 0.795433 ]
Aggregate results:
[ -1 7 1 5 8 ]
[ 0.352145 0.026646 0.603662 0.008844 0.008704 ]
5
Num Evals 300
GenUC: 1.242279e-04
GenUB: 8.867175e-06
Optimisation 5.527035e-02
Total Time: 5.561647e-02
2 Flipped
Graph 1:
1 1 0 
0 0 1 
1 0 1 
Graph 2:
0 1 1 
1 0 0 
1 0 1 
Solution: -4 0
Gbest: -4.000000
Expectation: -4.000000
Final Parameters:
Gammas:
[ 5.130138 4.681210 4.310367 ]
Betas:
[ 3.045029 1.987333 2.182287 1.636374 ]
Aggregate results:
[ 3 5 8 ]
[ 1.000000 0.000000 0.000000 ]
5
Num Evals 600
GenUC: 6.722856e-06
GenUB: 5.161271e-06
Optimisation 6.466824e-02
Total Time: 6.490382e-02
3 Add 3
Graph 1:
1 1 0 
0 0 1 
1 0 1 
Graph 2:
1 1 1 
0 0 1 
1 1 1 
Solution: -2 0
Gbest: -2.000000
Expectation: -2.927880
Final Parameters:
Gammas:
[ 4.300126 3.087092 4.091966 ]
Betas:
[ 1.165216 1.825053 0.921085 0.769005 ]
Aggregate results:
[ 1 5 3 8 ]
[ 0.696874 0.026192 0.223086 0.053849 ]
5
Num Evals 900
GenUC: 6.399506e-06
GenUB: 5.508094e-06
Optimisation 5.815834e-02
Total Time: 5.835041e-02
4 Rem 3
Graph 1:
1 1 0 
0 0 1 
1 0 1 
Graph 2:
1 1 0 
0 0 0 
1 0 1 
Solution: -1 0
Gbest: -1.000000
Expectation: -1.643025
Final Parameters:
Gammas:
[ 4.568436 3.890129 4.030748 ]
Betas:
[ 1.686094 0.400672 1.540874 0.748180 ]
Aggregate results:
[ 0 6 2 4 8 ]
[ 0.719710 0.003355 0.260963 0.006700 0.009271 ]
5
Num Evals 1200
GenUC: 6.982827e-06
GenUB: 5.149534e-06
Optimisation 5.342905e-02
Total Time: 5.362030e-02
5 Add/Rem 3
Graph 1:
1 1 0 
0 0 1 
1 0 1 
Graph 2:
1 0 1 
1 0 1 
0 0 1 
Solution: -2 5
Gbest: -2.000000
Expectation: -3.223341
Final Parameters:
Gammas:
[ 3.798437 3.899185 4.348136 ]
Betas:
[ 1.932324 0.575459 1.951231 0.011383 ]
Aggregate results:
[ 3 5 1 8 ]
[ 0.407061 0.063883 0.507101 0.021956 ]
5
Num Evals 1500
GenUC: 6.358427e-06
GenUB: 5.300939e-06
Optimisation 6.856100e-02
Total Time: 6.874269e-02
