Clock Speed: 3.689380
Num threads: 4
Trotterisation: 1
Graph Size: 4
Num Qubits: 5
Space Dimension: 32
Run-Type: 0
Num_samples: 10
1 Isomorphic
Graph 1:
1 0 1 1 
1 0 1 1 
1 1 1 0 
1 0 0 0 
Graph 2:
1 0 1 1 
1 0 1 1 
1 1 1 0 
1 0 0 0 
Solution: 0 0
Gbest: -4.000000
Expectation: -8.655460
Final Parameters:
Gammas:
[ 4.781946 ]
Betas:
[ 2.324834 2.111100 ]
Aggregate results:
[ -1 5 7 11 3 9 15 ]
[ 0.042670 0.298526 0.309358 0.039207 0.041628 0.090890 0.177722 ]
3
Num Evals 111
GenUC: 1.557568e-04
GenUB: 1.216220e-05
Optimisation 1.621451e-02
Total Time: 1.656423e-02
2 Flipped
Graph 1:
1 0 1 1 
1 0 1 1 
1 1 1 0 
1 0 0 0 
Graph 2:
1 1 0 1 
1 1 0 1 
0 1 1 1 
0 0 0 1 
Solution: -6 2
Gbest: -6.000000
Expectation: -9.194587
Final Parameters:
Gammas:
[ 4.964359 ]
Betas:
[ 2.404935 2.169329 ]
Aggregate results:
[ 7 5 9 11 15 ]
[ 0.284018 0.329097 0.187128 0.029883 0.169874 ]
3
Num Evals 229
GenUC: 9.270327e-06
GenUB: 7.894763e-06
Optimisation 1.738669e-02
Total Time: 1.756195e-02
3 Add 4
Graph 1:
1 0 1 1 
1 0 1 1 
1 1 1 0 
1 0 0 0 
Graph 2:
1 1 1 1 
1 0 1 1 
1 1 1 0 
1 1 0 1 
Solution: -3 0
Gbest: -3.000000
Expectation: -6.152814
Final Parameters:
Gammas:
[ 3.624191 ]
Betas:
[ 0.000000 2.734076 ]
Aggregate results:
[ 2 4 8 6 15 ]
[ 0.224136 0.248300 0.086298 0.399782 0.041485 ]
3
Num Evals 398
GenUC: 8.411123e-06
GenUB: 8.466945e-06
Optimisation 1.828956e-02
Total Time: 1.840474e-02
4 Rem 4
Graph 1:
1 0 1 1 
1 0 1 1 
1 1 1 0 
1 0 0 0 
Graph 2:
0 0 1 1 
0 0 1 1 
1 0 1 0 
1 0 0 0 
Solution: -3 0
Gbest: -3.000000
Expectation: -8.717095
Final Parameters:
Gammas:
[ 3.377529 ]
Betas:
[ 0.848198 0.689715 ]
Aggregate results:
[ 2 4 8 10 6 12 15 ]
[ 0.105669 0.104279 0.187610 0.226088 0.238654 0.056846 0.080853 ]
3
Num Evals 536
GenUC: 8.657633e-06
GenUB: 7.996859e-06
Optimisation 1.298904e-02
Total Time: 1.310687e-02
5 Add/Rem 4
Graph 1:
1 0 1 1 
1 0 1 1 
1 1 1 0 
1 0 0 0 
Graph 2:
1 1 1 1 
1 0 0 1 
1 1 0 0 
0 1 0 0 
Solution: -3 4
Gbest: -5.000000
Expectation: -8.834446
Final Parameters:
Gammas:
[ 4.512424 ]
Betas:
[ 1.620412 1.068042 ]
Aggregate results:
[ 4 8 6 2 10 15 ]
[ 0.189423 0.227551 0.254121 0.053019 0.102541 0.173345 ]
3
Num Evals 662
GenUC: 8.177594e-06
GenUB: 7.661758e-06
Optimisation 1.476563e-02
Total Time: 1.491251e-02
