Clock Speed: 3.688863
Num threads: 4
Trotterisation: 1
Graph Size: 4
Num Qubits: 5
Space Dimension: 32
Run-Type: 0
Num_samples: 10
1 Isomorphic
Graph 1:
1 1 0 0 
0 0 1 0 
0 1 0 1 
1 1 0 0 
Graph 2:
1 1 0 0 
0 0 1 0 
0 1 0 1 
1 1 0 0 
Solution: 0 0
Gbest: -6.000000
Expectation: -7.627983
Final Parameters:
Gammas:
[ 5.565340 ]
Betas:
[ 2.740724 2.294361 ]
Aggregate results:
[ -1 7 9 5 15 ]
[ 0.026770 0.125146 0.120300 0.622072 0.105711 ]
3
Num Evals 120
GenUC: 1.458971e-04
GenUB: 1.189059e-05
Optimisation 1.888747e-02
Total Time: 1.923567e-02
2 Flipped
Graph 1:
1 1 0 0 
0 0 1 0 
0 1 0 1 
1 1 0 0 
Graph 2:
0 0 1 1 
0 1 0 0 
1 0 1 0 
0 0 1 1 
Solution: -4 4
Gbest: -4.000000
Expectation: -8.687839
Final Parameters:
Gammas:
[ 3.780515 ]
Betas:
[ 1.305630 0.691037 ]
Aggregate results:
[ 13 7 9 3 5 15 ]
[ 0.048521 0.398459 0.254967 0.121137 0.104400 0.072516 ]
3
Num Evals 255
GenUC: 9.205787e-06
GenUB: 8.385382e-06
Optimisation 1.422075e-02
Total Time: 1.435089e-02
3 Add 4
Graph 1:
1 1 0 0 
0 0 1 0 
0 1 0 1 
1 1 0 0 
Graph 2:
1 1 0 1 
0 0 1 0 
0 1 1 1 
1 1 0 1 
Solution: -3 0
Gbest: -3.000000
Expectation: -9.805666
Final Parameters:
Gammas:
[ 4.391856 ]
Betas:
[ 1.647150 1.149357 ]
Aggregate results:
[ 2 10 8 6 4 15 ]
[ 0.072698 0.212652 0.277783 0.149923 0.081109 0.205834 ]
3
Num Evals 398
GenUC: 8.671760e-06
GenUB: 8.065553e-06
Optimisation 1.729812e-02
Total Time: 1.744039e-02
4 Rem 4
Graph 1:
1 1 0 0 
0 0 1 0 
0 1 0 1 
1 1 0 0 
Graph 2:
0 0 0 0 
0 0 1 0 
0 0 0 1 
1 1 0 0 
Solution: -3 0
Gbest: -3.000000
Expectation: -7.096022
Final Parameters:
Gammas:
[ 4.736425 ]
Betas:
[ 2.643043 2.645805 ]
Aggregate results:
[ 2 4 8 6 15 ]
[ 0.095459 0.302501 0.231580 0.301605 0.068855 ]
3
Num Evals 519
GenUC: 8.279750e-06
GenUB: 8.110153e-06
Optimisation 1.937269e-02
Total Time: 1.956287e-02
5 Add/Rem 4
Graph 1:
1 1 0 0 
0 0 1 0 
0 1 0 1 
1 1 0 0 
Graph 2:
1 0 0 1 
0 0 1 1 
0 1 1 0 
1 0 0 0 
Solution: -4 3
Gbest: -6.000000
Expectation: -8.706053
Final Parameters:
Gammas:
[ 3.752421 ]
Betas:
[ 1.500149 0.748239 ]
Aggregate results:
[ 5 11 7 3 9 15 ]
[ 0.350589 0.064883 0.218996 0.073895 0.148304 0.143334 ]
3
Num Evals 640
GenUC: 8.540895e-06
GenUB: 8.464605e-06
Optimisation 1.321353e-02
Total Time: 1.336096e-02
