Clock Speed: 3.498932
Num threads: 16
Trotterisation: 2
Num Qubits: 16
Space Dimension: 65536
Run-Type: 0
Num_samples: 64
Optimiser Method: 29
1 Isomorphic
Graph 1:
0 1 0 0 1 0 1 0 
0 0 1 0 0 0 1 0 
0 1 1 1 0 1 1 1 
0 0 1 0 0 0 0 0 
1 0 0 1 1 0 1 0 
1 1 0 0 1 0 0 1 
1 1 1 0 1 0 1 1 
1 0 0 1 0 0 0 0 
Graph 2:
0 1 0 0 1 0 1 0 
0 0 1 0 0 0 1 0 
0 1 1 1 0 1 1 1 
0 0 1 0 0 0 0 0 
1 0 0 1 1 0 1 0 
1 1 0 0 1 0 0 1 
1 1 1 0 1 0 1 1 
1 0 0 1 0 0 0 0 
Solution: 64 0
Classic Expectation: 32.571429
Initial Expecation: 20.039062
Gbest: 46.000000
Expectation: 26.019873
Final Parameters:
Gammas:
[ 4.461658 4.906123 ]
Betas:
[ 3.141593 2.562187 ]
Aggregate results:
[ 64 44 54 46 36 40 50 42 56 48 34 38 32 52 30 28 26 24 22 20 18 16 0 ]
[ 0.000014 0.005865 0.000057 0.002358 0.102966 0.033509 0.000485 0.015040 0.000028 0.000349 0.137605 0.067262 0.144903 0.000121 0.127953 0.083533 0.045763 0.019729 0.007532 0.001867 0.000247 0.000113 0.202697 ]
3
Num Evals 312
GenUC: 1.829219e-02
GenUB: 1.301877e-02
Optimisation 8.130184e+01
Total Time: 8.133316e+01
2 Flipped
Graph 1:
0 1 0 0 1 0 1 0 
0 0 1 0 0 0 1 0 
0 1 1 1 0 1 1 1 
0 0 1 0 0 0 0 0 
1 0 0 1 1 0 1 0 
1 1 0 0 1 0 0 1 
1 1 1 0 1 0 1 1 
1 0 0 1 0 0 0 0 
Graph 2:
0 1 0 1 0 0 1 0 
0 1 0 0 0 1 0 0 
1 1 1 0 1 1 1 0 
0 0 0 0 0 1 0 0 
0 1 0 1 1 0 0 1 
1 0 0 1 0 0 1 1 
1 1 0 1 0 1 1 1 
0 0 0 0 1 0 0 1 
Solution: 48 8463
Classic Expectation: 32.285714
Initial Expecation: 19.863281
Gbest: 42.000000
Expectation: 27.959562
Final Parameters:
Gammas:
[ 6.044629 3.081203 ]
Betas:
[ 2.271872 2.657760 ]
Aggregate results:
[ 36 34 38 40 32 30 42 28 26 20 24 44 46 22 18 48 0 ]
[ 0.112802 0.157484 0.059155 0.027570 0.171046 0.151871 0.009697 0.098963 0.049518 0.001264 0.018811 0.001729 0.000200 0.006042 0.000179 0.000001 0.133667 ]
3
Num Evals 595
GenUC: 2.299028e-02
GenUB: 1.361548e-02
Optimisation 1.470075e+02
Total Time: 1.470442e+02
3 Add 8
Graph 1:
0 1 0 0 1 0 1 0 
0 0 1 0 0 0 1 0 
0 1 1 1 0 1 1 1 
0 0 1 0 0 0 0 0 
1 0 0 1 1 0 1 0 
1 1 0 0 1 0 0 1 
1 1 1 0 1 0 1 1 
1 0 0 1 0 0 0 0 
Graph 2:
0 1 0 0 1 0 1 0 
1 0 1 0 0 0 1 1 
1 1 1 1 0 1 1 1 
0 0 1 0 1 1 0 0 
1 0 0 1 1 0 1 0 
1 1 1 1 1 0 0 1 
1 1 1 0 1 1 1 1 
1 0 0 1 0 0 0 0 
Solution: 56 0
Classic Expectation: 31.714286
Initial Expecation: 19.511719
Gbest: 42.000000
Expectation: 25.337945
Final Parameters:
Gammas:
[ 5.285821 4.080246 ]
Betas:
[ 3.141593 2.555840 ]
Aggregate results:
[ 56 38 48 42 50 32 40 34 36 30 28 46 24 26 22 44 20 18 16 0 ]
[ 0.000021 0.050686 0.000212 0.009749 0.000048 0.148446 0.023214 0.124967 0.092463 0.139746 0.100331 0.000956 0.028200 0.060355 0.010553 0.002651 0.003605 0.000925 0.000192 0.202680 ]
3
Num Evals 273
GenUC: 2.301021e-02
GenUB: 1.353942e-02
Optimisation 7.171230e+01
Total Time: 7.174886e+01
4 Rem 8
Graph 1:
0 1 0 0 1 0 1 0 
0 0 1 0 0 0 1 0 
0 1 1 1 0 1 1 1 
0 0 1 0 0 0 0 0 
1 0 0 1 1 0 1 0 
1 1 0 0 1 0 0 1 
1 1 1 0 1 0 1 1 
1 0 0 1 0 0 0 0 
Graph 2:
0 1 0 0 1 0 1 0 
0 0 1 0 0 0 1 0 
0 0 0 1 0 1 0 1 
0 0 1 0 0 0 0 0 
1 0 0 1 1 0 0 0 
1 0 0 0 0 0 0 1 
0 1 1 0 0 0 1 1 
1 0 0 1 0 0 0 0 
Solution: 56 0
Classic Expectation: 33.571429
Initial Expecation: 20.654297
Gbest: 44.000000
Expectation: 28.880892
Final Parameters:
Gammas:
[ 3.208592 3.086720 ]
Betas:
[ 2.627196 0.946623 ]
Aggregate results:
[ 56 40 48 42 50 46 34 38 36 44 30 32 28 26 24 52 22 20 18 0 ]
[ 0.000002 0.042610 0.000047 0.014231 0.000013 0.000756 0.180582 0.091905 0.148480 0.003878 0.117846 0.167541 0.060945 0.024033 0.005808 0.000008 0.001010 0.000105 0.000041 0.140158 ]
3
Num Evals 1526
GenUC: 2.300921e-02
GenUB: 1.357635e-02
Optimisation 3.014132e+02
Total Time: 3.014498e+02
5 Add/Rem 8
Graph 1:
0 1 0 0 1 0 1 0 
0 0 1 0 0 0 1 0 
0 1 1 1 0 1 1 1 
0 0 1 0 0 0 0 0 
1 0 0 1 1 0 1 0 
1 1 0 0 1 0 0 1 
1 1 1 0 1 0 1 1 
1 0 0 1 0 0 0 0 
Graph 2:
0 1 1 0 1 1 1 0 
0 0 1 1 0 0 0 0 
0 1 1 1 0 1 0 1 
1 0 1 0 1 0 1 0 
1 0 0 0 1 0 1 0 
1 1 0 0 0 0 0 1 
1 0 1 0 1 0 1 1 
0 0 0 1 0 1 0 0 
Solution: 51 0
Classic Expectation: 32.464286
Initial Expecation: 19.973145
Gbest: 43.000000
Expectation: 29.795699
Final Parameters:
Gammas:
[ 3.094189 3.189006 ]
Betas:
[ 1.557438 2.362894 ]
Aggregate results:
[ 51 35 45 37 39 43 47 41 33 31 29 27 25 23 21 49 19 17 15 13 0 ]
[ 0.000027 0.145435 0.001761 0.094417 0.048001 0.006158 0.000404 0.018778 0.177880 0.168070 0.126146 0.078295 0.035971 0.013985 0.004920 0.000039 0.000973 0.000398 0.000082 0.000045 0.078213 ]
3
Num Evals 615
GenUC: 2.300329e-02
GenUB: 1.337202e-02
Optimisation 1.310100e+02
Total Time: 1.310464e+02
