Clock Speed: 3.498813
Num threads: 16
Trotterisation: 2
Num Qubits: 16
Space Dimension: 65536
Run-Type: 0
Num_samples: 64
Optimiser Method: 29
1 Isomorphic
Graph 1:
1 0 1 0 1 0 0 1 
0 1 1 0 1 0 1 1 
1 1 0 0 1 1 1 1 
0 0 1 0 1 0 0 0 
1 0 1 0 0 0 1 1 
1 1 1 1 0 1 0 1 
0 1 1 0 0 0 1 0 
1 1 1 1 0 1 1 1 
Graph 2:
1 0 1 0 1 0 0 1 
0 1 1 0 1 0 1 1 
1 1 0 0 1 1 1 1 
0 0 1 0 1 0 0 0 
1 0 1 0 0 0 1 1 
1 1 1 1 0 1 0 1 
0 1 1 0 0 0 1 0 
1 1 1 1 0 1 1 1 
Solution: 64 0
Classic Expectation: 32.821429
Initial Expecation: 20.192871
Gbest: 44.000000
Expectation: 25.607839
Final Parameters:
Gammas:
[ 3.734328 2.681431 ]
Betas:
[ 3.141593 2.602108 ]
Aggregate results:
[ 64 52 54 50 56 48 40 44 46 42 36 38 30 34 32 26 28 24 22 20 18 58 0 ]
[ 0.000006 0.000265 0.000087 0.000665 0.000061 0.001366 0.044347 0.010657 0.004897 0.022885 0.095829 0.064041 0.117866 0.120516 0.139475 0.046265 0.085745 0.015889 0.003717 0.000384 0.000147 0.000003 0.224886 ]
3
Num Evals 339
GenUC: 1.825735e-02
GenUB: 1.318485e-02
Optimisation 8.835590e+01
Total Time: 8.838736e+01
2 Flipped
Graph 1:
1 0 1 0 1 0 0 1 
0 1 1 0 1 0 1 1 
1 1 0 0 1 1 1 1 
0 0 1 0 1 0 0 0 
1 0 1 0 0 0 1 1 
1 1 1 1 0 1 0 1 
0 1 1 0 0 0 1 0 
1 1 1 1 0 1 1 1 
Graph 2:
1 0 0 1 0 1 0 1 
1 1 0 1 0 1 1 0 
1 1 1 1 0 0 1 1 
0 0 0 1 0 1 0 0 
1 1 0 0 0 1 0 1 
1 0 1 0 1 1 1 1 
0 1 0 0 0 1 1 0 
1 1 1 0 1 1 1 1 
Solution: 50 4142
Classic Expectation: 33.035714
Initial Expecation: 20.324707
Gbest: 44.000000
Expectation: 26.921048
Final Parameters:
Gammas:
[ 3.373924 3.243295 ]
Betas:
[ 2.400619 0.884021 ]
Aggregate results:
[ 34 28 32 30 36 42 38 26 40 44 24 22 46 48 20 50 18 0 ]
[ 0.122849 0.033434 0.077601 0.047817 0.156304 0.041084 0.137575 0.023870 0.087459 0.013923 0.012324 0.004620 0.002867 0.000347 0.001121 0.000105 0.000261 0.236438 ]
3
Num Evals 1795
GenUC: 2.298578e-02
GenUB: 1.390831e-02
Optimisation 3.351137e+02
Total Time: 3.351506e+02
3 Add 8
Graph 1:
1 0 1 0 1 0 0 1 
0 1 1 0 1 0 1 1 
1 1 0 0 1 1 1 1 
0 0 1 0 1 0 0 0 
1 0 1 0 0 0 1 1 
1 1 1 1 0 1 0 1 
0 1 1 0 0 0 1 0 
1 1 1 1 0 1 1 1 
Graph 2:
1 0 1 1 1 0 0 1 
1 1 1 0 1 0 1 1 
1 1 0 0 1 1 1 1 
0 0 1 0 1 0 0 0 
1 0 1 1 1 0 1 1 
1 1 1 1 1 1 1 1 
0 1 1 0 0 1 1 0 
1 1 1 1 0 1 1 1 
Solution: 57 0
Classic Expectation: 33.928571
Initial Expecation: 20.874023
Gbest: 45.000000
Expectation: 31.003012
Final Parameters:
Gammas:
[ 3.190927 3.177055 ]
Betas:
[ 2.349463 2.748713 ]
Aggregate results:
[ 57 49 47 45 51 39 41 43 37 35 31 33 29 27 25 23 21 53 0 ]
[ 0.000024 0.000814 0.003474 0.008220 0.000237 0.077047 0.038829 0.017283 0.124232 0.170135 0.151238 0.186779 0.086336 0.033790 0.009044 0.001155 0.000170 0.000017 0.091178 ]
3
Num Evals 652
GenUC: 2.300265e-02
GenUB: 1.404068e-02
Optimisation 1.600382e+02
Total Time: 1.600753e+02
4 Rem 8
Graph 1:
1 0 1 0 1 0 0 1 
0 1 1 0 1 0 1 1 
1 1 0 0 1 1 1 1 
0 0 1 0 1 0 0 0 
1 0 1 0 0 0 1 1 
1 1 1 1 0 1 0 1 
0 1 1 0 0 0 1 0 
1 1 1 1 0 1 1 1 
Graph 2:
0 0 1 0 1 0 0 1 
0 1 1 0 1 0 1 0 
1 1 0 0 1 1 0 0 
0 0 1 0 1 0 0 0 
1 0 1 0 0 0 1 1 
0 0 1 1 0 1 0 0 
0 1 1 0 0 0 1 0 
1 1 1 1 0 1 1 1 
Solution: 57 0
Classic Expectation: 31.714286
Initial Expecation: 19.511719
Gbest: 43.000000
Expectation: 26.000688
Final Parameters:
Gammas:
[ 1.876155 3.182180 ]
Betas:
[ 1.872697 2.501951 ]
Aggregate results:
[ 57 47 51 43 49 35 39 45 41 33 37 31 29 25 27 19 23 21 17 53 0 ]
[ 0.000049 0.000553 0.000046 0.007240 0.000235 0.102356 0.038983 0.002563 0.019454 0.131809 0.066183 0.154981 0.136310 0.044894 0.090634 0.000896 0.016756 0.004861 0.000036 0.000010 0.181151 ]
3
Num Evals 377
GenUC: 2.301329e-02
GenUB: 1.371635e-02
Optimisation 8.458701e+01
Total Time: 8.462374e+01
5 Add/Rem 8
Graph 1:
1 0 1 0 1 0 0 1 
0 1 1 0 1 0 1 1 
1 1 0 0 1 1 1 1 
0 0 1 0 1 0 0 0 
1 0 1 0 0 0 1 1 
1 1 1 1 0 1 0 1 
0 1 1 0 0 0 1 0 
1 1 1 1 0 1 1 1 
Graph 2:
1 0 1 0 1 1 0 0 
0 1 1 1 1 1 1 1 
1 1 0 0 1 1 1 1 
0 1 1 0 0 0 1 1 
1 0 1 0 0 0 1 0 
1 1 1 0 1 1 0 1 
0 1 1 0 0 0 1 1 
1 1 1 0 0 0 0 1 
Solution: 51 5
Classic Expectation: 32.964286
Initial Expecation: 20.280762
Gbest: 43.000000
Expectation: 27.788834
Final Parameters:
Gammas:
[ 3.280969 3.369274 ]
Betas:
[ 1.621044 2.274556 ]
Aggregate results:
[ 49 47 45 51 43 41 39 37 35 33 31 27 29 25 23 21 19 0 ]
[ 0.000782 0.002477 0.007096 0.000200 0.015178 0.032812 0.059192 0.094045 0.127841 0.143486 0.144374 0.063960 0.107526 0.028617 0.009699 0.002258 0.000118 0.160338 ]
3
Num Evals 711
GenUC: 2.302282e-02
GenUB: 1.362084e-02
Optimisation 1.532638e+02
Total Time: 1.533005e+02
