0.010135,2667582352,524288
0.007659,2667582352,524288
0.007682,2667582352,524288
0.008003,2667582352,524288
0.007724,2667582352,524288
0.008060,2667582352,524288
0.007654,2667582352,524288
0.007605,2667582352,524288
0.007635,2667582352,524288
0.007626,2667582352,524288
