0.128835,2558529752,524288
0.128467,2558529752,524288
0.128240,2558529752,524288
0.128892,2558529752,524288
0.129142,2558529752,524288
0.126468,2558529752,524288
0.126485,2558529752,524288
0.126453,2558529752,524288
0.128745,2558529752,524288
0.126937,2558529752,524288
0.126684,2558529752,524288
