0.010307,34019632,8192
0.008323,34019632,8192
0.009748,34019632,8192
0.008121,34019632,8192
0.008043,34019632,8192
0.009433,34019632,8192
0.007886,34019632,8192
0.009679,34019632,8192
0.007253,34019632,8192
0.006555,34019632,8192
0.009512,34019632,8192
