0.000309,16880,1024
0.000312,16880,1024
0.000309,16880,1024
0.000308,16880,1024
0.000313,16880,1024
0.000309,16880,1024
0.000309,16880,1024
0.000311,16880,1024
0.000312,16880,1024
0.000312,16880,1024
0.000313,16880,1024
