0.000009,260312,128
0.000011,260312,128
0.000011,260312,128
0.000009,260312,128
0.000010,260312,128
0.000012,260312,128
0.000010,260312,128
0.000010,260312,128
0.000011,260312,128
0.000010,260312,128
0.000009,260312,128
