0.000311,3003280,1024
0.000318,3003280,1024
0.000359,3003280,1024
0.000318,3003280,1024
0.000306,3003280,1024
0.000337,3003280,1024
0.000312,3003280,1024
0.000311,3003280,1024
0.000350,3003280,1024
0.000311,3003280,1024
