0.000865,29889424,8192
0.000878,29889424,8192
0.000700,29889424,8192
0.000683,29889424,8192
0.000751,29889424,8192
0.000871,29889424,8192
0.001874,29889424,8192
0.000743,29889424,8192
0.001902,29889424,8192
0.000704,29889424,8192
0.000955,29889424,8192
