0.000262,287632,128
0.000255,287632,128
0.000273,287632,128
0.000267,287632,128
0.000264,287632,128
0.000294,287632,128
0.000273,287632,128
0.000273,287632,128
0.000270,287632,128
0.000312,287632,128
0.000268,287632,128
