0.702308,3007322416,524288
0.720111,3007322416,524288
1.116192,3007322416,524288
0.865200,3007322416,524288
0.946196,3007322416,524288
0.956118,3007322416,524288
0.771777,3007322416,524288
0.787333,3007322416,524288
0.812293,3007322416,524288
0.884412,3007322416,524288
