Clock Speed: 3.688997
Num threads: 4
Trotterisation: 6
Graph Size: 4
Num Qubits: 5
Space Dimension: 32
Run-Type: 0
Num_samples: 10
1 Isomorphic
Graph 1:
1 0 1 0 
1 0 0 1 
1 0 1 0 
1 0 0 1 
Graph 2:
1 0 1 0 
1 0 0 1 
1 0 1 0 
1 0 0 1 
Solution: 0 0
Gbest: 0.000000
Expectation: -5.213281
Final Parameters:
Gammas:
[ 4.525625 4.858530 2.768643 2.221829 3.331146 3.738552 ]
Betas:
[ 2.291017 1.792505 2.175982 1.249515 1.310960 1.239392 1.648365 ]
Aggregate results:
[ -1 11 9 5 3 7 15 ]
[ 0.381643 0.017258 0.075165 0.174591 0.121623 0.119377 0.110343 ]
5
Num Evals 400
GenUC: 3.229281e-04
GenUB: 1.200510e-05
Optimisation 2.416794e-01
Total Time: 2.425227e-01
2 Flipped
Graph 1:
1 0 1 0 
1 0 0 1 
1 0 1 0 
1 0 0 1 
Graph 2:
0 1 0 1 
1 0 0 1 
0 1 0 1 
1 0 0 1 
Solution: -4 17
Gbest: -6.000000
Expectation: -10.500000
Final Parameters:
Gammas:
[ 4.712389 4.712389 3.141593 3.141593 3.141593 3.141593 ]
Betas:
[ 2.356194 1.570796 1.570796 1.570796 1.570796 1.570796 1.570796 ]
Aggregate results:
[ 7 9 5 11 15 3 ]
[ 0.218750 0.187500 0.187500 0.093750 0.281250 0.031250 ]
3
Num Evals 663
GenUC: 1.105509e-05
GenUB: 8.406991e-06
Optimisation 1.469002e-01
Total Time: 1.474181e-01
3 Add 4
Graph 1:
1 0 1 0 
1 0 0 1 
1 0 1 0 
1 0 0 1 
Graph 2:
1 0 1 1 
1 0 0 1 
1 0 1 1 
1 1 0 1 
Solution: -3 0
Gbest: -3.000000
Expectation: -7.210319
Final Parameters:
Gammas:
[ 4.673027 2.729401 3.093640 3.328554 3.116440 2.778352 ]
Betas:
[ 1.546906 1.385553 1.956059 2.722304 1.274471 1.351546 2.274508 ]
Aggregate results:
[ 2 10 6 8 4 15 ]
[ 0.226854 0.055586 0.174157 0.137861 0.275473 0.130068 ]
5
Num Evals 1063
GenUC: 5.936435e-03
GenUB: 8.709729e-06
Optimisation 2.118591e-01
Total Time: 2.183255e-01
4 Rem 4
Graph 1:
1 0 1 0 
1 0 0 1 
1 0 1 0 
1 0 0 1 
Graph 2:
0 0 1 0 
1 0 0 1 
1 0 0 0 
1 0 0 0 
Solution: -3 0
Gbest: -3.000000
Expectation: -7.855547
Final Parameters:
Gammas:
[ 4.893881 3.353948 2.962262 3.229364 3.024028 3.058416 ]
Betas:
[ 1.219624 1.770546 1.501920 2.182482 1.600989 1.682599 2.275304 ]
Aggregate results:
[ 2 12 10 6 8 4 15 ]
[ 0.114774 0.001550 0.027254 0.268157 0.351488 0.148877 0.087901 ]
5
Num Evals 1463
GenUC: 1.100055e-05
GenUB: 8.969684e-06
Optimisation 2.466801e-01
Total Time: 2.472137e-01
5 Add/Rem 4
Graph 1:
1 0 1 0 
1 0 0 1 
1 0 1 0 
1 0 0 1 
Graph 2:
0 1 1 0 
1 0 0 0 
0 0 0 0 
1 1 1 1 
Solution: -7 0
Gbest: -7.000000
Expectation: -8.135085
Final Parameters:
Gammas:
[ 4.761943 2.893059 3.145608 3.214654 3.135730 2.974374 ]
Betas:
[ 1.647130 1.425480 1.547715 2.403284 1.520540 1.597727 2.471466 ]
Aggregate results:
[ 6 8 10 15 ]
[ 0.719542 0.160753 0.052754 0.066951 ]
5
Num Evals 1863
GenUC: 1.152401e-05
GenUB: 8.648727e-06
Optimisation 2.023423e-01
Total Time: 2.028727e-01
