Clock Speed: 3.498693
Num threads: 16
Trotterisation: 1
Num Qubits: 16
Space Dimension: 65536
Run-Type: 0
Num_samples: 64
Optimiser Method: 20
1 Isomorphic
Graph 1:
0 1 0 1 1 0 1 1 
0 0 0 0 0 0 1 0 
0 1 0 1 0 1 0 1 
0 1 0 1 1 0 0 1 
0 0 1 0 1 1 1 0 
1 1 1 0 1 0 0 0 
0 0 1 0 1 0 1 1 
1 0 0 0 0 1 0 1 
Graph 2:
0 1 0 1 1 0 1 1 
0 0 0 0 0 0 1 0 
0 1 0 1 0 1 0 1 
0 1 0 1 1 0 0 1 
0 0 1 0 1 1 1 0 
1 1 1 0 1 0 0 0 
0 0 1 0 1 0 1 1 
1 0 0 0 0 1 0 1 
Solution: 64 0
Classic Expectation: 32.321429
Initial Expecation: 19.885254
Gbest: 44.000000
Expectation: 25.254914
Final Parameters:
Gammas:
[ 3.078387 ]
Betas:
[ 2.412521 ]
Aggregate results:
[ 64 46 48 42 38 36 44 54 40 30 34 32 50 52 28 26 24 22 20 18 14 16 0 ]
[ 0.000007 0.001297 0.000323 0.010332 0.052246 0.090177 0.003466 0.000060 0.025867 0.137486 0.131739 0.152362 0.000153 0.000174 0.095182 0.053687 0.022872 0.007116 0.002247 0.000810 0.000055 0.000030 0.212312 ]
5
Num Evals 1600
GenUC: 1.835006e-02
GenUB: 1.311284e-02
Optimisation 1.976820e+02
Total Time: 1.977135e+02
2 Flipped
Graph 1:
0 1 0 1 1 0 1 1 
0 0 0 0 0 0 1 0 
0 1 0 1 0 1 0 1 
0 1 0 1 1 0 0 1 
0 0 1 0 1 1 1 0 
1 1 1 0 1 0 0 0 
0 0 1 0 1 0 1 1 
1 0 0 0 0 1 0 1 
Graph 2:
1 1 0 1 1 0 1 0 
0 1 0 0 0 0 0 0 
1 0 1 0 1 0 1 0 
1 0 0 1 1 0 1 0 
0 1 1 1 0 1 0 0 
0 0 0 1 0 1 1 1 
1 1 0 1 0 1 0 0 
1 0 1 0 0 0 0 1 
Solution: 50 21450
Classic Expectation: 32.535714
Initial Expecation: 20.017090
Gbest: 42.000000
Expectation: 25.380722
Final Parameters:
Gammas:
[ 3.088215 ]
Betas:
[ 2.733900 ]
Aggregate results:
[ 26 34 32 36 30 28 40 38 44 42 46 24 22 20 48 18 50 0 ]
[ 0.039865 0.146757 0.158339 0.104119 0.133383 0.083977 0.025283 0.058171 0.002911 0.008366 0.000703 0.014262 0.003755 0.000848 0.000198 0.000018 0.000024 0.219020 ]
5
Num Evals 1600
GenUC: 2.308090e-02
GenUB: 1.327457e-02
Optimisation 2.166969e+02
Total Time: 2.167333e+02
3 Add 8
Graph 1:
0 1 0 1 1 0 1 1 
0 0 0 0 0 0 1 0 
0 1 0 1 0 1 0 1 
0 1 0 1 1 0 0 1 
0 0 1 0 1 1 1 0 
1 1 1 0 1 0 0 0 
0 0 1 0 1 0 1 1 
1 0 0 0 0 1 0 1 
Graph 2:
0 1 0 1 1 1 1 1 
0 1 0 0 1 0 1 1 
0 1 0 1 1 1 0 1 
0 1 0 1 1 0 1 1 
0 0 1 0 1 1 1 0 
1 1 1 0 1 1 0 0 
0 0 1 0 1 1 1 1 
1 0 0 0 0 1 0 1 
Solution: 56 0
Classic Expectation: 31.678571
Initial Expecation: 19.489746
Gbest: 46.000000
Expectation: 22.745582
Final Parameters:
Gammas:
[ 2.887408 ]
Betas:
[ 2.997631 ]
Aggregate results:
[ 56 44 40 46 42 38 52 36 48 30 32 34 26 28 22 24 50 20 18 16 0 ]
[ 0.000007 0.007132 0.054029 0.002519 0.023565 0.095386 0.000050 0.127388 0.000574 0.045229 0.090885 0.127270 0.026969 0.026678 0.010931 0.023168 0.000141 0.003372 0.000626 0.000065 0.334017 ]
5
Num Evals 1600
GenUC: 2.308490e-02
GenUB: 1.337010e-02
Optimisation 2.277514e+02
Total Time: 2.277879e+02
4 Rem 8
Graph 1:
0 1 0 1 1 0 1 1 
0 0 0 0 0 0 1 0 
0 1 0 1 0 1 0 1 
0 1 0 1 1 0 0 1 
0 0 1 0 1 1 1 0 
1 1 1 0 1 0 0 0 
0 0 1 0 1 0 1 1 
1 0 0 0 0 1 0 1 
Graph 2:
0 1 0 0 1 0 1 1 
0 0 0 0 0 0 0 0 
0 1 0 1 0 1 0 0 
0 0 0 1 1 0 0 1 
0 0 1 0 0 1 0 0 
1 1 1 0 0 0 0 0 
0 0 1 0 1 0 1 0 
1 0 0 0 0 1 0 1 
Solution: 56 0
Classic Expectation: 33.071429
Initial Expecation: 20.346680
Gbest: 42.000000
Expectation: 24.775963
Final Parameters:
Gammas:
[ 3.393182 ]
Betas:
[ 0.638935 ]
Aggregate results:
[ 56 46 44 42 38 40 36 52 32 34 48 30 28 26 24 22 20 50 18 0 ]
[ 0.000014 0.000953 0.003414 0.010593 0.060983 0.029191 0.108992 0.000088 0.152011 0.147020 0.000244 0.121445 0.073353 0.032357 0.010537 0.002304 0.000299 0.000000 0.000007 0.246195 ]
5
Num Evals 1600
GenUC: 2.309285e-02
GenUB: 1.386670e-02
Optimisation 1.407965e+02
Total Time: 1.408335e+02
5 Add/Rem 8
Graph 1:
0 1 0 1 1 0 1 1 
0 0 0 0 0 0 1 0 
0 1 0 1 0 1 0 1 
0 1 0 1 1 0 0 1 
0 0 1 0 1 1 1 0 
1 1 1 0 1 0 0 0 
0 0 1 0 1 0 1 1 
1 0 0 0 0 1 0 1 
Graph 2:
0 0 0 1 1 1 0 1 
0 0 0 0 0 0 0 0 
0 1 1 1 1 1 0 1 
0 1 0 1 1 0 0 1 
0 0 0 1 1 1 1 0 
1 1 1 0 0 1 0 0 
0 0 1 0 1 0 1 1 
0 0 1 0 0 1 1 1 
Solution: 53 21
Classic Expectation: 32.428571
Initial Expecation: 19.951172
Gbest: 41.000000
Expectation: 25.082929
Final Parameters:
Gammas:
[ 2.984923 ]
Betas:
[ 2.505094 ]
Aggregate results:
[ 51 41 45 43 37 39 47 53 35 33 31 29 27 25 23 21 49 19 0 ]
[ 0.000057 0.013269 0.001199 0.004382 0.077435 0.035839 0.000287 0.000019 0.121192 0.150810 0.150577 0.117527 0.067312 0.027192 0.007505 0.001910 0.000018 0.000571 0.222899 ]
5
Num Evals 1600
GenUC: 2.310208e-02
GenUB: 1.332441e-02
Optimisation 1.680417e+02
Total Time: 1.680782e+02
