Clock Speed: 3.688892
Num threads: 4
Trotterisation: 1
Num Qubits: 3
Space Dimension: 8
Run-Type: 0
Num_samples: 2024
Optimiser Method: 20
1 Isomorphic
Graph 1:
1 1 1 
1 1 0 
0 0 1 
Graph 2:
1 1 1 
1 1 0 
0 0 1 
Solution: 9 0
Classic Expectation: 6.000000
Initial Expecation: 4.500000
Gbest: 9.000000
Expectation: 6.245537
Final Parameters:
Gammas:
[ 5.821960 ]
Betas:
[ 2.549212 ]
Aggregate results:
[ 9 7 5 3 0 ]
[ 0.377766 0.113682 0.337620 0.120592 0.050341 ]
5
Num Evals 600
GenUC: 2.533954e-06
GenUB: 6.719900e-06
Optimisation 4.714549e-02
Total Time: 4.718171e-02
2 Flipped
Graph 1:
1 1 1 
1 1 0 
0 0 1 
Graph 2:
1 1 1 
0 1 1 
1 0 0 
Solution: 7 1
Classic Expectation: 5.000000
Initial Expecation: 3.750000
Gbest: 7.000000
Expectation: 5.326810
Final Parameters:
Gammas:
[ 5.951335 ]
Betas:
[ 2.509819 ]
Aggregate results:
[ 5 7 3 0 ]
[ 0.737361 0.222502 0.027498 0.012639 ]
5
Num Evals 600
GenUC: 2.481742e-06
GenUB: 8.890638e-07
Optimisation 3.487319e-02
Total Time: 3.487795e-02
3 Add 3
Graph 1:
1 1 1 
1 1 0 
0 0 1 
Graph 2:
1 1 1 
1 1 1 
0 1 1 
Solution: 7 0
Classic Expectation: 6.000000
Initial Expecation: 4.500000
Gbest: 7.000000
Expectation: 5.849948
Final Parameters:
Gammas:
[ 4.071100 ]
Betas:
[ 0.689962 ]
Aggregate results:
[ 7 5 0 ]
[ 0.437614 0.557329 0.005056 ]
5
Num Evals 600
GenUC: 2.651359e-06
GenUB: 6.261398e-07
Optimisation 4.086637e-02
Total Time: 4.087078e-02
4 Rem 3
Graph 1:
1 1 1 
1 1 0 
0 0 1 
Graph 2:
0 1 0 
0 1 0 
0 0 1 
Solution: 6 0
Classic Expectation: 5.000000
Initial Expecation: 3.750000
Gbest: 6.000000
Expectation: 4.905465
Final Parameters:
Gammas:
[ 0.406352 ]
Betas:
[ 0.706795 ]
Aggregate results:
[ 6 4 0 ]
[ 0.459634 0.536915 0.003451 ]
5
Num Evals 600
GenUC: 2.408400e-06
GenUB: 6.678165e-07
Optimisation 3.107763e-02
Total Time: 3.108183e-02
5 Add/Rem 3
Graph 1:
1 1 1 
1 1 0 
0 0 1 
Graph 2:
1 1 1 
0 1 1 
1 0 1 
Solution: 8 1
Classic Expectation: 6.000000
Initial Expecation: 4.500000
Gbest: 8.000000
Expectation: 6.254455
Final Parameters:
Gammas:
[ 5.979499 ]
Betas:
[ 2.455177 ]
Aggregate results:
[ 6 8 4 0 ]
[ 0.737417 0.207489 0.042511 0.012583 ]
5
Num Evals 600
GenUC: 2.245826e-06
GenUB: 5.915063e-07
Optimisation 2.725984e-02
Total Time: 2.726375e-02
