Clock Speed: 3.677900
Num threads: 4
Trotterisation: 1
Num Qubits: 3
Space Dimension: 8
Run-Type: 0
Num_samples: 2024
Optimiser Method: 20
1 Isomorphic
Graph 1:
0 1 0 
0 1 1 
0 1 0 
Graph 2:
0 1 0 
0 1 1 
0 1 0 
Solution: 9 0
Classic Expectation: 4.666667
Initial Expecation: 3.500000
Gbest: 9.000000
Expectation: 6.226528
Final Parameters:
Gammas:
[ 6.010210 ]
Betas:
[ 2.488370 ]
Aggregate results:
[ 9 5 1 3 7 0 ]
[ 0.285505 0.125833 0.008930 0.175597 0.356014 0.048121 ]
5
Num Evals 600
GenUC: 3.166555e-06
GenUB: 1.064641e-05
Optimisation 1.059427e-01
Total Time: 1.059793e-01
2 Flipped
Graph 1:
0 1 0 
0 1 1 
0 1 0 
Graph 2:
0 1 0 
1 1 0 
0 1 0 
Solution: 9 5
Classic Expectation: 4.666667
Initial Expecation: 3.500000
Gbest: 9.000000
Expectation: 6.580018
Final Parameters:
Gammas:
[ 6.022365 ]
Betas:
[ 2.391564 ]
Aggregate results:
[ 7 3 1 5 9 0 ]
[ 0.359916 0.119908 0.020176 0.113068 0.346152 0.040780 ]
5
Num Evals 600
GenUC: 2.563291e-06
GenUB: 1.057459e-06
Optimisation 9.663623e-02
Total Time: 9.664192e-02
3 Add 3
Graph 1:
0 1 0 
0 1 1 
0 1 0 
Graph 2:
1 1 1 
0 1 1 
0 1 0 
Solution: 7 0
Classic Expectation: 4.333333
Initial Expecation: 3.250000
Gbest: 7.000000
Expectation: 5.206121
Final Parameters:
Gammas:
[ 0.432840 ]
Betas:
[ 0.739184 ]
Aggregate results:
[ 7 5 3 0 ]
[ 0.336958 0.469540 0.166571 0.026931 ]
5
Num Evals 600
GenUC: 2.937741e-06
GenUB: 1.014676e-06
Optimisation 9.899384e-02
Total Time: 9.899977e-02
4 Rem 3
Graph 1:
0 1 0 
0 1 1 
0 1 0 
Graph 2:
0 1 0 
0 1 0 
0 0 0 
Solution: 7 0
Classic Expectation: 4.666667
Initial Expecation: 3.500000
Gbest: 7.000000
Expectation: 5.717879
Final Parameters:
Gammas:
[ 5.988381 ]
Betas:
[ 2.456866 ]
Aggregate results:
[ 7 3 5 0 ]
[ 0.611490 0.202055 0.166256 0.020198 ]
5
Num Evals 600
GenUC: 2.845016e-06
GenUB: 9.923242e-07
Optimisation 9.581341e-02
Total Time: 9.581901e-02
5 Add/Rem 3
Graph 1:
0 1 0 
0 1 1 
0 1 0 
Graph 2:
0 0 0 
1 0 1 
1 0 0 
Solution: 6 2
Classic Expectation: 5.000000
Initial Expecation: 3.750000
Gbest: 6.000000
Expectation: 5.395638
Final Parameters:
Gammas:
[ 0.339101 ]
Betas:
[ 0.765708 ]
Aggregate results:
[ 4 6 0 ]
[ 0.253435 0.730316 0.016249 ]
5
Num Evals 600
GenUC: 2.512825e-06
GenUB: 8.861534e-07
Optimisation 5.703554e-02
Total Time: 5.704071e-02
