Clock Speed: 3.688863
Num threads: 4
Trotterisation: 1
Num Qubits: 3
Space Dimension: 8
Run-Type: 0
Num_samples: 2024
Optimiser Method: 20
1 Isomorphic
Graph 1:
0 0 0 
1 0 0 
0 0 0 
Graph 2:
0 0 0 
1 0 0 
0 0 0 
Solution: 9 0
Classic Expectation: 7.333333
Initial Expecation: 5.500000
Gbest: 9.000000
Expectation: 7.605049
Final Parameters:
Gammas:
[ 3.818994 ]
Betas:
[ 0.729413 ]
Aggregate results:
[ 9 7 0 ]
[ 0.308380 0.689947 0.001673 ]
5
Num Evals 600
GenUC: 2.873770e-06
GenUB: 7.799652e-06
Optimisation 2.801395e-02
Total Time: 2.804065e-02
2 Flipped
Graph 1:
0 0 0 
1 0 0 
0 0 0 
Graph 2:
0 0 0 
0 0 1 
0 0 0 
Solution: 9 5
Classic Expectation: 7.333333
Initial Expecation: 5.500000
Gbest: 9.000000
Expectation: 7.558747
Final Parameters:
Gammas:
[ 6.086210 ]
Betas:
[ 2.367517 ]
Aggregate results:
[ 7 9 0 ]
[ 0.698576 0.296524 0.004900 ]
5
Num Evals 600
GenUC: 2.411893e-06
GenUB: 8.691568e-07
Optimisation 3.749104e-02
Total Time: 3.749575e-02
3 Add 3
Graph 1:
0 0 0 
1 0 0 
0 0 0 
Graph 2:
0 0 0 
1 1 0 
1 1 0 
Solution: 6 0
Classic Expectation: 5.000000
Initial Expecation: 3.750000
Gbest: 6.000000
Expectation: 4.905464
Final Parameters:
Gammas:
[ 3.547968 ]
Betas:
[ 0.706211 ]
Aggregate results:
[ 6 4 0 ]
[ 0.459728 0.536774 0.003498 ]
5
Num Evals 600
GenUC: 2.478773e-06
GenUB: 6.021000e-07
Optimisation 2.455920e-02
Total Time: 2.456352e-02
4 Rem 3
Graph 1:
0 0 0 
1 0 0 
0 0 0 
Graph 2:
0 0 0 
0 0 0 
0 0 0 
Solution: 8 0
Classic Expectation: 8.000000
Initial Expecation: 6.000000
Gbest: 8.000000
Expectation: 8.000000
Final Parameters:
Gammas:
[ 5.694133 ]
Betas:
[ 0.785402 ]
Aggregate results:
[ 8 0 ]
[ 1.000000 0.000000 ]
5
Num Evals 600
GenUC: 2.333836e-06
GenUB: 6.384798e-07
Optimisation 2.708888e-02
Total Time: 2.709301e-02
5 Add/Rem 3
Graph 1:
0 0 0 
1 0 0 
0 0 0 
Graph 2:
1 0 1 
0 0 0 
0 0 0 
Solution: 8 4
Classic Expectation: 6.333333
Initial Expecation: 4.750000
Gbest: 8.000000
Expectation: 5.860162
Final Parameters:
Gammas:
[ 5.629886 ]
Betas:
[ 0.836346 ]
Aggregate results:
[ 6 8 0 ]
[ 0.852232 0.093346 0.054422 ]
5
Num Evals 600
GenUC: 2.161949e-06
GenUB: 5.697948e-07
Optimisation 2.806276e-02
Total Time: 2.806652e-02
