Clock Speed: 3.688865
Num threads: 4
Trotterisation: 1
Num Qubits: 3
Space Dimension: 8
Run-Type: 0
Num_samples: 2024
Optimiser Method: 20
1 Isomorphic
Graph 1:
1 0 0 
0 0 1 
1 1 0 
Graph 2:
1 0 0 
0 0 1 
1 1 0 
Solution: 9 0
Classic Expectation: 4.666667
Initial Expecation: 3.500000
Gbest: 9.000000
Expectation: 5.416557
Final Parameters:
Gammas:
[ 0.479365 ]
Betas:
[ 0.743858 ]
Aggregate results:
[ 9 7 5 3 1 0 ]
[ 0.439672 0.044645 0.014237 0.321717 0.110655 0.069073 ]
5
Num Evals 600
GenUC: 2.596760e-06
GenUB: 7.456343e-06
Optimisation 3.469710e-02
Total Time: 3.472315e-02
2 Flipped
Graph 1:
1 0 0 
0 0 1 
1 1 0 
Graph 2:
0 0 1 
1 0 0 
0 1 1 
Solution: 7 5
Classic Expectation: 4.666667
Initial Expecation: 3.500000
Gbest: 7.000000
Expectation: 5.164001
Final Parameters:
Gammas:
[ 0.270751 ]
Betas:
[ 0.637133 ]
Aggregate results:
[ 3 5 7 0 ]
[ 0.177982 0.492199 0.309865 0.019953 ]
5
Num Evals 600
GenUC: 2.424815e-06
GenUB: 8.086790e-07
Optimisation 3.794022e-02
Total Time: 3.794469e-02
3 Add 3
Graph 1:
1 0 0 
0 0 1 
1 1 0 
Graph 2:
1 1 0 
0 0 1 
1 1 0 
Solution: 8 0
Classic Expectation: 4.666667
Initial Expecation: 3.500000
Gbest: 8.000000
Expectation: 5.277464
Final Parameters:
Gammas:
[ 5.766930 ]
Betas:
[ 2.409801 ]
Aggregate results:
[ 8 6 4 2 0 ]
[ 0.353248 0.112869 0.387131 0.112869 0.033882 ]
5
Num Evals 600
GenUC: 2.553919e-06
GenUB: 6.954069e-07
Optimisation 4.567498e-02
Total Time: 4.567947e-02
4 Rem 3
Graph 1:
1 0 0 
0 0 1 
1 1 0 
Graph 2:
1 0 0 
0 0 1 
0 1 0 
Solution: 8 0
Classic Expectation: 4.666667
Initial Expecation: 3.500000
Gbest: 8.000000
Expectation: 5.426936
Final Parameters:
Gammas:
[ 5.936045 ]
Betas:
[ 2.404842 ]
Aggregate results:
[ 8 4 2 0 ]
[ 0.480802 0.319114 0.152034 0.048051 ]
5
Num Evals 600
GenUC: 2.336223e-06
GenUB: 7.071649e-07
Optimisation 3.848553e-02
Total Time: 3.848968e-02
5 Add/Rem 3
Graph 1:
1 0 0 
0 0 1 
1 1 0 
Graph 2:
1 0 0 
1 0 0 
0 1 1 
Solution: 7 1
Classic Expectation: 4.333333
Initial Expecation: 3.250000
Gbest: 7.000000
Expectation: 5.304716
Final Parameters:
Gammas:
[ 5.971536 ]
Betas:
[ 2.445882 ]
Aggregate results:
[ 5 7 3 1 0 ]
[ 0.698744 0.236553 0.047226 0.013447 0.004031 ]
5
Num Evals 600
GenUC: 2.248154e-06
GenUB: 5.709589e-07
Optimisation 3.368790e-02
Total Time: 3.369182e-02
