Clock Speed: 3.688705
Num threads: 4
Trotterisation: 3
Graph Size: 5
Num Qubits: 7
Space Dimension: 128
Run-Type: 0
Num_samples: 10
1 Isomorphic
Graph 1:
0 0 1 1 0 
1 0 0 0 1 
1 1 0 0 0 
0 1 1 1 0 
0 0 0 1 1 
Graph 2:
0 0 1 1 0 
1 0 0 0 1 
1 1 0 0 0 
0 1 1 1 0 
0 0 0 1 1 
Solution: 0 0
Gbest: -8.000000
Expectation: -12.032159
Final Parameters:
Gammas:
[ 3.132394 3.336545 2.491793 ]
Betas:
[ 2.871086 1.427398 2.108340 1.672382 ]
Aggregate results:
[ -1 9 7 5 11 13 15 17 21 24 ]
[ 0.015475 0.192506 0.176955 0.056309 0.215314 0.163188 0.070389 0.047332 0.018761 0.043770 ]
5
Num Evals 500
GenUC: 2.299006e-04
GenUB: 2.918820e-05
Optimisation 2.524837e-01
Total Time: 2.532549e-01
2 Flipped
Graph 1:
0 0 1 1 0 
1 0 0 0 1 
1 1 0 0 0 
0 1 1 1 0 
0 0 0 1 1 
Graph 2:
0 1 1 0 0 
1 0 0 0 1 
0 0 0 1 1 
0 1 1 1 0 
1 1 0 0 0 
Solution: -6 74
Gbest: -10.000000
Expectation: -10.625735
Final Parameters:
Gammas:
[ 3.103165 3.459115 0.191687 ]
Betas:
[ 3.041817 1.190047 1.407465 1.545519 ]
Aggregate results:
[ 9 15 11 13 17 7 5 24 ]
[ 0.435878 0.056900 0.151743 0.074317 0.009581 0.192572 0.062793 0.016217 ]
5
Num Evals 1000
GenUC: 2.359562e-05
GenUB: 1.764859e-05
Optimisation 2.374619e-01
Total Time: 2.379628e-01
3 Add 5
Graph 1:
0 0 1 1 0 
1 0 0 0 1 
1 1 0 0 0 
0 1 1 1 0 
0 0 0 1 1 
Graph 2:
0 0 1 1 0 
1 0 0 1 1 
1 1 1 0 1 
0 1 1 1 1 
0 0 0 1 1 
Solution: -4 0
Gbest: -4.000000
Expectation: -12.458606
Final Parameters:
Gammas:
[ 3.052524 3.700605 2.866786 ]
Betas:
[ 2.814233 1.278907 2.558410 1.329938 ]
Aggregate results:
[ 3 11 7 9 15 13 17 19 24 ]
[ 0.036373 0.260477 0.111853 0.156002 0.113772 0.262668 0.029956 0.005366 0.023532 ]
5
Num Evals 1500
GenUC: 2.400054e-05
GenUB: 1.971955e-05
Optimisation 2.485932e-01
Total Time: 2.491504e-01
4 Rem 5
Graph 1:
0 0 1 1 0 
1 0 0 0 1 
1 1 0 0 0 
0 1 1 1 0 
0 0 0 1 1 
Graph 2:
0 0 0 1 0 
0 0 0 0 1 
1 1 0 0 0 
0 1 1 1 0 
0 0 0 1 0 
Solution: -3 0
Gbest: -9.000000
Expectation: -10.538504
Final Parameters:
Gammas:
[ 3.011743 3.227176 3.032835 ]
Betas:
[ 2.800989 2.457249 2.798784 2.277128 ]
Aggregate results:
[ 2 8 10 6 12 16 14 18 4 24 ]
[ 0.061676 0.288702 0.166563 0.150471 0.172407 0.021279 0.094729 0.006474 0.010989 0.026710 ]
5
Num Evals 2000
GenUC: 2.263614e-05
GenUB: 1.769202e-05
Optimisation 2.943702e-01
Total Time: 2.950791e-01
5 Add/Rem 5
Graph 1:
0 0 1 1 0 
1 0 0 0 1 
1 1 0 0 0 
0 1 1 1 0 
0 0 0 1 1 
Graph 2:
1 0 0 1 0 
1 0 0 0 0 
1 0 1 0 1 
0 0 0 1 0 
1 0 0 1 1 
Solution: -7 3
Gbest: -9.000000
Expectation: -11.428154
Final Parameters:
Gammas:
[ 3.173946 3.296042 0.051608 ]
Betas:
[ 3.129094 2.707410 2.164124 0.811260 ]
Aggregate results:
[ 8 12 6 10 14 16 24 ]
[ 0.234448 0.303689 0.043642 0.328294 0.072099 0.009219 0.008609 ]
5
Num Evals 2500
GenUC: 2.243192e-05
GenUB: 1.729414e-05
Optimisation 2.635671e-01
Total Time: 2.641258e-01
