Clock Speed: 3.688251
Num threads: 4
Trotterisation: 3
Graph Size: 5
Num Qubits: 7
Space Dimension: 128
Run-Type: 0
Num_samples: 10
1 Isomorphic
Graph 1:
1 1 0 1 1 
1 0 0 0 0 
1 0 1 0 1 
0 1 0 1 1 
1 0 1 1 0 
Graph 2:
1 1 0 1 1 
1 0 0 0 0 
1 0 1 0 1 
0 1 0 1 1 
1 0 1 1 0 
Solution: 0 0
Gbest: -6.000000
Expectation: -10.646749
Final Parameters:
Gammas:
[ 3.231752 3.500440 0.063564 ]
Betas:
[ 2.713958 1.287039 1.405651 1.469301 ]
Aggregate results:
[ -1 11 13 9 7 5 15 17 24 ]
[ 0.002710 0.284945 0.071238 0.324673 0.130627 0.118615 0.042712 0.009819 0.014661 ]
5
Num Evals 500
GenUC: 1.641946e-04
GenUB: 3.225444e-05
Optimisation 2.387651e-01
Total Time: 2.394490e-01
2 Flipped
Graph 1:
1 1 0 1 1 
1 0 0 0 0 
1 0 1 0 1 
0 1 0 1 1 
1 0 1 1 0 
Graph 2:
1 1 0 1 1 
0 0 0 0 1 
1 0 1 0 1 
1 1 0 1 0 
0 1 1 0 1 
Solution: -6 15
Gbest: -8.000000
Expectation: -10.374673
Final Parameters:
Gammas:
[ 3.174041 3.458787 0.028495 ]
Betas:
[ 3.111693 2.057248 2.269977 0.635966 ]
Aggregate results:
[ 7 11 13 15 9 5 17 24 ]
[ 0.164110 0.178231 0.064183 0.021359 0.475756 0.072643 0.014808 0.008910 ]
5
Num Evals 1000
GenUC: 2.552284e-05
GenUB: 1.656816e-04
Optimisation 2.390171e-01
Total Time: 2.396991e-01
3 Add 5
Graph 1:
1 1 0 1 1 
1 0 0 0 0 
1 0 1 0 1 
0 1 0 1 1 
1 0 1 1 0 
Graph 2:
1 1 0 1 1 
1 1 1 1 0 
1 1 1 0 1 
0 1 0 1 1 
1 0 1 1 0 
Solution: -4 0
Gbest: -4.000000
Expectation: -9.021325
Final Parameters:
Gammas:
[ 3.420803 3.483144 0.000000 ]
Betas:
[ 2.965912 2.814177 1.622194 1.277782 ]
Aggregate results:
[ 3 9 13 11 7 5 15 17 24 ]
[ 0.091846 0.247544 0.055745 0.186294 0.193047 0.204681 0.009081 0.007037 0.004725 ]
5
Num Evals 1500
GenUC: 2.163148e-05
GenUB: 2.042018e-05
Optimisation 2.731925e-01
Total Time: 2.738360e-01
4 Rem 5
Graph 1:
1 1 0 1 1 
1 0 0 0 0 
1 0 1 0 1 
0 1 0 1 1 
1 0 1 1 0 
Graph 2:
0 0 0 0 1 
1 0 0 0 0 
1 0 1 0 1 
0 1 0 1 0 
1 0 1 1 0 
Solution: -4 0
Gbest: -4.000000
Expectation: -11.080318
Final Parameters:
Gammas:
[ 3.370170 3.320337 3.052869 ]
Betas:
[ 3.139167 2.447014 1.978882 1.682551 ]
Aggregate results:
[ 3 11 15 7 13 9 17 19 24 ]
[ 0.048116 0.346629 0.037010 0.183870 0.078222 0.262865 0.013488 0.009270 0.020530 ]
5
Num Evals 2000
GenUC: 2.529862e-05
GenUB: 1.871370e-05
Optimisation 2.612252e-01
Total Time: 2.618058e-01
5 Add/Rem 5
Graph 1:
1 1 0 1 1 
1 0 0 0 0 
1 0 1 0 1 
0 1 0 1 1 
1 0 1 1 0 
Graph 2:
0 1 1 1 0 
1 0 0 0 1 
1 0 1 0 1 
1 0 1 1 0 
1 0 1 1 1 
Solution: -5 102
Gbest: -5.000000
Expectation: -13.000000
Final Parameters:
Gammas:
[ 3.141593 3.141593 6.283185 ]
Betas:
[ 3.141593 3.141593 2.258020 2.258020 ]
Aggregate results:
[ 8 10 16 14 12 6 4 24 ]
[ 0.140625 0.296875 0.093750 0.148438 0.218750 0.023437 0.015625 0.062500 ]
3
Num Evals 2043
GenUC: 2.327753e-05
GenUB: 1.661462e-05
Optimisation 2.160300e-02
Total Time: 2.222485e-02
