Clock Speed: 3.688928
Num threads: 4
Trotterisation: 2
Graph Size: 5
Num Qubits: 7
Space Dimension: 128
Run-Type: 0
Num_samples: 10
1 Isomorphic
Graph 1:
0 1 0 0 0 
0 1 0 0 1 
1 1 1 0 0 
0 0 0 0 0 
0 1 1 0 1 
Graph 2:
0 1 0 0 0 
0 1 0 0 1 
1 1 1 0 0 
0 0 0 0 0 
0 1 1 0 1 
Solution: 0 0
Gbest: -6.000000
Expectation: -10.678063
Final Parameters:
Gammas:
[ 1.775934 3.350915 ]
Betas:
[ 1.287619 1.113429 1.298831 ]
Aggregate results:
[ -1 7 9 5 13 11 15 3 24 ]
[ 0.001221 0.109118 0.319440 0.139039 0.147062 0.203971 0.038777 0.018321 0.023050 ]
3
Num Evals 234
GenUC: 1.718346e-04
GenUB: 3.011656e-05
Optimisation 6.902194e-02
Total Time: 6.954393e-02
2 Flipped
Graph 1:
0 1 0 0 0 
0 1 0 0 1 
1 1 1 0 0 
0 0 0 0 0 
0 1 1 0 1 
Graph 2:
0 0 0 1 0 
1 0 0 1 0 
0 0 1 1 1 
0 0 0 0 0 
1 0 1 1 0 
Solution: -6 70
Gbest: -8.000000
Expectation: -10.783730
Final Parameters:
Gammas:
[ 3.479346 3.271927 ]
Betas:
[ 2.009771 1.817062 1.091091 ]
Aggregate results:
[ 13 9 15 11 7 5 24 ]
[ 0.120114 0.420690 0.026471 0.233712 0.147576 0.042073 0.009365 ]
3
Num Evals 677
GenUC: 2.225998e-05
GenUB: 1.887980e-05
Optimisation 1.610091e-01
Total Time: 1.613863e-01
3 Add 5
Graph 1:
0 1 0 0 0 
0 1 0 0 1 
1 1 1 0 0 
0 0 0 0 0 
0 1 1 0 1 
Graph 2:
0 1 0 1 0 
0 1 0 1 1 
1 1 1 0 0 
0 0 1 0 1 
0 1 1 0 1 
Solution: -4 0
Gbest: -4.000000
Expectation: -10.893063
Final Parameters:
Gammas:
[ 3.474443 3.807996 ]
Betas:
[ 1.535309 1.356257 1.598498 ]
Aggregate results:
[ 3 11 13 9 19 15 7 17 5 24 ]
[ 0.016409 0.232505 0.093640 0.430379 0.009617 0.028390 0.147317 0.009436 0.020002 0.012306 ]
3
Num Evals 920
GenUC: 2.479981e-05
GenUB: 1.788215e-05
Optimisation 8.022308e-02
Total Time: 8.064595e-02
4 Rem 5
Graph 1:
0 1 0 0 0 
0 1 0 0 1 
1 1 1 0 0 
0 0 0 0 0 
0 1 1 0 1 
Graph 2:
0 1 0 0 0 
0 0 0 0 1 
1 1 1 0 0 
0 0 0 0 0 
0 0 0 0 0 
Solution: -4 0
Gbest: -6.000000
Expectation: -8.715483
Final Parameters:
Gammas:
[ 2.842733 3.009807 ]
Betas:
[ 2.053304 1.698792 1.716727 ]
Aggregate results:
[ 3 7 11 9 13 5 24 ]
[ 0.034238 0.330379 0.100981 0.318441 0.019250 0.191997 0.004713 ]
3
Num Evals 1206
GenUC: 2.051765e-05
GenUB: 1.734344e-05
Optimisation 1.009578e-01
Total Time: 1.013484e-01
5 Add/Rem 5
Graph 1:
0 1 0 0 0 
0 1 0 0 1 
1 1 1 0 0 
0 0 0 0 0 
0 1 1 0 1 
Graph 2:
1 0 1 0 1 
0 1 0 0 1 
0 0 1 0 0 
0 0 0 0 0 
1 0 1 0 0 
Solution: -5 30
Gbest: -5.000000
Expectation: -9.491350
Final Parameters:
Gammas:
[ 3.041700 3.061361 ]
Betas:
[ 1.428061 1.981453 1.380444 ]
Aggregate results:
[ 8 6 12 14 10 4 24 ]
[ 0.294728 0.220405 0.151390 0.004924 0.244113 0.077110 0.007329 ]
3
Num Evals 1429
GenUC: 2.226056e-05
GenUB: 1.692327e-05
Optimisation 7.345860e-02
Total Time: 7.382421e-02
