Clock Speed: 3.688881
Num threads: 4
Trotterisation: 2
Graph Size: 8
Num Qubits: 16
Space Dimension: 65536
Run-Type: 0
Num_samples: 10
1 Isomorphic
Graph 1:
0 0 1 1 0 1 1 0 
0 0 1 0 1 1 0 0 
1 0 1 0 0 0 1 0 
0 1 0 1 1 0 0 1 
1 1 1 1 0 0 1 1 
1 0 1 1 0 0 1 1 
0 1 1 1 0 1 0 0 
0 0 0 0 0 1 0 0 
Graph 2:
0 0 1 1 0 1 1 0 
0 0 1 0 1 1 0 0 
1 0 1 0 0 0 1 0 
0 1 0 1 1 0 0 1 
1 1 1 1 0 0 1 1 
1 0 1 1 0 0 1 1 
0 1 1 1 0 1 0 0 
0 0 0 0 0 1 0 0 
Solution: 0 0
Gbest: -20.000000
Expectation: -32.475506
Final Parameters:
Gammas:
[ 3.096176 2.437981 ]
Betas:
[ 2.349344 2.111480 1.577530 ]
Aggregate results:
[ -1 13 19 17 9 21 23 15 11 27 29 31 25 33 35 37 39 41 3 43 45 7 63 ]
[ 0.000046 0.000580 0.009115 0.003438 0.000111 0.021197 0.048743 0.001458 0.000466 0.136100 0.172841 0.179707 0.086596 0.138194 0.088679 0.041334 0.015259 0.003529 0.000040 0.001058 0.000194 0.000024 0.051293 ]
3
Num Evals 508
GenUC: 3.483940e-03
GenUB: 1.711093e-02
Optimisation 1.147115e+02
Total Time: 1.149535e+02
2 Flipped
Graph 1:
0 0 1 1 0 1 1 0 
0 0 1 0 1 1 0 0 
1 0 1 0 0 0 1 0 
0 1 0 1 1 0 0 1 
1 1 1 1 0 0 1 1 
1 0 1 1 0 0 1 1 
0 1 1 1 0 1 0 0 
0 0 0 0 0 1 0 0 
Graph 2:
0 1 1 0 1 1 0 0 
0 0 1 1 0 1 0 0 
0 1 0 0 0 1 0 1 
1 0 0 1 1 0 1 0 
1 1 0 0 1 1 1 1 
1 1 0 0 1 1 0 1 
0 0 1 0 1 1 1 0 
0 0 1 0 0 0 0 0 
Solution: -12 2782
Gbest: -26.000000
Expectation: -34.614192
Final Parameters:
Gammas:
[ 3.291906 2.687138 ]
Betas:
[ 1.897936 1.995260 1.502873 ]
Aggregate results:
[ 31 23 27 29 35 33 25 37 21 39 41 19 17 15 11 13 43 45 47 63 ]
[ 0.193705 0.020684 0.117568 0.179484 0.102585 0.156361 0.058268 0.050409 0.005166 0.020334 0.005726 0.001270 0.000339 0.000123 0.000002 0.000038 0.001228 0.000106 0.000013 0.086592 ]
3
Num Evals 916
GenUC: 2.425855e-03
GenUB: 1.679292e-02
Optimisation 8.622160e+01
Total Time: 8.644633e+01
3 Add 8
Graph 1:
0 0 1 1 0 1 1 0 
0 0 1 0 1 1 0 0 
1 0 1 0 0 0 1 0 
0 1 0 1 1 0 0 1 
1 1 1 1 0 0 1 1 
1 0 1 1 0 0 1 1 
0 1 1 1 0 1 0 0 
0 0 0 0 0 1 0 0 
Graph 2:
1 1 1 1 1 1 1 0 
0 0 1 0 1 1 0 0 
1 0 1 0 0 0 1 0 
1 1 1 1 1 0 0 1 
1 1 1 1 0 0 1 1 
1 0 1 1 0 0 1 1 
0 1 1 1 0 1 0 0 
0 1 1 0 0 1 0 1 
Solution: -8 0
Gbest: -26.000000
Expectation: -34.473229
Final Parameters:
Gammas:
[ 3.295835 3.189313 ]
Betas:
[ 1.965789 2.017199 1.816309 ]
Aggregate results:
[ 7 17 21 15 23 25 29 19 27 31 35 33 37 39 43 41 45 9 13 63 ]
[ 0.000071 0.000834 0.008834 0.000226 0.028318 0.062434 0.166388 0.002549 0.114893 0.182369 0.106170 0.156533 0.055295 0.022204 0.002231 0.007502 0.000221 0.000031 0.000028 0.082869 ]
3
Num Evals 1246
GenUC: 2.978615e-03
GenUB: 1.680336e-02
Optimisation 7.269431e+01
Total Time: 7.292969e+01
4 Rem 8
Graph 1:
0 0 1 1 0 1 1 0 
0 0 1 0 1 1 0 0 
1 0 1 0 0 0 1 0 
0 1 0 1 1 0 0 1 
1 1 1 1 0 0 1 1 
1 0 1 1 0 0 1 1 
0 1 1 1 0 1 0 0 
0 0 0 0 0 1 0 0 
Graph 2:
0 0 1 0 0 1 1 0 
0 0 1 0 1 0 0 0 
0 0 1 0 0 0 1 0 
0 1 0 0 0 0 0 1 
1 1 1 1 0 0 1 1 
1 0 1 0 0 0 0 1 
0 0 1 1 0 1 0 0 
0 0 0 0 0 1 0 0 
Solution: -8 0
Gbest: -26.000000
Expectation: -31.843983
Final Parameters:
Gammas:
[ 3.100150 3.372081 ]
Betas:
[ 2.821836 2.092221 1.701880 ]
Aggregate results:
[ 7 15 21 23 19 17 13 25 27 29 31 33 35 37 39 41 9 43 47 63 ]
[ 0.000035 0.001054 0.023695 0.055565 0.007796 0.002857 0.000166 0.106754 0.153230 0.186892 0.172598 0.127942 0.071434 0.032077 0.009228 0.002361 0.000043 0.000218 0.000000 0.046054 ]
3
Num Evals 1771
GenUC: 3.025069e-03
GenUB: 1.685598e-02
Optimisation 1.229493e+02
Total Time: 1.232003e+02
5 Add/Rem 8
Graph 1:
0 0 1 1 0 1 1 0 
0 0 1 0 1 1 0 0 
1 0 1 0 0 0 1 0 
0 1 0 1 1 0 0 1 
1 1 1 1 0 0 1 1 
1 0 1 1 0 0 1 1 
0 1 1 1 0 1 0 0 
0 0 0 0 0 1 0 0 
Graph 2:
0 0 1 1 1 1 1 0 
0 0 1 0 1 1 0 1 
1 0 0 1 0 0 1 0 
0 1 0 1 1 0 0 1 
0 1 1 1 0 0 0 1 
1 1 0 0 1 1 1 0 
0 1 1 0 1 0 0 0 
0 0 0 0 0 1 0 0 
Solution: -15 0
Gbest: -27.000000
Expectation: -32.573620
Final Parameters:
Gammas:
[ 4.670037 4.707059 ]
Betas:
[ 2.781311 3.137438 2.616039 ]
Aggregate results:
[ 14 24 26 28 20 32 30 22 34 18 36 16 38 40 42 44 46 63 ]
[ 0.000076 0.062756 0.115640 0.171600 0.010283 0.166398 0.188482 0.027166 0.114546 0.002060 0.058090 0.000382 0.022437 0.006779 0.001577 0.000255 0.000031 0.051441 ]
3
Num Evals 2298
GenUC: 2.909541e-03
GenUB: 1.711518e-02
Optimisation 1.474221e+02
Total Time: 1.477192e+02
