Clock Speed: 3.688797
Num threads: 4
Trotterisation: 2
Graph Size: 8
Num Qubits: 16
Space Dimension: 65536
Run-Type: 0
Num_samples: 10
1 Isomorphic
Graph 1:
0 1 0 0 1 1 1 0 
1 0 0 1 1 0 1 0 
0 1 0 0 1 1 0 1 
0 0 0 0 0 0 0 1 
1 1 1 1 0 0 0 0 
1 0 1 0 1 0 1 1 
0 1 0 1 1 1 1 0 
1 1 0 0 1 1 1 1 
Graph 2:
0 1 0 0 1 1 1 0 
1 0 0 1 1 0 1 0 
0 1 0 0 1 1 0 1 
0 0 0 0 0 0 0 1 
1 1 1 1 0 0 0 0 
1 0 1 0 1 0 1 1 
0 1 0 1 1 1 1 0 
1 1 0 0 1 1 1 1 
Solution: 0 0
Gbest: -26.000000
Expectation: -31.866733
Final Parameters:
Gammas:
[ 6.240031 6.046507 ]
Betas:
[ 1.988161 2.152230 1.493902 ]
Aggregate results:
[ -1 9 17 19 7 25 11 15 21 33 27 23 13 5 29 31 35 37 39 41 63 ]
[ 0.000047 0.000041 0.005240 0.011211 0.000147 0.092542 0.000704 0.002254 0.024563 0.140081 0.140639 0.049997 0.001159 0.000046 0.187316 0.185810 0.075844 0.028223 0.007032 0.001167 0.045938 ]
3
Num Evals 617
GenUC: 4.429523e-03
GenUB: 1.974776e-02
Optimisation 1.419432e+02
Total Time: 1.421858e+02
2 Flipped
Graph 1:
0 1 0 0 1 1 1 0 
1 0 0 1 1 0 1 0 
0 1 0 0 1 1 0 1 
0 0 0 0 0 0 0 1 
1 1 1 1 0 0 0 0 
1 0 1 0 1 0 1 1 
0 1 0 1 1 1 1 0 
1 1 0 0 1 1 1 1 
Graph 2:
0 1 1 1 0 0 1 0 
0 1 0 1 1 0 0 1 
1 0 1 1 0 0 1 0 
1 0 0 0 0 0 0 0 
0 0 0 0 1 1 1 1 
1 1 0 1 0 1 0 1 
0 1 1 1 1 0 1 0 
1 1 1 1 0 0 1 1 
Solution: -16 313
Gbest: -30.000000
Expectation: -43.739222
Final Parameters:
Gammas:
[ 4.206203 3.451230 ]
Betas:
[ 1.504815 2.171589 1.677024 ]
Aggregate results:
[ 37 33 29 35 31 39 43 21 25 27 23 19 17 15 41 45 47 49 63 ]
[ 0.062253 0.127932 0.097751 0.099545 0.124064 0.029432 0.003326 0.002289 0.028167 0.058298 0.010015 0.000616 0.000130 0.000101 0.010798 0.000358 0.000160 0.000019 0.344748 ]
3
Num Evals 872
GenUC: 2.481981e-03
GenUB: 1.677995e-02
Optimisation 5.320197e+01
Total Time: 5.342693e+01
3 Add 8
Graph 1:
0 1 0 0 1 1 1 0 
1 0 0 1 1 0 1 0 
0 1 0 0 1 1 0 1 
0 0 0 0 0 0 0 1 
1 1 1 1 0 0 0 0 
1 0 1 0 1 0 1 1 
0 1 0 1 1 1 1 0 
1 1 0 0 1 1 1 1 
Graph 2:
1 1 0 0 1 1 1 0 
1 0 0 1 1 1 1 0 
1 1 0 0 1 1 0 1 
0 1 0 0 0 0 0 1 
1 1 1 1 0 1 1 0 
1 1 1 0 1 0 1 1 
0 1 0 1 1 1 1 0 
1 1 0 0 1 1 1 1 
Solution: -7 0
Gbest: -27.000000
Expectation: -31.730060
Final Parameters:
Gammas:
[ 3.158829 3.190992 ]
Betas:
[ 2.038843 0.880529 2.534455 ]
Aggregate results:
[ 6 10 18 20 14 22 28 16 24 26 32 34 12 8 30 36 38 40 42 63 ]
[ 0.000013 0.000039 0.003766 0.009581 0.000444 0.026398 0.178763 0.001131 0.062971 0.115916 0.185379 0.113101 0.000202 0.000013 0.211059 0.044718 0.011454 0.001302 0.000028 0.033720 ]
3
Num Evals 1297
GenUC: 2.990996e-03
GenUB: 1.675040e-02
Optimisation 9.302439e+01
Total Time: 9.325564e+01
4 Rem 8
Graph 1:
0 1 0 0 1 1 1 0 
1 0 0 1 1 0 1 0 
0 1 0 0 1 1 0 1 
0 0 0 0 0 0 0 1 
1 1 1 1 0 0 0 0 
1 0 1 0 1 0 1 1 
0 1 0 1 1 1 1 0 
1 1 0 0 1 1 1 1 
Graph 2:
0 1 0 0 1 0 1 0 
1 0 0 0 1 0 1 0 
0 0 0 0 1 1 0 0 
0 0 0 0 0 0 0 0 
1 1 1 0 0 0 0 0 
1 0 1 0 1 0 1 0 
0 1 0 1 1 1 1 0 
1 1 0 0 1 1 1 1 
Solution: -7 0
Gbest: -23.000000
Expectation: -32.969941
Final Parameters:
Gammas:
[ 4.563702 4.813830 ]
Betas:
[ 3.042012 3.135252 2.618453 ]
Aggregate results:
[ 6 10 16 20 12 22 24 18 14 26 30 28 32 34 36 38 40 42 44 63 ]
[ 0.000024 0.000052 0.001076 0.011599 0.000056 0.024581 0.051096 0.004484 0.000449 0.095824 0.189085 0.145001 0.183099 0.135591 0.072393 0.025730 0.007109 0.000899 0.000035 0.051818 ]
3
Num Evals 1764
GenUC: 2.878755e-03
GenUB: 1.688419e-02
Optimisation 1.330339e+02
Total Time: 1.333402e+02
5 Add/Rem 8
Graph 1:
0 1 0 0 1 1 1 0 
1 0 0 1 1 0 1 0 
0 1 0 0 1 1 0 1 
0 0 0 0 0 0 0 1 
1 1 1 1 0 0 0 0 
1 0 1 0 1 0 1 1 
0 1 0 1 1 1 1 0 
1 1 0 0 1 1 1 1 
Graph 2:
0 1 1 1 0 0 1 0 
1 0 0 1 1 1 1 0 
0 0 1 0 1 1 0 0 
0 0 0 0 0 1 0 1 
1 1 1 1 0 1 0 0 
1 0 0 0 1 0 1 1 
0 0 0 1 1 1 1 0 
1 1 1 0 1 1 1 0 
Solution: -14 0
Gbest: -24.000000
Expectation: -33.140465
Final Parameters:
Gammas:
[ 3.285479 3.435960 ]
Betas:
[ 2.513107 2.010240 1.482412 ]
Aggregate results:
[ 13 15 19 17 25 23 21 27 29 31 33 35 37 39 41 43 47 45 63 ]
[ 0.000069 0.000182 0.004195 0.000673 0.107133 0.049136 0.019836 0.161049 0.191095 0.169504 0.118719 0.060833 0.022273 0.006766 0.001311 0.000331 0.000042 0.000034 0.086820 ]
3
Num Evals 2343
GenUC: 3.084011e-03
GenUB: 1.683764e-02
Optimisation 1.308522e+02
Total Time: 1.310977e+02
