Clock Speed: 3.688773
Num threads: 4
Trotterisation: 2
Graph Size: 8
Num Qubits: 16
Space Dimension: 65536
Run-Type: 0
Num_samples: 10
1 Isomorphic
Graph 1:
1 0 0 1 1 0 1 0 
1 1 1 1 0 0 1 0 
1 1 0 1 1 1 0 0 
1 0 0 0 0 1 1 0 
0 1 0 1 0 1 1 0 
1 1 1 1 0 1 0 1 
0 0 1 1 0 1 1 0 
0 0 1 0 1 0 1 0 
Graph 2:
1 0 0 1 1 0 1 0 
1 1 1 1 0 0 1 0 
1 1 0 1 1 1 0 0 
1 0 0 0 0 1 1 0 
0 1 0 1 0 1 1 0 
1 1 1 1 0 1 0 1 
0 0 1 1 0 1 1 0 
0 0 1 0 1 0 1 0 
Solution: 0 0
Gbest: -28.000000
Expectation: -41.261583
Final Parameters:
Gammas:
[ 5.845100 4.636831 ]
Betas:
[ 2.137932 2.101654 1.545698 ]
Aggregate results:
[ -1 9 19 13 15 21 23 11 25 31 27 17 29 33 35 37 39 41 43 45 47 63 ]
[ 0.000018 0.000069 0.004979 0.000561 0.000762 0.011585 0.025526 0.000282 0.051920 0.128954 0.091374 0.001734 0.118991 0.108060 0.074147 0.044454 0.025836 0.010040 0.004009 0.000861 0.000180 0.295660 ]
3
Num Evals 373
GenUC: 3.621135e-03
GenUB: 1.762952e-02
Optimisation 8.270354e+01
Total Time: 8.293897e+01
2 Flipped
Graph 1:
1 0 0 1 1 0 1 0 
1 1 1 1 0 0 1 0 
1 1 0 1 1 1 0 0 
1 0 0 0 0 1 1 0 
0 1 0 1 0 1 1 0 
1 1 1 1 0 1 0 1 
0 0 1 1 0 1 1 0 
0 0 1 0 1 0 1 0 
Graph 2:
0 1 0 1 1 0 0 1 
0 1 0 0 1 1 1 1 
0 0 1 1 1 0 1 1 
0 1 1 0 0 0 0 1 
0 1 1 0 1 0 1 0 
1 0 1 0 1 1 1 1 
0 1 1 0 1 1 0 0 
0 1 0 1 0 1 0 0 
Solution: -14 36780
Gbest: -28.000000
Expectation: -33.464890
Final Parameters:
Gammas:
[ 3.100689 2.998886 ]
Betas:
[ 2.372722 2.052665 1.809091 ]
Aggregate results:
[ 39 37 33 35 29 31 41 27 25 23 43 21 19 17 45 15 13 63 ]
[ 0.017892 0.056958 0.181028 0.116657 0.170814 0.199729 0.003855 0.112492 0.058184 0.023256 0.000927 0.007756 0.002059 0.000280 0.000050 0.000080 0.000007 0.047977 ]
3
Num Evals 864
GenUC: 2.424709e-03
GenUB: 1.669922e-02
Optimisation 1.109211e+02
Total Time: 1.111635e+02
3 Add 8
Graph 1:
1 0 0 1 1 0 1 0 
1 1 1 1 0 0 1 0 
1 1 0 1 1 1 0 0 
1 0 0 0 0 1 1 0 
0 1 0 1 0 1 1 0 
1 1 1 1 0 1 0 1 
0 0 1 1 0 1 1 0 
0 0 1 0 1 0 1 0 
Graph 2:
1 0 0 1 1 0 1 0 
1 1 1 1 0 0 1 0 
1 1 1 1 1 1 0 0 
1 0 0 0 1 1 1 0 
0 1 0 1 1 1 1 1 
1 1 1 1 0 1 0 1 
0 1 1 1 0 1 1 0 
0 1 1 1 1 0 1 0 
Solution: -7 0
Gbest: -19.000000
Expectation: -33.117125
Final Parameters:
Gammas:
[ 4.474951 4.903475 ]
Betas:
[ 3.034351 3.133693 2.623386 ]
Aggregate results:
[ 6 16 20 14 24 28 22 18 26 12 30 34 32 36 38 40 10 42 44 46 63 ]
[ 0.000027 0.001014 0.011880 0.000402 0.057334 0.144911 0.028071 0.004231 0.102981 0.000128 0.173262 0.125627 0.164076 0.074679 0.038214 0.013794 0.000039 0.003991 0.000706 0.000099 0.054534 ]
3
Num Evals 1200
GenUC: 2.987718e-03
GenUB: 1.677250e-02
Optimisation 9.452834e+01
Total Time: 9.482841e+01
4 Rem 8
Graph 1:
1 0 0 1 1 0 1 0 
1 1 1 1 0 0 1 0 
1 1 0 1 1 1 0 0 
1 0 0 0 0 1 1 0 
0 1 0 1 0 1 1 0 
1 1 1 1 0 1 0 1 
0 0 1 1 0 1 1 0 
0 0 1 0 1 0 1 0 
Graph 2:
1 0 0 0 1 0 0 0 
1 1 1 1 0 0 0 0 
1 0 0 1 0 1 0 0 
1 0 0 0 0 1 1 0 
0 1 0 1 0 1 0 0 
1 1 1 1 0 1 0 1 
0 0 1 1 0 1 1 0 
0 0 1 0 1 0 0 0 
Solution: -7 0
Gbest: -25.000000
Expectation: -37.525426
Final Parameters:
Gammas:
[ 3.391432 2.105567 ]
Betas:
[ 1.388487 1.994544 1.518116 ]
Aggregate results:
[ 6 16 22 18 20 24 14 28 26 34 32 30 36 38 40 12 42 44 46 48 63 ]
[ 0.000022 0.000339 0.011243 0.000968 0.003662 0.032076 0.000306 0.120031 0.070691 0.125490 0.158460 0.165687 0.075579 0.040176 0.017367 0.000005 0.008082 0.002617 0.001355 0.000430 0.165414 ]
3
Num Evals 1566
GenUC: 2.873331e-03
GenUB: 1.695891e-02
Optimisation 7.247543e+01
Total Time: 7.268952e+01
5 Add/Rem 8
Graph 1:
1 0 0 1 1 0 1 0 
1 1 1 1 0 0 1 0 
1 1 0 1 1 1 0 0 
1 0 0 0 0 1 1 0 
0 1 0 1 0 1 1 0 
1 1 1 1 0 1 0 1 
0 0 1 1 0 1 1 0 
0 0 1 0 1 0 1 0 
Graph 2:
1 0 0 1 1 0 1 0 
0 1 1 1 1 1 1 1 
1 0 1 1 1 1 0 1 
1 0 0 0 0 0 1 0 
0 0 0 1 0 1 1 0 
0 1 1 0 1 1 0 1 
0 0 1 1 1 1 1 0 
0 0 0 1 1 0 0 0 
Solution: -16 0
Gbest: -26.000000
Expectation: -41.574847
Final Parameters:
Gammas:
[ 4.288963 3.243546 ]
Betas:
[ 2.155628 2.137453 2.088447 ]
Aggregate results:
[ 15 19 23 25 29 27 31 33 21 35 17 37 39 41 43 45 47 63 ]
[ 0.000059 0.001722 0.020259 0.047852 0.121903 0.088079 0.135176 0.124008 0.006536 0.081803 0.000341 0.045763 0.017835 0.005609 0.001401 0.000344 0.000018 0.301294 ]
3
Num Evals 1910
GenUC: 2.905955e-03
GenUB: 1.687291e-02
Optimisation 8.033431e+01
Total Time: 8.058458e+01
