Clock Speed: 3.689082
Num threads: 4
Trotterisation: 2
Graph Size: 8
Num Qubits: 16
Space Dimension: 65536
Run-Type: 0
Num_samples: 10
1 Isomorphic
Graph 1:
1 1 0 1 1 0 1 0 
0 0 1 1 0 1 0 1 
0 1 0 0 0 0 1 1 
0 1 0 0 0 1 1 1 
0 1 1 0 0 1 1 0 
1 0 0 1 0 0 1 1 
1 1 0 0 0 1 1 0 
1 1 1 0 1 0 0 0 
Graph 2:
1 1 0 1 1 0 1 0 
0 0 1 1 0 1 0 1 
0 1 0 0 0 0 1 1 
0 1 0 0 0 1 1 1 
0 1 1 0 0 1 1 0 
1 0 0 1 0 0 1 1 
1 1 0 0 0 1 1 0 
1 1 1 0 1 0 0 0 
Solution: 0 0
Gbest: -26.000000
Expectation: -40.944920
Final Parameters:
Gammas:
[ 4.121477 3.056252 ]
Betas:
[ 2.921189 2.149361 2.058758 ]
Aggregate results:
[ -1 21 23 11 15 19 27 17 29 9 25 13 31 33 35 37 39 41 45 47 43 49 63 ]
[ 0.000021 0.013755 0.033304 0.000076 0.000533 0.005183 0.105053 0.001588 0.130467 0.000017 0.065729 0.000177 0.125265 0.104867 0.063869 0.029069 0.012251 0.003359 0.000114 0.000157 0.000839 0.000001 0.304305 ]
3
Num Evals 423
GenUC: 2.173462e-02
GenUB: 2.272195e-02
Optimisation 1.042442e+02
Total Time: 1.045339e+02
2 Flipped
Graph 1:
1 1 0 1 1 0 1 0 
0 0 1 1 0 1 0 1 
0 1 0 0 0 0 1 1 
0 1 0 0 0 1 1 1 
0 1 1 0 0 1 1 0 
1 0 0 1 0 0 1 1 
1 1 0 0 0 1 1 0 
1 1 1 0 1 0 0 0 
Graph 2:
0 1 0 1 1 0 1 1 
1 0 1 0 1 1 0 0 
1 1 0 0 0 0 1 0 
1 1 1 0 0 0 1 0 
0 1 1 0 0 1 1 0 
1 1 0 0 1 0 0 1 
0 1 1 0 0 0 1 1 
0 0 0 1 0 1 1 1 
Solution: -14 12531
Gbest: -24.000000
Expectation: -33.412067
Final Parameters:
Gammas:
[ 3.286509 3.006309 ]
Betas:
[ 2.813204 2.091424 1.689598 ]
Aggregate results:
[ 27 33 35 31 37 29 23 25 39 21 41 19 43 17 47 45 13 15 63 ]
[ 0.140393 0.132983 0.084009 0.175868 0.037177 0.174363 0.043241 0.088871 0.014558 0.018126 0.003655 0.005617 0.000602 0.001767 0.000022 0.000043 0.000168 0.000446 0.078089 ]
3
Num Evals 932
GenUC: 2.603127e-03
GenUB: 1.670452e-02
Optimisation 1.208667e+02
Total Time: 1.211178e+02
3 Add 8
Graph 1:
1 1 0 1 1 0 1 0 
0 0 1 1 0 1 0 1 
0 1 0 0 0 0 1 1 
0 1 0 0 0 1 1 1 
0 1 1 0 0 1 1 0 
1 0 0 1 0 0 1 1 
1 1 0 0 0 1 1 0 
1 1 1 0 1 0 0 0 
Graph 2:
1 1 0 1 1 0 1 0 
0 0 1 1 0 1 1 1 
1 1 0 0 0 0 1 1 
1 1 0 0 1 1 1 1 
0 1 1 0 0 1 1 0 
1 0 0 1 1 0 1 1 
1 1 0 0 0 1 1 0 
1 1 1 1 1 0 0 1 
Solution: -7 0
Gbest: -21.000000
Expectation: -32.629057
Final Parameters:
Gammas:
[ 4.292302 5.082954 ]
Betas:
[ 3.025994 3.141593 2.612672 ]
Aggregate results:
[ 6 22 24 16 26 28 20 14 30 18 32 12 34 36 40 38 42 44 46 63 ]
[ 0.000046 0.026879 0.061535 0.000960 0.116223 0.162680 0.008572 0.000153 0.189000 0.002655 0.169138 0.000036 0.115884 0.060412 0.008641 0.024626 0.001455 0.000540 0.000152 0.050413 ]
3
Num Evals 1396
GenUC: 2.993563e-03
GenUB: 2.655794e-02
Optimisation 1.311026e+02
Total Time: 1.314094e+02
4 Rem 8
Graph 1:
1 1 0 1 1 0 1 0 
0 0 1 1 0 1 0 1 
0 1 0 0 0 0 1 1 
0 1 0 0 0 1 1 1 
0 1 1 0 0 1 1 0 
1 0 0 1 0 0 1 1 
1 1 0 0 0 1 1 0 
1 1 1 0 1 0 0 0 
Graph 2:
1 1 0 1 1 0 1 0 
0 0 0 0 0 1 0 1 
0 1 0 0 0 0 1 0 
0 1 0 0 0 1 1 0 
0 1 1 0 0 1 1 0 
1 0 0 1 0 0 0 1 
1 1 0 0 0 1 1 0 
1 1 1 0 0 0 0 0 
Solution: -6 0
Gbest: -26.000000
Expectation: -42.700402
Final Parameters:
Gammas:
[ 5.050876 3.959204 ]
Betas:
[ 2.470524 2.125729 1.584261 ]
Aggregate results:
[ 5 25 23 15 29 17 21 33 27 31 19 13 11 9 35 37 39 41 45 43 49 47 63 ]
[ 0.000022 0.057042 0.025651 0.000257 0.124498 0.001121 0.009967 0.101299 0.082445 0.127833 0.003404 0.000035 0.000034 0.000016 0.069877 0.029400 0.012412 0.004202 0.000386 0.000883 0.000030 0.000072 0.349114 ]
3
Num Evals 1639
GenUC: 3.077003e-03
GenUB: 1.678659e-02
Optimisation 5.522546e+01
Total Time: 5.546889e+01
5 Add/Rem 8
Graph 1:
1 1 0 1 1 0 1 0 
0 0 1 1 0 1 0 1 
0 1 0 0 0 0 1 1 
0 1 0 0 0 1 1 1 
0 1 1 0 0 1 1 0 
1 0 0 1 0 0 1 1 
1 1 0 0 0 1 1 0 
1 1 1 0 1 0 0 0 
Graph 2:
1 0 0 1 0 0 1 0 
0 0 0 1 1 1 0 0 
0 0 0 0 0 0 1 1 
0 1 0 1 0 1 1 1 
0 1 1 0 1 1 1 0 
1 0 0 1 0 1 1 1 
0 1 0 1 1 1 1 1 
0 1 1 0 0 0 0 1 
Solution: -16 0
Gbest: -30.000000
Expectation: -35.918665
Final Parameters:
Gammas:
[ 3.295445 2.596435 ]
Betas:
[ 2.581324 2.122604 1.592123 ]
Aggregate results:
[ 15 25 33 27 29 35 39 31 23 21 37 19 43 41 47 45 49 17 63 ]
[ 0.000077 0.036527 0.173291 0.083110 0.135190 0.141445 0.043756 0.172313 0.011805 0.003652 0.085528 0.000784 0.005840 0.015694 0.000199 0.001367 0.000092 0.000062 0.089267 ]
3
Num Evals 2054
GenUC: 2.878028e-03
GenUB: 1.716588e-02
Optimisation 9.836430e+01
Total Time: 9.861457e+01
