Clock Speed: 3.688939
Num threads: 4
Trotterisation: 4
Num Qubits: 7
Space Dimension: 128
Run-Type: 0
Num_samples: 15624
Optimiser Method: 28
1 Isomorphic
Graph 1:
1 0 0 1 1 
0 0 0 1 0 
0 1 0 1 0 
0 1 0 0 0 
0 0 0 1 1 
Graph 2:
1 0 0 1 1 
0 0 0 1 0 
0 1 0 1 0 
0 1 0 0 0 
0 0 0 1 1 
Solution: 25 0
Classic Expectation: 13.500000
Initial Expecation: 12.656250
Gbest: 25.000000
Expectation: 14.477561
Final Parameters:
Gammas:
[ 4.935086 3.540290 2.491164 3.368519 ]
Betas:
[ 2.350946 2.025752 1.491671 1.819111 ]
Aggregate results:
[ 25 15 17 13 19 21 11 9 7 23 0 ]
[ 0.023914 0.153868 0.207551 0.186049 0.114963 0.029877 0.151533 0.105303 0.008697 0.005978 0.012266 ]
3
Num Evals 662
GenUC: 4.073012e-05
GenUB: 1.328896e-05
Optimisation 4.028759e-01
Total Time: 4.029500e-01
2 Flipped
Graph 1:
1 0 0 1 1 
0 0 0 1 0 
0 1 0 1 0 
0 1 0 0 0 
0 0 0 1 1 
Graph 2:
1 1 0 0 1 
0 1 0 0 0 
0 1 0 1 0 
0 0 0 1 0 
1 1 0 0 0 
Solution: 19 14
Classic Expectation: 13.600000
Initial Expecation: 12.750000
Gbest: 19.000000
Expectation: 14.313333
Final Parameters:
Gammas:
[ 4.696459 3.439830 3.451001 3.611706 ]
Betas:
[ 0.806557 1.581242 1.767220 1.919997 ]
Aggregate results:
[ 15 17 13 11 19 9 0 ]
[ 0.258848 0.205602 0.266859 0.128719 0.098577 0.019704 0.021691 ]
3
Num Evals 2047
GenUC: 4.453459e-05
GenUB: 2.761662e-06
Optimisation 1.108174e+00
Total Time: 1.108224e+00
3 Add 5
Graph 1:
1 0 0 1 1 
0 0 0 1 0 
0 1 0 1 0 
0 1 0 0 0 
0 0 0 1 1 
Graph 2:
1 1 0 1 1 
0 0 0 1 0 
1 1 0 1 0 
0 1 0 1 1 
0 0 0 1 1 
Solution: 21 0
Classic Expectation: 12.400000
Initial Expecation: 11.625000
Gbest: 21.000000
Expectation: 12.898891
Final Parameters:
Gammas:
[ 4.751258 3.748980 3.993648 3.466263 ]
Betas:
[ 1.909496 0.990221 1.477440 2.052368 ]
Aggregate results:
[ 21 15 13 11 17 19 9 7 0 ]
[ 0.022364 0.245525 0.154586 0.262200 0.147403 0.007241 0.125759 0.011039 0.023882 ]
3
Num Evals 1551
GenUC: 4.502988e-05
GenUB: 2.679506e-06
Optimisation 8.569122e-01
Total Time: 8.569623e-01
4 Rem 5
Graph 1:
1 0 0 1 1 
0 0 0 1 0 
0 1 0 1 0 
0 1 0 0 0 
0 0 0 1 1 
Graph 2:
1 0 0 0 0 
0 0 0 1 0 
0 0 0 1 0 
0 0 0 0 0 
0 0 0 1 1 
Solution: 21 0
Classic Expectation: 14.700000
Initial Expecation: 13.781250
Gbest: 21.000000
Expectation: 15.529320
Final Parameters:
Gammas:
[ 4.528490 3.490384 3.457647 3.554148 ]
Betas:
[ 1.667485 1.573427 0.965211 1.743824 ]
Aggregate results:
[ 21 13 15 19 17 11 0 ]
[ 0.099298 0.350159 0.118240 0.254329 0.081915 0.081234 0.014824 ]
3
Num Evals 796
GenUC: 4.387498e-05
GenUB: 2.544533e-06
Optimisation 4.235564e-01
Total Time: 4.236049e-01
5 Add/Rem 5
Graph 1:
1 0 0 1 1 
0 0 0 1 0 
0 1 0 1 0 
0 1 0 0 0 
0 0 0 1 1 
Graph 2:
1 1 0 1 0 
0 1 0 1 1 
0 1 0 1 0 
1 1 0 0 0 
0 0 0 1 0 
Solution: 19 0
Classic Expectation: 12.900000
Initial Expecation: 12.093750
Gbest: 19.000000
Expectation: 13.721628
Final Parameters:
Gammas:
[ 4.273367 3.696910 3.449531 2.449884 ]
Betas:
[ 1.619843 1.022491 1.290394 1.238174 ]
Aggregate results:
[ 19 13 11 17 15 9 5 7 0 ]
[ 0.112960 0.117235 0.211741 0.247785 0.171007 0.089599 0.005687 0.015701 0.028286 ]
3
Num Evals 602
GenUC: 4.369071e-05
GenUB: 2.339140e-06
Optimisation 3.016024e-01
Total Time: 3.016500e-01
