Clock Speed: 3.498927
Num threads: 16
Trotterisation: 4
Num Qubits: 7
Space Dimension: 128
Run-Type: 0
Num_samples: 25
Optimiser Method: 28
1 Isomorphic
Graph 1:
1 0 0 1 1 
0 1 0 0 1 
0 0 1 0 1 
0 1 1 0 1 
0 0 0 0 1 
Graph 2:
1 0 0 1 1 
0 1 0 0 1 
0 0 1 0 1 
0 1 1 0 1 
0 0 0 0 1 
Solution: 25 0
Classic Expectation: 14.300000
Initial Expecation: 13.406250
Gbest: 21.000000
Expectation: 15.250286
Final Parameters:
Gammas:
[ 4.570091 2.033524 3.766290 3.638612 ]
Betas:
[ 1.385613 2.267694 1.532821 2.172780 ]
Aggregate results:
[ 25 13 17 19 21 15 11 9 0 ]
[ 0.036814 0.361989 0.057334 0.166406 0.072587 0.217545 0.057616 0.007378 0.022331 ]
3
Num Evals 1726
GenUC: 4.672213e-05
GenUB: 2.263859e-05
Optimisation 7.419212e-01
Total Time: 7.419996e-01
2 Flipped
Graph 1:
1 0 0 1 1 
0 1 0 0 1 
0 0 1 0 1 
0 1 1 0 1 
0 0 0 0 1 
Graph 2:
1 1 0 0 1 
1 0 0 1 0 
1 0 1 0 0 
1 0 1 1 0 
1 0 0 0 0 
Solution: 19 35
Classic Expectation: 13.400000
Initial Expecation: 12.562500
Gbest: 19.000000
Expectation: 13.919779
Final Parameters:
Gammas:
[ 4.128032 3.471526 3.595944 2.918533 ]
Betas:
[ 1.186544 2.036530 1.015416 1.778985 ]
Aggregate results:
[ 11 13 9 15 17 19 0 ]
[ 0.156599 0.356597 0.060134 0.184108 0.123543 0.113599 0.005421 ]
3
Num Evals 1387
GenUC: 5.182950e-05
GenUB: 1.015142e-05
Optimisation 5.212857e-01
Total Time: 5.213499e-01
3 Add 5
Graph 1:
1 0 0 1 1 
0 1 0 0 1 
0 0 1 0 1 
0 1 1 0 1 
0 0 0 0 1 
Graph 2:
1 0 0 1 1 
0 1 1 1 1 
0 0 1 1 1 
0 1 1 0 1 
0 1 1 0 1 
Solution: 20 0
Classic Expectation: 12.800000
Initial Expecation: 12.000000
Gbest: 18.000000
Expectation: 13.226106
Final Parameters:
Gammas:
[ 4.582936 4.242718 4.170649 2.681309 ]
Betas:
[ 1.507151 2.303844 1.421185 1.422428 ]
Aggregate results:
[ 20 16 14 12 18 8 10 0 ]
[ 0.003202 0.243985 0.295249 0.252641 0.032376 0.039872 0.119140 0.013536 ]
3
Num Evals 1384
GenUC: 5.210843e-05
GenUB: 8.596107e-06
Optimisation 5.491679e-01
Total Time: 5.492304e-01
4 Rem 5
Graph 1:
1 0 0 1 1 
0 1 0 0 1 
0 0 1 0 1 
0 1 1 0 1 
0 0 0 0 1 
Graph 2:
1 0 0 1 0 
0 1 0 0 0 
0 0 0 0 1 
0 1 1 0 1 
0 0 0 0 0 
Solution: 21 0
Classic Expectation: 13.700000
Initial Expecation: 12.843750
Gbest: 21.000000
Expectation: 15.354189
Final Parameters:
Gammas:
[ 3.982284 3.191939 5.104467 6.177852 ]
Betas:
[ 1.187998 2.013082 1.125573 1.753612 ]
Aggregate results:
[ 21 13 15 19 11 17 9 0 ]
[ 0.049364 0.156721 0.436884 0.100578 0.058130 0.185663 0.002249 0.010412 ]
3
Num Evals 1788
GenUC: 5.148165e-05
GenUB: 8.075498e-06
Optimisation 6.955698e-01
Total Time: 6.956326e-01
5 Add/Rem 5
Graph 1:
1 0 0 1 1 
0 1 0 0 1 
0 0 1 0 1 
0 1 1 0 1 
0 0 0 0 1 
Graph 2:
1 0 0 1 0 
0 0 1 0 1 
0 0 1 0 0 
0 0 0 1 1 
1 1 0 0 1 
Solution: 18 8
Classic Expectation: 14.600000
Initial Expecation: 13.687500
Gbest: 18.000000
Expectation: 15.184857
Final Parameters:
Gammas:
[ 5.837440 3.470586 3.240754 3.596945 ]
Betas:
[ 2.574702 2.158221 1.708926 1.829909 ]
Aggregate results:
[ 16 14 12 18 0 ]
[ 0.412882 0.191342 0.177175 0.209660 0.008943 ]
3
Num Evals 2206
GenUC: 5.106488e-05
GenUB: 8.364674e-06
Optimisation 9.916247e-01
Total Time: 9.916859e-01
