Clock Speed: 3.498619
Num threads: 16
Trotterisation: 2
Num Qubits: 13
Space Dimension: 8192
Run-Type: 0
Num_samples: 49
Optimiser Method: 29
1 Isomorphic
Graph 1:
1 0 0 0 0 0 1 
0 1 1 0 1 0 0 
1 0 1 1 0 0 1 
0 1 0 0 1 1 0 
0 0 1 1 1 1 0 
1 0 0 1 0 1 1 
0 0 0 0 0 0 1 
Graph 2:
1 0 0 0 0 0 1 
0 1 1 0 1 0 0 
1 0 1 1 0 0 1 
0 1 0 0 1 1 0 
0 0 1 1 1 1 0 
1 0 0 1 0 1 1 
0 0 0 0 0 0 1 
Solution: 49 0
Classic Expectation: 28.000000
Initial Expecation: 17.226563
Gbest: 35.000000
Expectation: 25.429978
Final Parameters:
Gammas:
[ 3.195430 3.304602 ]
Betas:
[ 1.604460 0.759538 ]
Aggregate results:
[ 49 35 39 33 37 25 27 29 31 23 45 21 43 41 19 17 47 0 ]
[ 0.000146 0.026172 0.001778 0.065881 0.009223 0.153543 0.214034 0.220281 0.133679 0.056350 0.000154 0.016326 0.000621 0.000676 0.002948 0.000110 0.000303 0.097773 ]
3
Num Evals 555
GenUC: 2.244458e-03
GenUB: 1.240311e-03
Optimisation 8.221262e+00
Total Time: 8.224757e+00
2 Flipped
Graph 1:
1 0 0 0 0 0 1 
0 1 1 0 1 0 0 
1 0 1 1 0 0 1 
0 1 0 0 1 1 0 
0 0 1 1 1 1 0 
1 0 0 1 0 1 1 
0 0 0 0 0 0 1 
Graph 2:
1 0 0 0 0 0 1 
0 0 1 0 1 1 0 
1 0 0 1 1 0 1 
0 1 1 0 0 1 0 
0 1 1 1 1 0 0 
1 1 0 1 0 0 1 
1 0 0 0 0 0 0 
Solution: 37 0
Classic Expectation: 24.000000
Initial Expecation: 14.765625
Gbest: 29.000000
Expectation: 19.003901
Final Parameters:
Gammas:
[ 3.337302 3.681637 ]
Betas:
[ 2.475478 0.961061 ]
Aggregate results:
[ 37 27 31 21 23 25 29 19 17 15 35 33 13 0 ]
[ 0.004409 0.139108 0.026074 0.106399 0.164467 0.163853 0.071944 0.060871 0.024282 0.005855 0.003345 0.008910 0.000652 0.219832 ]
3
Num Evals 440
GenUC: 2.798495e-03
GenUB: 1.213612e-03
Optimisation 8.083117e+00
Total Time: 8.087132e+00
3 Add 7
Graph 1:
1 0 0 0 0 0 1 
0 1 1 0 1 0 0 
1 0 1 1 0 0 1 
0 1 0 0 1 1 0 
0 0 1 1 1 1 0 
1 0 0 1 0 1 1 
0 0 0 0 0 0 1 
Graph 2:
1 1 0 0 0 0 1 
1 1 1 1 1 0 0 
1 0 1 1 0 0 1 
0 1 0 0 1 1 0 
0 0 1 1 1 1 1 
1 0 0 1 1 1 1 
0 0 0 1 0 0 1 
Solution: 43 0
Classic Expectation: 26.285714
Initial Expecation: 16.171875
Gbest: 33.000000
Expectation: 23.802488
Final Parameters:
Gammas:
[ 3.198455 3.314805 ]
Betas:
[ 1.593980 0.785020 ]
Aggregate results:
[ 43 33 37 29 31 35 23 27 25 21 39 19 17 41 0 ]
[ 0.000156 0.029197 0.002245 0.157055 0.078181 0.009163 0.132337 0.213491 0.206741 0.055391 0.000252 0.012085 0.003540 0.000268 0.099900 ]
3
Num Evals 440
GenUC: 2.793412e-03
GenUB: 1.177105e-03
Optimisation 6.590484e+00
Total Time: 6.594457e+00
4 Rem 7
Graph 1:
1 0 0 0 0 0 1 
0 1 1 0 1 0 0 
1 0 1 1 0 0 1 
0 1 0 0 1 1 0 
0 0 1 1 1 1 0 
1 0 0 1 0 1 1 
0 0 0 0 0 0 1 
Graph 2:
1 0 0 0 0 0 0 
0 1 0 0 1 0 0 
1 0 1 0 0 0 1 
0 0 0 0 0 1 0 
0 0 0 1 1 0 0 
1 0 0 1 0 1 1 
0 0 0 0 0 0 1 
Solution: 42 0
Classic Expectation: 30.000000
Initial Expecation: 18.457031
Gbest: 34.000000
Expectation: 25.650622
Final Parameters:
Gammas:
[ 3.274457 3.411687 ]
Betas:
[ 0.513313 2.244320 ]
Aggregate results:
[ 42 32 36 34 30 28 26 38 40 24 0 ]
[ 0.000537 0.196739 0.020846 0.092526 0.253239 0.197012 0.070612 0.004742 0.000730 0.011553 0.151464 ]
3
Num Evals 1223
GenUC: 2.798778e-03
GenUB: 1.220264e-03
Optimisation 1.903386e+01
Total Time: 1.903788e+01
5 Add/Rem 7
Graph 1:
1 0 0 0 0 0 1 
0 1 1 0 1 0 0 
1 0 1 1 0 0 1 
0 1 0 0 1 1 0 
0 0 1 1 1 1 0 
1 0 0 1 0 1 1 
0 0 0 0 0 0 1 
Graph 2:
1 0 0 1 0 0 1 
1 1 1 1 1 1 0 
1 0 0 1 0 1 1 
0 1 0 0 0 1 0 
1 0 1 1 0 0 0 
1 0 0 1 0 1 1 
0 0 1 0 0 0 1 
Solution: 38 0
Classic Expectation: 25.142857
Initial Expecation: 15.468750
Gbest: 36.000000
Expectation: 20.849905
Final Parameters:
Gammas:
[ 5.744397 3.069509 ]
Betas:
[ 2.057415 2.567130 ]
Aggregate results:
[ 38 28 34 30 22 26 24 16 20 32 36 18 14 0 ]
[ 0.000183 0.144390 0.007204 0.064870 0.119164 0.203004 0.184974 0.002665 0.055317 0.023988 0.000854 0.017782 0.000182 0.175425 ]
3
Num Evals 650
GenUC: 2.792948e-03
GenUB: 1.217622e-03
Optimisation 1.367869e+01
Total Time: 1.368270e+01
