Clock Speed: 3.498949
Num threads: 16
Trotterisation: 2
Num Qubits: 16
Space Dimension: 65536
Run-Type: 0
Num_samples: 64
Optimiser Method: 29
1 Isomorphic
Graph 1:
1 1 1 1 1 0 0 1 
1 0 1 1 1 1 1 1 
1 1 1 0 0 1 0 0 
1 1 0 1 1 0 0 1 
1 1 0 1 0 1 1 1 
0 1 1 0 1 0 0 1 
0 1 0 0 1 0 0 1 
1 1 0 1 1 1 1 1 
Graph 2:
1 1 1 1 1 0 0 1 
1 0 1 1 1 1 1 1 
1 1 1 0 0 1 0 0 
1 1 0 1 1 0 0 1 
1 1 0 1 0 1 1 1 
0 1 1 0 1 0 0 1 
0 1 0 0 1 0 0 1 
1 1 0 1 1 1 1 1 
Solution: 64 0
Classic Expectation: 35.571429
Initial Expecation: 21.884766
Gbest: 46.000000
Expectation: 30.535200
Final Parameters:
Gammas:
[ 3.048037 3.090938 ]
Betas:
[ 2.793165 0.694919 ]
Aggregate results:
[ 64 50 60 46 48 38 52 62 58 54 44 40 36 42 56 32 30 26 28 34 24 22 0 ]
[ 0.000003 0.004024 0.000020 0.021680 0.009393 0.105839 0.001124 0.000014 0.000056 0.000469 0.040861 0.101205 0.138994 0.059390 0.000112 0.114936 0.062106 0.021390 0.046641 0.111906 0.006532 0.002696 0.150608 ]
3
Num Evals 821
GenUC: 1.833061e-02
GenUB: 1.331066e-02
Optimisation 1.458050e+02
Total Time: 1.458366e+02
2 Flipped
Graph 1:
1 1 1 1 1 0 0 1 
1 0 1 1 1 1 1 1 
1 1 1 0 0 1 0 0 
1 1 0 1 1 0 0 1 
1 1 0 1 0 1 1 1 
0 1 1 0 1 0 0 1 
0 1 0 0 1 0 0 1 
1 1 0 1 1 1 1 1 
Graph 2:
1 0 0 1 1 1 1 1 
1 1 1 1 1 1 0 1 
0 0 1 0 0 1 1 1 
1 0 0 1 1 0 1 1 
1 1 1 0 1 0 1 1 
1 0 0 1 0 1 1 0 
1 0 0 1 0 0 1 0 
1 1 1 1 1 0 1 1 
Solution: 46 1884
Classic Expectation: 34.142857
Initial Expecation: 21.005859
Gbest: 42.000000
Expectation: 28.513462
Final Parameters:
Gammas:
[ 3.195677 3.440705 ]
Betas:
[ 2.522113 1.035304 ]
Aggregate results:
[ 32 34 30 36 38 28 40 42 44 26 24 46 22 0 ]
[ 0.145911 0.176000 0.095993 0.168242 0.104610 0.046602 0.053078 0.017649 0.005247 0.015124 0.004562 0.000641 0.000741 0.165599 ]
3
Num Evals 507
GenUC: 2.297923e-02
GenUB: 1.403294e-02
Optimisation 9.055314e+01
Total Time: 9.059016e+01
3 Add 8
Graph 1:
1 1 1 1 1 0 0 1 
1 0 1 1 1 1 1 1 
1 1 1 0 0 1 0 0 
1 1 0 1 1 0 0 1 
1 1 0 1 0 1 1 1 
0 1 1 0 1 0 0 1 
0 1 0 0 1 0 0 1 
1 1 0 1 1 1 1 1 
Graph 2:
1 1 1 1 1 1 1 1 
1 1 1 1 1 1 1 1 
1 1 1 1 1 1 1 1 
1 1 1 1 1 0 1 1 
1 1 1 1 0 1 1 1 
1 1 1 0 1 0 0 1 
1 1 1 1 1 0 0 1 
1 1 1 1 1 1 1 1 
Solution: 49 0
Classic Expectation: 40.571429
Initial Expecation: 24.960937
Gbest: 47.000000
Expectation: 33.158043
Final Parameters:
Gammas:
[ 3.174782 4.847380 ]
Betas:
[ 0.628967 2.032998 ]
Aggregate results:
[ 49 43 39 41 45 47 37 35 0 ]
[ 0.004970 0.142103 0.200299 0.185155 0.061204 0.043106 0.156711 0.023505 0.182949 ]
3
Num Evals 332
GenUC: 2.302757e-02
GenUB: 1.348623e-02
Optimisation 5.043543e+01
Total Time: 5.047195e+01
4 Rem 8
Graph 1:
1 1 1 1 1 0 0 1 
1 0 1 1 1 1 1 1 
1 1 1 0 0 1 0 0 
1 1 0 1 1 0 0 1 
1 1 0 1 0 1 1 1 
0 1 1 0 1 0 0 1 
0 1 0 0 1 0 0 1 
1 1 0 1 1 1 1 1 
Graph 2:
1 0 0 0 0 0 0 0 
0 0 0 0 1 0 0 1 
0 0 1 0 0 1 0 0 
0 0 0 0 0 0 0 1 
0 1 0 0 0 1 1 1 
0 0 1 0 1 0 0 1 
0 0 0 0 1 0 0 1 
0 1 0 1 1 1 1 1 
Solution: 43 0
Classic Expectation: 28.428571
Initial Expecation: 17.490234
Gbest: 39.000000
Expectation: 24.972019
Final Parameters:
Gammas:
[ 3.115082 3.184723 ]
Betas:
[ 2.620717 0.879156 ]
Aggregate results:
[ 43 33 39 29 35 37 41 31 25 27 23 19 21 15 17 13 9 11 0 ]
[ 0.001886 0.115877 0.015198 0.124722 0.064855 0.049620 0.010077 0.120025 0.090983 0.116688 0.069972 0.027156 0.037426 0.005362 0.009553 0.002337 0.000135 0.000609 0.137519 ]
3
Num Evals 1488
GenUC: 2.301897e-02
GenUB: 1.345942e-02
Optimisation 2.654280e+02
Total Time: 2.654645e+02
5 Add/Rem 8
Graph 1:
1 1 1 1 1 0 0 1 
1 0 1 1 1 1 1 1 
1 1 1 0 0 1 0 0 
1 1 0 1 1 0 0 1 
1 1 0 1 0 1 1 1 
0 1 1 0 1 0 0 1 
0 1 0 0 1 0 0 1 
1 1 0 1 1 1 1 1 
Graph 2:
1 0 0 0 0 1 1 0 
0 1 1 1 0 0 0 1 
0 1 1 1 1 0 0 1 
0 1 1 1 1 0 0 1 
0 0 1 1 0 1 1 1 
1 0 0 0 1 0 0 1 
1 0 0 0 1 0 0 1 
0 1 1 1 1 1 1 1 
Solution: 51 5760
Classic Expectation: 32.714286
Initial Expecation: 20.126953
Gbest: 45.000000
Expectation: 28.074183
Final Parameters:
Gammas:
[ 3.372568 3.176044 ]
Betas:
[ 2.155514 2.615168 ]
Aggregate results:
[ 35 29 33 31 25 23 27 41 37 39 21 45 43 47 15 17 19 51 49 0 ]
[ 0.114174 0.102370 0.129536 0.127532 0.033980 0.023322 0.076337 0.041638 0.103193 0.060398 0.007368 0.008083 0.016968 0.002029 0.000602 0.000447 0.003744 0.000718 0.001744 0.145815 ]
3
Num Evals 470
GenUC: 2.301624e-02
GenUB: 1.335404e-02
Optimisation 1.003973e+02
Total Time: 1.004337e+02
