Clock Speed: 3.498642
Num threads: 16
Trotterisation: 2
Num Qubits: 19
Space Dimension: 524288
Run-Type: 0
Num_samples: 81
Optimiser Method: 29
1 Isomorphic
Graph 1:
0 1 0 1 0 0 0 0 0 
1 0 0 0 1 1 1 0 0 
0 0 1 0 1 0 1 0 0 
1 0 0 0 1 0 0 1 0 
0 1 1 1 1 1 1 1 0 
0 1 0 0 1 1 0 1 1 
0 1 1 0 1 0 0 1 1 
0 0 0 1 1 1 1 0 0 
0 0 0 0 0 1 1 0 0 
Graph 2:
0 1 0 1 0 0 0 0 0 
1 0 0 0 1 1 1 0 0 
0 0 1 0 1 0 1 0 0 
1 0 0 0 1 0 0 1 0 
0 1 1 1 1 1 1 1 0 
0 1 0 0 1 1 0 1 1 
0 1 1 0 1 0 0 1 1 
0 0 0 1 1 1 1 0 0 
0 0 0 0 0 1 1 0 0 
Solution: 81 0
Classic Expectation: 41.444444
Initial Expecation: 28.685303
Gbest: 61.000000
Expectation: 31.346151
Final Parameters:
Gammas:
[ 4.937407 3.243603 ]
Betas:
[ 2.537564 1.167256 ]
Aggregate results:
[ 81 73 61 57 75 67 59 55 63 65 49 53 51 47 71 45 43 39 41 37 33 69 35 31 29 27 25 23 21 19 77 0 ]
[ 0.000003 0.000007 0.000935 0.004739 0.000001 0.000093 0.002485 0.009655 0.000580 0.000145 0.051350 0.019184 0.027116 0.055958 0.000013 0.091079 0.080343 0.081232 0.106542 0.083582 0.041487 0.000032 0.053843 0.022997 0.012045 0.006336 0.001904 0.000828 0.000149 0.000022 0.000003 0.245313 ]
3
Num Evals 457
GenUC: 1.784220e-01
GenUB: 1.343003e-01
Optimisation 7.555327e+02
Total Time: 7.558454e+02
2 Flipped
Graph 1:
0 1 0 1 0 0 0 0 0 
1 0 0 0 1 1 1 0 0 
0 0 1 0 1 0 1 0 0 
1 0 0 0 1 0 0 1 0 
0 1 1 1 1 1 1 1 0 
0 1 0 0 1 1 0 1 1 
0 1 1 0 1 0 0 1 1 
0 0 0 1 1 1 1 0 0 
0 0 0 0 0 1 1 0 0 
Graph 2:
0 0 0 0 0 1 0 1 0 
0 0 1 1 1 0 0 0 1 
0 0 1 0 1 0 1 0 0 
0 1 0 0 1 0 0 0 1 
0 1 1 1 1 1 1 1 0 
1 1 0 1 1 0 0 1 0 
1 1 0 0 1 0 1 1 0 
0 0 1 1 1 1 0 0 0 
0 0 1 1 0 0 0 0 0 
Solution: 65 3288
Classic Expectation: 41.444444
Initial Expecation: 28.685303
Gbest: 55.000000
Expectation: 30.112415
Final Parameters:
Gammas:
[ 4.495297 4.637321 ]
Betas:
[ 2.230406 1.461512 ]
Aggregate results:
[ 53 51 45 47 49 43 41 39 37 31 35 33 29 55 63 57 59 27 61 65 25 23 21 0 ]
[ 0.010120 0.020723 0.086021 0.062748 0.037908 0.108662 0.109885 0.101591 0.079002 0.014119 0.050739 0.029852 0.005514 0.004158 0.000038 0.001542 0.000467 0.001752 0.000219 0.000022 0.000411 0.000056 0.000004 0.274450 ]
3
Num Evals 332
GenUC: 2.196684e-01
GenUB: 1.309482e-01
Optimisation 5.496513e+02
Total Time: 5.500019e+02
3 Add 9
Graph 1:
0 1 0 1 0 0 0 0 0 
1 0 0 0 1 1 1 0 0 
0 0 1 0 1 0 1 0 0 
1 0 0 0 1 0 0 1 0 
0 1 1 1 1 1 1 1 0 
0 1 0 0 1 1 0 1 1 
0 1 1 0 1 0 0 1 1 
0 0 0 1 1 1 1 0 0 
0 0 0 0 0 1 1 0 0 
Graph 2:
1 1 1 1 1 1 1 1 1 
1 1 1 1 1 1 1 0 0 
1 1 1 1 1 0 1 0 0 
1 1 1 0 1 0 1 1 0 
1 1 1 1 1 1 1 1 0 
1 1 0 0 1 1 0 1 1 
1 1 1 1 1 0 0 1 1 
1 0 0 1 1 1 1 0 0 
1 0 0 0 0 1 1 0 0 
Solution: 59 0
Classic Expectation: 38.555556
Initial Expecation: 26.685791
Gbest: 53.000000
Expectation: 31.315949
Final Parameters:
Gammas:
[ 4.614157 3.105054 ]
Betas:
[ 1.044215 0.533444 ]
Aggregate results:
[ 59 51 43 35 39 53 45 37 33 41 31 29 49 47 27 23 25 21 19 55 13 17 57 15 0 ]
[ 0.000103 0.010278 0.073296 0.090870 0.101027 0.004516 0.067565 0.113002 0.071331 0.113125 0.052050 0.026860 0.023822 0.034874 0.018411 0.003476 0.006378 0.000958 0.000269 0.001518 0.000003 0.000077 0.000264 0.000007 0.185921 ]
3
Num Evals 449
GenUC: 2.195560e-01
GenUB: 1.302294e-01
Optimisation 4.714839e+02
Total Time: 4.718337e+02
4 Rem 9
Graph 1:
0 1 0 1 0 0 0 0 0 
1 0 0 0 1 1 1 0 0 
0 0 1 0 1 0 1 0 0 
1 0 0 0 1 0 0 1 0 
0 1 1 1 1 1 1 1 0 
0 1 0 0 1 1 0 1 1 
0 1 1 0 1 0 0 1 1 
0 0 0 1 1 1 1 0 0 
0 0 0 0 0 1 1 0 0 
Graph 2:
0 0 0 0 0 0 0 0 0 
0 0 0 0 0 0 0 0 0 
0 0 0 0 0 0 1 0 0 
0 0 0 0 0 0 0 0 0 
0 0 0 0 1 0 1 1 0 
0 0 0 0 0 1 0 1 0 
0 0 1 0 1 0 0 1 1 
0 0 0 0 1 1 1 0 0 
0 0 0 0 0 0 1 0 0 
Solution: 60 0
Classic Expectation: 44.000000
Initial Expecation: 30.454102
Gbest: 56.000000
Expectation: 32.479074
Final Parameters:
Gammas:
[ 4.552449 3.971575 ]
Betas:
[ 2.222724 1.441483 ]
Aggregate results:
[ 60 56 48 44 54 50 42 46 52 58 40 38 36 34 32 0 ]
[ 0.000355 0.004179 0.071278 0.113626 0.016366 0.063427 0.113708 0.122279 0.023679 0.001615 0.098574 0.052005 0.043862 0.008647 0.007189 0.259212 ]
3
Num Evals 298
GenUC: 2.196656e-01
GenUB: 1.299596e-01
Optimisation 4.888419e+02
Total Time: 4.891915e+02
5 Add/Rem 9
Graph 1:
0 1 0 1 0 0 0 0 0 
1 0 0 0 1 1 1 0 0 
0 0 1 0 1 0 1 0 0 
1 0 0 0 1 0 0 1 0 
0 1 1 1 1 1 1 1 0 
0 1 0 0 1 1 0 1 1 
0 1 1 0 1 0 0 1 1 
0 0 0 1 1 1 1 0 0 
0 0 0 0 0 1 1 0 0 
Graph 2:
0 0 1 0 1 1 1 1 1 
0 1 0 1 0 0 0 0 0 
1 0 0 1 0 0 0 1 0 
0 1 1 0 0 0 0 0 0 
1 0 0 0 1 1 1 1 0 
1 0 0 0 1 1 0 1 0 
1 0 0 0 1 0 0 1 1 
1 0 1 0 1 1 1 0 0 
1 0 0 0 0 0 1 0 0 
Solution: 67 57924
Classic Expectation: 41.666667
Initial Expecation: 28.839111
Gbest: 57.000000
Expectation: 37.042120
Final Parameters:
Gammas:
[ 2.381759 3.862462 ]
Betas:
[ 3.141593 2.631923 ]
Aggregate results:
[ 41 37 33 39 35 27 31 29 43 25 45 47 49 21 51 53 23 57 55 59 61 17 63 67 65 19 15 13 0 ]
[ 0.100735 0.079370 0.040382 0.116766 0.070562 0.005648 0.026767 0.012159 0.125093 0.002376 0.087237 0.086661 0.052347 0.000347 0.039340 0.020533 0.000653 0.005198 0.011905 0.002395 0.000784 0.000031 0.000295 0.000012 0.000064 0.000043 0.000004 0.000004 0.112287 ]
3
Num Evals 448
GenUC: 2.193253e-01
GenUB: 1.306017e-01
Optimisation 9.730307e+02
Total Time: 9.733806e+02
