Clock Speed: 3.384238
Num threads: 4
Trotterisation: 4
Graph Size: 7
Num Qubits: 13
Space Dimension: 8192
Run-Type: 0
Num_samples: 10
1 Isomorphic
Graph 1:
1 0 1 0 1 0 1 
0 0 0 0 1 0 0 
1 1 1 0 1 0 0 
1 1 0 1 0 1 1 
1 0 0 0 1 0 1 
1 1 0 1 0 1 0 
1 1 0 0 1 0 0 
Graph 2:
1 0 1 0 1 0 1 
0 0 0 0 1 0 0 
1 1 1 0 1 0 0 
1 1 0 1 0 1 1 
1 0 0 0 1 0 1 
1 1 0 1 0 1 0 
1 1 0 0 1 0 0 
Solution: 0 0
Gbest: -14.000000
Expectation: -25.766954
Final Parameters:
Gammas:
[ 0.053885 1.653165 0.042089 0.292329 ]
Betas:
[ 2.985247 2.614563 1.451575 1.710299 2.971725 ]
Aggregate results:
[ -1 7 15 13 11 17 23 19 9 21 25 27 29 31 33 37 35 1 39 5 48 ]
[ 0.000140 0.000423 0.024715 0.013470 0.002849 0.059820 0.182111 0.110265 0.002589 0.182488 0.151071 0.106159 0.053325 0.017010 0.008110 0.001127 0.001450 0.000220 0.000582 0.000199 0.081877 ]
5
Num Evals 700
GenUC: 1.417375e-03
GenUB: 1.916007e-03
Optimisation 8.744764e+00
Total Time: 8.763733e+00
2 Flipped
Graph 1:
1 0 1 0 1 0 1 
0 0 0 0 1 0 0 
1 1 1 0 1 0 0 
1 1 0 1 0 1 1 
1 0 0 0 1 0 1 
1 1 0 1 0 1 0 
1 1 0 0 1 0 0 
Graph 2:
1 0 1 0 1 0 1 
0 0 1 0 0 0 0 
0 0 1 0 1 1 1 
1 1 0 1 0 1 1 
1 0 1 0 0 0 1 
0 1 0 1 0 1 1 
0 0 1 0 0 1 1 
Solution: -10 3101
Gbest: -16.000000
Expectation: -28.089914
Final Parameters:
Gammas:
[ 3.094091 3.805569 2.537291 0.482728 ]
Betas:
[ 2.931149 0.636099 1.358725 1.516765 1.644706 ]
Aggregate results:
[ 15 21 19 23 29 27 25 31 17 11 13 33 9 35 48 ]
[ 0.018404 0.156476 0.109271 0.184254 0.044090 0.091707 0.144224 0.011604 0.055907 0.001064 0.005849 0.002300 0.000258 0.000223 0.174367 ]
5
Num Evals 1400
GenUC: 1.244810e-03
GenUB: 1.765312e-03
Optimisation 8.719858e+00
Total Time: 8.735213e+00
3 Add 7
Graph 1:
1 0 1 0 1 0 1 
0 0 0 0 1 0 0 
1 1 1 0 1 0 0 
1 1 0 1 0 1 1 
1 0 0 0 1 0 1 
1 1 0 1 0 1 0 
1 1 0 0 1 0 0 
Graph 2:
1 0 1 0 1 0 1 
0 1 0 0 1 0 0 
1 1 1 0 1 0 0 
1 1 1 1 0 1 1 
1 0 1 1 1 0 1 
1 1 0 1 1 1 0 
1 1 0 1 1 1 0 
Solution: -7 0
Gbest: -19.000000
Expectation: -25.817969
Final Parameters:
Gammas:
[ 3.346377 2.569817 3.944350 6.235047 ]
Betas:
[ 0.167825 0.649516 0.061701 1.441830 1.401496 ]
Aggregate results:
[ 6 12 16 18 14 20 26 22 24 10 28 30 8 32 34 36 48 ]
[ 0.001298 0.005351 0.062159 0.109482 0.016132 0.160726 0.110555 0.166807 0.150733 0.003358 0.063952 0.029716 0.002506 0.008496 0.002517 0.001066 0.105146 ]
5
Num Evals 2100
GenUC: 1.222903e-03
GenUB: 1.703987e-03
Optimisation 8.557014e+00
Total Time: 8.567941e+00
4 Rem 7
Graph 1:
1 0 1 0 1 0 1 
0 0 0 0 1 0 0 
1 1 1 0 1 0 0 
1 1 0 1 0 1 1 
1 0 0 0 1 0 1 
1 1 0 1 0 1 0 
1 1 0 0 1 0 0 
Graph 2:
1 0 1 0 1 0 1 
0 0 0 0 1 0 0 
0 0 1 0 1 0 0 
1 1 0 1 0 0 0 
1 0 0 0 1 0 1 
1 1 0 1 0 0 0 
1 0 0 0 1 0 0 
Solution: -6 0
Gbest: -18.000000
Expectation: -28.088712
Final Parameters:
Gammas:
[ 0.482029 3.583527 2.054469 3.089286 ]
Betas:
[ 1.236175 2.983882 0.097709 1.123384 1.719371 ]
Aggregate results:
[ 5 13 17 15 19 23 11 21 25 27 29 31 33 35 9 48 ]
[ 0.000568 0.014483 0.056885 0.022203 0.103018 0.187867 0.002433 0.147105 0.163282 0.078855 0.024916 0.012553 0.001150 0.000391 0.000442 0.183851 ]
5
Num Evals 2800
GenUC: 1.167578e-03
GenUB: 1.908758e-03
Optimisation 8.641192e+00
Total Time: 8.655786e+00
5 Add/Rem 7
Graph 1:
1 0 1 0 1 0 1 
0 0 0 0 1 0 0 
1 1 1 0 1 0 0 
1 1 0 1 0 1 1 
1 0 0 0 1 0 1 
1 1 0 1 0 1 0 
1 1 0 0 1 0 0 
Graph 2:
0 0 1 0 1 0 1 
0 0 1 1 1 0 0 
1 1 1 0 1 0 0 
1 1 0 1 0 0 1 
1 0 0 0 1 0 1 
1 1 1 0 1 1 0 
1 0 1 0 0 0 1 
Solution: -11 0
Gbest: -17.000000
Expectation: -26.057221
Final Parameters:
Gammas:
[ 0.040875 0.568095 3.165736 4.415101 ]
Betas:
[ 2.171200 2.565504 2.918181 0.092423 3.060029 ]
Aggregate results:
[ 10 14 16 22 18 24 30 20 26 28 34 32 36 12 48 ]
[ 0.000274 0.009202 0.049291 0.186445 0.097572 0.128914 0.035571 0.179813 0.112846 0.073555 0.001998 0.019729 0.000099 0.005554 0.099137 ]
5
Num Evals 3500
GenUC: 1.301491e-03
GenUB: 1.750988e-03
Optimisation 8.390144e+00
Total Time: 8.407460e+00
