Clock Speed: 3.688907
Num threads: 4
Trotterisation: 1
Num Qubits: 10
Space Dimension: 1024
Run-Type: 0
Num_samples: 32399
Optimiser Method: 0
1 Isomorphic
Graph 1:
1 0 1 1 0 0 
1 1 0 0 1 0 
0 1 0 0 0 0 
1 1 0 1 0 0 
0 1 1 1 1 1 
0 0 1 1 0 0 
Graph 2:
1 0 1 1 0 0 
1 1 0 0 1 0 
0 1 0 0 0 0 
1 1 0 1 0 0 
0 1 1 1 1 1 
0 0 1 1 0 0 
Solution: 36 0
Classic Expectation: 18.600000
Initial Expecation: 13.078125
Gbest: 36.000000
Expectation: 16.249117
Final Parameters:
Gammas:
[ 0.116355 ]
Betas:
[ 0.252103 ]
Aggregate results:
[ 36 28 22 20 24 32 18 12 14 16 26 10 30 0 ]
[ 0.004203 0.012978 0.156958 0.199359 0.064321 0.003529 0.199668 0.014935 0.044172 0.086599 0.026925 0.001905 0.004707 0.179742 ]
3
Num Evals 171
GenUC: 2.595081e-04
GenUB: 8.897233e-05
Optimisation 1.273772e-01
Total Time: 1.277461e-01
2 Flipped
Graph 1:
1 0 1 1 0 0 
1 1 0 0 1 0 
0 1 0 0 0 0 
1 1 0 1 0 0 
0 1 1 1 1 1 
0 0 1 1 0 0 
Graph 2:
0 0 1 1 0 1 
0 1 0 0 1 1 
0 0 0 0 1 0 
0 0 1 0 1 1 
1 1 1 1 1 0 
0 0 1 1 0 0 
Solution: 28 633
Classic Expectation: 17.666667
Initial Expecation: 12.421875
Gbest: 28.000000
Expectation: 15.576191
Final Parameters:
Gammas:
[ 0.116355 ]
Betas:
[ 0.290888 ]
Aggregate results:
[ 22 18 20 16 12 14 10 24 26 28 0 ]
[ 0.128450 0.205166 0.169519 0.162117 0.024360 0.069507 0.004157 0.055377 0.012476 0.004023 0.164848 ]
3
Num Evals 185
GenUC: 2.802594e-04
GenUB: 5.296688e-05
Optimisation 1.209573e-01
Total Time: 1.212928e-01
3 Add 6
Graph 1:
1 0 1 1 0 0 
1 1 0 0 1 0 
0 1 0 0 0 0 
1 1 0 1 0 0 
0 1 1 1 1 1 
0 0 1 1 0 0 
Graph 2:
1 1 1 1 1 0 
1 1 0 0 1 1 
1 1 0 0 1 0 
1 1 0 1 0 0 
1 1 1 1 1 1 
0 0 1 1 0 0 
Solution: 30 0
Classic Expectation: 17.800000
Initial Expecation: 12.515625
Gbest: 30.000000
Expectation: 13.655059
Final Parameters:
Gammas:
[ 0.349066 ]
Betas:
[ 2.617994 ]
Aggregate results:
[ 30 24 20 14 18 28 22 10 12 16 26 0 ]
[ 0.000834 0.021879 0.182764 0.070242 0.195858 0.000062 0.096658 0.005427 0.037329 0.133194 0.006896 0.248857 ]
3
Num Evals 23
GenUC: 2.798738e-04
GenUB: 5.205197e-05
Optimisation 1.531856e-02
Total Time: 1.566086e-02
4 Rem 6
Graph 1:
1 0 1 1 0 0 
1 1 0 0 1 0 
0 1 0 0 0 0 
1 1 0 1 0 0 
0 1 1 1 1 1 
0 0 1 1 0 0 
Graph 2:
1 0 1 1 0 0 
0 1 0 0 1 0 
0 1 0 0 0 0 
0 0 0 0 0 0 
0 1 0 1 1 1 
0 0 0 1 0 0 
Solution: 30 0
Classic Expectation: 18.933333
Initial Expecation: 13.312500
Gbest: 30.000000
Expectation: 16.738233
Final Parameters:
Gammas:
[ 0.088082 ]
Betas:
[ 0.310281 ]
Aggregate results:
[ 30 22 20 18 26 24 16 14 12 10 28 0 ]
[ 0.004047 0.148996 0.221242 0.208034 0.031897 0.064545 0.115789 0.047599 0.013356 0.001677 0.003393 0.139425 ]
3
Num Evals 495
GenUC: 2.796737e-04
GenUB: 5.067937e-05
Optimisation 3.522085e-01
Total Time: 3.525408e-01
5 Add/Rem 6
Graph 1:
1 0 1 1 0 0 
1 1 0 0 1 0 
0 1 0 0 0 0 
1 1 0 1 0 0 
0 1 1 1 1 1 
0 0 1 1 0 0 
Graph 2:
1 0 0 1 0 0 
0 1 0 1 0 1 
1 1 0 0 0 0 
1 0 0 0 0 1 
0 1 1 1 1 1 
0 0 1 0 1 0 
Solution: 27 45
Classic Expectation: 18.266667
Initial Expecation: 12.843750
Gbest: 27.000000
Expectation: 15.989850
Final Parameters:
Gammas:
[ 0.116355 ]
Betas:
[ 0.252103 ]
Aggregate results:
[ 25 23 21 19 17 15 13 27 11 7 9 0 ]
[ 0.046906 0.111647 0.188859 0.211196 0.148540 0.075465 0.025071 0.007273 0.006666 0.000499 0.001588 0.176290 ]
3
Num Evals 191
GenUC: 3.036343e-04
GenUB: 5.833170e-05
Optimisation 4.856423e-01
Total Time: 4.860078e-01
