Clock Speed: 3.688904
Num threads: 4
Trotterisation: 2
Num Qubits: 10
Space Dimension: 1024
Run-Type: 0
Num_samples: 6
Optimiser Method: 0
1 Isomorphic
Graph 1:
0 0 1 1 1 1 
0 0 0 1 1 0 
1 0 0 1 1 0 
1 1 1 0 1 1 
1 1 1 1 0 0 
1 0 0 1 0 0 
Graph 2:
0 0 1 1 1 1 
0 0 0 1 1 0 
1 0 0 1 1 0 
1 1 1 0 1 1 
1 1 1 1 0 0 
1 0 0 1 0 0 
Solution: 36 0
Classic Expectation: 22.666667
Initial Expecation: 15.937500
Gbest: 32.000000
Expectation: 23.004319
Final Parameters:
Gammas:
[ 4.783016 4.577120 ]
Betas:
[ 0.353615 2.970412 ]
Aggregate results:
[ 36 28 32 24 20 16 0 ]
[ 0.011947 0.342158 0.084287 0.349658 0.087415 0.009781 0.114753 ]
5
Num Evals 2400
GenUC: 2.601117e-04
GenUB: 9.216578e-05
Optimisation 2.436485e+00
Total Time: 2.436864e+00
2 Flipped
Graph 1:
0 0 1 1 1 1 
0 0 0 1 1 0 
1 0 0 1 1 0 
1 1 1 0 1 1 
1 1 1 1 0 0 
1 0 0 1 0 0 
Graph 2:
1 1 1 1 0 0 
0 1 1 0 0 0 
0 1 1 0 0 1 
1 1 0 1 1 1 
0 0 1 1 1 1 
0 0 1 0 0 1 
Solution: 20 72
Classic Expectation: 14.666667
Initial Expecation: 10.312500
Gbest: 18.000000
Expectation: 13.052518
Final Parameters:
Gammas:
[ 1.018521 5.235828 ]
Betas:
[ 0.155140 2.566417 ]
Aggregate results:
[ 12 14 16 18 10 8 20 0 ]
[ 0.187630 0.263403 0.205162 0.120686 0.049514 0.010307 0.054039 0.109259 ]
5
Num Evals 2400
GenUC: 2.799633e-04
GenUB: 6.100477e-05
Optimisation 2.313743e+00
Total Time: 2.314086e+00
3 Add 6
Graph 1:
0 0 1 1 1 1 
0 0 0 1 1 0 
1 0 0 1 1 0 
1 1 1 0 1 1 
1 1 1 1 0 0 
1 0 0 1 0 0 
Graph 2:
0 0 1 1 1 1 
0 0 1 1 1 1 
1 1 1 1 1 0 
1 1 1 1 1 1 
1 1 1 1 1 0 
1 1 0 1 0 0 
Solution: 29 0
Classic Expectation: 21.000000
Initial Expecation: 14.765625
Gbest: 25.000000
Expectation: 20.168190
Final Parameters:
Gammas:
[ 1.733679 5.910373 ]
Betas:
[ 2.521031 2.921810 ]
Aggregate results:
[ 29 25 21 17 0 ]
[ 0.026255 0.372226 0.412349 0.084814 0.104357 ]
5
Num Evals 2400
GenUC: 2.799762e-04
GenUB: 6.020191e-05
Optimisation 2.798194e+00
Total Time: 2.798537e+00
4 Rem 6
Graph 1:
0 0 1 1 1 1 
0 0 0 1 1 0 
1 0 0 1 1 0 
1 1 1 0 1 1 
1 1 1 1 0 0 
1 0 0 1 0 0 
Graph 2:
0 0 0 0 0 0 
0 0 0 0 0 0 
0 0 0 1 1 0 
0 0 1 0 1 1 
0 0 1 1 0 0 
0 0 0 1 0 0 
Solution: 24 0
Classic Expectation: 18.666667
Initial Expecation: 13.125000
Gbest: 24.000000
Expectation: 16.848150
Final Parameters:
Gammas:
[ 5.197203 1.056827 ]
Betas:
[ 0.155140 2.572744 ]
Aggregate results:
[ 24 20 16 12 8 0 ]
[ 0.179073 0.382989 0.239988 0.081340 0.009344 0.107267 ]
5
Num Evals 2400
GenUC: 2.795114e-04
GenUB: 6.058923e-05
Optimisation 2.456654e+00
Total Time: 2.456997e+00
5 Add/Rem 6
Graph 1:
0 0 1 1 1 1 
0 0 0 1 1 0 
1 0 0 1 1 0 
1 1 1 0 1 1 
1 1 1 1 0 0 
1 0 0 1 0 0 
Graph 2:
0 1 0 0 0 0 
1 0 1 0 0 1 
0 1 1 1 0 0 
0 0 1 1 1 1 
0 0 0 1 1 0 
0 1 0 1 0 0 
Solution: 25 44
Classic Expectation: 17.000000
Initial Expecation: 11.953125
Gbest: 25.000000
Expectation: 16.628178
Final Parameters:
Gammas:
[ 3.071526 4.587134 ]
Betas:
[ 0.164347 2.881651 ]
Aggregate results:
[ 13 17 9 21 25 0 ]
[ 0.068237 0.358322 0.009206 0.364053 0.076867 0.123316 ]
5
Num Evals 2400
GenUC: 2.797603e-04
GenUB: 6.054231e-05
Optimisation 2.467330e+00
Total Time: 2.467673e+00
