Clock Speed: 3.689001
Num threads: 4
Trotterisation: 2
Num Qubits: 10
Space Dimension: 1024
Run-Type: 0
Num_samples: 6
Optimiser Method: 0
1 Isomorphic
Graph 1:
0 0 0 0 0 0 
0 0 0 0 0 0 
0 0 0 0 0 0 
0 0 0 0 0 1 
0 0 0 0 0 1 
0 0 0 1 1 0 
Graph 2:
0 0 0 0 0 0 
0 0 0 0 0 0 
0 0 0 0 0 0 
0 0 0 0 0 1 
0 0 0 0 0 1 
0 0 0 1 1 0 
Solution: 36 0
Classic Expectation: 29.066667
Initial Expecation: 20.437500
Gbest: 28.000000
Expectation: 28.615646
Final Parameters:
Gammas:
[ 4.531056 4.994063 ]
Betas:
[ 0.698132 0.258567 ]
Aggregate results:
[ 36 32 28 0 ]
[ 0.031169 0.324158 0.611446 0.033226 ]
5
Num Evals 2400
GenUC: 2.585794e-04
GenUB: 8.767999e-05
Optimisation 1.826787e+01
Total Time: 1.826824e+01
2 Flipped
Graph 1:
0 0 0 0 0 0 
0 0 0 0 0 0 
0 0 0 0 0 0 
0 0 0 0 0 1 
0 0 0 0 0 1 
0 0 0 1 1 0 
Graph 2:
0 0 0 0 0 0 
0 0 0 0 0 0 
0 0 0 0 0 0 
1 0 0 0 0 0 
1 0 0 0 0 0 
0 1 1 0 0 0 
Solution: 32 60
Classic Expectation: 29.066667
Initial Expecation: 20.437500
Gbest: 32.000000
Expectation: 27.260681
Final Parameters:
Gammas:
[ 2.666010 2.429719 ]
Betas:
[ 2.365891 2.870097 ]
Aggregate results:
[ 28 30 32 0 ]
[ 0.274384 0.574936 0.072808 0.077872 ]
5
Num Evals 2400
GenUC: 2.796651e-04
GenUB: 5.953526e-05
Optimisation 2.490105e+01
Total Time: 2.490140e+01
3 Add 6
Graph 1:
0 0 0 0 0 0 
0 0 0 0 0 0 
0 0 0 0 0 0 
0 0 0 0 0 1 
0 0 0 0 0 1 
0 0 0 1 1 0 
Graph 2:
0 1 1 1 1 1 
1 1 0 0 1 0 
1 0 1 1 0 0 
1 0 1 0 0 1 
1 1 0 0 0 1 
1 0 0 1 1 0 
Solution: 20 0
Classic Expectation: 16.800000
Initial Expecation: 11.812500
Gbest: 20.000000
Expectation: 15.051220
Final Parameters:
Gammas:
[ 5.238536 1.021252 ]
Betas:
[ 0.193925 2.504751 ]
Aggregate results:
[ 20 16 12 0 ]
[ 0.340571 0.431147 0.111788 0.116494 ]
5
Num Evals 2400
GenUC: 2.792578e-04
GenUB: 6.045600e-05
Optimisation 2.115951e+01
Total Time: 2.115985e+01
4 Rem 6
Graph 1:
0 0 0 0 0 0 
0 0 0 0 0 0 
0 0 0 0 0 0 
0 0 0 0 0 1 
0 0 0 0 0 1 
0 0 0 1 1 0 
Graph 2:
0 0 0 0 0 0 
0 0 0 0 0 0 
0 0 0 0 0 0 
0 0 0 0 0 0 
0 0 0 0 0 0 
0 0 0 0 0 0 
Solution: 32 0
Classic Expectation: 32.000000
Initial Expecation: 22.500000
Gbest: 32.000000
Expectation: 31.297774
Final Parameters:
Gammas:
[ 4.546316 0.831877 ]
Betas:
[ 0.581776 0.387851 ]
Aggregate results:
[ 32 0 ]
[ 0.978055 0.021945 ]
5
Num Evals 2400
GenUC: 2.802836e-04
GenUB: 6.055049e-05
Optimisation 1.946698e+01
Total Time: 1.946732e+01
5 Add/Rem 6
Graph 1:
0 0 0 0 0 0 
0 0 0 0 0 0 
0 0 0 0 0 0 
0 0 0 0 0 1 
0 0 0 0 0 1 
0 0 0 1 1 0 
Graph 2:
0 1 1 1 1 1 
1 1 1 0 0 0 
1 1 1 0 0 0 
1 0 0 0 0 0 
1 0 0 0 0 0 
1 0 0 0 0 0 
Solution: 26 153
Classic Expectation: 21.200000
Initial Expecation: 14.906250
Gbest: 26.000000
Expectation: 22.037276
Final Parameters:
Gammas:
[ 1.762141 0.324592 ]
Betas:
[ 0.388888 0.235557 ]
Aggregate results:
[ 18 22 26 0 ]
[ 0.063291 0.245590 0.595964 0.095155 ]
5
Num Evals 2400
GenUC: 2.788429e-04
GenUB: 5.970192e-05
Optimisation 2.127733e+01
Total Time: 2.127768e+01
