Clock Speed: 3.689445
Num threads: 4
Trotterisation: 2
Num Qubits: 10
Space Dimension: 1024
Run-Type: 0
Num_samples: 6
Optimiser Method: 0
1 Isomorphic
Graph 1:
0 0 0 1 1 0 
0 0 1 1 0 0 
0 1 0 0 0 1 
1 1 0 0 0 1 
1 0 0 0 0 0 
0 0 1 1 0 0 
Graph 2:
0 0 0 1 1 0 
0 0 1 1 0 0 
0 1 0 0 0 1 
1 1 0 0 0 1 
1 0 0 0 0 0 
0 0 1 1 0 0 
Solution: 36 0
Classic Expectation: 21.600000
Initial Expecation: 15.187500
Gbest: 32.000000
Expectation: 22.744676
Final Parameters:
Gammas:
[ 4.774125 4.602504 ]
Betas:
[ 0.392163 2.956277 ]
Aggregate results:
[ 36 24 28 20 32 16 12 0 ]
[ 0.011879 0.354018 0.241363 0.146906 0.122452 0.011812 0.001403 0.110166 ]
5
Num Evals 2400
GenUC: 2.592597e-04
GenUB: 8.878368e-05
Optimisation 2.961865e+00
Total Time: 2.962241e+00
2 Flipped
Graph 1:
0 0 0 1 1 0 
0 0 1 1 0 0 
0 1 0 0 0 1 
1 1 0 0 0 1 
1 0 0 0 0 0 
0 0 1 1 0 0 
Graph 2:
0 1 1 0 0 0 
0 0 1 1 0 0 
1 0 0 0 1 0 
1 0 0 0 1 1 
0 0 0 0 0 1 
0 0 1 1 0 0 
Solution: 28 86
Classic Expectation: 21.600000
Initial Expecation: 15.187500
Gbest: 26.000000
Expectation: 19.769528
Final Parameters:
Gammas:
[ 0.341405 0.330870 ]
Betas:
[ 0.349146 0.218585 ]
Aggregate results:
[ 24 22 20 16 18 26 28 14 0 ]
[ 0.266294 0.166328 0.072470 0.014139 0.049850 0.219746 0.032710 0.036931 0.141531 ]
5
Num Evals 2400
GenUC: 2.797591e-04
GenUB: 6.162020e-05
Optimisation 2.691824e+00
Total Time: 2.692168e+00
3 Add 6
Graph 1:
0 0 0 1 1 0 
0 0 1 1 0 0 
0 1 0 0 0 1 
1 1 0 0 0 1 
1 0 0 0 0 0 
0 0 1 1 0 0 
Graph 2:
1 1 1 1 1 1 
1 1 1 1 1 0 
1 1 0 1 0 1 
1 1 1 0 0 1 
1 1 0 0 0 0 
1 0 1 1 0 0 
Solution: 24 0
Classic Expectation: 17.600000
Initial Expecation: 12.375000
Gbest: 20.000000
Expectation: 15.917817
Final Parameters:
Gammas:
[ 5.240404 1.021110 ]
Betas:
[ 0.155140 2.486343 ]
Aggregate results:
[ 24 16 20 12 8 0 ]
[ 0.067618 0.366087 0.363448 0.091385 0.009001 0.102461 ]
5
Num Evals 2400
GenUC: 2.797961e-04
GenUB: 6.137020e-05
Optimisation 2.800872e+00
Total Time: 2.801215e+00
4 Rem 6
Graph 1:
0 0 0 1 1 0 
0 0 1 1 0 0 
0 1 0 0 0 1 
1 1 0 0 0 1 
1 0 0 0 0 0 
0 0 1 1 0 0 
Graph 2:
0 0 0 0 0 0 
0 0 0 0 0 0 
0 0 0 0 0 0 
0 0 0 0 0 1 
0 0 0 0 0 0 
0 0 0 1 0 0 
Solution: 26 0
Classic Expectation: 23.600000
Initial Expecation: 16.593750
Gbest: 26.000000
Expectation: 22.408209
Final Parameters:
Gammas:
[ 3.350841 5.157336 ]
Betas:
[ 2.094395 0.232711 ]
Aggregate results:
[ 26 22 0 ]
[ 0.704983 0.185393 0.109624 ]
5
Num Evals 2400
GenUC: 2.802967e-04
GenUB: 6.135378e-05
Optimisation 2.748891e+00
Total Time: 2.749236e+00
5 Add/Rem 6
Graph 1:
0 0 0 1 1 0 
0 0 1 1 0 0 
0 1 0 0 0 1 
1 1 0 0 0 1 
1 0 0 0 0 0 
0 0 1 1 0 0 
Graph 2:
1 1 1 0 0 1 
1 0 0 1 1 0 
1 0 0 1 1 0 
0 1 1 0 0 1 
0 1 1 0 0 0 
1 0 0 1 0 0 
Solution: 31 49
Classic Expectation: 19.800000
Initial Expecation: 13.921875
Gbest: 27.000000
Expectation: 20.134780
Final Parameters:
Gammas:
[ 1.732401 3.128664 ]
Betas:
[ 2.094395 1.261671 ]
Aggregate results:
[ 15 19 11 23 27 31 0 ]
[ 0.068680 0.260978 0.007170 0.209544 0.238793 0.090329 0.124505 ]
5
Num Evals 2400
GenUC: 2.806241e-04
GenUB: 6.078277e-05
Optimisation 2.923114e+00
Total Time: 2.923458e+00
