Clock Speed: 3.498870
Num threads: 16
Trotterisation: 5
Num Qubits: 16
Space Dimension: 65536
Run-Type: 0
Num_samples: 64
Optimiser Method: 33
1 Isomorphic
Graph 1:
0 1 0 0 0 0 0 0 
0 1 1 1 0 0 1 1 
0 1 1 1 1 0 1 1 
1 0 1 1 0 0 1 1 
1 1 1 0 0 0 0 0 
0 0 0 0 0 1 0 1 
0 0 0 0 0 1 0 0 
1 0 1 0 1 0 1 0 
Graph 2:
0 1 0 0 0 0 0 0 
0 1 1 1 0 0 1 1 
0 1 1 1 1 0 1 1 
1 0 1 1 0 0 1 1 
1 1 1 0 0 0 0 0 
0 0 0 0 0 1 0 1 
0 0 0 0 0 1 0 0 
1 0 1 0 1 0 1 0 
Solution: 64 0
Classic Expectation: 32.892857
Initial Expecation: 20.236816
Gbest: 40.000000
Expectation: 20.236816
Final Parameters:
Gammas:
[ 3.141593 3.141593 3.141593 3.141593 3.141593 ]
Betas:
[ 1.570796 1.570796 1.570796 1.570796 1.570796 ]
Aggregate results:
[ 64 52 50 44 48 46 42 34 40 36 38 56 54 30 32 28 26 24 22 20 18 0 ]
[ 0.000015 0.000244 0.000397 0.005798 0.000839 0.002304 0.012909 0.108307 0.027191 0.083084 0.052139 0.000076 0.000031 0.095306 0.114548 0.061005 0.033112 0.012787 0.004089 0.000931 0.000122 0.384766 ]
4
Num Evals 3
GenUC: 1.890867e-02
GenUB: 1.296220e-02
Optimisation 1.267846e+00
Total Time: 1.299731e+00
2 Flipped
Graph 1:
0 1 0 0 0 0 0 0 
0 1 1 1 0 0 1 1 
0 1 1 1 1 0 1 1 
1 0 1 1 0 0 1 1 
1 1 1 0 0 0 0 0 
0 0 0 0 0 1 0 1 
0 0 0 0 0 1 0 0 
1 0 1 0 1 0 1 0 
Graph 2:
0 0 0 0 0 0 1 0 
1 1 0 0 1 1 1 0 
1 1 0 1 1 1 1 0 
1 1 0 0 1 1 0 1 
0 0 0 0 0 1 1 1 
1 0 1 0 0 0 0 0 
0 0 1 0 0 0 0 0 
0 1 0 1 0 1 0 1 
Solution: 48 25000
Classic Expectation: 32.535714
Initial Expecation: 20.017090
Gbest: 42.000000
Expectation: 20.017090
Final Parameters:
Gammas:
[ 3.141593 3.141593 3.141593 3.141593 3.141593 ]
Betas:
[ 1.570796 1.570796 1.570796 1.570796 1.570796 ]
Aggregate results:
[ 26 30 32 34 38 36 40 44 42 28 24 22 46 20 18 48 0 ]
[ 0.032654 0.099396 0.121933 0.113754 0.049072 0.082352 0.022568 0.002304 0.007843 0.064209 0.013474 0.004440 0.000381 0.000763 0.000076 0.000015 0.384766 ]
4
Num Evals 3
GenUC: 2.341413e-02
GenUB: 1.335683e-02
Optimisation 1.263092e+00
Total Time: 1.299868e+00
3 Add 8
Graph 1:
0 1 0 0 0 0 0 0 
0 1 1 1 0 0 1 1 
0 1 1 1 1 0 1 1 
1 0 1 1 0 0 1 1 
1 1 1 0 0 0 0 0 
0 0 0 0 0 1 0 1 
0 0 0 0 0 1 0 0 
1 0 1 0 1 0 1 0 
Graph 2:
0 1 0 0 0 1 0 0 
1 1 1 1 1 0 1 1 
0 1 1 1 1 0 1 1 
1 0 1 1 0 0 1 1 
1 1 1 0 0 0 0 0 
1 0 0 1 0 1 0 1 
0 0 0 0 1 1 0 0 
1 1 1 0 1 0 1 0 
Solution: 57 0
Classic Expectation: 31.642857
Initial Expecation: 19.467773
Gbest: 41.000000
Expectation: 19.467773
Final Parameters:
Gammas:
[ 3.141593 3.141593 3.141593 3.141593 3.141593 ]
Betas:
[ 1.570796 1.570796 1.570796 1.570796 1.570796 ]
Aggregate results:
[ 57 47 43 45 39 41 37 31 49 35 33 51 29 27 53 25 23 21 19 17 0 ]
[ 0.000015 0.000580 0.004211 0.001373 0.025070 0.010925 0.048859 0.117126 0.000183 0.079361 0.109482 0.000076 0.100189 0.064789 0.000015 0.034561 0.012833 0.004318 0.001007 0.000259 0.384766 ]
4
Num Evals 3
GenUC: 2.331960e-02
GenUB: 1.333307e-02
Optimisation 1.267411e+00
Total Time: 1.304068e+00
4 Rem 8
Graph 1:
0 1 0 0 0 0 0 0 
0 1 1 1 0 0 1 1 
0 1 1 1 1 0 1 1 
1 0 1 1 0 0 1 1 
1 1 1 0 0 0 0 0 
0 0 0 0 0 1 0 1 
0 0 0 0 0 1 0 0 
1 0 1 0 1 0 1 0 
Graph 2:
0 0 0 0 0 0 0 0 
0 1 0 1 0 0 1 0 
0 1 1 1 1 0 1 1 
0 0 1 1 0 0 1 1 
1 1 0 0 0 0 0 0 
0 0 0 0 0 1 0 1 
0 0 0 0 0 0 0 0 
0 0 0 0 1 0 1 0 
Solution: 56 0
Classic Expectation: 34.321429
Initial Expecation: 21.115723
Gbest: 46.000000
Expectation: 21.115723
Final Parameters:
Gammas:
[ 3.141593 3.141593 3.141593 3.141593 3.141593 ]
Betas:
[ 1.570796 1.570796 1.570796 1.570796 1.570796 ]
Aggregate results:
[ 56 50 44 46 48 40 42 36 38 34 32 52 30 28 26 24 22 0 ]
[ 0.000015 0.000107 0.007584 0.002869 0.000565 0.043869 0.020401 0.106812 0.075806 0.121902 0.109421 0.000107 0.072769 0.037018 0.012466 0.003204 0.000320 0.384766 ]
4
Num Evals 3
GenUC: 2.336237e-02
GenUB: 1.320338e-02
Optimisation 1.279183e+00
Total Time: 1.315753e+00
5 Add/Rem 8
Graph 1:
0 1 0 0 0 0 0 0 
0 1 1 1 0 0 1 1 
0 1 1 1 1 0 1 1 
1 0 1 1 0 0 1 1 
1 1 1 0 0 0 0 0 
0 0 0 0 0 1 0 1 
0 0 0 0 0 1 0 0 
1 0 1 0 1 0 1 0 
Graph 2:
1 0 0 0 0 1 0 0 
0 1 1 1 0 0 1 1 
0 1 1 1 1 0 1 1 
0 0 0 1 0 0 1 1 
0 0 1 1 1 1 0 0 
0 0 0 0 0 1 0 0 
1 0 0 0 0 1 0 1 
1 0 1 0 1 0 1 1 
Solution: 50 0
Classic Expectation: 33.071429
Initial Expecation: 20.346680
Gbest: 40.000000
Expectation: 20.346680
Final Parameters:
Gammas:
[ 3.141593 3.141593 3.141593 3.141593 3.141593 ]
Betas:
[ 1.570796 1.570796 1.570796 1.570796 1.570796 ]
Aggregate results:
[ 50 44 40 36 42 38 46 30 32 34 28 26 24 22 48 20 18 0 ]
[ 0.000061 0.003769 0.028687 0.086700 0.011963 0.053604 0.001129 0.098801 0.123215 0.115234 0.058670 0.024734 0.007080 0.001221 0.000107 0.000244 0.000015 0.384766 ]
4
Num Evals 3
GenUC: 2.330038e-02
GenUB: 1.335160e-02
Optimisation 1.265815e+00
Total Time: 1.302472e+00
