Clock Speed: 3.498545
Num threads: 16
Trotterisation: 5
Num Qubits: 16
Space Dimension: 65536
Run-Type: 0
Num_samples: 64
Optimiser Method: 33
1 Isomorphic
Graph 1:
1 0 1 0 1 0 0 1 
0 1 1 0 0 0 1 0 
0 0 1 0 0 0 0 0 
1 1 0 0 1 1 1 0 
0 1 1 0 1 0 1 1 
1 0 1 1 1 0 1 1 
1 1 0 1 1 1 0 1 
1 1 1 0 0 1 0 1 
Graph 2:
1 0 1 0 1 0 0 1 
0 1 1 0 0 0 1 0 
0 0 1 0 0 0 0 0 
1 1 0 0 1 1 1 0 
0 1 1 0 1 0 1 1 
1 0 1 1 1 0 1 1 
1 1 0 1 1 1 0 1 
1 1 1 0 0 1 0 1 
Solution: 64 0
Classic Expectation: 32.392857
Initial Expecation: 19.929199
Gbest: 42.000000
Expectation: 19.929199
Final Parameters:
Gammas:
[ 3.141593 3.141593 3.141593 3.141593 3.141593 ]
Betas:
[ 1.570796 1.570796 1.570796 1.570796 1.570796 ]
Aggregate results:
[ 64 48 54 44 50 36 46 52 42 34 38 40 56 58 30 26 32 24 28 22 20 18 16 14 0 ]
[ 0.000015 0.001877 0.000153 0.009644 0.000992 0.065155 0.004593 0.000290 0.017349 0.086243 0.047058 0.030045 0.000046 0.000015 0.092926 0.050613 0.094620 0.023788 0.076706 0.009659 0.002625 0.000671 0.000122 0.000031 0.384766 ]
4
Num Evals 3
GenUC: 1.890787e-02
GenUB: 1.324587e-02
Optimisation 1.369022e+00
Total Time: 1.401190e+00
2 Flipped
Graph 1:
1 0 1 0 1 0 0 1 
0 1 1 0 0 0 1 0 
0 0 1 0 0 0 0 0 
1 1 0 0 1 1 1 0 
0 1 1 0 1 0 1 1 
1 0 1 1 1 0 1 1 
1 1 0 1 1 1 0 1 
1 1 1 0 0 1 0 1 
Graph 2:
1 0 0 1 0 1 0 1 
0 1 0 0 0 1 1 0 
0 0 0 0 0 1 0 0 
0 1 1 1 0 0 1 1 
1 1 0 1 0 1 1 0 
1 1 0 1 1 1 0 1 
1 0 1 1 1 0 1 1 
1 0 1 0 0 1 1 1 
Solution: 50 26
Classic Expectation: 32.571429
Initial Expecation: 20.039062
Gbest: 40.000000
Expectation: 20.039062
Final Parameters:
Gammas:
[ 3.141593 3.141593 3.141593 3.141593 3.141593 ]
Betas:
[ 1.570796 1.570796 1.570796 1.570796 1.570796 ]
Aggregate results:
[ 34 26 38 32 36 42 40 48 50 44 46 30 28 22 24 20 18 0 ]
[ 0.115173 0.033005 0.046631 0.121994 0.083023 0.008087 0.022812 0.000153 0.000031 0.002136 0.000504 0.102219 0.064056 0.002899 0.012054 0.000412 0.000046 0.384766 ]
4
Num Evals 3
GenUC: 2.342821e-02
GenUB: 1.334590e-02
Optimisation 1.380401e+00
Total Time: 1.417179e+00
3 Add 8
Graph 1:
1 0 1 0 1 0 0 1 
0 1 1 0 0 0 1 0 
0 0 1 0 0 0 0 0 
1 1 0 0 1 1 1 0 
0 1 1 0 1 0 1 1 
1 0 1 1 1 0 1 1 
1 1 0 1 1 1 0 1 
1 1 1 0 0 1 0 1 
Graph 2:
1 0 1 0 1 0 1 1 
0 1 1 0 0 0 1 0 
0 0 1 0 1 0 0 0 
1 1 1 0 1 1 1 0 
0 1 1 0 1 0 1 1 
1 0 1 1 1 1 1 1 
1 1 1 1 1 1 0 1 
1 1 1 0 1 1 0 1 
Solution: 58 0
Classic Expectation: 33.000000
Initial Expecation: 20.302734
Gbest: 40.000000
Expectation: 20.302734
Final Parameters:
Gammas:
[ 3.141593 3.141593 3.141593 3.141593 3.141593 ]
Betas:
[ 1.570796 1.570796 1.570796 1.570796 1.570796 ]
Aggregate results:
[ 58 48 50 44 46 38 42 40 36 52 32 30 28 34 26 24 22 20 18 16 54 0 ]
[ 0.000015 0.001099 0.000259 0.008957 0.003250 0.057098 0.019958 0.037537 0.077194 0.000076 0.097931 0.087280 0.065475 0.092972 0.040985 0.018433 0.005356 0.001129 0.000168 0.000031 0.000031 0.384766 ]
4
Num Evals 3
GenUC: 2.332090e-02
GenUB: 1.352282e-02
Optimisation 1.378479e+00
Total Time: 1.415327e+00
4 Rem 8
Graph 1:
1 0 1 0 1 0 0 1 
0 1 1 0 0 0 1 0 
0 0 1 0 0 0 0 0 
1 1 0 0 1 1 1 0 
0 1 1 0 1 0 1 1 
1 0 1 1 1 0 1 1 
1 1 0 1 1 1 0 1 
1 1 1 0 0 1 0 1 
Graph 2:
1 0 1 0 1 0 0 1 
0 1 0 0 0 0 1 0 
0 0 1 0 0 0 0 0 
1 1 0 0 1 0 0 0 
0 1 0 0 1 0 1 1 
1 0 1 0 1 0 1 0 
1 1 0 1 1 1 0 1 
1 1 1 0 0 0 0 1 
Solution: 57 0
Classic Expectation: 31.892857
Initial Expecation: 19.621582
Gbest: 39.000000
Expectation: 19.621582
Final Parameters:
Gammas:
[ 3.141593 3.141593 3.141593 3.141593 3.141593 ]
Betas:
[ 1.570796 1.570796 1.570796 1.570796 1.570796 ]
Aggregate results:
[ 57 43 49 39 45 47 33 37 41 35 31 29 53 51 25 27 23 21 19 17 15 13 0 ]
[ 0.000015 0.008026 0.000275 0.032242 0.003189 0.001160 0.100723 0.054672 0.017502 0.079300 0.103577 0.089081 0.000015 0.000046 0.034866 0.061905 0.017349 0.007477 0.002914 0.000763 0.000122 0.000015 0.384766 ]
4
Num Evals 3
GenUC: 2.332913e-02
GenUB: 1.345152e-02
Optimisation 1.373349e+00
Total Time: 1.410134e+00
5 Add/Rem 8
Graph 1:
1 0 1 0 1 0 0 1 
0 1 1 0 0 0 1 0 
0 0 1 0 0 0 0 0 
1 1 0 0 1 1 1 0 
0 1 1 0 1 0 1 1 
1 0 1 1 1 0 1 1 
1 1 0 1 1 1 0 1 
1 1 1 0 0 1 0 1 
Graph 2:
1 0 1 0 0 1 1 0 
0 1 0 0 0 0 1 0 
0 0 1 1 0 0 0 0 
1 1 0 1 1 1 1 0 
0 0 1 1 1 1 1 1 
1 1 0 1 1 0 0 1 
0 1 1 1 1 0 0 1 
1 1 1 0 0 1 0 1 
Solution: 50 5042
Classic Expectation: 32.571429
Initial Expecation: 20.039062
Gbest: 40.000000
Expectation: 20.039062
Final Parameters:
Gammas:
[ 3.141593 3.141593 3.141593 3.141593 3.141593 ]
Betas:
[ 1.570796 1.570796 1.570796 1.570796 1.570796 ]
Aggregate results:
[ 48 38 46 42 40 44 34 36 30 32 28 26 24 22 20 18 50 16 0 ]
[ 0.000366 0.051926 0.001495 0.013062 0.030151 0.005188 0.099289 0.079224 0.093094 0.106522 0.067947 0.039307 0.018616 0.007141 0.001541 0.000305 0.000046 0.000015 0.384766 ]
4
Num Evals 3
GenUC: 2.333764e-02
GenUB: 1.337729e-02
Optimisation 1.372492e+00
Total Time: 1.409212e+00
