Clock Speed: 3.689099
Num threads: 4
Trotterisation: 1
Num Qubits: 3
Space Dimension: 8
Run-Type: 0
Num_samples: 3
Optimiser Method: 0
1 Isomorphic
Graph 1:
0 0 1 
0 0 1 
1 1 0 
Graph 2:
0 0 1 
0 0 1 
1 1 0 
Solution: 9 0
Classic Expectation: 6.333333
Initial Expecation: 4.750000
Gbest: 5.000000
Expectation: 6.967456
Final Parameters:
Gammas:
[ 5.942506 ]
Betas:
[ 2.356195 ]
Aggregate results:
[ 9 5 0 ]
[ 0.494607 0.503198 0.002195 ]
5
Num Evals 600
GenUC: 2.668938e-06
GenUB: 7.472816e-06
Optimisation 3.697874e-02
Total Time: 3.701620e-02
2 Flipped
Graph 1:
0 0 1 
0 0 1 
1 1 0 
Graph 2:
1 0 0 
1 0 0 
0 1 1 
Solution: 5 1
Classic Expectation: 3.666667
Initial Expecation: 2.750000
Gbest: 5.000000
Expectation: 4.103448
Final Parameters:
Gammas:
[ 5.859203 ]
Betas:
[ 2.442524 ]
Aggregate results:
[ 3 5 0 ]
[ 0.380079 0.592642 0.027279 ]
5
Num Evals 600
GenUC: 2.416025e-06
GenUB: 8.373754e-07
Optimisation 3.755274e-02
Total Time: 3.755755e-02
3 Add 3
Graph 1:
0 0 1 
0 0 1 
1 1 0 
Graph 2:
1 1 1 
1 0 1 
1 1 1 
Solution: 5 0
Classic Expectation: 5.000000
Initial Expecation: 3.750000
Gbest: 5.000000
Expectation: 5.000000
Final Parameters:
Gammas:
[ 0.942478 ]
Betas:
[ 2.356195 ]
Aggregate results:
[ 5 0 ]
[ 1.000000 0.000000 ]
5
Num Evals 600
GenUC: 2.404267e-06
GenUB: 6.032642e-07
Optimisation 3.787769e-02
Total Time: 3.788208e-02
4 Rem 3
Graph 1:
0 0 1 
0 0 1 
1 1 0 
Graph 2:
0 0 0 
0 0 0 
0 0 0 
Solution: 5 0
Classic Expectation: 5.000000
Initial Expecation: 3.750000
Gbest: 5.000000
Expectation: 5.000000
Final Parameters:
Gammas:
[ 0.942478 ]
Betas:
[ 2.356195 ]
Aggregate results:
[ 5 0 ]
[ 1.000000 0.000000 ]
5
Num Evals 600
GenUC: 2.511078e-06
GenUB: 7.400522e-07
Optimisation 3.855669e-02
Total Time: 3.856110e-02
5 Add/Rem 3
Graph 1:
0 0 1 
0 0 1 
1 1 0 
Graph 2:
1 1 0 
1 0 0 
0 0 1 
Solution: 5 1
Classic Expectation: 3.666667
Initial Expecation: 2.750000
Gbest: 5.000000
Expectation: 4.967456
Final Parameters:
Gammas:
[ 0.340683 ]
Betas:
[ 0.785394 ]
Aggregate results:
[ 1 5 0 ]
[ 0.005392 0.992413 0.002195 ]
5
Num Evals 600
GenUC: 2.369052e-06
GenUB: 5.809707e-07
Optimisation 3.521103e-02
Total Time: 3.521512e-02
