Clock Speed: 3.688045
Num threads: 4
Trotterisation: 1
Num Qubits: 3
Space Dimension: 8
Run-Type: 0
Num_samples: 3
Optimiser Method: 0
1 Isomorphic
Graph 1:
0 1 0 
1 0 0 
0 0 0 
Graph 2:
0 1 0 
1 0 0 
0 0 0 
Solution: 9 0
Classic Expectation: 6.333333
Initial Expecation: 4.750000
Gbest: 9.000000
Expectation: 6.967456
Final Parameters:
Gammas:
[ 5.942506 ]
Betas:
[ 2.356195 ]
Aggregate results:
[ 9 5 0 ]
[ 0.494607 0.503198 0.002195 ]
5
Num Evals 600
GenUC: 2.586188e-06
GenUB: 8.484472e-06
Optimisation 1.904378e+00
Total Time: 1.904415e+00
2 Flipped
Graph 1:
0 1 0 
1 0 0 
0 0 0 
Graph 2:
0 1 0 
0 0 1 
0 0 0 
Solution: 7 0
Classic Expectation: 6.333333
Initial Expecation: 4.750000
Gbest: 7.000000
Expectation: 6.445769
Final Parameters:
Gammas:
[ 0.268844 ]
Betas:
[ 0.731960 ]
Aggregate results:
[ 7 5 0 ]
[ 0.749308 0.240122 0.010570 ]
5
Num Evals 600
GenUC: 2.603796e-06
GenUB: 1.080953e-06
Optimisation 1.514594e+00
Total Time: 1.514601e+00
3 Add 3
Graph 1:
0 1 0 
1 0 0 
0 0 0 
Graph 2:
1 1 1 
1 1 0 
1 0 0 
Solution: 5 0
Classic Expectation: 3.666667
Initial Expecation: 2.750000
Gbest: 5.000000
Expectation: 4.281459
Final Parameters:
Gammas:
[ 0.372642 ]
Betas:
[ 0.568561 ]
Aggregate results:
[ 5 1 0 ]
[ 0.845387 0.054523 0.100090 ]
5
Num Evals 600
GenUC: 2.635483e-06
GenUB: 8.473871e-07
Optimisation 1.437903e+00
Total Time: 1.437909e+00
4 Rem 3
Graph 1:
0 1 0 
1 0 0 
0 0 0 
Graph 2:
0 0 0 
0 0 0 
0 0 0 
Solution: 7 0
Classic Expectation: 7.000000
Initial Expecation: 5.250000
Gbest: 7.000000
Expectation: 7.000000
Final Parameters:
Gammas:
[ 3.814791 ]
Betas:
[ 0.785398 ]
Aggregate results:
[ 7 0 ]
[ 1.000000 0.000000 ]
5
Num Evals 600
GenUC: 2.787470e-06
GenUB: 8.550196e-07
Optimisation 9.985704e-01
Total Time: 9.985767e-01
5 Add/Rem 3
Graph 1:
0 1 0 
1 0 0 
0 0 0 
Graph 2:
1 0 1 
0 1 0 
1 0 0 
Solution: 7 1
Classic Expectation: 4.333333
Initial Expecation: 3.250000
Gbest: 7.000000
Expectation: 5.540179
Final Parameters:
Gammas:
[ 0.334275 ]
Betas:
[ 0.668045 ]
Aggregate results:
[ 3 7 0 ]
[ 0.259670 0.680167 0.060163 ]
5
Num Evals 600
GenUC: 2.711182e-06
GenUB: 1.143155e-06
Optimisation 1.146482e+00
Total Time: 1.146488e+00
