Clock Speed: 3.498607
Num threads: 16
Trotterisation: 1
Num Qubits: 13
Space Dimension: 8192
Run-Type: 0
Num_samples: 49
Optimiser Method: 33
1 Isomorphic
Graph 1:
0 0 1 0 1 0 1 
0 0 0 0 0 0 1 
1 0 0 1 0 1 1 
0 0 0 1 1 0 1 
1 0 0 1 1 0 0 
1 1 0 1 0 0 1 
0 1 1 0 0 1 1 
Graph 2:
0 0 1 0 1 0 1 
0 0 0 0 0 0 1 
1 0 0 1 0 1 1 
0 0 0 1 1 0 1 
1 0 0 1 1 0 0 
1 1 0 1 0 0 1 
0 1 1 0 0 1 1 
Solution: 49 0
Classic Expectation: 24.761905
Initial Expecation: 15.234375
Gbest: 49.000000
Expectation: 15.234375
Final Parameters:
Gammas:
[ 3.141593 ]
Betas:
[ 1.570796 ]
Aggregate results:
[ 49 35 27 33 39 29 31 25 23 21 43 19 17 41 37 15 45 13 0 ]
[ 0.000122 0.003784 0.091309 0.012329 0.000854 0.073486 0.032227 0.128906 0.116699 0.090698 0.000122 0.046631 0.013916 0.000488 0.001953 0.001343 0.000122 0.000244 0.384766 ]
4
Num Evals 3
GenUC: 2.258501e-03
GenUB: 1.282039e-03
Optimisation 9.019344e-02
Total Time: 9.374430e-02
2 Flipped
Graph 1:
0 0 1 0 1 0 1 
0 0 0 0 0 0 1 
1 0 0 1 0 1 1 
0 0 0 1 1 0 1 
1 0 0 1 1 0 0 
1 1 0 1 0 0 1 
0 1 1 0 0 1 1 
Graph 2:
1 0 1 0 1 0 0 
1 0 0 0 0 0 0 
1 1 0 1 0 0 1 
1 0 1 1 0 0 0 
0 0 1 1 0 0 1 
1 0 0 1 0 1 1 
1 1 0 0 1 1 0 
Solution: 43 4529
Classic Expectation: 24.761905
Initial Expecation: 15.234375
Gbest: 31.000000
Expectation: 15.234375
Final Parameters:
Gammas:
[ 3.141593 ]
Betas:
[ 1.570796 ]
Aggregate results:
[ 29 33 19 23 27 21 25 31 17 35 15 13 37 39 43 0 ]
[ 0.068726 0.009155 0.038818 0.124634 0.110229 0.079956 0.134888 0.029663 0.011719 0.002930 0.002930 0.000732 0.000488 0.000244 0.000122 0.384766 ]
4
Num Evals 3
GenUC: 2.821689e-03
GenUB: 1.270346e-03
Optimisation 2.809308e-02
Total Time: 3.218705e-02
3 Add 7
Graph 1:
0 0 1 0 1 0 1 
0 0 0 0 0 0 1 
1 0 0 1 0 1 1 
0 0 0 1 1 0 1 
1 0 0 1 1 0 0 
1 1 0 1 0 0 1 
0 1 1 0 0 1 1 
Graph 2:
0 0 1 0 1 0 1 
0 0 0 1 0 0 1 
1 1 0 1 1 1 1 
1 0 0 1 1 0 1 
1 0 1 1 1 0 0 
1 1 0 1 1 1 1 
0 1 1 0 0 1 1 
Solution: 42 0
Classic Expectation: 24.047619
Initial Expecation: 14.794922
Gbest: 32.000000
Expectation: 14.794922
Final Parameters:
Gammas:
[ 3.141593 ]
Betas:
[ 1.570796 ]
Aggregate results:
[ 42 30 32 26 38 28 24 34 22 20 18 16 36 12 14 0 ]
[ 0.000122 0.031372 0.012329 0.115112 0.000488 0.070557 0.143311 0.003784 0.120483 0.072754 0.032837 0.009888 0.000610 0.000122 0.001465 0.384766 ]
4
Num Evals 40
GenUC: 2.865586e-03
GenUB: 1.295004e-03
Optimisation 3.529841e-01
Total Time: 3.571465e-01
4 Rem 7
Graph 1:
0 0 1 0 1 0 1 
0 0 0 0 0 0 1 
1 0 0 1 0 1 1 
0 0 0 1 1 0 1 
1 0 0 1 1 0 0 
1 1 0 1 0 0 1 
0 1 1 0 0 1 1 
Graph 2:
0 0 1 0 1 0 0 
0 0 0 0 0 0 1 
1 0 0 1 0 0 1 
0 0 0 1 1 0 0 
1 0 0 0 0 0 0 
1 1 0 1 0 0 0 
0 1 1 0 0 1 0 
Solution: 42 0
Classic Expectation: 25.523810
Initial Expecation: 15.703125
Gbest: 32.000000
Expectation: 15.703125
Final Parameters:
Gammas:
[ 3.290210 ]
Betas:
[ 1.570796 ]
Aggregate results:
[ 42 34 32 24 30 28 26 22 20 36 38 18 14 16 0 ]
[ 0.000122 0.007690 0.026978 0.129272 0.064575 0.105957 0.132202 0.084595 0.045410 0.001709 0.000244 0.013062 0.000244 0.003174 0.384766 ]
3
Num Evals 40
GenUC: 2.883774e-03
GenUB: 1.277411e-03
Optimisation 3.516864e-01
Total Time: 3.558494e-01
5 Add/Rem 7
Graph 1:
0 0 1 0 1 0 1 
0 0 0 0 0 0 1 
1 0 0 1 0 1 1 
0 0 0 1 1 0 1 
1 0 0 1 1 0 0 
1 1 0 1 0 0 1 
0 1 1 0 0 1 1 
Graph 2:
1 1 1 0 1 0 1 
1 0 0 0 1 0 1 
1 1 0 1 0 0 1 
1 0 0 1 1 0 1 
0 0 0 1 0 0 0 
1 0 0 0 0 0 1 
0 1 1 1 0 0 0 
Solution: 39 1313
Classic Expectation: 24.809524
Initial Expecation: 15.263672
Gbest: 35.000000
Expectation: 16.590223
Final Parameters:
Gammas:
[ 4.515160 ]
Betas:
[ 0.890482 ]
Aggregate results:
[ 35 27 29 21 31 23 25 17 19 15 33 37 39 13 0 ]
[ 0.004075 0.121778 0.067825 0.092236 0.031290 0.127096 0.149560 0.012951 0.040412 0.003268 0.016670 0.000687 0.000226 0.000169 0.331758 ]
3
Num Evals 32
GenUC: 2.880554e-03
GenUB: 1.191028e-03
Optimisation 2.276444e-01
Total Time: 2.317177e-01
