Clock Speed: 3.688929
Num threads: 4
Trotterisation: 2
Num Qubits: 5
Space Dimension: 32
Run-Type: 0
Num_samples: 4
Optimiser Method: 0
1 Isomorphic
Graph 1:
0 0 0 0 
0 0 0 0 
0 0 0 1 
0 0 1 0 
Graph 2:
0 0 0 0 
0 0 0 0 
0 0 0 1 
0 0 1 0 
Solution: 16 0
Classic Expectation: 12.666667
Initial Expecation: 9.500000
Gbest: 16.000000
Expectation: 13.675391
Final Parameters:
Gammas:
[ 1.772800 1.141834 ]
Betas:
[ 1.047198 2.676172 ]
Aggregate results:
[ 16 12 0 ]
[ 0.419423 0.580385 0.000192 ]
5
Num Evals 1600
GenUC: 8.159390e-06
GenUB: 8.613017e-06
Optimisation 8.259530e+00
Total Time: 8.259573e+00
2 Flipped
Graph 1:
0 0 0 0 
0 0 0 0 
0 0 0 1 
0 0 1 0 
Graph 2:
0 0 0 0 
0 0 0 0 
1 0 0 0 
0 1 0 0 
Solution: 14 2
Classic Expectation: 12.666667
Initial Expecation: 9.500000
Gbest: 14.000000
Expectation: 13.018178
Final Parameters:
Gammas:
[ 0.349066 5.951357 ]
Betas:
[ 2.217215 2.850704 ]
Aggregate results:
[ 12 14 0 ]
[ 0.426547 0.564258 0.009195 ]
5
Num Evals 1600
GenUC: 9.135299e-06
GenUB: 1.722372e-06
Optimisation 7.734254e+00
Total Time: 7.734267e+00
3 Add 4
Graph 1:
0 0 0 0 
0 0 0 0 
0 0 0 1 
0 0 1 0 
Graph 2:
1 1 1 1 
1 0 1 0 
1 1 0 1 
1 0 1 0 
Solution: 7 0
Classic Expectation: 6.333333
Initial Expecation: 4.750000
Gbest: 7.000000
Expectation: 6.970718
Final Parameters:
Gammas:
[ 0.349350 5.183388 ]
Betas:
[ 0.754146 0.465412 ]
Aggregate results:
[ 7 3 0 ]
[ 0.993574 0.005234 0.001192 ]
5
Num Evals 1600
GenUC: 9.469208e-06
GenUB: 1.668966e-06
Optimisation 1.066791e+01
Total Time: 1.066793e+01
4 Rem 4
Graph 1:
0 0 0 0 
0 0 0 0 
0 0 0 1 
0 0 1 0 
Graph 2:
0 0 0 0 
0 0 0 0 
0 0 0 0 
0 0 0 0 
Solution: 14 0
Classic Expectation: 14.000000
Initial Expecation: 10.500000
Gbest: 14.000000
Expectation: 14.000000
Final Parameters:
Gammas:
[ 1.050792 5.934119 ]
Betas:
[ 2.299072 1.862758 ]
Aggregate results:
[ 14 0 ]
[ 1.000000 0.000000 ]
5
Num Evals 1600
GenUC: 8.788476e-06
GenUB: 1.691267e-06
Optimisation 9.144697e+00
Total Time: 9.144710e+00
5 Add/Rem 4
Graph 1:
0 0 0 0 
0 0 0 0 
0 0 0 1 
0 0 1 0 
Graph 2:
0 1 1 1 
1 0 1 0 
1 1 0 0 
1 0 0 0 
Solution: 10 4
Classic Expectation: 8.666667
Initial Expecation: 6.500000
Gbest: 10.000000
Expectation: 9.795061
Final Parameters:
Gammas:
[ 5.212898 2.449526 ]
Betas:
[ 0.564193 0.271522 ]
Aggregate results:
[ 6 10 0 ]
[ 0.051087 0.948854 0.000059 ]
5
Num Evals 1600
GenUC: 9.042582e-06
GenUB: 1.570967e-06
Optimisation 7.969246e+00
Total Time: 7.969260e+00
