Clock Speed: 3.498721
Num threads: 16
Trotterisation: 1
Num Qubits: 10
Space Dimension: 1024
Run-Type: 0
Num_samples: 36
Optimiser Method: 20
1 Isomorphic
Graph 1:
0 0 1 0 0 1 
0 0 0 0 1 0 
0 0 0 0 1 0 
0 1 1 1 0 0 
0 0 1 0 0 0 
0 1 1 1 0 1 
Graph 2:
0 0 1 0 0 1 
0 0 0 0 1 0 
0 0 0 0 1 0 
0 1 1 1 0 0 
0 0 1 0 0 0 
0 1 1 1 0 1 
Solution: 36 0
Classic Expectation: 20.000000
Initial Expecation: 14.062500
Gbest: 28.000000
Expectation: 17.505793
Final Parameters:
Gammas:
[ 6.049493 ]
Betas:
[ 0.522064 ]
Aggregate results:
[ 36 24 26 32 16 22 18 20 28 14 12 30 0 ]
[ 0.000560 0.108338 0.030400 0.001411 0.090844 0.159352 0.162453 0.250547 0.014239 0.036346 0.001177 0.007799 0.136534 ]
5
Num Evals 1200
GenUC: 5.129147e-04
GenUB: 1.268527e-04
Optimisation 7.861699e-01
Total Time: 7.868186e-01
2 Flipped
Graph 1:
0 0 1 0 0 1 
0 0 0 0 1 0 
0 0 0 0 1 0 
0 1 1 1 0 0 
0 0 1 0 0 0 
0 1 1 1 0 1 
Graph 2:
1 0 0 1 0 0 
0 1 0 0 0 0 
0 1 0 0 0 0 
0 0 1 1 1 0 
0 0 0 1 0 0 
1 0 1 1 1 0 
Solution: 28 671
Classic Expectation: 20.000000
Initial Expecation: 14.062500
Gbest: 26.000000
Expectation: 18.007791
Final Parameters:
Gammas:
[ 2.918946 ]
Betas:
[ 0.513538 ]
Aggregate results:
[ 20 18 22 16 24 14 26 28 0 ]
[ 0.259298 0.177024 0.231272 0.061863 0.112331 0.007432 0.025352 0.003517 0.121912 ]
5
Num Evals 1200
GenUC: 3.585848e-04
GenUB: 1.430297e-04
Optimisation 1.001739e+00
Total Time: 1.002243e+00
3 Add 6
Graph 1:
0 0 1 0 0 1 
0 0 0 0 1 0 
0 0 0 0 1 0 
0 1 1 1 0 0 
0 0 1 0 0 0 
0 1 1 1 0 1 
Graph 2:
0 0 1 0 0 1 
0 1 0 0 1 0 
0 0 0 0 1 1 
0 1 1 1 0 0 
0 0 1 0 1 1 
0 1 1 1 0 1 
Solution: 32 0
Classic Expectation: 18.666667
Initial Expecation: 13.125000
Gbest: 24.000000
Expectation: 16.439356
Final Parameters:
Gammas:
[ 6.189018 ]
Betas:
[ 2.829099 ]
Aggregate results:
[ 32 24 28 20 14 16 18 22 26 12 0 ]
[ 0.003142 0.061578 0.007191 0.212334 0.050264 0.131346 0.230437 0.131990 0.011472 0.021480 0.138766 ]
5
Num Evals 1200
GenUC: 3.576246e-04
GenUB: 1.301616e-04
Optimisation 1.132528e+00
Total Time: 1.133018e+00
4 Rem 6
Graph 1:
0 0 1 0 0 1 
0 0 0 0 1 0 
0 0 0 0 1 0 
0 1 1 1 0 0 
0 0 1 0 0 0 
0 1 1 1 0 1 
Graph 2:
0 0 0 0 0 0 
0 0 0 0 0 0 
0 0 0 0 1 0 
0 1 1 1 0 0 
0 0 0 0 0 0 
0 1 1 1 0 1 
Solution: 32 0
Classic Expectation: 21.333333
Initial Expecation: 15.000000
Gbest: 28.000000
Expectation: 17.636340
Final Parameters:
Gammas:
[ 2.777687 ]
Betas:
[ 2.473645 ]
Aggregate results:
[ 32 24 30 18 20 22 28 26 16 0 ]
[ 0.004525 0.166322 0.004778 0.101276 0.207043 0.249908 0.009844 0.039750 0.036595 0.179958 ]
5
Num Evals 1200
GenUC: 3.579403e-04
GenUB: 1.198393e-04
Optimisation 1.526263e+00
Total Time: 1.526743e+00
5 Add/Rem 6
Graph 1:
0 0 1 0 0 1 
0 0 0 0 1 0 
0 0 0 0 1 0 
0 1 1 1 0 0 
0 0 1 0 0 0 
0 1 1 1 0 1 
Graph 2:
1 0 0 0 0 0 
0 0 0 0 1 0 
1 0 1 0 0 0 
0 1 1 1 0 0 
1 1 0 0 0 1 
0 1 1 0 0 1 
Solution: 29 536
Classic Expectation: 19.666667
Initial Expecation: 13.828125
Gbest: 25.000000
Expectation: 17.430557
Final Parameters:
Gammas:
[ 0.079518 ]
Betas:
[ 0.412353 ]
Aggregate results:
[ 25 21 23 15 19 17 27 13 29 0 ]
[ 0.048732 0.222168 0.105894 0.063248 0.246246 0.169045 0.014589 0.010923 0.002557 0.116600 ]
5
Num Evals 1200
GenUC: 3.579408e-04
GenUB: 1.133541e-04
Optimisation 1.401846e+00
Total Time: 1.402319e+00
