Clock Speed: 3.688998
Num threads: 4
Trotterisation: 6
Num Qubits: 10
Space Dimension: 1024
Run-Type: 0
Num_samples: 6
Optimiser Method: 0
1 Isomorphic
Graph 1:
0 1 1 1 1 0 
1 0 1 1 1 1 
1 1 0 1 1 0 
1 1 1 0 0 1 
1 1 1 0 0 0 
0 1 0 1 0 0 
Graph 2:
0 1 1 1 1 0 
1 0 1 1 1 1 
1 1 0 1 1 0 
1 1 1 0 0 1 
1 1 1 0 0 0 
0 1 0 1 0 0 
Solution: 36 0
Classic Expectation: 24.266667
Initial Expecation: 17.062500
Gbest: 28.000000
Expectation: 22.100618
Final Parameters:
Gammas:
[ 4.779186 0.854709 4.871121 5.227369 3.176068 3.107117 ]
Betas:
[ 0.614097 0.045249 1.514773 1.527702 1.544940 1.527702 ]
Aggregate results:
[ 36 24 32 28 20 0 ]
[ 0.003119 0.430789 0.032934 0.266533 0.156629 0.109996 ]
5
Num Evals 7200
GenUC: 2.607133e-04
GenUB: 8.562201e-05
Optimisation 1.943219e+02
Total Time: 1.943223e+02
2 Flipped
Graph 1:
0 1 1 1 1 0 
1 0 1 1 1 1 
1 1 0 1 1 0 
1 1 1 0 0 1 
1 1 1 0 0 0 
0 1 0 1 0 0 
Graph 2:
0 1 1 1 1 0 
1 1 1 1 0 1 
0 1 1 0 1 1 
1 0 0 1 1 1 
0 0 0 1 1 1 
0 0 1 0 1 0 
Solution: 24 32
Classic Expectation: 18.400000
Initial Expecation: 12.937500
Gbest: 20.000000
Expectation: 16.200563
Final Parameters:
Gammas:
[ 3.107117 3.141593 0.119228 5.485936 3.132974 3.607014 ]
Betas:
[ 0.390006 2.717111 0.514980 0.351221 1.398418 1.588034 ]
Aggregate results:
[ 16 18 20 14 22 24 0 ]
[ 0.243391 0.202454 0.227767 0.060308 0.109963 0.035137 0.120979 ]
5
Num Evals 7200
GenUC: 2.817738e-04
GenUB: 6.021603e-05
Optimisation 1.947384e+02
Total Time: 1.947387e+02
3 Add 6
Graph 1:
0 1 1 1 1 0 
1 0 1 1 1 1 
1 1 0 1 1 0 
1 1 1 0 0 1 
1 1 1 0 0 0 
0 1 0 1 0 0 
Graph 2:
0 1 1 1 1 1 
1 1 1 1 1 1 
1 1 1 1 1 0 
1 1 1 1 1 1 
1 1 1 1 0 0 
1 1 0 1 0 0 
Solution: 29 0
Classic Expectation: 23.133333
Initial Expecation: 16.265625
Gbest: 25.000000
Expectation: 22.391751
Final Parameters:
Gammas:
[ 3.153883 0.107778 3.142071 3.128665 3.025238 3.154521 ]
Betas:
[ 1.512619 1.357478 0.581138 1.590189 1.409192 1.564332 ]
Aggregate results:
[ 29 25 21 0 ]
[ 0.176507 0.495836 0.232245 0.095412 ]
5
Num Evals 7200
GenUC: 2.836376e-04
GenUB: 6.185273e-05
Optimisation 1.988386e+02
Total Time: 1.988389e+02
4 Rem 6
Graph 1:
0 1 1 1 1 0 
1 0 1 1 1 1 
1 1 0 1 1 0 
1 1 1 0 0 1 
1 1 1 0 0 0 
0 1 0 1 0 0 
Graph 2:
0 0 0 0 0 0 
0 0 1 1 0 0 
0 1 0 1 1 0 
0 1 1 0 0 1 
0 0 1 0 0 0 
0 0 0 1 0 0 
Solution: 24 0
Classic Expectation: 18.666667
Initial Expecation: 13.125000
Gbest: 24.000000
Expectation: 20.298356
Final Parameters:
Gammas:
[ 3.192987 0.077091 3.326420 3.335678 1.049113 2.430054 ]
Betas:
[ 0.503967 0.465661 1.628735 1.611018 1.396024 1.589949 ]
Aggregate results:
[ 24 16 20 12 8 0 ]
[ 0.478011 0.127345 0.325418 0.020385 0.004448 0.044393 ]
5
Num Evals 7200
GenUC: 2.828958e-04
GenUB: 6.202055e-05
Optimisation 1.898775e+02
Total Time: 1.898778e+02
5 Add/Rem 6
Graph 1:
0 1 1 1 1 0 
1 0 1 1 1 1 
1 1 0 1 1 0 
1 1 1 0 0 1 
1 1 1 0 0 0 
0 1 0 1 0 0 
Graph 2:
0 0 0 0 0 1 
0 1 1 0 0 0 
0 1 1 1 1 1 
0 0 1 1 1 1 
0 0 1 1 0 0 
1 0 1 1 0 0 
Solution: 25 33
Classic Expectation: 17.533333
Initial Expecation: 12.328125
Gbest: 21.000000
Expectation: 17.209902
Final Parameters:
Gammas:
[ 5.231698 4.547911 1.043846 2.223679 4.481833 2.447770 ]
Betas:
[ 1.607427 1.551404 0.581776 1.568642 1.585879 1.409192 ]
Aggregate results:
[ 13 17 9 21 25 0 ]
[ 0.066473 0.285626 0.016602 0.384494 0.130653 0.116152 ]
5
Num Evals 7200
GenUC: 2.821722e-04
GenUB: 6.120192e-05
Optimisation 2.008835e+02
Total Time: 2.008838e+02
