Clock Speed: 3.688869
Num threads: 4
Trotterisation: 6
Num Qubits: 10
Space Dimension: 1024
Run-Type: 0
Num_samples: 6
Optimiser Method: 0
1 Isomorphic
Graph 1:
0 1 1 0 0 1 
1 0 1 1 1 1 
1 1 0 0 1 0 
0 1 0 0 0 1 
0 1 1 0 0 1 
1 1 0 1 1 0 
Graph 2:
0 1 1 0 0 1 
1 0 1 1 1 1 
1 1 0 0 1 0 
0 1 0 0 0 1 
0 1 1 0 0 1 
1 1 0 1 1 0 
Solution: 36 0
Classic Expectation: 22.666667
Initial Expecation: 15.937500
Gbest: 24.000000
Expectation: 19.599266
Final Parameters:
Gammas:
[ 1.077311 3.830680 3.375793 3.154361 3.144785 2.936016 ]
Betas:
[ 2.792500 1.137776 1.603197 1.564412 1.215346 1.460825 ]
Aggregate results:
[ 36 24 32 28 20 16 0 ]
[ 0.003290 0.310092 0.037094 0.114777 0.317243 0.080812 0.136692 ]
5
Num Evals 7200
GenUC: 2.592757e-04
GenUB: 9.169152e-05
Optimisation 1.980944e+02
Total Time: 1.980948e+02
2 Flipped
Graph 1:
0 1 1 0 0 1 
1 0 1 1 1 1 
1 1 0 0 1 0 
0 1 0 0 0 1 
0 1 1 0 0 1 
1 1 0 1 1 0 
Graph 2:
1 0 0 1 1 0 
1 1 1 1 0 1 
0 1 0 0 1 1 
1 0 0 0 1 0 
1 0 0 1 1 0 
0 1 1 0 1 1 
Solution: 22 1
Classic Expectation: 17.333333
Initial Expecation: 12.187500
Gbest: 22.000000
Expectation: 14.046836
Final Parameters:
Gammas:
[ 1.042835 5.205875 3.154468 2.947614 3.064022 3.025397 ]
Betas:
[ 0.504233 0.581697 1.628894 1.396343 1.409272 1.512698 ]
Aggregate results:
[ 12 22 10 20 18 16 14 0 ]
[ 0.035660 0.106080 0.034574 0.182199 0.215597 0.149911 0.072579 0.203400 ]
5
Num Evals 7200
GenUC: 2.813801e-04
GenUB: 6.124406e-05
Optimisation 1.947424e+02
Total Time: 1.947428e+02
3 Add 6
Graph 1:
0 1 1 0 0 1 
1 0 1 1 1 1 
1 1 0 0 1 0 
0 1 0 0 0 1 
0 1 1 0 0 1 
1 1 0 1 1 0 
Graph 2:
0 1 1 1 1 1 
1 1 1 1 1 1 
1 1 1 0 1 1 
1 1 0 0 0 1 
1 1 1 0 0 1 
1 1 1 1 1 0 
Solution: 28 0
Classic Expectation: 22.666667
Initial Expecation: 15.937500
Gbest: 28.000000
Expectation: 22.337582
Final Parameters:
Gammas:
[ 0.320655 2.921757 0.336191 3.102861 3.128717 3.152127 ]
Betas:
[ 2.249615 1.216144 1.590109 1.920022 1.525627 1.452366 ]
Aggregate results:
[ 28 24 20 0 ]
[ 0.371233 0.400251 0.116852 0.111664 ]
5
Num Evals 7200
GenUC: 2.795679e-04
GenUB: 6.422342e-05
Optimisation 2.001234e+02
Total Time: 2.001238e+02
4 Rem 6
Graph 1:
0 1 1 0 0 1 
1 0 1 1 1 1 
1 1 0 0 1 0 
0 1 0 0 0 1 
0 1 1 0 0 1 
1 1 0 1 1 0 
Graph 2:
0 0 0 0 0 0 
0 0 0 0 0 1 
0 0 0 0 1 0 
0 0 0 0 0 1 
0 0 1 0 0 1 
0 1 0 1 1 0 
Solution: 24 0
Classic Expectation: 18.666667
Initial Expecation: 13.125000
Gbest: 24.000000
Expectation: 16.026110
Final Parameters:
Gammas:
[ 3.107117 2.486556 5.227369 0.374923 3.107117 3.107117 ]
Betas:
[ 0.540837 2.674017 0.928688 0.540837 1.588034 1.234659 ]
Aggregate results:
[ 24 16 20 12 8 0 ]
[ 0.220122 0.186388 0.355766 0.052748 0.001584 0.183392 ]
5
Num Evals 7200
GenUC: 2.793379e-04
GenUB: 6.111260e-05
Optimisation 1.947614e+02
Total Time: 1.947617e+02
5 Add/Rem 6
Graph 1:
0 1 1 0 0 1 
1 0 1 1 1 1 
1 1 0 0 1 0 
0 1 0 0 0 1 
0 1 1 0 0 1 
1 1 0 1 1 0 
Graph 2:
1 0 0 1 1 0 
0 1 0 0 0 1 
0 0 1 0 1 1 
1 0 0 0 0 1 
1 0 1 0 0 1 
0 1 1 1 1 0 
Solution: 27 108
Classic Expectation: 17.666667
Initial Expecation: 12.421875
Gbest: 19.000000
Expectation: 17.941957
Final Parameters:
Gammas:
[ 3.154521 1.749639 3.102808 4.188790 0.361994 3.068332 ]
Betas:
[ 1.745329 1.279908 0.469731 1.628814 1.693616 1.577260 ]
Aggregate results:
[ 15 11 23 19 27 7 0 ]
[ 0.102873 0.021769 0.304299 0.400493 0.055847 0.006183 0.108536 ]
5
Num Evals 7200
GenUC: 2.802334e-04
GenUB: 6.101637e-05
Optimisation 1.973632e+02
Total Time: 1.973635e+02
