Clock Speed: 3.688611
Num threads: 4
Trotterisation: 4
Graph Size: 4
Num Qubits: 5
Space Dimension: 32
Run-Type: 0
Num_samples: 10
1 Isomorphic
Graph 1:
0 1 1 1 
0 1 1 0 
1 1 1 1 
1 0 1 1 
Graph 2:
0 1 1 1 
0 1 1 0 
1 1 1 1 
1 0 1 1 
Solution: 0 0
Gbest: -4.000000
Expectation: -7.067947
Final Parameters:
Gammas:
[ 3.141593 3.141593 3.839724 2.443461 ]
Betas:
[ 2.617994 1.570796 1.570796 1.570796 0.523599 ]
Aggregate results:
[ -1 7 5 3 1 15 ]
[ 0.020159 0.283966 0.348970 0.115703 0.104260 0.126941 ]
3
Num Evals 191
GenUC: 1.339917e-04
GenUB: 1.182477e-05
Optimisation 1.117200e-01
Total Time: 1.122257e-01
2 Flipped
Graph 1:
0 1 1 1 
0 1 1 0 
1 1 1 1 
1 0 1 1 
Graph 2:
1 1 1 0 
0 1 1 0 
1 1 1 1 
1 1 0 1 
Solution: -4 0
Gbest: -4.000000
Expectation: -8.275879
Final Parameters:
Gammas:
[ 5.235988 1.047198 3.141593 3.141593 ]
Betas:
[ 1.570796 2.617994 1.570796 1.570796 1.570796 ]
Aggregate results:
[ 3 5 7 15 ]
[ 0.119537 0.458923 0.212555 0.208984 ]
3
Num Evals 230
GenUC: 9.343028e-06
GenUB: 8.663395e-06
Optimisation 1.278314e-02
Total Time: 1.314485e-02
3 Add 4
Graph 1:
0 1 1 1 
0 1 1 0 
1 1 1 1 
1 0 1 1 
Graph 2:
1 1 1 1 
1 1 1 1 
1 1 1 1 
1 1 1 1 
Solution: -4 0
Gbest: -4.000000
Expectation: -7.000000
Final Parameters:
Gammas:
[ 5.235988 3.141593 3.141593 3.141593 ]
Betas:
[ 1.570796 1.570796 1.570796 1.570796 1.919862 ]
Aggregate results:
[ 3 15 ]
[ 0.750000 0.250000 ]
3
Num Evals 329
GenUC: 7.123570e-06
GenUB: 8.615432e-06
Optimisation 3.210356e-02
Total Time: 3.245834e-02
4 Rem 4
Graph 1:
0 1 1 1 
0 1 1 0 
1 1 1 1 
1 0 1 1 
Graph 2:
0 1 1 1 
0 1 0 0 
1 0 1 1 
0 0 0 1 
Solution: -4 0
Gbest: -4.000000
Expectation: -8.500000
Final Parameters:
Gammas:
[ 5.235988 5.235988 3.141593 3.141593 ]
Betas:
[ 1.570796 2.617994 1.570796 1.570796 1.570796 ]
Aggregate results:
[ 3 9 7 5 11 15 ]
[ 0.278687 0.220337 0.205322 0.101685 0.043579 0.150391 ]
3
Num Evals 370
GenUC: 8.691684e-06
GenUB: 8.666539e-06
Optimisation 2.516214e-02
Total Time: 2.553663e-02
5 Add/Rem 4
Graph 1:
0 1 1 1 
0 1 1 0 
1 1 1 1 
1 0 1 1 
Graph 2:
1 0 0 1 
1 1 1 1 
1 1 0 1 
0 1 1 1 
Solution: -2 2
Gbest: -2.000000
Expectation: -8.500000
Final Parameters:
Gammas:
[ 3.141593 3.141593 3.141593 3.141593 ]
Betas:
[ 2.617994 1.570796 1.570796 1.570796 0.523599 ]
Aggregate results:
[ 7 3 1 5 15 ]
[ 0.250000 0.125000 0.062500 0.312500 0.250000 ]
3
Num Evals 459
GenUC: 1.078204e-05
GenUB: 8.399482e-06
Optimisation 3.096414e-02
Total Time: 3.131714e-02
