Clock Speed: 3.688410
Num threads: 4
Trotterisation: 1
Graph Size: 8
Num Qubits: 16
Space Dimension: 65536
Run-Type: 0
Num_samples: 10
1 Isomorphic
Graph 1:
1 1 1 0 0 1 1 0 
1 0 0 1 0 0 1 0 
1 1 1 1 1 0 1 1 
0 1 1 1 0 1 0 1 
1 1 0 1 1 0 0 0 
0 0 0 0 1 1 1 0 
1 0 0 1 1 1 0 0 
0 1 0 1 1 0 0 1 
Graph 2:
1 1 1 0 0 1 1 0 
1 0 0 1 0 0 1 0 
1 1 1 1 1 0 1 1 
0 1 1 1 0 1 0 1 
1 1 0 1 1 0 0 0 
0 0 0 0 1 1 1 0 
1 0 0 1 1 1 0 0 
0 1 0 1 1 0 0 1 
Solution: 0 0
Gbest: -26.000000
Expectation: -42.363662
Final Parameters:
Gammas:
[ 1.865142 ]
Betas:
[ 2.393678 2.570968 ]
Aggregate results:
[ -1 13 19 11 15 21 23 17 5 29 31 25 27 33 37 35 9 41 47 39 45 43 7 63 ]
[ 0.000007 0.000173 0.003799 0.000167 0.000536 0.011007 0.026758 0.001543 0.000062 0.124122 0.131672 0.060444 0.100538 0.094104 0.027553 0.058469 0.000044 0.002403 0.000044 0.009094 0.000396 0.000523 0.000004 0.346539 ]
3
Num Evals 764
GenUC: 4.179023e-03
GenUB: 1.868578e-02
Optimisation 1.359191e+02
Total Time: 1.361218e+02
2 Flipped
Graph 1:
1 1 1 0 0 1 1 0 
1 0 0 1 0 0 1 0 
1 1 1 1 1 0 1 1 
0 1 1 1 0 1 0 1 
1 1 0 1 1 0 0 0 
0 0 0 0 1 1 1 0 
1 0 0 1 1 1 0 0 
0 1 0 1 1 0 0 1 
Graph 2:
0 1 1 0 0 1 1 1 
0 1 0 0 1 0 0 1 
1 1 0 1 1 1 1 1 
1 0 1 0 1 1 1 0 
0 0 0 1 1 0 1 1 
0 1 1 1 0 0 0 0 
0 0 1 1 1 0 0 1 
1 0 0 1 1 0 1 0 
Solution: -16 10945
Gbest: -32.000000
Expectation: -43.590615
Final Parameters:
Gammas:
[ 1.610823 ]
Betas:
[ 2.141306 2.583881 ]
Aggregate results:
[ 33 31 35 39 29 37 27 25 23 43 41 21 45 47 17 19 15 63 ]
[ 0.129874 0.129805 0.092853 0.023157 0.108238 0.056029 0.061363 0.028726 0.010694 0.001934 0.008310 0.001857 0.000571 0.000013 0.000016 0.000583 0.000045 0.345933 ]
3
Num Evals 1353
GenUC: 2.425878e-03
GenUB: 1.685383e-02
Optimisation 1.007919e+02
Total Time: 1.009752e+02
3 Add 8
Graph 1:
1 1 1 0 0 1 1 0 
1 0 0 1 0 0 1 0 
1 1 1 1 1 0 1 1 
0 1 1 1 0 1 0 1 
1 1 0 1 1 0 0 0 
0 0 0 0 1 1 1 0 
1 0 0 1 1 1 0 0 
0 1 0 1 1 0 0 1 
Graph 2:
1 1 1 0 0 1 1 1 
1 0 0 1 1 1 1 1 
1 1 1 1 1 0 1 1 
1 1 1 1 0 1 0 1 
1 1 0 1 1 0 0 0 
1 0 0 0 1 1 1 0 
1 1 0 1 1 1 0 0 
0 1 0 1 1 0 0 1 
Solution: -7 0
Gbest: -25.000000
Expectation: -36.036953
Final Parameters:
Gammas:
[ 3.094133 ]
Betas:
[ 2.324925 2.115175 ]
Aggregate results:
[ 6 14 20 18 22 24 16 10 28 30 26 32 34 36 38 42 40 44 46 12 63 ]
[ 0.000049 0.000371 0.008986 0.002942 0.024438 0.059453 0.001051 0.000055 0.153771 0.174488 0.108720 0.143622 0.094155 0.044270 0.015449 0.000750 0.004518 0.000099 0.000022 0.000027 0.162764 ]
5
Num Evals 2153
GenUC: 2.881254e-03
GenUB: 1.678336e-02
Optimisation 1.253449e+02
Total Time: 1.255192e+02
4 Rem 8
Graph 1:
1 1 1 0 0 1 1 0 
1 0 0 1 0 0 1 0 
1 1 1 1 1 0 1 1 
0 1 1 1 0 1 0 1 
1 1 0 1 1 0 0 0 
0 0 0 0 1 1 1 0 
1 0 0 1 1 1 0 0 
0 1 0 1 1 0 0 1 
Graph 2:
1 1 0 0 0 0 1 0 
1 0 0 1 0 0 1 0 
0 1 1 1 1 0 1 1 
0 1 1 0 0 1 0 1 
1 1 0 1 0 0 0 0 
0 0 0 0 1 1 1 0 
1 0 0 0 1 0 0 0 
0 1 0 0 1 0 0 1 
Solution: -8 0
Gbest: -26.000000
Expectation: -44.422363
Final Parameters:
Gammas:
[ 3.141593 ]
Betas:
[ 1.570796 1.570796 ]
Aggregate results:
[ 7 17 25 19 23 21 27 11 33 29 31 35 37 39 41 13 15 43 45 47 49 63 ]
[ 0.000015 0.000488 0.039429 0.001587 0.016312 0.005554 0.068405 0.000031 0.110641 0.102966 0.119797 0.077881 0.045044 0.018097 0.006744 0.000046 0.000122 0.001480 0.000473 0.000107 0.000015 0.384766 ]
3
Num Evals 2159
GenUC: 2.804480e-03
GenUB: 1.685988e-02
Optimisation 7.984672e-01
Total Time: 9.457475e-01
5 Add/Rem 8
Graph 1:
1 1 1 0 0 1 1 0 
1 0 0 1 0 0 1 0 
1 1 1 1 1 0 1 1 
0 1 1 1 0 1 0 1 
1 1 0 1 1 0 0 0 
0 0 0 0 1 1 1 0 
1 0 0 1 1 1 0 0 
0 1 0 1 1 0 0 1 
Graph 2:
1 1 0 0 1 1 1 0 
0 0 0 1 1 0 1 0 
1 1 1 0 0 0 1 0 
1 1 1 1 1 1 0 1 
1 1 0 1 1 0 0 0 
0 0 0 1 1 1 1 1 
0 0 0 1 1 1 0 0 
1 0 1 1 0 0 0 1 
Solution: -14 15956
Gbest: -30.000000
Expectation: -42.492842
Final Parameters:
Gammas:
[ 1.541925 ]
Betas:
[ 2.731735 2.582733 ]
Aggregate results:
[ 15 19 17 21 27 25 23 29 33 31 35 41 37 39 43 45 13 47 63 ]
[ 0.000076 0.003009 0.000461 0.009888 0.096947 0.059915 0.029804 0.130014 0.099767 0.120461 0.057958 0.002935 0.029206 0.010278 0.000638 0.000038 0.000005 0.000013 0.348586 ]
3
Num Evals 2522
GenUC: 2.938944e-03
GenUB: 1.672918e-02
Optimisation 6.479015e+01
Total Time: 6.498832e+01
