Clock Speed: 3.688698
Num threads: 4
Trotterisation: 2
Num Qubits: 7
Space Dimension: 128
Run-Type: 0
Num_samples: 15624
Optimiser Method: 0
1 Isomorphic
Graph 1:
1 0 1 0 0 
0 1 0 1 1 
1 1 0 0 1 
0 1 1 1 0 
1 1 1 1 1 
Graph 2:
1 0 1 0 0 
0 1 0 1 1 
1 1 0 0 1 
0 1 1 1 0 
1 1 1 1 1 
Solution: 25 0
Classic Expectation: 13.800000
Initial Expecation: 12.937500
Gbest: 25.000000
Expectation: 13.426755
Final Parameters:
Gammas:
[ 1.279908 2.908882 ]
Betas:
[ 0.523599 1.570796 ]
Aggregate results:
[ 25 19 13 15 11 17 9 7 0 ]
[ 0.010892 0.089518 0.270138 0.306202 0.185152 0.063140 0.019142 0.009494 0.046322 ]
3
Num Evals 55
GenUC: 4.104764e-05
GenUB: 1.378660e-05
Optimisation 1.460779e-02
Total Time: 1.468120e-02
2 Flipped
Graph 1:
1 0 1 0 0 
0 1 0 1 1 
1 1 0 0 1 
0 1 1 1 0 
1 1 1 1 1 
Graph 2:
0 0 1 0 1 
1 1 0 1 0 
1 0 0 1 1 
0 1 1 1 0 
1 1 1 1 1 
Solution: 19 0
Classic Expectation: 13.400000
Initial Expecation: 12.562500
Gbest: 19.000000
Expectation: 15.034136
Final Parameters:
Gammas:
[ 5.223065 3.874673 ]
Betas:
[ 3.102805 2.861853 ]
Aggregate results:
[ 19 15 9 11 13 17 7 0 ]
[ 0.146893 0.320678 0.011482 0.042857 0.182423 0.252968 0.026610 0.016088 ]
3
Num Evals 1861
GenUC: 4.396186e-05
GenUB: 2.730580e-06
Optimisation 5.711248e-01
Total Time: 5.711733e-01
3 Add 5
Graph 1:
1 0 1 0 0 
0 1 0 1 1 
1 1 0 0 1 
0 1 1 1 0 
1 1 1 1 1 
Graph 2:
1 1 1 0 1 
1 1 1 1 1 
1 1 1 0 1 
0 1 1 1 0 
1 1 1 1 1 
Solution: 20 0
Classic Expectation: 15.200000
Initial Expecation: 14.250000
Gbest: 20.000000
Expectation: 14.549126
Final Parameters:
Gammas:
[ 5.235988 5.235988 ]
Betas:
[ 0.523599 1.570796 ]
Aggregate results:
[ 20 14 12 16 18 0 ]
[ 0.014088 0.310488 0.147408 0.344540 0.146612 0.036865 ]
3
Num Evals 15
GenUC: 4.483975e-05
GenUB: 2.841465e-06
Optimisation 4.599233e-03
Total Time: 4.649197e-03
4 Rem 5
Graph 1:
1 0 1 0 0 
0 1 0 1 1 
1 1 0 0 1 
0 1 1 1 0 
1 1 1 1 1 
Graph 2:
1 0 1 0 0 
0 1 0 0 0 
1 1 0 0 1 
0 0 1 1 0 
1 0 1 0 1 
Solution: 20 0
Classic Expectation: 12.800000
Initial Expecation: 12.000000
Gbest: 20.000000
Expectation: 12.592529
Final Parameters:
Gammas:
[ 5.235988 1.047198 ]
Betas:
[ 0.523599 1.570796 ]
Aggregate results:
[ 20 16 10 12 14 8 18 0 ]
[ 0.004019 0.186207 0.143232 0.302858 0.281870 0.054611 0.004620 0.022583 ]
3
Num Evals 15
GenUC: 4.314561e-05
GenUB: 2.495246e-06
Optimisation 4.674124e-03
Total Time: 4.721407e-03
5 Add/Rem 5
Graph 1:
1 0 1 0 0 
0 1 0 1 1 
1 1 0 0 1 
0 1 1 1 0 
1 1 1 1 1 
Graph 2:
1 0 0 1 1 
0 1 0 1 0 
0 1 0 1 1 
0 1 1 1 1 
1 1 1 1 0 
Solution: 19 4
Classic Expectation: 13.400000
Initial Expecation: 12.562500
Gbest: 19.000000
Expectation: 13.379538
Final Parameters:
Gammas:
[ 1.047198 4.537856 ]
Betas:
[ 2.268928 1.570796 ]
Aggregate results:
[ 17 15 13 19 11 9 7 0 ]
[ 0.136740 0.250630 0.249653 0.068663 0.187804 0.059975 0.019972 0.026563 ]
3
Num Evals 63
GenUC: 4.315557e-05
GenUB: 2.534536e-06
Optimisation 1.937392e-02
Total Time: 1.942129e-02
