Clock Speed: 3.689394
Num threads: 4
Trotterisation: 2
Num Qubits: 7
Space Dimension: 128
Run-Type: 0
Num_samples: 15624
Optimiser Method: 0
1 Isomorphic
Graph 1:
1 0 0 0 0 
1 1 1 1 0 
0 1 0 0 0 
0 0 1 1 1 
1 0 1 0 1 
Graph 2:
1 0 0 0 0 
1 1 1 1 0 
0 1 0 0 0 
0 0 1 1 1 
1 0 1 0 1 
Solution: 25 0
Classic Expectation: 13.800000
Initial Expecation: 12.937500
Gbest: 25.000000
Expectation: 13.174576
Final Parameters:
Gammas:
[ 5.235988 1.047198 ]
Betas:
[ 0.523599 1.570796 ]
Aggregate results:
[ 25 19 15 13 11 17 7 9 0 ]
[ 0.015348 0.081121 0.200191 0.356569 0.254696 0.041264 0.008677 0.005268 0.036865 ]
3
Num Evals 19
GenUC: 4.141324e-05
GenUB: 1.378072e-05
Optimisation 5.380148e-03
Total Time: 5.456485e-03
2 Flipped
Graph 1:
1 0 0 0 0 
1 1 1 1 0 
0 1 0 0 0 
0 0 1 1 1 
1 0 1 0 1 
Graph 2:
0 0 0 0 1 
0 1 1 1 1 
0 0 0 1 0 
1 1 1 0 0 
1 0 1 0 1 
Solution: 21 14
Classic Expectation: 12.200000
Initial Expecation: 11.437500
Gbest: 21.000000
Expectation: 12.536339
Final Parameters:
Gammas:
[ 4.605389 3.293825 ]
Betas:
[ 1.006488 2.960622 ]
Aggregate results:
[ 15 11 9 13 21 17 7 3 0 ]
[ 0.250387 0.260041 0.123170 0.230521 0.003862 0.097077 0.009705 0.005145 0.020092 ]
3
Num Evals 1321
GenUC: 4.474586e-05
GenUB: 2.695888e-06
Optimisation 3.795650e-01
Total Time: 3.796141e-01
3 Add 5
Graph 1:
1 0 0 0 0 
1 1 1 1 0 
0 1 0 0 0 
0 0 1 1 1 
1 0 1 0 1 
Graph 2:
1 1 0 0 0 
1 1 1 1 0 
0 1 1 1 1 
0 0 1 1 1 
1 0 1 0 1 
Solution: 21 0
Classic Expectation: 13.800000
Initial Expecation: 12.937500
Gbest: 21.000000
Expectation: 15.255055
Final Parameters:
Gammas:
[ 1.013254 2.443567 ]
Betas:
[ 0.000027 0.267904 ]
Aggregate results:
[ 21 15 17 13 11 19 9 0 ]
[ 0.028683 0.450631 0.266766 0.164400 0.036256 0.041208 0.004364 0.007693 ]
3
Num Evals 1023
GenUC: 4.404050e-05
GenUB: 2.670684e-06
Optimisation 2.332290e-01
Total Time: 2.332774e-01
4 Rem 5
Graph 1:
1 0 0 0 0 
1 1 1 1 0 
0 1 0 0 0 
0 0 1 1 1 
1 0 1 0 1 
Graph 2:
0 0 0 0 0 
0 1 0 0 0 
0 1 0 0 0 
0 0 1 1 1 
1 0 0 0 1 
Solution: 20 0
Classic Expectation: 14.000000
Initial Expecation: 13.125000
Gbest: 20.000000
Expectation: 13.539413
Final Parameters:
Gammas:
[ 1.047198 1.047198 ]
Betas:
[ 0.523599 1.570796 ]
Aggregate results:
[ 20 16 12 10 14 18 0 ]
[ 0.007463 0.263332 0.154856 0.056236 0.364502 0.091843 0.061768 ]
3
Num Evals 15
GenUC: 4.350999e-05
GenUB: 3.171852e-06
Optimisation 3.893893e-03
Total Time: 3.942422e-03
5 Add/Rem 5
Graph 1:
1 0 0 0 0 
1 1 1 1 0 
0 1 0 0 0 
0 0 1 1 1 
1 0 1 0 1 
Graph 2:
0 0 1 0 0 
1 1 1 1 0 
1 0 1 0 1 
0 0 0 1 0 
1 0 0 1 1 
Solution: 23 78
Classic Expectation: 13.800000
Initial Expecation: 12.937500
Gbest: 23.000000
Expectation: 15.646084
Final Parameters:
Gammas:
[ 3.177487 0.267523 ]
Betas:
[ 3.129152 0.287430 ]
Aggregate results:
[ 15 13 19 17 11 9 23 21 0 ]
[ 0.277642 0.199419 0.154365 0.248989 0.025552 0.022521 0.033187 0.022676 0.015649 ]
5
Num Evals 2000
GenUC: 4.324829e-05
GenUB: 2.422486e-06
Optimisation 5.244059e-01
Total Time: 5.244529e-01
