Clock Speed: 3.689172
Num threads: 4
Trotterisation: 3
Graph Size: 8
Num Qubits: 16
Space Dimension: 65536
Run-Type: 0
Num_samples: 10
1 Isomorphic
Graph 1:
1 0 1 1 1 1 1 0 
0 1 0 0 1 1 1 1 
1 0 1 1 0 0 0 1 
1 0 1 0 1 1 1 0 
1 1 1 1 1 1 1 0 
1 0 0 0 1 1 0 0 
0 1 0 0 0 0 0 1 
0 1 1 0 1 1 0 0 
Graph 2:
1 0 1 1 1 1 1 0 
0 1 0 0 1 1 1 1 
1 0 1 1 0 0 0 1 
1 0 1 0 1 1 1 0 
1 1 1 1 1 1 1 0 
1 0 0 0 1 1 0 0 
0 1 0 0 0 0 0 1 
0 1 1 0 1 1 0 0 
Solution: 0 0
Gbest: -24.000000
Expectation: -32.853219
Final Parameters:
Gammas:
[ 3.095636 2.229295 2.361014 ]
Betas:
[ 0.841093 0.530501 1.574437 1.571056 ]
Aggregate results:
[ -1 15 21 11 13 27 23 17 19 3 31 25 29 7 35 33 9 37 39 41 43 45 63 ]
[ 0.000044 0.001370 0.020481 0.000462 0.000785 0.129897 0.043631 0.003377 0.007174 0.000044 0.170350 0.080450 0.162520 0.000122 0.095245 0.143185 0.000101 0.054066 0.024927 0.008624 0.002547 0.000344 0.050252 ]
3
Num Evals 616
GenUC: 3.527506e-03
GenUB: 1.750649e-02
Optimisation 1.337033e+02
Total Time: 1.339348e+02
2 Flipped
Graph 1:
1 0 1 1 1 1 1 0 
0 1 0 0 1 1 1 1 
1 0 1 1 0 0 0 1 
1 0 1 0 1 1 1 0 
1 1 1 1 1 1 1 0 
1 0 0 0 1 1 0 0 
0 1 0 0 0 0 0 1 
0 1 1 0 1 1 0 0 
Graph 2:
0 1 1 1 1 1 0 1 
1 1 1 1 0 0 1 0 
1 0 0 0 1 1 0 1 
0 1 1 1 0 1 0 1 
0 1 1 1 1 1 1 1 
0 0 1 1 0 0 0 1 
1 0 0 0 0 0 1 0 
0 0 1 1 0 1 1 0 
Solution: -16 37491
Gbest: -26.000000
Expectation: -42.601763
Final Parameters:
Gammas:
[ 2.336345 2.095280 2.332114 ]
Betas:
[ 0.654349 0.440998 1.862244 1.558154 ]
Aggregate results:
[ 35 31 33 29 27 25 23 37 39 41 21 19 17 43 45 15 63 ]
[ 0.078751 0.131007 0.086168 0.162332 0.066311 0.047680 0.027029 0.035640 0.010391 0.004565 0.005376 0.001722 0.000412 0.000725 0.000100 0.000067 0.341725 ]
3
Num Evals 1151
GenUC: 2.499980e-03
GenUB: 1.665469e-02
Optimisation 1.147721e+02
Total Time: 1.149992e+02
3 Add 8
Graph 1:
1 0 1 1 1 1 1 0 
0 1 0 0 1 1 1 1 
1 0 1 1 0 0 0 1 
1 0 1 0 1 1 1 0 
1 1 1 1 1 1 1 0 
1 0 0 0 1 1 0 0 
0 1 0 0 0 0 0 1 
0 1 1 0 1 1 0 0 
Graph 2:
1 0 1 1 1 1 1 1 
1 1 1 0 1 1 1 1 
1 0 1 1 1 0 0 1 
1 1 1 0 1 1 1 0 
1 1 1 1 1 1 1 0 
1 0 0 0 1 1 1 0 
0 1 0 0 0 0 0 1 
0 1 1 0 1 1 0 0 
Solution: -6 0
Gbest: -20.000000
Expectation: -29.041312
Final Parameters:
Gammas:
[ 2.575852 3.737597 2.926538 ]
Betas:
[ 0.441414 0.024040 2.441494 0.124246 ]
Aggregate results:
[ 5 15 19 13 25 21 17 23 9 29 27 31 11 33 35 37 39 41 43 45 63 ]
[ 0.000082 0.004758 0.028474 0.003045 0.205909 0.067472 0.011635 0.130496 0.000504 0.149528 0.208991 0.073299 0.000462 0.027985 0.015783 0.013646 0.007768 0.002831 0.000748 0.000143 0.046439 ]
5
Num Evals 1923
GenUC: 2.985488e-03
GenUB: 1.694347e-02
Optimisation 1.504377e+02
Total Time: 1.506091e+02
4 Rem 8
Graph 1:
1 0 1 1 1 1 1 0 
0 1 0 0 1 1 1 1 
1 0 1 1 0 0 0 1 
1 0 1 0 1 1 1 0 
1 1 1 1 1 1 1 0 
1 0 0 0 1 1 0 0 
0 1 0 0 0 0 0 1 
0 1 1 0 1 1 0 0 
Graph 2:
1 0 1 0 0 1 1 0 
0 1 0 0 1 1 1 0 
1 0 1 1 0 0 0 1 
1 0 1 0 1 1 1 0 
1 1 1 1 1 0 1 0 
1 0 0 0 0 1 0 0 
0 1 0 0 0 0 0 0 
0 0 1 0 1 1 0 0 
Solution: -7 0
Gbest: -29.000000
Expectation: -42.453225
Final Parameters:
Gammas:
[ 2.354593 2.962382 2.921656 ]
Betas:
[ 1.483978 2.266624 0.440298 1.317290 ]
Aggregate results:
[ 6 16 26 22 18 28 24 10 20 30 32 14 34 36 38 12 40 42 44 46 48 63 ]
[ 0.000010 0.000401 0.061441 0.012506 0.000965 0.096239 0.032190 0.000030 0.004171 0.118323 0.118970 0.000041 0.101235 0.068169 0.037362 0.000074 0.016866 0.007092 0.001984 0.000437 0.000149 0.321345 ]
3
Num Evals 2402
GenUC: 2.976445e-03
GenUB: 1.682145e-02
Optimisation 1.144795e+02
Total Time: 1.147393e+02
5 Add/Rem 8
Graph 1:
1 0 1 1 1 1 1 0 
0 1 0 0 1 1 1 1 
1 0 1 1 0 0 0 1 
1 0 1 0 1 1 1 0 
1 1 1 1 1 1 1 0 
1 0 0 0 1 1 0 0 
0 1 0 0 0 0 0 1 
0 1 1 0 1 1 0 0 
Graph 2:
0 0 1 1 0 1 1 1 
0 1 0 1 1 1 1 1 
1 1 1 1 0 0 0 1 
1 0 1 0 0 1 1 1 
1 0 1 1 1 0 1 0 
0 0 0 0 1 1 1 0 
0 1 1 0 0 0 0 0 
0 1 1 0 0 1 1 0 
Solution: -15 0
Gbest: -25.000000
Expectation: -33.877580
Final Parameters:
Gammas:
[ 3.186316 3.167065 3.821840 ]
Betas:
[ 1.177281 1.588900 2.122321 1.570214 ]
Aggregate results:
[ 14 22 28 26 20 32 30 24 34 16 18 36 38 40 42 44 63 ]
[ 0.000009 0.013357 0.153628 0.084017 0.003578 0.184468 0.199790 0.039825 0.140040 0.000017 0.000426 0.074385 0.031520 0.007274 0.001204 0.000001 0.066461 ]
3
Num Evals 2998
GenUC: 2.962925e-03
GenUB: 1.629781e-02
Optimisation 1.609034e+02
Total Time: 1.611794e+02
