Clock Speed: 3.689270
Num threads: 4
Trotterisation: 6
Graph Size: 5
Num Qubits: 7
Space Dimension: 128
Run-Type: 0
Num_samples: 10
1 Isomorphic
Graph 1:
0 1 1 0 0 
1 1 1 0 0 
1 0 0 1 1 
0 1 1 0 0 
0 0 0 0 0 
Graph 2:
0 1 1 0 0 
1 1 1 0 0 
1 0 0 1 1 
0 1 1 0 0 
0 0 0 0 0 
Solution: 0 0
Gbest: 0.000000
Expectation: -7.934135
Final Parameters:
Gammas:
[ 3.143122 3.097358 3.171322 3.106942 3.028724 3.177737 ]
Betas:
[ 2.343091 1.107405 1.259816 1.028535 1.562464 0.968451 0.820564 ]
Aggregate results:
[ -1 5 9 7 11 1 13 15 17 19 3 24 ]
[ 0.128983 0.102378 0.323658 0.358239 0.044307 0.001085 0.020396 0.011372 0.002351 0.000131 0.000305 0.006794 ]
5
Num Evals 500
GenUC: 2.393324e-04
GenUB: 3.021341e-05
Optimisation 3.743420e-01
Total Time: 3.753574e-01
2 Flipped
Graph 1:
0 1 1 0 0 
1 1 1 0 0 
1 0 0 1 1 
0 1 1 0 0 
0 0 0 0 0 
Graph 2:
0 0 1 1 0 
0 0 1 1 1 
1 1 0 0 1 
0 0 1 1 0 
0 0 0 0 0 
Solution: -2 15
Gbest: -8.000000
Expectation: -9.015304
Final Parameters:
Gammas:
[ 3.317165 2.818162 3.134125 3.153669 3.295867 3.165723 ]
Betas:
[ 2.346783 1.173331 0.984306 1.283539 1.686909 1.516662 1.114482 ]
Aggregate results:
[ 9 7 11 1 13 5 15 17 24 ]
[ 0.337978 0.193558 0.202631 0.128920 0.034129 0.082755 0.005913 0.003456 0.010660 ]
5
Num Evals 1000
GenUC: 2.380338e-05
GenUB: 2.158042e-05
Optimisation 3.902418e-01
Total Time: 3.910629e-01
3 Add 5
Graph 1:
0 1 1 0 0 
1 1 1 0 0 
1 0 0 1 1 
0 1 1 0 0 
0 0 0 0 0 
Graph 2:
0 1 1 0 0 
1 1 1 0 0 
1 0 1 1 1 
0 1 1 1 0 
1 0 1 0 0 
Solution: -4 0
Gbest: -8.000000
Expectation: -11.060792
Final Parameters:
Gammas:
[ 3.194219 2.804177 2.975169 3.348037 3.288648 2.962583 ]
Betas:
[ 2.392243 1.364321 1.053363 1.427182 1.652713 1.456064 0.942569 ]
Aggregate results:
[ 3 9 13 11 15 5 17 19 7 24 ]
[ 0.028031 0.270147 0.153451 0.286383 0.025389 0.069467 0.023047 0.003574 0.127048 0.013462 ]
5
Num Evals 1500
GenUC: 2.505627e-05
GenUB: 1.741621e-05
Optimisation 3.756667e-01
Total Time: 3.764916e-01
4 Rem 5
Graph 1:
0 1 1 0 0 
1 1 1 0 0 
1 0 0 1 1 
0 1 1 0 0 
0 0 0 0 0 
Graph 2:
0 1 0 0 0 
1 1 1 0 0 
1 0 0 1 1 
0 0 0 0 0 
0 0 0 0 0 
Solution: -3 0
Gbest: -3.000000
Expectation: -9.661721
Final Parameters:
Gammas:
[ 3.673189 3.480825 2.170422 3.135680 2.836159 3.151044 ]
Betas:
[ 2.422583 1.360812 1.350520 1.465518 1.579772 1.457400 1.569803 ]
Aggregate results:
[ 2 6 10 8 4 12 16 14 24 ]
[ 0.083335 0.122800 0.318481 0.206388 0.067931 0.157498 0.020847 0.011819 0.010901 ]
5
Num Evals 2000
GenUC: 2.114088e-05
GenUB: 1.657761e-05
Optimisation 3.965386e-01
Total Time: 3.974037e-01
5 Add/Rem 5
Graph 1:
0 1 1 0 0 
1 1 1 0 0 
1 0 0 1 1 
0 1 1 0 0 
0 0 0 0 0 
Graph 2:
0 1 0 0 1 
1 0 1 0 0 
0 1 0 1 1 
0 0 0 0 0 
0 0 0 0 1 
Solution: -4 84
Gbest: -6.000000
Expectation: -9.475125
Final Parameters:
Gammas:
[ 3.175854 2.812526 3.059960 3.084552 3.205585 3.227155 ]
Betas:
[ 2.306079 1.325894 1.004299 1.380293 1.737869 1.350890 1.062276 ]
Aggregate results:
[ 7 5 11 9 13 15 3 24 ]
[ 0.284235 0.079928 0.249429 0.254174 0.040796 0.007265 0.076424 0.007748 ]
5
Num Evals 2500
GenUC: 2.419186e-05
GenUB: 1.701657e-05
Optimisation 3.827381e-01
Total Time: 3.835532e-01
