Clock Speed: 3.689367
Num threads: 4
Trotterisation: 1
Num Qubits: 3
Space Dimension: 8
Run-Type: 0
Num_samples: 3
Optimiser Method: 20
1 Isomorphic
Graph 1:
0 0 1 
0 0 0 
1 0 0 
Graph 2:
0 0 1 
0 0 0 
1 0 0 
Solution: 9 0
Classic Expectation: 6.333333
Initial Expecation: 4.750000
Gbest: 9.000000
Expectation: 7.330757
Final Parameters:
Gammas:
[ 5.138386 ]
Betas:
[ 0.753184 ]
Aggregate results:
[ 9 5 0 ]
[ 0.692450 0.219741 0.087809 ]
5
Num Evals 600
GenUC: 2.792178e-06
GenUB: 7.343100e-06
Optimisation 2.146822e+00
Total Time: 2.146861e+00
2 Flipped
Graph 1:
0 0 1 
0 0 0 
1 0 0 
Graph 2:
1 0 0 
0 0 0 
0 0 1 
Solution: 5 0
Classic Expectation: 5.000000
Initial Expecation: 3.750000
Gbest: 5.000000
Expectation: 5.000000
Final Parameters:
Gammas:
[ 2.827433 ]
Betas:
[ 0.785398 ]
Aggregate results:
[ 5 0 ]
[ 1.000000 0.000000 ]
5
Num Evals 600
GenUC: 2.846748e-06
GenUB: 9.254436e-07
Optimisation 1.811438e+00
Total Time: 1.811445e+00
3 Add 3
Graph 1:
0 0 1 
0 0 0 
1 0 0 
Graph 2:
1 1 1 
1 0 1 
1 1 0 
Solution: 4 0
Classic Expectation: 4.000000
Initial Expecation: 3.000000
Gbest: 4.000000
Expectation: 4.000000
Final Parameters:
Gammas:
[ 5.890486 ]
Betas:
[ 2.356195 ]
Aggregate results:
[ 4 0 ]
[ 1.000000 0.000000 ]
5
Num Evals 600
GenUC: 2.965884e-06
GenUB: 9.952782e-07
Optimisation 1.706088e+00
Total Time: 1.706094e+00
4 Rem 3
Graph 1:
0 0 1 
0 0 0 
1 0 0 
Graph 2:
0 0 0 
0 0 0 
0 0 0 
Solution: 7 0
Classic Expectation: 7.000000
Initial Expecation: 5.250000
Gbest: 7.000000
Expectation: 7.000000
Final Parameters:
Gammas:
[ 6.058786 ]
Betas:
[ 2.356194 ]
Aggregate results:
[ 7 0 ]
[ 1.000000 0.000000 ]
5
Num Evals 600
GenUC: 2.663073e-06
GenUB: 7.834315e-07
Optimisation 1.422580e+00
Total Time: 1.422586e+00
5 Add/Rem 3
Graph 1:
0 0 1 
0 0 0 
1 0 0 
Graph 2:
1 1 0 
1 0 1 
0 1 0 
Solution: 6 1
Classic Expectation: 4.666667
Initial Expecation: 3.500000
Gbest: 6.000000
Expectation: 5.257664
Final Parameters:
Gammas:
[ 0.338450 ]
Betas:
[ 0.604857 ]
Aggregate results:
[ 2 6 0 ]
[ 0.077640 0.850397 0.071963 ]
5
Num Evals 600
GenUC: 2.799803e-06
GenUB: 9.489158e-07
Optimisation 1.236463e+00
Total Time: 1.236469e+00
