Clock Speed: 3.498813
Num threads: 24
Trotterisation: 1
Graph Size: 9
Num Qubits: 19
Space Dimension: 524288
Run-Type: 0
Num_samples: 1
1 Isomorphic
Graph 1:
0 1 1 0 0 1 1 1 1 
0 0 0 0 0 1 1 1 1 
1 0 1 1 1 1 0 1 0 
1 1 0 0 1 1 1 1 0 
1 1 0 0 1 0 0 0 1 
0 1 1 1 0 1 1 0 1 
0 0 1 1 0 0 0 0 0 
0 0 0 0 1 1 0 1 1 
1 0 1 0 0 1 1 0 1 
Graph 2:
0 1 1 0 0 1 1 1 1 
0 0 0 0 0 1 1 1 1 
1 0 1 1 1 1 0 1 0 
1 1 0 0 1 1 1 1 0 
1 1 0 0 1 0 0 0 1 
0 1 1 1 0 1 1 0 1 
0 0 1 1 0 0 0 0 0 
0 0 0 0 1 1 0 1 1 
1 0 1 0 0 1 1 0 1 
Solution: 0 0
Expectation: -42.529325
Final Parameters:
Gammas:
[ 3.252920 ]
Betas:
[ 1.368314 2.700436 ]
Aggregate results:
[ 0 10 24 20 22 18 12 16 26 32 34 36 28 30 42 40 38 44 14 50 46 48 52 54 56 58 60 62 81 ]
[ 0.000001 0.000000 0.000776 0.000118 0.000328 0.000061 0.000005 0.000023 0.002456 0.038296 0.068522 0.107454 0.006997 0.017793 0.144288 0.153104 0.142060 0.112703 0.000026 0.019182 0.074274 0.041715 0.007300 0.002302 0.000616 0.000111 0.000028 0.000014 0.059447 ]
3
Num Evals 186
GenUC: 9.187547e-02
GenUB: 2.790959e-01
Optimisation 1.909241e+02
Total Time: 1.923219e+02
2 Flipped
Graph 1:
0 1 1 0 0 1 1 1 1 
0 0 0 0 0 1 1 1 1 
1 0 1 1 1 1 0 1 0 
1 1 0 0 1 1 1 1 0 
1 1 0 0 1 0 0 0 1 
0 1 1 1 0 1 1 0 1 
0 0 1 1 0 0 0 0 0 
0 0 0 0 1 1 0 1 1 
1 0 1 0 0 1 1 0 1 
Graph 2:
1 1 1 1 0 0 1 1 0 
1 1 1 1 0 0 0 0 0 
0 1 0 1 1 1 1 0 1 
0 1 1 1 1 0 0 1 1 
1 0 0 0 1 0 0 1 1 
1 0 1 1 0 1 1 1 0 
0 0 0 0 0 1 1 0 0 
1 1 0 1 1 0 0 0 0 
1 0 1 1 0 0 1 0 1 
Solution: -22 22410
Expectation: -51.279791
Final Parameters:
Gammas:
[ 5.707610 ]
Betas:
[ 2.105739 2.656014 ]
Aggregate results:
[ 42 40 38 36 34 48 50 46 44 54 52 32 30 28 26 56 24 22 58 60 81 ]
[ 0.127026 0.126160 0.109815 0.082638 0.051672 0.026190 0.010277 0.057652 0.097612 0.000914 0.003334 0.024237 0.008265 0.002625 0.000538 0.000120 0.000135 0.000024 0.000027 0.000003 0.270736 ]
3
Num Evals 330
GenUC: 9.007941e-02
GenUB: 3.036506e-01
Optimisation 1.621690e+02
Total Time: 1.636995e+02
3 Add 9
Graph 1:
0 1 1 0 0 1 1 1 1 
0 0 0 0 0 1 1 1 1 
1 0 1 1 1 1 0 1 0 
1 1 0 0 1 1 1 1 0 
1 1 0 0 1 0 0 0 1 
0 1 1 1 0 1 1 0 1 
0 0 1 1 0 0 0 0 0 
0 0 0 0 1 1 0 1 1 
1 0 1 0 0 1 1 0 1 
Graph 2:
0 1 1 1 0 1 1 1 1 
0 0 0 0 1 1 1 1 1 
1 0 1 1 1 1 0 1 0 
1 1 1 0 1 1 1 1 1 
1 1 0 0 1 0 0 0 1 
0 1 1 1 0 1 1 0 1 
1 1 1 1 0 0 0 0 0 
0 0 1 0 1 1 0 1 1 
1 0 1 0 1 1 1 1 1 
Solution: -9 0
Expectation: -49.295892
Final Parameters:
Gammas:
[ 5.861287 ]
Betas:
[ 1.601867 2.643844 ]
Aggregate results:
[ 9 19 27 23 21 25 17 29 31 37 35 33 39 43 41 45 49 47 51 53 55 57 59 81 ]
[ 0.000003 0.000032 0.002496 0.000169 0.000056 0.000699 0.000023 0.008195 0.021633 0.105362 0.075374 0.045249 0.125759 0.112414 0.130637 0.077664 0.016955 0.041072 0.005530 0.001468 0.000309 0.000058 0.000003 0.228840 ]
3
Num Evals 489
GenUC: 8.937062e-02
GenUB: 3.035574e-01
Optimisation 1.693237e+02
Total Time: 1.707741e+02
4 Rem 9
Graph 1:
0 1 1 0 0 1 1 1 1 
0 0 0 0 0 1 1 1 1 
1 0 1 1 1 1 0 1 0 
1 1 0 0 1 1 1 1 0 
1 1 0 0 1 0 0 0 1 
0 1 1 1 0 1 1 0 1 
0 0 1 1 0 0 0 0 0 
0 0 0 0 1 1 0 1 1 
1 0 1 0 0 1 1 0 1 
Graph 2:
0 1 0 0 0 1 1 0 1 
0 0 0 0 0 1 0 1 0 
0 0 0 1 1 1 0 0 0 
1 1 0 0 1 1 1 1 0 
1 1 0 0 1 0 0 0 1 
0 1 1 1 0 1 1 0 1 
0 0 1 1 0 0 0 0 0 
0 0 0 0 0 1 0 1 1 
1 0 1 0 0 1 0 0 1 
Solution: -9 0
Expectation: -52.223145
Final Parameters:
Gammas:
[ 4.278423 ]
Betas:
[ 1.652691 2.658559 ]
Aggregate results:
[ 9 15 25 21 27 23 17 31 33 35 37 29 41 39 43 19 45 51 47 49 53 55 57 59 61 63 65 81 ]
[ 0.000002 0.000001 0.000427 0.000056 0.001633 0.000104 0.000011 0.011884 0.029678 0.053846 0.082385 0.005015 0.119768 0.119504 0.111561 0.000025 0.090277 0.011291 0.048791 0.026391 0.003442 0.000976 0.000286 0.000060 0.000008 0.000001 0.000002 0.282574 ]
3
Num Evals 625
GenUC: 9.019546e-02
GenUB: 3.015474e-01
Optimisation 1.447342e+02
Total Time: 1.461882e+02
5 Add/Rem 9
Graph 1:
0 1 1 0 0 1 1 1 1 
0 0 0 0 0 1 1 1 1 
1 0 1 1 1 1 0 1 0 
1 1 0 0 1 1 1 1 0 
1 1 0 0 1 0 0 0 1 
0 1 1 1 0 1 1 0 1 
0 0 1 1 0 0 0 0 0 
0 0 0 0 1 1 0 1 1 
1 0 1 0 0 1 1 0 1 
Graph 2:
0 0 1 0 0 1 1 1 1 
1 1 0 0 0 1 0 1 1 
1 0 0 1 1 1 0 1 0 
1 1 0 1 0 1 1 1 0 
1 1 0 0 1 0 0 0 1 
1 1 0 1 1 1 1 0 1 
0 0 0 1 1 0 0 0 0 
0 0 1 0 1 1 0 1 0 
1 1 0 1 0 1 0 0 1 
Solution: -18 0
Expectation: -41.742365
Final Parameters:
Gammas:
[ 3.099397 ]
Betas:
[ 1.842512 2.751777 ]
Aggregate results:
[ 18 20 26 24 30 28 22 34 38 32 36 40 42 48 44 46 50 54 52 58 56 60 62 81 ]
[ 0.000003 0.000013 0.001515 0.000328 0.014488 0.005306 0.000049 0.066939 0.146747 0.034447 0.108936 0.164106 0.154010 0.041453 0.120179 0.076894 0.018539 0.002121 0.006785 0.000107 0.000523 0.000023 0.000002 0.036487 ]
3
Num Evals 810
GenUC: 9.156743e-02
GenUB: 3.034243e-01
Optimisation 1.985539e+02
Total Time: 2.000616e+02
