Clock Speed: 3.498847
Num threads: 24
Trotterisation: 2
Graph Size: 9
Num Qubits: 19
Space Dimension: 524288
Run-Type: 0
Num_samples: 1
1 Isomorphic
Graph 1:
0 1 1 0 0 1 1 1 1 
0 0 0 0 0 1 1 1 1 
1 0 1 1 1 1 0 1 0 
1 1 0 0 1 1 1 1 0 
1 1 0 0 1 0 0 0 1 
0 1 1 1 0 1 1 0 1 
0 0 1 1 0 0 0 0 0 
0 0 0 0 1 1 0 1 1 
1 0 1 0 0 1 1 0 1 
Graph 2:
0 1 1 0 0 1 1 1 1 
0 0 0 0 0 1 1 1 1 
1 0 1 1 1 1 0 1 0 
1 1 0 0 1 1 1 1 0 
1 1 0 0 1 0 0 0 1 
0 1 1 1 0 1 1 0 1 
0 0 1 1 0 0 0 0 0 
0 0 0 0 1 1 0 1 1 
1 0 1 0 0 1 1 0 1 
Solution: 0 0
Expectation: -41.814907
Final Parameters:
Gammas:
[ 4.390378 4.992248 ]
Betas:
[ 2.871213 3.141593 2.755530 ]
Aggregate results:
[ 0 10 24 20 22 18 12 16 26 32 34 36 28 30 42 40 38 44 14 50 46 48 52 54 56 58 60 62 81 ]
[ 0.000002 0.000002 0.000784 0.000152 0.000355 0.000051 0.000009 0.000028 0.002452 0.036705 0.066102 0.104224 0.006923 0.017058 0.151239 0.156870 0.140832 0.119614 0.000023 0.021300 0.080819 0.045842 0.008050 0.002566 0.000633 0.000118 0.000033 0.000013 0.037199 ]
3
Num Evals 316
GenUC: 9.146888e-02
GenUB: 2.768462e-01
Optimisation 5.946623e+02
Total Time: 5.969818e+02
2 Flipped
Graph 1:
0 1 1 0 0 1 1 1 1 
0 0 0 0 0 1 1 1 1 
1 0 1 1 1 1 0 1 0 
1 1 0 0 1 1 1 1 0 
1 1 0 0 1 0 0 0 1 
0 1 1 1 0 1 1 0 1 
0 0 1 1 0 0 0 0 0 
0 0 0 0 1 1 0 1 1 
1 0 1 0 0 1 1 0 1 
Graph 2:
1 1 1 1 0 0 1 1 0 
1 1 1 1 0 0 0 0 0 
0 1 0 1 1 1 1 0 1 
0 1 1 1 1 0 0 1 1 
1 0 0 0 1 0 0 1 1 
1 0 1 1 0 1 1 1 0 
0 0 0 0 0 1 1 0 0 
1 1 0 1 1 0 0 0 0 
1 0 1 1 0 0 1 0 1 
Solution: -22 22410
Expectation: -43.801496
Final Parameters:
Gammas:
[ 4.461354 4.787304 ]
Betas:
[ 1.835229 3.097820 2.811129 ]
Aggregate results:
[ 42 40 38 36 34 48 50 46 44 54 52 32 30 28 26 56 24 22 58 60 81 ]
[ 0.148040 0.172691 0.166258 0.117528 0.068321 0.021913 0.008429 0.052734 0.096657 0.000751 0.002699 0.029564 0.010545 0.003010 0.000610 0.000115 0.000111 0.000017 0.000039 0.000001 0.099965 ]
3
Num Evals 838
GenUC: 9.452132e-02
GenUB: 3.022040e-01
Optimisation 9.252778e+02
Total Time: 9.274654e+02
3 Add 9
Graph 1:
0 1 1 0 0 1 1 1 1 
0 0 0 0 0 1 1 1 1 
1 0 1 1 1 1 0 1 0 
1 1 0 0 1 1 1 1 0 
1 1 0 0 1 0 0 0 1 
0 1 1 1 0 1 1 0 1 
0 0 1 1 0 0 0 0 0 
0 0 0 0 1 1 0 1 1 
1 0 1 0 0 1 1 0 1 
Graph 2:
0 1 1 1 0 1 1 1 1 
0 0 0 0 1 1 1 1 1 
1 0 1 1 1 1 0 1 0 
1 1 1 0 1 1 1 1 1 
1 1 0 0 1 0 0 0 1 
0 1 1 1 0 1 1 0 1 
1 1 1 1 0 0 0 0 0 
0 0 1 0 1 1 0 1 1 
1 0 1 0 1 1 1 1 1 
Solution: -9 0
Expectation: -50.977995
Final Parameters:
Gammas:
[ 3.715024 2.916341 ]
Betas:
[ 1.776610 2.064641 1.640071 ]
Aggregate results:
[ 9 19 27 23 21 25 17 29 31 37 35 33 39 43 41 45 49 47 51 53 55 57 59 81 ]
[ 0.000001 0.000018 0.002305 0.000166 0.000047 0.000747 0.000012 0.007148 0.019236 0.102548 0.073806 0.041550 0.121997 0.104664 0.123819 0.071093 0.015745 0.037220 0.005686 0.001546 0.000322 0.000058 0.000000 0.270264 ]
3
Num Evals 1166
GenUC: 9.262227e-02
GenUB: 3.013155e-01
Optimisation 4.783616e+02
Total Time: 4.802107e+02
4 Rem 9
Graph 1:
0 1 1 0 0 1 1 1 1 
0 0 0 0 0 1 1 1 1 
1 0 1 1 1 1 0 1 0 
1 1 0 0 1 1 1 1 0 
1 1 0 0 1 0 0 0 1 
0 1 1 1 0 1 1 0 1 
0 0 1 1 0 0 0 0 0 
0 0 0 0 1 1 0 1 1 
1 0 1 0 0 1 1 0 1 
Graph 2:
0 1 0 0 0 1 1 0 1 
0 0 0 0 0 1 0 1 0 
0 0 0 1 1 1 0 0 0 
1 1 0 0 1 1 1 1 0 
1 1 0 0 1 0 0 0 1 
0 1 1 1 0 1 1 0 1 
0 0 1 1 0 0 0 0 0 
0 0 0 0 0 1 0 1 1 
1 0 1 0 0 1 0 0 1 
Solution: -9 0
Expectation: -42.922867
Final Parameters:
Gammas:
[ 3.262265 1.954705 ]
Betas:
[ 1.157774 1.913569 1.521250 ]
Aggregate results:
[ 9 15 25 21 27 23 17 31 33 35 37 29 41 39 43 19 45 51 47 49 53 55 57 59 61 63 65 81 ]
[ 0.000004 0.000003 0.000645 0.000067 0.002148 0.000166 0.000014 0.019479 0.043777 0.082870 0.127109 0.007516 0.166254 0.159681 0.139737 0.000017 0.095469 0.009163 0.052907 0.023574 0.002786 0.000834 0.000215 0.000049 0.000008 0.000001 0.000011 0.065496 ]
3
Num Evals 1573
GenUC: 9.240256e-02
GenUB: 3.014765e-01
Optimisation 5.341861e+02
Total Time: 5.358881e+02
5 Add/Rem 9
Graph 1:
0 1 1 0 0 1 1 1 1 
0 0 0 0 0 1 1 1 1 
1 0 1 1 1 1 0 1 0 
1 1 0 0 1 1 1 1 0 
1 1 0 0 1 0 0 0 1 
0 1 1 1 0 1 1 0 1 
0 0 1 1 0 0 0 0 0 
0 0 0 0 1 1 0 1 1 
1 0 1 0 0 1 1 0 1 
Graph 2:
0 0 1 0 0 1 1 1 1 
1 1 0 0 0 1 0 1 1 
1 0 0 1 1 1 0 1 0 
1 1 0 1 0 1 1 1 0 
1 1 0 0 1 0 0 0 1 
1 1 0 1 1 1 1 0 1 
0 0 0 1 1 0 0 0 0 
0 0 1 0 1 1 0 1 0 
1 1 0 1 0 1 0 0 1 
Solution: -18 0
Expectation: -41.742365
Final Parameters:
Gammas:
[ 4.870322 4.512260 ]
Betas:
[ 2.607828 3.141593 2.751775 ]
Aggregate results:
[ 18 20 26 24 30 28 22 34 38 32 36 40 42 48 44 46 50 54 52 58 56 60 62 81 ]
[ 0.000003 0.000013 0.001515 0.000328 0.014488 0.005306 0.000049 0.066939 0.146747 0.034446 0.108936 0.164106 0.154010 0.041453 0.120179 0.076894 0.018539 0.002121 0.006785 0.000107 0.000523 0.000023 0.000002 0.036487 ]
3
Num Evals 1913
GenUC: 9.484485e-02
GenUB: 3.018877e-01
Optimisation 6.328339e+02
Total Time: 6.351364e+02
