Clock Speed: 3.499297
Num threads: 24
Trotterisation: 2
Graph Size: 9
Num Qubits: 19
Space Dimension: 524288
Run-Type: 0
Num_samples: 1
1 Isomorphic
Graph 1:
0 0 0 0 1 1 0 0 1 
1 0 0 1 1 0 0 0 0 
0 1 0 0 0 0 0 0 0 
1 1 0 0 1 0 1 1 0 
0 1 1 0 1 0 0 0 1 
1 1 1 0 0 1 1 0 1 
1 1 1 1 0 1 0 1 1 
1 0 1 1 1 1 1 1 0 
1 0 1 1 1 0 1 0 0 
Graph 2:
0 0 0 0 1 1 0 0 1 
1 0 0 1 1 0 0 0 0 
0 1 0 0 0 0 0 0 0 
1 1 0 0 1 0 1 1 0 
0 1 1 0 1 0 0 0 1 
1 1 1 0 0 1 1 0 1 
1 1 1 1 0 1 0 1 1 
1 0 1 1 1 1 1 1 0 
1 0 1 1 1 0 1 0 0 
Solution: 0 0
Expectation: -42.254663
Final Parameters:
Gammas:
[ 5.126897 4.407656 ]
Betas:
[ 3.141433 3.141593 2.715788 ]
Aggregate results:
[ 0 16 18 14 20 26 22 24 32 28 34 30 38 36 40 12 42 44 46 48 52 54 50 56 58 60 62 10 81 ]
[ 0.000002 0.000043 0.000070 0.000032 0.000224 0.003468 0.000515 0.001233 0.041076 0.008592 0.072694 0.019597 0.142327 0.109913 0.153997 0.000010 0.141523 0.109573 0.071233 0.039047 0.006538 0.002149 0.017597 0.000553 0.000099 0.000041 0.000005 0.000003 0.057843 ]
3
Num Evals 537
GenUC: 7.055682e-02
GenUB: 2.739618e-01
Optimisation 1.031749e+03
Total Time: 1.034080e+03
2 Flipped
Graph 1:
0 0 0 0 1 1 0 0 1 
1 0 0 1 1 0 0 0 0 
0 1 0 0 0 0 0 0 0 
1 1 0 0 1 0 1 1 0 
0 1 1 0 1 0 0 0 1 
1 1 1 0 0 1 1 0 1 
1 1 1 1 0 1 0 1 1 
1 0 1 1 1 1 1 1 0 
1 0 1 1 1 0 1 0 0 
Graph 2:
1 0 0 1 1 0 0 0 0 
0 0 0 0 1 1 0 0 1 
0 0 0 0 0 0 0 1 0 
0 1 1 0 1 0 0 1 1 
1 0 0 0 1 0 1 1 0 
1 0 1 1 0 0 1 1 1 
1 1 0 1 0 1 1 1 1 
0 1 1 1 1 1 1 0 1 
0 0 1 0 1 1 1 0 1 
Solution: -20 310596
Expectation: -41.734078
Final Parameters:
Gammas:
[ 4.688591 4.693922 ]
Betas:
[ 2.788703 3.141593 2.739392 ]
Aggregate results:
[ 34 24 30 38 32 26 36 28 44 40 42 46 48 50 52 54 56 58 22 60 20 81 ]
[ 0.065001 0.000235 0.012834 0.148595 0.031748 0.001162 0.108436 0.004111 0.123590 0.170135 0.159163 0.077253 0.039255 0.015810 0.005040 0.001310 0.000276 0.000036 0.000026 0.000008 0.000003 0.035972 ]
3
Num Evals 1011
GenUC: 9.414526e-02
GenUB: 3.013205e-01
Optimisation 8.861788e+02
Total Time: 8.885040e+02
3 Add 9
Graph 1:
0 0 0 0 1 1 0 0 1 
1 0 0 1 1 0 0 0 0 
0 1 0 0 0 0 0 0 0 
1 1 0 0 1 0 1 1 0 
0 1 1 0 1 0 0 0 1 
1 1 1 0 0 1 1 0 1 
1 1 1 1 0 1 0 1 1 
1 0 1 1 1 1 1 1 0 
1 0 1 1 1 0 1 0 0 
Graph 2:
0 1 0 0 1 1 0 0 1 
1 0 0 1 1 0 1 0 0 
0 1 0 0 0 0 0 0 1 
1 1 0 0 1 0 1 1 1 
0 1 1 0 1 0 0 0 1 
1 1 1 0 0 1 1 0 1 
1 1 1 1 0 1 1 1 1 
1 0 1 1 1 1 1 1 0 
1 1 1 1 1 1 1 0 0 
Solution: -7 0
Expectation: -51.478726
Final Parameters:
Gammas:
[ 4.134537 3.514590 ]
Betas:
[ 1.966082 2.042117 1.606989 ]
Aggregate results:
[ 7 19 21 23 17 31 25 29 27 35 33 39 37 41 43 15 45 47 49 51 55 53 57 61 59 9 81 ]
[ 0.000000 0.000050 0.000164 0.000514 0.000023 0.020007 0.001194 0.008891 0.003504 0.070271 0.042793 0.120956 0.094585 0.122648 0.092938 0.000005 0.068288 0.042447 0.018311 0.007504 0.000475 0.002290 0.000089 0.000002 0.000027 0.000001 0.282022 ]
3
Num Evals 1246
GenUC: 9.135665e-02
GenUB: 3.004225e-01
Optimisation 3.466957e+02
Total Time: 3.485650e+02
4 Rem 9
Graph 1:
0 0 0 0 1 1 0 0 1 
1 0 0 1 1 0 0 0 0 
0 1 0 0 0 0 0 0 0 
1 1 0 0 1 0 1 1 0 
0 1 1 0 1 0 0 0 1 
1 1 1 0 0 1 1 0 1 
1 1 1 1 0 1 0 1 1 
1 0 1 1 1 1 1 1 0 
1 0 1 1 1 0 1 0 0 
Graph 2:
0 0 0 0 1 1 0 0 1 
1 0 0 1 1 0 0 0 0 
0 1 0 0 0 0 0 0 0 
0 0 0 0 1 0 1 1 0 
0 0 0 0 1 0 0 0 1 
1 1 1 0 0 1 1 0 1 
1 1 0 1 0 1 0 0 1 
1 0 1 1 1 1 1 1 0 
0 0 1 1 1 0 1 0 0 
Solution: -7 0
Expectation: -46.446750
Final Parameters:
Gammas:
[ 3.412957 2.757991 ]
Betas:
[ 1.821169 2.048309 1.601980 ]
Aggregate results:
[ 7 19 21 17 27 23 25 29 33 31 37 35 39 41 43 47 45 49 51 53 55 57 59 61 13 15 81 ]
[ 0.000010 0.000080 0.000110 0.000059 0.003540 0.000334 0.001092 0.010105 0.047388 0.022915 0.109263 0.077960 0.132425 0.140200 0.120293 0.053332 0.087361 0.025523 0.009953 0.003104 0.000763 0.000145 0.000033 0.000001 0.000003 0.000002 0.154006 ]
3
Num Evals 1722
GenUC: 9.138581e-02
GenUB: 3.009899e-01
Optimisation 6.819868e+02
Total Time: 6.838289e+02
5 Add/Rem 9
Graph 1:
0 0 0 0 1 1 0 0 1 
1 0 0 1 1 0 0 0 0 
0 1 0 0 0 0 0 0 0 
1 1 0 0 1 0 1 1 0 
0 1 1 0 1 0 0 0 1 
1 1 1 0 0 1 1 0 1 
1 1 1 1 0 1 0 1 1 
1 0 1 1 1 1 1 1 0 
1 0 1 1 1 0 1 0 0 
Graph 2:
0 1 0 0 1 1 0 1 0 
1 0 0 1 0 0 0 0 0 
0 1 0 0 0 0 1 0 0 
1 1 0 0 1 0 0 1 1 
0 1 1 1 0 0 0 1 1 
1 0 1 0 0 1 1 0 0 
1 1 1 0 0 1 0 1 1 
1 1 1 1 1 1 1 1 0 
1 1 1 1 1 0 1 0 0 
Solution: -15 0
Expectation: -51.114203
Final Parameters:
Gammas:
[ 4.006135 3.364342 ]
Betas:
[ 1.649284 2.046124 1.659133 ]
Aggregate results:
[ 15 23 25 27 29 19 31 33 35 21 37 39 41 43 45 47 49 51 53 55 57 59 17 81 ]
[ 0.000000 0.000394 0.001535 0.004508 0.012176 0.000035 0.025659 0.049981 0.080615 0.000079 0.101074 0.112637 0.114122 0.091253 0.061106 0.035922 0.018424 0.007087 0.002017 0.000407 0.000082 0.000005 0.000003 0.280880 ]
3
Num Evals 2036
GenUC: 9.298134e-02
GenUB: 3.008683e-01
Optimisation 4.502899e+02
Total Time: 4.521097e+02
