Clock Speed: 3.498807
Num threads: 24
Trotterisation: 4
Graph Size: 9
Num Qubits: 19
Space Dimension: 524288
Run-Type: 0
Num_samples: 1
1 Isomorphic
Graph 1:
1 1 1 1 1 1 1 0 0 
0 0 1 1 0 0 0 1 1 
0 0 1 1 1 1 0 0 1 
1 1 0 1 1 1 0 1 1 
1 0 1 0 1 0 1 1 1 
1 1 0 1 0 1 1 1 0 
1 1 1 1 1 0 1 0 0 
1 1 1 0 1 0 0 1 0 
1 0 1 0 0 1 0 0 1 
Graph 2:
1 1 1 1 1 1 1 0 0 
0 0 1 1 0 0 0 1 1 
0 0 1 1 1 1 0 0 1 
1 1 0 1 1 1 0 1 1 
1 0 1 0 1 0 1 1 1 
1 1 0 1 0 1 1 1 0 
1 1 1 1 1 0 1 0 0 
1 1 1 0 1 0 0 1 0 
1 0 1 0 0 1 0 0 1 
Solution: 0 0
Expectation: -44.658908
Final Parameters:
Gammas:
[ 3.463261 4.263640 3.283401 3.118659 ]
Betas:
[ 1.596999 2.010314 1.723931 1.725782 1.644853 ]
Aggregate results:
[ 0 18 24 14 20 26 30 34 16 22 28 12 32 36 42 38 40 48 50 46 44 52 8 54 56 58 10 81 ]
[ 0.000000 0.000085 0.003123 0.000025 0.000424 0.008680 0.048278 0.119884 0.000058 0.001002 0.022030 0.000001 0.083189 0.140801 0.074940 0.139335 0.112464 0.006183 0.001735 0.018430 0.039651 0.000496 0.000004 0.000108 0.000017 0.000008 0.000001 0.179050 ]
5
Num Evals 900
GenUC: 6.884114e-02
GenUB: 2.695916e-01
Optimisation 2.134976e+03
Total Time: 2.137668e+03
2 Flipped
Graph 1:
1 1 1 1 1 1 1 0 0 
0 0 1 1 0 0 0 1 1 
0 0 1 1 1 1 0 0 1 
1 1 0 1 1 1 0 1 1 
1 0 1 0 1 0 1 1 1 
1 1 0 1 0 1 1 1 0 
1 1 1 1 1 0 1 0 0 
1 1 1 0 1 0 0 1 0 
1 0 1 0 0 1 0 0 1 
Graph 2:
0 0 1 1 1 1 1 1 1 
1 1 0 0 0 1 1 0 0 
1 0 0 1 1 1 1 0 0 
1 1 0 1 1 1 0 1 1 
1 1 1 0 1 0 1 0 1 
0 1 1 1 0 1 0 1 1 
0 0 1 0 1 1 1 1 1 
0 1 0 0 1 0 1 1 1 
1 0 0 1 0 0 1 0 1 
Solution: -18 11816
Expectation: -49.733993
Final Parameters:
Gammas:
[ 4.127856 4.301295 3.838933 3.319847 ]
Betas:
[ 1.741392 2.050758 1.561227 1.561599 1.579495 ]
Aggregate results:
[ 36 32 38 40 42 44 46 48 50 34 30 28 24 26 22 52 20 18 54 56 81 ]
[ 0.132387 0.061356 0.134894 0.101848 0.077279 0.043343 0.017094 0.006396 0.002035 0.091512 0.032304 0.011439 0.001003 0.003544 0.000188 0.000400 0.000028 0.000011 0.000142 0.000005 0.282793 ]
5
Num Evals 1800
GenUC: 9.298481e-02
GenUB: 2.969487e-01
Optimisation 2.079632e+03
Total Time: 2.082332e+03
3 Add 9
Graph 1:
1 1 1 1 1 1 1 0 0 
0 0 1 1 0 0 0 1 1 
0 0 1 1 1 1 0 0 1 
1 1 0 1 1 1 0 1 1 
1 0 1 0 1 0 1 1 1 
1 1 0 1 0 1 1 1 0 
1 1 1 1 1 0 1 0 0 
1 1 1 0 1 0 0 1 0 
1 0 1 0 0 1 0 0 1 
Graph 2:
1 1 1 1 1 1 1 0 0 
1 0 1 1 0 0 0 1 1 
0 0 1 1 1 1 0 1 1 
1 1 0 1 1 1 1 1 1 
1 1 1 0 1 0 1 1 1 
1 1 0 1 0 1 1 1 0 
1 1 1 1 1 1 1 0 0 
1 1 1 0 1 0 0 1 0 
1 0 1 1 0 1 1 1 1 
Solution: -8 0
Expectation: -46.840861
Final Parameters:
Gammas:
[ 3.729227 3.149865 2.771907 3.836514 ]
Betas:
[ 1.649896 1.996652 1.818018 1.692575 1.573575 ]
Aggregate results:
[ 8 22 30 26 20 28 24 34 32 18 36 38 42 40 14 44 46 48 50 16 10 52 81 ]
[ 0.000000 0.000892 0.082398 0.013978 0.000152 0.039456 0.003773 0.132911 0.121113 0.000019 0.119079 0.092757 0.041091 0.067272 0.000005 0.018085 0.006057 0.001250 0.000187 0.000006 0.000004 0.000013 0.259503 ]
5
Num Evals 2700
GenUC: 8.982614e-02
GenUB: 2.964503e-01
Optimisation 2.126500e+03
Total Time: 2.129230e+03
4 Rem 9
Graph 1:
1 1 1 1 1 1 1 0 0 
0 0 1 1 0 0 0 1 1 
0 0 1 1 1 1 0 0 1 
1 1 0 1 1 1 0 1 1 
1 0 1 0 1 0 1 1 1 
1 1 0 1 0 1 1 1 0 
1 1 1 1 1 0 1 0 0 
1 1 1 0 1 0 0 1 0 
1 0 1 0 0 1 0 0 1 
Graph 2:
1 1 0 1 1 1 1 0 0 
0 0 1 1 0 0 0 1 1 
0 0 0 1 1 1 0 0 1 
1 0 0 1 0 1 0 1 1 
1 0 1 0 0 0 1 1 1 
0 1 0 1 0 1 1 1 0 
1 1 1 1 1 0 1 0 0 
0 1 0 0 0 0 0 1 0 
1 0 1 0 0 1 0 0 1 
Solution: -9 0
Expectation: -42.018691
Final Parameters:
Gammas:
[ 5.844072 5.759979 3.673826 3.673358 ]
Betas:
[ 1.135278 1.616523 1.600493 1.503994 1.902866 ]
Aggregate results:
[ 9 27 29 23 19 25 37 39 21 33 31 35 41 45 43 47 53 51 49 57 55 15 17 59 81 ]
[ 0.000001 0.003776 0.011757 0.000207 0.000020 0.000884 0.153653 0.158946 0.000081 0.073336 0.032747 0.120664 0.141775 0.069106 0.109451 0.032942 0.000859 0.003528 0.011899 0.000031 0.000168 0.000001 0.000001 0.000001 0.074167 ]
5
Num Evals 3600
GenUC: 9.186897e-02
GenUB: 2.965192e-01
Optimisation 2.042246e+03
Total Time: 2.044828e+03
5 Add/Rem 9
Graph 1:
1 1 1 1 1 1 1 0 0 
0 0 1 1 0 0 0 1 1 
0 0 1 1 1 1 0 0 1 
1 1 0 1 1 1 0 1 1 
1 0 1 0 1 0 1 1 1 
1 1 0 1 0 1 1 1 0 
1 1 1 1 1 0 1 0 0 
1 1 1 0 1 0 0 1 0 
1 0 1 0 0 1 0 0 1 
Graph 2:
1 0 1 1 1 1 1 0 0 
0 0 1 1 0 1 0 0 1 
1 0 0 0 1 1 1 0 1 
1 1 0 1 1 1 1 1 0 
1 1 1 0 1 1 1 1 1 
1 0 0 1 0 1 1 0 0 
1 1 1 1 1 0 1 0 1 
1 1 0 0 1 0 0 1 1 
1 0 0 0 0 1 0 0 1 
Solution: -17 0
Expectation: -41.365472
Final Parameters:
Gammas:
[ 3.391818 3.348972 3.236443 2.917657 ]
Betas:
[ 1.600669 1.911091 1.614480 1.535914 1.493173 ]
Aggregate results:
[ 17 27 29 23 25 31 35 37 33 41 39 21 43 45 47 49 51 53 19 55 81 ]
[ 0.000012 0.013239 0.039584 0.000949 0.003832 0.091677 0.186049 0.154388 0.152803 0.056422 0.096827 0.000211 0.037651 0.025758 0.013060 0.004477 0.001029 0.000240 0.000026 0.000015 0.121752 ]
5
Num Evals 4500
GenUC: 8.834166e-02
GenUB: 2.962586e-01
Optimisation 2.045805e+03
Total Time: 2.048450e+03
