Clock Speed: 3.498870
Num threads: 24
Trotterisation: 5
Graph Size: 9
Num Qubits: 19
Space Dimension: 524288
Run-Type: 0
Num_samples: 1
1 Isomorphic
Graph 1:
0 0 0 1 0 1 1 0 1 
1 1 1 0 0 1 1 0 0 
0 1 1 0 1 0 1 0 1 
1 1 0 0 1 0 0 1 1 
1 0 0 0 0 1 0 1 0 
1 1 1 0 1 1 1 1 0 
0 1 1 1 0 0 0 0 0 
0 1 1 0 1 0 0 1 0 
0 0 1 0 1 1 1 0 0 
Graph 2:
0 0 0 1 0 1 1 0 1 
1 1 1 0 0 1 1 0 0 
0 1 1 0 1 0 1 0 1 
1 1 0 0 1 0 0 1 1 
1 0 0 0 0 1 0 1 0 
1 1 1 0 1 1 1 1 0 
0 1 1 1 0 0 0 0 0 
0 1 1 0 1 0 0 1 0 
0 0 1 0 1 1 1 0 0 
Solution: 0 0
Expectation: -42.927052
Final Parameters:
Gammas:
[ 3.593292 5.741805 6.115038 4.568046 4.464592 ]
Betas:
[ 2.273483 3.091479 2.150682 1.416346 1.626489 1.592822 ]
Aggregate results:
[ 0 18 24 12 20 28 26 30 34 36 38 32 40 22 44 42 48 52 16 46 50 54 56 14 58 60 81 ]
[ 0.000003 0.000081 0.000786 0.000006 0.000110 0.005806 0.002119 0.014295 0.061803 0.101322 0.137292 0.033088 0.159011 0.000254 0.120479 0.150639 0.042617 0.006621 0.000038 0.079096 0.018321 0.001836 0.000578 0.000011 0.000178 0.000010 0.063600 ]
5
Num Evals 900
GenUC: 9.092562e-02
GenUB: 2.950962e-01
Optimisation 2.878147e+03
Total Time: 2.881627e+03
2 Flipped
Graph 1:
0 0 0 1 0 1 1 0 1 
1 1 1 0 0 1 1 0 0 
0 1 1 0 1 0 1 0 1 
1 1 0 0 1 0 0 1 1 
1 0 0 0 0 1 0 1 0 
1 1 1 0 1 1 1 1 0 
0 1 1 1 0 0 0 0 0 
0 1 1 0 1 0 0 1 0 
0 0 1 0 1 1 1 0 0 
Graph 2:
1 0 1 1 0 1 0 0 0 
0 0 1 1 0 0 1 1 1 
1 0 1 0 1 0 1 1 0 
1 1 0 0 1 0 0 1 1 
0 1 0 1 0 0 0 0 1 
0 1 1 1 1 0 1 1 1 
0 0 0 0 0 1 1 1 0 
0 1 0 0 1 0 1 1 0 
0 0 1 1 1 0 1 0 0 
Solution: -20 1318
Expectation: -42.118725
Final Parameters:
Gammas:
[ 4.392628 4.929969 6.275674 5.798235 4.993108 ]
Betas:
[ 2.847962 3.116491 1.721468 1.858600 1.630941 1.579088 ]
Aggregate results:
[ 34 28 40 36 44 46 42 38 32 48 50 52 30 26 54 24 20 56 22 58 60 62 81 ]
[ 0.075836 0.003586 0.162396 0.129359 0.098893 0.070810 0.130027 0.162381 0.033536 0.040561 0.018693 0.006240 0.011684 0.000922 0.001696 0.000168 0.000003 0.000336 0.000024 0.000100 0.000015 0.000001 0.052735 ]
5
Num Evals 1800
GenUC: 9.249568e-02
GenUB: 2.936678e-01
Optimisation 2.906097e+03
Total Time: 2.909663e+03
3 Add 9
Graph 1:
0 0 0 1 0 1 1 0 1 
1 1 1 0 0 1 1 0 0 
0 1 1 0 1 0 1 0 1 
1 1 0 0 1 0 0 1 1 
1 0 0 0 0 1 0 1 0 
1 1 1 0 1 1 1 1 0 
0 1 1 1 0 0 0 0 0 
0 1 1 0 1 0 0 1 0 
0 0 1 0 1 1 1 0 0 
Graph 2:
0 0 0 1 0 1 1 0 1 
1 1 1 0 0 1 1 1 0 
0 1 1 1 1 1 1 0 1 
1 1 0 0 1 1 0 1 1 
1 0 0 1 0 1 1 1 0 
1 1 1 0 1 1 1 1 0 
0 1 1 1 1 0 0 0 0 
0 1 1 1 1 0 0 1 0 
0 0 1 0 1 1 1 0 0 
Solution: -8 0
Expectation: -40.531411
Final Parameters:
Gammas:
[ 4.441785 5.032130 4.634475 6.188833 4.614790 ]
Betas:
[ 2.533355 3.124249 2.013421 1.645472 1.658762 1.612258 ]
Aggregate results:
[ 8 26 28 18 30 24 32 34 36 22 14 38 42 40 20 44 46 48 52 50 54 16 56 58 60 62 81 ]
[ 0.000027 0.004108 0.011337 0.000117 0.028605 0.001350 0.054582 0.095347 0.134413 0.000668 0.000023 0.160833 0.128506 0.158451 0.000078 0.089113 0.050807 0.025209 0.004260 0.011061 0.001352 0.000024 0.000344 0.000079 0.000013 0.000001 0.039293 ]
5
Num Evals 2700
GenUC: 8.958969e-02
GenUB: 2.935052e-01
Optimisation 2.879891e+03
Total Time: 2.883421e+03
4 Rem 9
Graph 1:
0 0 0 1 0 1 1 0 1 
1 1 1 0 0 1 1 0 0 
0 1 1 0 1 0 1 0 1 
1 1 0 0 1 0 0 1 1 
1 0 0 0 0 1 0 1 0 
1 1 1 0 1 1 1 1 0 
0 1 1 1 0 0 0 0 0 
0 1 1 0 1 0 0 1 0 
0 0 1 0 1 1 1 0 0 
Graph 2:
0 0 0 1 0 0 1 0 1 
1 0 1 0 0 1 1 0 0 
0 1 0 0 1 0 1 0 1 
1 1 0 0 1 0 0 1 1 
0 0 0 0 0 1 0 1 0 
1 1 1 0 1 1 1 1 0 
0 1 0 1 0 0 0 0 0 
0 0 1 0 1 0 0 1 0 
0 0 1 0 0 0 1 0 0 
Solution: -8 0
Expectation: -42.205297
Final Parameters:
Gammas:
[ 4.118674 5.215001 5.158182 5.137615 3.828551 ]
Betas:
[ 2.428700 3.094286 2.003015 1.562503 1.572092 1.571702 ]
Aggregate results:
[ 8 20 26 24 30 32 34 28 22 38 16 42 36 40 44 46 48 50 54 52 18 56 58 60 81 ]
[ 0.000002 0.000045 0.001363 0.000421 0.013214 0.031631 0.065779 0.004458 0.000117 0.148939 0.000007 0.158157 0.111259 0.170431 0.115300 0.070488 0.036573 0.014178 0.001412 0.004796 0.000010 0.000338 0.000041 0.000006 0.051035 ]
5
Num Evals 3600
GenUC: 9.166145e-02
GenUB: 2.943478e-01
Optimisation 2.832786e+03
Total Time: 2.836280e+03
5 Add/Rem 9
Graph 1:
0 0 0 1 0 1 1 0 1 
1 1 1 0 0 1 1 0 0 
0 1 1 0 1 0 1 0 1 
1 1 0 0 1 0 0 1 1 
1 0 0 0 0 1 0 1 0 
1 1 1 0 1 1 1 1 0 
0 1 1 1 0 0 0 0 0 
0 1 1 0 1 0 0 1 0 
0 0 1 0 1 1 1 0 0 
Graph 2:
1 0 0 0 1 0 1 0 1 
1 1 1 1 0 1 1 0 0 
0 0 1 0 1 0 0 0 1 
1 1 1 0 1 0 0 1 1 
0 0 0 0 0 1 1 0 1 
1 1 1 1 1 0 1 1 0 
0 1 1 0 0 0 0 0 0 
0 1 1 0 1 0 0 1 0 
0 1 1 0 1 1 1 0 1 
Solution: -17 0
Expectation: -41.814118
Final Parameters:
Gammas:
[ 4.604177 4.791309 5.215482 5.996411 6.137660 ]
Betas:
[ 3.013445 3.128066 2.011658 1.523079 1.840308 1.379766 ]
Aggregate results:
[ 17 25 29 27 23 33 31 35 39 37 43 21 41 45 49 47 53 55 51 57 59 19 81 ]
[ 0.000002 0.000409 0.009532 0.002336 0.000055 0.066452 0.029192 0.118302 0.160781 0.156362 0.102428 0.000005 0.137309 0.072318 0.025735 0.046600 0.003212 0.000689 0.010229 0.000102 0.000017 0.000001 0.057931 ]
5
Num Evals 4500
GenUC: 9.013241e-02
GenUB: 2.939287e-01
Optimisation 2.908498e+03
Total Time: 2.912080e+03
