Clock Speed: 3.498636
Num threads: 16
Trotterisation: 6
Num Qubits: 5
Space Dimension: 32
Run-Type: 0
Num_samples: 16
Optimiser Method: 33
1 Isomorphic
Graph 1:
0 1 1 1 
1 0 0 1 
1 1 1 0 
1 0 1 1 
Graph 2:
0 1 1 1 
1 0 0 1 
1 1 1 0 
1 0 1 1 
Solution: 16 0
Classic Expectation: 9.500000
Initial Expecation: 7.125000
Gbest: 16.000000
Expectation: 7.125000
Final Parameters:
Gammas:
[ 3.141593 3.141593 3.141593 3.141593 3.141593 3.141593 ]
Betas:
[ 1.570796 1.570796 1.570796 1.570796 1.570796 1.570796 ]
Aggregate results:
[ 16 10 8 14 12 6 0 ]
[ 0.031250 0.250000 0.312500 0.062500 0.031250 0.062500 0.250000 ]
4
Num Evals 3
GenUC: 1.111999e-05
GenUB: 1.642946e-05
Optimisation 7.407842e-04
Total Time: 7.778290e-04
2 Flipped
Graph 1:
0 1 1 1 
1 0 0 1 
1 1 1 0 
1 0 1 1 
Graph 2:
1 1 1 0 
1 0 0 1 
0 1 1 1 
1 1 0 1 
Solution: 14 7
Classic Expectation: 9.000000
Initial Expecation: 6.750000
Gbest: 10.000000
Expectation: 6.750000
Final Parameters:
Gammas:
[ 3.141593 3.141593 3.141593 3.141593 3.141593 3.141593 ]
Betas:
[ 1.570796 1.570796 1.570796 1.570796 1.570796 1.570796 ]
Aggregate results:
[ 10 8 14 6 12 0 ]
[ 0.156250 0.343750 0.093750 0.125000 0.031250 0.250000 ]
4
Num Evals 3
GenUC: 1.032464e-05
GenUB: 1.433771e-06
Optimisation 6.207116e-04
Total Time: 6.340863e-04
3 Add 4
Graph 1:
0 1 1 1 
1 0 0 1 
1 1 1 0 
1 0 1 1 
Graph 2:
1 1 1 1 
1 0 1 1 
1 1 1 1 
1 1 1 1 
Solution: 12 0
Classic Expectation: 11.000000
Initial Expecation: 8.250000
Gbest: 12.000000
Expectation: 8.250000
Final Parameters:
Gammas:
[ 3.141593 3.141593 3.141593 3.141593 3.141593 3.141593 ]
Betas:
[ 1.570796 1.570796 1.570796 1.570796 1.570796 1.570796 ]
Aggregate results:
[ 12 10 0 ]
[ 0.375000 0.375000 0.250000 ]
4
Num Evals 3
GenUC: 9.984709e-06
GenUB: 1.103152e-06
Optimisation 6.188308e-04
Total Time: 6.312048e-04
4 Rem 4
Graph 1:
0 1 1 1 
1 0 0 1 
1 1 1 0 
1 0 1 1 
Graph 2:
0 1 0 1 
1 0 0 0 
1 0 0 0 
1 0 1 1 
Solution: 12 0
Classic Expectation: 8.000000
Initial Expecation: 6.000000
Gbest: 12.000000
Expectation: 6.000000
Final Parameters:
Gammas:
[ 3.141593 3.141593 3.141593 3.141593 3.141593 3.141593 ]
Betas:
[ 1.570796 1.570796 1.570796 1.570796 1.570796 1.570796 ]
Aggregate results:
[ 12 10 8 6 4 0 ]
[ 0.062500 0.156250 0.281250 0.218750 0.031250 0.250000 ]
4
Num Evals 3
GenUC: 9.888783e-06
GenUB: 1.038425e-06
Optimisation 6.174725e-04
Total Time: 6.296518e-04
5 Add/Rem 4
Graph 1:
0 1 1 1 
1 0 0 1 
1 1 1 0 
1 0 1 1 
Graph 2:
1 1 1 1 
0 1 1 0 
1 1 0 1 
0 0 1 1 
Solution: 12 12
Classic Expectation: 9.000000
Initial Expecation: 6.750000
Gbest: 12.000000
Expectation: 6.750000
Final Parameters:
Gammas:
[ 3.141593 3.141593 3.141593 3.141593 3.141593 3.141593 ]
Betas:
[ 1.570796 1.570796 1.570796 1.570796 1.570796 1.570796 ]
Aggregate results:
[ 8 10 6 12 0 ]
[ 0.312500 0.125000 0.125000 0.187500 0.250000 ]
4
Num Evals 3
GenUC: 9.887852e-06
GenUB: 1.009088e-06
Optimisation 6.664940e-04
Total Time: 6.786804e-04
