Clock Speed: 3.689408
Num threads: 4
Trotterisation: 1
Graph Size: 3
Num Qubits: 3
Space Dimension: 8
Run-Type: 0
Num_samples: 10
1 Isomorphic
Graph 1:
0 1 1 
1 0 1 
1 0 1 
Graph 2:
0 1 1 
1 0 1 
1 0 1 
Solution: 0 0
Gbest: -2.000000
Expectation: -4.500000
Final Parameters:
Gammas:
[ 5.235988 ]
Betas:
[ 0.523599 1.570796 ]
Aggregate results:
[ -1 1 3 8 ]
[ 0.125000 0.125000 0.500000 0.250000 ]
3
Num Evals 9
GenUC: 1.147508e-04
GenUB: 7.678173e-06
Optimisation 8.728366e-04
Total Time: 1.132218e-03
2 Flipped
Graph 1:
0 1 1 
1 0 1 
1 0 1 
Graph 2:
1 1 0 
1 0 1 
1 0 1 
Solution: -2 0
Gbest: -2.000000
Expectation: -3.186857
Final Parameters:
Gammas:
[ 0.349066 ]
Betas:
[ 0.872665 2.617994 ]
Aggregate results:
[ 1 3 5 8 ]
[ 0.586105 0.266280 0.126336 0.021279 ]
3
Num Evals 44
GenUC: 6.077811e-06
GenUB: 5.311565e-06
Optimisation 2.905373e-03
Total Time: 3.018315e-03
3 Add 3
Graph 1:
0 1 1 
1 0 1 
1 0 1 
Graph 2:
1 1 1 
1 0 1 
1 1 1 
Solution: -2 0
Gbest: -2.000000
Expectation: -4.250000
Final Parameters:
Gammas:
[ 5.235988 ]
Betas:
[ 0.523599 1.570796 ]
Aggregate results:
[ 1 3 8 ]
[ 0.500000 0.250000 0.250000 ]
3
Num Evals 53
GenUC: 5.912967e-06
GenUB: 5.445210e-06
Optimisation 7.855268e-04
Total Time: 8.817042e-04
4 Rem 3
Graph 1:
0 1 1 
1 0 1 
1 0 1 
Graph 2:
0 1 0 
1 0 0 
1 0 0 
Solution: -3 0
Gbest: -3.000000
Expectation: -5.027344
Final Parameters:
Gammas:
[ 5.235988 ]
Betas:
[ 0.523599 2.617994 ]
Aggregate results:
[ 2 4 8 ]
[ 0.064453 0.896484 0.039063 ]
3
Num Evals 68
GenUC: 5.870126e-06
GenUB: 5.275011e-06
Optimisation 1.353679e-03
Total Time: 1.458709e-03
5 Add/Rem 3
Graph 1:
0 1 1 
1 0 1 
1 0 1 
Graph 2:
0 0 1 
1 1 1 
1 1 0 
Solution: -2 2
Gbest: -2.000000
Expectation: -4.500000
Final Parameters:
Gammas:
[ 1.047198 ]
Betas:
[ 0.523599 1.570796 ]
Aggregate results:
[ 3 1 8 ]
[ 0.375000 0.375000 0.250000 ]
3
Num Evals 77
GenUC: 5.992246e-06
GenUB: 5.321461e-06
Optimisation 7.794043e-04
Total Time: 8.744779e-04
