Clock Speed: 3.689415
Num threads: 4
Trotterisation: 1
Graph Size: 3
Num Qubits: 3
Space Dimension: 8
Run-Type: 0
Num_samples: 10
1 Isomorphic
Graph 1:
0 1 1 
1 1 0 
0 0 0 
Graph 2:
0 1 1 
1 1 0 
0 0 0 
Solution: 0 0
Gbest: 0.000000
Expectation: -5.500000
Final Parameters:
Gammas:
[ 5.235988 ]
Betas:
[ 0.523599 1.570796 ]
Aggregate results:
[ -1 3 5 8 ]
[ 0.125000 0.250000 0.375000 0.250000 ]
3
Num Evals 9
GenUC: 2.071049e-04
GenUB: 7.719878e-06
Optimisation 8.780396e-04
Total Time: 1.202460e-03
2 Flipped
Graph 1:
0 1 1 
1 1 0 
0 0 0 
Graph 2:
1 1 0 
0 1 1 
0 0 0 
Solution: -2 1
Gbest: -4.000000
Expectation: -5.750000
Final Parameters:
Gammas:
[ 5.235988 ]
Betas:
[ 0.523599 1.570796 ]
Aggregate results:
[ 3 1 5 8 ]
[ 0.250000 0.125000 0.375000 0.250000 ]
3
Num Evals 18
GenUC: 6.375427e-06
GenUB: 5.650101e-06
Optimisation 7.945864e-04
Total Time: 8.938661e-04
3 Add 3
Graph 1:
0 1 1 
1 1 0 
0 0 0 
Graph 2:
1 1 1 
1 1 0 
0 0 0 
Solution: -1 0
Gbest: -1.000000
Expectation: -5.105469
Final Parameters:
Gammas:
[ 1.047198 ]
Betas:
[ 0.523599 0.523599 ]
Aggregate results:
[ 0 2 4 6 8 ]
[ 0.072266 0.177734 0.531250 0.062500 0.156250 ]
3
Num Evals 31
GenUC: 5.940557e-06
GenUB: 5.518639e-06
Optimisation 1.130866e-03
Total Time: 1.214761e-03
4 Rem 3
Graph 1:
0 1 1 
1 1 0 
0 0 0 
Graph 2:
0 1 0 
1 1 0 
0 0 0 
Solution: -1 0
Gbest: -5.000000
Expectation: -4.960937
Final Parameters:
Gammas:
[ 1.047198 ]
Betas:
[ 0.523599 0.523599 ]
Aggregate results:
[ 0 2 6 4 8 ]
[ 0.154297 0.072266 0.095703 0.544922 0.132812 ]
3
Num Evals 44
GenUC: 5.893060e-06
GenUB: 5.452312e-06
Optimisation 1.149930e-03
Total Time: 1.232347e-03
5 Add/Rem 3
Graph 1:
0 1 1 
1 1 0 
0 0 0 
Graph 2:
1 0 1 
0 0 1 
0 0 0 
Solution: -3 1
Gbest: -3.000000
Expectation: -4.937500
Final Parameters:
Gammas:
[ 1.047198 ]
Betas:
[ 0.523599 0.523599 ]
Aggregate results:
[ 4 2 8 ]
[ 0.781250 0.156250 0.062500 ]
3
Num Evals 57
GenUC: 5.870737e-06
GenUB: 5.320297e-06
Optimisation 1.260575e-03
Total Time: 1.340908e-03
