Clock Speed: 3.688875
Num threads: 4
Trotterisation: 6
Num Qubits: 7
Space Dimension: 128
Run-Type: 0
Num_samples: 5
Optimiser Method: 0
1 Isomorphic
Graph 1:
0 1 1 0 0 
1 0 0 1 1 
1 0 0 1 1 
0 1 1 0 1 
0 1 1 1 0 
Graph 2:
0 1 1 0 0 
1 0 0 1 1 
1 0 0 1 1 
0 1 1 0 1 
0 1 1 1 0 
Solution: 25 0
Classic Expectation: 16.600000
Initial Expecation: 15.562500
Gbest: 21.000000
Expectation: 18.800877
Final Parameters:
Gammas:
[ 5.154108 1.042888 1.040583 3.128665 0.749845 1.085982 ]
Betas:
[ 1.512619 1.512619 1.551404 0.349066 1.745329 1.628974 ]
Aggregate results:
[ 25 17 13 21 0 ]
[ 0.117640 0.301360 0.156169 0.414597 0.010233 ]
5
Num Evals 6000
GenUC: 4.074068e-05
GenUB: 1.321972e-05
Optimisation 1.207812e+02
Total Time: 1.207813e+02
2 Flipped
Graph 1:
0 1 1 0 0 
1 0 0 1 1 
1 0 0 1 1 
0 1 1 0 1 
0 1 1 1 0 
Graph 2:
0 0 1 1 0 
1 1 0 0 1 
1 1 0 0 1 
1 0 1 1 0 
0 1 1 1 0 
Solution: 19 28
Classic Expectation: 13.800000
Initial Expecation: 12.937500
Gbest: 19.000000
Expectation: 15.195733
Final Parameters:
Gammas:
[ 1.025171 3.179899 1.013680 3.103286 3.139677 3.817698 ]
Betas:
[ 0.349305 1.667041 1.513337 1.704389 1.934227 1.784833 ]
Aggregate results:
[ 15 17 9 11 13 19 0 ]
[ 0.237497 0.370714 0.034745 0.117125 0.120249 0.114044 0.005627 ]
5
Num Evals 6000
GenUC: 4.467895e-05
GenUB: 2.960602e-06
Optimisation 1.193476e+02
Total Time: 1.193476e+02
3 Add 5
Graph 1:
0 1 1 0 0 
1 0 0 1 1 
1 0 0 1 1 
0 1 1 0 1 
0 1 1 1 0 
Graph 2:
1 1 1 1 1 
1 1 1 1 1 
1 1 0 1 1 
1 1 1 0 1 
1 1 1 1 0 
Solution: 17 0
Classic Expectation: 17.000000
Initial Expecation: 15.937500
Gbest: 17.000000
Expectation: 17.000000
Final Parameters:
Gammas:
[ 0.365487 1.745329 5.942632 3.830301 1.046240 3.132124 ]
Betas:
[ 1.557424 2.605012 1.579433 1.562183 1.557868 1.919844 ]
Aggregate results:
[ 17 0 ]
[ 1.000000 0.000000 ]
5
Num Evals 6000
GenUC: 4.431687e-05
GenUB: 2.894871e-06
Optimisation 1.207608e+02
Total Time: 1.207608e+02
4 Rem 5
Graph 1:
0 1 1 0 0 
1 0 0 1 1 
1 0 0 1 1 
0 1 1 0 1 
0 1 1 1 0 
Graph 2:
0 1 0 0 0 
1 0 0 0 0 
0 0 0 0 1 
0 0 0 0 1 
0 0 1 1 0 
Solution: 17 0
Classic Expectation: 13.400000
Initial Expecation: 12.562500
Gbest: 17.000000
Expectation: 14.898666
Final Parameters:
Gammas:
[ 5.257535 5.244447 3.145902 3.129622 3.141965 3.165587 ]
Betas:
[ 2.614403 1.279908 2.564126 1.577260 1.590189 0.472284 ]
Aggregate results:
[ 17 13 9 5 0 ]
[ 0.632671 0.227499 0.128925 0.005091 0.005814 ]
5
Num Evals 6000
GenUC: 4.450584e-05
GenUB: 2.982895e-06
Optimisation 1.137190e+02
Total Time: 1.137190e+02
5 Add/Rem 5
Graph 1:
0 1 1 0 0 
1 0 0 1 1 
1 0 0 1 1 
0 1 1 0 1 
0 1 1 1 0 
Graph 2:
1 0 0 1 1 
0 1 1 0 0 
0 1 0 0 1 
1 0 0 0 1 
1 0 1 1 0 
Solution: 19 24
Classic Expectation: 13.000000
Initial Expecation: 12.187500
Gbest: 19.000000
Expectation: 14.208742
Final Parameters:
Gammas:
[ 3.137762 1.068904 1.005380 3.144785 3.146381 1.034748 ]
Betas:
[ 1.396503 1.667520 1.521477 0.517374 0.581537 1.745249 ]
Aggregate results:
[ 7 15 11 19 0 ]
[ 0.054338 0.530336 0.212568 0.186058 0.016701 ]
5
Num Evals 6000
GenUC: 4.417956e-05
GenUB: 2.930086e-06
Optimisation 1.166784e+02
Total Time: 1.166784e+02
