Clock Speed: 3.688906
Num threads: 4
Trotterisation: 3
Num Qubits: 5
Space Dimension: 32
Run-Type: 0
Num_samples: 4
Optimiser Method: 20
1 Isomorphic
Graph 1:
0 1 0 0 
1 0 0 0 
0 0 0 1 
0 0 1 0 
Graph 2:
0 1 0 0 
1 0 0 0 
0 0 0 1 
0 0 1 0 
Solution: 16 0
Classic Expectation: 10.666667
Initial Expecation: 8.000000
Gbest: 16.000000
Expectation: 14.680170
Final Parameters:
Gammas:
[ 2.438635 1.672512 4.118143 ]
Betas:
[ 0.983537 0.383901 0.306901 ]
Aggregate results:
[ 16 8 0 ]
[ 0.846978 0.141066 0.011956 ]
5
Num Evals 2400
GenUC: 8.188130e-06
GenUB: 9.256182e-06
Optimisation 4.064917e-01
Total Time: 4.065373e-01
2 Flipped
Graph 1:
0 1 0 0 
1 0 0 0 
0 0 0 1 
0 0 1 0 
Graph 2:
0 0 1 0 
0 0 0 1 
1 0 0 0 
0 1 0 0 
Solution: 16 2
Classic Expectation: 10.666667
Initial Expecation: 8.000000
Gbest: 16.000000
Expectation: 12.753670
Final Parameters:
Gammas:
[ 2.707281 1.804290 3.987780 ]
Betas:
[ 3.082472 0.570507 2.064653 ]
Aggregate results:
[ 8 16 0 ]
[ 0.261900 0.666154 0.071946 ]
5
Num Evals 2400
GenUC: 8.990348e-06
GenUB: 1.639652e-06
Optimisation 6.570773e-01
Total Time: 6.570897e-01
3 Add 4
Graph 1:
0 1 0 0 
1 0 0 0 
0 0 0 1 
0 0 1 0 
Graph 2:
1 1 1 1 
1 1 0 0 
1 0 0 1 
1 0 1 0 
Solution: 10 0
Classic Expectation: 7.333333
Initial Expecation: 5.500000
Gbest: 10.000000
Expectation: 7.612079
Final Parameters:
Gammas:
[ 2.124175 5.965530 6.110403 ]
Betas:
[ 2.847494 3.105728 2.193361 ]
Aggregate results:
[ 10 6 0 ]
[ 0.440088 0.535199 0.024712 ]
5
Num Evals 2400
GenUC: 9.319570e-06
GenUB: 1.663109e-06
Optimisation 8.400260e-01
Total Time: 8.400394e-01
4 Rem 4
Graph 1:
0 1 0 0 
1 0 0 0 
0 0 0 1 
0 0 1 0 
Graph 2:
0 0 0 0 
0 0 0 0 
0 0 0 0 
0 0 0 0 
Solution: 12 0
Classic Expectation: 12.000000
Initial Expecation: 9.000000
Gbest: 12.000000
Expectation: 12.000000
Final Parameters:
Gammas:
[ 4.605353 1.037098 3.274580 ]
Betas:
[ 2.588204 1.321607 1.455496 ]
Aggregate results:
[ 12 0 ]
[ 1.000000 0.000000 ]
5
Num Evals 2400
GenUC: 9.036739e-06
GenUB: 1.504028e-06
Optimisation 5.973101e-01
Total Time: 5.973225e-01
5 Add/Rem 4
Graph 1:
0 1 0 0 
1 0 0 0 
0 0 0 1 
0 0 1 0 
Graph 2:
0 0 1 1 
0 1 1 0 
1 1 0 0 
1 0 0 0 
Solution: 13 4
Classic Expectation: 9.000000
Initial Expecation: 6.750000
Gbest: 13.000000
Expectation: 9.813379
Final Parameters:
Gammas:
[ 4.732783 1.901297 6.157555 ]
Betas:
[ 0.605296 0.153299 1.186822 ]
Aggregate results:
[ 5 9 13 0 ]
[ 0.249785 0.238392 0.493763 0.018059 ]
5
Num Evals 2400
GenUC: 9.128300e-06
GenUB: 1.534005e-06
Optimisation 4.114957e-01
Total Time: 4.115085e-01
