Clock Speed: 3.689063
Num threads: 4
Trotterisation: 3
Num Qubits: 5
Space Dimension: 32
Run-Type: 0
Num_samples: 4
Optimiser Method: 20
1 Isomorphic
Graph 1:
0 1 1 1 
1 0 0 1 
1 0 0 0 
1 1 0 0 
Graph 2:
0 1 1 1 
1 0 0 1 
1 0 0 0 
1 1 0 0 
Solution: 16 0
Classic Expectation: 10.666667
Initial Expecation: 8.000000
Gbest: 12.000000
Expectation: 12.395171
Final Parameters:
Gammas:
[ 1.405750 5.328390 5.997504 ]
Betas:
[ 2.571026 0.034118 0.262082 ]
Aggregate results:
[ 16 12 8 0 ]
[ 0.233167 0.674458 0.071376 0.021000 ]
5
Num Evals 2400
GenUC: 8.343079e-06
GenUB: 8.222763e-06
Optimisation 1.339497e+01
Total Time: 1.339501e+01
2 Flipped
Graph 1:
0 1 1 1 
1 0 0 1 
1 0 0 0 
1 1 0 0 
Graph 2:
1 1 1 0 
1 0 0 1 
0 0 0 1 
0 0 1 1 
Solution: 10 2
Classic Expectation: 8.000000
Initial Expecation: 6.000000
Gbest: 10.000000
Expectation: 8.616254
Final Parameters:
Gammas:
[ 5.875506 0.214349 4.401238 ]
Betas:
[ 0.367726 2.438472 0.076600 ]
Aggregate results:
[ 8 6 10 0 ]
[ 0.265818 0.133665 0.568772 0.031745 ]
5
Num Evals 2400
GenUC: 9.221563e-06
GenUB: 1.833279e-06
Optimisation 1.467765e+01
Total Time: 1.467766e+01
3 Add 4
Graph 1:
0 1 1 1 
1 0 0 1 
1 0 0 0 
1 1 0 0 
Graph 2:
0 1 1 1 
1 1 1 1 
1 1 0 1 
1 1 1 0 
Solution: 11 0
Classic Expectation: 11.000000
Initial Expecation: 8.250000
Gbest: 11.000000
Expectation: 11.000000
Final Parameters:
Gammas:
[ 0.410681 0.524988 1.832638 ]
Betas:
[ 1.530546 2.440841 1.409222 ]
Aggregate results:
[ 11 0 ]
[ 1.000000 0.000000 ]
5
Num Evals 2400
GenUC: 9.349504e-06
GenUB: 1.676599e-06
Optimisation 2.021202e+01
Total Time: 2.021203e+01
4 Rem 4
Graph 1:
0 1 1 1 
1 0 0 1 
1 0 0 0 
1 1 0 0 
Graph 2:
0 0 0 0 
0 0 0 1 
0 0 0 0 
0 1 0 0 
Solution: 10 0
Classic Expectation: 8.666667
Initial Expecation: 6.500000
Gbest: 10.000000
Expectation: 9.774228
Final Parameters:
Gammas:
[ 6.078443 3.598254 0.147104 ]
Betas:
[ 2.719246 0.354476 2.893874 ]
Aggregate results:
[ 10 6 0 ]
[ 0.970739 0.011140 0.018121 ]
5
Num Evals 2400
GenUC: 9.091891e-06
GenUB: 1.624954e-06
Optimisation 2.200144e+01
Total Time: 2.200145e+01
5 Add/Rem 4
Graph 1:
0 1 1 1 
1 0 0 1 
1 0 0 0 
1 1 0 0 
Graph 2:
0 0 0 0 
0 1 1 1 
0 1 0 1 
0 1 1 0 
Solution: 13 8
Classic Expectation: 9.000000
Initial Expecation: 6.750000
Gbest: 13.000000
Expectation: 11.180342
Final Parameters:
Gammas:
[ 2.573713 2.975772 2.427031 ]
Betas:
[ 0.855194 2.206523 0.562749 ]
Aggregate results:
[ 5 9 13 0 ]
[ 0.043239 0.344177 0.605120 0.007465 ]
5
Num Evals 2400
GenUC: 9.214535e-06
GenUB: 1.567445e-06
Optimisation 1.718042e+01
Total Time: 1.718044e+01
