Clock Speed: 3.498898
Num threads: 16
Trotterisation: 3
Num Qubits: 10
Space Dimension: 1024
Run-Type: 0
Num_samples: 36
Optimiser Method: 0
1 Isomorphic
Graph 1:
1 1 0 1 1 0 
0 0 1 0 0 0 
1 1 0 0 0 1 
0 0 0 1 1 0 
0 0 0 1 0 0 
1 1 1 0 0 1 
Graph 2:
1 1 0 1 1 0 
0 0 1 0 0 0 
1 1 0 0 0 1 
0 0 0 1 1 0 
0 0 0 1 0 0 
1 1 1 0 0 1 
Solution: 36 0
Classic Expectation: 18.600000
Initial Expecation: 13.078125
Gbest: 26.000000
Expectation: 13.690397
Final Parameters:
Gammas:
[ 1.047198 3.141593 3.141593 ]
Betas:
[ 1.570796 1.570796 0.523599 ]
Aggregate results:
[ 36 20 34 22 18 16 32 30 28 12 14 26 24 10 0 ]
[ 0.000310 0.154953 0.000954 0.068845 0.217964 0.150670 0.000825 0.001242 0.004820 0.013859 0.066915 0.013475 0.040988 0.006329 0.257851 ]
3
Num Evals 19
GenUC: 2.936772e-04
GenUB: 1.716027e-04
Optimisation 5.899135e-02
Total Time: 5.946651e-02
2 Flipped
Graph 1:
1 1 0 1 1 0 
0 0 1 0 0 0 
1 1 0 0 0 1 
0 0 0 1 1 0 
0 0 0 1 0 0 
1 1 1 0 0 1 
Graph 2:
0 1 1 0 1 1 
0 0 0 1 0 0 
1 0 0 0 1 1 
0 1 1 0 0 0 
0 0 1 0 0 0 
1 0 0 1 1 1 
Solution: 30 711
Classic Expectation: 18.200000
Initial Expecation: 12.796875
Gbest: 24.000000
Expectation: 13.602031
Final Parameters:
Gammas:
[ 1.047198 3.141593 3.141593 ]
Betas:
[ 1.570796 1.570796 0.523599 ]
Aggregate results:
[ 18 20 22 26 24 16 14 28 12 10 30 0 ]
[ 0.221722 0.117184 0.111755 0.005007 0.034596 0.144651 0.073191 0.005218 0.013930 0.010908 0.002894 0.258944 ]
3
Num Evals 19
GenUC: 3.578202e-04
GenUB: 1.469040e-04
Optimisation 5.653440e-02
Total Time: 5.704166e-02
3 Add 6
Graph 1:
1 1 0 1 1 0 
0 0 1 0 0 0 
1 1 0 0 0 1 
0 0 0 1 1 0 
0 0 0 1 0 0 
1 1 1 0 0 1 
Graph 2:
1 1 1 1 1 0 
0 0 1 1 0 1 
1 1 1 0 0 1 
1 0 0 1 1 1 
0 0 0 1 0 0 
1 1 1 0 0 1 
Solution: 30 0
Classic Expectation: 17.600000
Initial Expecation: 12.375000
Gbest: 26.000000
Expectation: 12.851519
Final Parameters:
Gammas:
[ 5.235988 3.141593 3.141593 ]
Betas:
[ 1.570796 1.570796 0.523599 ]
Aggregate results:
[ 30 16 28 18 22 20 14 26 12 24 10 0 ]
[ 0.000717 0.161818 0.005840 0.205184 0.048361 0.120584 0.078718 0.013265 0.060771 0.025405 0.012253 0.267083 ]
3
Num Evals 19
GenUC: 3.572027e-04
GenUB: 1.389496e-04
Optimisation 5.638776e-02
Total Time: 5.688612e-02
4 Rem 6
Graph 1:
1 1 0 1 1 0 
0 0 1 0 0 0 
1 1 0 0 0 1 
0 0 0 1 1 0 
0 0 0 1 0 0 
1 1 1 0 0 1 
Graph 2:
1 0 0 0 1 0 
0 0 1 0 0 0 
1 0 0 0 0 1 
0 0 0 1 0 0 
0 0 0 1 0 0 
1 1 1 0 0 1 
Solution: 32 0
Classic Expectation: 19.400000
Initial Expecation: 13.640625
Gbest: 26.000000
Expectation: 14.240387
Final Parameters:
Gammas:
[ 1.047198 3.141593 3.141593 ]
Betas:
[ 1.570796 1.570796 0.523599 ]
Aggregate results:
[ 32 18 30 20 22 16 28 26 24 14 12 0 ]
[ 0.000554 0.187610 0.000027 0.194109 0.147269 0.103898 0.004728 0.009834 0.048448 0.033129 0.003814 0.266580 ]
3
Num Evals 19
GenUC: 3.579981e-04
GenUB: 1.322944e-04
Optimisation 5.715762e-02
Total Time: 5.764981e-02
5 Add/Rem 6
Graph 1:
1 1 0 1 1 0 
0 0 1 0 0 0 
1 1 0 0 0 1 
0 0 0 1 1 0 
0 0 0 1 0 0 
1 1 1 0 0 1 
Graph 2:
1 0 0 1 1 1 
0 0 1 1 0 1 
1 0 0 1 1 1 
0 0 0 1 0 0 
0 0 1 0 0 0 
1 0 1 0 0 1 
Solution: 29 80
Classic Expectation: 18.400000
Initial Expecation: 12.937500
Gbest: 25.000000
Expectation: 13.434783
Final Parameters:
Gammas:
[ 5.235988 1.047198 3.141593 ]
Betas:
[ 0.523599 1.570796 1.570796 ]
Aggregate results:
[ 25 21 23 19 15 17 13 27 29 11 0 ]
[ 0.012882 0.153139 0.055255 0.207739 0.081256 0.157506 0.044438 0.000928 0.002654 0.009341 0.274862 ]
3
Num Evals 19
GenUC: 3.575459e-04
GenUB: 1.228624e-04
Optimisation 5.517622e-02
Total Time: 5.565867e-02
