Clock Speed: 3.689218
Num threads: 4
Trotterisation: 1
Graph Size: 7
Num Qubits: 13
Space Dimension: 8192
Run-Type: 0
Num_samples: 10
1 Isomorphic
Graph 1:
0 0 1 1 0 1 1 
0 1 0 0 1 0 0 
0 0 0 1 1 1 0 
1 0 0 0 1 0 1 
0 0 1 1 1 1 0 
1 0 1 0 1 0 0 
0 1 1 1 1 0 1 
Graph 2:
0 0 1 1 0 1 1 
0 1 0 0 1 0 0 
0 0 0 1 1 1 0 
1 0 0 0 1 0 1 
0 0 1 1 1 1 0 
1 0 1 0 1 0 0 
0 1 1 1 1 0 1 
Solution: 0 0
Gbest: -22.000000
Expectation: -25.594092
Final Parameters:
Gammas:
[ 3.075371 ]
Betas:
[ 3.140646 2.691465 ]
Aggregate results:
[ -1 17 19 11 13 21 15 23 25 9 27 7 29 5 31 33 35 37 48 ]
[ 0.000221 0.048089 0.090570 0.005168 0.009484 0.157844 0.020246 0.201455 0.190046 0.001777 0.132056 0.000216 0.057734 0.000503 0.021752 0.004726 0.000366 0.000180 0.057568 ]
5
Num Evals 700
GenUC: 1.387775e-03
GenUB: 1.885500e-03
Optimisation 3.650125e+00
Total Time: 3.672746e+00
2 Flipped
Graph 1:
0 0 1 1 0 1 1 
0 1 0 0 1 0 0 
0 0 0 1 1 1 0 
1 0 0 0 1 0 1 
0 0 1 1 1 1 0 
1 0 1 0 1 0 0 
0 1 1 1 1 0 1 
Graph 2:
1 1 0 1 1 0 0 
0 0 1 0 0 1 0 
0 1 1 1 0 0 0 
1 0 1 0 0 0 1 
0 1 1 1 1 0 0 
0 0 1 0 1 0 1 
1 0 1 1 1 1 0 
Solution: -10 4982
Gbest: -18.000000
Expectation: -25.569997
Final Parameters:
Gammas:
[ 3.207789 ]
Betas:
[ 1.644593 0.463403 ]
Aggregate results:
[ 23 17 21 25 27 19 29 31 15 13 11 33 35 37 9 48 ]
[ 0.208584 0.043079 0.174691 0.189953 0.130102 0.098792 0.057141 0.016620 0.016890 0.004952 0.000478 0.004408 0.000273 0.000204 0.000224 0.053608 ]
5
Num Evals 1400
GenUC: 1.263096e-03
GenUB: 1.708014e-03
Optimisation 2.602645e+00
Total Time: 2.609540e+00
3 Add 7
Graph 1:
0 0 1 1 0 1 1 
0 1 0 0 1 0 0 
0 0 0 1 1 1 0 
1 0 0 0 1 0 1 
0 0 1 1 1 1 0 
1 0 1 0 1 0 0 
0 1 1 1 1 0 1 
Graph 2:
0 0 1 1 0 1 1 
0 1 1 0 1 0 0 
1 0 0 1 1 1 0 
1 0 1 1 1 0 1 
1 0 1 1 1 1 1 
1 0 1 0 1 1 0 
0 1 1 1 1 0 1 
Solution: -7 0
Gbest: -21.000000
Expectation: -27.016587
Final Parameters:
Gammas:
[ 6.088862 ]
Betas:
[ 1.132822 2.728830 ]
Aggregate results:
[ 6 22 24 18 12 16 26 28 20 14 30 10 32 34 36 48 ]
[ 0.000116 0.186325 0.182691 0.073287 0.002612 0.031465 0.128835 0.078734 0.135417 0.009691 0.034380 0.001113 0.012551 0.003070 0.001243 0.118472 ]
5
Num Evals 2100
GenUC: 1.136502e-03
GenUB: 1.740074e-03
Optimisation 3.444819e+00
Total Time: 3.453177e+00
4 Rem 7
Graph 1:
0 0 1 1 0 1 1 
0 1 0 0 1 0 0 
0 0 0 1 1 1 0 
1 0 0 0 1 0 1 
0 0 1 1 1 1 0 
1 0 1 0 1 0 0 
0 1 1 1 1 0 1 
Graph 2:
0 0 1 1 0 1 1 
0 1 0 0 1 0 0 
0 0 0 1 1 1 0 
1 0 0 0 1 0 0 
0 0 1 1 0 0 0 
1 0 1 0 0 0 0 
0 0 1 0 1 0 1 
Solution: -6 0
Gbest: -18.000000
Expectation: -26.567160
Final Parameters:
Gammas:
[ 0.191278 ]
Betas:
[ 1.033606 0.402779 ]
Aggregate results:
[ 5 21 25 17 23 19 27 13 15 29 11 31 7 9 33 35 48 ]
[ 0.000136 0.156982 0.156745 0.065189 0.173457 0.118698 0.103883 0.010019 0.028687 0.046454 0.002303 0.015455 0.000021 0.000249 0.003711 0.000626 0.117385 ]
5
Num Evals 2800
GenUC: 1.275888e-03
GenUB: 1.754645e-03
Optimisation 4.416018e+00
Total Time: 4.422213e+00
5 Add/Rem 7
Graph 1:
0 0 1 1 0 1 1 
0 1 0 0 1 0 0 
0 0 0 1 1 1 0 
1 0 0 0 1 0 1 
0 0 1 1 1 1 0 
1 0 1 0 1 0 0 
0 1 1 1 1 0 1 
Graph 2:
1 0 1 1 0 0 0 
0 0 0 1 1 0 0 
1 0 0 1 1 1 1 
0 0 0 0 0 0 1 
0 0 1 1 1 1 1 
1 0 0 0 0 1 1 
0 1 1 1 1 0 1 
Solution: -12 3535
Gbest: -20.000000
Expectation: -25.701396
Final Parameters:
Gammas:
[ 6.223218 ]
Betas:
[ 0.657075 0.533060 ]
Aggregate results:
[ 13 19 23 17 25 21 15 27 29 31 33 37 35 11 48 ]
[ 0.002654 0.093900 0.213821 0.037365 0.188965 0.177331 0.011658 0.127698 0.063719 0.023430 0.008546 0.001033 0.001507 0.000274 0.048098 ]
5
Num Evals 3500
GenUC: 1.196956e-03
GenUB: 6.465717e-03
Optimisation 2.850674e+00
Total Time: 2.861453e+00
