Clock Speed: 3.689414
Num threads: 4
Trotterisation: 6
Graph Size: 3
Num Qubits: 3
Space Dimension: 8
Run-Type: 0
Num_samples: 10
1 Isomorphic
Graph 1:
1 0 1 
1 0 1 
1 0 0 
Graph 2:
1 0 1 
1 0 1 
1 0 0 
Solution: 0 0
Gbest: 0.000000
Expectation: -3.609375
Final Parameters:
Gammas:
[ 3.141593 5.235988 3.141593 5.235988 3.141593 3.141593 ]
Betas:
[ 1.570796 1.570796 1.570796 1.570796 0.523599 1.570796 1.570796 ]
Aggregate results:
[ -1 5 3 1 8 ]
[ 0.177734 0.146484 0.060547 0.435547 0.179687 ]
3
Num Evals 51
GenUC: 1.271052e-04
GenUB: 7.542054e-06
Optimisation 1.770829e-02
Total Time: 1.822495e-02
2 Flipped
Graph 1:
1 0 1 
1 0 1 
1 0 0 
Graph 2:
1 0 1 
1 0 1 
0 0 1 
Solution: -2 0
Gbest: -2.000000
Expectation: -5.281250
Final Parameters:
Gammas:
[ 5.235988 3.141593 3.141593 3.141593 3.141593 3.141593 ]
Betas:
[ 1.570796 1.570796 1.570796 1.570796 2.617994 1.570796 1.570796 ]
Aggregate results:
[ 1 5 3 7 8 ]
[ 0.167969 0.343750 0.271484 0.154297 0.062500 ]
3
Num Evals 84
GenUC: 6.412389e-06
GenUB: 5.984592e-06
Optimisation 1.169083e-02
Total Time: 1.208687e-02
3 Add 3
Graph 1:
1 0 1 
1 0 1 
1 0 0 
Graph 2:
1 1 1 
1 0 1 
1 1 1 
Solution: -3 0
Gbest: -3.000000
Expectation: -5.000000
Final Parameters:
Gammas:
[ 1.047198 1.047198 3.141593 3.141593 3.141593 3.141593 ]
Betas:
[ 1.570796 1.570796 1.570796 1.570796 1.570796 1.570796 1.570796 ]
Aggregate results:
[ 2 4 8 ]
[ 0.500000 0.250000 0.250000 ]
3
Num Evals 113
GenUC: 5.822018e-06
GenUB: 5.562062e-06
Optimisation 1.026073e-02
Total Time: 1.063097e-02
4 Rem 3
Graph 1:
1 0 1 
1 0 1 
1 0 0 
Graph 2:
0 0 0 
1 0 1 
0 0 0 
Solution: -3 0
Gbest: -3.000000
Expectation: -5.500000
Final Parameters:
Gammas:
[ 5.235988 5.235988 1.047198 3.141593 3.141593 3.141593 ]
Betas:
[ 1.570796 1.570796 1.570796 1.570796 1.570796 1.570796 1.570796 ]
Aggregate results:
[ 2 4 8 ]
[ 0.250000 0.500000 0.250000 ]
3
Num Evals 178
GenUC: 6.164162e-06
GenUB: 5.419453e-06
Optimisation 2.278073e-02
Total Time: 2.315539e-02
5 Add/Rem 3
Graph 1:
1 0 1 
1 0 1 
1 0 0 
Graph 2:
0 1 0 
0 0 1 
1 1 0 
Solution: -3 1
Gbest: -3.000000
Expectation: -5.000000
Final Parameters:
Gammas:
[ 1.047198 1.047198 3.141593 3.141593 3.141593 3.141593 ]
Betas:
[ 1.570796 1.570796 1.570796 1.570796 1.570796 1.570796 1.570796 ]
Aggregate results:
[ 4 2 8 ]
[ 0.250000 0.500000 0.250000 ]
3
Num Evals 207
GenUC: 6.069662e-06
GenUB: 5.518639e-06
Optimisation 1.031369e-02
Total Time: 1.067898e-02
