Clock Speed: 3.688846
Num threads: 4
Trotterisation: 2
Graph Size: 3
Num Qubits: 3
Space Dimension: 8
Run-Type: 0
Num_samples: 10
1 Isomorphic
Graph 1:
1 1 1 
1 0 1 
1 0 1 
Graph 2:
1 1 1 
1 0 1 
1 0 1 
Solution: 0 0
Gbest: 0.000000
Expectation: -1.615652
Final Parameters:
Gammas:
[ 0.151709 0.291057 ]
Betas:
[ 1.606974 2.328569 2.611367 ]
Aggregate results:
[ -1 3 1 8 ]
[ 0.581349 0.290434 0.100005 0.028212 ]
5
Num Evals 300
GenUC: 1.447245e-04
GenUB: 8.594827e-06
Optimisation 3.526306e-02
Total Time: 3.559905e-02
2 Flipped
Graph 1:
1 1 1 
1 0 1 
1 0 1 
Graph 2:
1 1 1 
1 0 1 
1 0 1 
Solution: 0 0
Gbest: 0.000000
Expectation: -1.464044
Final Parameters:
Gammas:
[ 0.282410 1.245242 ]
Betas:
[ 0.428707 2.143239 0.340363 ]
Aggregate results:
[ -1 3 1 8 ]
[ 0.692739 0.156333 0.074234 0.076694 ]
5
Num Evals 600
GenUC: 6.437040e-06
GenUB: 5.346112e-06
Optimisation 3.636903e-02
Total Time: 3.650460e-02
3 Add 3
Graph 1:
1 1 1 
1 0 1 
1 0 1 
Graph 2:
1 1 1 
1 1 1 
1 1 1 
Solution: -2 0
Gbest: -2.000000
Expectation: -2.023843
Final Parameters:
Gammas:
[ 3.876795 0.234785 ]
Betas:
[ 1.162695 1.867773 0.969628 ]
Aggregate results:
[ 1 8 ]
[ 0.996594 0.003406 ]
5
Num Evals 900
GenUC: 5.988084e-06
GenUB: 5.336129e-06
Optimisation 3.824716e-02
Total Time: 3.839784e-02
4 Rem 3
Graph 1:
1 1 1 
1 0 1 
1 0 1 
Graph 2:
1 1 0 
1 0 1 
0 0 0 
Solution: -3 0
Gbest: -3.000000
Expectation: -4.162909
Final Parameters:
Gammas:
[ 0.293883 0.002510 ]
Betas:
[ 1.687206 1.980274 0.769589 ]
Aggregate results:
[ 2 4 6 8 ]
[ 0.497966 0.442924 0.038802 0.020309 ]
5
Num Evals 1200
GenUC: 6.016868e-06
GenUB: 5.200563e-06
Optimisation 3.768303e-02
Total Time: 3.783500e-02
5 Add/Rem 3
Graph 1:
1 1 1 
1 0 1 
1 0 1 
Graph 2:
0 1 1 
0 1 1 
0 1 1 
Solution: -1 1
Gbest: -1.000000
Expectation: -2.687644
Final Parameters:
Gammas:
[ 0.041944 1.157604 ]
Betas:
[ 1.788406 0.045834 0.397129 ]
Aggregate results:
[ 4 0 8 ]
[ 0.296317 0.640886 0.062797 ]
5
Num Evals 1500
GenUC: 6.063812e-06
GenUB: 5.123700e-06
Optimisation 4.918315e-02
Total Time: 4.931240e-02
