Clock Speed: 3.498630
Num threads: 16
Trotterisation: 4
Num Qubits: 10
Space Dimension: 1024
Run-Type: 0
Num_samples: 36
Optimiser Method: 33
1 Isomorphic
Graph 1:
1 1 1 1 1 1 
0 0 1 1 0 1 
1 1 1 1 1 1 
0 0 0 1 0 0 
1 0 0 0 0 1 
1 1 0 0 1 0 
Graph 2:
1 1 1 1 1 1 
0 0 1 1 0 1 
1 1 1 1 1 1 
0 0 0 1 0 0 
1 0 0 0 0 1 
1 1 0 0 1 0 
Solution: 36 0
Classic Expectation: 18.600000
Initial Expecation: 13.078125
Gbest: 26.000000
Expectation: 13.078125
Final Parameters:
Gammas:
[ 3.141593 3.141593 3.141593 3.141593 ]
Betas:
[ 1.570796 1.570796 1.570796 1.570796 ]
Aggregate results:
[ 36 32 26 24 22 20 18 28 16 30 14 12 10 0 ]
[ 0.000977 0.001953 0.038086 0.040039 0.071289 0.145508 0.127930 0.009766 0.127930 0.002930 0.105469 0.025391 0.005859 0.296875 ]
4
Num Evals 3
GenUC: 5.317810e-04
GenUB: 1.405110e-04
Optimisation 7.775732e-02
Total Time: 7.843960e-02
2 Flipped
Graph 1:
1 1 1 1 1 1 
0 0 1 1 0 1 
1 1 1 1 1 1 
0 0 0 1 0 0 
1 0 0 0 0 1 
1 1 0 0 1 0 
Graph 2:
1 1 1 1 1 1 
1 0 1 1 0 0 
1 1 1 1 1 1 
0 0 1 0 0 0 
1 0 0 0 0 1 
0 1 0 0 1 1 
Solution: 30 0
Classic Expectation: 18.600000
Initial Expecation: 13.078125
Gbest: 24.000000
Expectation: 13.407718
Final Parameters:
Gammas:
[ 3.141593 5.892269 4.941558 3.141593 ]
Betas:
[ 2.292224 1.570796 2.482741 1.570796 ]
Aggregate results:
[ 30 28 22 24 26 20 16 18 14 12 10 0 ]
[ 0.002105 0.007763 0.102231 0.054851 0.016554 0.115835 0.155471 0.138198 0.085363 0.038663 0.018044 0.264921 ]
3
Num Evals 37
GenUC: 3.644233e-04
GenUB: 1.389594e-04
Optimisation 1.651223e-01
Total Time: 1.656280e-01
3 Add 6
Graph 1:
1 1 1 1 1 1 
0 0 1 1 0 1 
1 1 1 1 1 1 
0 0 0 1 0 0 
1 0 0 0 0 1 
1 1 0 0 1 0 
Graph 2:
1 1 1 1 1 1 
0 0 1 1 0 1 
1 1 1 1 1 1 
1 0 0 1 1 0 
1 1 1 1 0 1 
1 1 1 0 1 0 
Solution: 30 0
Classic Expectation: 19.800000
Initial Expecation: 13.921875
Gbest: 24.000000
Expectation: 13.921875
Final Parameters:
Gammas:
[ 3.141593 3.141593 3.141593 3.141593 ]
Betas:
[ 1.570796 1.570796 1.570796 1.570796 ]
Aggregate results:
[ 30 28 22 20 26 24 18 16 14 0 ]
[ 0.001953 0.006836 0.125977 0.188477 0.024414 0.067383 0.159180 0.104492 0.024414 0.296875 ]
4
Num Evals 3
GenUC: 3.657024e-04
GenUB: 1.200847e-04
Optimisation 1.201080e-02
Total Time: 1.249877e-02
4 Rem 6
Graph 1:
1 1 1 1 1 1 
0 0 1 1 0 1 
1 1 1 1 1 1 
0 0 0 1 0 0 
1 0 0 0 0 1 
1 1 0 0 1 0 
Graph 2:
0 1 1 1 1 1 
0 0 0 1 0 1 
1 1 0 1 0 1 
0 0 0 0 0 0 
1 0 0 0 0 1 
1 1 0 0 1 0 
Solution: 31 0
Classic Expectation: 18.200000
Initial Expecation: 12.796875
Gbest: 23.000000
Expectation: 13.775118
Final Parameters:
Gammas:
[ 3.092928 3.092928 4.535158 4.535158 ]
Betas:
[ 2.082435 2.082435 1.914294 1.914294 ]
Aggregate results:
[ 31 27 23 21 19 17 25 15 13 11 9 0 ]
[ 0.001496 0.005986 0.070287 0.128970 0.164756 0.174607 0.023102 0.091269 0.070032 0.024152 0.002310 0.243032 ]
3
Num Evals 56
GenUC: 3.657509e-04
GenUB: 1.219604e-04
Optimisation 2.528366e-01
Total Time: 2.533263e-01
5 Add/Rem 6
Graph 1:
1 1 1 1 1 1 
0 0 1 1 0 1 
1 1 1 1 1 1 
0 0 0 1 0 0 
1 0 0 0 0 1 
1 1 0 0 1 0 
Graph 2:
1 1 0 1 1 1 
1 0 1 1 1 1 
1 1 0 0 1 1 
0 0 0 1 0 0 
1 0 0 1 0 0 
0 1 1 1 1 0 
Solution: 30 99
Classic Expectation: 18.800000
Initial Expecation: 13.218750
Gbest: 26.000000
Expectation: 13.218750
Final Parameters:
Gammas:
[ 3.141593 3.141593 3.141593 3.141593 ]
Betas:
[ 1.570796 1.570796 1.570796 1.570796 ]
Aggregate results:
[ 26 24 22 20 18 16 28 14 30 12 10 0 ]
[ 0.027344 0.055664 0.077148 0.145508 0.157227 0.139648 0.006836 0.068359 0.002930 0.019531 0.002930 0.296875 ]
4
Num Evals 3
GenUC: 3.657434e-04
GenUB: 1.191143e-04
Optimisation 1.199208e-02
Total Time: 1.247900e-02
