Clock Speed: 3.687793
Num threads: 4
Trotterisation: 3
Num Qubits: 3
Space Dimension: 8
Run-Type: 0
Num_samples: 3
Optimiser Method: 29
1 Isomorphic
Graph 1:
0 0 0 
0 0 1 
0 1 0 
Graph 2:
0 0 0 
0 0 1 
0 1 0 
Solution: 9 0
Classic Expectation: 6.333333
Initial Expecation: 4.750000
Gbest: 5.000000
Expectation: 6.967456
Final Parameters:
Gammas:
[ 3.577467 3.766962 5.562620 ]
Betas:
[ 0.000000 0.000000 0.785398 ]
Aggregate results:
[ 9 5 0 ]
[ 0.494607 0.503198 0.002195 ]
4
Num Evals 889
GenUC: 2.605550e-06
GenUB: 8.059607e-06
Optimisation 8.472624e-02
Total Time: 8.476452e-02
2 Flipped
Graph 1:
0 0 0 
0 0 1 
0 1 0 
Graph 2:
0 0 0 
1 0 0 
0 1 0 
Solution: 7 0
Classic Expectation: 6.333333
Initial Expecation: 4.750000
Gbest: 7.000000
Expectation: 6.999982
Final Parameters:
Gammas:
[ 3.803818 2.443850 3.745223 ]
Betas:
[ 0.368095 1.710090 1.100019 ]
Aggregate results:
[ 7 5 0 ]
[ 0.999991 0.000009 0.000000 ]
5
Num Evals 1800
GenUC: 2.573302e-06
GenUB: 1.163105e-06
Optimisation 2.785033e-01
Total Time: 2.785091e-01
3 Add 3
Graph 1:
0 0 0 
0 0 1 
0 1 0 
Graph 2:
0 1 1 
1 0 1 
1 1 0 
Solution: 5 0
Classic Expectation: 5.000000
Initial Expecation: 3.750000
Gbest: 5.000000
Expectation: 5.000000
Final Parameters:
Gammas:
[ 3.959429 3.884772 1.539283 ]
Betas:
[ 0.687538 1.862895 1.359957 ]
Aggregate results:
[ 5 0 ]
[ 1.000000 0.000000 ]
4
Num Evals 529
GenUC: 2.778717e-06
GenUB: 9.406940e-07
Optimisation 8.976385e-02
Total Time: 8.976989e-02
4 Rem 3
Graph 1:
0 0 0 
0 0 1 
0 1 0 
Graph 2:
0 0 0 
0 0 0 
0 0 0 
Solution: 7 0
Classic Expectation: 7.000000
Initial Expecation: 5.250000
Gbest: 7.000000
Expectation: 7.000000
Final Parameters:
Gammas:
[ 3.926991 3.926991 2.767953 ]
Betas:
[ 0.787445 2.036223 0.796810 ]
Aggregate results:
[ 7 0 ]
[ 1.000000 0.000000 ]
4
Num Evals 572
GenUC: 2.481102e-06
GenUB: 6.419723e-07
Optimisation 9.215558e-02
Total Time: 9.216010e-02
5 Add/Rem 3
Graph 1:
0 0 0 
0 0 1 
0 1 0 
Graph 2:
1 1 1 
1 0 0 
1 0 0 
Solution: 6 2
Classic Expectation: 4.666667
Initial Expecation: 3.500000
Gbest: 6.000000
Expectation: 6.000000
Final Parameters:
Gammas:
[ 1.504942 4.464151 4.240107 ]
Betas:
[ 0.502090 0.738158 1.794154 ]
Aggregate results:
[ 2 6 0 ]
[ 0.000000 1.000000 0.000000 ]
4
Num Evals 929
GenUC: 2.202403e-06
GenUB: 5.000038e-07
Optimisation 1.393903e-01
Total Time: 1.393943e-01
