Clock Speed: 3.689000
Num threads: 4
Trotterisation: 3
Num Qubits: 3
Space Dimension: 8
Run-Type: 0
Num_samples: 3
Optimiser Method: 29
1 Isomorphic
Graph 1:
0 0 0 
0 0 1 
0 1 0 
Graph 2:
0 0 0 
0 0 1 
0 1 0 
Solution: 9 0
Classic Expectation: 6.333333
Initial Expecation: 4.750000
Gbest: 9.000000
Expectation: 6.967456
Final Parameters:
Gammas:
[ 3.577467 3.766962 5.562620 ]
Betas:
[ 0.000000 0.000000 0.785398 ]
Aggregate results:
[ 9 5 0 ]
[ 0.494607 0.503198 0.002195 ]
4
Num Evals 889
GenUC: 2.623186e-06
GenUB: 1.048209e-05
Optimisation 7.106837e-02
Total Time: 7.110988e-02
2 Flipped
Graph 1:
0 0 0 
0 0 1 
0 1 0 
Graph 2:
0 0 0 
1 0 0 
0 1 0 
Solution: 7 0
Classic Expectation: 6.333333
Initial Expecation: 4.750000
Gbest: 7.000000
Expectation: 6.999982
Final Parameters:
Gammas:
[ 3.803818 2.443850 3.745223 ]
Betas:
[ 0.368095 1.710090 1.100019 ]
Aggregate results:
[ 7 5 0 ]
[ 0.999991 0.000009 0.000000 ]
5
Num Evals 1800
GenUC: 2.584420e-06
GenUB: 7.394119e-07
Optimisation 2.726925e-01
Total Time: 2.726976e-01
3 Add 3
Graph 1:
0 0 0 
0 0 1 
0 1 0 
Graph 2:
1 1 1 
1 0 1 
1 1 0 
Solution: 4 0
Classic Expectation: 4.000000
Initial Expecation: 3.000000
Gbest: 4.000000
Expectation: 4.000000
Final Parameters:
Gammas:
[ 3.642786 2.090748 4.328521 ]
Betas:
[ 0.687318 1.334317 1.596067 ]
Aggregate results:
[ 4 0 ]
[ 1.000000 0.000000 ]
4
Num Evals 620
GenUC: 2.615561e-06
GenUB: 9.958749e-07
Optimisation 9.900603e-02
Total Time: 9.901196e-02
4 Rem 3
Graph 1:
0 0 0 
0 0 1 
0 1 0 
Graph 2:
0 0 0 
0 0 0 
0 0 0 
Solution: 7 0
Classic Expectation: 7.000000
Initial Expecation: 5.250000
Gbest: 7.000000
Expectation: 7.000000
Final Parameters:
Gammas:
[ 3.926991 3.926991 2.767953 ]
Betas:
[ 0.787445 2.036223 0.796810 ]
Aggregate results:
[ 7 0 ]
[ 1.000000 0.000000 ]
4
Num Evals 572
GenUC: 2.543384e-06
GenUB: 6.742775e-07
Optimisation 8.996774e-02
Total Time: 8.997234e-02
5 Add/Rem 3
Graph 1:
0 0 0 
0 0 1 
0 1 0 
Graph 2:
1 1 1 
1 0 0 
1 0 0 
Solution: 6 2
Classic Expectation: 4.666667
Initial Expecation: 3.500000
Gbest: 6.000000
Expectation: 6.000000
Final Parameters:
Gammas:
[ 1.504942 4.464151 4.240107 ]
Betas:
[ 0.502090 0.738158 1.794154 ]
Aggregate results:
[ 2 6 0 ]
[ 0.000000 1.000000 0.000000 ]
4
Num Evals 929
GenUC: 2.269866e-06
GenUB: 5.445909e-07
Optimisation 1.374095e-01
Total Time: 1.374137e-01
