Clock Speed: 3.689334
Num threads: 4
Trotterisation: 6
Graph Size: 3
Num Qubits: 3
Space Dimension: 8
Run-Type: 0
Num_samples: 10
1 Isomorphic
Graph 1:
1 0 1 
0 1 1 
0 1 1 
Graph 2:
1 0 1 
0 1 1 
0 1 1 
Solution: 0 0
Gbest: 0.000000
Expectation: -0.803502
Final Parameters:
Gammas:
[ 4.177835 3.278785 3.440770 3.204852 3.328096 3.187629 ]
Betas:
[ 1.741895 1.704067 1.075010 1.284113 1.468459 2.080337 1.736706 ]
Aggregate results:
[ -1 1 3 5 8 ]
[ 0.690084 0.266368 0.001772 0.037437 0.004340 ]
5
Num Evals 300
GenUC: 2.183874e-04
GenUB: 7.897112e-06
Optimisation 1.034950e-01
Total Time: 1.041067e-01
2 Flipped
Graph 1:
1 0 1 
0 1 1 
0 1 1 
Graph 2:
1 0 1 
1 1 0 
1 1 0 
Solution: -2 4
Gbest: -2.000000
Expectation: -2.883979
Final Parameters:
Gammas:
[ 5.105650 3.267982 3.171448 2.673736 3.587245 3.184813 ]
Betas:
[ 2.260161 1.986324 2.101222 1.427298 1.711624 1.831951 1.485359 ]
Aggregate results:
[ 3 5 1 8 ]
[ 0.375092 0.010266 0.601395 0.013247 ]
5
Num Evals 600
GenUC: 6.966383e-06
GenUB: 5.342595e-06
Optimisation 1.306646e-01
Total Time: 1.310607e-01
3 Add 3
Graph 1:
1 0 1 
0 1 1 
0 1 1 
Graph 2:
1 1 1 
0 1 1 
1 1 1 
Solution: -2 0
Gbest: -2.000000
Expectation: -2.406144
Final Parameters:
Gammas:
[ 4.996285 2.963098 3.004980 5.362599 3.233390 3.360533 ]
Betas:
[ 2.520588 2.570956 1.749024 1.286859 1.717491 1.682882 2.151976 ]
Aggregate results:
[ 1 3 8 ]
[ 0.816910 0.175097 0.007993 ]
5
Num Evals 900
GenUC: 8.440526e-06
GenUB: 5.635429e-06
Optimisation 1.121404e-01
Total Time: 1.125370e-01
4 Rem 3
Graph 1:
1 0 1 
0 1 1 
0 1 1 
Graph 2:
1 0 0 
0 0 1 
0 1 1 
Solution: -2 0
Gbest: -2.000000
Expectation: -2.339060
Final Parameters:
Gammas:
[ 4.763365 4.758429 3.196750 3.394558 3.638671 5.221145 ]
Betas:
[ 2.468394 1.404782 2.357830 2.448308 1.360504 1.871779 1.855625 ]
Aggregate results:
[ 1 3 5 8 ]
[ 0.885070 0.081911 0.018632 0.014387 ]
5
Num Evals 1200
GenUC: 6.398908e-06
GenUB: 5.546816e-06
Optimisation 1.155617e-01
Total Time: 1.159558e-01
5 Add/Rem 3
Graph 1:
1 0 1 
0 1 1 
0 1 1 
Graph 2:
1 1 1 
1 0 0 
1 1 1 
Solution: -3 2
Gbest: -3.000000
Expectation: -3.333798
Final Parameters:
Gammas:
[ 4.527561 3.333741 2.657503 2.066162 2.860732 3.621142 ]
Betas:
[ 2.604090 2.431450 1.524784 1.521550 1.865157 1.755333 1.765853 ]
Aggregate results:
[ 4 2 8 ]
[ 0.084666 0.887923 0.027411 ]
5
Num Evals 1500
GenUC: 1.109246e-05
GenUB: 5.488719e-06
Optimisation 1.148956e-01
Total Time: 1.152898e-01
