Clock Speed: 3.689055
Num threads: 4
Trotterisation: 6
Graph Size: 3
Num Qubits: 3
Space Dimension: 8
Run-Type: 0
Num_samples: 10
1 Isomorphic
Graph 1:
1 0 1 
1 0 0 
0 1 0 
Graph 2:
1 0 1 
1 0 0 
0 1 0 
Solution: 0 0
Gbest: 0.000000
Expectation: -1.538671
Final Parameters:
Gammas:
[ 4.556501 3.102054 3.168666 4.737579 4.227582 2.845174 ]
Betas:
[ 1.622662 1.412841 1.536366 1.537248 1.630951 0.842045 1.207568 ]
Aggregate results:
[ -1 7 1 5 8 ]
[ 0.471143 0.036902 0.441321 0.031629 0.019004 ]
5
Num Evals 300
GenUC: 1.513109e-04
GenUB: 7.866533e-06
Optimisation 1.030053e-01
Total Time: 1.035181e-01
2 Flipped
Graph 1:
1 0 1 
1 0 0 
0 1 0 
Graph 2:
1 0 1 
0 0 1 
0 1 0 
Solution: -2 0
Gbest: -2.000000
Expectation: -2.603389
Final Parameters:
Gammas:
[ 2.722552 4.919754 4.945634 4.817806 3.210823 4.699679 ]
Betas:
[ 1.585315 1.789256 1.394293 1.858174 1.336882 2.389642 1.788513 ]
Aggregate results:
[ 1 5 3 8 ]
[ 0.787713 0.043030 0.150706 0.018551 ]
5
Num Evals 600
GenUC: 6.826711e-06
GenUB: 5.478156e-06
Optimisation 1.376977e-01
Total Time: 1.382339e-01
3 Add 3
Graph 1:
1 0 1 
1 0 0 
0 1 0 
Graph 2:
1 0 1 
1 0 0 
1 1 1 
Solution: -2 0
Gbest: -2.000000
Expectation: -2.667412
Final Parameters:
Gammas:
[ 4.048861 4.321319 4.115310 3.429921 4.743169 4.660618 ]
Betas:
[ 1.720936 1.601451 1.544127 2.081943 2.009312 1.674012 1.529887 ]
Aggregate results:
[ 1 7 5 3 8 ]
[ 0.747835 0.011292 0.020627 0.204915 0.015332 ]
5
Num Evals 900
GenUC: 8.673465e-06
GenUB: 5.601323e-06
Optimisation 1.109990e-01
Total Time: 1.113843e-01
4 Rem 3
Graph 1:
1 0 1 
1 0 0 
0 1 0 
Graph 2:
0 0 0 
1 0 0 
0 1 0 
Solution: -2 0
Gbest: -2.000000
Expectation: -2.073284
Final Parameters:
Gammas:
[ 4.610831 3.356121 3.156222 3.452213 3.081132 2.935375 ]
Betas:
[ 2.212415 1.567454 1.551548 2.128282 1.682054 1.681897 1.781837 ]
Aggregate results:
[ 1 5 8 ]
[ 0.983228 0.014706 0.002066 ]
5
Num Evals 1200
GenUC: 7.878873e-06
GenUB: 5.603710e-06
Optimisation 1.092008e-01
Total Time: 1.095867e-01
5 Add/Rem 3
Graph 1:
1 0 1 
1 0 0 
0 1 0 
Graph 2:
0 1 1 
0 0 0 
1 1 1 
Solution: -3 2
Gbest: -3.000000
Expectation: -3.000000
Final Parameters:
Gammas:
[ 4.712389 3.141593 3.141593 3.141593 3.141593 3.141593 ]
Betas:
[ 1.570796 2.356194 1.570796 1.570796 1.570796 1.570796 1.570796 ]
Aggregate results:
[ 4 2 8 ]
[ 0.000000 1.000000 0.000000 ]
5
Num Evals 1500
GenUC: 6.935268e-06
GenUB: 5.544454e-06
Optimisation 1.605207e-01
Total Time: 1.608978e-01
