Clock Speed: 3.498727
Num threads: 16
Trotterisation: 1
Num Qubits: 16
Space Dimension: 65536
Run-Type: 0
Num_samples: 64
Optimiser Method: 0
1 Isomorphic
Graph 1:
1 1 1 0 1 1 0 1 
1 1 0 1 1 0 1 1 
1 0 1 0 1 0 0 0 
0 1 0 0 1 0 1 1 
1 1 1 1 0 1 1 1 
1 0 0 0 1 0 0 0 
0 1 0 1 1 0 1 0 
1 1 0 1 1 0 0 0 
Graph 2:
1 1 1 0 1 1 0 1 
1 1 0 1 1 0 1 1 
1 0 1 0 1 0 0 0 
0 1 0 0 1 0 1 1 
1 1 1 1 0 1 1 1 
1 0 0 0 1 0 0 0 
0 1 0 1 1 0 1 0 
1 1 0 1 1 0 0 0 
Solution: 64 0
Classic Expectation: 32.571429
Initial Expecation: 20.039062
Gbest: 50.000000
Expectation: 24.682202
Final Parameters:
Gammas:
[ 0.131552 ]
Betas:
[ 2.443460 ]
Aggregate results:
[ 64 58 50 56 44 38 46 52 42 48 40 34 30 36 54 26 20 24 32 28 22 62 18 16 14 12 0 ]
[ 0.000007 0.000076 0.001911 0.000143 0.019068 0.058443 0.010289 0.000639 0.027604 0.003811 0.052828 0.077368 0.080108 0.089097 0.000302 0.056782 0.011562 0.043689 0.105713 0.089530 0.023785 0.000003 0.005465 0.001282 0.000341 0.000139 0.240016 ]
3
Num Evals 257
GenUC: 1.828092e-02
GenUB: 1.364535e-02
Optimisation 2.515209e+01
Total Time: 2.518403e+01
2 Flipped
Graph 1:
1 1 1 0 1 1 0 1 
1 1 0 1 1 0 1 1 
1 0 1 0 1 0 0 0 
0 1 0 0 1 0 1 1 
1 1 1 1 0 1 1 1 
1 0 0 0 1 0 0 0 
0 1 0 1 1 0 1 0 
1 1 0 1 1 0 0 0 
Graph 2:
1 0 1 1 0 1 1 1 
1 1 0 1 1 0 1 1 
0 0 0 1 0 1 0 1 
1 1 0 1 0 0 1 0 
1 1 1 0 1 1 1 1 
0 0 0 1 0 0 0 1 
0 1 0 1 1 0 1 0 
0 0 0 1 1 0 1 1 
Solution: 44 95
Classic Expectation: 32.285714
Initial Expecation: 19.863281
Gbest: 40.000000
Expectation: 25.556522
Final Parameters:
Gammas:
[ 0.132289 ]
Betas:
[ 2.521031 ]
Aggregate results:
[ 40 32 34 36 38 28 30 42 44 26 24 22 0 ]
[ 0.019109 0.165681 0.156841 0.109277 0.054515 0.089890 0.143948 0.002950 0.000250 0.034966 0.010808 0.000612 0.211153 ]
3
Num Evals 523
GenUC: 2.278475e-02
GenUB: 1.444376e-02
Optimisation 5.369337e+01
Total Time: 5.373060e+01
3 Add 8
Graph 1:
1 1 1 0 1 1 0 1 
1 1 0 1 1 0 1 1 
1 0 1 0 1 0 0 0 
0 1 0 0 1 0 1 1 
1 1 1 1 0 1 1 1 
1 0 0 0 1 0 0 0 
0 1 0 1 1 0 1 0 
1 1 0 1 1 0 0 0 
Graph 2:
1 1 1 1 1 1 1 1 
1 1 1 1 1 1 1 1 
1 1 1 1 1 1 1 1 
1 1 1 1 1 0 1 1 
1 1 1 1 1 1 1 1 
1 1 1 0 1 0 0 0 
1 1 1 1 1 0 1 0 
1 1 1 1 1 0 0 0 
Solution: 46 0
Classic Expectation: 34.857143
Initial Expecation: 21.445313
Gbest: 44.000000
Expectation: 27.030114
Final Parameters:
Gammas:
[ 0.130059 ]
Betas:
[ 2.521031 ]
Aggregate results:
[ 46 44 40 42 34 32 38 36 30 28 26 0 ]
[ 0.006159 0.022037 0.067687 0.022547 0.130080 0.150716 0.077759 0.142474 0.084280 0.069567 0.012190 0.214505 ]
3
Num Evals 359
GenUC: 2.333330e-02
GenUB: 1.426346e-02
Optimisation 3.617458e+01
Total Time: 3.621218e+01
4 Rem 8
Graph 1:
1 1 1 0 1 1 0 1 
1 1 0 1 1 0 1 1 
1 0 1 0 1 0 0 0 
0 1 0 0 1 0 1 1 
1 1 1 1 0 1 1 1 
1 0 0 0 1 0 0 0 
0 1 0 1 1 0 1 0 
1 1 0 1 1 0 0 0 
Graph 2:
1 0 0 0 0 0 0 0 
0 0 0 0 1 0 0 0 
0 0 1 0 1 0 0 0 
0 0 0 0 1 0 1 1 
0 1 1 1 0 1 1 1 
0 0 0 0 1 0 0 0 
0 0 0 1 1 0 1 0 
0 0 0 1 1 0 0 0 
Solution: 47 0
Classic Expectation: 30.285714
Initial Expecation: 18.632813
Gbest: 43.000000
Expectation: 23.608481
Final Parameters:
Gammas:
[ 3.106686 ]
Betas:
[ 0.775702 ]
Aggregate results:
[ 47 45 41 43 27 25 29 31 33 35 39 37 21 23 17 15 19 13 0 ]
[ 0.001707 0.008210 0.035524 0.012554 0.102915 0.070574 0.099644 0.087399 0.079017 0.061181 0.036101 0.059064 0.027483 0.063760 0.007549 0.003848 0.023000 0.000888 0.219583 ]
3
Num Evals 319
GenUC: 2.334798e-02
GenUB: 1.367629e-02
Optimisation 2.278808e+01
Total Time: 2.282511e+01
5 Add/Rem 8
Graph 1:
1 1 1 0 1 1 0 1 
1 1 0 1 1 0 1 1 
1 0 1 0 1 0 0 0 
0 1 0 0 1 0 1 1 
1 1 1 1 0 1 1 1 
1 0 0 0 1 0 0 0 
0 1 0 1 1 0 1 0 
1 1 0 1 1 0 0 0 
Graph 2:
1 0 0 1 0 0 1 0 
0 1 1 0 1 1 0 1 
0 1 1 1 0 0 1 1 
1 0 1 1 1 1 0 1 
0 1 0 1 1 1 1 1 
0 1 0 1 1 0 0 0 
1 0 1 0 1 0 1 0 
0 1 1 1 1 0 0 0 
Solution: 52 16560
Classic Expectation: 32.285714
Initial Expecation: 19.863281
Gbest: 44.000000
Expectation: 24.631180
Final Parameters:
Gammas:
[ 0.134237 ]
Betas:
[ 2.482246 ]
Aggregate results:
[ 28 30 38 20 22 32 24 26 36 34 42 40 16 18 44 46 48 50 52 14 0 ]
[ 0.071826 0.120111 0.073287 0.009156 0.020978 0.094023 0.035612 0.069681 0.076759 0.129447 0.022709 0.030653 0.000964 0.002687 0.007136 0.002868 0.000940 0.000162 0.000021 0.000259 0.230721 ]
3
Num Evals 373
GenUC: 2.333093e-02
GenUB: 1.375132e-02
Optimisation 3.827076e+01
Total Time: 3.830784e+01
