Clock Speed: 3.689103
Num threads: 4
Trotterisation: 3
Num Qubits: 5
Space Dimension: 32
Run-Type: 0
Num_samples: 4
Optimiser Method: 0
1 Isomorphic
Graph 1:
0 0 0 0 
0 0 0 1 
0 0 0 0 
0 1 0 0 
Graph 2:
0 0 0 0 
0 0 0 1 
0 0 0 0 
0 1 0 0 
Solution: 16 0
Classic Expectation: 12.666667
Initial Expecation: 9.500000
Gbest: 16.000000
Expectation: 14.576907
Final Parameters:
Gammas:
[ 1.747706 1.154916 1.008856 ]
Betas:
[ 1.396290 2.619643 2.798299 ]
Aggregate results:
[ 16 12 0 ]
[ 0.753621 0.209915 0.036465 ]
5
Num Evals 2400
GenUC: 8.349547e-06
GenUB: 8.954572e-06
Optimisation 2.014986e+01
Total Time: 2.014990e+01
2 Flipped
Graph 1:
0 0 0 0 
0 0 0 1 
0 0 0 0 
0 1 0 0 
Graph 2:
0 0 0 0 
1 0 0 0 
0 0 0 0 
0 0 1 0 
Solution: 14 2
Classic Expectation: 12.666667
Initial Expecation: 9.500000
Gbest: 14.000000
Expectation: 12.838629
Final Parameters:
Gammas:
[ 3.839724 0.386414 5.273336 ]
Betas:
[ 2.467163 1.256206 2.867942 ]
Aggregate results:
[ 12 14 0 ]
[ 0.322583 0.640546 0.036872 ]
5
Num Evals 2400
GenUC: 9.272058e-06
GenUB: 1.713568e-06
Optimisation 2.156795e+01
Total Time: 2.156797e+01
3 Add 4
Graph 1:
0 0 0 0 
0 0 0 1 
0 0 0 0 
0 1 0 0 
Graph 2:
1 1 1 1 
1 0 0 1 
1 0 0 0 
1 1 0 0 
Solution: 9 0
Classic Expectation: 7.666667
Initial Expecation: 5.750000
Gbest: 9.000000
Expectation: 8.164072
Final Parameters:
Gammas:
[ 5.210131 1.124768 5.241734 ]
Betas:
[ 2.327824 2.689818 1.745569 ]
Aggregate results:
[ 9 5 0 ]
[ 0.849554 0.103618 0.046829 ]
5
Num Evals 2400
GenUC: 9.495059e-06
GenUB: 1.705353e-06
Optimisation 1.772213e+01
Total Time: 1.772215e+01
4 Rem 4
Graph 1:
0 0 0 0 
0 0 0 1 
0 0 0 0 
0 1 0 0 
Graph 2:
0 0 0 0 
0 0 0 0 
0 0 0 0 
0 0 0 0 
Solution: 14 0
Classic Expectation: 14.000000
Initial Expecation: 10.500000
Gbest: 14.000000
Expectation: 14.000000
Final Parameters:
Gammas:
[ 5.235668 3.141592 1.047197 ]
Betas:
[ 2.579421 1.519319 1.881278 ]
Aggregate results:
[ 14 0 ]
[ 1.000000 0.000000 ]
5
Num Evals 2400
GenUC: 9.162322e-06
GenUB: 1.404303e-06
Optimisation 2.049592e+01
Total Time: 2.049593e+01
5 Add/Rem 4
Graph 1:
0 0 0 0 
0 0 0 1 
0 0 0 0 
0 1 0 0 
Graph 2:
1 1 1 1 
1 1 0 0 
1 0 0 0 
1 0 0 0 
Solution: 10 6
Classic Expectation: 8.000000
Initial Expecation: 6.000000
Gbest: 10.000000
Expectation: 9.106711
Final Parameters:
Gammas:
[ 5.204279 1.084865 5.227050 ]
Betas:
[ 2.676092 2.753715 1.163633 ]
Aggregate results:
[ 6 10 0 ]
[ 0.112256 0.843318 0.044427 ]
5
Num Evals 2400
GenUC: 9.283794e-06
GenUB: 1.472377e-06
Optimisation 2.136020e+01
Total Time: 2.136021e+01
