Clock Speed: 3.689044
Num threads: 4
Trotterisation: 3
Num Qubits: 5
Space Dimension: 32
Run-Type: 0
Num_samples: 4
Optimiser Method: 0
1 Isomorphic
Graph 1:
0 1 1 1 
1 0 0 0 
1 0 0 1 
1 0 1 0 
Graph 2:
0 1 1 1 
1 0 0 0 
1 0 0 1 
1 0 1 0 
Solution: 16 0
Classic Expectation: 10.666667
Initial Expecation: 8.000000
Gbest: 12.000000
Expectation: 12.444700
Final Parameters:
Gammas:
[ 1.757936 4.524784 5.197203 ]
Betas:
[ 2.253844 2.844241 1.654832 ]
Aggregate results:
[ 16 12 8 0 ]
[ 0.264546 0.603964 0.120550 0.010940 ]
5
Num Evals 2400
GenUC: 8.283219e-06
GenUB: 9.406431e-06
Optimisation 2.386509e+01
Total Time: 2.386513e+01
2 Flipped
Graph 1:
0 1 1 1 
1 0 0 0 
1 0 0 1 
1 0 1 0 
Graph 2:
1 1 1 0 
0 0 0 1 
1 0 0 1 
0 1 0 1 
Solution: 10 2
Classic Expectation: 8.000000
Initial Expecation: 6.000000
Gbest: 10.000000
Expectation: 9.216918
Final Parameters:
Gammas:
[ 5.934119 1.047198 5.235988 ]
Betas:
[ 0.523599 1.570796 2.501639 ]
Aggregate results:
[ 8 10 6 0 ]
[ 0.063460 0.834091 0.061389 0.041061 ]
5
Num Evals 2400
GenUC: 9.202799e-06
GenUB: 2.002882e-06
Optimisation 1.793394e+01
Total Time: 1.793395e+01
3 Add 4
Graph 1:
0 1 1 1 
1 0 0 0 
1 0 0 1 
1 0 1 0 
Graph 2:
1 1 1 1 
1 1 1 1 
1 1 0 1 
1 1 1 0 
Solution: 10 0
Classic Expectation: 10.000000
Initial Expecation: 7.500000
Gbest: 10.000000
Expectation: 10.000000
Final Parameters:
Gammas:
[ 5.235988 5.235988 1.055404 ]
Betas:
[ 0.566851 1.221890 1.533442 ]
Aggregate results:
[ 10 0 ]
[ 1.000000 0.000000 ]
5
Num Evals 2400
GenUC: 9.459247e-06
GenUB: 1.654887e-06
Optimisation 1.866099e+01
Total Time: 1.866100e+01
4 Rem 4
Graph 1:
0 1 1 1 
1 0 0 0 
1 0 0 1 
1 0 1 0 
Graph 2:
0 0 0 0 
0 0 0 0 
0 0 0 1 
0 0 1 0 
Solution: 10 0
Classic Expectation: 8.666667
Initial Expecation: 6.500000
Gbest: 10.000000
Expectation: 9.918171
Final Parameters:
Gammas:
[ 1.029215 3.104244 4.533600 ]
Betas:
[ 2.404649 1.590162 1.932046 ]
Aggregate results:
[ 10 6 0 ]
[ 0.979639 0.020296 0.000064 ]
5
Num Evals 2400
GenUC: 9.205738e-06
GenUB: 1.563334e-06
Optimisation 2.114456e+01
Total Time: 2.114458e+01
5 Add/Rem 4
Graph 1:
0 1 1 1 
1 0 0 0 
1 0 0 1 
1 0 1 0 
Graph 2:
1 0 0 0 
0 1 1 1 
0 1 0 1 
0 1 1 0 
Solution: 12 6
Classic Expectation: 8.000000
Initial Expecation: 6.000000
Gbest: 12.000000
Expectation: 10.823591
Final Parameters:
Gammas:
[ 5.184274 1.124768 0.323209 ]
Betas:
[ 0.700286 2.389593 0.540837 ]
Aggregate results:
[ 4 12 8 0 ]
[ 0.009442 0.755333 0.215228 0.019997 ]
5
Num Evals 2400
GenUC: 9.298456e-06
GenUB: 1.601482e-06
Optimisation 1.769706e+01
Total Time: 1.769708e+01
