Clock Speed: 3.689174
Num threads: 4
Trotterisation: 6
Graph Size: 3
Num Qubits: 3
Space Dimension: 8
Run-Type: 0
Num_samples: 10
1 Isomorphic
Graph 1:
1 0 1 
1 0 1 
1 1 1 
Graph 2:
1 0 1 
1 0 1 
1 1 1 
Solution: 0 0
Gbest: 0.000000
Expectation: -1.872027
Final Parameters:
Gammas:
[ 4.904105 3.001981 3.076702 2.777697 3.180015 4.860327 ]
Betas:
[ 2.323116 2.631166 0.956566 1.336856 1.430070 1.160200 1.192015 ]
Aggregate results:
[ -1 3 1 8 ]
[ 0.478928 0.259120 0.217431 0.044521 ]
5
Num Evals 300
GenUC: 1.439725e-04
GenUB: 8.075498e-06
Optimisation 1.055041e-01
Total Time: 1.060226e-01
2 Flipped
Graph 1:
1 0 1 
1 0 1 
1 1 1 
Graph 2:
1 0 1 
1 0 1 
1 1 1 
Solution: 0 0
Gbest: 0.000000
Expectation: -1.872027
Final Parameters:
Gammas:
[ 4.904105 3.001981 3.076702 2.777697 3.180015 4.860327 ]
Betas:
[ 2.323116 2.631166 0.956566 1.336856 1.430070 1.160200 1.192015 ]
Aggregate results:
[ -1 3 1 8 ]
[ 0.478928 0.259120 0.217431 0.044521 ]
5
Num Evals 600
GenUC: 6.472226e-06
GenUB: 5.733396e-06
Optimisation 1.183751e-01
Total Time: 1.187340e-01
3 Add 3
Graph 1:
1 0 1 
1 0 1 
1 1 1 
Graph 2:
1 1 1 
1 1 1 
1 1 1 
Solution: -2 0
Gbest: -2.000000
Expectation: -2.000000
Final Parameters:
Gammas:
[ 4.792386 3.082840 3.050847 3.289272 2.904990 4.661392 ]
Betas:
[ 2.169791 1.605280 1.602554 2.362917 1.563221 1.573246 2.294754 ]
Aggregate results:
[ 1 8 ]
[ 1.000000 0.000000 ]
3
Num Evals 897
GenUC: 8.031493e-06
GenUB: 5.695852e-06
Optimisation 1.064129e-01
Total Time: 1.068082e-01
4 Rem 3
Graph 1:
1 0 1 
1 0 1 
1 1 1 
Graph 2:
0 0 1 
1 0 1 
0 1 1 
Solution: -2 0
Gbest: -2.000000
Expectation: -2.859306
Final Parameters:
Gammas:
[ 3.220963 4.598385 4.693863 4.641122 3.022521 3.042570 ]
Betas:
[ 1.493887 1.584235 2.405926 1.812414 2.262364 1.559305 2.438347 ]
Aggregate results:
[ 1 3 5 8 ]
[ 0.603572 0.367687 0.025751 0.002990 ]
5
Num Evals 1197
GenUC: 6.623624e-06
GenUB: 5.382462e-06
Optimisation 1.102608e-01
Total Time: 1.106531e-01
5 Add/Rem 3
Graph 1:
1 0 1 
1 0 1 
1 1 1 
Graph 2:
1 1 1 
0 1 1 
0 1 1 
Solution: -2 1
Gbest: -2.000000
Expectation: -2.438568
Final Parameters:
Gammas:
[ 4.479943 4.791315 3.476080 3.037852 3.328580 3.111206 ]
Betas:
[ 2.333318 2.794435 2.310458 1.097925 1.412749 1.305600 1.168108 ]
Aggregate results:
[ 3 1 8 ]
[ 0.145174 0.833651 0.021174 ]
5
Num Evals 1497
GenUC: 6.256858e-06
GenUB: 5.280366e-06
Optimisation 1.065964e-01
Total Time: 1.069751e-01
