Clock Speed: 3.689006
Num threads: 4
Trotterisation: 6
Graph Size: 3
Num Qubits: 3
Space Dimension: 8
Run-Type: 0
Num_samples: 10
1 Isomorphic
Graph 1:
0 0 0 
1 0 1 
0 1 0 
Graph 2:
0 0 0 
1 0 1 
0 1 0 
Solution: 0 0
Gbest: 0.000000
Expectation: -1.004031
Final Parameters:
Gammas:
[ 4.602244 2.833889 2.728549 3.196821 4.039688 3.364655 ]
Betas:
[ 2.466308 1.410257 1.668828 1.236671 1.853890 2.068457 1.766571 ]
Aggregate results:
[ -1 5 3 1 8 ]
[ 0.524526 0.005251 0.002545 0.463823 0.003856 ]
5
Num Evals 300
GenUC: 1.193165e-04
GenUB: 7.850715e-06
Optimisation 1.123097e-01
Total Time: 1.128317e-01
2 Flipped
Graph 1:
0 0 0 
1 0 1 
0 1 0 
Graph 2:
0 0 0 
1 0 1 
0 1 0 
Solution: 0 0
Gbest: 0.000000
Expectation: -1.004031
Final Parameters:
Gammas:
[ 4.602244 2.833889 2.728549 3.196821 4.039688 3.364655 ]
Betas:
[ 2.466308 1.410257 1.668828 1.236671 1.853890 2.068457 1.766571 ]
Aggregate results:
[ -1 5 3 1 8 ]
[ 0.524526 0.005251 0.002545 0.463823 0.003856 ]
5
Num Evals 600
GenUC: 6.506860e-06
GenUB: 5.876020e-06
Optimisation 1.251718e-01
Total Time: 1.255564e-01
3 Add 3
Graph 1:
0 0 0 
1 0 1 
0 1 0 
Graph 2:
0 0 0 
1 1 1 
1 1 0 
Solution: -2 0
Gbest: -2.000000
Expectation: -2.079005
Final Parameters:
Gammas:
[ 3.686203 4.252476 2.661087 2.779199 3.127332 3.462223 ]
Betas:
[ 1.734811 1.786183 2.790809 1.294202 1.908016 2.420868 1.526426 ]
Aggregate results:
[ 1 5 3 8 ]
[ 0.972798 0.011209 0.015557 0.000436 ]
5
Num Evals 900
GenUC: 8.341915e-06
GenUB: 5.498092e-06
Optimisation 1.110261e-01
Total Time: 1.114139e-01
4 Rem 3
Graph 1:
0 0 0 
1 0 1 
0 1 0 
Graph 2:
0 0 0 
0 0 0 
0 0 0 
Solution: -3 0
Gbest: -3.000000
Expectation: -3.000000
Final Parameters:
Gammas:
[ 4.702423 5.082089 2.848534 2.818001 3.014427 2.883383 ]
Betas:
[ 2.362870 1.406489 1.637613 0.962598 1.751094 1.458801 1.572489 ]
Aggregate results:
[ 2 8 ]
[ 1.000000 0.000000 ]
5
Num Evals 1200
GenUC: 6.145376e-06
GenUB: 5.484006e-06
Optimisation 1.059178e-01
Total Time: 1.064392e-01
5 Add/Rem 3
Graph 1:
0 0 0 
1 0 1 
0 1 0 
Graph 2:
0 1 1 
0 0 1 
0 0 1 
Solution: -3 1
Gbest: -3.000000
Expectation: -3.047580
Final Parameters:
Gammas:
[ 4.639872 4.569246 4.801168 3.123167 3.579445 3.120973 ]
Betas:
[ 1.524806 2.860925 2.166908 2.376363 1.445431 1.383910 1.464841 ]
Aggregate results:
[ 4 2 8 ]
[ 0.015820 0.981523 0.002657 ]
5
Num Evals 1500
GenUC: 6.601345e-06
GenUB: 5.445851e-06
Optimisation 1.110277e-01
Total Time: 1.114199e-01
