Clock Speed: 3.688984
Num threads: 4
Trotterisation: 4
Num Qubits: 3
Space Dimension: 8
Run-Type: 0
Num_samples: 2024
Optimiser Method: 29
1 Isomorphic
Graph 1:
1 0 1 
0 1 1 
1 1 0 
Graph 2:
1 0 1 
0 1 1 
1 1 0 
Solution: 9 0
Classic Expectation: 5.000000
Initial Expecation: 3.750000
Gbest: 9.000000
Expectation: 6.000000
Final Parameters:
Gammas:
[ 3.350790 3.669792 3.578874 2.949661 ]
Betas:
[ 1.589250 0.781098 1.401080 1.721421 ]
Aggregate results:
[ 9 3 0 ]
[ 0.500000 0.500000 0.000000 ]
3
Num Evals 644
GenUC: 2.529297e-06
GenUB: 8.780858e-06
Optimisation 2.205688e-01
Total Time: 2.206091e-01
2 Flipped
Graph 1:
1 0 1 
0 1 1 
1 1 0 
Graph 2:
1 0 1 
1 1 0 
0 1 1 
Solution: 5 0
Classic Expectation: 5.000000
Initial Expecation: 3.750000
Gbest: 5.000000
Expectation: 5.000000
Final Parameters:
Gammas:
[ 3.331806 3.393166 3.238922 3.141593 ]
Betas:
[ 0.640893 1.273204 1.744146 1.699253 ]
Aggregate results:
[ 5 0 ]
[ 1.000000 0.000000 ]
3
Num Evals 370
GenUC: 2.937682e-06
GenUB: 1.042266e-06
Optimisation 8.270460e-02
Total Time: 8.271106e-02
3 Add 3
Graph 1:
1 0 1 
0 1 1 
1 1 0 
Graph 2:
1 1 1 
1 1 1 
1 1 1 
Solution: 6 0
Classic Expectation: 6.000000
Initial Expecation: 4.500000
Gbest: 6.000000
Expectation: 6.000000
Final Parameters:
Gammas:
[ 3.926991 3.141593 2.999495 3.294940 ]
Betas:
[ 0.139081 2.217114 1.570796 1.570796 ]
Aggregate results:
[ 6 0 ]
[ 1.000000 0.000000 ]
3
Num Evals 672
GenUC: 2.713583e-06
GenUB: 6.853952e-07
Optimisation 1.466596e-01
Total Time: 1.466648e-01
4 Rem 3
Graph 1:
1 0 1 
0 1 1 
1 1 0 
Graph 2:
1 0 1 
0 0 1 
0 1 0 
Solution: 7 0
Classic Expectation: 4.333333
Initial Expecation: 3.250000
Gbest: 7.000000
Expectation: 5.884015
Final Parameters:
Gammas:
[ 4.926191 1.336101 4.196004 3.618749 ]
Betas:
[ 0.205436 2.562194 1.526057 0.781376 ]
Aggregate results:
[ 7 5 1 0 ]
[ 0.476116 0.508419 0.009111 0.006355 ]
3
Num Evals 1447
GenUC: 2.698856e-06
GenUB: 8.209608e-07
Optimisation 2.995994e-01
Total Time: 2.996049e-01
5 Add/Rem 3
Graph 1:
1 0 1 
0 1 1 
1 1 0 
Graph 2:
0 1 1 
0 0 1 
1 1 1 
Solution: 5 0
Classic Expectation: 5.000000
Initial Expecation: 3.750000
Gbest: 5.000000
Expectation: 5.000000
Final Parameters:
Gammas:
[ 3.331806 3.393166 3.238922 3.141593 ]
Betas:
[ 0.640893 1.273204 1.744146 1.699253 ]
Aggregate results:
[ 5 0 ]
[ 1.000000 0.000000 ]
3
Num Evals 370
GenUC: 2.456480e-06
GenUB: 7.106573e-07
Optimisation 8.128790e-02
Total Time: 8.129310e-02
