Clock Speed: 3.688833
Num threads: 4
Trotterisation: 4
Num Qubits: 3
Space Dimension: 8
Run-Type: 0
Num_samples: 2024
Optimiser Method: 29
1 Isomorphic
Graph 1:
0 1 0 
0 1 1 
1 0 0 
Graph 2:
0 1 0 
0 1 1 
1 0 0 
Solution: 9 0
Classic Expectation: 4.666667
Initial Expecation: 3.500000
Gbest: 9.000000
Expectation: 7.770085
Final Parameters:
Gammas:
[ 3.951216 3.044196 4.596754 2.568907 ]
Betas:
[ 2.163061 2.647076 1.387388 2.436782 ]
Aggregate results:
[ 9 1 7 3 0 ]
[ 0.448408 0.004827 0.530051 0.006409 0.010305 ]
5
Num Evals 2400
GenUC: 3.094377e-06
GenUB: 9.326031e-06
Optimisation 1.253090e+00
Total Time: 1.253133e+00
2 Flipped
Graph 1:
0 1 0 
0 1 1 
1 0 0 
Graph 2:
0 1 0 
1 1 0 
0 0 1 
Solution: 5 0
Classic Expectation: 4.333333
Initial Expecation: 3.250000
Gbest: 5.000000
Expectation: 4.998838
Final Parameters:
Gammas:
[ 2.731197 4.110880 2.361500 3.573765 ]
Betas:
[ 2.937395 1.387382 1.102704 1.196085 ]
Aggregate results:
[ 5 3 0 ]
[ 0.999475 0.000488 0.000037 ]
5
Num Evals 2400
GenUC: 3.364345e-06
GenUB: 1.024571e-06
Optimisation 8.368674e-01
Total Time: 8.368743e-01
3 Add 3
Graph 1:
0 1 0 
0 1 1 
1 0 0 
Graph 2:
0 1 1 
1 1 1 
1 0 1 
Solution: 6 0
Classic Expectation: 4.333333
Initial Expecation: 3.250000
Gbest: 6.000000
Expectation: 4.999989
Final Parameters:
Gammas:
[ 2.186672 3.323775 3.424945 4.461249 ]
Betas:
[ 0.369624 3.010603 1.146118 1.371777 ]
Aggregate results:
[ 6 4 2 0 ]
[ 0.499998 0.500000 0.000002 0.000001 ]
3
Num Evals 2257
GenUC: 3.242865e-06
GenUB: 8.866773e-07
Optimisation 6.215800e-01
Total Time: 6.215868e-01
4 Rem 3
Graph 1:
0 1 0 
0 1 1 
1 0 0 
Graph 2:
0 1 0 
0 1 1 
0 0 0 
Solution: 8 0
Classic Expectation: 4.666667
Initial Expecation: 3.500000
Gbest: 8.000000
Expectation: 6.952850
Final Parameters:
Gammas:
[ 1.908543 4.959832 2.893061 4.403937 ]
Betas:
[ 2.287812 2.649590 1.642692 1.251848 ]
Aggregate results:
[ 8 2 6 4 0 ]
[ 0.484817 0.000112 0.511255 0.001640 0.002176 ]
5
Num Evals 2400
GenUC: 3.129593e-06
GenUB: 9.049545e-07
Optimisation 9.466857e-01
Total Time: 9.466928e-01
5 Add/Rem 3
Graph 1:
0 1 0 
0 1 1 
1 0 0 
Graph 2:
0 0 1 
1 0 0 
1 0 1 
Solution: 7 1
Classic Expectation: 4.666667
Initial Expecation: 3.500000
Gbest: 7.000000
Expectation: 5.285821
Final Parameters:
Gammas:
[ 4.073652 1.791419 3.342628 2.256237 ]
Betas:
[ 3.141593 2.464380 1.896584 1.364869 ]
Aggregate results:
[ 3 7 5 0 ]
[ 0.174189 0.328993 0.492060 0.004757 ]
3
Num Evals 557
GenUC: 2.817949e-06
GenUB: 8.080970e-07
Optimisation 1.658608e-01
Total Time: 1.658672e-01
