Clock Speed: 3.689404
Num threads: 4
Trotterisation: 4
Num Qubits: 3
Space Dimension: 8
Run-Type: 0
Num_samples: 2024
Optimiser Method: 29
1 Isomorphic
Graph 1:
0 0 1 
0 0 1 
0 1 1 
Graph 2:
0 0 1 
0 0 1 
0 1 1 
Solution: 9 0
Classic Expectation: 4.666667
Initial Expecation: 3.500000
Gbest: 9.000000
Expectation: 5.934653
Final Parameters:
Gammas:
[ 2.499098 4.209883 4.069391 3.225909 ]
Betas:
[ 0.479278 1.123300 1.222921 2.028991 ]
Aggregate results:
[ 9 5 7 3 1 0 ]
[ 0.492107 0.001204 0.006674 0.478874 0.016340 0.004802 ]
5
Num Evals 2400
GenUC: 2.698856e-06
GenUB: 9.515556e-06
Optimisation 5.016733e-01
Total Time: 5.017031e-01
2 Flipped
Graph 1:
0 0 1 
0 0 1 
0 1 1 
Graph 2:
1 0 0 
1 0 0 
1 1 0 
Solution: 7 3
Classic Expectation: 4.666667
Initial Expecation: 3.500000
Gbest: 7.000000
Expectation: 6.904970
Final Parameters:
Gammas:
[ 2.879614 3.045556 3.573226 3.041967 ]
Betas:
[ 2.831658 1.835456 2.100334 1.821043 ]
Aggregate results:
[ 3 7 5 0 ]
[ 0.005746 0.964210 0.027652 0.002392 ]
5
Num Evals 2400
GenUC: 2.582674e-06
GenUB: 9.448268e-07
Optimisation 6.420499e-01
Total Time: 6.420552e-01
3 Add 3
Graph 1:
0 0 1 
0 0 1 
0 1 1 
Graph 2:
1 0 1 
1 0 1 
0 1 1 
Solution: 7 0
Classic Expectation: 4.333333
Initial Expecation: 3.250000
Gbest: 7.000000
Expectation: 4.999984
Final Parameters:
Gammas:
[ 2.489745 3.003601 3.147510 3.926191 ]
Betas:
[ 3.122839 2.742130 1.202570 2.356422 ]
Aggregate results:
[ 7 3 5 0 ]
[ 0.499994 0.500000 0.000005 0.000001 ]
3
Num Evals 2184
GenUC: 2.868474e-06
GenUB: 7.346971e-07
Optimisation 6.026506e-01
Total Time: 6.026561e-01
4 Rem 3
Graph 1:
0 0 1 
0 0 1 
0 1 1 
Graph 2:
0 0 1 
0 0 0 
0 0 0 
Solution: 6 0
Classic Expectation: 5.000000
Initial Expecation: 3.750000
Gbest: 6.000000
Expectation: 5.000000
Final Parameters:
Gammas:
[ 5.157425 2.623653 3.625041 3.461248 ]
Betas:
[ 2.477926 2.143267 2.268132 1.140542 ]
Aggregate results:
[ 6 4 0 ]
[ 0.500000 0.500000 0.000000 ]
3
Num Evals 669
GenUC: 2.691231e-06
GenUB: 8.433126e-07
Optimisation 1.673706e-01
Total Time: 1.673758e-01
5 Add/Rem 3
Graph 1:
0 0 1 
0 0 1 
0 1 1 
Graph 2:
0 0 1 
1 1 0 
0 0 0 
Solution: 6 3
Classic Expectation: 4.666667
Initial Expecation: 3.500000
Gbest: 6.000000
Expectation: 6.000000
Final Parameters:
Gammas:
[ 2.364094 3.944550 3.133437 3.123822 ]
Betas:
[ 1.570560 1.455976 1.713623 0.757620 ]
Aggregate results:
[ 4 6 0 ]
[ 0.000000 1.000000 0.000000 ]
3
Num Evals 750
GenUC: 2.409564e-06
GenUB: 5.756738e-07
Optimisation 1.651130e-01
Total Time: 1.651174e-01
