Clock Speed: 3.688860
Num threads: 4
Trotterisation: 4
Num Qubits: 3
Space Dimension: 8
Run-Type: 0
Num_samples: 2024
Optimiser Method: 29
1 Isomorphic
Graph 1:
0 0 1 
0 1 1 
1 0 1 
Graph 2:
0 0 1 
0 1 1 
1 0 1 
Solution: 9 0
Classic Expectation: 4.666667
Initial Expecation: 3.500000
Gbest: 9.000000
Expectation: 6.703800
Final Parameters:
Gammas:
[ 3.175892 2.729383 3.437362 3.623207 ]
Betas:
[ 2.267585 2.068135 1.492397 2.059770 ]
Aggregate results:
[ 9 3 5 0 ]
[ 0.478249 0.083402 0.429870 0.008479 ]
5
Num Evals 2400
GenUC: 2.903049e-06
GenUB: 7.907627e-06
Optimisation 6.362579e-01
Total Time: 6.362847e-01
2 Flipped
Graph 1:
0 0 1 
0 1 1 
1 0 1 
Graph 2:
1 0 0 
1 1 0 
1 0 1 
Solution: 7 3
Classic Expectation: 5.000000
Initial Expecation: 3.750000
Gbest: 7.000000
Expectation: 6.862399
Final Parameters:
Gammas:
[ 4.302488 1.523858 3.409312 3.806802 ]
Betas:
[ 0.173891 1.782257 1.923097 1.988004 ]
Aggregate results:
[ 5 3 7 0 ]
[ 0.055746 0.005224 0.938285 0.000745 ]
5
Num Evals 2400
GenUC: 2.586807e-06
GenUB: 9.653158e-07
Optimisation 5.207117e-01
Total Time: 5.207168e-01
3 Add 3
Graph 1:
0 0 1 
0 1 1 
1 0 1 
Graph 2:
1 1 1 
0 1 1 
1 0 1 
Solution: 7 0
Classic Expectation: 5.000000
Initial Expecation: 3.750000
Gbest: 7.000000
Expectation: 5.877439
Final Parameters:
Gammas:
[ 2.874732 3.233721 3.917477 2.666409 ]
Betas:
[ 3.141593 2.638825 2.436943 0.794146 ]
Aggregate results:
[ 7 3 5 0 ]
[ 0.443324 0.002361 0.553417 0.000897 ]
5
Num Evals 2400
GenUC: 3.133086e-06
GenUB: 8.115894e-07
Optimisation 7.182402e-01
Total Time: 7.182460e-01
4 Rem 3
Graph 1:
0 0 1 
0 1 1 
1 0 1 
Graph 2:
0 0 1 
0 1 1 
0 0 0 
Solution: 7 0
Classic Expectation: 4.333333
Initial Expecation: 3.250000
Gbest: 7.000000
Expectation: 6.000000
Final Parameters:
Gammas:
[ 2.573308 2.833184 3.923922 4.535406 ]
Betas:
[ 1.885004 0.446867 1.730067 1.266539 ]
Aggregate results:
[ 7 3 5 1 0 ]
[ 0.500000 0.000000 0.500000 0.000000 0.000000 ]
3
Num Evals 1387
GenUC: 2.887798e-06
GenUB: 9.753276e-07
Optimisation 3.096076e-01
Total Time: 3.096135e-01
5 Add/Rem 3
Graph 1:
0 0 1 
0 1 1 
1 0 1 
Graph 2:
1 1 1 
1 1 0 
0 0 0 
Solution: 7 5
Classic Expectation: 4.666667
Initial Expecation: 3.500000
Gbest: 7.000000
Expectation: 5.991063
Final Parameters:
Gammas:
[ 1.589056 4.318919 2.440816 1.819484 ]
Betas:
[ 2.222785 2.328680 1.560146 1.979777 ]
Aggregate results:
[ 3 5 7 0 ]
[ 0.003353 0.497509 0.499065 0.000072 ]
5
Num Evals 2400
GenUC: 2.582092e-06
GenUB: 7.892959e-07
Optimisation 6.497162e-01
Total Time: 6.497213e-01
