Clock Speed: 3.689225
Num threads: 4
Trotterisation: 4
Num Qubits: 3
Space Dimension: 8
Run-Type: 0
Num_samples: 2024
Optimiser Method: 29
1 Isomorphic
Graph 1:
0 0 0 
0 0 0 
1 1 1 
Graph 2:
0 0 0 
0 0 0 
1 1 1 
Solution: 9 0
Classic Expectation: 5.000000
Initial Expecation: 3.750000
Gbest: 9.000000
Expectation: 6.000000
Final Parameters:
Gammas:
[ 3.350790 3.669792 3.578874 2.949661 ]
Betas:
[ 1.589250 0.781098 1.401080 1.721421 ]
Aggregate results:
[ 9 3 0 ]
[ 0.500000 0.500000 0.000000 ]
3
Num Evals 644
GenUC: 2.638437e-06
GenUB: 9.093026e-06
Optimisation 1.709850e-01
Total Time: 1.710145e-01
2 Flipped
Graph 1:
0 0 0 
0 0 0 
1 1 1 
Graph 2:
0 0 0 
0 0 0 
1 1 1 
Solution: 9 0
Classic Expectation: 5.000000
Initial Expecation: 3.750000
Gbest: 9.000000
Expectation: 6.000000
Final Parameters:
Gammas:
[ 3.350790 3.669792 3.578874 2.949661 ]
Betas:
[ 1.589250 0.781098 1.401080 1.721421 ]
Aggregate results:
[ 9 3 0 ]
[ 0.500000 0.500000 0.000000 ]
3
Num Evals 644
GenUC: 2.789835e-06
GenUB: 1.068052e-06
Optimisation 1.502879e-01
Total Time: 1.502938e-01
3 Add 3
Graph 1:
0 0 0 
0 0 0 
1 1 1 
Graph 2:
0 1 0 
0 0 1 
1 1 1 
Solution: 7 0
Classic Expectation: 4.333333
Initial Expecation: 3.250000
Gbest: 7.000000
Expectation: 5.000000
Final Parameters:
Gammas:
[ 3.138678 1.834909 2.678025 3.261997 ]
Betas:
[ 2.432077 0.738135 1.244453 1.646908 ]
Aggregate results:
[ 7 3 0 ]
[ 0.500000 0.500000 0.000000 ]
3
Num Evals 584
GenUC: 2.714107e-06
GenUB: 7.059425e-07
Optimisation 1.377043e-01
Total Time: 1.377280e-01
4 Rem 3
Graph 1:
0 0 0 
0 0 0 
1 1 1 
Graph 2:
0 0 0 
0 0 0 
1 0 0 
Solution: 7 0
Classic Expectation: 5.666667
Initial Expecation: 4.250000
Gbest: 7.000000
Expectation: 6.000000
Final Parameters:
Gammas:
[ 4.610383 1.116007 3.400424 3.065085 ]
Betas:
[ 0.623949 1.707417 2.118408 1.793712 ]
Aggregate results:
[ 7 5 0 ]
[ 0.500000 0.500000 0.000000 ]
3
Num Evals 537
GenUC: 2.702407e-06
GenUB: 7.540802e-07
Optimisation 1.266780e-01
Total Time: 1.266830e-01
5 Add/Rem 3
Graph 1:
0 0 0 
0 0 0 
1 1 1 
Graph 2:
0 0 0 
1 0 1 
1 0 1 
Solution: 6 0
Classic Expectation: 4.666667
Initial Expecation: 3.500000
Gbest: 6.000000
Expectation: 5.978320
Final Parameters:
Gammas:
[ 4.201684 3.696149 2.914968 2.311079 ]
Betas:
[ 1.712116 0.626628 1.481535 1.857186 ]
Aggregate results:
[ 6 2 0 ]
[ 0.995065 0.003965 0.000970 ]
5
Num Evals 2400
GenUC: 2.540415e-06
GenUB: 6.554765e-07
Optimisation 6.502098e-01
Total Time: 6.502146e-01
