Clock Speed: 3.498818
Num threads: 16
Trotterisation: 2
Num Qubits: 5
Space Dimension: 32
Run-Type: 0
Num_samples: 16
Optimiser Method: 33
1 Isomorphic
Graph 1:
0 1 0 0 
0 0 0 0 
0 1 1 1 
0 0 1 1 
Graph 2:
0 1 0 0 
0 0 0 0 
0 1 1 1 
0 0 1 1 
Solution: 16 0
Classic Expectation: 8.666667
Initial Expecation: 6.500000
Gbest: 16.000000
Expectation: 6.500000
Final Parameters:
Gammas:
[ 3.141593 3.141593 ]
Betas:
[ 1.570796 1.570796 ]
Aggregate results:
[ 16 14 6 8 10 12 0 ]
[ 0.031250 0.031250 0.156250 0.406250 0.062500 0.062500 0.250000 ]
4
Num Evals 3
GenUC: 9.272248e-06
GenUB: 1.297379e-05
Optimisation 1.415067e-03
Total Time: 1.444278e-03
2 Flipped
Graph 1:
0 1 0 0 
0 0 0 0 
0 1 1 1 
0 0 1 1 
Graph 2:
0 0 1 0 
0 0 0 0 
1 1 1 0 
1 1 0 0 
Solution: 14 21
Classic Expectation: 8.333333
Initial Expecation: 6.250000
Gbest: 12.000000
Expectation: 6.250000
Final Parameters:
Gammas:
[ 3.141593 3.141593 ]
Betas:
[ 1.570796 1.570796 ]
Aggregate results:
[ 8 6 10 4 12 14 0 ]
[ 0.343750 0.062500 0.156250 0.093750 0.062500 0.031250 0.250000 ]
4
Num Evals 3
GenUC: 1.045829e-05
GenUB: 1.622364e-06
Optimisation 2.167821e-04
Total Time: 2.307701e-04
3 Add 4
Graph 1:
0 1 0 0 
0 0 0 0 
0 1 1 1 
0 0 1 1 
Graph 2:
0 1 1 1 
0 0 1 0 
1 1 1 1 
0 0 1 1 
Solution: 12 0
Classic Expectation: 7.333333
Initial Expecation: 5.500000
Gbest: 8.000000
Expectation: 5.500000
Final Parameters:
Gammas:
[ 3.141593 3.141593 ]
Betas:
[ 1.570796 1.570796 ]
Aggregate results:
[ 12 10 6 8 4 0 ]
[ 0.031250 0.093750 0.218750 0.312500 0.093750 0.250000 ]
4
Num Evals 3
GenUC: 9.748619e-06
GenUB: 1.179986e-06
Optimisation 2.116114e-04
Total Time: 2.251798e-04
4 Rem 4
Graph 1:
0 1 0 0 
0 0 0 0 
0 1 1 1 
0 0 1 1 
Graph 2:
0 1 0 0 
0 0 0 0 
0 0 1 0 
0 0 0 0 
Solution: 12 0
Classic Expectation: 9.666667
Initial Expecation: 7.250000
Gbest: 12.000000
Expectation: 7.250000
Final Parameters:
Gammas:
[ 3.141593 3.141593 ]
Betas:
[ 1.570796 1.570796 ]
Aggregate results:
[ 12 8 10 0 ]
[ 0.093750 0.218750 0.437500 0.250000 ]
4
Num Evals 3
GenUC: 9.844545e-06
GenUB: 1.039356e-06
Optimisation 2.098815e-04
Total Time: 2.217232e-04
5 Add/Rem 4
Graph 1:
0 1 0 0 
0 0 0 0 
0 1 1 1 
0 0 1 1 
Graph 2:
1 1 0 1 
0 0 0 0 
1 1 1 1 
0 0 0 0 
Solution: 11 0
Classic Expectation: 8.333333
Initial Expecation: 6.250000
Gbest: 11.000000
Expectation: 6.250000
Final Parameters:
Gammas:
[ 3.141593 3.141593 ]
Betas:
[ 1.570796 1.570796 ]
Aggregate results:
[ 11 9 3 7 5 0 ]
[ 0.250000 0.187500 0.062500 0.187500 0.062500 0.250000 ]
4
Num Evals 3
GenUC: 9.855255e-06
GenUB: 1.008622e-06
Optimisation 2.099192e-04
Total Time: 2.217358e-04
