Clock Speed: 3.498619
Num threads: 16
Trotterisation: 2
Num Qubits: 5
Space Dimension: 32
Run-Type: 0
Num_samples: 16
Optimiser Method: 33
1 Isomorphic
Graph 1:
1 1 1 1 
1 1 0 0 
1 1 0 1 
1 1 1 1 
Graph 2:
1 1 1 1 
1 1 0 0 
1 1 0 1 
1 1 1 1 
Solution: 16 0
Classic Expectation: 11.166667
Initial Expecation: 8.375000
Gbest: 16.000000
Expectation: 8.375000
Final Parameters:
Gammas:
[ 3.141593 3.141593 ]
Betas:
[ 1.570796 1.570796 ]
Aggregate results:
[ 16 14 10 12 0 ]
[ 0.031250 0.062500 0.437500 0.218750 0.250000 ]
4
Num Evals 3
GenUC: 1.019193e-05
GenUB: 1.305342e-05
Optimisation 3.202069e-04
Total Time: 3.519687e-04
2 Flipped
Graph 1:
1 1 1 1 
1 1 0 0 
1 1 0 1 
1 1 1 1 
Graph 2:
1 1 1 1 
0 0 1 1 
1 0 1 1 
1 1 1 1 
Solution: 14 2
Classic Expectation: 11.166667
Initial Expecation: 8.375000
Gbest: 12.000000
Expectation: 8.375000
Final Parameters:
Gammas:
[ 3.141593 3.141593 ]
Betas:
[ 1.570796 1.570796 ]
Aggregate results:
[ 10 14 12 0 ]
[ 0.375000 0.062500 0.312500 0.250000 ]
4
Num Evals 3
GenUC: 1.107389e-05
GenUB: 1.567416e-06
Optimisation 2.368507e-04
Total Time: 2.510319e-04
3 Add 4
Graph 1:
1 1 1 1 
1 1 0 0 
1 1 0 1 
1 1 1 1 
Graph 2:
1 1 1 1 
1 1 1 1 
1 1 0 1 
1 1 1 1 
Solution: 14 0
Classic Expectation: 12.500000
Initial Expecation: 9.375000
Gbest: 14.000000
Expectation: 9.375000
Final Parameters:
Gammas:
[ 3.141593 3.141593 ]
Betas:
[ 1.570796 1.570796 ]
Aggregate results:
[ 14 12 0 ]
[ 0.187500 0.562500 0.250000 ]
4
Num Evals 3
GenUC: 9.957235e-06
GenUB: 1.061708e-06
Optimisation 2.108510e-04
Total Time: 2.240557e-04
4 Rem 4
Graph 1:
1 1 1 1 
1 1 0 0 
1 1 0 1 
1 1 1 1 
Graph 2:
0 1 0 1 
1 1 0 0 
1 1 0 1 
0 1 1 1 
Solution: 13 0
Classic Expectation: 9.333333
Initial Expecation: 7.000000
Gbest: 11.000000
Expectation: 7.000000
Final Parameters:
Gammas:
[ 3.141593 3.141593 ]
Betas:
[ 1.570796 1.570796 ]
Aggregate results:
[ 13 11 7 9 0 ]
[ 0.031250 0.281250 0.218750 0.218750 0.250000 ]
4
Num Evals 3
GenUC: 9.831507e-06
GenUB: 1.073815e-06
Optimisation 2.097776e-04
Total Time: 2.216534e-04
5 Add/Rem 4
Graph 1:
1 1 1 1 
1 1 0 0 
1 1 0 1 
1 1 1 1 
Graph 2:
1 1 1 1 
1 0 1 1 
0 1 1 1 
1 0 1 1 
Solution: 14 4
Classic Expectation: 11.166667
Initial Expecation: 8.375000
Gbest: 12.000000
Expectation: 8.375000
Final Parameters:
Gammas:
[ 3.141593 3.141593 ]
Betas:
[ 1.570796 1.570796 ]
Aggregate results:
[ 10 12 14 0 ]
[ 0.406250 0.250000 0.093750 0.250000 ]
4
Num Evals 3
GenUC: 9.892508e-06
GenUB: 1.022127e-06
Optimisation 2.121180e-04
Total Time: 2.239179e-04
