Clock Speed: 3.688530
Num threads: 4
Trotterisation: 6
Num Qubits: 10
Space Dimension: 1024
Run-Type: 0
Num_samples: 6
Optimiser Method: 20
1 Isomorphic
Graph 1:
0 0 1 1 0 0 
0 0 1 0 0 0 
1 1 0 0 1 0 
1 0 0 0 1 0 
0 0 1 1 0 0 
0 0 0 0 0 0 
Graph 2:
0 0 1 1 0 0 
0 0 1 0 0 0 
1 1 0 0 1 0 
1 0 0 0 1 0 
0 0 1 1 0 0 
0 0 0 0 0 0 
Solution: 36 0
Classic Expectation: 22.666667
Initial Expecation: 15.937500
Gbest: 28.000000
Expectation: 22.309973
Final Parameters:
Gammas:
[ 6.062809 4.795337 5.397101 1.829912 0.144730 1.282450 ]
Betas:
[ 0.769256 1.763673 1.626292 1.625391 0.182436 1.487074 ]
Aggregate results:
[ 36 28 24 32 20 16 0 ]
[ 0.020610 0.191813 0.414339 0.058459 0.196653 0.028087 0.090040 ]
5
Num Evals 7200
GenUC: 2.602166e-04
GenUB: 8.655753e-05
Optimisation 1.722761e+02
Total Time: 1.722765e+02
2 Flipped
Graph 1:
0 0 1 1 0 0 
0 0 1 0 0 0 
1 1 0 0 1 0 
1 0 0 0 1 0 
0 0 1 1 0 0 
0 0 0 0 0 0 
Graph 2:
0 0 1 1 0 0 
0 0 0 1 0 0 
0 1 0 0 1 1 
0 1 0 0 0 1 
0 0 1 1 0 0 
0 0 0 0 0 0 
Solution: 30 6
Classic Expectation: 22.666667
Initial Expecation: 15.937500
Gbest: 24.000000
Expectation: 19.818932
Final Parameters:
Gammas:
[ 0.311662 5.958987 3.367240 3.741467 4.979121 0.148000 ]
Betas:
[ 0.575246 3.042241 2.449646 0.415467 0.406839 0.397653 ]
Aggregate results:
[ 28 26 22 24 30 20 18 0 ]
[ 0.048264 0.078079 0.297390 0.190256 0.026153 0.184997 0.046902 0.127959 ]
5
Num Evals 7200
GenUC: 2.795482e-04
GenUB: 7.001805e-05
Optimisation 1.724090e+02
Total Time: 1.724093e+02
3 Add 6
Graph 1:
0 0 1 1 0 0 
0 0 1 0 0 0 
1 1 0 0 1 0 
1 0 0 0 1 0 
0 0 1 1 0 0 
0 0 0 0 0 0 
Graph 2:
1 1 1 1 1 1 
1 0 1 1 0 1 
1 1 1 0 1 0 
1 1 0 0 1 0 
1 0 1 1 0 0 
1 1 0 0 0 0 
Solution: 24 0
Classic Expectation: 17.333333
Initial Expecation: 12.187500
Gbest: 24.000000
Expectation: 17.207540
Final Parameters:
Gammas:
[ 5.642479 4.498902 0.252039 2.357350 0.740354 2.634635 ]
Betas:
[ 2.330027 3.033939 0.985910 0.183507 2.971532 0.031904 ]
Aggregate results:
[ 24 16 20 12 8 0 ]
[ 0.162932 0.161011 0.504141 0.049577 0.005408 0.116931 ]
5
Num Evals 7200
GenUC: 2.791903e-04
GenUB: 6.965423e-05
Optimisation 1.878274e+02
Total Time: 1.878278e+02
4 Rem 6
Graph 1:
0 0 1 1 0 0 
0 0 1 0 0 0 
1 1 0 0 1 0 
1 0 0 0 1 0 
0 0 1 1 0 0 
0 0 0 0 0 0 
Graph 2:
0 0 0 0 0 0 
0 0 0 0 0 0 
0 0 0 0 0 0 
0 0 0 0 1 0 
0 0 0 1 0 0 
0 0 0 0 0 0 
Solution: 28 0
Classic Expectation: 25.333333
Initial Expecation: 17.812500
Gbest: 28.000000
Expectation: 23.998327
Final Parameters:
Gammas:
[ 4.605220 6.111478 4.693290 5.811813 5.785854 3.101825 ]
Betas:
[ 0.425674 1.098225 0.980586 1.964317 3.035221 1.740963 ]
Aggregate results:
[ 28 24 0 ]
[ 0.451577 0.473091 0.075333 ]
5
Num Evals 7200
GenUC: 2.803845e-04
GenUB: 6.236043e-05
Optimisation 2.006111e+02
Total Time: 2.006115e+02
5 Add/Rem 6
Graph 1:
0 0 1 1 0 0 
0 0 1 0 0 0 
1 1 0 0 1 0 
1 0 0 0 1 0 
0 0 1 1 0 0 
0 0 0 0 0 0 
Graph 2:
1 1 0 0 1 1 
1 0 0 1 1 1 
0 0 1 0 0 0 
0 1 0 0 1 0 
1 1 0 1 0 0 
1 1 0 0 0 0 
Solution: 30 64
Classic Expectation: 19.333333
Initial Expecation: 13.593750
Gbest: 26.000000
Expectation: 16.888931
Final Parameters:
Gammas:
[ 3.216684 5.500832 3.144660 4.465438 6.241157 1.447095 ]
Betas:
[ 0.673076 2.797572 0.066431 0.896041 0.398382 1.850039 ]
Aggregate results:
[ 14 10 18 22 26 30 0 ]
[ 0.127759 0.011529 0.341027 0.281137 0.090119 0.010614 0.137815 ]
5
Num Evals 7200
GenUC: 2.799713e-04
GenUB: 6.271721e-05
Optimisation 1.618776e+02
Total Time: 1.618780e+02
