Clock Speed: 3.688873
Num threads: 4
Trotterisation: 6
Graph Size: 5
Num Qubits: 7
Space Dimension: 128
Run-Type: 0
Num_samples: 10
1 Isomorphic
Graph 1:
0 1 1 1 0 
0 0 0 0 0 
0 1 1 1 0 
1 0 0 1 1 
1 1 0 0 0 
Graph 2:
0 1 1 1 0 
0 0 0 0 0 
0 1 1 1 0 
1 0 0 1 1 
1 1 0 0 0 
Solution: 0 0
Gbest: -6.000000
Expectation: -11.197494
Final Parameters:
Gammas:
[ 2.448344 6.002642 2.250201 1.857450 0.679745 1.601125 ]
Betas:
[ 2.300223 1.561063 2.532850 0.467944 2.328951 0.851317 1.473921 ]
Aggregate results:
[ -1 9 11 7 13 15 17 5 24 ]
[ 0.039531 0.222148 0.243394 0.109652 0.200399 0.089036 0.008857 0.072952 0.014031 ]
5
Num Evals 500
GenUC: 1.604303e-04
GenUB: 3.039581e-05
Optimisation 4.400342e-01
Total Time: 4.410485e-01
2 Flipped
Graph 1:
0 1 1 1 0 
0 0 0 0 0 
0 1 1 1 0 
1 0 0 1 1 
1 1 0 0 0 
Graph 2:
0 1 1 1 0 
0 0 0 0 0 
0 1 1 1 0 
1 1 0 0 1 
0 0 0 1 1 
Solution: -6 0
Gbest: -6.000000
Expectation: -11.548311
Final Parameters:
Gammas:
[ 3.647353 2.628082 0.234750 2.969307 5.585966 5.230423 ]
Betas:
[ 0.036632 1.518794 1.305621 3.141500 0.729159 3.055283 2.016925 ]
Aggregate results:
[ 5 13 15 11 7 9 17 24 ]
[ 0.092504 0.216256 0.057264 0.319620 0.085781 0.211355 0.002323 0.014897 ]
5
Num Evals 1000
GenUC: 2.468645e-05
GenUB: 2.086209e-05
Optimisation 4.297041e-01
Total Time: 4.305710e-01
3 Add 5
Graph 1:
0 1 1 1 0 
0 0 0 0 0 
0 1 1 1 0 
1 0 0 1 1 
1 1 0 0 0 
Graph 2:
0 1 1 1 0 
0 0 0 0 1 
0 1 1 1 1 
1 0 1 1 1 
1 1 0 1 0 
Solution: -4 0
Gbest: -4.000000
Expectation: -11.791989
Final Parameters:
Gammas:
[ 4.627210 2.279098 5.982387 0.929157 5.749623 4.123571 ]
Betas:
[ 2.751803 2.144813 2.578290 0.970523 2.439335 1.991424 1.045009 ]
Aggregate results:
[ 3 13 11 15 9 7 17 5 24 ]
[ 0.058248 0.195222 0.241446 0.140066 0.236417 0.098873 0.012494 0.006496 0.010739 ]
5
Num Evals 1500
GenUC: 2.459320e-05
GenUB: 1.769850e-05
Optimisation 4.551480e-01
Total Time: 4.560959e-01
4 Rem 5
Graph 1:
0 1 1 1 0 
0 0 0 0 0 
0 1 1 1 0 
1 0 0 1 1 
1 1 0 0 0 
Graph 2:
0 1 1 1 0 
0 0 0 0 0 
0 1 0 1 0 
1 0 0 0 0 
0 1 0 0 0 
Solution: -4 0
Gbest: -6.000000
Expectation: -9.491621
Final Parameters:
Gammas:
[ 3.436013 3.258201 3.473216 3.805677 2.932040 3.253544 ]
Betas:
[ 1.443380 1.561093 1.307407 1.451757 1.523966 1.731201 1.470194 ]
Aggregate results:
[ 3 13 9 11 7 15 5 24 ]
[ 0.019976 0.051646 0.357517 0.155104 0.299030 0.004669 0.106112 0.005945 ]
5
Num Evals 2000
GenUC: 2.334558e-05
GenUB: 1.735101e-05
Optimisation 4.096957e-01
Total Time: 4.105229e-01
5 Add/Rem 5
Graph 1:
0 1 1 1 0 
0 0 0 0 0 
0 1 1 1 0 
1 0 0 1 1 
1 1 0 0 0 
Graph 2:
1 0 1 0 0 
0 1 0 0 1 
0 1 1 1 0 
1 0 1 0 1 
1 1 0 1 0 
Solution: -6 37
Gbest: -10.000000
Expectation: -12.089749
Final Parameters:
Gammas:
[ 3.126145 2.990923 3.511706 2.315911 1.047305 2.854400 ]
Betas:
[ 3.014252 2.554142 1.350092 2.390267 2.505143 2.056819 0.645076 ]
Aggregate results:
[ 7 13 11 15 9 17 5 19 24 ]
[ 0.100947 0.237760 0.295407 0.078185 0.236878 0.016849 0.018438 0.002680 0.012856 ]
5
Num Evals 2500
GenUC: 2.443301e-05
GenUB: 1.759629e-05
Optimisation 4.697294e-01
Total Time: 4.706646e-01
