Clock Speed: 3.688705
Num threads: 4
Trotterisation: 6
Graph Size: 5
Num Qubits: 7
Space Dimension: 128
Run-Type: 0
Num_samples: 10
1 Isomorphic
Graph 1:
0 1 0 1 1 
0 1 0 0 1 
1 1 0 1 1 
0 1 0 0 1 
0 1 1 1 1 
Graph 2:
0 1 0 1 1 
0 1 0 0 1 
1 1 0 1 1 
0 1 0 0 1 
0 1 1 1 1 
Solution: 0 0
Gbest: -4.000000
Expectation: -10.617332
Final Parameters:
Gammas:
[ 1.537886 4.633022 6.281719 4.030093 1.666041 6.133087 ]
Betas:
[ 1.331320 3.096280 3.020329 1.423891 0.475548 2.035801 1.624302 ]
Aggregate results:
[ -1 9 11 3 5 13 7 15 17 24 ]
[ 0.013643 0.173024 0.158982 0.077088 0.128049 0.116340 0.167489 0.093768 0.050960 0.020657 ]
5
Num Evals 500
GenUC: 1.669639e-04
GenUB: 3.077442e-05
Optimisation 4.547018e-01
Total Time: 4.557821e-01
2 Flipped
Graph 1:
0 1 0 1 1 
0 1 0 0 1 
1 1 0 1 1 
0 1 0 0 1 
0 1 1 1 1 
Graph 2:
1 1 0 1 0 
1 0 0 1 0 
1 1 0 1 1 
1 0 0 1 0 
1 1 1 1 0 
Solution: -2 105
Gbest: -2.000000
Expectation: -6.622683
Final Parameters:
Gammas:
[ 3.334342 3.111646 3.391927 3.062910 3.414450 4.227792 ]
Betas:
[ 0.614363 1.237926 1.585857 1.308341 1.530124 1.427217 1.523317 ]
Aggregate results:
[ 11 7 9 15 13 17 5 3 1 24 ]
[ 0.042385 0.126428 0.127811 0.019138 0.014854 0.014765 0.375192 0.092899 0.184406 0.002121 ]
5
Num Evals 1000
GenUC: 2.237031e-05
GenUB: 2.102877e-05
Optimisation 4.098877e-01
Total Time: 4.108302e-01
3 Add 5
Graph 1:
0 1 0 1 1 
0 1 0 0 1 
1 1 0 1 1 
0 1 0 0 1 
0 1 1 1 1 
Graph 2:
1 1 1 1 1 
0 1 1 0 1 
1 1 0 1 1 
1 1 0 0 1 
0 1 1 1 1 
Solution: -4 0
Gbest: -6.000000
Expectation: -7.936998
Final Parameters:
Gammas:
[ 3.412363 3.270352 3.505544 3.323481 3.576112 3.321654 ]
Betas:
[ 1.170982 1.325148 1.504277 1.296380 1.604389 1.317654 1.706706 ]
Aggregate results:
[ 3 9 11 5 7 13 15 24 ]
[ 0.054842 0.145865 0.047047 0.310885 0.414893 0.010244 0.004338 0.011885 ]
5
Num Evals 1500
GenUC: 2.228111e-05
GenUB: 1.811748e-05
Optimisation 4.084591e-01
Total Time: 4.092844e-01
4 Rem 5
Graph 1:
0 1 0 1 1 
0 1 0 0 1 
1 1 0 1 1 
0 1 0 0 1 
0 1 1 1 1 
Graph 2:
0 0 0 0 1 
0 1 0 0 1 
1 1 0 1 0 
0 1 0 0 0 
0 1 1 1 1 
Solution: -4 0
Gbest: -4.000000
Expectation: -12.188430
Final Parameters:
Gammas:
[ 5.331085 3.412455 2.239853 6.269884 1.207085 3.834190 ]
Betas:
[ 0.714805 1.413250 1.950308 1.876279 2.026733 2.830108 3.045726 ]
Aggregate results:
[ 3 9 11 13 15 7 5 17 24 ]
[ 0.062766 0.160423 0.242887 0.214464 0.115217 0.124679 0.004853 0.045970 0.028740 ]
5
Num Evals 2000
GenUC: 2.494536e-05
GenUB: 1.789976e-05
Optimisation 4.606849e-01
Total Time: 4.616312e-01
5 Add/Rem 5
Graph 1:
0 1 0 1 1 
0 1 0 0 1 
1 1 0 1 1 
0 1 0 0 1 
0 1 1 1 1 
Graph 2:
0 1 0 0 1 
0 1 1 1 1 
1 0 0 0 1 
0 1 0 0 1 
1 1 0 1 1 
Solution: -5 22
Gbest: -5.000000
Expectation: -11.005230
Final Parameters:
Gammas:
[ 1.981597 5.146871 0.831312 6.215499 1.157022 1.640121 ]
Betas:
[ 2.166515 1.906969 1.253592 1.909406 0.657489 1.372419 2.141268 ]
Aggregate results:
[ 6 10 8 4 12 14 16 24 ]
[ 0.181684 0.224185 0.231722 0.011463 0.175611 0.132265 0.027384 0.015686 ]
5
Num Evals 2500
GenUC: 2.342189e-05
GenUB: 1.768791e-05
Optimisation 4.127448e-01
Total Time: 4.136021e-01
