Clock Speed: 3.390175
Num threads: 4
Trotterisation: 1
Graph Size: 7
Num Qubits: 13
Space Dimension: 8192
Run-Type: 0
Num_samples: 10
1 Isomorphic
Graph 1:
1 1 0 1 0 1 0 
0 0 0 0 1 1 0 
1 0 1 1 1 1 0 
1 1 0 1 0 1 0 
1 1 1 0 1 1 0 
0 1 0 0 1 1 1 
1 0 0 0 1 1 1 
Graph 2:
1 1 0 1 0 1 0 
0 0 0 0 1 1 0 
1 0 1 1 1 1 0 
1 1 0 1 0 1 0 
1 1 1 0 1 1 0 
0 1 0 0 1 1 1 
1 0 0 0 1 1 1 
Solution: 0 0
Gbest: -22.000000
Expectation: -24.075746
Final Parameters:
Gammas:
[ 3.201558 ]
Betas:
[ 2.194959 0.446961 ]
Aggregate results:
[ -1 13 11 9 19 15 3 17 23 21 25 7 29 27 5 31 33 35 48 ]
[ 0.000198 0.016161 0.006225 0.002285 0.152266 0.043372 0.000175 0.090907 0.190551 0.182390 0.148730 0.000757 0.034176 0.066346 0.000164 0.007591 0.002237 0.000313 0.055155 ]
5
Num Evals 700
GenUC: 3.632960e-03
GenUB: 2.072600e-03
Optimisation 3.388451e+00
Total Time: 3.398716e+00
2 Flipped
Graph 1:
1 1 0 1 0 1 0 
0 0 0 0 1 1 0 
1 0 1 1 1 1 0 
1 1 0 1 0 1 0 
1 1 1 0 1 1 0 
0 1 0 0 1 1 1 
1 0 0 0 1 1 1 
Graph 2:
0 1 0 1 0 1 1 
0 1 1 0 0 0 0 
0 1 1 1 1 0 1 
0 1 0 1 0 1 1 
0 1 1 0 1 1 1 
1 1 1 0 0 1 0 
1 1 1 0 0 0 1 
Solution: -12 1087
Gbest: -20.000000
Expectation: -24.488652
Final Parameters:
Gammas:
[ 0.048795 ]
Betas:
[ 3.139389 2.739661 ]
Aggregate results:
[ 21 25 27 23 29 19 17 31 15 13 11 33 35 37 48 ]
[ 0.207993 0.138427 0.075778 0.186781 0.023137 0.158444 0.086032 0.006452 0.035320 0.011315 0.001260 0.001080 0.001026 0.000182 0.066775 ]
5
Num Evals 1400
GenUC: 1.207496e-03
GenUB: 1.753137e-03
Optimisation 3.315737e+00
Total Time: 3.325564e+00
3 Add 7
Graph 1:
1 1 0 1 0 1 0 
0 0 0 0 1 1 0 
1 0 1 1 1 1 0 
1 1 0 1 0 1 0 
1 1 1 0 1 1 0 
0 1 0 0 1 1 1 
1 0 0 0 1 1 1 
Graph 2:
1 1 1 1 0 1 1 
0 1 0 1 1 1 0 
1 0 1 1 1 1 0 
1 1 0 1 0 1 0 
1 1 1 0 1 1 0 
0 1 0 1 1 1 1 
1 0 0 0 1 1 1 
Solution: -5 0
Gbest: -17.000000
Expectation: -23.460939
Final Parameters:
Gammas:
[ 3.209462 ]
Betas:
[ 1.686209 2.502861 ]
Aggregate results:
[ 4 14 10 12 16 22 8 18 20 24 26 28 30 32 48 ]
[ 0.000451 0.043998 0.002756 0.013429 0.095912 0.193331 0.000991 0.161150 0.209725 0.120406 0.057686 0.017812 0.003576 0.000839 0.077937 ]
5
Num Evals 2100
GenUC: 1.210922e-03
GenUB: 1.793459e-03
Optimisation 3.473258e+00
Total Time: 3.482026e+00
4 Rem 7
Graph 1:
1 1 0 1 0 1 0 
0 0 0 0 1 1 0 
1 0 1 1 1 1 0 
1 1 0 1 0 1 0 
1 1 1 0 1 1 0 
0 1 0 0 1 1 1 
1 0 0 0 1 1 1 
Graph 2:
1 0 0 1 0 1 0 
0 0 0 0 1 1 0 
1 0 0 1 1 0 0 
1 1 0 0 0 1 0 
1 0 1 0 1 1 0 
0 1 0 0 1 1 1 
1 0 0 0 1 1 1 
Solution: -5 0
Gbest: -21.000000
Expectation: -25.246640
Final Parameters:
Gammas:
[ 0.061196 ]
Betas:
[ 1.410178 2.618228 ]
Aggregate results:
[ 4 16 12 14 22 18 20 8 24 10 28 26 30 32 34 36 38 48 ]
[ 0.000302 0.035597 0.002629 0.012070 0.195932 0.084635 0.142982 0.000390 0.191951 0.001469 0.083580 0.153191 0.030967 0.009762 0.001284 0.000467 0.000189 0.052601 ]
5
Num Evals 2800
GenUC: 1.323478e-03
GenUB: 1.651293e-03
Optimisation 3.389742e+00
Total Time: 3.398341e+00
5 Add/Rem 7
Graph 1:
1 1 0 1 0 1 0 
0 0 0 0 1 1 0 
1 0 1 1 1 1 0 
1 1 0 1 0 1 0 
1 1 1 0 1 1 0 
0 1 0 0 1 1 1 
1 0 0 0 1 1 1 
Graph 2:
0 1 0 1 0 1 0 
1 1 0 0 1 1 0 
0 1 1 0 1 1 0 
1 1 0 1 0 1 0 
1 0 1 1 1 0 0 
0 1 0 0 1 0 1 
1 1 0 0 1 1 1 
Solution: -11 0
Gbest: -19.000000
Expectation: -24.294054
Final Parameters:
Gammas:
[ 3.195470 ]
Betas:
[ 2.770467 2.549685 ]
Aggregate results:
[ 10 12 20 14 16 18 24 22 26 28 30 32 34 48 ]
[ 0.001394 0.007869 0.161193 0.027986 0.068205 0.116536 0.166058 0.189379 0.121662 0.056146 0.022966 0.005967 0.000610 0.054030 ]
5
Num Evals 3500
GenUC: 1.260516e-03
GenUB: 1.785088e-03
Optimisation 3.299614e+00
Total Time: 3.309359e+00
