Clock Speed: 3.498624
Num threads: 16
Trotterisation: 3
Num Qubits: 13
Space Dimension: 8192
Run-Type: 0
Num_samples: 49
Optimiser Method: 20
1 Isomorphic
Graph 1:
1 0 0 1 1 0 0 
0 0 1 0 0 0 0 
1 0 1 0 1 1 1 
1 1 1 1 1 0 1 
0 0 1 1 1 1 0 
0 0 1 1 0 1 0 
0 1 0 0 0 0 0 
Graph 2:
1 0 0 1 1 0 0 
0 0 1 0 0 0 0 
1 0 1 0 1 1 1 
1 1 1 1 1 0 1 
0 0 1 1 1 1 0 
0 0 1 1 0 1 0 
0 1 0 0 0 0 0 
Solution: 49 0
Classic Expectation: 25.571429
Initial Expecation: 15.732422
Gbest: 31.000000
Expectation: 17.866206
Final Parameters:
Gammas:
[ 0.778945 4.673953 1.763973 ]
Betas:
[ 1.867668 2.255320 3.039228 ]
Aggregate results:
[ 49 37 43 35 31 29 23 27 39 33 25 19 21 17 13 15 11 41 0 ]
[ 0.000349 0.006648 0.000865 0.013051 0.054834 0.081999 0.103621 0.141974 0.000631 0.021899 0.138778 0.038920 0.070335 0.013929 0.001482 0.006530 0.000258 0.000602 0.303296 ]
5
Num Evals 4200
GenUC: 2.246232e-03
GenUB: 1.295296e-03
Optimisation 1.377760e+02
Total Time: 1.377796e+02
2 Flipped
Graph 1:
1 0 0 1 1 0 0 
0 0 1 0 0 0 0 
1 0 1 0 1 1 1 
1 1 1 1 1 0 1 
0 0 1 1 1 1 0 
0 0 1 1 0 1 0 
0 1 0 0 0 0 0 
Graph 2:
0 0 1 1 0 0 1 
0 0 0 0 1 0 0 
1 1 1 0 1 0 1 
1 0 1 1 1 1 1 
0 1 1 1 1 0 0 
0 1 0 1 1 0 0 
0 0 0 0 0 1 0 
Solution: 37 512
Classic Expectation: 24.428571
Initial Expecation: 15.029297
Gbest: 33.000000
Expectation: 20.351238
Final Parameters:
Gammas:
[ 2.837280 3.345994 3.120011 ]
Betas:
[ 1.697721 0.017467 2.393379 ]
Aggregate results:
[ 31 33 27 29 25 19 23 15 21 17 13 35 37 11 0 ]
[ 0.054436 0.015931 0.133478 0.092248 0.152196 0.064846 0.167275 0.007658 0.108553 0.023662 0.001992 0.003083 0.000984 0.000697 0.172961 ]
5
Num Evals 4200
GenUC: 2.753343e-03
GenUB: 1.266090e-03
Optimisation 9.239366e+01
Total Time: 9.239769e+01
3 Add 7
Graph 1:
1 0 0 1 1 0 0 
0 0 1 0 0 0 0 
1 0 1 0 1 1 1 
1 1 1 1 1 0 1 
0 0 1 1 1 1 0 
0 0 1 1 0 1 0 
0 1 0 0 0 0 0 
Graph 2:
1 0 1 1 1 0 0 
1 0 1 0 0 0 0 
1 0 1 0 1 1 1 
1 1 1 1 1 0 1 
0 1 1 1 1 1 0 
0 0 1 1 0 1 0 
1 1 1 1 1 0 0 
Solution: 42 0
Classic Expectation: 24.571429
Initial Expecation: 15.117188
Gbest: 32.000000
Expectation: 20.170029
Final Parameters:
Gammas:
[ 0.807960 5.439298 4.284446 ]
Betas:
[ 0.083212 1.321988 1.201170 ]
Aggregate results:
[ 42 34 36 32 30 28 26 22 24 20 16 18 14 38 12 0 ]
[ 0.000107 0.008766 0.001730 0.025064 0.058329 0.124801 0.157292 0.135211 0.175848 0.077848 0.011452 0.033605 0.003324 0.001841 0.001058 0.183724 ]
5
Num Evals 4200
GenUC: 2.819424e-03
GenUB: 1.283746e-03
Optimisation 7.750874e+01
Total Time: 7.751285e+01
4 Rem 7
Graph 1:
1 0 0 1 1 0 0 
0 0 1 0 0 0 0 
1 0 1 0 1 1 1 
1 1 1 1 1 0 1 
0 0 1 1 1 1 0 
0 0 1 1 0 1 0 
0 1 0 0 0 0 0 
Graph 2:
1 0 0 1 1 0 0 
0 0 1 0 0 0 0 
1 0 1 0 0 1 1 
0 1 1 0 1 0 1 
0 0 1 1 0 1 0 
0 0 1 0 0 0 0 
0 1 0 0 0 0 0 
Solution: 43 0
Classic Expectation: 24.714286
Initial Expecation: 15.205078
Gbest: 33.000000
Expectation: 18.972552
Final Parameters:
Gammas:
[ 5.963353 3.590929 2.295375 ]
Betas:
[ 0.583843 0.026498 2.124929 ]
Aggregate results:
[ 43 35 37 31 33 27 29 23 21 25 19 15 17 13 39 0 ]
[ 0.000093 0.005597 0.001147 0.045598 0.016800 0.135084 0.085131 0.145708 0.095913 0.160594 0.044277 0.003878 0.020544 0.000414 0.000305 0.238918 ]
5
Num Evals 4200
GenUC: 2.817494e-03
GenUB: 1.190423e-03
Optimisation 7.557185e+01
Total Time: 7.557586e+01
5 Add/Rem 7
Graph 1:
1 0 0 1 1 0 0 
0 0 1 0 0 0 0 
1 0 1 0 1 1 1 
1 1 1 1 1 0 1 
0 0 1 1 1 1 0 
0 0 1 1 0 1 0 
0 1 0 0 0 0 0 
Graph 2:
1 1 0 1 1 0 0 
0 0 0 0 0 0 1 
1 1 1 0 0 0 1 
1 0 1 1 1 0 0 
1 0 1 1 1 1 0 
1 1 1 1 0 1 1 
0 0 0 0 0 0 0 
Solution: 40 2107
Classic Expectation: 25.428571
Initial Expecation: 15.644531
Gbest: 30.000000
Expectation: 20.245839
Final Parameters:
Gammas:
[ 5.849424 3.722731 5.677485 ]
Betas:
[ 0.662482 0.129577 2.919278 ]
Aggregate results:
[ 36 30 28 26 32 24 34 22 20 18 16 14 12 38 40 0 ]
[ 0.005918 0.090771 0.146713 0.163382 0.041058 0.135174 0.013415 0.091168 0.059776 0.023444 0.010537 0.002425 0.000742 0.002019 0.000706 0.212752 ]
5
Num Evals 4200
GenUC: 2.818166e-03
GenUB: 1.253734e-03
Optimisation 8.987793e+01
Total Time: 8.988200e+01
