Clock Speed: 3.688290
Num threads: 4
Trotterisation: 1
Num Qubits: 5
Space Dimension: 32
Run-Type: 0
Num_samples: 6399
Optimiser Method: 20
1 Isomorphic
Graph 1:
0 0 0 0 
0 0 1 1 
1 1 0 0 
1 1 1 1 
Graph 2:
0 0 0 0 
0 0 1 1 
1 1 0 0 
1 1 1 1 
Solution: 16 0
Classic Expectation: 8.666667
Initial Expecation: 6.500000
Gbest: 16.000000
Expectation: 9.320541
Final Parameters:
Gammas:
[ 2.863676 ]
Betas:
[ 2.553435 ]
Aggregate results:
[ 16 12 10 8 6 4 0 ]
[ 0.146155 0.144818 0.167364 0.328724 0.137131 0.029505 0.046303 ]
5
Num Evals 800
GenUC: 8.507399e-06
GenUB: 2.226111e-05
Optimisation 7.317417e-02
Total Time: 7.323179e-02
2 Flipped
Graph 1:
0 0 0 0 
0 0 1 1 
1 1 0 0 
1 1 1 1 
Graph 2:
0 0 0 0 
1 1 0 0 
0 0 1 1 
1 1 1 1 
Solution: 12 2
Classic Expectation: 7.333333
Initial Expecation: 5.500000
Gbest: 12.000000
Expectation: 7.342435
Final Parameters:
Gammas:
[ 0.337644 ]
Betas:
[ 0.469126 ]
Aggregate results:
[ 8 12 10 6 4 0 ]
[ 0.230126 0.081412 0.300413 0.206322 0.070604 0.111122 ]
5
Num Evals 800
GenUC: 9.009149e-06
GenUB: 1.586857e-06
Optimisation 7.274424e-02
Total Time: 7.275656e-02
3 Add 4
Graph 1:
0 0 0 0 
0 0 1 1 
1 1 0 0 
1 1 1 1 
Graph 2:
1 0 1 0 
0 1 1 1 
1 1 1 0 
1 1 1 1 
Solution: 12 0
Classic Expectation: 7.333333
Initial Expecation: 5.500000
Gbest: 12.000000
Expectation: 7.699322
Final Parameters:
Gammas:
[ 2.861474 ]
Betas:
[ 2.625997 ]
Aggregate results:
[ 12 10 8 6 4 0 ]
[ 0.104209 0.123985 0.514535 0.160567 0.032320 0.064384 ]
5
Num Evals 800
GenUC: 8.972187e-06
GenUB: 1.455948e-06
Optimisation 9.044297e-02
Total Time: 9.045510e-02
4 Rem 4
Graph 1:
0 0 0 0 
0 0 1 1 
1 1 0 0 
1 1 1 1 
Graph 2:
0 0 0 0 
0 0 1 0 
1 0 0 0 
1 1 1 0 
Solution: 13 0
Classic Expectation: 8.833333
Initial Expecation: 6.625000
Gbest: 13.000000
Expectation: 8.672801
Final Parameters:
Gammas:
[ 6.044133 ]
Betas:
[ 2.521709 ]
Aggregate results:
[ 13 11 9 7 5 0 ]
[ 0.071438 0.224475 0.358437 0.230355 0.087295 0.028001 ]
5
Num Evals 800
GenUC: 9.051990e-06
GenUB: 1.137261e-06
Optimisation 6.599664e-02
Total Time: 6.600850e-02
5 Add/Rem 4
Graph 1:
0 0 0 0 
0 0 1 1 
1 1 0 0 
1 1 1 1 
Graph 2:
0 0 1 0 
0 1 1 0 
0 0 1 1 
1 1 0 1 
Solution: 10 1
Classic Expectation: 7.333333
Initial Expecation: 5.500000
Gbest: 10.000000
Expectation: 7.447932
Final Parameters:
Gammas:
[ 0.243198 ]
Betas:
[ 0.529674 ]
Aggregate results:
[ 8 10 6 4 0 ]
[ 0.374929 0.274974 0.250540 0.048879 0.050678 ]
5
Num Evals 800
GenUC: 8.972187e-06
GenUB: 1.198321e-06
Optimisation 6.064031e-02
Total Time: 6.065224e-02
