Clock Speed: 3.688882
Num threads: 4
Trotterisation: 1
Graph Size: 5
Num Qubits: 7
Space Dimension: 128
Run-Type: 0
Num_samples: 10
1 Isomorphic
Graph 1:
1 1 1 0 0 
0 0 1 1 1 
0 1 0 1 1 
0 1 0 0 0 
0 1 0 1 1 
Graph 2:
1 1 1 0 0 
0 0 1 1 1 
0 1 0 1 1 
0 1 0 0 0 
0 1 0 1 1 
Solution: 0 0
Gbest: -4.000000
Expectation: -12.476061
Final Parameters:
Gammas:
[ 3.734562 ]
Betas:
[ 2.594749 1.187987 ]
Aggregate results:
[ -1 13 3 9 15 7 19 5 11 17 24 ]
[ 0.008427 0.176889 0.024320 0.225041 0.090599 0.177381 0.004187 0.010323 0.127901 0.110070 0.044862 ]
3
Num Evals 125
GenUC: 1.480870e-04
GenUB: 3.026857e-05
Optimisation 2.746638e-02
Total Time: 2.790575e-02
2 Flipped
Graph 1:
1 1 1 0 0 
0 0 1 1 1 
0 1 0 1 1 
0 1 0 0 0 
0 1 0 1 1 
Graph 2:
0 0 1 1 1 
1 1 1 0 0 
1 1 0 1 0 
0 0 0 1 0 
1 1 0 1 0 
Solution: -6 1
Gbest: -10.000000
Expectation: -12.400375
Final Parameters:
Gammas:
[ 3.448398 ]
Betas:
[ 2.182669 1.762179 ]
Aggregate results:
[ 13 5 11 15 7 17 9 24 ]
[ 0.157100 0.016822 0.301256 0.100380 0.063809 0.008675 0.305779 0.046179 ]
3
Num Evals 239
GenUC: 2.110150e-05
GenUB: 1.817557e-05
Optimisation 2.755959e-02
Total Time: 2.784696e-02
3 Add 5
Graph 1:
1 1 1 0 0 
0 0 1 1 1 
0 1 0 1 1 
0 1 0 0 0 
0 1 0 1 1 
Graph 2:
1 1 1 0 0 
0 0 1 1 1 
1 1 1 1 1 
0 1 0 0 1 
0 1 0 1 1 
Solution: -3 0
Gbest: -7.000000
Expectation: -13.093750
Final Parameters:
Gammas:
[ 3.141593 ]
Betas:
[ 2.356194 1.570796 ]
Aggregate results:
[ 2 14 12 6 8 16 18 10 4 20 24 ]
[ 0.007812 0.195312 0.226562 0.046875 0.148437 0.062500 0.015625 0.218750 0.007813 0.007812 0.062500 ]
3
Num Evals 243
GenUC: 2.207805e-05
GenUB: 1.689570e-05
Optimisation 9.127395e-04
Total Time: 1.193748e-03
4 Rem 5
Graph 1:
1 1 1 0 0 
0 0 1 1 1 
0 1 0 1 1 
0 1 0 0 0 
0 1 0 1 1 
Graph 2:
1 1 0 0 0 
0 0 1 1 0 
0 1 0 1 1 
0 0 0 0 0 
0 0 0 1 0 
Solution: -5 0
Gbest: -9.000000
Expectation: -13.281250
Final Parameters:
Gammas:
[ 3.141593 ]
Betas:
[ 2.356194 1.570796 ]
Aggregate results:
[ 4 12 14 8 16 18 10 6 24 ]
[ 0.015625 0.273437 0.195312 0.117187 0.078125 0.015625 0.195312 0.046875 0.062500 ]
3
Num Evals 247
GenUC: 2.159510e-05
GenUB: 1.680356e-05
Optimisation 1.045136e-03
Total Time: 1.321577e-03
5 Add/Rem 5
Graph 1:
1 1 1 0 0 
0 0 1 1 1 
0 1 0 1 1 
0 1 0 0 0 
0 1 0 1 1 
Graph 2:
0 0 1 0 0 
1 0 1 0 1 
0 1 0 0 1 
0 1 1 0 1 
1 1 0 1 1 
Solution: -6 18
Gbest: -6.000000
Expectation: -12.130353
Final Parameters:
Gammas:
[ 3.418476 ]
Betas:
[ 2.354078 1.741292 ]
Aggregate results:
[ 7 11 13 9 15 5 17 24 ]
[ 0.090747 0.227037 0.173595 0.340661 0.054685 0.041325 0.011238 0.060712 ]
3
Num Evals 372
GenUC: 2.147589e-05
GenUB: 1.715153e-05
Optimisation 3.056940e-02
Total Time: 3.088111e-02
