Clock Speed: 3.688342
Num threads: 4
Trotterisation: 3
Graph Size: 4
Num Qubits: 5
Space Dimension: 32
Run-Type: 0
Num_samples: 10
1 Isomorphic
Graph 1:
1 1 0 0 
0 1 0 1 
0 1 1 0 
1 0 1 0 
Graph 2:
1 1 0 0 
0 1 0 1 
0 1 1 0 
1 0 1 0 
Solution: 0 0
Gbest: 0.000000
Expectation: -3.720002
Final Parameters:
Gammas:
[ 3.315677 3.427685 4.005612 ]
Betas:
[ 2.768675 2.623818 1.323087 1.455220 ]
Aggregate results:
[ -1 7 9 5 11 15 ]
[ 0.539413 0.117598 0.036180 0.245763 0.008472 0.052573 ]
5
Num Evals 400
GenUC: 1.124411e-04
GenUB: 1.179957e-05
Optimisation 1.216828e-01
Total Time: 1.221336e-01
2 Flipped
Graph 1:
1 1 0 0 
0 1 0 1 
0 1 1 0 
1 0 1 0 
Graph 2:
0 0 1 1 
1 0 1 0 
0 1 1 0 
0 1 0 1 
Solution: -2 21
Gbest: -4.000000
Expectation: -8.392039
Final Parameters:
Gammas:
[ 5.032499 3.103791 2.957917 ]
Betas:
[ 2.240894 2.209931 1.351691 1.415824 ]
Aggregate results:
[ 11 7 9 5 3 1 15 ]
[ 0.016873 0.290516 0.142800 0.062067 0.162781 0.127535 0.197428 ]
5
Num Evals 800
GenUC: 8.837786e-06
GenUB: 8.207513e-06
Optimisation 1.279685e-01
Total Time: 1.282651e-01
3 Add 4
Graph 1:
1 1 0 0 
0 1 0 1 
0 1 1 0 
1 0 1 0 
Graph 2:
1 1 1 1 
0 1 0 1 
0 1 1 0 
1 1 1 0 
Solution: -3 0
Gbest: -3.000000
Expectation: -7.079182
Final Parameters:
Gammas:
[ 4.937680 3.031902 2.962974 ]
Betas:
[ 2.615907 2.326824 1.170440 2.360055 ]
Aggregate results:
[ 2 6 10 8 15 ]
[ 0.190973 0.540345 0.048769 0.190174 0.029739 ]
5
Num Evals 1200
GenUC: 1.086295e-05
GenUB: 8.657051e-06
Optimisation 1.253463e-01
Total Time: 1.256798e-01
4 Rem 4
Graph 1:
1 1 0 0 
0 1 0 1 
0 1 1 0 
1 0 1 0 
Graph 2:
1 0 0 0 
0 1 0 1 
0 0 0 0 
1 0 1 0 
Solution: -3 0
Gbest: -3.000000
Expectation: -7.531543
Final Parameters:
Gammas:
[ 4.555364 3.183179 3.345430 ]
Betas:
[ 2.366191 1.671602 1.587201 2.539891 ]
Aggregate results:
[ 2 6 8 4 10 15 ]
[ 0.199818 0.477972 0.130209 0.028082 0.069741 0.094177 ]
5
Num Evals 1600
GenUC: 9.033189e-06
GenUB: 7.823110e-06
Optimisation 1.258685e-01
Total Time: 1.261918e-01
5 Add/Rem 4
Graph 1:
1 1 0 0 
0 1 0 1 
0 1 1 0 
1 0 1 0 
Graph 2:
0 0 1 0 
1 1 0 1 
0 1 0 0 
1 1 0 1 
Solution: -4 9
Gbest: -4.000000
Expectation: -9.251057
Final Parameters:
Gammas:
[ 4.835725 3.285182 3.085837 ]
Betas:
[ 1.517665 1.748800 1.832589 1.700553 ]
Aggregate results:
[ 7 9 3 5 11 15 ]
[ 0.163225 0.326910 0.149943 0.128172 0.100163 0.131588 ]
5
Num Evals 2000
GenUC: 9.359501e-06
GenUB: 8.377654e-06
Optimisation 1.058018e-01
Total Time: 1.060973e-01
