Clock Speed: 3.498562
Num threads: 16
Trotterisation: 4
Num Qubits: 13
Space Dimension: 8192
Run-Type: 0
Num_samples: 49
Optimiser Method: 33
1 Isomorphic
Graph 1:
1 0 0 0 1 0 0 
1 1 1 1 1 1 0 
0 1 0 1 0 1 1 
0 1 0 1 1 0 0 
0 1 0 0 0 1 0 
1 0 1 0 1 1 0 
1 0 0 1 1 1 1 
Graph 2:
1 0 0 0 1 0 0 
1 1 1 1 1 1 0 
0 1 0 1 0 1 1 
0 1 0 1 1 0 0 
0 1 0 0 0 1 0 
1 0 1 0 1 1 0 
1 0 0 1 1 1 1 
Solution: 49 0
Classic Expectation: 25.142857
Initial Expecation: 15.468750
Gbest: 31.000000
Expectation: 15.468750
Final Parameters:
Gammas:
[ 3.141593 3.141593 3.141593 3.141593 ]
Betas:
[ 1.570796 1.570796 1.570796 1.570796 ]
Aggregate results:
[ 49 39 35 27 29 37 31 33 41 23 25 21 19 43 17 15 0 ]
[ 0.000122 0.001099 0.004517 0.117676 0.069824 0.001953 0.032227 0.010376 0.000488 0.116821 0.139526 0.085693 0.026978 0.000244 0.006470 0.001221 0.384766 ]
4
Num Evals 3
GenUC: 2.342913e-03
GenUB: 1.157776e-03
Optimisation 1.129844e-01
Total Time: 1.164951e-01
2 Flipped
Graph 1:
1 0 0 0 1 0 0 
1 1 1 1 1 1 0 
0 1 0 1 0 1 1 
0 1 0 1 1 0 0 
0 1 0 0 0 1 0 
1 0 1 0 1 1 0 
1 0 0 1 1 1 1 
Graph 2:
0 0 1 0 0 0 1 
0 1 1 1 1 1 1 
1 1 0 1 0 1 0 
0 0 1 1 0 1 0 
0 1 0 0 0 1 0 
0 1 1 0 1 0 1 
1 1 1 1 0 0 1 
Solution: 35 84
Classic Expectation: 24.285714
Initial Expecation: 14.941406
Gbest: 31.000000
Expectation: 14.941406
Final Parameters:
Gammas:
[ 3.141593 3.141593 3.141593 3.141593 ]
Betas:
[ 1.570796 1.570796 1.570796 1.570796 ]
Aggregate results:
[ 29 27 23 25 19 21 33 31 35 17 15 13 0 ]
[ 0.057983 0.106934 0.133179 0.137817 0.043213 0.090820 0.006226 0.018066 0.001221 0.015625 0.004028 0.000122 0.384766 ]
4
Num Evals 3
GenUC: 2.857394e-03
GenUB: 1.270133e-03
Optimisation 1.083698e-01
Total Time: 1.124997e-01
3 Add 7
Graph 1:
1 0 0 0 1 0 0 
1 1 1 1 1 1 0 
0 1 0 1 0 1 1 
0 1 0 1 1 0 0 
0 1 0 0 0 1 0 
1 0 1 0 1 1 0 
1 0 0 1 1 1 1 
Graph 2:
1 0 0 0 1 1 0 
1 1 1 1 1 1 0 
0 1 0 1 1 1 1 
1 1 0 1 1 0 0 
1 1 1 0 0 1 0 
1 1 1 0 1 1 0 
1 1 0 1 1 1 1 
Solution: 42 0
Classic Expectation: 25.142857
Initial Expecation: 15.468750
Gbest: 32.000000
Expectation: 18.359415
Final Parameters:
Gammas:
[ 2.856526 3.141593 2.856526 3.141593 ]
Betas:
[ 1.479600 1.570796 1.479600 1.570796 ]
Aggregate results:
[ 42 32 38 28 26 34 30 36 24 22 20 18 16 14 0 ]
[ 0.000106 0.058699 0.001582 0.198299 0.126039 0.017335 0.145766 0.004607 0.049844 0.033861 0.018749 0.006157 0.001826 0.000188 0.336942 ]
3
Num Evals 36
GenUC: 2.861611e-03
GenUB: 1.265078e-03
Optimisation 1.289088e+00
Total Time: 1.293217e+00
4 Rem 7
Graph 1:
1 0 0 0 1 0 0 
1 1 1 1 1 1 0 
0 1 0 1 0 1 1 
0 1 0 1 1 0 0 
0 1 0 0 0 1 0 
1 0 1 0 1 1 0 
1 0 0 1 1 1 1 
Graph 2:
1 0 0 0 1 0 0 
1 1 1 1 1 0 0 
0 1 0 0 0 1 0 
0 1 0 1 1 0 0 
0 1 0 0 0 1 0 
1 0 1 0 1 0 0 
1 0 0 1 0 1 0 
Solution: 43 0
Classic Expectation: 24.285714
Initial Expecation: 14.941406
Gbest: 31.000000
Expectation: 14.941406
Final Parameters:
Gammas:
[ 3.141593 3.141593 3.141593 3.141593 ]
Betas:
[ 1.570796 1.570796 1.570796 1.570796 ]
Aggregate results:
[ 43 35 31 25 27 29 33 23 21 19 39 37 17 15 0 ]
[ 0.000122 0.002441 0.020020 0.139404 0.096924 0.052368 0.008301 0.136597 0.096191 0.046021 0.000244 0.000610 0.013672 0.002319 0.384766 ]
3
Num Evals 35
GenUC: 2.871316e-03
GenUB: 1.215263e-03
Optimisation 1.255695e+00
Total Time: 1.259784e+00
5 Add/Rem 7
Graph 1:
1 0 0 0 1 0 0 
1 1 1 1 1 1 0 
0 1 0 1 0 1 1 
0 1 0 1 1 0 0 
0 1 0 0 0 1 0 
1 0 1 0 1 1 0 
1 0 0 1 1 1 1 
Graph 2:
0 0 0 0 1 0 0 
1 1 0 1 1 1 0 
0 1 0 1 1 1 1 
0 1 0 0 0 0 0 
0 1 1 0 1 1 0 
0 0 1 1 0 1 0 
1 1 1 1 0 1 1 
Solution: 38 182
Classic Expectation: 24.714286
Initial Expecation: 15.205078
Gbest: 34.000000
Expectation: 16.125042
Final Parameters:
Gammas:
[ 3.254496 3.141593 3.254496 3.141593 ]
Betas:
[ 1.599867 1.570796 1.599867 1.570796 ]
Aggregate results:
[ 36 30 32 28 26 34 24 22 20 16 38 18 14 0 ]
[ 0.002899 0.073795 0.037487 0.128450 0.143287 0.013001 0.115185 0.060850 0.025773 0.002071 0.000821 0.008618 0.000365 0.387398 ]
3
Num Evals 22
GenUC: 2.863583e-03
GenUB: 1.248525e-03
Optimisation 8.013190e-01
Total Time: 8.054332e-01
