Clock Speed: 3.498915
Num threads: 16
Trotterisation: 4
Num Qubits: 13
Space Dimension: 8192
Run-Type: 0
Num_samples: 49
Optimiser Method: 33
1 Isomorphic
Graph 1:
0 1 0 0 0 0 0 
0 0 1 1 1 0 0 
1 1 0 1 1 1 1 
0 1 1 1 0 1 1 
0 0 1 1 1 1 1 
0 0 0 0 0 0 0 
0 0 0 1 0 1 0 
Graph 2:
0 1 0 0 0 0 0 
0 0 1 1 1 0 0 
1 1 0 1 1 1 1 
0 1 1 1 0 1 1 
0 0 1 1 1 1 1 
0 0 0 0 0 0 0 
0 0 0 1 0 1 0 
Solution: 49 0
Classic Expectation: 25.190476
Initial Expecation: 15.498047
Gbest: 35.000000
Expectation: 15.498047
Final Parameters:
Gammas:
[ 3.141593 3.141593 3.141593 3.141593 ]
Betas:
[ 1.570796 1.570796 1.570796 1.570796 ]
Aggregate results:
[ 49 45 33 35 39 43 41 37 29 27 25 31 23 21 19 17 15 13 9 0 ]
[ 0.000122 0.000122 0.022217 0.010864 0.001343 0.000122 0.000610 0.002319 0.069824 0.106323 0.108276 0.047729 0.097656 0.073730 0.048462 0.016602 0.004883 0.003906 0.000122 0.384766 ]
4
Num Evals 3
GenUC: 2.299191e-03
GenUB: 1.285035e-03
Optimisation 1.483508e-01
Total Time: 1.519440e-01
2 Flipped
Graph 1:
0 1 0 0 0 0 0 
0 0 1 1 1 0 0 
1 1 0 1 1 1 1 
0 1 1 1 0 1 1 
0 0 1 1 1 1 1 
0 0 0 0 0 0 0 
0 0 0 1 0 1 0 
Graph 2:
0 0 0 0 0 1 0 
0 0 1 1 1 0 0 
1 1 1 1 0 1 1 
1 1 0 1 1 1 0 
1 1 1 1 1 0 0 
0 0 0 0 0 0 0 
0 1 0 1 0 0 0 
Solution: 41 4473
Classic Expectation: 24.809524
Initial Expecation: 15.263672
Gbest: 31.000000
Expectation: 15.263672
Final Parameters:
Gammas:
[ 3.141593 3.141593 3.141593 3.141593 ]
Betas:
[ 1.570796 1.570796 1.570796 1.570796 ]
Aggregate results:
[ 35 33 27 29 31 25 21 23 19 37 17 13 15 11 39 41 0 ]
[ 0.007080 0.019531 0.101074 0.069336 0.041992 0.107422 0.077759 0.107422 0.046753 0.001465 0.020508 0.002319 0.010620 0.000610 0.000854 0.000488 0.384766 ]
4
Num Evals 3
GenUC: 5.353468e-03
GenUB: 1.475845e-03
Optimisation 1.037952e-01
Total Time: 1.106277e-01
3 Add 7
Graph 1:
0 1 0 0 0 0 0 
0 0 1 1 1 0 0 
1 1 0 1 1 1 1 
0 1 1 1 0 1 1 
0 0 1 1 1 1 1 
0 0 0 0 0 0 0 
0 0 0 1 0 1 0 
Graph 2:
0 1 0 1 0 0 0 
1 0 1 1 1 0 0 
1 1 0 1 1 1 1 
1 1 1 1 0 1 1 
0 0 1 1 1 1 1 
0 1 1 0 0 1 0 
0 0 0 1 0 1 1 
Solution: 42 0
Classic Expectation: 24.095238
Initial Expecation: 14.824219
Gbest: 32.000000
Expectation: 15.669413
Final Parameters:
Gammas:
[ 1.603018 3.141593 1.603018 3.141593 ]
Betas:
[ 0.849534 1.570796 0.849534 1.570796 ]
Aggregate results:
[ 42 38 30 32 34 36 28 26 24 22 20 18 16 14 12 8 10 0 ]
[ 0.000682 0.000308 0.043246 0.015752 0.002979 0.000984 0.081668 0.122146 0.129779 0.129329 0.067788 0.034058 0.015750 0.002639 0.000604 0.000034 0.000321 0.351933 ]
3
Num Evals 25
GenUC: 5.360645e-03
GenUB: 1.510230e-03
Optimisation 7.715891e-01
Total Time: 7.784630e-01
4 Rem 7
Graph 1:
0 1 0 0 0 0 0 
0 0 1 1 1 0 0 
1 1 0 1 1 1 1 
0 1 1 1 0 1 1 
0 0 1 1 1 1 1 
0 0 0 0 0 0 0 
0 0 0 1 0 1 0 
Graph 2:
0 1 0 0 0 0 0 
0 0 1 1 1 0 0 
1 1 0 1 1 0 1 
0 0 1 1 0 0 0 
0 0 1 0 1 0 1 
0 0 0 0 0 0 0 
0 0 0 1 0 0 0 
Solution: 42 0
Classic Expectation: 25.523810
Initial Expecation: 15.703125
Gbest: 32.000000
Expectation: 17.109716
Final Parameters:
Gammas:
[ 3.134776 3.052965 3.054198 3.102237 ]
Betas:
[ 1.541731 1.575238 1.545195 1.525219 ]
Aggregate results:
[ 42 40 34 36 32 28 30 26 22 24 20 18 16 14 38 0 ]
[ 0.000279 0.001186 0.027242 0.005320 0.055100 0.119921 0.092118 0.125183 0.070419 0.099685 0.031769 0.008671 0.001149 0.000041 0.001089 0.360827 ]
3
Num Evals 20
GenUC: 5.364479e-03
GenUB: 1.422334e-03
Optimisation 6.768371e-01
Total Time: 6.836269e-01
5 Add/Rem 7
Graph 1:
0 1 0 0 0 0 0 
0 0 1 1 1 0 0 
1 1 0 1 1 1 1 
0 1 1 1 0 1 1 
0 0 1 1 1 1 1 
0 0 0 0 0 0 0 
0 0 0 1 0 1 0 
Graph 2:
0 1 1 0 1 0 1 
0 0 1 1 1 1 0 
1 1 0 1 1 1 0 
0 0 1 0 0 1 0 
0 0 0 1 1 1 1 
0 0 0 0 1 0 1 
0 0 0 0 1 0 0 
Solution: 37 1
Classic Expectation: 25.571429
Initial Expecation: 15.732422
Gbest: 31.000000
Expectation: 15.732422
Final Parameters:
Gammas:
[ 3.141593 3.141593 3.141593 3.141593 ]
Betas:
[ 1.570796 1.570796 1.570796 1.570796 ]
Aggregate results:
[ 35 37 31 33 29 27 25 21 23 19 17 15 0 ]
[ 0.004395 0.001343 0.045410 0.014160 0.082031 0.127075 0.136353 0.062134 0.111084 0.023804 0.005737 0.001709 0.384766 ]
4
Num Evals 34
GenUC: 5.365284e-03
GenUB: 1.508550e-03
Optimisation 1.162518e+00
Total Time: 1.169395e+00
