Clock Speed: 3.498562
Num threads: 16
Trotterisation: 4
Num Qubits: 13
Space Dimension: 8192
Run-Type: 0
Num_samples: 49
Optimiser Method: 33
1 Isomorphic
Graph 1:
0 0 1 0 1 0 1 
0 0 0 0 0 0 1 
1 0 0 1 0 1 1 
0 0 0 1 1 0 1 
1 0 0 1 1 0 0 
1 1 0 1 0 0 1 
0 1 1 0 0 1 1 
Graph 2:
0 0 1 0 1 0 1 
0 0 0 0 0 0 1 
1 0 0 1 0 1 1 
0 0 0 1 1 0 1 
1 0 0 1 1 0 0 
1 1 0 1 0 0 1 
0 1 1 0 0 1 1 
Solution: 49 0
Classic Expectation: 24.761905
Initial Expecation: 15.234375
Gbest: 49.000000
Expectation: 15.234375
Final Parameters:
Gammas:
[ 3.141593 3.141593 3.141593 3.141593 ]
Betas:
[ 1.570796 1.570796 1.570796 1.570796 ]
Aggregate results:
[ 49 35 27 33 39 29 31 25 23 21 43 19 17 41 37 15 45 13 0 ]
[ 0.000122 0.003784 0.091309 0.012329 0.000854 0.073486 0.032227 0.128906 0.116699 0.090698 0.000122 0.046631 0.013916 0.000488 0.001953 0.001343 0.000122 0.000244 0.384766 ]
4
Num Evals 3
GenUC: 2.297336e-03
GenUB: 1.238520e-03
Optimisation 1.078142e-01
Total Time: 1.113600e-01
2 Flipped
Graph 1:
0 0 1 0 1 0 1 
0 0 0 0 0 0 1 
1 0 0 1 0 1 1 
0 0 0 1 1 0 1 
1 0 0 1 1 0 0 
1 1 0 1 0 0 1 
0 1 1 0 0 1 1 
Graph 2:
1 0 1 0 1 0 0 
1 0 0 0 0 0 0 
1 1 0 1 0 0 1 
1 0 1 1 0 0 0 
0 0 1 1 0 0 1 
1 0 0 1 0 1 1 
1 1 0 0 1 1 0 
Solution: 43 4529
Classic Expectation: 24.761905
Initial Expecation: 15.234375
Gbest: 31.000000
Expectation: 15.234375
Final Parameters:
Gammas:
[ 3.141593 3.141593 3.141593 3.141593 ]
Betas:
[ 1.570796 1.570796 1.570796 1.570796 ]
Aggregate results:
[ 29 33 19 23 27 21 25 31 17 35 15 13 37 39 43 0 ]
[ 0.068726 0.009155 0.038818 0.124634 0.110229 0.079956 0.134888 0.029663 0.011719 0.002930 0.002930 0.000732 0.000488 0.000244 0.000122 0.384766 ]
4
Num Evals 3
GenUC: 2.868556e-03
GenUB: 1.248192e-03
Optimisation 1.082342e-01
Total Time: 1.123532e-01
3 Add 7
Graph 1:
0 0 1 0 1 0 1 
0 0 0 0 0 0 1 
1 0 0 1 0 1 1 
0 0 0 1 1 0 1 
1 0 0 1 1 0 0 
1 1 0 1 0 0 1 
0 1 1 0 0 1 1 
Graph 2:
0 0 1 0 1 0 1 
0 0 0 1 0 0 1 
1 1 0 1 1 1 1 
1 0 0 1 1 0 1 
1 0 1 1 1 0 0 
1 1 0 1 1 1 1 
0 1 1 0 0 1 1 
Solution: 42 0
Classic Expectation: 24.047619
Initial Expecation: 14.794922
Gbest: 34.000000
Expectation: 16.478486
Final Parameters:
Gammas:
[ 3.407740 3.141593 3.407740 3.141593 ]
Betas:
[ 1.639821 1.570796 1.639821 1.570796 ]
Aggregate results:
[ 42 30 32 26 38 28 24 34 22 20 18 16 36 12 14 0 ]
[ 0.000079 0.090092 0.034667 0.153346 0.000595 0.156085 0.090193 0.008742 0.038126 0.027032 0.016861 0.005746 0.000954 0.000114 0.000760 0.376607 ]
3
Num Evals 25
GenUC: 2.860643e-03
GenUB: 1.247136e-03
Optimisation 9.209537e-01
Total Time: 9.250637e-01
4 Rem 7
Graph 1:
0 0 1 0 1 0 1 
0 0 0 0 0 0 1 
1 0 0 1 0 1 1 
0 0 0 1 1 0 1 
1 0 0 1 1 0 0 
1 1 0 1 0 0 1 
0 1 1 0 0 1 1 
Graph 2:
0 0 1 0 1 0 0 
0 0 0 0 0 0 1 
1 0 0 1 0 0 1 
0 0 0 1 1 0 0 
1 0 0 0 0 0 0 
1 1 0 1 0 0 0 
0 1 1 0 0 1 0 
Solution: 42 0
Classic Expectation: 25.523810
Initial Expecation: 15.703125
Gbest: 34.000000
Expectation: 18.817187
Final Parameters:
Gammas:
[ 3.087092 2.588139 3.088479 2.587725 ]
Betas:
[ 1.557348 1.427112 1.557307 1.426967 ]
Aggregate results:
[ 42 34 32 24 30 28 26 22 20 36 38 18 14 16 0 ]
[ 0.000024 0.013597 0.042974 0.137766 0.093172 0.128045 0.158741 0.086653 0.043204 0.003355 0.000581 0.011125 0.000537 0.002719 0.277505 ]
3
Num Evals 26
GenUC: 2.856519e-03
GenUB: 1.140200e-03
Optimisation 9.030246e-01
Total Time: 9.070234e-01
5 Add/Rem 7
Graph 1:
0 0 1 0 1 0 1 
0 0 0 0 0 0 1 
1 0 0 1 0 1 1 
0 0 0 1 1 0 1 
1 0 0 1 1 0 0 
1 1 0 1 0 0 1 
0 1 1 0 0 1 1 
Graph 2:
1 1 1 0 1 0 1 
1 0 0 0 1 0 1 
1 1 0 1 0 0 1 
1 0 0 1 1 0 1 
0 0 0 1 0 0 0 
1 0 0 0 0 0 1 
0 1 1 1 0 0 0 
Solution: 39 1313
Classic Expectation: 24.809524
Initial Expecation: 15.263672
Gbest: 35.000000
Expectation: 15.263672
Final Parameters:
Gammas:
[ 3.141593 3.141593 3.141593 3.141593 ]
Betas:
[ 1.570796 1.570796 1.570796 1.570796 ]
Aggregate results:
[ 35 27 29 21 31 23 25 17 19 15 33 37 39 13 0 ]
[ 0.003296 0.112427 0.062622 0.083496 0.032837 0.120361 0.134399 0.011475 0.038818 0.002686 0.011841 0.000732 0.000122 0.000122 0.384766 ]
4
Num Evals 36
GenUC: 2.861236e-03
GenUB: 1.235720e-03
Optimisation 1.291164e+00
Total Time: 1.295263e+00
