Clock Speed: 3.689360
Num threads: 4
Trotterisation: 4
Num Qubits: 10
Space Dimension: 1024
Run-Type: 0
Num_samples: 6
Optimiser Method: 20
1 Isomorphic
Graph 1:
0 0 0 1 1 1 
0 0 0 1 1 1 
0 0 0 1 0 1 
1 1 1 0 1 1 
1 1 0 1 0 0 
1 1 1 1 0 0 
Graph 2:
0 0 0 1 1 1 
0 0 0 1 1 1 
0 0 0 1 0 1 
1 1 1 0 1 1 
1 1 0 1 0 0 
1 1 1 1 0 0 
Solution: 36 0
Classic Expectation: 22.666667
Initial Expecation: 15.937500
Gbest: 28.000000
Expectation: 18.068998
Final Parameters:
Gammas:
[ 5.201276 2.109516 4.430463 5.014929 ]
Betas:
[ 2.477757 1.633987 2.814418 2.118533 ]
Aggregate results:
[ 36 32 28 24 20 16 0 ]
[ 0.001544 0.016009 0.135091 0.303633 0.262589 0.073726 0.207408 ]
5
Num Evals 4800
GenUC: 2.602560e-04
GenUB: 9.287312e-05
Optimisation 1.281320e+01
Total Time: 1.281358e+01
2 Flipped
Graph 1:
0 0 0 1 1 1 
0 0 0 1 1 1 
0 0 0 1 0 1 
1 1 1 0 1 1 
1 1 0 1 0 0 
1 1 1 1 0 0 
Graph 2:
1 1 1 0 0 0 
1 1 1 0 0 0 
1 0 1 0 0 0 
1 1 0 1 1 1 
0 0 1 0 1 1 
0 0 1 1 1 1 
Solution: 20 62
Classic Expectation: 14.666667
Initial Expecation: 10.312500
Gbest: 20.000000
Expectation: 16.386121
Final Parameters:
Gammas:
[ 3.072332 0.110272 6.025241 5.970220 ]
Betas:
[ 2.356594 0.190054 3.012914 3.088389 ]
Aggregate results:
[ 8 10 12 14 16 18 20 0 ]
[ 0.005098 0.012797 0.020158 0.081066 0.236830 0.474118 0.125857 0.044076 ]
5
Num Evals 4800
GenUC: 2.802132e-04
GenUB: 6.811501e-05
Optimisation 1.196364e+01
Total Time: 1.196399e+01
3 Add 6
Graph 1:
0 0 0 1 1 1 
0 0 0 1 1 1 
0 0 0 1 0 1 
1 1 1 0 1 1 
1 1 0 1 0 0 
1 1 1 1 0 0 
Graph 2:
0 1 1 1 1 1 
1 1 1 1 1 1 
1 1 0 1 1 1 
1 1 1 1 1 1 
1 1 1 1 0 1 
1 1 1 1 1 0 
Solution: 24 0
Classic Expectation: 24.000000
Initial Expecation: 16.875000
Gbest: 24.000000
Expectation: 23.512424
Final Parameters:
Gammas:
[ 6.282220 0.021957 3.160932 4.513117 ]
Betas:
[ 1.878492 3.102135 0.620044 0.361885 ]
Aggregate results:
[ 24 0 ]
[ 0.979684 0.020316 ]
5
Num Evals 4800
GenUC: 2.800758e-04
GenUB: 7.274922e-05
Optimisation 9.778916e+00
Total Time: 9.779271e+00
4 Rem 6
Graph 1:
0 0 0 1 1 1 
0 0 0 1 1 1 
0 0 0 1 0 1 
1 1 1 0 1 1 
1 1 0 1 0 0 
1 1 1 1 0 0 
Graph 2:
0 0 0 0 0 0 
0 0 0 0 0 0 
0 0 0 0 0 0 
0 0 0 0 1 1 
0 0 0 1 0 0 
0 0 0 1 0 0 
Solution: 20 0
Classic Expectation: 17.333333
Initial Expecation: 12.187500
Gbest: 20.000000
Expectation: 17.367631
Final Parameters:
Gammas:
[ 2.433159 0.044827 0.911434 6.161931 ]
Betas:
[ 2.310696 0.817628 2.896017 0.427658 ]
Aggregate results:
[ 20 16 12 0 ]
[ 0.682693 0.177851 0.072347 0.067109 ]
5
Num Evals 4800
GenUC: 2.800166e-04
GenUB: 6.820651e-05
Optimisation 1.114066e+01
Total Time: 1.114101e+01
5 Add/Rem 6
Graph 1:
0 0 0 1 1 1 
0 0 0 1 1 1 
0 0 0 1 0 1 
1 1 1 0 1 1 
1 1 0 1 0 0 
1 1 1 1 0 0 
Graph 2:
1 1 1 0 0 0 
1 1 0 0 1 1 
1 0 0 0 1 0 
0 0 0 1 1 1 
0 1 1 1 0 1 
0 1 0 1 1 0 
Solution: 29 152
Classic Expectation: 18.333333
Initial Expecation: 12.890625
Gbest: 25.000000
Expectation: 17.557652
Final Parameters:
Gammas:
[ 5.204236 0.981176 0.143197 2.094142 ]
Betas:
[ 0.033302 1.068032 0.318071 1.530741 ]
Aggregate results:
[ 13 17 25 21 29 9 0 ]
[ 0.094564 0.261546 0.141813 0.376534 0.012253 0.008241 0.105050 ]
5
Num Evals 4800
GenUC: 3.068598e-04
GenUB: 6.167265e-05
Optimisation 7.955899e+00
Total Time: 7.956270e+00
