Clock Speed: 3.689435
Num threads: 4
Trotterisation: 4
Num Qubits: 10
Space Dimension: 1024
Run-Type: 0
Num_samples: 6
Optimiser Method: 20
1 Isomorphic
Graph 1:
0 0 1 0 0 0 
0 0 1 0 0 1 
1 1 0 1 0 0 
0 0 1 0 1 1 
0 0 0 1 0 0 
0 1 0 1 0 0 
Graph 2:
0 0 1 0 0 0 
0 0 1 0 0 1 
1 1 0 1 0 0 
0 0 1 0 1 1 
0 0 0 1 0 0 
0 1 0 1 0 0 
Solution: 36 0
Classic Expectation: 21.600000
Initial Expecation: 15.187500
Gbest: 28.000000
Expectation: 17.916707
Final Parameters:
Gammas:
[ 2.183797 5.447080 3.759201 2.773130 ]
Betas:
[ 2.256150 0.177730 0.515647 0.814784 ]
Aggregate results:
[ 36 32 28 24 20 16 12 0 ]
[ 0.002949 0.022420 0.074729 0.285281 0.317873 0.104349 0.010572 0.181826 ]
5
Num Evals 4800
GenUC: 2.603156e-04
GenUB: 8.932679e-05
Optimisation 6.681057e+01
Total Time: 6.681095e+01
2 Flipped
Graph 1:
0 0 1 0 0 0 
0 0 1 0 0 1 
1 1 0 1 0 0 
0 0 1 0 1 1 
0 0 0 1 0 0 
0 1 0 1 0 0 
Graph 2:
0 0 0 1 0 0 
1 0 0 1 0 0 
0 0 1 0 1 1 
1 1 0 1 0 0 
0 0 1 0 0 0 
0 0 1 0 1 0 
Solution: 28 6
Classic Expectation: 20.000000
Initial Expecation: 14.062500
Gbest: 22.000000
Expectation: 16.436328
Final Parameters:
Gammas:
[ 0.363959 5.102427 1.817185 0.451950 ]
Betas:
[ 2.486470 2.879879 2.732677 1.504838 ]
Aggregate results:
[ 12 18 22 28 26 20 24 16 0 ]
[ 0.100275 0.129508 0.178575 0.012253 0.042827 0.175881 0.150692 0.023902 0.186088 ]
5
Num Evals 4800
GenUC: 2.798450e-04
GenUB: 6.752984e-05
Optimisation 1.119044e+02
Total Time: 1.119047e+02
3 Add 6
Graph 1:
0 0 1 0 0 0 
0 0 1 0 0 1 
1 1 0 1 0 0 
0 0 1 0 1 1 
0 0 0 1 0 0 
0 1 0 1 0 0 
Graph 2:
1 1 1 1 1 1 
1 0 1 1 1 1 
1 1 1 1 1 1 
1 1 1 0 1 1 
1 1 1 1 0 0 
1 1 1 1 0 0 
Solution: 18 0
Classic Expectation: 16.400000
Initial Expecation: 11.531250
Gbest: 18.000000
Expectation: 15.509299
Final Parameters:
Gammas:
[ 4.361069 4.768518 6.283185 0.783148 ]
Betas:
[ 3.059701 0.582653 0.087984 0.209388 ]
Aggregate results:
[ 18 14 0 ]
[ 0.656511 0.263721 0.079768 ]
5
Num Evals 4800
GenUC: 2.795821e-04
GenUB: 7.253146e-05
Optimisation 6.500204e+01
Total Time: 6.500240e+01
4 Rem 6
Graph 1:
0 0 1 0 0 0 
0 0 1 0 0 1 
1 1 0 1 0 0 
0 0 1 0 1 1 
0 0 0 1 0 0 
0 1 0 1 0 0 
Graph 2:
0 0 0 0 0 0 
0 0 0 0 0 0 
0 0 0 0 0 0 
0 0 0 0 0 1 
0 0 0 0 0 0 
0 0 0 1 0 0 
Solution: 26 0
Classic Expectation: 23.600000
Initial Expecation: 16.593750
Gbest: 26.000000
Expectation: 21.163489
Final Parameters:
Gammas:
[ 0.007216 3.618409 3.936008 0.912838 ]
Betas:
[ 3.018536 0.576218 0.406229 1.709548 ]
Aggregate results:
[ 26 22 0 ]
[ 0.353768 0.543888 0.102345 ]
5
Num Evals 4800
GenUC: 2.795909e-04
GenUB: 6.633151e-05
Optimisation 8.235865e+01
Total Time: 8.235900e+01
5 Add/Rem 6
Graph 1:
0 0 1 0 0 0 
0 0 1 0 0 1 
1 1 0 1 0 0 
0 0 1 0 1 1 
0 0 0 1 0 0 
0 1 0 1 0 0 
Graph 2:
0 1 0 1 1 1 
1 0 0 0 1 0 
0 0 1 0 1 0 
1 0 0 0 0 1 
1 1 1 0 0 0 
1 0 0 1 0 0 
Solution: 29 156
Classic Expectation: 20.200000
Initial Expecation: 14.203125
Gbest: 25.000000
Expectation: 17.688820
Final Parameters:
Gammas:
[ 2.526927 6.119287 3.654841 2.570619 ]
Betas:
[ 0.193131 2.878320 0.550289 3.026210 ]
Aggregate results:
[ 13 17 21 25 9 29 0 ]
[ 0.063426 0.155107 0.373950 0.209097 0.011979 0.035837 0.150604 ]
5
Num Evals 4800
GenUC: 2.794430e-04
GenUB: 6.422184e-05
Optimisation 8.780982e+01
Total Time: 8.781016e+01
