Clock Speed: 3.689428
Num threads: 4
Trotterisation: 4
Num Qubits: 10
Space Dimension: 1024
Run-Type: 0
Num_samples: 6
Optimiser Method: 20
1 Isomorphic
Graph 1:
0 1 1 1 1 1 
1 0 1 1 0 1 
1 1 0 0 1 0 
1 1 0 0 0 1 
1 0 1 0 0 1 
1 1 0 1 1 0 
Graph 2:
0 1 1 1 1 1 
1 0 1 1 0 1 
1 1 0 0 1 0 
1 1 0 0 0 1 
1 0 1 0 0 1 
1 1 0 1 1 0 
Solution: 36 0
Classic Expectation: 24.266667
Initial Expecation: 17.062500
Gbest: 32.000000
Expectation: 22.067364
Final Parameters:
Gammas:
[ 4.397413 3.578445 5.496659 2.173881 ]
Betas:
[ 0.713645 0.356788 3.018026 1.952128 ]
Aggregate results:
[ 36 24 28 32 20 0 ]
[ 0.000953 0.375469 0.285446 0.045833 0.178132 0.114167 ]
5
Num Evals 4800
GenUC: 2.591747e-04
GenUB: 8.994114e-05
Optimisation 9.897355e+00
Total Time: 9.897733e+00
2 Flipped
Graph 1:
0 1 1 1 1 1 
1 0 1 1 0 1 
1 1 0 0 1 0 
1 1 0 0 0 1 
1 0 1 0 0 1 
1 1 0 1 1 0 
Graph 2:
1 1 1 1 1 0 
1 0 1 1 0 1 
0 1 0 0 1 1 
1 0 0 0 1 1 
1 0 0 1 0 1 
0 1 1 0 1 1 
Solution: 28 6
Classic Expectation: 21.333333
Initial Expecation: 15.000000
Gbest: 24.000000
Expectation: 17.996221
Final Parameters:
Gammas:
[ 5.666024 1.774692 6.251690 4.515657 ]
Betas:
[ 0.551793 3.078923 0.256537 2.190719 ]
Aggregate results:
[ 24 20 22 28 18 26 16 0 ]
[ 0.204687 0.141726 0.153742 0.013713 0.130612 0.120823 0.061906 0.172791 ]
5
Num Evals 4800
GenUC: 3.070743e-04
GenUB: 7.604365e-05
Optimisation 9.679674e+00
Total Time: 9.680061e+00
3 Add 6
Graph 1:
0 1 1 1 1 1 
1 0 1 1 0 1 
1 1 0 0 1 0 
1 1 0 0 0 1 
1 0 1 0 0 1 
1 1 0 1 1 0 
Graph 2:
1 1 1 1 1 1 
1 1 1 1 1 1 
1 1 1 1 1 1 
1 1 1 0 0 1 
1 1 1 0 0 1 
1 1 1 1 1 0 
Solution: 27 0
Classic Expectation: 24.066667
Initial Expecation: 16.921875
Gbest: 27.000000
Expectation: 23.049970
Final Parameters:
Gammas:
[ 2.684176 0.171156 1.214127 0.926021 ]
Betas:
[ 2.897007 1.996978 0.206508 1.033110 ]
Aggregate results:
[ 27 23 0 ]
[ 0.423083 0.505510 0.071407 ]
5
Num Evals 4800
GenUC: 2.822346e-04
GenUB: 7.419870e-05
Optimisation 9.816984e+00
Total Time: 9.817343e+00
4 Rem 6
Graph 1:
0 1 1 1 1 1 
1 0 1 1 0 1 
1 1 0 0 1 0 
1 1 0 0 0 1 
1 0 1 0 0 1 
1 1 0 1 1 0 
Graph 2:
0 0 0 0 0 0 
0 0 0 1 0 0 
0 0 0 0 1 0 
0 1 0 0 0 1 
0 0 1 0 0 1 
0 0 0 1 1 0 
Solution: 22 0
Classic Expectation: 17.733333
Initial Expecation: 12.468750
Gbest: 22.000000
Expectation: 16.386113
Final Parameters:
Gammas:
[ 1.600451 4.590697 5.607908 3.811949 ]
Betas:
[ 0.820654 0.363843 2.932822 2.037701 ]
Aggregate results:
[ 22 14 10 18 6 0 ]
[ 0.251269 0.197842 0.018270 0.438991 0.000645 0.092983 ]
5
Num Evals 4800
GenUC: 2.821483e-04
GenUB: 6.711081e-05
Optimisation 1.009292e+01
Total Time: 1.009327e+01
5 Add/Rem 6
Graph 1:
0 1 1 1 1 1 
1 0 1 1 0 1 
1 1 0 0 1 0 
1 1 0 0 0 1 
1 0 1 0 0 1 
1 1 0 1 1 0 
Graph 2:
0 0 0 0 0 0 
0 1 0 1 1 1 
0 0 1 1 1 1 
0 1 1 0 0 1 
0 1 1 0 0 1 
0 1 1 1 1 0 
Solution: 28 636
Classic Expectation: 19.466667
Initial Expecation: 13.687500
Gbest: 24.000000
Expectation: 15.535821
Final Parameters:
Gammas:
[ 3.799392 3.340744 2.989452 3.661646 ]
Betas:
[ 2.086174 1.631637 1.153711 2.128222 ]
Aggregate results:
[ 16 12 20 24 28 0 ]
[ 0.182001 0.053742 0.399511 0.159403 0.005821 0.199521 ]
5
Num Evals 4800
GenUC: 2.817452e-04
GenUB: 6.223650e-05
Optimisation 1.116428e+01
Total Time: 1.116462e+01
