Clock Speed: 3.689427
Num threads: 4
Trotterisation: 6
Num Qubits: 13
Space Dimension: 8192
Run-Type: 0
Num_samples: 60024
Optimiser Method: 29
1 Isomorphic
Graph 1:
0 0 0 1 1 0 1 
0 1 0 0 0 1 0 
1 0 1 0 0 0 0 
1 0 1 0 0 1 1 
0 0 1 0 0 1 0 
0 0 1 0 0 0 1 
0 1 0 0 0 0 1 
Graph 2:
0 0 0 1 1 0 1 
0 1 0 0 0 1 0 
1 0 1 0 0 0 0 
1 0 1 0 0 1 1 
0 0 1 0 0 1 0 
0 0 1 0 0 0 1 
0 1 0 0 0 0 1 
Solution: 49 0
Classic Expectation: 26.904762
Initial Expecation: 16.552734
Gbest: 49.000000
Expectation: 22.253637
Final Parameters:
Gammas:
[ 3.200044 4.162140 3.383423 3.265476 1.657708 5.142703 ]
Betas:
[ 1.570267 2.219308 1.068003 0.995937 1.725406 1.445586 ]
Aggregate results:
[ 49 35 39 37 45 33 31 29 23 27 25 21 41 19 15 17 0 ]
[ 0.000038 0.016009 0.001008 0.004516 0.000126 0.031474 0.087915 0.151188 0.106767 0.196580 0.167360 0.049402 0.000143 0.015666 0.000047 0.002467 0.169294 ]
3
Num Evals 5579
GenUC: 2.131157e-03
GenUB: 8.961066e-04
Optimisation 1.171872e+02
Total Time: 1.171903e+02
2 Flipped
Graph 1:
0 0 0 1 1 0 1 
0 1 0 0 0 1 0 
1 0 1 0 0 0 0 
1 0 1 0 0 1 1 
0 0 1 0 0 1 0 
0 0 1 0 0 0 1 
0 1 0 0 0 0 1 
Graph 2:
1 0 1 1 0 0 0 
0 1 0 0 0 1 0 
0 0 0 0 1 0 1 
1 1 0 0 1 0 1 
0 1 0 0 1 0 0 
1 0 0 0 1 0 0 
1 0 0 0 0 1 0 
Solution: 43 1565
Classic Expectation: 26.904762
Initial Expecation: 16.552734
Gbest: 43.000000
Expectation: 22.695145
Final Parameters:
Gammas:
[ 3.146463 4.518838 3.231903 3.094410 1.794468 4.238914 ]
Betas:
[ 1.567412 0.047593 1.827717 2.488107 1.836389 1.296798 ]
Aggregate results:
[ 25 27 29 23 33 21 19 17 31 35 37 39 41 15 43 0 ]
[ 0.160653 0.187638 0.157817 0.110050 0.046940 0.043629 0.011738 0.002262 0.095762 0.016474 0.004451 0.001232 0.000410 0.000191 0.000009 0.160743 ]
3
Num Evals 5261
GenUC: 2.285986e-03
GenUB: 8.302588e-04
Optimisation 1.065609e+02
Total Time: 1.065640e+02
3 Add 7
Graph 1:
0 0 0 1 1 0 1 
0 1 0 0 0 1 0 
1 0 1 0 0 0 0 
1 0 1 0 0 1 1 
0 0 1 0 0 1 0 
0 0 1 0 0 0 1 
0 1 0 0 0 0 1 
Graph 2:
1 0 1 1 1 0 1 
1 1 0 0 0 1 0 
1 1 1 0 0 0 1 
1 0 1 1 0 1 1 
0 0 1 1 0 1 0 
0 0 1 0 0 0 1 
0 1 0 0 0 0 1 
Solution: 42 0
Classic Expectation: 24.952381
Initial Expecation: 15.351563
Gbest: 42.000000
Expectation: 24.066113
Final Parameters:
Gammas:
[ 3.197682 4.166418 3.845147 3.099984 2.289146 3.047573 ]
Betas:
[ 2.695052 2.984002 1.258219 1.842335 2.180434 2.027393 ]
Aggregate results:
[ 42 28 32 30 38 26 34 22 24 36 20 18 16 14 0 ]
[ 0.000108 0.151621 0.027911 0.076965 0.000117 0.198727 0.007829 0.169421 0.208675 0.001194 0.089427 0.029544 0.004086 0.000884 0.033491 ]
3
Num Evals 5607
GenUC: 2.397158e-03
GenUB: 8.294038e-04
Optimisation 1.424613e+02
Total Time: 1.424646e+02
4 Rem 7
Graph 1:
0 0 0 1 1 0 1 
0 1 0 0 0 1 0 
1 0 1 0 0 0 0 
1 0 1 0 0 1 1 
0 0 1 0 0 1 0 
0 0 1 0 0 0 1 
0 1 0 0 0 0 1 
Graph 2:
0 0 0 1 1 0 0 
0 0 0 0 0 1 0 
0 0 1 0 0 0 0 
0 0 0 0 0 1 0 
0 0 1 0 0 1 0 
0 0 1 0 0 0 1 
0 1 0 0 0 0 1 
Solution: 43 0
Classic Expectation: 28.714286
Initial Expecation: 17.666016
Gbest: 43.000000
Expectation: 25.543396
Final Parameters:
Gammas:
[ 3.133102 5.298607 3.112692 3.298456 6.263769 3.185741 ]
Betas:
[ 1.558629 1.745739 2.557216 1.152681 0.340498 1.832687 ]
Aggregate results:
[ 43 31 33 35 27 29 23 25 39 41 37 21 0 ]
[ 0.000142 0.194416 0.118595 0.039213 0.174251 0.208103 0.028247 0.084034 0.000841 0.000032 0.017094 0.003211 0.131821 ]
3
Num Evals 7001
GenUC: 2.321458e-03
GenUB: 8.365227e-04
Optimisation 1.466836e+02
Total Time: 1.466867e+02
5 Add/Rem 7
Graph 1:
0 0 0 1 1 0 1 
0 1 0 0 0 1 0 
1 0 1 0 0 0 0 
1 0 1 0 0 1 1 
0 0 1 0 0 1 0 
0 0 1 0 0 0 1 
0 1 0 0 0 0 1 
Graph 2:
1 0 0 1 0 0 0 
0 1 0 0 1 1 1 
1 1 0 0 0 0 0 
0 0 1 0 0 0 1 
0 0 1 1 0 0 0 
0 0 0 0 0 1 1 
0 1 0 0 0 0 1 
Solution: 40 734
Classic Expectation: 27.428571
Initial Expecation: 16.875000
Gbest: 40.000000
Expectation: 28.121320
Final Parameters:
Gammas:
[ 3.085009 3.072452 3.291276 3.107060 0.000000 6.259254 ]
Betas:
[ 2.574101 2.912316 1.019390 2.919854 1.764202 0.700620 ]
Aggregate results:
[ 36 32 34 30 26 28 22 24 18 20 38 40 0 ]
[ 0.029699 0.188633 0.087491 0.233433 0.123112 0.226089 0.009332 0.039172 0.001468 0.003325 0.005417 0.001565 0.051264 ]
3
Num Evals 16088
GenUC: 2.308346e-03
GenUB: 7.552640e-04
Optimisation 3.881136e+02
Total Time: 3.881167e+02
