Clock Speed: 3.498795
Num threads: 16
Trotterisation: 1
Num Qubits: 13
Space Dimension: 8192
Run-Type: 0
Num_samples: 49
Optimiser Method: 20
1 Isomorphic
Graph 1:
0 0 1 1 0 0 0 
0 0 1 1 1 1 1 
1 1 1 1 1 0 1 
0 1 1 0 1 0 1 
0 0 0 1 0 0 1 
0 0 1 1 0 1 0 
0 0 0 1 0 0 1 
Graph 2:
0 0 1 1 0 0 0 
0 0 1 1 1 1 1 
1 1 1 1 1 0 1 
0 1 1 0 1 0 1 
0 0 0 1 0 0 1 
0 0 1 1 0 1 0 
0 0 0 1 0 0 1 
Solution: 49 0
Classic Expectation: 24.571429
Initial Expecation: 15.117188
Gbest: 31.000000
Expectation: 19.734935
Final Parameters:
Gammas:
[ 6.206696 ]
Betas:
[ 2.577272 ]
Aggregate results:
[ 49 41 39 45 31 37 27 29 35 33 25 21 23 19 17 43 15 13 11 9 0 ]
[ 0.000209 0.000766 0.002683 0.000131 0.054672 0.003861 0.121307 0.084328 0.012494 0.021479 0.151412 0.100535 0.137940 0.053228 0.027972 0.000537 0.015870 0.002554 0.002228 0.000367 0.205427 ]
5
Num Evals 1400
GenUC: 2.244114e-03
GenUB: 1.212684e-03
Optimisation 1.134608e+01
Total Time: 1.134955e+01
2 Flipped
Graph 1:
0 0 1 1 0 0 0 
0 0 1 1 1 1 1 
1 1 1 1 1 0 1 
0 1 1 0 1 0 1 
0 0 0 1 0 0 1 
0 0 1 1 0 1 0 
0 0 0 1 0 0 1 
Graph 2:
0 0 0 1 1 0 0 
1 1 1 1 1 0 0 
1 0 1 1 1 1 1 
1 0 1 0 1 1 0 
1 0 0 1 0 0 0 
0 1 0 1 1 0 0 
1 0 0 1 0 0 0 
Solution: 41 4980
Classic Expectation: 24.714286
Initial Expecation: 15.205078
Gbest: 37.000000
Expectation: 20.075107
Final Parameters:
Gammas:
[ 3.097706 ]
Betas:
[ 0.651165 ]
Aggregate results:
[ 29 31 33 25 27 23 21 19 17 35 15 13 37 39 41 0 ]
[ 0.094385 0.063378 0.027987 0.154244 0.133348 0.131474 0.092251 0.054130 0.023560 0.008375 0.007029 0.001520 0.004142 0.000504 0.000287 0.203386 ]
5
Num Evals 1400
GenUC: 5.389929e-03
GenUB: 1.257326e-03
Optimisation 1.177566e+01
Total Time: 1.178231e+01
3 Add 7
Graph 1:
0 0 1 1 0 0 0 
0 0 1 1 1 1 1 
1 1 1 1 1 0 1 
0 1 1 0 1 0 1 
0 0 0 1 0 0 1 
0 0 1 1 0 1 0 
0 0 0 1 0 0 1 
Graph 2:
0 0 1 1 0 0 0 
0 0 1 1 1 1 1 
1 1 1 1 1 1 1 
0 1 1 0 1 0 1 
1 1 0 1 0 0 1 
0 1 1 1 1 1 0 
1 0 0 1 0 0 1 
Solution: 43 0
Classic Expectation: 24.571429
Initial Expecation: 15.117188
Gbest: 35.000000
Expectation: 17.507790
Final Parameters:
Gammas:
[ 2.690130 ]
Betas:
[ 2.542220 ]
Aggregate results:
[ 43 37 35 39 31 29 27 33 25 23 21 19 17 13 15 11 0 ]
[ 0.001149 0.002036 0.005130 0.001764 0.026593 0.067938 0.119928 0.011613 0.173242 0.144519 0.085533 0.045220 0.016620 0.000828 0.007456 0.000308 0.290125 ]
5
Num Evals 1400
GenUC: 5.393690e-03
GenUB: 1.244853e-03
Optimisation 1.647873e+01
Total Time: 1.648537e+01
4 Rem 7
Graph 1:
0 0 1 1 0 0 0 
0 0 1 1 1 1 1 
1 1 1 1 1 0 1 
0 1 1 0 1 0 1 
0 0 0 1 0 0 1 
0 0 1 1 0 1 0 
0 0 0 1 0 0 1 
Graph 2:
0 0 1 0 0 0 0 
0 0 1 1 1 0 1 
1 0 1 1 1 0 1 
0 1 1 0 1 0 0 
0 0 0 1 0 0 0 
0 0 0 1 0 1 0 
0 0 0 1 0 0 1 
Solution: 43 0
Classic Expectation: 24.571429
Initial Expecation: 15.117188
Gbest: 41.000000
Expectation: 18.885831
Final Parameters:
Gammas:
[ 2.951453 ]
Betas:
[ 2.946033 ]
Aggregate results:
[ 43 41 37 39 35 33 31 29 27 25 21 23 19 15 17 11 13 9 0 ]
[ 0.000504 0.001318 0.009245 0.002026 0.026879 0.053100 0.093802 0.118808 0.133722 0.107738 0.034542 0.062555 0.020373 0.009833 0.014930 0.003939 0.003233 0.000092 0.303360 ]
5
Num Evals 1400
GenUC: 5.395095e-03
GenUB: 1.393526e-03
Optimisation 1.802870e+01
Total Time: 1.803549e+01
5 Add/Rem 7
Graph 1:
0 0 1 1 0 0 0 
0 0 1 1 1 1 1 
1 1 1 1 1 0 1 
0 1 1 0 1 0 1 
0 0 0 1 0 0 1 
0 0 1 1 0 1 0 
0 0 0 1 0 0 1 
Graph 2:
0 1 1 1 1 0 1 
0 0 1 0 1 1 0 
1 1 0 1 1 0 1 
0 0 1 1 1 1 0 
0 0 0 1 1 0 1 
0 0 1 0 0 1 0 
1 0 0 1 0 0 1 
Solution: 38 3655
Classic Expectation: 24.428571
Initial Expecation: 15.029297
Gbest: 36.000000
Expectation: 17.990815
Final Parameters:
Gammas:
[ 2.816037 ]
Betas:
[ 2.549177 ]
Aggregate results:
[ 36 32 30 34 28 26 24 20 22 18 16 14 12 10 38 0 ]
[ 0.001902 0.016818 0.050648 0.007368 0.101904 0.147629 0.159597 0.075736 0.124054 0.029782 0.014202 0.004329 0.001409 0.000249 0.000132 0.264241 ]
5
Num Evals 1400
GenUC: 5.392965e-03
GenUB: 1.449271e-03
Optimisation 1.426889e+01
Total Time: 1.427573e+01
