Clock Speed: 3.498567
Num threads: 16
Trotterisation: 1
Num Qubits: 16
Space Dimension: 65536
Run-Type: 0
Num_samples: 64
Optimiser Method: 33
1 Isomorphic
Graph 1:
0 0 1 0 1 0 1 0 
0 0 0 0 0 1 1 0 
0 1 0 1 1 0 0 0 
1 1 0 1 1 0 0 1 
1 0 0 1 1 0 1 0 
0 1 0 1 1 0 0 1 
1 0 1 1 0 1 1 0 
0 0 1 0 1 0 0 1 
Graph 2:
0 0 1 0 1 0 1 0 
0 0 0 0 0 1 1 0 
0 1 0 1 1 0 0 0 
1 1 0 1 1 0 0 1 
1 0 0 1 1 0 1 0 
0 1 0 1 1 0 0 1 
1 0 1 1 0 1 1 0 
0 0 1 0 1 0 0 1 
Solution: 64 0
Classic Expectation: 32.321429
Initial Expecation: 19.885254
Gbest: 46.000000
Expectation: 19.885254
Final Parameters:
Gammas:
[ 3.141593 ]
Betas:
[ 1.570796 ]
Aggregate results:
[ 64 46 42 48 40 38 44 36 34 50 52 32 30 28 24 26 22 56 20 12 18 16 54 14 0 ]
[ 0.000015 0.001022 0.009171 0.000366 0.023270 0.047577 0.003571 0.077164 0.104172 0.000198 0.000076 0.112823 0.099579 0.069992 0.017654 0.039764 0.006622 0.000015 0.001709 0.000015 0.000320 0.000092 0.000031 0.000015 0.384766 ]
4
Num Evals 3
GenUC: 1.892546e-02
GenUB: 1.307637e-02
Optimisation 2.645737e-01
Total Time: 2.965918e-01
2 Flipped
Graph 1:
0 0 1 0 1 0 1 0 
0 0 0 0 0 1 1 0 
0 1 0 1 1 0 0 0 
1 1 0 1 1 0 0 1 
1 0 0 1 1 0 1 0 
0 1 0 1 1 0 0 1 
1 0 1 1 0 1 1 0 
0 0 1 0 1 0 0 1 
Graph 2:
0 1 0 1 0 1 0 0 
0 1 1 0 0 0 0 0 
0 0 0 1 1 0 1 0 
1 0 0 1 1 0 1 1 
0 1 0 1 1 0 0 1 
1 0 0 1 1 0 1 0 
0 1 1 0 1 1 0 1 
1 0 0 1 0 1 0 0 
Solution: 48 4142
Classic Expectation: 32.214286
Initial Expecation: 19.819336
Gbest: 44.000000
Expectation: 19.819336
Final Parameters:
Gammas:
[ 3.141593 ]
Betas:
[ 1.570796 ]
Aggregate results:
[ 30 40 36 34 32 28 38 42 24 22 26 20 44 18 46 48 14 16 0 ]
[ 0.102112 0.020554 0.077179 0.106339 0.117401 0.070679 0.044495 0.008209 0.016693 0.005737 0.040466 0.001602 0.002518 0.000320 0.000656 0.000198 0.000015 0.000061 0.384766 ]
4
Num Evals 3
GenUC: 2.365503e-02
GenUB: 1.334631e-02
Optimisation 2.611958e-01
Total Time: 2.982010e-01
3 Add 8
Graph 1:
0 0 1 0 1 0 1 0 
0 0 0 0 0 1 1 0 
0 1 0 1 1 0 0 0 
1 1 0 1 1 0 0 1 
1 0 0 1 1 0 1 0 
0 1 0 1 1 0 0 1 
1 0 1 1 0 1 1 0 
0 0 1 0 1 0 0 1 
Graph 2:
1 0 1 1 1 0 1 1 
0 0 0 0 0 1 1 0 
0 1 1 1 1 0 0 0 
1 1 0 1 1 0 0 1 
1 0 0 1 1 1 1 1 
0 1 0 1 1 0 0 1 
1 1 1 1 0 1 1 1 
0 0 1 0 1 0 0 1 
Solution: 56 0
Classic Expectation: 31.678571
Initial Expecation: 19.489746
Gbest: 40.000000
Expectation: 19.489746
Final Parameters:
Gammas:
[ 3.141593 ]
Betas:
[ 1.570796 ]
Aggregate results:
[ 56 42 44 40 36 34 30 38 28 46 48 32 26 24 50 22 20 18 14 16 52 0 ]
[ 0.000015 0.004990 0.001755 0.014648 0.067551 0.099609 0.112579 0.034576 0.082428 0.000473 0.000061 0.123154 0.045685 0.019653 0.000015 0.006149 0.001450 0.000336 0.000031 0.000061 0.000015 0.384766 ]
4
Num Evals 3
GenUC: 2.372960e-02
GenUB: 1.342392e-02
Optimisation 2.620624e-01
Total Time: 2.992201e-01
4 Rem 8
Graph 1:
0 0 1 0 1 0 1 0 
0 0 0 0 0 1 1 0 
0 1 0 1 1 0 0 0 
1 1 0 1 1 0 0 1 
1 0 0 1 1 0 1 0 
0 1 0 1 1 0 0 1 
1 0 1 1 0 1 1 0 
0 0 1 0 1 0 0 1 
Graph 2:
0 0 1 0 1 0 1 0 
0 0 0 0 0 1 0 0 
0 0 0 1 1 0 0 0 
0 1 0 1 1 0 0 1 
0 0 0 1 1 0 0 0 
0 1 0 0 1 0 0 1 
0 0 1 1 0 1 1 0 
0 0 1 0 1 0 0 0 
Solution: 56 0
Classic Expectation: 33.071429
Initial Expecation: 20.346680
Gbest: 44.000000
Expectation: 20.346680
Final Parameters:
Gammas:
[ 3.141593 ]
Betas:
[ 1.570796 ]
Aggregate results:
[ 56 44 42 40 36 38 34 46 32 30 48 28 26 24 22 16 20 50 18 52 0 ]
[ 0.000015 0.002487 0.009964 0.025833 0.092728 0.056519 0.122116 0.000610 0.120834 0.093414 0.000214 0.056137 0.023972 0.007843 0.001923 0.000046 0.000488 0.000031 0.000046 0.000015 0.384766 ]
4
Num Evals 3
GenUC: 2.372398e-02
GenUB: 1.343857e-02
Optimisation 2.612890e-01
Total Time: 2.984554e-01
5 Add/Rem 8
Graph 1:
0 0 1 0 1 0 1 0 
0 0 0 0 0 1 1 0 
0 1 0 1 1 0 0 0 
1 1 0 1 1 0 0 1 
1 0 0 1 1 0 1 0 
0 1 0 1 1 0 0 1 
1 0 1 1 0 1 1 0 
0 0 1 0 1 0 0 1 
Graph 2:
1 0 1 0 0 1 0 0 
0 0 0 0 0 1 1 1 
0 1 0 0 1 0 0 0 
0 1 0 1 1 1 0 1 
1 0 0 1 1 0 1 0 
1 0 0 1 1 0 0 1 
0 0 0 1 0 1 1 0 
1 0 0 0 1 0 0 1 
Solution: 50 0
Classic Expectation: 32.642857
Initial Expecation: 20.083008
Gbest: 38.000000
Expectation: 20.083008
Final Parameters:
Gammas:
[ 3.141593 ]
Betas:
[ 1.570796 ]
Aggregate results:
[ 50 40 44 42 36 38 34 30 46 32 28 26 24 20 22 18 16 48 12 0 ]
[ 0.000015 0.026337 0.003311 0.010910 0.083344 0.051804 0.109253 0.095917 0.000931 0.113266 0.064316 0.034958 0.014435 0.001358 0.004669 0.000259 0.000031 0.000107 0.000015 0.384766 ]
4
Num Evals 3
GenUC: 2.367779e-02
GenUB: 1.350154e-02
Optimisation 2.617128e-01
Total Time: 2.988963e-01
