Clock Speed: 3.498647
Num threads: 16
Trotterisation: 1
Num Qubits: 16
Space Dimension: 65536
Run-Type: 0
Num_samples: 64
Optimiser Method: 33
1 Isomorphic
Graph 1:
1 0 0 0 1 0 0 1 
1 1 1 1 1 0 0 1 
0 1 0 1 1 0 1 0 
1 1 0 0 0 1 0 0 
0 1 0 1 0 1 0 1 
1 0 1 0 0 1 1 1 
1 0 1 0 0 0 1 0 
1 1 1 0 1 1 0 1 
Graph 2:
1 0 0 0 1 0 0 1 
1 1 1 1 1 0 0 1 
0 1 0 1 1 0 1 0 
1 1 0 0 0 1 0 0 
0 1 0 1 0 1 0 1 
1 0 1 0 0 1 1 1 
1 0 1 0 0 0 1 0 
1 1 1 0 1 1 0 1 
Solution: 64 0
Classic Expectation: 32.285714
Initial Expecation: 19.863281
Gbest: 44.000000
Expectation: 19.863281
Final Parameters:
Gammas:
[ 3.141593 ]
Betas:
[ 1.570796 ]
Aggregate results:
[ 64 50 52 46 42 30 40 36 34 38 54 44 48 26 32 28 24 22 56 20 18 16 0 ]
[ 0.000015 0.000229 0.000137 0.001007 0.008057 0.105988 0.019760 0.075699 0.106781 0.043198 0.000015 0.002731 0.000259 0.037231 0.122391 0.071838 0.014023 0.004272 0.000015 0.001205 0.000351 0.000031 0.384766 ]
4
Num Evals 3
GenUC: 1.892177e-02
GenUB: 1.296603e-02
Optimisation 2.841594e-01
Total Time: 3.160610e-01
2 Flipped
Graph 1:
1 0 0 0 1 0 0 1 
1 1 1 1 1 0 0 1 
0 1 0 1 1 0 1 0 
1 1 0 0 0 1 0 0 
0 1 0 1 0 1 0 1 
1 0 1 0 0 1 1 1 
1 0 1 0 0 0 1 0 
1 1 1 0 1 1 0 1 
Graph 2:
1 0 0 1 0 0 0 1 
1 0 0 1 1 1 1 1 
0 1 0 1 1 0 1 0 
0 0 1 0 0 0 1 1 
1 0 1 0 1 0 1 0 
1 1 1 0 0 1 0 1 
0 1 0 0 0 1 0 1 
1 0 1 1 0 1 1 1 
Solution: 52 1574
Classic Expectation: 32.071429
Initial Expecation: 19.731445
Gbest: 42.000000
Expectation: 19.731445
Final Parameters:
Gammas:
[ 3.141593 ]
Betas:
[ 1.570796 ]
Aggregate results:
[ 32 36 34 30 38 46 40 44 42 50 48 28 26 24 22 52 18 20 16 0 ]
[ 0.118622 0.073654 0.105453 0.106903 0.042862 0.000656 0.018417 0.002045 0.006454 0.000046 0.000122 0.075043 0.041153 0.017303 0.005127 0.000015 0.000183 0.001129 0.000046 0.384766 ]
4
Num Evals 3
GenUC: 2.365957e-02
GenUB: 1.368818e-02
Optimisation 2.834577e-01
Total Time: 3.208091e-01
3 Add 8
Graph 1:
1 0 0 0 1 0 0 1 
1 1 1 1 1 0 0 1 
0 1 0 1 1 0 1 0 
1 1 0 0 0 1 0 0 
0 1 0 1 0 1 0 1 
1 0 1 0 0 1 1 1 
1 0 1 0 0 0 1 0 
1 1 1 0 1 1 0 1 
Graph 2:
1 0 0 0 1 1 0 1 
1 1 1 1 1 0 0 1 
0 1 1 1 1 0 1 0 
1 1 0 0 1 1 0 0 
1 1 0 1 1 1 0 1 
1 0 1 0 0 1 1 1 
1 1 1 0 0 0 1 0 
1 1 1 0 1 1 0 1 
Solution: 58 0
Classic Expectation: 32.928571
Initial Expecation: 20.258789
Gbest: 40.000000
Expectation: 20.258789
Final Parameters:
Gammas:
[ 3.141593 ]
Betas:
[ 1.570796 ]
Aggregate results:
[ 58 46 42 48 44 34 40 36 38 50 52 30 32 28 26 24 22 20 18 0 ]
[ 0.000015 0.000641 0.008423 0.000229 0.002518 0.119507 0.024750 0.090714 0.053085 0.000061 0.000031 0.096878 0.124115 0.056763 0.025726 0.008987 0.002228 0.000488 0.000076 0.384766 ]
4
Num Evals 3
GenUC: 2.371205e-02
GenUB: 1.354279e-02
Optimisation 2.839696e-01
Total Time: 3.212281e-01
4 Rem 8
Graph 1:
1 0 0 0 1 0 0 1 
1 1 1 1 1 0 0 1 
0 1 0 1 1 0 1 0 
1 1 0 0 0 1 0 0 
0 1 0 1 0 1 0 1 
1 0 1 0 0 1 1 1 
1 0 1 0 0 0 1 0 
1 1 1 0 1 1 0 1 
Graph 2:
0 0 0 0 1 0 0 0 
1 1 0 1 1 0 0 1 
0 1 0 0 0 0 1 0 
1 1 0 0 0 1 0 0 
0 1 0 1 0 0 0 1 
1 0 1 0 0 1 1 1 
1 0 1 0 0 0 1 0 
1 0 1 0 1 1 0 1 
Solution: 57 0
Classic Expectation: 31.821429
Initial Expecation: 19.577637
Gbest: 41.000000
Expectation: 19.577637
Final Parameters:
Gammas:
[ 3.141593 ]
Betas:
[ 1.570796 ]
Aggregate results:
[ 57 47 43 45 49 39 31 35 33 41 37 23 29 27 25 21 19 51 17 15 0 ]
[ 0.000015 0.000214 0.003372 0.000916 0.000137 0.024429 0.119537 0.087814 0.115265 0.009659 0.051285 0.010468 0.099121 0.059998 0.029297 0.003098 0.000534 0.000015 0.000046 0.000015 0.384766 ]
4
Num Evals 3
GenUC: 2.371495e-02
GenUB: 1.356218e-02
Optimisation 2.838448e-01
Total Time: 3.211264e-01
5 Add/Rem 8
Graph 1:
1 0 0 0 1 0 0 1 
1 1 1 1 1 0 0 1 
0 1 0 1 1 0 1 0 
1 1 0 0 0 1 0 0 
0 1 0 1 0 1 0 1 
1 0 1 0 0 1 1 1 
1 0 1 0 0 0 1 0 
1 1 1 0 1 1 0 1 
Graph 2:
0 0 0 0 0 0 0 0 
1 0 1 1 1 0 1 1 
0 1 0 1 0 1 1 0 
1 1 1 0 0 1 0 0 
0 1 1 0 0 1 0 1 
1 1 1 0 0 0 1 1 
1 0 1 0 0 1 0 0 
1 1 1 0 1 1 1 1 
Solution: 49 0
Classic Expectation: 31.392857
Initial Expecation: 19.313965
Gbest: 39.000000
Expectation: 19.313965
Final Parameters:
Gammas:
[ 3.141593 ]
Betas:
[ 1.570796 ]
Aggregate results:
[ 49 41 43 37 39 35 31 33 29 45 27 25 23 21 19 17 0 ]
[ 0.000015 0.004929 0.001114 0.042450 0.016434 0.084595 0.129013 0.117996 0.107727 0.000168 0.065491 0.031525 0.010559 0.002792 0.000412 0.000015 0.384766 ]
4
Num Evals 3
GenUC: 2.373265e-02
GenUB: 1.358064e-02
Optimisation 2.853320e-01
Total Time: 3.226493e-01
