Clock Speed: 3.688865
Num threads: 4
Trotterisation: 5
Graph Size: 6
Num Qubits: 10
Space Dimension: 1024
Run-Type: 0
Num_samples: 10
1 Isomorphic
Graph 1:
1 1 0 1 1 0 
1 1 1 0 0 0 
0 0 0 0 0 1 
0 0 1 1 0 0 
0 1 1 1 1 0 
0 0 1 0 0 0 
Graph 2:
1 1 0 1 1 0 
1 1 1 0 0 0 
0 0 0 0 0 1 
0 0 1 1 0 0 
0 1 1 1 1 0 
0 0 1 0 0 0 
Solution: 0 0
Gbest: -6.000000
Expectation: -20.125016
Final Parameters:
Gammas:
[ 0.681454 5.394782 4.070565 3.411095 3.067226 ]
Betas:
[ 2.582069 3.076914 1.196153 1.264838 1.877810 1.036290 ]
Aggregate results:
[ -1 7 17 13 15 11 9 1 19 5 21 3 23 35 ]
[ 0.002226 0.018427 0.174016 0.096870 0.217992 0.044559 0.036030 0.003988 0.140855 0.019811 0.037794 0.000242 0.010746 0.196443 ]
5
Num Evals 600
GenUC: 4.211778e-04
GenUB: 1.974906e-04
Optimisation 1.458345e+00
Total Time: 1.461514e+00
2 Flipped
Graph 1:
1 1 0 1 1 0 
1 1 1 0 0 0 
0 0 0 0 0 1 
0 0 1 1 0 0 
0 1 1 1 1 0 
0 0 1 0 0 0 
Graph 2:
0 1 1 0 1 1 
0 0 0 1 1 1 
1 0 0 0 0 0 
0 0 1 1 0 0 
0 1 1 1 1 0 
0 0 0 1 0 0 
Solution: -8 713
Gbest: -12.000000
Expectation: -20.994002
Final Parameters:
Gammas:
[ 2.693434 2.006854 3.074455 6.111563 3.008599 ]
Betas:
[ 0.805765 0.322460 1.572133 2.011957 1.639534 1.760491 ]
Aggregate results:
[ 13 11 19 15 17 9 21 23 25 27 7 35 ]
[ 0.105180 0.030556 0.157775 0.190976 0.221534 0.007625 0.082220 0.017952 0.005173 0.001320 0.000004 0.179685 ]
5
Num Evals 1200
GenUC: 1.347071e-04
GenUB: 1.472420e-04
Optimisation 1.339320e+00
Total Time: 1.341751e+00
3 Add 6
Graph 1:
1 1 0 1 1 0 
1 1 1 0 0 0 
0 0 0 0 0 1 
0 0 1 1 0 0 
0 1 1 1 1 0 
0 0 1 0 0 0 
Graph 2:
1 1 0 1 1 0 
1 1 1 0 0 1 
0 0 1 0 0 1 
0 0 1 1 0 1 
0 1 1 1 1 1 
0 0 1 0 1 0 
Solution: -5 0
Gbest: -13.000000
Expectation: -20.443152
Final Parameters:
Gammas:
[ 5.128169 4.495240 6.014023 1.667639 1.185833 ]
Betas:
[ 2.219389 1.560403 0.473809 2.810060 1.487635 1.920545 ]
Aggregate results:
[ 4 12 18 14 20 6 16 10 22 24 8 35 ]
[ 0.002549 0.068383 0.196978 0.177586 0.091635 0.000832 0.190296 0.041875 0.037359 0.006663 0.007665 0.178178 ]
5
Num Evals 1800
GenUC: 1.313686e-04
GenUB: 1.670413e-04
Optimisation 1.399610e+00
Total Time: 1.402371e+00
4 Rem 6
Graph 1:
1 1 0 1 1 0 
1 1 1 0 0 0 
0 0 0 0 0 1 
0 0 1 1 0 0 
0 1 1 1 1 0 
0 0 1 0 0 0 
Graph 2:
1 1 0 1 1 0 
1 0 1 0 0 0 
0 0 0 0 0 0 
0 0 0 0 0 0 
0 1 0 1 0 0 
0 0 1 0 0 0 
Solution: -6 0
Gbest: -10.000000
Expectation: -18.384050
Final Parameters:
Gammas:
[ 3.230253 6.004657 2.385793 0.977874 2.541528 ]
Betas:
[ 2.803736 1.078047 1.953360 3.082668 1.968568 1.669657 ]
Aggregate results:
[ 5 13 15 19 11 7 17 9 21 23 35 ]
[ 0.006547 0.157055 0.288145 0.109142 0.060798 0.006422 0.196713 0.019188 0.046995 0.009876 0.099118 ]
5
Num Evals 2400
GenUC: 1.152481e-04
GenUB: 1.640438e-04
Optimisation 1.370434e+00
Total Time: 1.373449e+00
5 Add/Rem 6
Graph 1:
1 1 0 1 1 0 
1 1 1 0 0 0 
0 0 0 0 0 1 
0 0 1 1 0 0 
0 1 1 1 1 0 
0 0 1 0 0 0 
Graph 2:
1 1 0 0 0 0 
1 1 1 0 1 0 
0 0 0 1 0 1 
0 1 1 0 0 0 
0 0 1 1 1 1 
0 0 0 1 1 0 
Solution: -9 10
Gbest: -13.000000
Expectation: -20.510036
Final Parameters:
Gammas:
[ 0.121482 0.049559 2.721412 3.567127 0.620376 ]
Betas:
[ 1.148919 1.097945 0.289131 1.505987 1.148434 1.595601 ]
Aggregate results:
[ 10 18 20 16 8 12 14 22 24 35 ]
[ 0.057613 0.149841 0.126220 0.145022 0.024509 0.129904 0.120193 0.047135 0.006119 0.193445 ]
5
Num Evals 3000
GenUC: 1.372135e-04
GenUB: 1.726521e-04
Optimisation 1.366361e+00
Total Time: 1.368678e+00
