Clock Speed: 3.688972
Num threads: 4
Trotterisation: 5
Graph Size: 6
Num Qubits: 10
Space Dimension: 1024
Run-Type: 0
Num_samples: 10
1 Isomorphic
Graph 1:
1 0 1 1 1 1 
0 1 0 0 1 0 
1 1 1 1 0 0 
1 0 0 0 1 0 
1 0 0 0 1 1 
0 1 1 0 1 1 
Graph 2:
1 0 1 1 1 1 
0 1 0 0 1 0 
1 1 1 1 0 0 
1 0 0 0 1 0 
1 0 0 0 1 1 
0 1 1 0 1 1 
Solution: 0 0
Gbest: -10.000000
Expectation: -19.075274
Final Parameters:
Gammas:
[ 3.410800 6.094343 2.492351 3.738104 6.146779 ]
Betas:
[ 0.483009 3.001444 1.409140 3.029485 1.424131 0.199751 ]
Aggregate results:
[ -1 11 15 9 13 17 19 7 21 23 35 ]
[ 0.004420 0.087124 0.230448 0.027915 0.210376 0.158126 0.076079 0.013283 0.018687 0.001209 0.172331 ]
5
Num Evals 600
GenUC: 2.584447e-04
GenUB: 1.919372e-04
Optimisation 1.717358e+00
Total Time: 1.720352e+00
2 Flipped
Graph 1:
1 0 1 1 1 1 
0 1 0 0 1 0 
1 1 1 1 0 0 
1 0 0 0 1 0 
1 0 0 0 1 1 
0 1 1 0 1 1 
Graph 2:
1 1 1 1 0 1 
0 1 0 0 1 0 
0 0 1 1 1 1 
0 1 0 0 0 1 
1 1 0 0 0 1 
1 1 0 1 1 0 
Solution: -8 656
Gbest: -14.000000
Expectation: -20.414217
Final Parameters:
Gammas:
[ 6.202369 0.119049 2.473449 2.847231 6.162383 ]
Betas:
[ 1.861232 1.610330 1.170015 1.732916 1.885448 1.201999 ]
Aggregate results:
[ 15 19 17 13 11 21 23 9 25 7 35 ]
[ 0.198061 0.202606 0.200916 0.114656 0.031188 0.078181 0.018578 0.005711 0.002071 0.000313 0.147718 ]
5
Num Evals 1200
GenUC: 1.349897e-04
GenUB: 1.456662e-04
Optimisation 1.577075e+00
Total Time: 1.579750e+00
3 Add 6
Graph 1:
1 0 1 1 1 1 
0 1 0 0 1 0 
1 1 1 1 0 0 
1 0 0 0 1 0 
1 0 0 0 1 1 
0 1 1 0 1 1 
Graph 2:
1 0 1 1 1 1 
1 1 0 0 1 0 
1 1 1 1 0 0 
1 1 1 0 1 1 
1 0 1 0 1 1 
0 1 1 0 1 1 
Solution: -5 0
Gbest: -13.000000
Expectation: -19.670206
Final Parameters:
Gammas:
[ 0.257273 6.182698 0.248039 6.236846 1.095345 ]
Betas:
[ 1.280426 0.838264 2.352167 1.595315 0.675735 1.804099 ]
Aggregate results:
[ 4 14 12 16 20 10 18 8 22 35 ]
[ 0.009994 0.210003 0.113856 0.234269 0.052530 0.052188 0.129608 0.002582 0.013416 0.181554 ]
5
Num Evals 1800
GenUC: 1.274190e-04
GenUB: 1.641915e-04
Optimisation 1.638093e+00
Total Time: 1.640644e+00
4 Rem 6
Graph 1:
1 0 1 1 1 1 
0 1 0 0 1 0 
1 1 1 1 0 0 
1 0 0 0 1 0 
1 0 0 0 1 1 
0 1 1 0 1 1 
Graph 2:
1 0 1 1 0 1 
0 1 0 0 0 0 
1 1 1 0 0 0 
0 0 0 0 1 0 
1 0 0 0 0 1 
0 1 1 0 1 1 
Solution: -5 0
Gbest: -13.000000
Expectation: -19.992583
Final Parameters:
Gammas:
[ 6.223155 4.002720 3.399467 1.664100 3.177356 ]
Betas:
[ 0.417460 2.139189 3.012956 0.181115 0.500963 1.357568 ]
Aggregate results:
[ 4 14 16 10 12 20 22 18 24 8 26 35 ]
[ 0.004113 0.149047 0.214456 0.029147 0.075861 0.122260 0.045242 0.215493 0.005018 0.002152 0.000342 0.136870 ]
5
Num Evals 2400
GenUC: 1.309119e-04
GenUB: 1.688510e-04
Optimisation 1.583738e+00
Total Time: 1.586029e+00
5 Add/Rem 6
Graph 1:
1 0 1 1 1 1 
0 1 0 0 1 0 
1 1 1 1 0 0 
1 0 0 0 1 0 
1 0 0 0 1 1 
0 1 1 0 1 1 
Graph 2:
0 0 1 1 1 1 
0 1 0 0 1 1 
0 1 1 0 1 0 
1 1 1 0 0 0 
1 1 0 1 1 0 
0 1 1 0 1 1 
Solution: -9 30
Gbest: -13.000000
Expectation: -19.849620
Final Parameters:
Gammas:
[ 6.209463 4.413563 2.378904 3.271025 5.056848 ]
Betas:
[ 1.936387 0.808218 1.177174 0.066192 3.137475 1.521694 ]
Aggregate results:
[ 10 16 20 14 18 12 22 8 24 35 ]
[ 0.029801 0.211258 0.132452 0.168340 0.179943 0.090836 0.032280 0.008949 0.005456 0.140685 ]
5
Num Evals 3000
GenUC: 1.347720e-04
GenUB: 1.620748e-04
Optimisation 1.651869e+00
Total Time: 1.654454e+00
