Clock Speed: 3.688561
Num threads: 4
Trotterisation: 1
Num Qubits: 10
Space Dimension: 1024
Run-Type: 0
Num_samples: 6
Optimiser Method: 20
1 Isomorphic
Graph 1:
0 0 0 1 1 0 
0 0 1 1 1 1 
0 1 0 1 0 1 
1 1 1 0 1 1 
1 1 0 1 0 0 
0 1 1 1 0 0 
Graph 2:
0 0 0 1 1 0 
0 0 1 1 1 1 
0 1 0 1 0 1 
1 1 1 0 1 1 
1 1 0 1 0 0 
0 1 1 1 0 0 
Solution: 36 0
Classic Expectation: 22.666667
Initial Expecation: 15.937500
Gbest: 28.000000
Expectation: 19.946520
Final Parameters:
Gammas:
[ 5.043092 ]
Betas:
[ 0.274348 ]
Aggregate results:
[ 36 28 24 32 20 16 0 ]
[ 0.007054 0.231297 0.303307 0.088768 0.118105 0.045891 0.205579 ]
5
Num Evals 1200
GenUC: 2.595829e-04
GenUB: 8.729502e-05
Optimisation 3.017033e+00
Total Time: 3.017408e+00
2 Flipped
Graph 1:
0 0 0 1 1 0 
0 0 1 1 1 1 
0 1 0 1 0 1 
1 1 1 0 1 1 
1 1 0 1 0 0 
0 1 1 1 0 0 
Graph 2:
0 1 1 0 0 0 
1 1 1 1 0 0 
1 0 1 0 1 0 
1 1 0 1 1 1 
0 0 1 0 1 1 
0 0 1 1 1 0 
Solution: 26 62
Classic Expectation: 17.333333
Initial Expecation: 12.187500
Gbest: 26.000000
Expectation: 14.230063
Final Parameters:
Gammas:
[ 2.704633 ]
Betas:
[ 2.874037 ]
Aggregate results:
[ 12 14 16 18 20 24 26 22 0 ]
[ 0.073963 0.064472 0.094984 0.160697 0.169796 0.047416 0.018631 0.136787 0.233255 ]
5
Num Evals 1200
GenUC: 2.794626e-04
GenUB: 7.145158e-05
Optimisation 7.688421e+00
Total Time: 7.688774e+00
3 Add 6
Graph 1:
0 0 0 1 1 0 
0 0 1 1 1 1 
0 1 0 1 0 1 
1 1 1 0 1 1 
1 1 0 1 0 0 
0 1 1 1 0 0 
Graph 2:
1 1 1 1 1 1 
1 0 1 1 1 1 
1 1 1 1 1 1 
1 1 1 1 1 1 
1 1 1 1 0 0 
1 1 1 1 0 0 
Solution: 25 0
Classic Expectation: 22.333333
Initial Expecation: 15.703125
Gbest: 25.000000
Expectation: 19.986917
Final Parameters:
Gammas:
[ 1.702329 ]
Betas:
[ 2.601615 ]
Aggregate results:
[ 25 21 0 ]
[ 0.324698 0.565213 0.110089 ]
5
Num Evals 1200
GenUC: 2.807777e-04
GenUB: 6.844933e-05
Optimisation 7.415961e+00
Total Time: 7.416313e+00
4 Rem 6
Graph 1:
0 0 0 1 1 0 
0 0 1 1 1 1 
0 1 0 1 0 1 
1 1 1 0 1 1 
1 1 0 1 0 0 
0 1 1 1 0 0 
Graph 2:
0 0 0 0 0 0 
0 0 0 1 0 0 
0 0 0 0 0 1 
0 1 0 0 1 1 
0 0 0 1 0 0 
0 0 1 1 0 0 
Solution: 24 0
Classic Expectation: 18.666667
Initial Expecation: 13.125000
Gbest: 24.000000
Expectation: 16.837088
Final Parameters:
Gammas:
[ 4.624082 ]
Betas:
[ 2.485697 ]
Aggregate results:
[ 24 20 16 12 8 0 ]
[ 0.147715 0.426411 0.254857 0.056001 0.001748 0.113268 ]
5
Num Evals 1200
GenUC: 2.791193e-04
GenUB: 7.149912e-05
Optimisation 6.837709e+00
Total Time: 6.838062e+00
5 Add/Rem 6
Graph 1:
0 0 0 1 1 0 
0 0 1 1 1 1 
0 1 0 1 0 1 
1 1 1 0 1 1 
1 1 0 1 0 0 
0 1 1 1 0 0 
Graph 2:
0 1 1 0 0 1 
1 0 0 0 0 0 
1 0 1 0 1 1 
0 0 0 1 1 1 
0 0 1 1 0 0 
1 0 1 1 0 0 
Solution: 28 154
Classic Expectation: 18.666667
Initial Expecation: 13.125000
Gbest: 24.000000
Expectation: 16.724077
Final Parameters:
Gammas:
[ 0.096107 ]
Betas:
[ 0.269761 ]
Aggregate results:
[ 12 16 20 24 28 8 0 ]
[ 0.050976 0.194754 0.353770 0.219577 0.022272 0.003431 0.155221 ]
5
Num Evals 1200
GenUC: 2.795964e-04
GenUB: 6.106163e-05
Optimisation 3.493892e+00
Total Time: 3.494235e+00
