Clock Speed: 3.688693
Num threads: 4
Trotterisation: 1
Num Qubits: 10
Space Dimension: 1024
Run-Type: 0
Num_samples: 6
Optimiser Method: 20
1 Isomorphic
Graph 1:
0 0 1 1 0 1 
0 0 0 1 0 1 
1 0 0 1 0 0 
1 1 1 0 0 0 
0 0 0 0 0 1 
1 1 0 0 1 0 
Graph 2:
0 0 1 1 0 1 
0 0 0 1 0 1 
1 0 0 1 0 0 
1 1 1 0 0 0 
0 0 0 0 0 1 
1 1 0 0 1 0 
Solution: 36 0
Classic Expectation: 21.066667
Initial Expecation: 14.812500
Gbest: 28.000000
Expectation: 18.851093
Final Parameters:
Gammas:
[ 4.633755 ]
Betas:
[ 2.794464 ]
Aggregate results:
[ 36 28 20 32 24 16 12 0 ]
[ 0.002355 0.098028 0.288632 0.020069 0.293138 0.143195 0.023353 0.131230 ]
5
Num Evals 1200
GenUC: 2.604447e-04
GenUB: 8.894101e-05
Optimisation 8.562042e-01
Total Time: 8.565802e-01
2 Flipped
Graph 1:
0 0 1 1 0 1 
0 0 0 1 0 1 
1 0 0 1 0 0 
1 1 1 0 0 0 
0 0 0 0 0 1 
1 1 0 0 1 0 
Graph 2:
1 0 1 1 0 0 
1 0 1 0 0 0 
0 0 1 0 0 1 
0 0 0 1 1 1 
1 0 0 0 0 0 
0 1 0 0 1 1 
Solution: 22 96
Classic Expectation: 17.333333
Initial Expecation: 12.187500
Gbest: 18.000000
Expectation: 15.511981
Final Parameters:
Gammas:
[ 2.874147 ]
Betas:
[ 0.493660 ]
Aggregate results:
[ 16 18 20 14 22 0 ]
[ 0.262131 0.302820 0.183129 0.074748 0.052640 0.124532 ]
5
Num Evals 1200
GenUC: 2.800128e-04
GenUB: 7.001963e-05
Optimisation 3.851769e-01
Total Time: 3.855290e-01
3 Add 6
Graph 1:
0 0 1 1 0 1 
0 0 0 1 0 1 
1 0 0 1 0 0 
1 1 1 0 0 0 
0 0 0 0 0 1 
1 1 0 0 1 0 
Graph 2:
0 1 1 1 1 1 
1 1 1 1 1 1 
1 1 0 1 0 1 
1 1 1 1 0 0 
1 1 0 0 0 1 
1 1 1 0 1 0 
Solution: 24 0
Classic Expectation: 18.400000
Initial Expecation: 12.937500
Gbest: 20.000000
Expectation: 16.336600
Final Parameters:
Gammas:
[ 3.230227 ]
Betas:
[ 0.388483 ]
Aggregate results:
[ 24 16 20 12 0 ]
[ 0.121018 0.309262 0.389355 0.058071 0.122293 ]
5
Num Evals 1200
GenUC: 2.796361e-04
GenUB: 6.976962e-05
Optimisation 3.679581e-01
Total Time: 3.683093e-01
4 Rem 6
Graph 1:
0 0 1 1 0 1 
0 0 0 1 0 1 
1 0 0 1 0 0 
1 1 1 0 0 0 
0 0 0 0 0 1 
1 1 0 0 1 0 
Graph 2:
0 0 0 0 0 0 
0 0 0 0 0 0 
0 0 0 0 0 0 
0 0 0 0 0 0 
0 0 0 0 0 0 
0 0 0 0 0 0 
Solution: 22 0
Classic Expectation: 22.000000
Initial Expecation: 15.468750
Gbest: 22.000000
Expectation: 19.647597
Final Parameters:
Gammas:
[ 2.643357 ]
Betas:
[ 0.521480 ]
Aggregate results:
[ 22 0 ]
[ 0.893073 0.106927 ]
5
Num Evals 1200
GenUC: 2.812240e-04
GenUB: 6.847800e-05
Optimisation 3.997738e-01
Total Time: 4.001254e-01
5 Add/Rem 6
Graph 1:
0 0 1 1 0 1 
0 0 0 1 0 1 
1 0 0 1 0 0 
1 1 1 0 0 0 
0 0 0 0 0 1 
1 1 0 0 1 0 
Graph 2:
1 1 0 0 1 0 
1 1 1 0 1 0 
0 1 0 1 0 1 
0 0 1 1 0 0 
1 1 0 0 0 0 
0 0 1 0 0 0 
Solution: 31 171
Classic Expectation: 18.200000
Initial Expecation: 12.796875
Gbest: 19.000000
Expectation: 16.728050
Final Parameters:
Gammas:
[ 0.100346 ]
Betas:
[ 0.252140 ]
Aggregate results:
[ 11 19 15 23 27 31 0 ]
[ 0.032953 0.290091 0.164359 0.251383 0.081135 0.013419 0.166660 ]
5
Num Evals 1200
GenUC: 2.806566e-04
GenUB: 6.110320e-05
Optimisation 7.986937e-01
Total Time: 7.990375e-01
