Clock Speed: 3.498904
Num threads: 16
Trotterisation: 5
Num Qubits: 10
Space Dimension: 1024
Run-Type: 0
Num_samples: 36
Optimiser Method: 0
1 Isomorphic
Graph 1:
0 0 0 1 1 1 
0 1 0 0 1 1 
1 1 0 1 1 0 
1 1 0 0 1 1 
1 0 1 1 0 1 
1 1 0 0 1 0 
Graph 2:
0 0 0 1 1 1 
0 1 0 0 1 1 
1 1 0 1 1 0 
1 1 0 0 1 1 
1 0 1 1 0 1 
1 1 0 0 1 0 
Solution: 36 0
Classic Expectation: 21.000000
Initial Expecation: 14.765625
Gbest: 28.000000
Expectation: 15.741774
Final Parameters:
Gammas:
[ 1.047198 3.141593 3.141593 3.141593 3.141593 ]
Betas:
[ 1.570796 1.570796 1.570796 1.570796 0.523599 ]
Aggregate results:
[ 36 28 26 30 24 22 20 18 14 16 32 0 ]
[ 0.000182 0.015044 0.024391 0.003562 0.122188 0.182246 0.227224 0.132023 0.003499 0.035271 0.003027 0.251345 ]
3
Num Evals 27
GenUC: 3.118310e-04
GenUB: 1.409561e-04
Optimisation 1.349949e-01
Total Time: 1.354566e-01
2 Flipped
Graph 1:
0 0 0 1 1 1 
0 1 0 0 1 1 
1 1 0 1 1 0 
1 1 0 0 1 1 
1 0 1 1 0 1 
1 1 0 0 1 0 
Graph 2:
1 1 1 0 0 0 
1 1 0 0 1 0 
0 1 1 0 1 1 
1 1 0 0 1 1 
1 0 1 1 0 1 
0 1 0 0 1 1 
Solution: 26 111
Classic Expectation: 18.000000
Initial Expecation: 12.656250
Gbest: 26.000000
Expectation: 13.144084
Final Parameters:
Gammas:
[ 5.235988 3.141593 3.141593 3.141593 3.141593 ]
Betas:
[ 1.570796 1.570796 1.570796 1.570796 0.523599 ]
Aggregate results:
[ 22 16 14 24 18 20 12 26 10 0 ]
[ 0.073251 0.148144 0.087212 0.019630 0.224461 0.151952 0.017957 0.005968 0.002019 0.269406 ]
3
Num Evals 27
GenUC: 3.584484e-04
GenUB: 1.376709e-04
Optimisation 1.359949e-01
Total Time: 1.364936e-01
3 Add 6
Graph 1:
0 0 0 1 1 1 
0 1 0 0 1 1 
1 1 0 1 1 0 
1 1 0 0 1 1 
1 0 1 1 0 1 
1 1 0 0 1 0 
Graph 2:
0 1 0 1 1 1 
0 1 0 0 1 1 
1 1 1 1 1 0 
1 1 0 1 1 1 
1 0 1 1 0 1 
1 1 1 0 1 1 
Solution: 31 0
Classic Expectation: 19.666667
Initial Expecation: 13.828125
Gbest: 23.000000
Expectation: 14.506445
Final Parameters:
Gammas:
[ 5.235988 3.141593 3.141593 3.141593 3.141593 ]
Betas:
[ 1.570796 1.570796 1.570796 1.570796 2.617994 ]
Aggregate results:
[ 31 25 23 21 27 19 17 15 13 29 0 ]
[ 0.000010 0.027248 0.109410 0.178378 0.000969 0.209962 0.169472 0.038362 0.005577 0.000626 0.259985 ]
3
Num Evals 27
GenUC: 3.580810e-04
GenUB: 1.344872e-04
Optimisation 1.335286e-01
Total Time: 1.340236e-01
4 Rem 6
Graph 1:
0 0 0 1 1 1 
0 1 0 0 1 1 
1 1 0 1 1 0 
1 1 0 0 1 1 
1 0 1 1 0 1 
1 1 0 0 1 0 
Graph 2:
0 0 0 1 0 0 
0 1 0 0 1 1 
0 1 0 1 1 0 
1 0 0 0 1 0 
1 0 0 1 0 1 
1 1 0 0 1 0 
Solution: 30 0
Classic Expectation: 19.000000
Initial Expecation: 13.359375
Gbest: 26.000000
Expectation: 13.983418
Final Parameters:
Gammas:
[ 1.047198 3.141593 3.141593 3.141593 3.141593 ]
Betas:
[ 1.570796 1.570796 1.570796 1.570796 0.523599 ]
Aggregate results:
[ 30 24 26 22 20 18 28 16 14 12 0 ]
[ 0.002392 0.043659 0.013687 0.112153 0.147465 0.232838 0.006785 0.114125 0.051736 0.013331 0.261830 ]
3
Num Evals 51
GenUC: 3.577787e-04
GenUB: 1.252848e-04
Optimisation 2.590758e-01
Total Time: 2.595611e-01
5 Add/Rem 6
Graph 1:
0 0 0 1 1 1 
0 1 0 0 1 1 
1 1 0 1 1 0 
1 1 0 0 1 1 
1 0 1 1 0 1 
1 1 0 0 1 0 
Graph 2:
1 1 0 1 0 1 
0 1 0 0 0 1 
1 1 0 1 1 1 
1 1 1 0 1 0 
0 0 1 1 0 0 
1 0 1 1 1 0 
Solution: 28 399
Classic Expectation: 20.000000
Initial Expecation: 14.062500
Gbest: 26.000000
Expectation: 14.653449
Final Parameters:
Gammas:
[ 5.235988 3.141593 3.141593 3.141593 3.141593 ]
Betas:
[ 1.570796 1.570796 1.570796 1.570796 0.523599 ]
Aggregate results:
[ 24 22 20 16 18 14 26 12 28 0 ]
[ 0.099501 0.143617 0.198374 0.068665 0.183516 0.021274 0.013353 0.000938 0.002863 0.267899 ]
3
Num Evals 27
GenUC: 3.583427e-04
GenUB: 1.207311e-04
Optimisation 1.360608e-01
Total Time: 1.365422e-01
