Clock Speed: 3.498784
Num threads: 16
Trotterisation: 5
Num Qubits: 13
Space Dimension: 8192
Run-Type: 0
Num_samples: 49
Optimiser Method: 0
1 Isomorphic
Graph 1:
1 0 0 1 0 0 0 
0 0 1 0 0 1 1 
0 1 1 0 0 1 1 
0 0 1 1 0 1 1 
1 1 0 1 0 0 1 
0 0 1 0 0 0 1 
0 1 0 1 1 1 1 
Graph 2:
1 0 0 1 0 0 0 
0 0 1 0 0 1 1 
0 1 1 0 0 1 1 
0 0 1 1 0 1 1 
1 1 0 1 0 0 1 
0 0 1 0 0 0 1 
0 1 0 1 1 1 1 
Solution: 49 0
Classic Expectation: 24.619048
Initial Expecation: 15.146484
Gbest: 31.000000
Expectation: 17.936756
Final Parameters:
Gammas:
[ 3.141593 3.141593 3.141593 2.443461 3.141593 ]
Betas:
[ 1.570796 0.523599 2.268928 1.570796 1.570796 ]
Aggregate results:
[ 49 37 35 29 25 33 27 31 23 21 43 41 39 15 17 19 13 0 ]
[ 0.000122 0.001465 0.004557 0.063153 0.153625 0.009766 0.113091 0.030353 0.150440 0.124252 0.000366 0.000122 0.000732 0.004432 0.018180 0.064092 0.001253 0.259997 ]
3
Num Evals 129
GenUC: 2.288297e-03
GenUB: 1.212737e-03
Optimisation 5.618742e+00
Total Time: 5.622254e+00
2 Flipped
Graph 1:
1 0 0 1 0 0 0 
0 0 1 0 0 1 1 
0 1 1 0 0 1 1 
0 0 1 1 0 1 1 
1 1 0 1 0 0 1 
0 0 1 0 0 0 1 
0 1 0 1 1 1 1 
Graph 2:
0 0 0 1 0 0 1 
1 1 0 0 1 0 0 
1 1 0 0 1 1 0 
1 1 0 1 1 0 0 
1 0 0 1 0 1 1 
1 0 0 0 1 0 0 
1 1 1 1 0 1 0 
Solution: 35 751
Classic Expectation: 24.238095
Initial Expecation: 14.912109
Gbest: 31.000000
Expectation: 21.550796
Final Parameters:
Gammas:
[ 2.883504 3.335519 3.154520 3.369994 3.138753 ]
Betas:
[ 1.512619 0.193926 1.590189 1.628974 0.723368 ]
Aggregate results:
[ 21 23 25 27 29 17 15 19 13 31 33 35 11 0 ]
[ 0.144639 0.196229 0.211032 0.137695 0.073029 0.027063 0.005409 0.061497 0.001145 0.026372 0.007654 0.002678 0.000030 0.105528 ]
3
Num Evals 2019
GenUC: 5.347796e-03
GenUB: 1.566781e-03
Optimisation 7.802843e+01
Total Time: 7.803534e+01
3 Add 7
Graph 1:
1 0 0 1 0 0 0 
0 0 1 0 0 1 1 
0 1 1 0 0 1 1 
0 0 1 1 0 1 1 
1 1 0 1 0 0 1 
0 0 1 0 0 0 1 
0 1 0 1 1 1 1 
Graph 2:
1 0 1 1 0 1 1 
0 0 1 0 0 1 1 
0 1 1 0 1 1 1 
1 0 1 1 0 1 1 
1 1 0 1 0 1 1 
0 0 1 0 0 0 1 
0 1 0 1 1 1 1 
Solution: 43 0
Classic Expectation: 24.333333
Initial Expecation: 14.970703
Gbest: 31.000000
Expectation: 19.062523
Final Parameters:
Gammas:
[ 2.676172 2.908882 3.141593 3.374303 3.141593 ]
Betas:
[ 1.570796 0.523599 2.268928 1.570796 1.570796 ]
Aggregate results:
[ 43 33 31 27 23 19 25 29 35 21 37 15 17 39 13 41 0 ]
[ 0.000161 0.009377 0.026951 0.123236 0.181385 0.067121 0.171863 0.057963 0.002518 0.121156 0.000281 0.005366 0.024079 0.000053 0.001388 0.000145 0.206959 ]
3
Num Evals 337
GenUC: 5.354021e-03
GenUB: 1.441554e-03
Optimisation 1.431279e+01
Total Time: 1.431959e+01
4 Rem 7
Graph 1:
1 0 0 1 0 0 0 
0 0 1 0 0 1 1 
0 1 1 0 0 1 1 
0 0 1 1 0 1 1 
1 1 0 1 0 0 1 
0 0 1 0 0 0 1 
0 1 0 1 1 1 1 
Graph 2:
1 0 0 1 0 0 0 
0 0 1 0 0 1 1 
0 0 1 0 0 1 1 
0 0 0 1 0 1 1 
1 1 0 1 0 0 1 
0 0 0 0 0 0 1 
0 1 0 0 0 1 0 
Solution: 43 0
Classic Expectation: 24.714286
Initial Expecation: 15.205078
Gbest: 33.000000
Expectation: 21.467417
Final Parameters:
Gammas:
[ 3.154521 3.344137 3.145583 3.344137 3.141433 ]
Betas:
[ 1.538475 0.051713 1.680687 1.486762 0.814487 ]
Aggregate results:
[ 43 39 31 29 27 23 25 33 21 37 19 35 17 15 13 0 ]
[ 0.000068 0.000399 0.026397 0.068434 0.134561 0.214401 0.189698 0.006342 0.154436 0.001342 0.070932 0.003135 0.020365 0.002133 0.000114 0.107243 ]
3
Num Evals 3039
GenUC: 5.349520e-03
GenUB: 1.464542e-03
Optimisation 1.210634e+02
Total Time: 1.210702e+02
5 Add/Rem 7
Graph 1:
1 0 0 1 0 0 0 
0 0 1 0 0 1 1 
0 1 1 0 0 1 1 
0 0 1 1 0 1 1 
1 1 0 1 0 0 1 
0 0 1 0 0 0 1 
0 1 0 1 1 1 1 
Graph 2:
1 0 0 1 0 0 1 
0 1 0 1 1 1 1 
0 1 1 0 1 1 1 
1 0 0 1 0 1 1 
1 1 0 0 0 0 0 
0 0 0 0 0 0 1 
0 1 1 1 1 0 0 
Solution: 37 513
Classic Expectation: 24.619048
Initial Expecation: 15.146484
Gbest: 33.000000
Expectation: 17.888221
Final Parameters:
Gammas:
[ 3.839724 3.141593 3.141593 3.839724 3.141593 ]
Betas:
[ 1.570796 0.523599 2.268928 1.570796 1.570796 ]
Aggregate results:
[ 35 31 29 27 23 21 25 19 33 17 37 15 13 0 ]
[ 0.002086 0.027556 0.069461 0.120372 0.150019 0.105692 0.158914 0.060574 0.009191 0.025057 0.000192 0.009349 0.002019 0.259519 ]
3
Num Evals 149
GenUC: 5.352856e-03
GenUB: 1.312983e-03
Optimisation 6.429414e+00
Total Time: 6.436084e+00
