Clock Speed: 3.688871
Num threads: 4
Trotterisation: 2
Graph Size: 3
Num Qubits: 3
Space Dimension: 8
Run-Type: 0
Num_samples: 10
1 Isomorphic
Graph 1:
1 1 1 
0 0 1 
0 0 1 
Graph 2:
1 1 1 
0 0 1 
0 0 1 
Solution: 0 0
Gbest: 0.000000
Expectation: -2.748232
Final Parameters:
Gammas:
[ 3.193135 2.947522 ]
Betas:
[ 0.671504 1.400296 2.309540 ]
Aggregate results:
[ -1 3 5 8 ]
[ 0.380795 0.529106 0.059695 0.030404 ]
3
Num Evals 192
GenUC: 6.277787e-03
GenUB: 2.002483e-04
Optimisation 5.679964e-02
Total Time: 6.344247e-02
2 Flipped
Graph 1:
1 1 1 
0 0 1 
0 0 1 
Graph 2:
1 1 1 
1 0 0 
1 0 0 
Solution: -4 0
Gbest: -4.000000
Expectation: -5.750000
Final Parameters:
Gammas:
[ 3.141593 3.141593 ]
Betas:
[ 0.589049 1.570796 1.570796 ]
Aggregate results:
[ 3 5 8 ]
[ 0.500000 0.250000 0.250000 ]
3
Num Evals 205
GenUC: 6.877744e-06
GenUB: 5.339069e-06
Optimisation 1.719486e-03
Total Time: 1.865972e-03
3 Add 3
Graph 1:
1 1 1 
0 0 1 
0 0 1 
Graph 2:
1 1 1 
0 1 1 
0 1 1 
Solution: -2 0
Gbest: -2.000000
Expectation: -3.070419
Final Parameters:
Gammas:
[ 3.286333 3.022119 ]
Betas:
[ 0.306229 1.473684 2.359541 ]
Aggregate results:
[ 1 3 5 8 ]
[ 0.516254 0.448964 0.023662 0.011120 ]
3
Num Evals 356
GenUC: 5.875438e-06
GenUB: 5.299735e-06
Optimisation 1.967583e-02
Total Time: 1.981954e-02
4 Rem 3
Graph 1:
1 1 1 
0 0 1 
0 0 1 
Graph 2:
0 0 1 
0 0 1 
0 0 1 
Solution: -2 0
Gbest: -2.000000
Expectation: -2.031359
Final Parameters:
Gammas:
[ 2.990078 3.434818 ]
Betas:
[ 1.812551 2.670523 2.329676 ]
Aggregate results:
[ 1 5 8 ]
[ 0.995460 0.000141 0.004400 ]
3
Num Evals 547
GenUC: 5.783295e-06
GenUB: 5.255148e-06
Optimisation 3.069787e-02
Total Time: 3.089029e-02
5 Add/Rem 3
Graph 1:
1 1 1 
0 0 1 
0 0 1 
Graph 2:
1 0 0 
1 1 0 
0 0 1 
Solution: -3 1
Gbest: -3.000000
Expectation: -5.250000
Final Parameters:
Gammas:
[ 3.141593 3.141593 ]
Betas:
[ 0.004315 1.570796 1.488577 ]
Aggregate results:
[ 4 2 8 ]
[ 0.375000 0.375000 0.250000 ]
3
Num Evals 559
GenUC: 6.438218e-06
GenUB: 5.523339e-06
Optimisation 1.633435e-03
Total Time: 1.763429e-03
