Clock Speed: 3.689166
Num threads: 4
Trotterisation: 2
Graph Size: 3
Num Qubits: 3
Space Dimension: 8
Run-Type: 0
Num_samples: 10
1 Isomorphic
Graph 1:
1 1 0 
0 0 1 
0 1 1 
Graph 2:
1 1 0 
0 0 1 
0 1 1 
Solution: 0 0
Gbest: 0.000000
Expectation: -2.759999
Final Parameters:
Gammas:
[ 2.967792 3.714697 ]
Betas:
[ 1.169428 1.587532 1.927941 ]
Aggregate results:
[ -1 7 5 3 1 8 ]
[ 0.296902 0.036965 0.052321 0.245999 0.306280 0.061533 ]
3
Num Evals 105
GenUC: 1.115344e-04
GenUB: 7.644761e-06
Optimisation 1.527041e-02
Total Time: 1.556337e-02
2 Flipped
Graph 1:
1 1 0 
0 0 1 
0 1 1 
Graph 2:
0 1 1 
1 0 0 
1 1 0 
Solution: -4 1
Gbest: -4.000000
Expectation: -4.200899
Final Parameters:
Gammas:
[ 0.180811 2.100337 ]
Betas:
[ 0.000000 1.309674 0.513862 ]
Aggregate results:
[ 5 3 8 ]
[ 0.061384 0.922990 0.015626 ]
3
Num Evals 205
GenUC: 6.989227e-06
GenUB: 5.924725e-06
Optimisation 9.906066e-03
Total Time: 1.001499e-02
3 Add 3
Graph 1:
1 1 0 
0 0 1 
0 1 1 
Graph 2:
1 1 0 
1 0 1 
1 1 1 
Solution: -2 0
Gbest: -2.000000
Expectation: -3.257497
Final Parameters:
Gammas:
[ 2.037899 1.765007 ]
Betas:
[ 0.927525 1.423484 2.096400 ]
Aggregate results:
[ 1 5 3 8 ]
[ 0.650471 0.079788 0.189968 0.079773 ]
3
Num Evals 330
GenUC: 6.275717e-06
GenUB: 5.492824e-06
Optimisation 1.729891e-02
Total Time: 1.745518e-02
4 Rem 3
Graph 1:
1 1 0 
0 0 1 
0 1 1 
Graph 2:
0 0 0 
0 0 1 
0 1 1 
Solution: -2 0
Gbest: -2.000000
Expectation: -4.111686
Final Parameters:
Gammas:
[ 4.343967 5.951432 ]
Betas:
[ 0.401411 1.162017 2.522800 ]
Aggregate results:
[ 1 5 3 8 ]
[ 0.575397 0.200519 0.051796 0.172288 ]
3
Num Evals 434
GenUC: 5.938113e-06
GenUB: 5.363603e-06
Optimisation 1.373723e-02
Total Time: 1.388620e-02
5 Add/Rem 3
Graph 1:
1 1 0 
0 0 1 
0 1 1 
Graph 2:
1 0 1 
0 0 0 
1 1 0 
Solution: -3 3
Gbest: -3.000000
Expectation: -5.750000
Final Parameters:
Gammas:
[ 3.298672 3.141593 ]
Betas:
[ 0.863938 1.570796 1.570796 ]
Aggregate results:
[ 4 6 2 8 ]
[ 0.375000 0.125000 0.250000 0.250000 ]
3
Num Evals 448
GenUC: 5.952897e-06
GenUB: 5.263370e-06
Optimisation 1.931665e-03
Total Time: 2.084700e-03
