Clock Speed: 3.498807
Num threads: 16
Trotterisation: 3
Num Qubits: 10
Space Dimension: 1024
Run-Type: 0
Num_samples: 36
Optimiser Method: 33
1 Isomorphic
Graph 1:
0 0 1 0 1 0 
1 0 0 0 0 0 
0 1 1 0 0 1 
0 1 1 0 0 0 
1 1 0 1 1 0 
0 1 1 0 0 1 
Graph 2:
0 0 1 0 1 0 
1 0 0 0 0 0 
0 1 1 0 0 1 
0 1 1 0 0 0 
1 1 0 1 1 0 
0 1 1 0 0 1 
Solution: 36 0
Classic Expectation: 18.600000
Initial Expecation: 13.078125
Gbest: 36.000000
Expectation: 13.078125
Final Parameters:
Gammas:
[ 3.141593 3.141593 3.141593 ]
Betas:
[ 1.570796 1.570796 1.570796 ]
Aggregate results:
[ 36 26 24 30 28 22 32 18 16 20 14 12 10 0 ]
[ 0.000977 0.015625 0.044922 0.001953 0.000977 0.076172 0.000977 0.181641 0.147461 0.156250 0.052734 0.019531 0.003906 0.296875 ]
4
Num Evals 3
GenUC: 3.492241e-04
GenUB: 1.327675e-04
Optimisation 9.089509e-02
Total Time: 9.138692e-02
2 Flipped
Graph 1:
0 0 1 0 1 0 
1 0 0 0 0 0 
0 1 1 0 0 1 
0 1 1 0 0 0 
1 1 0 1 1 0 
0 1 1 0 0 1 
Graph 2:
0 1 0 1 0 0 
0 0 0 0 0 1 
1 0 0 1 1 0 
0 0 0 1 1 0 
0 1 1 0 1 1 
1 0 0 1 1 0 
Solution: 28 625
Classic Expectation: 18.400000
Initial Expecation: 12.937500
Gbest: 22.000000
Expectation: 14.024334
Final Parameters:
Gammas:
[ 5.870221 3.375069 6.125746 ]
Betas:
[ 1.570796 2.840446 2.973801 ]
Aggregate results:
[ 10 18 16 20 22 24 14 12 26 28 0 ]
[ 0.005164 0.201896 0.123453 0.165934 0.129458 0.037797 0.066812 0.006629 0.008595 0.001823 0.252439 ]
3
Num Evals 50
GenUC: 3.644675e-04
GenUB: 1.343642e-04
Optimisation 1.907338e-01
Total Time: 1.912349e-01
3 Add 6
Graph 1:
0 0 1 0 1 0 
1 0 0 0 0 0 
0 1 1 0 0 1 
0 1 1 0 0 0 
1 1 0 1 1 0 
0 1 1 0 0 1 
Graph 2:
0 0 1 1 1 0 
1 1 0 1 0 0 
0 1 1 0 0 1 
0 1 1 0 0 1 
1 1 1 1 1 0 
0 1 1 0 0 1 
Solution: 31 0
Classic Expectation: 17.800000
Initial Expecation: 12.515625
Gbest: 25.000000
Expectation: 12.515625
Final Parameters:
Gammas:
[ 3.141593 3.141593 3.141593 ]
Betas:
[ 1.570796 1.570796 1.570796 ]
Aggregate results:
[ 31 23 25 21 29 19 17 15 13 11 27 9 0 ]
[ 0.000977 0.046875 0.014648 0.101562 0.000977 0.147461 0.190430 0.127930 0.059570 0.007812 0.000977 0.003906 0.296875 ]
4
Num Evals 3
GenUC: 3.641737e-04
GenUB: 1.308783e-04
Optimisation 9.174208e-03
Total Time: 9.671236e-03
4 Rem 6
Graph 1:
0 0 1 0 1 0 
1 0 0 0 0 0 
0 1 1 0 0 1 
0 1 1 0 0 0 
1 1 0 1 1 0 
0 1 1 0 0 1 
Graph 2:
0 0 1 0 1 0 
1 0 0 0 0 0 
0 0 1 0 0 1 
0 1 0 0 0 0 
0 1 0 1 1 0 
0 0 0 0 0 0 
Solution: 30 0
Classic Expectation: 19.600000
Initial Expecation: 13.781250
Gbest: 24.000000
Expectation: 14.607796
Final Parameters:
Gammas:
[ 2.939866 2.939866 5.429586 ]
Betas:
[ 2.575909 2.575909 2.410422 ]
Aggregate results:
[ 30 24 22 26 28 20 18 14 16 12 0 ]
[ 0.001127 0.050438 0.151631 0.010189 0.001402 0.220254 0.192241 0.026821 0.091127 0.002037 0.252732 ]
3
Num Evals 27
GenUC: 3.642198e-04
GenUB: 1.256946e-04
Optimisation 1.050042e-01
Total Time: 1.054959e-01
5 Add/Rem 6
Graph 1:
0 0 1 0 1 0 
1 0 0 0 0 0 
0 1 1 0 0 1 
0 1 1 0 0 0 
1 1 0 1 1 0 
0 1 1 0 0 1 
Graph 2:
0 1 0 0 1 0 
0 0 1 1 1 0 
0 1 1 0 0 0 
0 1 1 0 0 1 
1 1 0 1 1 0 
1 0 1 0 0 0 
Solution: 27 99
Classic Expectation: 18.200000
Initial Expecation: 12.796875
Gbest: 25.000000
Expectation: 12.796875
Final Parameters:
Gammas:
[ 3.141593 3.141593 3.141593 ]
Betas:
[ 1.570796 1.570796 1.570796 ]
Aggregate results:
[ 25 19 15 17 23 21 11 13 27 9 0 ]
[ 0.017578 0.178711 0.103516 0.180664 0.056641 0.110352 0.014648 0.038086 0.001953 0.000977 0.296875 ]
3
Num Evals 41
GenUC: 3.643716e-04
GenUB: 1.159287e-04
Optimisation 1.245063e-01
Total Time: 1.249885e-01
