Clock Speed: 3.688914
Num threads: 4
Trotterisation: 4
Num Qubits: 5
Space Dimension: 32
Run-Type: 0
Num_samples: 6399
Optimiser Method: 0
1 Isomorphic
Graph 1:
0 0 0 0 
1 1 0 1 
0 0 1 0 
1 1 1 0 
Graph 2:
0 0 0 0 
1 1 0 1 
0 0 1 0 
1 1 1 0 
Solution: 16 0
Classic Expectation: 8.166667
Initial Expecation: 6.125000
Gbest: 16.000000
Expectation: 6.529297
Final Parameters:
Gammas:
[ 5.235988 5.235988 3.141593 3.141593 ]
Betas:
[ 1.570796 0.523599 1.570796 1.570796 ]
Aggregate results:
[ 16 6 12 8 10 2 4 0 ]
[ 0.097168 0.149414 0.016113 0.287109 0.131348 0.000488 0.068359 0.250000 ]
3
Num Evals 57
GenUC: 8.456933e-06
GenUB: 8.690462e-06
Optimisation 1.933889e-02
Total Time: 1.937396e-02
2 Flipped
Graph 1:
0 0 0 0 
1 1 0 1 
0 0 1 0 
1 1 1 0 
Graph 2:
0 0 0 0 
1 0 1 1 
0 1 0 0 
0 1 1 1 
Solution: 14 16
Classic Expectation: 8.000000
Initial Expecation: 6.000000
Gbest: 14.000000
Expectation: 6.589600
Final Parameters:
Gammas:
[ 5.235988 1.047198 3.141593 3.141593 ]
Betas:
[ 0.523599 1.570796 1.570796 1.570796 ]
Aggregate results:
[ 10 6 12 8 14 4 2 0 ]
[ 0.315308 0.181152 0.080811 0.095093 0.015137 0.094238 0.015137 0.203125 ]
3
Num Evals 23
GenUC: 9.105948e-06
GenUB: 1.832086e-06
Optimisation 7.462299e-03
Total Time: 7.497552e-03
3 Add 4
Graph 1:
0 0 0 0 
1 1 0 1 
0 0 1 0 
1 1 1 0 
Graph 2:
1 0 1 0 
1 1 0 1 
0 1 1 0 
1 1 1 0 
Solution: 13 0
Classic Expectation: 7.833333
Initial Expecation: 5.875000
Gbest: 13.000000
Expectation: 6.257324
Final Parameters:
Gammas:
[ 5.235988 3.141593 3.141593 3.141593 ]
Betas:
[ 1.570796 1.570796 0.523599 1.570796 ]
Aggregate results:
[ 13 5 9 7 11 0 ]
[ 0.038208 0.188843 0.263672 0.295532 0.034058 0.179688 ]
3
Num Evals 23
GenUC: 9.219220e-06
GenUB: 1.414854e-06
Optimisation 7.601904e-03
Total Time: 7.613981e-03
4 Rem 4
Graph 1:
0 0 0 0 
1 1 0 1 
0 0 1 0 
1 1 1 0 
Graph 2:
0 0 0 0 
0 0 0 1 
0 0 1 0 
0 0 1 0 
Solution: 12 0
Classic Expectation: 8.666667
Initial Expecation: 6.500000
Gbest: 12.000000
Expectation: 7.042725
Final Parameters:
Gammas:
[ 5.235988 1.047198 3.141593 3.141593 ]
Betas:
[ 1.570796 1.570796 2.617994 1.570796 ]
Aggregate results:
[ 12 6 10 8 0 ]
[ 0.076660 0.071899 0.252441 0.395874 0.203125 ]
3
Num Evals 27
GenUC: 9.064272e-06
GenUB: 1.097389e-06
Optimisation 8.639168e-03
Total Time: 8.650699e-03
5 Add/Rem 4
Graph 1:
0 0 0 0 
1 1 0 1 
0 0 1 0 
1 1 1 0 
Graph 2:
1 0 1 1 
1 0 0 1 
0 0 1 1 
0 0 1 0 
Solution: 11 19
Classic Expectation: 8.000000
Initial Expecation: 6.000000
Gbest: 11.000000
Expectation: 6.558105
Final Parameters:
Gammas:
[ 5.235988 1.047198 3.141593 5.235988 ]
Betas:
[ 1.570796 1.570796 2.617994 1.570796 ]
Aggregate results:
[ 9 5 7 11 0 ]
[ 0.357666 0.066162 0.273804 0.099243 0.203125 ]
3
Num Evals 33
GenUC: 8.877716e-06
GenUB: 9.806245e-07
Optimisation 1.140481e-02
Total Time: 1.141592e-02
