Clock Speed: 3.689399
Num threads: 4
Trotterisation: 4
Num Qubits: 5
Space Dimension: 32
Run-Type: 0
Num_samples: 6399
Optimiser Method: 0
1 Isomorphic
Graph 1:
0 1 0 1 
0 0 0 0 
1 0 0 1 
0 1 1 1 
Graph 2:
0 1 0 1 
0 0 0 0 
1 0 0 1 
0 1 1 1 
Solution: 16 0
Classic Expectation: 8.500000
Initial Expecation: 6.375000
Gbest: 16.000000
Expectation: 7.272949
Final Parameters:
Gammas:
[ 1.047198 5.235988 5.235988 1.047198 ]
Betas:
[ 1.570796 1.570796 0.523599 1.570796 ]
Aggregate results:
[ 16 8 10 6 0 ]
[ 0.025757 0.194702 0.390869 0.232422 0.156250 ]
3
Num Evals 33
GenUC: 8.527946e-06
GenUB: 8.684583e-06
Optimisation 1.080037e-02
Total Time: 1.083801e-02
2 Flipped
Graph 1:
0 1 0 1 
0 0 0 0 
1 0 0 1 
0 1 1 1 
Graph 2:
1 0 1 0 
0 0 0 0 
1 0 0 1 
1 1 1 0 
Solution: 14 21
Classic Expectation: 8.500000
Initial Expecation: 6.375000
Gbest: 14.000000
Expectation: 6.662109
Final Parameters:
Gammas:
[ 1.047198 3.141593 3.141593 3.141593 ]
Betas:
[ 2.617994 1.570796 1.570796 1.570796 ]
Aggregate results:
[ 10 8 6 4 14 0 ]
[ 0.265137 0.326660 0.139648 0.035645 0.029785 0.203125 ]
3
Num Evals 37
GenUC: 9.228068e-06
GenUB: 1.764623e-06
Optimisation 2.419911e-02
Total Time: 2.421169e-02
3 Add 4
Graph 1:
0 1 0 1 
0 0 0 0 
1 0 0 1 
0 1 1 1 
Graph 2:
0 1 0 1 
1 0 1 1 
1 0 1 1 
0 1 1 1 
Solution: 12 0
Classic Expectation: 8.000000
Initial Expecation: 6.000000
Gbest: 12.000000
Expectation: 7.510139
Final Parameters:
Gammas:
[ 5.235988 1.047198 3.141593 3.141593 ]
Betas:
[ 1.532011 1.881077 0.523599 1.532011 ]
Aggregate results:
[ 12 6 10 8 0 ]
[ 0.034384 0.373053 0.391776 0.117682 0.083105 ]
3
Num Evals 369
GenUC: 9.655254e-06
GenUB: 1.542794e-06
Optimisation 1.205262e-01
Total Time: 1.205402e-01
4 Rem 4
Graph 1:
0 1 0 1 
0 0 0 0 
1 0 0 1 
0 1 1 1 
Graph 2:
0 1 0 0 
0 0 0 0 
0 0 0 1 
0 0 1 1 
Solution: 13 0
Classic Expectation: 8.500000
Initial Expecation: 6.375000
Gbest: 13.000000
Expectation: 7.322754
Final Parameters:
Gammas:
[ 3.141593 5.235988 3.141593 1.047198 ]
Betas:
[ 1.570796 1.570796 2.617994 1.570796 ]
Aggregate results:
[ 13 11 9 7 5 0 ]
[ 0.025757 0.171021 0.448120 0.098267 0.077148 0.179688 ]
3
Num Evals 43
GenUC: 9.294949e-06
GenUB: 1.301058e-06
Optimisation 1.720102e-02
Total Time: 1.721326e-02
5 Add/Rem 4
Graph 1:
0 1 0 1 
0 0 0 0 
1 0 0 1 
0 1 1 1 
Graph 2:
1 1 0 1 
1 1 0 0 
1 0 0 1 
1 0 0 1 
Solution: 12 17
Classic Expectation: 7.500000
Initial Expecation: 5.625000
Gbest: 12.000000
Expectation: 6.134766
Final Parameters:
Gammas:
[ 1.047198 1.047198 3.141593 3.141593 ]
Betas:
[ 1.570796 1.570796 2.617994 1.570796 ]
Aggregate results:
[ 10 6 8 12 4 0 ]
[ 0.109863 0.229004 0.315918 0.094238 0.000977 0.250000 ]
3
Num Evals 29
GenUC: 9.282609e-06
GenUB: 1.293956e-06
Optimisation 1.003977e-02
Total Time: 1.005228e-02
