Clock Speed: 3.688450
Num threads: 4
Trotterisation: 4
Num Qubits: 5
Space Dimension: 32
Run-Type: 0
Num_samples: 6399
Optimiser Method: 0
1 Isomorphic
Graph 1:
1 0 1 0 
0 0 1 0 
0 0 1 0 
1 1 0 1 
Graph 2:
1 0 1 0 
0 0 1 0 
0 0 1 0 
1 1 0 1 
Solution: 16 0
Classic Expectation: 9.166667
Initial Expecation: 6.875000
Gbest: 16.000000
Expectation: 8.366233
Final Parameters:
Gammas:
[ 3.141593 4.537856 3.839724 3.141593 ]
Betas:
[ 1.570796 0.872665 1.570796 1.570796 ]
Aggregate results:
[ 16 8 14 6 10 0 ]
[ 0.068352 0.271695 0.030020 0.083219 0.417944 0.128769 ]
3
Num Evals 103
GenUC: 8.708681e-06
GenUB: 1.080782e-05
Optimisation 3.430653e-02
Total Time: 3.435312e-02
2 Flipped
Graph 1:
1 0 1 0 
0 0 1 0 
0 0 1 0 
1 1 0 1 
Graph 2:
0 1 0 1 
0 1 0 0 
0 1 0 0 
1 0 1 1 
Solution: 14 2
Classic Expectation: 8.333333
Initial Expecation: 6.250000
Gbest: 14.000000
Expectation: 7.213867
Final Parameters:
Gammas:
[ 3.141593 1.047198 3.141593 5.235988 ]
Betas:
[ 1.570796 1.570796 0.523599 1.570796 ]
Aggregate results:
[ 6 8 14 10 0 ]
[ 0.176514 0.310547 0.084473 0.248779 0.179688 ]
3
Num Evals 45
GenUC: 9.142968e-06
GenUB: 1.747569e-06
Optimisation 3.379695e-02
Total Time: 3.381070e-02
3 Add 4
Graph 1:
1 0 1 0 
0 0 1 0 
0 0 1 0 
1 1 0 1 
Graph 2:
1 1 1 0 
0 0 1 1 
1 0 1 0 
1 1 0 1 
Solution: 13 0
Classic Expectation: 8.166667
Initial Expecation: 6.125000
Gbest: 13.000000
Expectation: 6.441406
Final Parameters:
Gammas:
[ 5.235988 3.141593 3.141593 3.141593 ]
Betas:
[ 1.570796 1.570796 0.523599 1.570796 ]
Aggregate results:
[ 13 9 7 5 11 0 ]
[ 0.009644 0.186768 0.377686 0.076538 0.146240 0.203125 ]
3
Num Evals 23
GenUC: 9.317824e-06
GenUB: 1.683075e-06
Optimisation 7.982963e-03
Total Time: 7.996926e-03
4 Rem 4
Graph 1:
1 0 1 0 
0 0 1 0 
0 0 1 0 
1 1 0 1 
Graph 2:
1 0 0 0 
0 0 1 0 
0 0 1 0 
0 0 0 1 
Solution: 13 0
Classic Expectation: 10.166667
Initial Expecation: 7.625000
Gbest: 13.000000
Expectation: 8.740479
Final Parameters:
Gammas:
[ 1.047198 5.235988 3.141593 3.141593 ]
Betas:
[ 1.570796 1.570796 0.523599 1.570796 ]
Aggregate results:
[ 13 11 9 0 ]
[ 0.098755 0.375854 0.369141 0.156250 ]
3
Num Evals 81
GenUC: 9.125913e-06
GenUB: 1.130858e-06
Optimisation 2.740393e-02
Total Time: 2.741591e-02
5 Add/Rem 4
Graph 1:
1 0 1 0 
0 0 1 0 
0 0 1 0 
1 1 0 1 
Graph 2:
1 0 0 1 
1 0 1 1 
1 0 0 0 
1 0 0 1 
Solution: 13 22
Classic Expectation: 8.000000
Initial Expecation: 6.000000
Gbest: 13.000000
Expectation: 6.502441
Final Parameters:
Gammas:
[ 1.047198 3.141593 3.141593 3.141593 ]
Betas:
[ 0.523599 1.570796 1.570796 1.570796 ]
Aggregate results:
[ 9 11 7 5 13 0 ]
[ 0.213257 0.198853 0.194458 0.103760 0.039673 0.250000 ]
3
Num Evals 27
GenUC: 8.983363e-06
GenUB: 1.168984e-06
Optimisation 9.161928e-03
Total Time: 9.173888e-03
