Clock Speed: 3.498659
Num threads: 16
Trotterisation: 4
Num Qubits: 5
Space Dimension: 32
Run-Type: 0
Num_samples: 16
Optimiser Method: 0
1 Isomorphic
Graph 1:
1 0 1 0 
1 1 1 1 
0 1 0 0 
1 0 1 1 
Graph 2:
1 0 1 0 
1 1 1 1 
0 1 0 0 
1 0 1 1 
Solution: 16 0
Classic Expectation: 8.666667
Initial Expecation: 6.500000
Gbest: 14.000000
Expectation: 6.656738
Final Parameters:
Gammas:
[ 5.235988 3.141593 1.047198 3.141593 ]
Betas:
[ 2.617994 1.570796 1.570796 1.570796 ]
Aggregate results:
[ 16 6 8 12 10 14 4 0 ]
[ 0.030151 0.189453 0.341187 0.012573 0.096558 0.077759 0.025757 0.226562 ]
3
Num Evals 33
GenUC: 9.668525e-06
GenUB: 1.436844e-05
Optimisation 4.768040e-03
Total Time: 4.800188e-03
2 Flipped
Graph 1:
1 0 1 0 
1 1 1 1 
0 1 0 0 
1 0 1 1 
Graph 2:
0 1 0 1 
1 1 1 1 
0 0 1 0 
1 1 0 1 
Solution: 12 14
Classic Expectation: 8.666667
Initial Expecation: 6.500000
Gbest: 12.000000
Expectation: 8.058594
Final Parameters:
Gammas:
[ 5.235988 3.141593 3.141593 3.141593 ]
Betas:
[ 0.523599 1.570796 1.570796 1.570796 ]
Aggregate results:
[ 8 10 6 12 0 ]
[ 0.576050 0.069336 0.031006 0.214233 0.109375 ]
3
Num Evals 45
GenUC: 8.219853e-06
GenUB: 1.956243e-06
Optimisation 6.110128e-03
Total Time: 6.121940e-03
3 Add 4
Graph 1:
1 0 1 0 
1 1 1 1 
0 1 0 0 
1 0 1 1 
Graph 2:
1 1 1 0 
1 1 1 1 
1 1 1 0 
1 1 1 1 
Solution: 12 0
Classic Expectation: 9.666667
Initial Expecation: 7.250000
Gbest: 12.000000
Expectation: 8.032227
Final Parameters:
Gammas:
[ 5.235988 3.141593 5.235988 3.141593 ]
Betas:
[ 2.617994 1.570796 1.570796 1.570796 ]
Aggregate results:
[ 12 8 10 0 ]
[ 0.122803 0.208252 0.489258 0.179687 ]
3
Num Evals 31
GenUC: 8.272007e-06
GenUB: 1.864042e-06
Optimisation 4.331883e-03
Total Time: 4.343421e-03
4 Rem 4
Graph 1:
1 0 1 0 
1 1 1 1 
0 1 0 0 
1 0 1 1 
Graph 2:
0 0 0 0 
1 0 1 0 
0 1 0 0 
1 0 1 1 
Solution: 12 0
Classic Expectation: 7.333333
Initial Expecation: 5.500000
Gbest: 10.000000
Expectation: 6.415527
Final Parameters:
Gammas:
[ 1.047198 5.235988 3.141593 3.141593 ]
Betas:
[ 1.570796 1.570796 0.523599 1.570796 ]
Aggregate results:
[ 12 4 8 6 10 0 ]
[ 0.036743 0.153687 0.327637 0.129517 0.196167 0.156250 ]
3
Num Evals 37
GenUC: 8.176081e-06
GenUB: 1.577660e-06
Optimisation 5.157746e-03
Total Time: 5.168812e-03
5 Add/Rem 4
Graph 1:
1 0 1 0 
1 1 1 1 
0 1 0 0 
1 0 1 1 
Graph 2:
1 1 0 1 
0 1 0 0 
1 1 0 0 
1 0 1 1 
Solution: 11 4
Classic Expectation: 8.500000
Initial Expecation: 6.375000
Gbest: 11.000000
Expectation: 7.240723
Final Parameters:
Gammas:
[ 1.047198 5.235988 3.141593 1.047198 ]
Betas:
[ 1.570796 1.570796 2.617994 1.570796 ]
Aggregate results:
[ 9 5 11 7 3 0 ]
[ 0.330933 0.030151 0.209717 0.246460 0.026489 0.156250 ]
3
Num Evals 33
GenUC: 8.145347e-06
GenUB: 1.669396e-06
Optimisation 4.618744e-03
Total Time: 4.629896e-03
