Clock Speed: 3.498653
Num threads: 16
Trotterisation: 2
Num Qubits: 7
Space Dimension: 128
Run-Type: 0
Num_samples: 25
Optimiser Method: 33
1 Isomorphic
Graph 1:
1 0 1 0 1 
0 0 1 0 1 
1 0 0 0 1 
0 0 0 1 0 
0 0 0 0 1 
Graph 2:
1 0 1 0 1 
0 0 1 0 1 
1 0 0 0 1 
0 0 0 1 0 
0 0 0 0 1 
Solution: 25 0
Classic Expectation: 14.200000
Initial Expecation: 13.312500
Gbest: 19.000000
Expectation: 13.312500
Final Parameters:
Gammas:
[ 3.141593 3.141593 ]
Betas:
[ 1.570796 1.570796 ]
Aggregate results:
[ 25 19 15 13 11 9 21 17 0 ]
[ 0.007812 0.062500 0.281250 0.281250 0.125000 0.054687 0.015625 0.109375 0.062500 ]
4
Num Evals 3
GenUC: 5.424116e-05
GenUB: 3.714254e-05
Optimisation 7.250090e-04
Total Time: 8.259611e-04
2 Flipped
Graph 1:
1 0 1 0 1 
0 0 1 0 1 
1 0 0 0 1 
0 0 0 1 0 
0 0 0 0 1 
Graph 2:
1 0 1 0 1 
1 0 1 0 0 
1 0 0 0 1 
0 1 0 0 0 
1 0 0 0 0 
Solution: 19 0
Classic Expectation: 13.000000
Initial Expecation: 12.187500
Gbest: 17.000000
Expectation: 12.187500
Final Parameters:
Gammas:
[ 3.141593 3.141593 ]
Betas:
[ 1.570796 1.570796 ]
Aggregate results:
[ 19 15 11 13 17 9 7 0 ]
[ 0.015625 0.195312 0.281250 0.312500 0.078125 0.046875 0.007813 0.062500 ]
4
Num Evals 3
GenUC: 5.103787e-05
GenUB: 1.000613e-05
Optimisation 5.956129e-04
Total Time: 6.580874e-04
3 Add 5
Graph 1:
1 0 1 0 1 
0 0 1 0 1 
1 0 0 0 1 
0 0 0 1 0 
0 0 0 0 1 
Graph 2:
1 1 1 0 1 
0 0 1 0 1 
1 0 0 0 1 
0 0 0 1 0 
1 0 0 1 1 
Solution: 22 0
Classic Expectation: 13.000000
Initial Expecation: 12.187500
Gbest: 18.000000
Expectation: 12.187500
Final Parameters:
Gammas:
[ 3.141593 3.141593 ]
Betas:
[ 1.570796 1.570796 ]
Aggregate results:
[ 22 16 12 18 10 14 8 0 ]
[ 0.007812 0.117187 0.320312 0.054687 0.156250 0.250000 0.031250 0.062500 ]
4
Num Evals 3
GenUC: 5.240412e-05
GenUB: 7.600524e-06
Optimisation 5.987794e-04
Total Time: 6.600455e-04
4 Rem 5
Graph 1:
1 0 1 0 1 
0 0 1 0 1 
1 0 0 0 1 
0 0 0 1 0 
0 0 0 0 1 
Graph 2:
0 0 0 0 1 
0 0 0 0 0 
1 0 0 0 1 
0 0 0 0 0 
0 0 0 0 1 
Solution: 20 0
Classic Expectation: 15.000000
Initial Expecation: 14.062500
Gbest: 18.000000
Expectation: 14.062500
Final Parameters:
Gammas:
[ 3.141593 3.141593 ]
Betas:
[ 1.570796 1.570796 ]
Aggregate results:
[ 20 16 14 18 12 0 ]
[ 0.046875 0.328125 0.328125 0.078125 0.156250 0.062500 ]
4
Num Evals 3
GenUC: 5.162042e-05
GenUB: 7.240102e-06
Optimisation 5.949768e-04
Total Time: 6.561996e-04
5 Add/Rem 5
Graph 1:
1 0 1 0 1 
0 0 1 0 1 
1 0 0 0 1 
0 0 0 1 0 
0 0 0 0 1 
Graph 2:
1 0 1 1 0 
0 0 1 0 0 
1 0 0 0 1 
0 0 0 0 1 
0 1 0 0 0 
Solution: 18 0
Classic Expectation: 13.400000
Initial Expecation: 12.562500
Gbest: 18.000000
Expectation: 12.562500
Final Parameters:
Gammas:
[ 3.141593 3.141593 ]
Betas:
[ 1.570796 1.570796 ]
Aggregate results:
[ 18 14 16 12 10 0 ]
[ 0.023437 0.375000 0.140625 0.328125 0.070312 0.062500 ]
4
Num Evals 3
GenUC: 5.176011e-05
GenUB: 8.362811e-06
Optimisation 6.330502e-04
Total Time: 6.943843e-04
