Clock Speed: 3.688929
Num threads: 4
Trotterisation: 5
Graph Size: 8
Num Qubits: 16
Space Dimension: 65536
Run-Type: 0
Num_samples: 10
1 Isomorphic
Graph 1:
0 1 1 0 0 0 0 0 
0 0 1 1 0 1 1 0 
1 0 0 1 0 1 1 1 
1 0 1 0 1 1 1 1 
0 0 1 1 1 1 1 1 
0 1 1 0 0 0 0 1 
1 1 1 0 1 0 1 0 
0 0 1 1 1 0 0 0 
Graph 2:
0 1 1 0 0 0 0 0 
0 0 1 1 0 1 1 0 
1 0 0 1 0 1 1 1 
1 0 1 0 1 1 1 1 
0 0 1 1 1 1 1 1 
0 1 1 0 0 0 0 1 
1 1 1 0 1 0 1 0 
0 0 1 1 1 0 0 0 
Solution: 0 0
Gbest: -24.000000
Expectation: -37.779253
Final Parameters:
Gammas:
[ 4.756030 4.617380 4.666420 4.808689 4.928173 ]
Betas:
[ 2.483029 2.542442 1.713913 1.562467 1.519049 2.184490 ]
Aggregate results:
[ -1 13 17 11 21 19 7 27 23 29 25 31 9 15 35 37 33 41 39 43 63 ]
[ 0.000015 0.000136 0.001602 0.000497 0.009744 0.011649 0.000003 0.169455 0.058511 0.098078 0.042842 0.200315 0.000062 0.001343 0.082263 0.018935 0.075355 0.001173 0.009429 0.000082 0.218510 ]
5
Num Evals 800
GenUC: 3.670360e-03
GenUB: 1.760893e-02
Optimisation 3.625607e+02
Total Time: 3.630269e+02
2 Flipped
Graph 1:
0 1 1 0 0 0 0 0 
0 0 1 1 0 1 1 0 
1 0 0 1 0 1 1 1 
1 0 1 0 1 1 1 1 
0 0 1 1 1 1 1 1 
0 1 1 0 0 0 0 1 
1 1 1 0 1 0 1 0 
0 0 1 1 1 0 0 0 
Graph 2:
0 0 0 0 0 1 1 0 
0 1 1 0 1 1 0 0 
1 1 1 0 1 0 0 1 
1 1 1 1 0 1 0 1 
1 1 1 1 1 1 0 0 
1 0 0 0 0 1 1 0 
0 1 0 1 0 1 1 1 
0 0 0 1 1 1 0 0 
Solution: -18 6565
Gbest: -30.000000
Expectation: -38.156246
Final Parameters:
Gammas:
[ 4.662229 4.567792 4.838124 5.138799 5.615556 ]
Betas:
[ 2.799072 3.023819 2.105567 1.800606 1.546661 1.743087 ]
Aggregate results:
[ 35 31 29 39 33 37 27 25 41 43 23 21 45 19 17 47 63 ]
[ 0.127125 0.170031 0.129098 0.032891 0.161124 0.075638 0.075253 0.033717 0.009499 0.002911 0.010791 0.003142 0.000430 0.000716 0.000063 0.000056 0.167514 ]
5
Num Evals 1600
GenUC: 2.408105e-03
GenUB: 1.682899e-02
Optimisation 3.772587e+02
Total Time: 3.777390e+02
3 Add 8
Graph 1:
0 1 1 0 0 0 0 0 
0 0 1 1 0 1 1 0 
1 0 0 1 0 1 1 1 
1 0 1 0 1 1 1 1 
0 0 1 1 1 1 1 1 
0 1 1 0 0 0 0 1 
1 1 1 0 1 0 1 0 
0 0 1 1 1 0 0 0 
Graph 2:
0 1 1 1 0 1 0 0 
0 0 1 1 0 1 1 0 
1 0 1 1 0 1 1 1 
1 1 1 0 1 1 1 1 
0 0 1 1 1 1 1 1 
0 1 1 0 0 1 1 1 
1 1 1 1 1 0 1 0 
0 0 1 1 1 1 0 0 
Solution: -8 0
Gbest: -24.000000
Expectation: -38.677891
Final Parameters:
Gammas:
[ 4.656764 4.584329 4.631352 4.695549 4.660632 ]
Betas:
[ 2.375050 2.566685 1.620298 1.493043 1.702478 2.303158 ]
Aggregate results:
[ 7 15 19 17 21 25 11 29 27 23 33 31 35 37 13 39 41 43 45 63 ]
[ 0.000035 0.000486 0.003602 0.001205 0.016235 0.086392 0.000002 0.179091 0.100793 0.031757 0.129933 0.119950 0.050454 0.030580 0.000150 0.005696 0.001636 0.000269 0.000018 0.241716 ]
5
Num Evals 2400
GenUC: 2.986818e-03
GenUB: 1.673564e-02
Optimisation 3.558169e+02
Total Time: 3.562752e+02
4 Rem 8
Graph 1:
0 1 1 0 0 0 0 0 
0 0 1 1 0 1 1 0 
1 0 0 1 0 1 1 1 
1 0 1 0 1 1 1 1 
0 0 1 1 1 1 1 1 
0 1 1 0 0 0 0 1 
1 1 1 0 1 0 1 0 
0 0 1 1 1 0 0 0 
Graph 2:
0 1 1 0 0 0 0 0 
0 0 1 1 0 1 0 0 
0 0 0 1 0 1 1 1 
0 0 0 0 1 0 1 1 
0 0 1 1 0 1 1 1 
0 1 1 0 0 0 0 1 
1 1 0 0 1 0 1 0 
0 0 0 1 1 0 0 0 
Solution: -8 0
Gbest: -32.000000
Expectation: -32.511850
Final Parameters:
Gammas:
[ 4.635166 4.761575 5.259343 5.431558 6.213100 ]
Betas:
[ 3.119855 3.103015 2.075880 1.570652 1.571308 1.574202 ]
Aggregate results:
[ 7 15 21 13 19 23 25 31 29 17 27 33 35 39 37 41 43 47 45 63 ]
[ 0.000028 0.000320 0.013410 0.000119 0.003646 0.038671 0.085667 0.191515 0.187850 0.000810 0.149810 0.141020 0.085401 0.013723 0.036321 0.003731 0.000679 0.000069 0.000073 0.047137 ]
5
Num Evals 3200
GenUC: 2.928492e-03
GenUB: 1.709210e-02
Optimisation 3.803231e+02
Total Time: 3.808085e+02
5 Add/Rem 8
Graph 1:
0 1 1 0 0 0 0 0 
0 0 1 1 0 1 1 0 
1 0 0 1 0 1 1 1 
1 0 1 0 1 1 1 1 
0 0 1 1 1 1 1 1 
0 1 1 0 0 0 0 1 
1 1 1 0 1 0 1 0 
0 0 1 1 1 0 0 0 
Graph 2:
0 1 1 0 1 1 0 1 
1 0 1 0 0 0 1 0 
0 0 1 1 0 1 1 1 
0 1 1 1 1 1 1 1 
0 0 1 1 1 1 1 1 
1 0 1 0 0 0 0 1 
1 1 1 0 1 0 1 0 
0 0 0 1 0 0 0 0 
Solution: -11 1
Gbest: -19.000000
Expectation: -30.016244
Final Parameters:
Gammas:
[ 3.085168 4.617820 4.630818 4.973305 4.718661 ]
Betas:
[ 2.309832 2.591329 1.555834 1.576946 1.564467 1.460576 ]
Aggregate results:
[ 14 10 22 18 24 26 30 28 20 16 32 34 36 40 38 42 44 63 ]
[ 0.000793 0.000094 0.066767 0.007459 0.131638 0.199156 0.168132 0.212059 0.023672 0.001417 0.087414 0.033671 0.011903 0.004137 0.006502 0.001746 0.000380 0.043061 ]
5
Num Evals 4000
GenUC: 3.024210e-03
GenUB: 1.718192e-02
Optimisation 3.365530e+02
Total Time: 3.369945e+02
