Clock Speed: 3.688623
Num threads: 4
Trotterisation: 4
Graph Size: 8
Num Qubits: 16
Space Dimension: 65536
Run-Type: 0
Num_samples: 10
1 Isomorphic
Graph 1:
0 1 0 0 1 1 0 1 
0 1 1 0 1 1 0 0 
0 0 1 0 0 0 1 1 
1 1 0 0 0 0 0 1 
0 1 1 0 0 0 1 1 
1 1 1 1 1 0 0 1 
0 1 0 0 0 1 0 1 
1 0 0 1 1 0 0 0 
Graph 2:
0 1 0 0 1 1 0 1 
0 1 1 0 1 1 0 0 
0 0 1 0 0 0 1 1 
1 1 0 0 0 0 0 1 
0 1 1 0 0 0 1 1 
1 1 1 1 1 0 0 1 
0 1 0 0 0 1 0 1 
1 0 0 1 1 0 0 0 
Solution: 0 0
Gbest: -20.000000
Expectation: -34.216800
Final Parameters:
Gammas:
[ 0.067721 0.035471 0.189927 4.856928 ]
Betas:
[ 0.330986 2.372228 1.882281 0.258698 1.599158 ]
Aggregate results:
[ -1 13 19 15 17 27 21 25 29 5 23 31 9 11 37 33 35 39 41 43 45 63 ]
[ 0.000048 0.000689 0.008642 0.000887 0.002261 0.137753 0.019562 0.088972 0.171674 0.000049 0.046068 0.166907 0.000167 0.000470 0.032669 0.125586 0.072719 0.011360 0.002971 0.000448 0.000016 0.110085 ]
5
Num Evals 800
GenUC: 3.543171e-03
GenUB: 1.724775e-02
Optimisation 2.008419e+02
Total Time: 2.011355e+02
2 Flipped
Graph 1:
0 1 0 0 1 1 0 1 
0 1 1 0 1 1 0 0 
0 0 1 0 0 0 1 1 
1 1 0 0 0 0 0 1 
0 1 1 0 0 0 1 1 
1 1 1 1 1 0 0 1 
0 1 0 0 0 1 0 1 
1 0 0 1 1 0 0 0 
Graph 2:
1 0 1 1 0 0 1 0 
0 0 1 1 0 1 1 0 
1 1 0 0 0 1 0 0 
1 0 0 0 0 0 1 1 
1 1 0 0 0 1 1 0 
1 0 0 1 1 1 1 1 
1 0 1 0 0 0 1 0 
0 0 0 1 1 0 0 1 
Solution: -16 19513
Gbest: -28.000000
Expectation: -34.890792
Final Parameters:
Gammas:
[ 3.175132 2.607544 1.105423 2.356673 ]
Betas:
[ 2.985308 0.981019 1.647937 1.570796 1.570796 ]
Aggregate results:
[ 35 31 27 29 33 39 43 37 41 25 23 45 21 19 17 47 15 63 ]
[ 0.112022 0.175257 0.110822 0.157085 0.161458 0.028269 0.002359 0.062780 0.009162 0.059596 0.024764 0.000367 0.006483 0.001900 0.000225 0.000017 0.000049 0.087385 ]
5
Num Evals 1600
GenUC: 2.628292e-03
GenUB: 1.701277e-02
Optimisation 2.279588e+02
Total Time: 2.283174e+02
3 Add 8
Graph 1:
0 1 0 0 1 1 0 1 
0 1 1 0 1 1 0 0 
0 0 1 0 0 0 1 1 
1 1 0 0 0 0 0 1 
0 1 1 0 0 0 1 1 
1 1 1 1 1 0 0 1 
0 1 0 0 0 1 0 1 
1 0 0 1 1 0 0 0 
Graph 2:
0 1 1 0 1 1 0 1 
1 1 1 1 1 1 1 0 
0 0 1 0 0 1 1 1 
1 1 1 1 0 0 0 1 
0 1 1 0 0 0 1 1 
1 1 1 1 1 0 0 1 
0 1 0 0 0 1 0 1 
1 0 0 1 1 0 1 0 
Solution: -8 0
Gbest: -24.000000
Expectation: -33.112502
Final Parameters:
Gammas:
[ 0.042875 5.660484 1.220298 3.415623 ]
Betas:
[ 2.270207 1.007086 0.034264 3.102927 1.616287 ]
Aggregate results:
[ 7 17 21 15 23 19 31 25 29 27 13 33 35 39 41 37 43 45 63 ]
[ 0.000055 0.001492 0.013629 0.000864 0.033788 0.005085 0.192735 0.069252 0.176434 0.129680 0.000235 0.156109 0.102601 0.014350 0.003373 0.044709 0.000555 0.000014 0.055039 ]
5
Num Evals 2400
GenUC: 2.880493e-03
GenUB: 1.692917e-02
Optimisation 2.073661e+02
Total Time: 2.076911e+02
4 Rem 8
Graph 1:
0 1 0 0 1 1 0 1 
0 1 1 0 1 1 0 0 
0 0 1 0 0 0 1 1 
1 1 0 0 0 0 0 1 
0 1 1 0 0 0 1 1 
1 1 1 1 1 0 0 1 
0 1 0 0 0 1 0 1 
1 0 0 1 1 0 0 0 
Graph 2:
0 1 0 0 1 1 0 0 
0 1 1 0 1 0 0 0 
0 0 1 0 0 0 0 0 
1 1 0 0 0 0 0 1 
0 1 1 0 0 0 1 1 
1 0 1 1 0 0 0 0 
0 1 0 0 0 0 0 1 
1 0 0 1 1 0 0 0 
Solution: -8 0
Gbest: -22.000000
Expectation: -33.988264
Final Parameters:
Gammas:
[ 4.135816 2.245461 3.014326 0.962217 ]
Betas:
[ 2.177232 0.084765 0.399473 1.678045 1.662699 ]
Aggregate results:
[ 7 19 21 17 23 33 25 29 27 13 35 31 37 39 15 41 43 45 47 63 ]
[ 0.000085 0.010197 0.030506 0.003659 0.068995 0.086809 0.123878 0.159546 0.166853 0.000371 0.049927 0.130096 0.023574 0.009960 0.001809 0.003055 0.000933 0.000050 0.000057 0.129640 ]
5
Num Evals 3200
GenUC: 2.927316e-03
GenUB: 2.103944e-02
Optimisation 2.069433e+02
Total Time: 2.072400e+02
5 Add/Rem 8
Graph 1:
0 1 0 0 1 1 0 1 
0 1 1 0 1 1 0 0 
0 0 1 0 0 0 1 1 
1 1 0 0 0 0 0 1 
0 1 1 0 0 0 1 1 
1 1 1 1 1 0 0 1 
0 1 0 0 0 1 0 1 
1 0 0 1 1 0 0 0 
Graph 2:
1 0 0 0 1 1 0 1 
0 1 1 0 1 1 0 0 
1 1 1 0 0 1 1 1 
1 1 0 0 0 1 0 0 
0 1 1 0 1 0 0 1 
1 0 1 1 1 0 0 1 
1 1 0 0 0 1 0 1 
1 1 0 0 1 0 0 0 
Solution: -13 0
Gbest: -31.000000
Expectation: -34.601240
Final Parameters:
Gammas:
[ 3.141593 3.141593 3.141593 2.738684 ]
Betas:
[ 0.286665 1.575311 2.017028 1.804432 0.038113 ]
Aggregate results:
[ 12 18 24 22 26 20 28 16 30 32 34 36 38 40 42 46 44 48 14 63 ]
[ 0.000022 0.001434 0.061951 0.023457 0.117290 0.006202 0.166604 0.000203 0.172160 0.134483 0.096264 0.060720 0.031284 0.013826 0.004585 0.000136 0.001255 0.000017 0.000084 0.108025 ]
5
Num Evals 4000
GenUC: 2.922005e-03
GenUB: 1.696086e-02
Optimisation 2.025927e+02
Total Time: 2.028692e+02
