Clock Speed: 3.498898
Num threads: 16
Trotterisation: 4
Num Qubits: 5
Space Dimension: 32
Run-Type: 0
Num_samples: 16
Optimiser Method: 0
1 Isomorphic
Graph 1:
0 1 0 1 
0 0 0 1 
1 0 0 0 
1 1 0 1 
Graph 2:
0 1 0 1 
0 0 0 1 
1 0 0 0 
1 1 0 1 
Solution: 16 0
Classic Expectation: 8.500000
Initial Expecation: 6.375000
Gbest: 12.000000
Expectation: 6.983643
Final Parameters:
Gammas:
[ 3.141593 1.047198 3.141593 3.141593 ]
Betas:
[ 0.523599 1.570796 0.523599 1.570796 ]
Aggregate results:
[ 16 8 6 12 10 0 ]
[ 0.053223 0.235229 0.129883 0.077148 0.254517 0.250000 ]
3
Num Evals 49
GenUC: 9.441748e-06
GenUB: 1.245225e-05
Optimisation 7.952054e-03
Total Time: 7.981271e-03
2 Flipped
Graph 1:
0 1 0 1 
0 0 0 1 
1 0 0 0 
1 1 0 1 
Graph 2:
1 0 1 0 
1 0 0 0 
0 0 0 1 
1 0 1 1 
Solution: 14 2
Classic Expectation: 8.000000
Initial Expecation: 6.000000
Gbest: 14.000000
Expectation: 7.031250
Final Parameters:
Gammas:
[ 1.047198 3.141593 3.141593 1.047198 ]
Betas:
[ 1.570796 1.570796 0.523599 1.570796 ]
Aggregate results:
[ 6 14 8 10 4 0 ]
[ 0.214722 0.066772 0.243896 0.263916 0.054443 0.156250 ]
3
Num Evals 33
GenUC: 8.429401e-06
GenUB: 2.135988e-06
Optimisation 4.581181e-03
Total Time: 4.593767e-03
3 Add 4
Graph 1:
0 1 0 1 
0 0 0 1 
1 0 0 0 
1 1 0 1 
Graph 2:
0 1 0 1 
0 0 0 1 
1 1 0 1 
1 1 1 1 
Solution: 13 0
Classic Expectation: 8.500000
Initial Expecation: 6.375000
Gbest: 13.000000
Expectation: 6.719238
Final Parameters:
Gammas:
[ 1.047198 3.141593 3.141593 3.141593 ]
Betas:
[ 2.617994 1.570796 1.570796 1.570796 ]
Aggregate results:
[ 13 7 9 5 11 0 ]
[ 0.036743 0.166260 0.429687 0.099243 0.064941 0.203125 ]
3
Num Evals 23
GenUC: 8.175615e-06
GenUB: 1.803041e-06
Optimisation 3.143796e-03
Total Time: 3.155313e-03
4 Rem 4
Graph 1:
0 1 0 1 
0 0 0 1 
1 0 0 0 
1 1 0 1 
Graph 2:
0 0 0 1 
0 0 0 1 
0 0 0 0 
1 1 0 0 
Solution: 13 0
Classic Expectation: 9.000000
Initial Expecation: 6.750000
Gbest: 13.000000
Expectation: 8.434570
Final Parameters:
Gammas:
[ 1.047198 5.235988 3.141593 3.141593 ]
Betas:
[ 1.570796 1.570796 0.523599 1.570796 ]
Aggregate results:
[ 13 7 9 11 5 0 ]
[ 0.076416 0.231445 0.514404 0.102539 0.012695 0.062500 ]
3
Num Evals 27
GenUC: 8.219853e-06
GenUB: 1.519453e-06
Optimisation 3.793852e-03
Total Time: 3.804828e-03
5 Add/Rem 4
Graph 1:
0 1 0 1 
0 0 0 1 
1 0 0 0 
1 1 0 1 
Graph 2:
0 1 1 0 
0 0 0 0 
1 1 0 0 
1 1 1 1 
Solution: 11 0
Classic Expectation: 8.500000
Initial Expecation: 6.375000
Gbest: 11.000000
Expectation: 8.365681
Final Parameters:
Gammas:
[ 5.352343 3.257948 3.232091 3.249329 ]
Betas:
[ 1.643339 1.515492 1.706544 2.572745 ]
Aggregate results:
[ 11 9 7 0 ]
[ 0.362513 0.163882 0.414728 0.058877 ]
3
Num Evals 1689
GenUC: 8.186325e-06
GenUB: 1.604669e-06
Optimisation 2.422700e-01
Total Time: 2.422810e-01
