Clock Speed: 3.688927
Num threads: 4
Trotterisation: 3
Graph Size: 3
Num Qubits: 3
Space Dimension: 8
Run-Type: 0
Num_samples: 10
1 Isomorphic
Graph 1:
1 0 0 
0 1 1 
0 1 1 
Graph 2:
1 0 0 
0 1 1 
0 1 1 
Solution: 0 0
Gbest: 0.000000
Expectation: -0.174437
Final Parameters:
Gammas:
[ 3.634122 0.397861 3.336676 ]
Betas:
[ 1.884854 1.382985 1.057167 1.039673 ]
Aggregate results:
[ -1 3 8 ]
[ 0.961852 0.033780 0.004369 ]
3
Num Evals 230
GenUC: 1.361358e-04
GenUB: 7.686394e-06
Optimisation 4.281327e-02
Total Time: 4.315876e-02
2 Flipped
Graph 1:
1 0 0 
0 1 1 
0 1 1 
Graph 2:
0 0 1 
1 1 0 
1 1 0 
Solution: -4 1
Gbest: -4.000000
Expectation: -4.257632
Final Parameters:
Gammas:
[ 2.826748 3.914411 3.445825 ]
Betas:
[ 0.248962 1.525737 2.213048 0.936714 ]
Aggregate results:
[ 5 3 8 ]
[ 0.104021 0.886061 0.009918 ]
3
Num Evals 481
GenUC: 6.562026e-06
GenUB: 5.343158e-06
Optimisation 4.538644e-02
Total Time: 4.557923e-02
3 Add 3
Graph 1:
1 0 0 
0 1 1 
0 1 1 
Graph 2:
1 1 1 
0 1 1 
1 1 1 
Solution: -3 0
Gbest: -3.000000
Expectation: -3.000000
Final Parameters:
Gammas:
[ 3.366435 3.045420 3.512027 ]
Betas:
[ 0.476094 1.761281 2.201298 1.935160 ]
Aggregate results:
[ 2 4 8 ]
[ 1.000000 0.000000 0.000000 ]
3
Num Evals 638
GenUC: 6.153583e-06
GenUB: 5.156544e-06
Optimisation 3.026261e-02
Total Time: 3.047038e-02
4 Rem 3
Graph 1:
1 0 0 
0 1 1 
0 1 1 
Graph 2:
1 0 0 
0 0 1 
0 1 0 
Solution: -2 0
Gbest: -2.000000
Expectation: -5.750000
Final Parameters:
Gammas:
[ 3.141593 3.252665 3.141593 ]
Betas:
[ 0.729862 1.570796 1.570796 1.570796 ]
Aggregate results:
[ 1 5 8 ]
[ 0.250000 0.500000 0.250000 ]
3
Num Evals 658
GenUC: 6.165894e-06
GenUB: 5.238107e-06
Optimisation 3.676965e-03
Total Time: 3.871232e-03
5 Add/Rem 3
Graph 1:
1 0 0 
0 1 1 
0 1 1 
Graph 2:
1 1 1 
0 0 1 
1 0 0 
Solution: -4 1
Gbest: -4.000000
Expectation: -4.257632
Final Parameters:
Gammas:
[ 2.826748 3.914411 3.445825 ]
Betas:
[ 0.248962 1.525737 2.213048 0.936714 ]
Aggregate results:
[ 5 3 8 ]
[ 0.104021 0.886061 0.009918 ]
3
Num Evals 909
GenUC: 5.819078e-06
GenUB: 5.205846e-06
Optimisation 5.796789e-02
Total Time: 5.816305e-02
