Clock Speed: 3.689277
Num threads: 4
Trotterisation: 1
Num Qubits: 16
Space Dimension: 65536
Run-Type: 0
Num_samples: 102399
Optimiser Method: 28
1 Isomorphic
Graph 1:
0 1 0 1 0 1 0 0 
0 0 1 0 0 0 1 1 
1 0 0 0 0 1 1 0 
0 0 0 1 0 1 0 1 
1 0 1 0 0 0 0 1 
1 0 1 1 0 1 1 0 
1 1 1 0 0 0 0 0 
1 1 0 1 0 0 1 0 
Graph 2:
0 1 0 1 0 1 0 0 
0 0 1 0 0 0 1 1 
1 0 0 0 0 1 1 0 
0 0 0 1 0 1 0 1 
1 0 1 0 0 0 0 1 
1 0 1 1 0 1 1 0 
1 1 1 0 0 0 0 0 
1 1 0 1 0 0 1 0 
Solution: 64 0
Classic Expectation: 33.321429
Initial Expecation: 20.500488
Gbest: 64.000000
Expectation: 22.356550
Final Parameters:
Gammas:
[ 3.839472 ]
Betas:
[ 2.392051 ]
Aggregate results:
[ 64 50 48 42 44 40 52 38 36 32 34 30 28 46 24 20 26 56 22 54 16 18 0 ]
[ 0.000020 0.000444 0.000736 0.014138 0.006417 0.034788 0.000150 0.060733 0.101233 0.130681 0.125494 0.100327 0.059344 0.001938 0.008285 0.000313 0.022997 0.000029 0.002422 0.000007 0.000021 0.000122 0.329361 ]
3
Num Evals 91
GenUC: 1.693955e-02
GenUB: 5.386643e-03
Optimisation 1.082759e+01
Total Time: 1.084994e+01
2 Flipped
Graph 1:
0 1 0 1 0 1 0 0 
0 0 1 0 0 0 1 1 
1 0 0 0 0 1 1 0 
0 0 0 1 0 1 0 1 
1 0 1 0 0 0 0 1 
1 0 1 1 0 1 1 0 
1 1 1 0 0 0 0 0 
1 1 0 1 0 0 1 0 
Graph 2:
0 0 1 0 1 0 1 0 
1 1 0 0 0 1 0 0 
0 1 1 0 0 0 0 1 
1 0 1 0 1 0 0 0 
1 0 0 0 0 1 0 1 
0 1 1 0 1 1 0 1 
0 0 0 0 0 1 1 1 
0 1 0 0 1 0 1 1 
Solution: 48 10901
Classic Expectation: 32.142857
Initial Expecation: 19.775391
Gbest: 48.000000
Expectation: 21.530817
Final Parameters:
Gammas:
[ 4.752912 ]
Betas:
[ 2.391313 ]
Aggregate results:
[ 22 24 28 30 26 20 32 34 36 38 42 40 46 44 18 48 0 ]
[ 0.004638 0.017892 0.079384 0.117911 0.044706 0.000464 0.130227 0.118469 0.078891 0.045511 0.008193 0.021070 0.000284 0.002227 0.000148 0.000049 0.329937 ]
3
Num Evals 78
GenUC: 1.847809e-02
GenUB: 5.076205e-03
Optimisation 9.301564e+00
Total Time: 9.325123e+00
3 Add 8
Graph 1:
0 1 0 1 0 1 0 0 
0 0 1 0 0 0 1 1 
1 0 0 0 0 1 1 0 
0 0 0 1 0 1 0 1 
1 0 1 0 0 0 0 1 
1 0 1 1 0 1 1 0 
1 1 1 0 0 0 0 0 
1 1 0 1 0 0 1 0 
Graph 2:
0 1 0 1 1 1 0 0 
0 0 1 1 0 0 1 1 
1 1 1 0 0 1 1 0 
0 0 0 1 0 1 1 1 
1 1 1 0 0 0 0 1 
1 0 1 1 0 1 1 1 
1 1 1 0 0 0 0 0 
1 1 0 1 0 0 1 0 
Solution: 57 0
Classic Expectation: 32.178571
Initial Expecation: 19.797363
Gbest: 57.000000
Expectation: 25.732613
Final Parameters:
Gammas:
[ 3.179348 ]
Betas:
[ 2.545493 ]
Aggregate results:
[ 57 47 43 39 37 41 45 35 33 29 31 27 25 49 23 21 51 53 19 17 0 ]
[ 0.000018 0.000682 0.005659 0.039133 0.076122 0.016576 0.001831 0.117248 0.154327 0.119113 0.148512 0.073226 0.032207 0.000080 0.010785 0.002456 0.000013 0.000009 0.000418 0.000114 0.201471 ]
3
Num Evals 114
GenUC: 1.847323e-02
GenUB: 5.122712e-03
Optimisation 1.409099e+01
Total Time: 1.411459e+01
4 Rem 8
Graph 1:
0 1 0 1 0 1 0 0 
0 0 1 0 0 0 1 1 
1 0 0 0 0 1 1 0 
0 0 0 1 0 1 0 1 
1 0 1 0 0 0 0 1 
1 0 1 1 0 1 1 0 
1 1 1 0 0 0 0 0 
1 1 0 1 0 0 1 0 
Graph 2:
0 1 0 1 0 1 0 0 
0 0 1 0 0 0 0 1 
1 0 0 0 0 0 1 0 
0 0 0 0 0 1 0 1 
0 0 1 0 0 0 0 1 
1 0 0 1 0 0 1 0 
0 1 1 0 0 0 0 0 
1 1 0 1 0 0 0 0 
Solution: 56 0
Classic Expectation: 34.964286
Initial Expecation: 21.511230
Gbest: 56.000000
Expectation: 23.549306
Final Parameters:
Gammas:
[ 3.799518 ]
Betas:
[ 2.395727 ]
Aggregate results:
[ 56 44 46 38 48 42 40 36 34 32 28 30 50 24 26 52 22 0 ]
[ 0.000040 0.008675 0.002474 0.102278 0.000636 0.025566 0.056717 0.132909 0.138942 0.107395 0.025522 0.061385 0.000108 0.002110 0.008695 0.000015 0.000348 0.326187 ]
3
Num Evals 107
GenUC: 1.847049e-02
GenUB: 5.186241e-03
Optimisation 1.463942e+01
Total Time: 1.466308e+01
5 Add/Rem 8
Graph 1:
0 1 0 1 0 1 0 0 
0 0 1 0 0 0 1 1 
1 0 0 0 0 1 1 0 
0 0 0 1 0 1 0 1 
1 0 1 0 0 0 0 1 
1 0 1 1 0 1 1 0 
1 1 1 0 0 0 0 0 
1 1 0 1 0 0 1 0 
Graph 2:
0 1 0 1 0 1 0 1 
0 0 0 0 1 1 0 1 
1 1 0 0 0 1 1 0 
0 0 0 0 0 1 0 1 
0 0 1 0 0 0 1 0 
1 0 1 1 0 1 1 0 
1 1 1 1 0 0 1 0 
0 1 1 0 0 0 1 0 
Solution: 49 0
Classic Expectation: 33.214286
Initial Expecation: 20.434570
Gbest: 49.000000
Expectation: 26.456364
Final Parameters:
Gammas:
[ 3.179332 ]
Betas:
[ 2.535542 ]
Aggregate results:
[ 49 45 41 39 43 35 37 31 33 27 29 25 47 23 21 19 0 ]
[ 0.000024 0.001287 0.020759 0.052767 0.006703 0.141670 0.098769 0.142890 0.161248 0.051092 0.099690 0.018103 0.000221 0.003970 0.000493 0.000064 0.200250 ]
3
Num Evals 113
GenUC: 1.855197e-02
GenUB: 5.054801e-03
Optimisation 1.393846e+01
Total Time: 1.396207e+01
