Clock Speed: 3.688477
Num threads: 4
Trotterisation: 5
Num Qubits: 10
Space Dimension: 1024
Run-Type: 0
Num_samples: 6
Optimiser Method: 20
1 Isomorphic
Graph 1:
0 1 0 1 1 1 
1 0 0 0 1 0 
0 0 0 1 1 1 
1 0 1 0 0 1 
1 1 1 0 0 1 
1 0 1 1 1 0 
Graph 2:
0 1 0 1 1 1 
1 0 0 0 1 0 
0 0 0 1 1 1 
1 0 1 0 0 1 
1 1 1 0 0 1 
1 0 1 1 1 0 
Solution: 36 0
Classic Expectation: 22.666667
Initial Expecation: 15.937500
Gbest: 24.000000
Expectation: 20.669052
Final Parameters:
Gammas:
[ 4.223023 5.283968 4.402547 2.608321 0.642094 ]
Betas:
[ 0.038895 2.239384 0.049127 1.260138 0.103031 ]
Aggregate results:
[ 36 28 32 24 20 16 0 ]
[ 0.006421 0.141314 0.026195 0.354745 0.302226 0.067778 0.101320 ]
5
Num Evals 6000
GenUC: 2.596384e-04
GenUB: 9.505195e-05
Optimisation 1.015960e+01
Total Time: 1.015998e+01
2 Flipped
Graph 1:
0 1 0 1 1 1 
1 0 0 0 1 0 
0 0 0 1 1 1 
1 0 1 0 0 1 
1 1 1 0 0 1 
1 0 1 1 1 0 
Graph 2:
1 1 1 0 1 0 
0 1 0 0 0 1 
1 1 1 0 0 0 
1 0 0 1 0 1 
1 0 0 1 1 1 
0 1 1 1 0 1 
Solution: 22 44
Classic Expectation: 14.666667
Initial Expecation: 10.312500
Gbest: 20.000000
Expectation: 11.633338
Final Parameters:
Gammas:
[ 4.396401 1.265797 1.046807 6.263551 3.922770 ]
Betas:
[ 2.577055 0.948672 2.360224 2.121693 1.350331 ]
Aggregate results:
[ 12 14 16 10 18 20 22 8 0 ]
[ 0.164524 0.172361 0.187195 0.055616 0.108813 0.060964 0.017327 0.016949 0.216250 ]
5
Num Evals 6000
GenUC: 2.830004e-04
GenUB: 7.237244e-05
Optimisation 1.791296e+01
Total Time: 1.791331e+01
3 Add 6
Graph 1:
0 1 0 1 1 1 
1 0 0 0 1 0 
0 0 0 1 1 1 
1 0 1 0 0 1 
1 1 1 0 0 1 
1 0 1 1 1 0 
Graph 2:
1 1 1 1 1 1 
1 1 1 1 1 1 
1 1 0 1 1 1 
1 1 1 0 1 1 
1 1 1 1 0 1 
1 1 1 1 1 0 
Solution: 24 0
Classic Expectation: 24.000000
Initial Expecation: 16.875000
Gbest: 24.000000
Expectation: 23.682968
Final Parameters:
Gammas:
[ 5.993364 4.477268 4.472481 1.611665 1.267895 ]
Betas:
[ 2.039934 0.259615 1.952315 1.501594 3.020361 ]
Aggregate results:
[ 24 0 ]
[ 0.986790 0.013210 ]
5
Num Evals 6000
GenUC: 2.811982e-04
GenUB: 7.035717e-05
Optimisation 1.707392e+01
Total Time: 1.707427e+01
4 Rem 6
Graph 1:
0 1 0 1 1 1 
1 0 0 0 1 0 
0 0 0 1 1 1 
1 0 1 0 0 1 
1 1 1 0 0 1 
1 0 1 1 1 0 
Graph 2:
0 0 0 0 0 0 
0 0 0 0 1 0 
0 0 0 0 1 0 
0 0 0 0 0 1 
0 1 1 0 0 1 
0 0 0 1 1 0 
Solution: 24 0
Classic Expectation: 18.666667
Initial Expecation: 13.125000
Gbest: 24.000000
Expectation: 19.032037
Final Parameters:
Gammas:
[ 6.020802 4.414889 3.479139 3.547733 5.546424 ]
Betas:
[ 2.622558 3.079227 1.236757 0.149791 2.981155 ]
Aggregate results:
[ 24 16 20 12 8 0 ]
[ 0.417908 0.137985 0.319783 0.028933 0.006453 0.088938 ]
5
Num Evals 6000
GenUC: 2.812305e-04
GenUB: 6.968470e-05
Optimisation 1.830497e+01
Total Time: 1.830532e+01
5 Add/Rem 6
Graph 1:
0 1 0 1 1 1 
1 0 0 0 1 0 
0 0 0 1 1 1 
1 0 1 0 0 1 
1 1 1 0 0 1 
1 0 1 1 1 0 
Graph 2:
1 0 1 0 0 0 
0 1 1 1 1 1 
1 1 0 0 1 0 
0 1 0 0 1 1 
0 1 1 1 0 1 
0 1 0 1 1 0 
Solution: 28 130
Classic Expectation: 20.000000
Initial Expecation: 14.062500
Gbest: 24.000000
Expectation: 18.923514
Final Parameters:
Gammas:
[ 6.261273 3.206631 3.966722 1.459305 6.178288 ]
Betas:
[ 1.882026 2.461092 0.885955 2.733513 2.810427 ]
Aggregate results:
[ 12 16 20 24 28 0 ]
[ 0.024941 0.206544 0.382713 0.260952 0.050086 0.074764 ]
5
Num Evals 6000
GenUC: 3.065960e-04
GenUB: 6.835198e-05
Optimisation 2.017040e+01
Total Time: 2.017078e+01
