Clock Speed: 3.688505
Num threads: 4
Trotterisation: 5
Num Qubits: 10
Space Dimension: 1024
Run-Type: 0
Num_samples: 6
Optimiser Method: 20
1 Isomorphic
Graph 1:
0 1 1 0 1 0 
1 0 0 1 0 0 
1 0 0 1 0 1 
0 1 1 0 1 1 
1 0 0 1 0 1 
0 0 1 1 1 0 
Graph 2:
0 1 1 0 1 0 
1 0 0 1 0 0 
1 0 0 1 0 1 
0 1 1 0 1 1 
1 0 0 1 0 1 
0 0 1 1 1 0 
Solution: 36 0
Classic Expectation: 21.600000
Initial Expecation: 15.187500
Gbest: 32.000000
Expectation: 18.344326
Final Parameters:
Gammas:
[ 5.817810 5.511466 0.035164 0.674534 5.244053 ]
Betas:
[ 1.528139 0.262615 1.277689 1.732793 0.857098 ]
Aggregate results:
[ 36 28 24 32 20 16 12 0 ]
[ 0.000692 0.114304 0.246758 0.011137 0.320130 0.144437 0.010563 0.151980 ]
5
Num Evals 6000
GenUC: 2.596463e-04
GenUB: 8.906511e-05
Optimisation 1.372011e+01
Total Time: 1.372049e+01
2 Flipped
Graph 1:
0 1 1 0 1 0 
1 0 0 1 0 0 
1 0 0 1 0 1 
0 1 1 0 1 1 
1 0 0 1 0 1 
0 0 1 1 1 0 
Graph 2:
0 1 0 1 1 0 
0 0 1 0 0 1 
1 0 1 0 0 1 
1 1 0 1 1 0 
1 0 1 0 0 1 
0 1 1 1 0 0 
Solution: 26 53
Classic Expectation: 19.200000
Initial Expecation: 13.500000
Gbest: 24.000000
Expectation: 14.933198
Final Parameters:
Gammas:
[ 3.748918 3.627052 1.560946 0.627655 2.290066 ]
Betas:
[ 2.778249 2.370367 2.503717 0.930737 1.116270 ]
Aggregate results:
[ 20 14 12 24 22 18 16 26 0 ]
[ 0.178435 0.060690 0.012622 0.094825 0.142644 0.189183 0.086452 0.006187 0.228961 ]
5
Num Evals 6000
GenUC: 2.795372e-04
GenUB: 7.017131e-05
Optimisation 1.848947e+01
Total Time: 1.848983e+01
3 Add 6
Graph 1:
0 1 1 0 1 0 
1 0 0 1 0 0 
1 0 0 1 0 1 
0 1 1 0 1 1 
1 0 0 1 0 1 
0 0 1 1 1 0 
Graph 2:
0 1 1 1 1 1 
1 1 1 1 1 0 
1 1 1 1 0 1 
1 1 1 0 1 1 
1 1 0 1 0 1 
1 0 1 1 1 0 
Solution: 26 0
Classic Expectation: 21.200000
Initial Expecation: 14.906250
Gbest: 22.000000
Expectation: 18.181038
Final Parameters:
Gammas:
[ 6.074252 5.598201 2.028306 5.089033 3.773210 ]
Betas:
[ 1.582820 3.017281 1.529601 0.763393 0.249481 ]
Aggregate results:
[ 26 22 18 0 ]
[ 0.142923 0.459649 0.241821 0.155608 ]
5
Num Evals 6000
GenUC: 2.821146e-04
GenUB: 7.374748e-05
Optimisation 1.718662e+01
Total Time: 1.718698e+01
4 Rem 6
Graph 1:
0 1 1 0 1 0 
1 0 0 1 0 0 
1 0 0 1 0 1 
0 1 1 0 1 1 
1 0 0 1 0 1 
0 0 1 1 1 0 
Graph 2:
0 0 0 0 0 0 
0 0 0 0 0 0 
0 0 0 0 0 0 
0 0 0 0 1 1 
0 0 0 1 0 1 
0 0 0 1 1 0 
Solution: 24 0
Classic Expectation: 19.200000
Initial Expecation: 13.500000
Gbest: 24.000000
Expectation: 17.090316
Final Parameters:
Gammas:
[ 3.717072 4.064641 5.230881 4.579730 6.283185 ]
Betas:
[ 0.941528 1.422558 3.044249 0.320709 3.038024 ]
Aggregate results:
[ 24 20 16 12 0 ]
[ 0.072507 0.671680 0.095716 0.032091 0.128006 ]
5
Num Evals 6000
GenUC: 2.796798e-04
GenUB: 6.566319e-05
Optimisation 1.724937e+01
Total Time: 1.724972e+01
5 Add/Rem 6
Graph 1:
0 1 1 0 1 0 
1 0 0 1 0 0 
1 0 0 1 0 1 
0 1 1 0 1 1 
1 0 0 1 0 1 
0 0 1 1 1 0 
Graph 2:
1 0 0 1 0 1 
0 1 1 0 1 1 
0 1 0 1 0 0 
1 0 1 0 1 1 
0 1 0 1 0 1 
1 1 0 1 1 0 
Solution: 30 144
Classic Expectation: 19.600000
Initial Expecation: 13.781250
Gbest: 26.000000
Expectation: 19.718407
Final Parameters:
Gammas:
[ 3.195431 6.181365 3.165855 1.009734 3.135952 ]
Betas:
[ 0.969758 3.141587 1.350149 2.852178 1.840004 ]
Aggregate results:
[ 14 18 22 26 30 10 0 ]
[ 0.078526 0.281665 0.390514 0.158123 0.026847 0.004116 0.060209 ]
5
Num Evals 6000
GenUC: 2.808429e-04
GenUB: 6.214977e-05
Optimisation 1.873270e+01
Total Time: 1.873304e+01
