Clock Speed: 3.688743
Num threads: 4
Trotterisation: 2
Graph Size: 8
Num Qubits: 16
Space Dimension: 65536
Run-Type: 0
Num_samples: 10
1 Isomorphic
Graph 1:
1 0 1 0 1 1 0 1 
0 1 0 1 1 0 1 0 
0 0 0 1 0 1 0 1 
0 1 0 1 0 0 1 0 
1 1 1 1 0 1 0 0 
0 0 0 0 1 1 1 0 
0 0 1 1 1 1 0 0 
0 1 1 1 0 1 1 1 
Graph 2:
1 0 1 0 1 1 0 1 
0 1 0 1 1 0 1 0 
0 0 0 1 0 1 0 1 
0 1 0 1 0 0 1 0 
1 1 1 1 0 1 0 0 
0 0 0 0 1 1 1 0 
0 0 1 1 1 1 0 0 
0 1 1 1 0 1 1 1 
Solution: 0 0
Gbest: -22.000000
Expectation: -42.441729
Final Parameters:
Gammas:
[ 1.915568 2.826905 ]
Betas:
[ 2.028198 2.439839 2.764060 ]
Aggregate results:
[ -1 13 19 15 11 17 23 5 25 27 33 31 29 21 35 37 39 9 7 43 41 45 47 49 63 ]
[ 0.000027 0.000103 0.003782 0.000629 0.000285 0.001619 0.023998 0.000021 0.048791 0.085129 0.111019 0.126282 0.112894 0.009176 0.075246 0.038485 0.020462 0.000025 0.000028 0.001892 0.006590 0.000284 0.000018 0.000036 0.333177 ]
5
Num Evals 800
GenUC: 3.548713e-03
GenUB: 1.784224e-02
Optimisation 2.107119e+02
Total Time: 2.110398e+02
2 Flipped
Graph 1:
1 0 1 0 1 1 0 1 
0 1 0 1 1 0 1 0 
0 0 0 1 0 1 0 1 
0 1 0 1 0 0 1 0 
1 1 1 1 0 1 0 0 
0 0 0 0 1 1 1 0 
0 0 1 1 1 1 0 0 
0 1 1 1 0 1 1 1 
Graph 2:
1 0 1 1 0 1 0 1 
0 1 0 1 1 0 1 0 
1 0 1 0 1 0 0 0 
0 1 0 0 1 0 1 0 
0 0 1 0 1 1 1 1 
0 1 1 1 0 0 0 0 
0 0 1 1 1 1 0 0 
1 1 1 0 1 1 1 0 
Solution: -16 4030
Gbest: -26.000000
Expectation: -42.921036
Final Parameters:
Gammas:
[ 2.065965 2.275656 ]
Betas:
[ 1.915249 2.629825 2.861015 ]
Aggregate results:
[ 25 35 33 31 23 29 37 27 39 21 17 19 41 43 15 45 49 47 63 ]
[ 0.054236 0.064059 0.094833 0.157313 0.024517 0.111598 0.051697 0.060354 0.021576 0.005986 0.000620 0.002003 0.005480 0.001671 0.000127 0.000340 0.000015 0.000074 0.343502 ]
5
Num Evals 1600
GenUC: 2.645313e-03
GenUB: 1.725141e-02
Optimisation 2.100895e+02
Total Time: 2.103804e+02
3 Add 8
Graph 1:
1 0 1 0 1 1 0 1 
0 1 0 1 1 0 1 0 
0 0 0 1 0 1 0 1 
0 1 0 1 0 0 1 0 
1 1 1 1 0 1 0 0 
0 0 0 0 1 1 1 0 
0 0 1 1 1 1 0 0 
0 1 1 1 0 1 1 1 
Graph 2:
1 0 1 1 1 1 1 1 
0 1 1 1 1 0 1 0 
0 0 1 1 0 1 0 1 
0 1 0 1 0 0 1 1 
1 1 1 1 0 1 0 1 
1 0 0 0 1 1 1 0 
0 0 1 1 1 1 0 0 
1 1 1 1 0 1 1 1 
Solution: -8 0
Gbest: -24.000000
Expectation: -41.846052
Final Parameters:
Gammas:
[ 2.612672 2.671360 ]
Betas:
[ 2.180871 2.437289 2.855685 ]
Aggregate results:
[ 7 13 19 21 15 17 25 27 23 29 31 33 35 37 39 11 41 43 45 63 ]
[ 0.000018 0.000109 0.002750 0.007361 0.000226 0.000952 0.052875 0.094256 0.023008 0.127881 0.129356 0.110744 0.072763 0.038089 0.015672 0.000015 0.004602 0.001139 0.000093 0.318092 ]
5
Num Evals 2400
GenUC: 3.006990e-03
GenUB: 1.753122e-02
Optimisation 2.079530e+02
Total Time: 2.082337e+02
4 Rem 8
Graph 1:
1 0 1 0 1 1 0 1 
0 1 0 1 1 0 1 0 
0 0 0 1 0 1 0 1 
0 1 0 1 0 0 1 0 
1 1 1 1 0 1 0 0 
0 0 0 0 1 1 1 0 
0 0 1 1 1 1 0 0 
0 1 1 1 0 1 1 1 
Graph 2:
1 0 1 0 1 1 0 0 
0 0 0 1 0 0 1 0 
0 0 0 1 0 1 0 1 
0 1 0 1 0 0 0 0 
0 1 0 1 0 1 0 0 
0 0 0 0 1 1 1 0 
0 0 1 1 1 1 0 0 
0 1 0 1 0 1 0 1 
Solution: -8 0
Gbest: -30.000000
Expectation: -41.924561
Final Parameters:
Gammas:
[ 1.456406 3.246453 ]
Betas:
[ 1.761633 2.186989 2.313554 ]
Aggregate results:
[ 7 19 27 17 25 21 23 11 29 31 33 35 13 15 37 39 41 43 45 47 63 ]
[ 0.000000 0.002859 0.079479 0.000657 0.042510 0.008056 0.019946 0.000011 0.117081 0.135290 0.124225 0.086135 0.000077 0.000262 0.046817 0.019674 0.005702 0.001096 0.000231 0.000004 0.309887 ]
5
Num Evals 3200
GenUC: 3.104596e-03
GenUB: 2.199578e-02
Optimisation 1.922055e+02
Total Time: 1.924637e+02
5 Add/Rem 8
Graph 1:
1 0 1 0 1 1 0 1 
0 1 0 1 1 0 1 0 
0 0 0 1 0 1 0 1 
0 1 0 1 0 0 1 0 
1 1 1 1 0 1 0 0 
0 0 0 0 1 1 1 0 
0 0 1 1 1 1 0 0 
0 1 1 1 0 1 1 1 
Graph 2:
1 1 1 1 1 1 0 1 
0 1 1 1 0 0 1 1 
0 0 0 1 0 1 0 0 
0 1 0 0 0 1 0 0 
1 0 1 0 0 1 0 1 
0 0 0 0 1 1 1 0 
0 1 1 0 1 1 0 0 
0 1 1 1 1 1 1 1 
Solution: -13 22760
Gbest: -23.000000
Expectation: -34.246072
Final Parameters:
Gammas:
[ 3.140960 3.147469 ]
Betas:
[ 2.352897 1.546491 2.340856 ]
Aggregate results:
[ 14 22 26 20 28 24 18 16 30 34 32 36 38 40 42 44 46 48 12 63 ]
[ 0.000053 0.016235 0.085383 0.005282 0.130439 0.038992 0.001874 0.000229 0.176205 0.145142 0.180789 0.087472 0.043338 0.014659 0.004930 0.000188 0.000015 0.000002 0.000003 0.068769 ]
5
Num Evals 4000
GenUC: 2.962427e-03
GenUB: 1.746770e-02
Optimisation 1.930746e+02
Total Time: 1.933295e+02
