Clock Speed: 3.688803
Num threads: 4
Trotterisation: 2
Graph Size: 8
Num Qubits: 16
Space Dimension: 65536
Run-Type: 0
Num_samples: 10
1 Isomorphic
Graph 1:
1 1 1 1 1 0 0 0 
0 0 1 0 1 1 1 0 
0 1 1 1 1 0 1 1 
1 0 0 1 1 1 0 1 
1 1 1 0 0 1 1 1 
1 0 0 1 0 1 1 0 
0 1 1 0 0 1 1 1 
0 0 1 0 1 1 1 1 
Graph 2:
1 1 1 1 1 0 0 0 
0 0 1 0 1 1 1 0 
0 1 1 1 1 0 1 1 
1 0 0 1 1 1 0 1 
1 1 1 0 0 1 1 1 
1 0 0 1 0 1 1 0 
0 1 1 0 0 1 1 1 
0 0 1 0 1 1 1 1 
Solution: 0 0
Gbest: -24.000000
Expectation: -41.667310
Final Parameters:
Gammas:
[ 2.116114 3.815951 ]
Betas:
[ 2.245735 2.095606 1.603073 ]
Aggregate results:
[ -1 17 21 9 15 19 25 23 27 11 31 33 29 13 35 39 37 41 43 45 5 63 ]
[ 0.000029 0.002249 0.020572 0.000107 0.000868 0.008680 0.082329 0.049345 0.106930 0.000227 0.110199 0.070815 0.135827 0.000426 0.041510 0.004426 0.014708 0.001269 0.000034 0.000019 0.000006 0.349426 ]
3
Num Evals 667
GenUC: 3.563639e-03
GenUB: 1.804963e-02
Optimisation 1.552438e+02
Total Time: 1.554913e+02
2 Flipped
Graph 1:
1 1 1 1 1 0 0 0 
0 0 1 0 1 1 1 0 
0 1 1 1 1 0 1 1 
1 0 0 1 1 1 0 1 
1 1 1 0 0 1 1 1 
1 0 0 1 0 1 1 0 
0 1 1 0 0 1 1 1 
0 0 1 0 1 1 1 1 
Graph 2:
0 0 0 1 1 1 1 1 
0 1 1 1 0 1 0 0 
1 1 0 1 1 1 1 0 
1 0 1 1 1 0 0 1 
1 1 1 0 0 1 1 1 
0 1 1 0 1 0 0 1 
1 1 1 0 0 1 1 0 
1 1 1 1 0 1 0 0 
Solution: -14 8688
Gbest: -26.000000
Expectation: -40.912791
Final Parameters:
Gammas:
[ 1.724243 3.236822 ]
Betas:
[ 1.418029 2.222496 2.256545 ]
Aggregate results:
[ 31 27 29 25 33 39 35 37 41 45 23 43 21 19 17 15 13 63 ]
[ 0.130532 0.113104 0.135078 0.072339 0.094330 0.008084 0.054770 0.026444 0.002283 0.000011 0.034702 0.000286 0.014011 0.003984 0.000737 0.000155 0.000051 0.309099 ]
5
Num Evals 1467
GenUC: 2.622876e-03
GenUB: 1.731711e-02
Optimisation 1.847486e+02
Total Time: 1.850424e+02
3 Add 8
Graph 1:
1 1 1 1 1 0 0 0 
0 0 1 0 1 1 1 0 
0 1 1 1 1 0 1 1 
1 0 0 1 1 1 0 1 
1 1 1 0 0 1 1 1 
1 0 0 1 0 1 1 0 
0 1 1 0 0 1 1 1 
0 0 1 0 1 1 1 1 
Graph 2:
1 1 1 1 1 0 1 1 
0 0 1 1 1 1 1 0 
1 1 1 1 1 0 1 1 
1 0 0 1 1 1 0 1 
1 1 1 0 1 1 1 1 
1 1 0 1 0 1 1 0 
1 1 1 1 0 1 1 1 
0 0 1 0 1 1 1 1 
Solution: -8 0
Gbest: -24.000000
Expectation: -39.142505
Final Parameters:
Gammas:
[ 1.621717 3.228984 ]
Betas:
[ 2.077977 2.256743 2.337920 ]
Aggregate results:
[ 7 15 21 17 23 27 25 19 29 31 33 35 13 37 11 39 63 ]
[ 0.000027 0.000854 0.043704 0.003435 0.089244 0.149999 0.135860 0.014391 0.126493 0.078015 0.031988 0.008864 0.000142 0.001584 0.000008 0.000086 0.315307 ]
5
Num Evals 2267
GenUC: 2.985354e-03
GenUB: 1.713601e-02
Optimisation 1.995645e+02
Total Time: 1.998335e+02
4 Rem 8
Graph 1:
1 1 1 1 1 0 0 0 
0 0 1 0 1 1 1 0 
0 1 1 1 1 0 1 1 
1 0 0 1 1 1 0 1 
1 1 1 0 0 1 1 1 
1 0 0 1 0 1 1 0 
0 1 1 0 0 1 1 1 
0 0 1 0 1 1 1 1 
Graph 2:
1 1 1 0 1 0 0 0 
0 0 1 0 1 1 1 0 
0 1 0 1 1 0 1 1 
1 0 0 1 1 1 0 1 
1 1 0 0 0 1 1 0 
1 0 0 0 0 1 1 0 
0 1 1 0 0 1 1 1 
0 0 1 0 1 0 0 1 
Solution: -7 0
Gbest: -23.000000
Expectation: -33.670643
Final Parameters:
Gammas:
[ 3.139387 3.145870 ]
Betas:
[ 2.363755 1.553274 2.350923 ]
Aggregate results:
[ 6 22 26 14 28 24 30 20 18 34 36 32 16 38 40 42 44 46 12 63 ]
[ 0.000001 0.022070 0.099481 0.000145 0.151215 0.055460 0.181312 0.006751 0.001661 0.124174 0.071917 0.167679 0.000237 0.033202 0.012015 0.003028 0.000475 0.000099 0.000000 0.069077 ]
5
Num Evals 3067
GenUC: 3.057912e-03
GenUB: 1.716874e-02
Optimisation 1.903139e+02
Total Time: 1.905598e+02
5 Add/Rem 8
Graph 1:
1 1 1 1 1 0 0 0 
0 0 1 0 1 1 1 0 
0 1 1 1 1 0 1 1 
1 0 0 1 1 1 0 1 
1 1 1 0 0 1 1 1 
1 0 0 1 0 1 1 0 
0 1 1 0 0 1 1 1 
0 0 1 0 1 1 1 1 
Graph 2:
1 1 1 1 0 0 0 1 
0 0 1 0 1 1 1 0 
0 1 1 1 1 1 1 1 
1 0 0 0 0 1 0 1 
1 0 0 1 0 0 1 1 
0 0 0 0 1 1 1 0 
0 1 1 1 1 1 1 1 
0 0 1 1 1 1 1 1 
Solution: -15 0
Gbest: -27.000000
Expectation: -32.396128
Final Parameters:
Gammas:
[ 3.137847 3.144244 ]
Betas:
[ 2.352252 1.552301 2.363029 ]
Aggregate results:
[ 14 30 34 22 26 24 28 20 32 18 16 38 36 40 44 42 63 ]
[ 0.000083 0.201350 0.081959 0.029128 0.147793 0.075786 0.195906 0.008540 0.143180 0.002251 0.000725 0.009698 0.032182 0.001934 0.000005 0.000302 0.069177 ]
5
Num Evals 3867
GenUC: 2.922051e-03
GenUB: 1.671594e-02
Optimisation 1.863925e+02
Total Time: 1.866389e+02
