Clock Speed: 3.498630
Num threads: 16
Trotterisation: 1
Num Qubits: 5
Space Dimension: 32
Run-Type: 0
Num_samples: 16
Optimiser Method: 33
1 Isomorphic
Graph 1:
1 0 1 0 
1 0 0 1 
0 1 1 0 
0 0 1 0 
Graph 2:
1 0 1 0 
1 0 0 1 
0 1 1 0 
0 0 1 0 
Solution: 16 0
Classic Expectation: 8.166667
Initial Expecation: 6.125000
Gbest: 16.000000
Expectation: 6.125000
Final Parameters:
Gammas:
[ 3.141593 ]
Betas:
[ 1.570796 ]
Aggregate results:
[ 16 6 4 10 8 14 2 0 ]
[ 0.031250 0.218750 0.031250 0.218750 0.187500 0.031250 0.031250 0.250000 ]
4
Num Evals 3
GenUC: 2.621347e-05
GenUB: 3.060326e-05
Optimisation 3.452892e-04
Total Time: 4.211576e-04
2 Flipped
Graph 1:
1 0 1 0 
1 0 0 1 
0 1 1 0 
0 0 1 0 
Graph 2:
0 1 0 1 
1 0 0 1 
0 1 1 0 
0 1 0 0 
Solution: 12 12
Classic Expectation: 8.000000
Initial Expecation: 6.000000
Gbest: 10.000000
Expectation: 6.000000
Final Parameters:
Gammas:
[ 3.141593 ]
Betas:
[ 1.570796 ]
Aggregate results:
[ 10 8 6 12 0 ]
[ 0.187500 0.281250 0.250000 0.031250 0.250000 ]
4
Num Evals 3
GenUC: 1.031486e-05
GenUB: 1.420267e-06
Optimisation 1.096232e-04
Total Time: 1.225732e-04
3 Add 4
Graph 1:
1 0 1 0 
1 0 0 1 
0 1 1 0 
0 0 1 0 
Graph 2:
1 0 1 0 
1 1 0 1 
1 1 1 0 
0 0 1 0 
Solution: 14 0
Classic Expectation: 8.000000
Initial Expecation: 6.000000
Gbest: 14.000000
Expectation: 6.000000
Final Parameters:
Gammas:
[ 3.141593 ]
Betas:
[ 1.570796 ]
Aggregate results:
[ 14 4 6 10 8 12 0 ]
[ 0.031250 0.093750 0.218750 0.250000 0.125000 0.031250 0.250000 ]
4
Num Evals 3
GenUC: 9.904616e-06
GenUB: 1.087319e-06
Optimisation 1.081917e-04
Total Time: 1.212703e-04
4 Rem 4
Graph 1:
1 0 1 0 
1 0 0 1 
0 1 1 0 
0 0 1 0 
Graph 2:
0 0 1 0 
1 0 0 0 
0 0 1 0 
0 0 1 0 
Solution: 13 0
Classic Expectation: 8.500000
Initial Expecation: 6.375000
Gbest: 13.000000
Expectation: 6.375000
Final Parameters:
Gammas:
[ 3.141593 ]
Betas:
[ 1.570796 ]
Aggregate results:
[ 13 7 5 9 11 0 ]
[ 0.062500 0.187500 0.093750 0.343750 0.062500 0.250000 ]
4
Num Evals 3
GenUC: 9.940006e-06
GenUB: 1.041219e-06
Optimisation 1.103822e-04
Total Time: 1.221551e-04
5 Add/Rem 4
Graph 1:
1 0 1 0 
1 0 0 1 
0 1 1 0 
0 0 1 0 
Graph 2:
1 0 1 1 
1 1 0 0 
0 1 0 1 
0 1 1 0 
Solution: 12 8
Classic Expectation: 7.833333
Initial Expecation: 5.875000
Gbest: 12.000000
Expectation: 5.875000
Final Parameters:
Gammas:
[ 3.141593 ]
Betas:
[ 1.570796 ]
Aggregate results:
[ 10 8 6 12 4 2 0 ]
[ 0.125000 0.250000 0.125000 0.125000 0.062500 0.062500 0.250000 ]
4
Num Evals 3
GenUC: 9.824056e-06
GenUB: 1.024455e-06
Optimisation 1.080721e-04
Total Time: 1.197630e-04
