Clock Speed: 3.498870
Num threads: 16
Trotterisation: 2
Num Qubits: 16
Space Dimension: 65536
Run-Type: 0
Num_samples: 64
Optimiser Method: 0
1 Isomorphic
Graph 1:
1 0 1 0 0 0 1 1 
1 1 0 0 0 0 1 0 
1 1 0 0 0 0 0 0 
0 0 0 1 0 1 1 0 
1 1 0 1 1 0 1 1 
1 0 0 0 0 1 0 0 
0 0 0 1 0 0 0 0 
0 0 0 1 1 1 1 0 
Graph 2:
1 0 1 0 0 0 1 1 
1 1 0 0 0 0 1 0 
1 1 0 0 0 0 0 0 
0 0 0 1 0 1 1 0 
1 1 0 1 1 0 1 1 
1 0 0 0 0 1 0 0 
0 0 0 1 0 0 0 0 
0 0 0 1 1 1 1 0 
Solution: 64 0
Classic Expectation: 34.535714
Initial Expecation: 21.247559
Gbest: 50.000000
Expectation: 27.452834
Final Parameters:
Gammas:
[ 6.151943 4.312593 ]
Betas:
[ 1.709896 2.094395 ]
Aggregate results:
[ 64 54 52 44 46 38 48 32 40 42 34 36 50 56 30 26 20 24 28 22 18 0 ]
[ 0.000004 0.000138 0.000102 0.007263 0.002802 0.104021 0.000941 0.140892 0.052314 0.023161 0.172187 0.156213 0.000317 0.000035 0.082805 0.012613 0.000020 0.002203 0.037484 0.000385 0.000018 0.204083 ]
3
Num Evals 1165
GenUC: 1.900280e-02
GenUB: 1.293890e-02
Optimisation 2.251857e+02
Total Time: 2.252176e+02
2 Flipped
Graph 1:
1 0 1 0 0 0 1 1 
1 1 0 0 0 0 1 0 
1 1 0 0 0 0 0 0 
0 0 0 1 0 1 1 0 
1 1 0 1 1 0 1 1 
1 0 0 0 0 1 0 0 
0 0 0 1 0 0 0 0 
0 0 0 1 1 1 1 0 
Graph 2:
1 1 0 0 0 1 0 1 
0 1 0 0 0 0 1 1 
0 0 0 0 0 0 1 1 
0 1 1 0 1 0 0 0 
1 1 0 1 1 0 1 1 
0 0 1 0 0 0 0 1 
0 0 0 0 1 0 0 0 
0 1 1 1 1 0 0 0 
Solution: 48 21147
Classic Expectation: 33.464286
Initial Expecation: 20.588379
Gbest: 42.000000
Expectation: 26.887006
Final Parameters:
Gammas:
[ 1.037142 5.238666 ]
Betas:
[ 0.116355 2.536832 ]
Aggregate results:
[ 38 36 32 34 30 24 26 28 40 44 42 46 22 20 48 18 0 ]
[ 0.081349 0.141923 0.153418 0.167859 0.108227 0.008212 0.023022 0.059713 0.037869 0.003513 0.014123 0.000736 0.002171 0.000254 0.000112 0.000051 0.197447 ]
3
Num Evals 1669
GenUC: 2.337580e-02
GenUB: 1.381077e-02
Optimisation 2.857755e+02
Total Time: 2.858126e+02
3 Add 8
Graph 1:
1 0 1 0 0 0 1 1 
1 1 0 0 0 0 1 0 
1 1 0 0 0 0 0 0 
0 0 0 1 0 1 1 0 
1 1 0 1 1 0 1 1 
1 0 0 0 0 1 0 0 
0 0 0 1 0 0 0 0 
0 0 0 1 1 1 1 0 
Graph 2:
1 0 1 1 0 0 1 1 
1 1 1 1 0 0 1 0 
1 1 0 0 0 0 0 0 
1 1 0 1 0 1 1 0 
1 1 0 1 1 0 1 1 
1 0 0 0 0 1 0 0 
0 0 0 1 1 1 0 0 
0 0 0 1 1 1 1 0 
Solution: 57 0
Classic Expectation: 32.535714
Initial Expecation: 20.017090
Gbest: 39.000000
Expectation: 27.000980
Final Parameters:
Gammas:
[ 3.124019 3.381486 ]
Betas:
[ 2.753742 0.775702 ]
Aggregate results:
[ 57 51 45 37 41 39 47 35 33 43 29 31 49 55 27 23 25 21 19 0 ]
[ 0.000054 0.000115 0.001445 0.083702 0.014469 0.039540 0.000399 0.132256 0.170291 0.005063 0.117241 0.167133 0.000083 0.000010 0.064369 0.007818 0.026896 0.001525 0.000097 0.167495 ]
3
Num Evals 1443
GenUC: 2.395164e-02
GenUB: 1.360806e-02
Optimisation 2.694292e+02
Total Time: 2.694668e+02
4 Rem 8
Graph 1:
1 0 1 0 0 0 1 1 
1 1 0 0 0 0 1 0 
1 1 0 0 0 0 0 0 
0 0 0 1 0 1 1 0 
1 1 0 1 1 0 1 1 
1 0 0 0 0 1 0 0 
0 0 0 1 0 0 0 0 
0 0 0 1 1 1 1 0 
Graph 2:
1 0 1 0 0 0 1 0 
1 1 0 0 0 0 1 0 
1 1 0 0 0 0 0 0 
0 0 0 1 0 1 1 0 
1 0 0 1 1 0 1 1 
1 0 0 0 0 1 0 0 
0 0 0 1 0 0 0 0 
0 0 0 1 0 0 0 0 
Solution: 59 0
Classic Expectation: 35.964286
Initial Expecation: 22.126465
Gbest: 47.000000
Expectation: 29.529675
Final Parameters:
Gammas:
[ 2.921810 3.154521 ]
Betas:
[ 2.479373 0.993090 ]
Aggregate results:
[ 59 55 47 45 49 51 43 41 37 39 53 31 33 35 29 25 27 23 0 ]
[ 0.000030 0.000037 0.002130 0.008650 0.000478 0.000112 0.027665 0.074791 0.179775 0.136229 0.000015 0.063819 0.116462 0.168372 0.026104 0.001953 0.009617 0.000251 0.183510 ]
3
Num Evals 1129
GenUC: 2.395257e-02
GenUB: 1.407316e-02
Optimisation 2.068464e+02
Total Time: 2.068844e+02
5 Add/Rem 8
Graph 1:
1 0 1 0 0 0 1 1 
1 1 0 0 0 0 1 0 
1 1 0 0 0 0 0 0 
0 0 0 1 0 1 1 0 
1 1 0 1 1 0 1 1 
1 0 0 0 0 1 0 0 
0 0 0 1 0 0 0 0 
0 0 0 1 1 1 1 0 
Graph 2:
1 0 1 0 0 1 1 1 
1 1 1 0 0 0 1 0 
0 0 0 0 0 0 1 0 
0 0 0 1 0 1 1 0 
0 1 1 1 0 0 1 1 
1 0 1 0 0 0 0 1 
0 1 0 1 0 0 0 0 
0 0 0 0 1 1 0 0 
Solution: 50 0
Classic Expectation: 33.464286
Initial Expecation: 20.588379
Gbest: 44.000000
Expectation: 26.744375
Final Parameters:
Gammas:
[ 1.541293 0.134689 ]
Betas:
[ 1.745328 2.511284 ]
Aggregate results:
[ 50 42 38 34 32 40 36 44 30 28 26 46 48 24 22 20 0 ]
[ 0.000078 0.015343 0.084050 0.158749 0.150022 0.040845 0.129745 0.004841 0.113355 0.063574 0.027718 0.001289 0.000318 0.006929 0.001813 0.000212 0.201119 ]
3
Num Evals 923
GenUC: 2.396440e-02
GenUB: 1.369369e-02
Optimisation 1.801061e+02
Total Time: 1.801438e+02
