Clock Speed: 3.498624
Num threads: 16
Trotterisation: 2
Num Qubits: 16
Space Dimension: 65536
Run-Type: 0
Num_samples: 64
Optimiser Method: 0
1 Isomorphic
Graph 1:
0 1 1 1 0 0 1 1 
1 1 1 1 0 0 1 0 
1 1 1 0 0 0 1 0 
1 1 0 0 1 0 0 1 
0 0 0 1 0 1 1 1 
0 0 0 0 1 0 1 0 
1 1 1 0 1 1 1 0 
1 0 0 1 1 0 0 1 
Graph 2:
0 1 1 1 0 0 1 1 
1 1 1 1 0 0 1 0 
1 1 1 0 0 0 1 0 
1 1 0 0 1 0 0 1 
0 0 0 1 0 1 1 1 
0 0 0 0 1 0 1 0 
1 1 1 0 1 1 1 0 
1 0 0 1 1 0 0 1 
Solution: 64 0
Classic Expectation: 32.142857
Initial Expecation: 19.775391
Gbest: 48.000000
Expectation: 25.715445
Final Parameters:
Gammas:
[ 5.236135 1.038419 ]
Betas:
[ 0.116355 2.533960 ]
Aggregate results:
[ 64 48 50 42 56 44 38 46 32 36 34 30 40 28 52 58 26 24 20 22 60 18 54 16 14 0 ]
[ 0.000013 0.002638 0.000973 0.021069 0.000092 0.013537 0.058637 0.005429 0.125348 0.091597 0.096319 0.096515 0.041480 0.099502 0.000444 0.000064 0.064115 0.049706 0.009257 0.023423 0.000011 0.002943 0.000054 0.000401 0.000102 0.196332 ]
3
Num Evals 1717
GenUC: 1.833224e-02
GenUB: 1.327960e-02
Optimisation 3.030285e+02
Total Time: 3.030602e+02
2 Flipped
Graph 1:
0 1 1 1 0 0 1 1 
1 1 1 1 0 0 1 0 
1 1 1 0 0 0 1 0 
1 1 0 0 1 0 0 1 
0 0 0 1 0 1 1 1 
0 0 0 0 1 0 1 0 
1 1 1 0 1 1 1 0 
1 0 0 1 1 0 0 1 
Graph 2:
1 1 0 0 1 1 1 0 
0 1 0 0 1 1 1 1 
0 1 0 0 0 1 1 1 
1 0 0 1 0 0 1 1 
1 1 1 0 1 0 0 0 
0 1 0 1 0 0 0 0 
0 1 1 1 0 1 1 1 
1 0 0 1 1 0 0 1 
Solution: 46 2113
Classic Expectation: 32.000000
Initial Expecation: 19.687500
Gbest: 42.000000
Expectation: 25.730859
Final Parameters:
Gammas:
[ 5.237318 1.037142 ]
Betas:
[ 0.116355 2.533960 ]
Aggregate results:
[ 28 22 24 20 26 30 32 40 36 34 38 18 42 44 46 0 ]
[ 0.095321 0.009633 0.024117 0.002499 0.058292 0.128702 0.154297 0.022319 0.102704 0.139305 0.057625 0.000293 0.007683 0.001367 0.000058 0.195785 ]
3
Num Evals 2337
GenUC: 4.377636e-02
GenUB: 1.656342e-02
Optimisation 4.066663e+02
Total Time: 4.067266e+02
3 Add 8
Graph 1:
0 1 1 1 0 0 1 1 
1 1 1 1 0 0 1 0 
1 1 1 0 0 0 1 0 
1 1 0 0 1 0 0 1 
0 0 0 1 0 1 1 1 
0 0 0 0 1 0 1 0 
1 1 1 0 1 1 1 0 
1 0 0 1 1 0 0 1 
Graph 2:
1 1 1 1 1 1 1 1 
1 1 1 1 1 0 1 1 
1 1 1 1 0 0 1 1 
1 1 1 1 1 1 1 1 
1 1 0 1 0 1 1 1 
1 0 0 1 1 0 1 0 
1 1 1 1 1 1 1 0 
1 1 1 1 1 0 0 1 
Solution: 46 0
Classic Expectation: 33.285714
Initial Expecation: 20.478516
Gbest: 44.000000
Expectation: 22.247088
Final Parameters:
Gammas:
[ 5.235988 1.047198 ]
Betas:
[ 1.570796 0.523599 ]
Aggregate results:
[ 46 42 36 40 32 34 26 28 30 38 44 24 22 0 ]
[ 0.002191 0.016909 0.112778 0.041268 0.150291 0.094022 0.032498 0.066715 0.077447 0.056067 0.005516 0.009213 0.004026 0.331058 ]
3
Num Evals 19
GenUC: 4.454042e-02
GenUB: 1.559976e-02
Optimisation 3.613267e+00
Total Time: 3.673413e+00
4 Rem 8
Graph 1:
0 1 1 1 0 0 1 1 
1 1 1 1 0 0 1 0 
1 1 1 0 0 0 1 0 
1 1 0 0 1 0 0 1 
0 0 0 1 0 1 1 1 
0 0 0 0 1 0 1 0 
1 1 1 0 1 1 1 0 
1 0 0 1 1 0 0 1 
Graph 2:
0 0 0 0 0 0 0 0 
0 1 0 0 0 0 1 0 
0 0 1 0 0 0 1 0 
0 0 0 0 0 0 0 1 
0 0 0 0 0 0 1 1 
0 0 0 0 0 0 1 0 
0 1 1 0 1 1 1 0 
0 0 0 1 1 0 0 1 
Solution: 46 0
Classic Expectation: 30.857143
Initial Expecation: 18.984375
Gbest: 42.000000
Expectation: 25.146494
Final Parameters:
Gammas:
[ 6.140339 0.343101 ]
Betas:
[ 1.706544 2.210751 ]
Aggregate results:
[ 46 30 36 28 42 32 24 26 40 38 34 44 22 20 18 16 14 0 ]
[ 0.000248 0.155777 0.068874 0.108401 0.006891 0.125892 0.043457 0.090684 0.018419 0.046741 0.119322 0.001703 0.018427 0.007331 0.001231 0.000525 0.000070 0.186006 ]
3
Num Evals 1095
GenUC: 4.456098e-02
GenUB: 1.616404e-02
Optimisation 2.157911e+02
Total Time: 2.158519e+02
5 Add/Rem 8
Graph 1:
0 1 1 1 0 0 1 1 
1 1 1 1 0 0 1 0 
1 1 1 0 0 0 1 0 
1 1 0 0 1 0 0 1 
0 0 0 1 0 1 1 1 
0 0 0 0 1 0 1 0 
1 1 1 0 1 1 1 0 
1 0 0 1 1 0 0 1 
Graph 2:
0 0 0 0 1 1 0 0 
0 1 1 1 1 0 0 1 
0 1 1 1 0 0 1 0 
0 1 1 1 0 1 1 1 
1 1 0 0 0 0 1 1 
1 0 0 1 0 0 1 0 
0 0 1 1 1 1 1 0 
0 1 0 1 1 0 0 1 
Solution: 55 16950
Classic Expectation: 32.000000
Initial Expecation: 19.687500
Gbest: 49.000000
Expectation: 25.714359
Final Parameters:
Gammas:
[ 3.117492 3.383184 ]
Betas:
[ 2.753742 0.814486 ]
Aggregate results:
[ 33 29 31 27 35 39 41 37 45 43 23 25 19 21 47 49 17 51 13 15 53 55 11 0 ]
[ 0.115331 0.105614 0.103636 0.071612 0.095830 0.058699 0.028035 0.070513 0.006785 0.020525 0.029898 0.060222 0.006888 0.020646 0.003834 0.001052 0.004006 0.000551 0.000628 0.000873 0.000001 0.000044 0.000041 0.194735 ]
3
Num Evals 1015
GenUC: 4.459761e-02
GenUB: 1.581167e-02
Optimisation 1.914565e+02
Total Time: 1.915169e+02
