Clock Speed: 3.498807
Num threads: 16
Trotterisation: 2
Num Qubits: 16
Space Dimension: 65536
Run-Type: 0
Num_samples: 64
Optimiser Method: 0
1 Isomorphic
Graph 1:
0 0 1 0 0 1 0 0 
0 0 0 1 1 1 1 1 
0 1 0 0 0 1 1 1 
1 1 0 1 1 0 0 0 
1 0 1 0 1 1 1 0 
1 1 1 0 1 1 0 1 
1 1 0 1 0 0 1 1 
1 1 0 1 0 1 1 0 
Graph 2:
0 0 1 0 0 1 0 0 
0 0 0 1 1 1 1 1 
0 1 0 0 0 1 1 1 
1 1 0 1 1 0 0 0 
1 0 1 0 1 1 1 0 
1 1 1 0 1 1 0 1 
1 1 0 1 0 0 1 1 
1 1 0 1 0 1 1 0 
Solution: 64 0
Classic Expectation: 32.571429
Initial Expecation: 20.039062
Gbest: 44.000000
Expectation: 25.613413
Final Parameters:
Gammas:
[ 6.143827 5.394159 ]
Betas:
[ 1.719470 2.094396 ]
Aggregate results:
[ 64 56 48 50 52 44 40 42 46 38 54 32 34 36 30 28 26 24 22 58 20 18 0 ]
[ 0.000002 0.000019 0.000445 0.000325 0.000101 0.004469 0.027513 0.012313 0.001526 0.053766 0.000023 0.155496 0.134727 0.097114 0.143839 0.094368 0.044270 0.016260 0.003608 0.000044 0.000245 0.000130 0.209399 ]
3
Num Evals 1079
GenUC: 1.831917e-02
GenUB: 1.341894e-02
Optimisation 1.904705e+02
Total Time: 1.905022e+02
2 Flipped
Graph 1:
0 0 1 0 0 1 0 0 
0 0 0 1 1 1 1 1 
0 1 0 0 0 1 1 1 
1 1 0 1 1 0 0 0 
1 0 1 0 1 1 1 0 
1 1 1 0 1 1 0 1 
1 1 0 1 0 0 1 1 
1 1 0 1 0 1 1 0 
Graph 2:
0 0 1 0 0 1 0 0 
1 1 1 1 1 0 0 0 
1 1 1 0 0 0 1 0 
0 0 0 1 1 0 1 1 
0 1 1 1 0 1 0 1 
1 0 1 1 0 1 1 1 
1 1 0 0 1 0 1 1 
0 1 1 0 1 0 1 1 
Solution: 48 2400
Classic Expectation: 32.285714
Initial Expecation: 19.863281
Gbest: 42.000000
Expectation: 26.335535
Final Parameters:
Gammas:
[ 5.949601 0.140775 ]
Betas:
[ 1.745329 2.365891 ]
Aggregate results:
[ 32 34 30 36 28 38 22 24 26 40 42 44 48 46 20 18 16 0 ]
[ 0.157001 0.144887 0.137777 0.102493 0.093360 0.058922 0.007666 0.023746 0.050009 0.027658 0.009464 0.002077 0.000110 0.000405 0.002148 0.000450 0.000013 0.181814 ]
3
Num Evals 1405
GenUC: 2.287670e-02
GenUB: 1.354585e-02
Optimisation 2.545052e+02
Total Time: 2.545416e+02
3 Add 8
Graph 1:
0 0 1 0 0 1 0 0 
0 0 0 1 1 1 1 1 
0 1 0 0 0 1 1 1 
1 1 0 1 1 0 0 0 
1 0 1 0 1 1 1 0 
1 1 1 0 1 1 0 1 
1 1 0 1 0 0 1 1 
1 1 0 1 0 1 1 0 
Graph 2:
0 1 1 0 1 1 0 0 
0 1 1 1 1 1 1 1 
0 1 0 0 1 1 1 1 
1 1 0 1 1 0 0 0 
1 0 1 1 1 1 1 0 
1 1 1 1 1 1 0 1 
1 1 0 1 0 0 1 1 
1 1 0 1 0 1 1 1 
Solution: 56 0
Classic Expectation: 33.428571
Initial Expecation: 20.566406
Gbest: 42.000000
Expectation: 26.813962
Final Parameters:
Gammas:
[ 1.048634 5.226039 ]
Betas:
[ 0.116355 2.533960 ]
Aggregate results:
[ 56 50 44 46 40 38 42 48 34 36 32 30 28 26 24 22 20 52 0 ]
[ 0.000023 0.000222 0.004794 0.001611 0.037525 0.072319 0.014381 0.000499 0.165446 0.123393 0.164340 0.122939 0.065128 0.023985 0.006296 0.001037 0.000027 0.000066 0.195969 ]
3
Num Evals 1911
GenUC: 2.338791e-02
GenUB: 1.364140e-02
Optimisation 2.973496e+02
Total Time: 2.973867e+02
4 Rem 8
Graph 1:
0 0 1 0 0 1 0 0 
0 0 0 1 1 1 1 1 
0 1 0 0 0 1 1 1 
1 1 0 1 1 0 0 0 
1 0 1 0 1 1 1 0 
1 1 1 0 1 1 0 1 
1 1 0 1 0 0 1 1 
1 1 0 1 0 1 1 0 
Graph 2:
0 0 0 0 0 0 0 0 
0 0 0 1 1 1 1 1 
0 1 0 0 0 1 1 0 
1 1 0 1 1 0 0 0 
1 0 0 0 0 0 1 0 
1 1 1 0 1 1 0 1 
1 1 0 1 0 0 1 1 
1 1 0 0 0 1 0 0 
Solution: 56 0
Classic Expectation: 31.571429
Initial Expecation: 19.423828
Gbest: 48.000000
Expectation: 26.176054
Final Parameters:
Gammas:
[ 6.140193 0.342071 ]
Betas:
[ 1.706545 2.249538 ]
Aggregate results:
[ 56 48 50 46 44 42 40 38 36 32 34 30 28 26 24 22 20 18 16 0 ]
[ 0.000007 0.000182 0.000069 0.000723 0.001896 0.005215 0.015116 0.038159 0.081150 0.165098 0.130048 0.171831 0.123849 0.067794 0.024370 0.006755 0.001303 0.000110 0.000002 0.166323 ]
3
Num Evals 855
GenUC: 2.341529e-02
GenUB: 1.374880e-02
Optimisation 1.510215e+02
Total Time: 1.510587e+02
5 Add/Rem 8
Graph 1:
0 0 1 0 0 1 0 0 
0 0 0 1 1 1 1 1 
0 1 0 0 0 1 1 1 
1 1 0 1 1 0 0 0 
1 0 1 0 1 1 1 0 
1 1 1 0 1 1 0 1 
1 1 0 1 0 0 1 1 
1 1 0 1 0 1 1 0 
Graph 2:
0 0 1 1 0 1 1 0 
0 1 0 1 1 1 1 1 
0 1 0 1 0 1 1 1 
0 1 0 1 1 0 1 0 
1 0 0 0 0 0 1 0 
1 1 0 0 1 0 1 0 
1 1 0 1 1 0 1 1 
1 1 0 1 0 1 1 1 
Solution: 49 0
Classic Expectation: 32.714286
Initial Expecation: 20.126953
Gbest: 41.000000
Expectation: 26.693450
Final Parameters:
Gammas:
[ 3.128665 3.383586 ]
Betas:
[ 2.783909 0.711060 ]
Aggregate results:
[ 49 47 41 43 39 37 45 35 33 31 29 27 25 23 21 19 0 ]
[ 0.000012 0.000179 0.015984 0.005423 0.039673 0.081377 0.001101 0.131393 0.164945 0.164380 0.121031 0.063910 0.025803 0.006370 0.000988 0.000135 0.177294 ]
3
Num Evals 1183
GenUC: 2.339304e-02
GenUB: 1.379314e-02
Optimisation 1.999578e+02
Total Time: 1.999950e+02
