Clock Speed: 3.498818
Num threads: 16
Trotterisation: 2
Num Qubits: 16
Space Dimension: 65536
Run-Type: 0
Num_samples: 64
Optimiser Method: 0
1 Isomorphic
Graph 1:
1 0 0 1 0 0 0 0 
0 1 0 0 1 1 0 1 
1 0 0 1 1 0 0 1 
1 0 1 1 1 1 0 1 
0 0 1 0 0 1 0 0 
0 1 0 1 0 1 1 1 
1 1 1 1 1 1 1 0 
0 1 1 0 1 0 1 1 
Graph 2:
1 0 0 1 0 0 0 0 
0 1 0 0 1 1 0 1 
1 0 0 1 1 0 0 1 
1 0 1 1 1 1 0 1 
0 0 1 0 0 1 0 0 
0 1 0 1 0 1 1 1 
1 1 1 1 1 1 1 0 
0 1 1 0 1 0 1 1 
Solution: 64 0
Classic Expectation: 33.035714
Initial Expecation: 20.324707
Gbest: 42.000000
Expectation: 27.428470
Final Parameters:
Gammas:
[ 0.140054 5.950944 ]
Betas:
[ 1.435048 0.930842 ]
Aggregate results:
[ 64 50 48 46 34 42 38 44 32 40 36 30 52 28 54 26 24 20 22 18 0 ]
[ 0.000004 0.000260 0.000851 0.001511 0.161847 0.012776 0.067480 0.004469 0.165359 0.031359 0.110404 0.133916 0.000166 0.086571 0.000083 0.039304 0.015679 0.000980 0.004929 0.000187 0.161864 ]
3
Num Evals 2069
GenUC: 1.896802e-02
GenUB: 1.310904e-02
Optimisation 3.522402e+02
Total Time: 3.522723e+02
2 Flipped
Graph 1:
1 0 0 1 0 0 0 0 
0 1 0 0 1 1 0 1 
1 0 0 1 1 0 0 1 
1 0 1 1 1 1 0 1 
0 0 1 0 0 1 0 0 
0 1 0 1 0 1 1 1 
1 1 1 1 1 1 1 0 
0 1 1 0 1 0 1 1 
Graph 2:
0 0 0 0 1 0 0 1 
1 0 1 1 0 0 1 0 
1 0 0 1 1 0 0 1 
1 0 1 1 1 1 0 1 
0 0 1 0 0 1 0 0 
1 1 1 0 1 0 1 0 
0 1 1 1 1 1 1 1 
1 1 0 1 0 1 1 0 
Solution: 48 6459
Classic Expectation: 31.178571
Initial Expecation: 19.182129
Gbest: 42.000000
Expectation: 24.646825
Final Parameters:
Gammas:
[ 1.542267 0.144151 ]
Betas:
[ 1.900473 2.404675 ]
Aggregate results:
[ 38 40 42 34 32 36 30 28 26 24 44 22 20 18 46 48 16 14 0 ]
[ 0.037007 0.013052 0.003197 0.123873 0.148390 0.071405 0.149180 0.115785 0.075582 0.037259 0.000773 0.014176 0.004886 0.001307 0.000088 0.000004 0.000284 0.000059 0.203693 ]
3
Num Evals 787
GenUC: 2.338832e-02
GenUB: 1.361841e-02
Optimisation 1.541914e+02
Total Time: 1.542284e+02
3 Add 8
Graph 1:
1 0 0 1 0 0 0 0 
0 1 0 0 1 1 0 1 
1 0 0 1 1 0 0 1 
1 0 1 1 1 1 0 1 
0 0 1 0 0 1 0 0 
0 1 0 1 0 1 1 1 
1 1 1 1 1 1 1 0 
0 1 1 0 1 0 1 1 
Graph 2:
1 1 0 1 1 0 0 0 
0 1 0 0 1 1 0 1 
1 0 0 1 1 0 0 1 
1 1 1 1 1 1 0 1 
0 1 1 0 0 1 0 0 
1 1 0 1 1 1 1 1 
1 1 1 1 1 1 1 0 
1 1 1 1 1 0 1 1 
Solution: 56 0
Classic Expectation: 33.321429
Initial Expecation: 20.500488
Gbest: 38.000000
Expectation: 29.082012
Final Parameters:
Gammas:
[ 0.137796 6.144325 ]
Betas:
[ 1.435048 0.853272 ]
Aggregate results:
[ 56 46 44 42 34 36 40 38 32 30 48 28 26 24 50 22 18 20 16 0 ]
[ 0.000002 0.001392 0.003455 0.010712 0.174809 0.134675 0.031266 0.075140 0.179761 0.141119 0.000243 0.081368 0.035064 0.011364 0.000027 0.002415 0.000002 0.000167 0.000002 0.117017 ]
3
Num Evals 2501
GenUC: 2.389501e-02
GenUB: 1.330063e-02
Optimisation 4.203668e+02
Total Time: 4.204040e+02
4 Rem 8
Graph 1:
1 0 0 1 0 0 0 0 
0 1 0 0 1 1 0 1 
1 0 0 1 1 0 0 1 
1 0 1 1 1 1 0 1 
0 0 1 0 0 1 0 0 
0 1 0 1 0 1 1 1 
1 1 1 1 1 1 1 0 
0 1 1 0 1 0 1 1 
Graph 2:
1 0 0 1 0 0 0 0 
0 0 0 0 0 0 0 1 
1 0 0 1 1 0 0 1 
1 0 1 0 1 0 0 1 
0 0 1 0 0 1 0 0 
0 1 0 1 0 1 1 1 
1 1 0 1 1 1 0 0 
0 1 1 0 1 0 1 1 
Solution: 57 0
Classic Expectation: 31.392857
Initial Expecation: 19.313965
Gbest: 39.000000
Expectation: 25.623580
Final Parameters:
Gammas:
[ 3.128664 3.392658 ]
Betas:
[ 2.779598 0.711060 ]
Aggregate results:
[ 57 43 47 41 39 27 37 31 49 45 35 29 33 25 23 21 19 17 15 0 ]
[ 0.000011 0.003265 0.000299 0.009240 0.025422 0.095735 0.059539 0.163676 0.000119 0.001047 0.098267 0.142052 0.146312 0.047836 0.019327 0.005890 0.001413 0.000264 0.000061 0.180225 ]
3
Num Evals 1413
GenUC: 2.393027e-02
GenUB: 1.334757e-02
Optimisation 2.590004e+02
Total Time: 2.590377e+02
5 Add/Rem 8
Graph 1:
1 0 0 1 0 0 0 0 
0 1 0 0 1 1 0 1 
1 0 0 1 1 0 0 1 
1 0 1 1 1 1 0 1 
0 0 1 0 0 1 0 0 
0 1 0 1 0 1 1 1 
1 1 1 1 1 1 1 0 
0 1 1 0 1 0 1 1 
Graph 2:
1 0 0 1 0 0 0 0 
0 0 1 0 0 0 0 1 
1 0 1 1 1 1 1 1 
1 0 1 0 1 1 0 0 
0 0 1 0 0 1 1 0 
0 0 1 1 0 1 1 1 
1 0 1 1 1 0 1 0 
1 1 1 0 1 0 1 1 
Solution: 49 0
Classic Expectation: 32.535714
Initial Expecation: 20.017090
Gbest: 41.000000
Expectation: 26.978721
Final Parameters:
Gammas:
[ 3.129543 3.381249 ]
Betas:
[ 2.783908 0.711060 ]
Aggregate results:
[ 49 43 39 41 37 33 35 31 29 45 27 47 25 23 21 19 17 15 0 ]
[ 0.000001 0.004789 0.041643 0.015923 0.085993 0.172495 0.136708 0.159049 0.115506 0.001115 0.060482 0.000171 0.024726 0.008711 0.001877 0.000382 0.000016 0.000009 0.170404 ]
3
Num Evals 1829
GenUC: 2.393781e-02
GenUB: 1.332066e-02
Optimisation 3.419889e+02
Total Time: 3.420261e+02
