Clock Speed: 3.498978
Num threads: 16
Trotterisation: 5
Num Qubits: 16
Space Dimension: 65536
Run-Type: 0
Num_samples: 64
Optimiser Method: 0
1 Isomorphic
Graph 1:
1 1 1 0 0 1 0 1 
1 0 1 1 1 0 0 1 
1 1 0 1 1 1 0 1 
0 0 1 1 0 1 0 0 
0 0 1 1 0 1 0 1 
1 1 0 1 0 1 1 1 
0 1 1 1 1 0 0 1 
0 0 1 1 1 0 1 1 
Graph 2:
1 1 1 0 0 1 0 1 
1 0 1 1 1 0 0 1 
1 1 0 1 1 1 0 1 
0 0 1 1 0 1 0 0 
0 0 1 1 0 1 0 1 
1 1 0 1 0 1 1 1 
0 1 1 1 1 0 0 1 
0 0 1 1 1 0 1 1 
Solution: 64 0
Classic Expectation: 33.750000
Initial Expecation: 20.764160
Gbest: 44.000000
Expectation: 29.027934
Final Parameters:
Gammas:
[ 5.228739 1.056293 2.939046 2.921812 3.128665 ]
Betas:
[ 3.012308 1.279909 1.512620 1.499691 2.637385 ]
Aggregate results:
[ 64 52 44 40 48 42 32 46 54 56 38 36 30 50 34 24 26 28 22 20 0 ]
[ 0.000004 0.000044 0.006747 0.046518 0.001016 0.019681 0.157524 0.002969 0.000140 0.000067 0.094928 0.140321 0.120640 0.000400 0.172550 0.006344 0.025538 0.063939 0.001405 0.000077 0.139146 ]
3
Num Evals 2075
GenUC: 1.849094e-02
GenUB: 1.319062e-02
Optimisation 9.814542e+02
Total Time: 9.814859e+02
2 Flipped
Graph 1:
1 1 1 0 0 1 0 1 
1 0 1 1 1 0 0 1 
1 1 0 1 1 1 0 1 
0 0 1 1 0 1 0 0 
0 0 1 1 0 1 0 1 
1 1 0 1 0 1 1 1 
0 1 1 1 1 0 0 1 
0 0 1 1 1 0 1 1 
Graph 2:
1 0 1 0 0 1 1 1 
1 0 0 1 1 1 0 1 
1 0 1 1 1 0 1 1 
0 0 1 0 1 1 0 0 
1 0 1 0 1 1 0 0 
1 1 1 0 1 0 1 1 
1 0 0 1 1 1 1 0 
1 1 0 1 1 1 0 0 
Solution: 52 4166
Classic Expectation: 33.750000
Initial Expecation: 20.764160
Gbest: 40.000000
Expectation: 22.462498
Final Parameters:
Gammas:
[ 5.235988 1.047198 3.141593 3.141593 3.141593 ]
Betas:
[ 1.570796 1.570796 1.570796 1.570796 2.617994 ]
Aggregate results:
[ 34 36 38 30 32 40 42 28 24 26 22 44 46 48 50 20 52 16 18 0 ]
[ 0.133027 0.110815 0.078287 0.083984 0.123394 0.037591 0.015588 0.046312 0.006811 0.020875 0.001535 0.004845 0.001233 0.000550 0.000026 0.000390 0.000111 0.000024 0.000032 0.334570 ]
3
Num Evals 37
GenUC: 2.285846e-02
GenUB: 1.352417e-02
Optimisation 1.597230e+01
Total Time: 1.600869e+01
3 Add 8
Graph 1:
1 1 1 0 0 1 0 1 
1 0 1 1 1 0 0 1 
1 1 0 1 1 1 0 1 
0 0 1 1 0 1 0 0 
0 0 1 1 0 1 0 1 
1 1 0 1 0 1 1 1 
0 1 1 1 1 0 0 1 
0 0 1 1 1 0 1 1 
Graph 2:
1 1 1 0 0 1 0 1 
1 0 1 1 1 1 0 1 
1 1 0 1 1 1 0 1 
1 1 1 1 0 1 1 1 
0 0 1 1 0 1 0 1 
1 1 0 1 0 1 1 1 
1 1 1 1 1 0 1 1 
0 0 1 1 1 0 1 1 
Solution: 57 0
Classic Expectation: 35.250000
Initial Expecation: 21.687012
Gbest: 43.000000
Expectation: 30.491235
Final Parameters:
Gammas:
[ 2.926599 2.921810 3.129303 3.140475 3.153563 ]
Betas:
[ 1.624664 0.012928 1.542785 1.549967 0.775702 ]
Aggregate results:
[ 57 47 43 41 37 45 29 39 35 51 49 33 27 31 25 23 21 53 0 ]
[ 0.000045 0.001550 0.022626 0.055956 0.162280 0.006999 0.040981 0.115478 0.188030 0.000142 0.000427 0.158906 0.011243 0.095101 0.001109 0.000083 0.000080 0.000022 0.138941 ]
3
Num Evals 2017
GenUC: 2.289934e-02
GenUB: 1.338719e-02
Optimisation 7.750279e+02
Total Time: 7.750642e+02
4 Rem 8
Graph 1:
1 1 1 0 0 1 0 1 
1 0 1 1 1 0 0 1 
1 1 0 1 1 1 0 1 
0 0 1 1 0 1 0 0 
0 0 1 1 0 1 0 1 
1 1 0 1 0 1 1 1 
0 1 1 1 1 0 0 1 
0 0 1 1 1 0 1 1 
Graph 2:
1 1 1 0 0 0 0 1 
1 0 1 1 1 0 0 1 
1 0 0 0 1 1 0 0 
0 0 0 1 0 1 0 0 
0 0 0 1 0 1 0 1 
1 1 0 1 0 1 1 1 
0 1 1 0 1 0 0 1 
0 0 1 0 1 0 1 1 
Solution: 56 0
Classic Expectation: 31.750000
Initial Expecation: 19.533691
Gbest: 40.000000
Expectation: 23.341773
Final Parameters:
Gammas:
[ 5.934119 4.537856 3.141593 3.839724 3.141593 ]
Betas:
[ 2.617994 1.570796 1.570796 1.570796 2.617994 ]
Aggregate results:
[ 56 46 38 34 40 30 36 42 44 32 48 28 22 26 24 52 50 18 20 16 0 ]
[ 0.000064 0.000596 0.040407 0.121172 0.016636 0.139829 0.078401 0.005939 0.001857 0.150010 0.000224 0.098135 0.006798 0.052108 0.021825 0.000051 0.000138 0.000267 0.001989 0.000023 0.263529 ]
3
Num Evals 129
GenUC: 2.289435e-02
GenUB: 1.342414e-02
Optimisation 5.771370e+01
Total Time: 5.775002e+01
5 Add/Rem 8
Graph 1:
1 1 1 0 0 1 0 1 
1 0 1 1 1 0 0 1 
1 1 0 1 1 1 0 1 
0 0 1 1 0 1 0 0 
0 0 1 1 0 1 0 1 
1 1 0 1 0 1 1 1 
0 1 1 1 1 0 0 1 
0 0 1 1 1 0 1 1 
Graph 2:
1 1 1 0 1 1 0 1 
1 0 1 1 1 0 0 1 
1 1 0 1 0 1 1 0 
1 1 1 0 0 1 0 0 
0 0 1 1 0 1 0 1 
1 1 1 1 0 0 0 1 
0 0 1 0 1 0 1 1 
1 0 0 1 1 0 1 1 
Solution: 49 0
Classic Expectation: 33.750000
Initial Expecation: 20.764160
Gbest: 39.000000
Expectation: 28.933482
Final Parameters:
Gammas:
[ 2.920853 2.917022 3.141114 3.141433 3.142709 ]
Betas:
[ 1.616045 0.012929 1.538475 1.538475 0.762773 ]
Aggregate results:
[ 49 45 39 35 31 41 37 43 33 29 47 27 25 23 21 0 ]
[ 0.000127 0.004109 0.077392 0.166687 0.132485 0.036400 0.126290 0.013695 0.167835 0.077244 0.000701 0.033329 0.010288 0.002284 0.000372 0.150763 ]
3
Num Evals 2059
GenUC: 2.291128e-02
GenUB: 1.336708e-02
Optimisation 7.678953e+02
Total Time: 7.679316e+02
