Clock Speed: 3.689381
Num threads: 4
Trotterisation: 5
Graph Size: 7
Num Qubits: 13
Space Dimension: 8192
Run-Type: 0
Num_samples: 10
1 Isomorphic
Graph 1:
0 0 0 0 0 0 0 
0 1 0 1 0 1 0 
0 0 1 1 0 1 0 
0 1 1 1 1 0 0 
1 1 1 0 0 0 0 
1 0 1 0 0 0 1 
0 1 1 0 1 0 0 
Graph 2:
0 0 0 0 0 0 0 
0 1 0 1 0 1 0 
0 0 1 1 0 1 0 
0 1 1 1 1 0 0 
1 1 1 0 0 0 0 
1 0 1 0 0 0 1 
0 1 1 0 1 0 0 
Solution: 0 0
Gbest: -16.000000
Expectation: -24.858669
Final Parameters:
Gammas:
[ 3.141593 3.141593 3.141593 4.266132 3.141593 ]
Betas:
[ 1.570796 1.570796 0.764328 1.666654 1.593665 1.572667 ]
Aggregate results:
[ -1 11 1 9 19 13 21 17 15 23 25 27 29 31 33 7 48 ]
[ 0.000014 0.004595 0.000016 0.001551 0.138792 0.006706 0.208893 0.075394 0.032849 0.225960 0.134247 0.066896 0.017110 0.004641 0.000385 0.000905 0.081046 ]
5
Num Evals 700
GenUC: 1.461770e-03
GenUB: 1.972543e-03
Optimisation 8.198020e+00
Total Time: 8.215837e+00
2 Flipped
Graph 1:
0 0 0 0 0 0 0 
0 1 0 1 0 1 0 
0 0 1 1 0 1 0 
0 1 1 1 1 0 0 
1 1 1 0 0 0 0 
1 0 1 0 0 0 1 
0 1 1 0 1 0 0 
Graph 2:
0 0 0 0 0 0 0 
0 1 0 1 0 1 0 
0 1 0 1 1 0 0 
0 0 1 1 1 1 0 
0 0 0 0 1 1 1 
1 0 0 0 1 0 1 
0 0 1 0 1 1 0 
Solution: -8 61
Gbest: -20.000000
Expectation: -24.867437
Final Parameters:
Gammas:
[ 3.194657 3.143549 3.175523 4.058967 3.410072 ]
Betas:
[ 0.087954 2.017087 0.040047 1.664996 1.676828 1.630568 ]
Aggregate results:
[ 15 23 21 25 19 27 17 13 11 7 9 29 31 33 48 ]
[ 0.024293 0.223193 0.203313 0.164968 0.135049 0.083943 0.062061 0.006692 0.001336 0.000004 0.000527 0.024192 0.005292 0.000686 0.064452 ]
5
Num Evals 1400
GenUC: 1.210237e-03
GenUB: 1.727590e-03
Optimisation 8.278695e+00
Total Time: 8.294219e+00
3 Add 7
Graph 1:
0 0 0 0 0 0 0 
0 1 0 1 0 1 0 
0 0 1 1 0 1 0 
0 1 1 1 1 0 0 
1 1 1 0 0 0 0 
1 0 1 0 0 0 1 
0 1 1 0 1 0 0 
Graph 2:
0 0 1 0 0 0 0 
0 1 0 1 0 1 1 
0 0 1 1 1 1 1 
0 1 1 1 1 1 0 
1 1 1 0 0 0 0 
1 1 1 0 0 0 1 
1 1 1 0 1 0 0 
Solution: -7 0
Gbest: -19.000000
Expectation: -30.747929
Final Parameters:
Gammas:
[ 3.312717 5.373725 0.352572 4.519449 0.255363 ]
Betas:
[ 1.707544 0.347556 1.697717 0.277925 1.788653 3.135328 ]
Aggregate results:
[ 6 14 20 16 18 22 24 26 28 32 30 12 10 34 8 36 48 ]
[ 0.000091 0.007577 0.080271 0.011157 0.037373 0.139958 0.175226 0.149023 0.101503 0.011818 0.037784 0.003985 0.001206 0.002749 0.000264 0.000368 0.239648 ]
5
Num Evals 2100
GenUC: 1.248839e-03
GenUB: 1.781013e-03
Optimisation 7.911693e+00
Total Time: 7.928750e+00
4 Rem 7
Graph 1:
0 0 0 0 0 0 0 
0 1 0 1 0 1 0 
0 0 1 1 0 1 0 
0 1 1 1 1 0 0 
1 1 1 0 0 0 0 
1 0 1 0 0 0 1 
0 1 1 0 1 0 0 
Graph 2:
0 0 0 0 0 0 0 
0 1 0 0 0 1 0 
0 0 1 1 0 1 0 
0 0 1 1 1 0 0 
1 1 0 0 0 0 0 
0 0 0 0 0 0 1 
0 1 1 0 0 0 0 
Solution: -6 0
Gbest: -16.000000
Expectation: -22.969953
Final Parameters:
Gammas:
[ 3.214533 3.459731 2.521740 0.441161 3.479125 ]
Betas:
[ 0.132204 0.746706 0.086332 0.036998 1.776747 1.600922 ]
Aggregate results:
[ 5 11 15 17 23 19 13 25 21 29 27 31 9 48 ]
[ 0.001413 0.014458 0.071251 0.112952 0.197775 0.153277 0.035601 0.094996 0.225832 0.003030 0.024192 0.000203 0.002430 0.062593 ]
5
Num Evals 2800
GenUC: 1.138969e-03
GenUB: 1.742586e-03
Optimisation 8.035107e+00
Total Time: 8.047803e+00
5 Add/Rem 7
Graph 1:
0 0 0 0 0 0 0 
0 1 0 1 0 1 0 
0 0 1 1 0 1 0 
0 1 1 1 1 0 0 
1 1 1 0 0 0 0 
1 0 1 0 0 0 1 
0 1 1 0 1 0 0 
Graph 2:
0 0 1 1 0 0 0 
0 1 1 0 0 1 0 
1 0 1 0 0 1 0 
0 0 1 1 0 0 0 
0 1 1 1 0 0 0 
1 0 1 0 0 0 1 
0 0 0 1 1 0 1 
Solution: -12 20
Gbest: -14.000000
Expectation: -25.288965
Final Parameters:
Gammas:
[ 3.193780 4.416579 0.048276 4.817481 4.367730 ]
Betas:
[ 0.865453 0.565720 1.762793 1.691020 0.064895 0.159288 ]
Aggregate results:
[ 13 17 19 15 21 11 23 25 27 29 31 35 33 48 ]
[ 0.006745 0.101297 0.152172 0.031217 0.202066 0.001281 0.189950 0.129932 0.056379 0.019320 0.004358 0.000240 0.001532 0.103511 ]
5
Num Evals 3500
GenUC: 1.246659e-03
GenUB: 1.880366e-03
Optimisation 8.619618e+00
Total Time: 8.633339e+00
