Clock Speed: 3.389835
Num threads: 4
Trotterisation: 5
Graph Size: 7
Num Qubits: 13
Space Dimension: 8192
Run-Type: 0
Num_samples: 10
1 Isomorphic
Graph 1:
0 0 1 0 0 1 0 
1 1 1 0 1 1 1 
0 0 1 0 1 1 1 
0 1 1 1 1 1 1 
1 0 0 1 0 1 0 
0 0 1 0 1 0 1 
0 1 0 0 0 1 1 
Graph 2:
0 0 1 0 0 1 0 
1 1 1 0 1 1 1 
0 0 1 0 1 1 1 
0 1 1 1 1 1 1 
1 0 0 1 0 1 0 
0 0 1 0 1 0 1 
0 1 0 0 0 1 1 
Solution: 0 0
Gbest: -20.000000
Expectation: -24.524715
Final Parameters:
Gammas:
[ 0.069241 4.562503 3.564954 0.882808 4.241295 ]
Betas:
[ 1.682925 2.541795 0.084469 1.601186 1.577048 0.089412 ]
Aggregate results:
[ -1 13 17 9 19 23 11 7 15 25 21 29 27 31 5 35 33 48 ]
[ 0.000131 0.023097 0.090609 0.004638 0.168922 0.159598 0.007637 0.001389 0.039485 0.121876 0.173946 0.035193 0.078532 0.012148 0.001470 0.000894 0.002710 0.077726 ]
5
Num Evals 700
GenUC: 1.625986e-03
GenUB: 2.044143e-03
Optimisation 9.080526e+00
Total Time: 9.096593e+00
2 Flipped
Graph 1:
0 0 1 0 0 1 0 
1 1 1 0 1 1 1 
0 0 1 0 1 1 1 
0 1 1 1 1 1 1 
1 0 0 1 0 1 0 
0 0 1 0 1 0 1 
0 1 0 0 0 1 1 
Graph 2:
0 1 0 0 1 0 0 
1 1 1 0 1 1 1 
1 1 1 0 1 0 0 
1 1 1 1 1 1 0 
0 1 0 1 0 0 1 
1 0 1 0 1 0 0 
1 1 0 0 0 1 0 
Solution: -8 1613
Gbest: -16.000000
Expectation: -26.909193
Final Parameters:
Gammas:
[ 0.094019 2.658845 0.375328 0.202754 4.438302 ]
Betas:
[ 0.131921 2.795805 0.137870 1.826903 1.743418 0.128560 ]
Aggregate results:
[ 17 19 21 23 27 25 31 29 15 33 35 13 11 7 9 37 48 ]
[ 0.044316 0.111071 0.148318 0.172832 0.110013 0.161276 0.030776 0.082718 0.016394 0.012596 0.002520 0.006290 0.001112 0.000027 0.000752 0.000151 0.098837 ]
5
Num Evals 1400
GenUC: 1.210648e-03
GenUB: 1.707700e-03
Optimisation 8.712944e+00
Total Time: 8.727670e+00
3 Add 7
Graph 1:
0 0 1 0 0 1 0 
1 1 1 0 1 1 1 
0 0 1 0 1 1 1 
0 1 1 1 1 1 1 
1 0 0 1 0 1 0 
0 0 1 0 1 0 1 
0 1 0 0 0 1 1 
Graph 2:
0 0 1 1 0 1 0 
1 1 1 0 1 1 1 
1 1 1 0 1 1 1 
0 1 1 1 1 1 1 
1 1 0 1 0 1 0 
0 0 1 0 1 1 1 
0 1 0 0 1 1 1 
Solution: -6 0
Gbest: -14.000000
Expectation: -26.684909
Final Parameters:
Gammas:
[ 0.227362 3.222995 0.066853 1.269298 0.606598 ]
Betas:
[ 1.734197 0.241994 1.793307 0.263608 0.141477 1.639828 ]
Aggregate results:
[ 5 17 21 11 19 23 13 15 25 29 27 9 31 33 48 ]
[ 0.000206 0.057996 0.174253 0.003159 0.114545 0.191940 0.006995 0.023148 0.167114 0.033344 0.091106 0.000456 0.008381 0.000467 0.126890 ]
5
Num Evals 2100
GenUC: 1.199964e-03
GenUB: 1.811454e-03
Optimisation 8.437316e+00
Total Time: 8.451399e+00
4 Rem 7
Graph 1:
0 0 1 0 0 1 0 
1 1 1 0 1 1 1 
0 0 1 0 1 1 1 
0 1 1 1 1 1 1 
1 0 0 1 0 1 0 
0 0 1 0 1 0 1 
0 1 0 0 0 1 1 
Graph 2:
0 0 1 0 0 1 0 
1 1 1 0 1 1 0 
0 0 0 0 1 1 0 
0 0 1 1 1 1 1 
1 0 0 1 0 1 0 
0 0 0 0 1 0 1 
0 0 0 0 0 0 1 
Solution: -7 0
Gbest: -19.000000
Expectation: -26.574978
Final Parameters:
Gammas:
[ 3.066278 3.053384 0.110875 1.011541 3.461513 ]
Betas:
[ 1.243857 0.526095 0.000926 0.008587 1.611225 1.592613 ]
Aggregate results:
[ 6 14 16 12 20 22 10 18 24 28 26 30 32 34 8 38 36 48 ]
[ 0.000300 0.009464 0.028932 0.003014 0.112802 0.159079 0.000828 0.074599 0.174734 0.107393 0.157945 0.067174 0.022130 0.006536 0.000268 0.000203 0.000721 0.073879 ]
5
Num Evals 2800
GenUC: 1.227967e-03
GenUB: 1.730697e-03
Optimisation 8.710011e+00
Total Time: 8.722422e+00
5 Add/Rem 7
Graph 1:
0 0 1 0 0 1 0 
1 1 1 0 1 1 1 
0 0 1 0 1 1 1 
0 1 1 1 1 1 1 
1 0 0 1 0 1 0 
0 0 1 0 1 0 1 
0 1 0 0 0 1 1 
Graph 2:
1 0 0 0 0 1 0 
1 1 1 0 0 1 1 
0 0 1 1 1 0 1 
0 1 1 0 1 1 1 
1 1 0 0 0 0 1 
0 0 1 0 1 1 0 
0 1 0 0 1 1 1 
Solution: -13 0
Gbest: -19.000000
Expectation: -26.917980
Final Parameters:
Gammas:
[ 6.227418 1.821951 3.867758 0.834240 3.475896 ]
Betas:
[ 1.737185 2.094337 3.069006 0.225121 0.115631 1.735733 ]
Aggregate results:
[ 12 20 28 22 24 26 18 16 30 14 32 34 36 48 ]
[ 0.001334 0.135809 0.086465 0.180644 0.205609 0.158025 0.064014 0.018998 0.031065 0.003032 0.010539 0.002161 0.000386 0.101919 ]
5
Num Evals 3500
GenUC: 1.274880e-03
GenUB: 1.733750e-03
Optimisation 9.158119e+00
Total Time: 9.176745e+00
