Clock Speed: 3.498801
Num threads: 16
Trotterisation: 3
Num Qubits: 5
Space Dimension: 32
Run-Type: 0
Num_samples: 16
Optimiser Method: 33
1 Isomorphic
Graph 1:
1 0 1 0 
1 0 0 1 
0 1 1 0 
0 0 1 0 
Graph 2:
1 0 1 0 
1 0 0 1 
0 1 1 0 
0 0 1 0 
Solution: 16 0
Classic Expectation: 8.166667
Initial Expecation: 6.125000
Gbest: 16.000000
Expectation: 6.125000
Final Parameters:
Gammas:
[ 3.141593 3.141593 3.141593 ]
Betas:
[ 1.570796 1.570796 1.570796 ]
Aggregate results:
[ 16 6 4 10 8 14 2 0 ]
[ 0.031250 0.218750 0.031250 0.218750 0.187500 0.031250 0.031250 0.250000 ]
4
Num Evals 3
GenUC: 9.585638e-06
GenUB: 1.444062e-05
Optimisation 4.230822e-04
Total Time: 4.552691e-04
2 Flipped
Graph 1:
1 0 1 0 
1 0 0 1 
0 1 1 0 
0 0 1 0 
Graph 2:
0 1 0 1 
1 0 0 1 
0 1 1 0 
0 1 0 0 
Solution: 12 12
Classic Expectation: 8.000000
Initial Expecation: 6.000000
Gbest: 10.000000
Expectation: 6.000000
Final Parameters:
Gammas:
[ 3.141593 3.141593 3.141593 ]
Betas:
[ 1.570796 1.570796 1.570796 ]
Aggregate results:
[ 10 8 6 12 0 ]
[ 0.187500 0.281250 0.250000 0.031250 0.250000 ]
4
Num Evals 3
GenUC: 1.099007e-05
GenUB: 1.578126e-06
Optimisation 3.314046e-04
Total Time: 3.455882e-04
3 Add 4
Graph 1:
1 0 1 0 
1 0 0 1 
0 1 1 0 
0 0 1 0 
Graph 2:
1 0 1 0 
1 1 0 1 
1 1 1 0 
0 0 1 0 
Solution: 14 0
Classic Expectation: 8.000000
Initial Expecation: 6.000000
Gbest: 14.000000
Expectation: 6.000000
Final Parameters:
Gammas:
[ 3.141593 3.141593 3.141593 ]
Betas:
[ 1.570796 1.570796 1.570796 ]
Aggregate results:
[ 14 4 6 10 8 12 0 ]
[ 0.031250 0.093750 0.218750 0.250000 0.125000 0.031250 0.250000 ]
4
Num Evals 3
GenUC: 1.002522e-05
GenUB: 1.123175e-06
Optimisation 3.121467e-04
Total Time: 3.260216e-04
4 Rem 4
Graph 1:
1 0 1 0 
1 0 0 1 
0 1 1 0 
0 0 1 0 
Graph 2:
0 0 1 0 
1 0 0 0 
0 0 1 0 
0 0 1 0 
Solution: 13 0
Classic Expectation: 8.500000
Initial Expecation: 6.375000
Gbest: 13.000000
Expectation: 6.375000
Final Parameters:
Gammas:
[ 3.141593 3.141593 3.141593 ]
Betas:
[ 1.570796 1.570796 1.570796 ]
Aggregate results:
[ 13 7 5 9 11 0 ]
[ 0.062500 0.187500 0.093750 0.343750 0.062500 0.250000 ]
4
Num Evals 3
GenUC: 9.891577e-06
GenUB: 1.020730e-06
Optimisation 3.121304e-04
Total Time: 3.241058e-04
5 Add/Rem 4
Graph 1:
1 0 1 0 
1 0 0 1 
0 1 1 0 
0 0 1 0 
Graph 2:
1 0 1 1 
1 1 0 0 
0 1 0 1 
0 1 1 0 
Solution: 12 8
Classic Expectation: 7.833333
Initial Expecation: 5.875000
Gbest: 12.000000
Expectation: 5.875000
Final Parameters:
Gammas:
[ 3.141593 3.141593 3.141593 ]
Betas:
[ 1.570796 1.570796 1.570796 ]
Aggregate results:
[ 10 8 6 12 4 2 0 ]
[ 0.125000 0.250000 0.125000 0.125000 0.062500 0.062500 0.250000 ]
4
Num Evals 3
GenUC: 9.861775e-06
GenUB: 1.061708e-06
Optimisation 3.119991e-04
Total Time: 3.239480e-04
