Clock Speed: 3.688901
Num threads: 4
Trotterisation: 1
Num Qubits: 5
Space Dimension: 32
Run-Type: 0
Num_samples: 6399
Optimiser Method: 29
1 Isomorphic
Graph 1:
1 1 0 0 
0 0 0 0 
1 1 1 0 
1 0 0 1 
Graph 2:
1 1 0 0 
0 0 0 0 
1 1 1 0 
1 0 0 1 
Solution: 16 0
Classic Expectation: 9.166667
Initial Expecation: 6.875000
Gbest: 16.000000
Expectation: 9.544071
Final Parameters:
Gammas:
[ 0.622765 ]
Betas:
[ 2.315490 ]
Aggregate results:
[ 16 14 8 10 12 6 0 ]
[ 0.155190 0.200071 0.123749 0.238034 0.010290 0.127704 0.144962 ]
3
Num Evals 104
GenUC: 8.605421e-06
GenUB: 8.965668e-06
Optimisation 1.078035e-02
Total Time: 1.081805e-02
2 Flipped
Graph 1:
1 1 0 0 
0 0 0 0 
1 1 1 0 
1 0 0 1 
Graph 2:
0 0 1 1 
0 0 0 0 
0 1 1 1 
1 0 0 1 
Solution: 12 21
Classic Expectation: 8.333333
Initial Expecation: 6.250000
Gbest: 12.000000
Expectation: 7.939477
Final Parameters:
Gammas:
[ 3.635886 ]
Betas:
[ 2.161238 ]
Aggregate results:
[ 10 8 6 4 12 0 ]
[ 0.399918 0.219221 0.178959 0.027914 0.083426 0.090561 ]
3
Num Evals 113
GenUC: 8.906994e-06
GenUB: 1.756998e-06
Optimisation 1.160015e-02
Total Time: 1.161237e-02
3 Add 4
Graph 1:
1 1 0 0 
0 0 0 0 
1 1 1 0 
1 0 0 1 
Graph 2:
1 1 0 0 
1 0 0 0 
1 1 1 0 
1 1 1 1 
Solution: 13 0
Classic Expectation: 8.166667
Initial Expecation: 6.125000
Gbest: 13.000000
Expectation: 8.548990
Final Parameters:
Gammas:
[ 5.999726 ]
Betas:
[ 2.683571 ]
Aggregate results:
[ 13 7 9 11 3 5 0 ]
[ 0.154376 0.200782 0.246955 0.234327 0.013803 0.059005 0.090752 ]
3
Num Evals 106
GenUC: 9.343610e-06
GenUB: 1.312757e-06
Optimisation 1.223379e-02
Total Time: 1.224572e-02
4 Rem 4
Graph 1:
1 1 0 0 
0 0 0 0 
1 1 1 0 
1 0 0 1 
Graph 2:
1 0 0 0 
0 0 0 0 
1 0 1 0 
1 0 0 0 
Solution: 13 0
Classic Expectation: 9.333333
Initial Expecation: 7.000000
Gbest: 13.000000
Expectation: 9.404543
Final Parameters:
Gammas:
[ 6.096134 ]
Betas:
[ 2.497822 ]
Aggregate results:
[ 13 9 11 7 0 ]
[ 0.101287 0.538877 0.208533 0.134865 0.016438 ]
3
Num Evals 123
GenUC: 8.851872e-06
GenUB: 1.058099e-06
Optimisation 1.350242e-02
Total Time: 1.351355e-02
5 Add/Rem 4
Graph 1:
1 1 0 0 
0 0 0 0 
1 1 1 0 
1 0 0 1 
Graph 2:
1 0 0 0 
1 0 1 1 
1 0 1 0 
1 0 1 1 
Solution: 12 12
Classic Expectation: 8.500000
Initial Expecation: 6.375000
Gbest: 12.000000
Expectation: 8.844036
Final Parameters:
Gammas:
[ 6.074708 ]
Betas:
[ 2.535706 ]
Aggregate results:
[ 10 8 6 12 0 ]
[ 0.452629 0.246252 0.146931 0.122179 0.032010 ]
3
Num Evals 103
GenUC: 8.518517e-06
GenUB: 8.866773e-07
Optimisation 1.143698e-02
Total Time: 1.144744e-02
