Clock Speed: 3.689251
Num threads: 4
Trotterisation: 1
Num Qubits: 5
Space Dimension: 32
Run-Type: 0
Num_samples: 6399
Optimiser Method: 29
1 Isomorphic
Graph 1:
1 0 0 1 
0 1 0 0 
0 1 0 0 
1 1 1 1 
Graph 2:
1 0 0 1 
0 1 0 0 
0 1 0 0 
1 1 1 1 
Solution: 16 0
Classic Expectation: 8.666667
Initial Expecation: 6.500000
Gbest: 16.000000
Expectation: 9.142001
Final Parameters:
Gammas:
[ 3.353931 ]
Betas:
[ 0.500519 ]
Aggregate results:
[ 16 8 12 6 10 0 ]
[ 0.094623 0.429776 0.204240 0.107506 0.109392 0.054464 ]
3
Num Evals 112
GenUC: 8.581905e-06
GenUB: 8.888834e-06
Optimisation 6.675782e-03
Total Time: 6.713160e-03
2 Flipped
Graph 1:
1 0 0 1 
0 1 0 0 
0 1 0 0 
1 1 1 1 
Graph 2:
1 0 0 1 
0 0 1 0 
0 0 1 0 
1 1 1 1 
Solution: 16 2
Classic Expectation: 8.666667
Initial Expecation: 6.500000
Gbest: 16.000000
Expectation: 7.491536
Final Parameters:
Gammas:
[ 3.726853 ]
Betas:
[ 2.087786 ]
Aggregate results:
[ 12 6 16 8 10 0 ]
[ 0.107337 0.197602 0.009435 0.507951 0.080332 0.097344 ]
3
Num Evals 117
GenUC: 8.950476e-06
GenUB: 2.107350e-06
Optimisation 1.170339e-02
Total Time: 1.171597e-02
3 Add 4
Graph 1:
1 0 0 1 
0 1 0 0 
0 1 0 0 
1 1 1 1 
Graph 2:
1 0 1 1 
0 1 0 0 
1 1 1 0 
1 1 1 1 
Solution: 13 0
Classic Expectation: 8.833333
Initial Expecation: 6.625000
Gbest: 13.000000
Expectation: 8.114078
Final Parameters:
Gammas:
[ 4.053531 ]
Betas:
[ 2.212704 ]
Aggregate results:
[ 13 11 5 9 3 7 0 ]
[ 0.004640 0.316859 0.000849 0.441830 0.010993 0.079231 0.145598 ]
3
Num Evals 114
GenUC: 9.656418e-06
GenUB: 1.384353e-06
Optimisation 1.174215e-02
Total Time: 1.175483e-02
4 Rem 4
Graph 1:
1 0 0 1 
0 1 0 0 
0 1 0 0 
1 1 1 1 
Graph 2:
0 0 0 1 
0 0 0 0 
0 1 0 0 
1 1 0 0 
Solution: 12 0
Classic Expectation: 7.333333
Initial Expecation: 5.500000
Gbest: 12.000000
Expectation: 7.679434
Final Parameters:
Gammas:
[ 3.387586 ]
Betas:
[ 0.531234 ]
Aggregate results:
[ 12 8 10 4 6 0 ]
[ 0.098070 0.421873 0.146915 0.030482 0.256088 0.046571 ]
3
Num Evals 112
GenUC: 9.000942e-06
GenUB: 1.089764e-06
Optimisation 6.605591e-03
Total Time: 6.617000e-03
5 Add/Rem 4
Graph 1:
1 0 0 1 
0 1 0 0 
0 1 0 0 
1 1 1 1 
Graph 2:
0 0 1 1 
1 1 0 1 
1 0 0 0 
1 1 1 0 
Solution: 11 6
Classic Expectation: 7.166667
Initial Expecation: 5.375000
Gbest: 11.000000
Expectation: 7.453690
Final Parameters:
Gammas:
[ 6.014399 ]
Betas:
[ 2.725075 ]
Aggregate results:
[ 9 7 5 11 0 ]
[ 0.311226 0.323982 0.114075 0.164946 0.085771 ]
3
Num Evals 108
GenUC: 8.513860e-06
GenUB: 8.404022e-07
Optimisation 1.241175e-02
Total Time: 1.242225e-02
