Clock Speed: 3.689409
Num threads: 4
Trotterisation: 1
Num Qubits: 5
Space Dimension: 32
Run-Type: 0
Num_samples: 6399
Optimiser Method: 29
1 Isomorphic
Graph 1:
0 0 0 0 
1 0 0 0 
0 1 0 1 
1 0 1 1 
Graph 2:
0 0 0 0 
1 0 0 0 
0 1 0 1 
1 0 1 1 
Solution: 16 0
Classic Expectation: 8.666667
Initial Expecation: 6.500000
Gbest: 16.000000
Expectation: 7.030800
Final Parameters:
Gammas:
[ 5.237600 ]
Betas:
[ 2.670371 ]
Aggregate results:
[ 16 10 8 12 6 0 ]
[ 0.042411 0.199393 0.307908 0.049750 0.216338 0.184200 ]
3
Num Evals 143
GenUC: 8.671719e-06
GenUB: 9.030860e-06
Optimisation 1.544334e-02
Total Time: 1.547880e-02
2 Flipped
Graph 1:
0 0 0 0 
1 0 0 0 
0 1 0 1 
1 0 1 1 
Graph 2:
0 0 0 0 
0 0 0 1 
1 0 1 0 
1 1 0 1 
Solution: 14 2
Classic Expectation: 8.333333
Initial Expecation: 6.250000
Gbest: 14.000000
Expectation: 8.369700
Final Parameters:
Gammas:
[ 3.410727 ]
Betas:
[ 0.447780 ]
Aggregate results:
[ 8 10 14 12 6 4 0 ]
[ 0.240182 0.340591 0.103614 0.042401 0.160211 0.030415 0.082586 ]
3
Num Evals 110
GenUC: 8.961593e-06
GenUB: 1.593842e-06
Optimisation 6.014039e-03
Total Time: 6.026078e-03
3 Add 4
Graph 1:
0 0 0 0 
1 0 0 0 
0 1 0 1 
1 0 1 1 
Graph 2:
1 1 0 0 
1 0 1 0 
0 1 0 1 
1 1 1 1 
Solution: 12 0
Classic Expectation: 7.666667
Initial Expecation: 5.750000
Gbest: 12.000000
Expectation: 7.298487
Final Parameters:
Gammas:
[ 4.462356 ]
Betas:
[ 2.424893 ]
Aggregate results:
[ 12 8 6 10 4 0 ]
[ 0.097629 0.359300 0.134352 0.226466 0.045441 0.136812 ]
3
Num Evals 89
GenUC: 9.345415e-06
GenUB: 1.222419e-06
Optimisation 9.417338e-03
Total Time: 9.429235e-03
4 Rem 4
Graph 1:
0 0 0 0 
1 0 0 0 
0 1 0 1 
1 0 1 1 
Graph 2:
0 0 0 0 
0 0 0 0 
0 0 0 0 
1 0 1 1 
Solution: 13 0
Classic Expectation: 9.166667
Initial Expecation: 6.875000
Gbest: 13.000000
Expectation: 8.197864
Final Parameters:
Gammas:
[ 4.689864 ]
Betas:
[ 0.792466 ]
Aggregate results:
[ 13 9 11 7 0 ]
[ 0.092157 0.323068 0.220298 0.238418 0.126058 ]
3
Num Evals 115
GenUC: 8.839532e-06
GenUB: 1.026958e-06
Optimisation 6.940526e-03
Total Time: 6.951623e-03
5 Add/Rem 4
Graph 1:
0 0 0 0 
1 0 0 0 
0 1 0 1 
1 0 1 1 
Graph 2:
0 1 0 1 
1 0 1 0 
0 1 1 0 
0 0 1 1 
Solution: 12 14
Classic Expectation: 8.000000
Initial Expecation: 6.000000
Gbest: 12.000000
Expectation: 6.925159
Final Parameters:
Gammas:
[ 3.698249 ]
Betas:
[ 2.221280 ]
Aggregate results:
[ 10 8 6 4 12 0 ]
[ 0.245112 0.188120 0.250296 0.025107 0.113906 0.177459 ]
3
Num Evals 96
GenUC: 8.580217e-06
GenUB: 8.814386e-07
Optimisation 9.567182e-03
Total Time: 9.577817e-03
