Clock Speed: 3.688683
Num threads: 4
Trotterisation: 1
Num Qubits: 5
Space Dimension: 32
Run-Type: 0
Num_samples: 6399
Optimiser Method: 29
1 Isomorphic
Graph 1:
0 0 1 1 
1 1 0 0 
1 1 0 1 
1 0 0 0 
Graph 2:
0 0 1 1 
1 1 0 0 
1 1 0 1 
1 0 0 0 
Solution: 16 0
Classic Expectation: 8.666667
Initial Expecation: 6.500000
Gbest: 16.000000
Expectation: 7.953567
Final Parameters:
Gammas:
[ 4.501647 ]
Betas:
[ 2.259199 ]
Aggregate results:
[ 16 12 8 6 4 10 0 ]
[ 0.051262 0.206059 0.340478 0.168066 0.009397 0.089087 0.135652 ]
3
Num Evals 94
GenUC: 8.733943e-06
GenUB: 9.229232e-06
Optimisation 9.422024e-03
Total Time: 9.456820e-03
2 Flipped
Graph 1:
0 0 1 1 
1 1 0 0 
1 1 0 1 
1 0 0 0 
Graph 2:
1 1 0 0 
0 0 1 1 
1 0 1 1 
0 0 0 1 
Solution: 12 6
Classic Expectation: 7.333333
Initial Expecation: 5.500000
Gbest: 12.000000
Expectation: 8.050890
Final Parameters:
Gammas:
[ 6.048193 ]
Betas:
[ 2.572374 ]
Aggregate results:
[ 4 2 10 6 8 12 0 ]
[ 0.009356 0.005621 0.128014 0.201065 0.493483 0.130652 0.031808 ]
3
Num Evals 103
GenUC: 9.039126e-06
GenUB: 1.676613e-06
Optimisation 1.118764e-02
Total Time: 1.119990e-02
3 Add 4
Graph 1:
0 0 1 1 
1 1 0 0 
1 1 0 1 
1 0 0 0 
Graph 2:
0 1 1 1 
1 1 1 0 
1 1 1 1 
1 0 1 0 
Solution: 12 0
Classic Expectation: 8.666667
Initial Expecation: 6.500000
Gbest: 12.000000
Expectation: 7.919453
Final Parameters:
Gammas:
[ 3.681014 ]
Betas:
[ 2.191332 ]
Aggregate results:
[ 12 10 8 6 0 ]
[ 0.119465 0.306356 0.269795 0.210658 0.093725 ]
3
Num Evals 100
GenUC: 9.198091e-06
GenUB: 1.316832e-06
Optimisation 1.049538e-02
Total Time: 1.050724e-02
4 Rem 4
Graph 1:
0 0 1 1 
1 1 0 0 
1 1 0 1 
1 0 0 0 
Graph 2:
0 0 1 0 
1 1 0 0 
0 0 0 1 
1 0 0 0 
Solution: 13 0
Classic Expectation: 8.166667
Initial Expecation: 6.125000
Gbest: 13.000000
Expectation: 6.822407
Final Parameters:
Gammas:
[ 4.769382 ]
Betas:
[ 2.619540 ]
Aggregate results:
[ 13 11 7 9 5 0 ]
[ 0.055730 0.161734 0.307020 0.197027 0.079289 0.199199 ]
3
Num Evals 125
GenUC: 9.309559e-06
GenUB: 1.184817e-06
Optimisation 1.384172e-02
Total Time: 1.385379e-02
5 Add/Rem 4
Graph 1:
0 0 1 1 
1 1 0 0 
1 1 0 1 
1 0 0 0 
Graph 2:
1 0 0 1 
0 0 0 0 
1 1 1 1 
0 1 0 0 
Solution: 13 19
Classic Expectation: 7.833333
Initial Expecation: 5.875000
Gbest: 13.000000
Expectation: 8.006126
Final Parameters:
Gammas:
[ 4.685612 ]
Betas:
[ 2.564450 ]
Aggregate results:
[ 9 7 3 11 5 13 0 ]
[ 0.468238 0.263389 0.003525 0.083903 0.031409 0.065978 0.083558 ]
3
Num Evals 120
GenUC: 8.544419e-06
GenUB: 8.926145e-07
Optimisation 1.308518e-02
Total Time: 1.309582e-02
