Clock Speed: 3.689275
Num threads: 4
Trotterisation: 1
Num Qubits: 5
Space Dimension: 32
Run-Type: 0
Num_samples: 6399
Optimiser Method: 29
1 Isomorphic
Graph 1:
0 1 1 0 
0 1 0 0 
0 1 1 1 
1 1 0 0 
Graph 2:
0 1 1 0 
0 1 0 0 
0 1 1 1 
1 1 0 0 
Solution: 16 0
Classic Expectation: 8.000000
Initial Expecation: 6.000000
Gbest: 16.000000
Expectation: 6.820381
Final Parameters:
Gammas:
[ 4.459470 ]
Betas:
[ 2.102935 ]
Aggregate results:
[ 16 8 10 6 4 14 0 ]
[ 0.024892 0.434431 0.054600 0.237068 0.025519 0.062584 0.160906 ]
3
Num Evals 115
GenUC: 8.591276e-06
GenUB: 1.086708e-05
Optimisation 1.170397e-02
Total Time: 1.174396e-02
2 Flipped
Graph 1:
0 1 1 0 
0 1 0 0 
0 1 1 1 
1 1 0 0 
Graph 2:
0 1 1 0 
0 0 1 0 
1 1 1 0 
0 0 1 1 
Solution: 12 9
Classic Expectation: 8.000000
Initial Expecation: 6.000000
Gbest: 12.000000
Expectation: 6.216943
Final Parameters:
Gammas:
[ 4.815365 ]
Betas:
[ 2.388029 ]
Aggregate results:
[ 8 10 6 12 4 0 ]
[ 0.276265 0.225573 0.212843 0.037364 0.006418 0.241537 ]
3
Num Evals 104
GenUC: 9.030860e-06
GenUB: 1.813343e-06
Optimisation 1.106667e-02
Total Time: 1.107930e-02
3 Add 4
Graph 1:
0 1 1 0 
0 1 0 0 
0 1 1 1 
1 1 0 0 
Graph 2:
1 1 1 0 
1 1 0 1 
0 1 1 1 
1 1 0 1 
Solution: 12 0
Classic Expectation: 8.000000
Initial Expecation: 6.000000
Gbest: 12.000000
Expectation: 6.979524
Final Parameters:
Gammas:
[ 5.098945 ]
Betas:
[ 2.540596 ]
Aggregate results:
[ 12 6 8 10 0 ]
[ 0.100344 0.098395 0.511478 0.109321 0.180463 ]
3
Num Evals 110
GenUC: 9.180512e-06
GenUB: 1.213572e-06
Optimisation 1.167181e-02
Total Time: 1.168353e-02
4 Rem 4
Graph 1:
0 1 1 0 
0 1 0 0 
0 1 1 1 
1 1 0 0 
Graph 2:
0 1 1 0 
0 0 0 0 
0 0 1 1 
0 1 0 0 
Solution: 13 0
Classic Expectation: 8.000000
Initial Expecation: 6.000000
Gbest: 13.000000
Expectation: 7.728865
Final Parameters:
Gammas:
[ 3.713565 ]
Betas:
[ 0.994678 ]
Aggregate results:
[ 13 7 9 3 11 5 0 ]
[ 0.038651 0.112378 0.468388 0.062695 0.170687 0.031726 0.115476 ]
3
Num Evals 104
GenUC: 8.903502e-06
GenUB: 1.029926e-06
Optimisation 7.062607e-03
Total Time: 7.073817e-03
5 Add/Rem 4
Graph 1:
0 1 1 0 
0 1 0 0 
0 1 1 1 
1 1 0 0 
Graph 2:
1 0 1 0 
0 0 0 1 
0 1 1 1 
0 1 0 0 
Solution: 11 0
Classic Expectation: 8.000000
Initial Expecation: 6.000000
Gbest: 11.000000
Expectation: 7.067340
Final Parameters:
Gammas:
[ 4.730681 ]
Betas:
[ 0.815305 ]
Aggregate results:
[ 11 5 7 9 0 ]
[ 0.169491 0.041485 0.206863 0.394163 0.187997 ]
3
Num Evals 103
GenUC: 8.533767e-06
GenUB: 8.861534e-07
Optimisation 6.583590e-03
Total Time: 6.594118e-03
