Clock Speed: 3.687888
Num threads: 4
Trotterisation: 1
Num Qubits: 7
Space Dimension: 128
Run-Type: 0
Num_samples: 15624
Optimiser Method: 0
1 Isomorphic
Graph 1:
0 1 1 0 0 
1 1 1 0 1 
0 0 1 1 1 
1 0 0 0 1 
0 0 0 0 1 
Graph 2:
0 1 1 0 0 
1 1 1 0 1 
0 0 1 1 1 
1 0 0 0 1 
0 0 0 0 1 
Solution: 25 0
Classic Expectation: 12.700000
Initial Expecation: 11.906250
Gbest: 25.000000
Expectation: 14.062419
Final Parameters:
Gammas:
[ 6.132484 ]
Betas:
[ 2.867781 ]
Aggregate results:
[ 25 17 15 13 19 11 9 5 7 0 ]
[ 0.035800 0.151324 0.238200 0.344460 0.039954 0.124763 0.041233 0.000569 0.005495 0.018202 ]
3
Num Evals 575
GenUC: 4.113087e-05
GenUB: 1.492980e-05
Optimisation 8.411375e-02
Total Time: 8.419051e-02
2 Flipped
Graph 1:
0 1 1 0 0 
1 1 1 0 1 
0 0 1 1 1 
1 0 0 0 1 
0 0 0 0 1 
Graph 2:
0 0 1 1 0 
1 0 1 1 1 
1 1 1 0 0 
1 0 0 0 1 
1 0 0 0 0 
Solution: 17 6
Classic Expectation: 12.100000
Initial Expecation: 11.343750
Gbest: 17.000000
Expectation: 13.533110
Final Parameters:
Gammas:
[ 2.792527 ]
Betas:
[ 2.908882 ]
Aggregate results:
[ 15 13 9 11 17 5 7 0 ]
[ 0.376185 0.336396 0.010939 0.111675 0.120134 0.017815 0.008424 0.018432 ]
3
Num Evals 849
GenUC: 4.412199e-05
GenUB: 2.731162e-06
Optimisation 2.011518e-01
Total Time: 2.012005e-01
3 Add 5
Graph 1:
0 1 1 0 0 
1 1 1 0 1 
0 0 1 1 1 
1 0 0 0 1 
0 0 0 0 1 
Graph 2:
0 1 1 0 1 
1 1 1 0 1 
0 0 1 1 1 
1 0 0 0 1 
1 1 1 0 1 
Solution: 21 0
Classic Expectation: 12.300000
Initial Expecation: 11.531250
Gbest: 21.000000
Expectation: 12.234496
Final Parameters:
Gammas:
[ 5.934119 ]
Betas:
[ 1.919862 ]
Aggregate results:
[ 21 15 11 13 17 7 9 0 ]
[ 0.006873 0.186090 0.239553 0.406549 0.052119 0.006524 0.049654 0.052637 ]
3
Num Evals 33
GenUC: 4.469068e-05
GenUB: 2.921268e-06
Optimisation 4.468068e-03
Total Time: 4.518171e-03
4 Rem 5
Graph 1:
0 1 1 0 0 
1 1 1 0 1 
0 0 1 1 1 
1 0 0 0 1 
0 0 0 0 1 
Graph 2:
0 0 1 0 0 
0 1 1 0 0 
0 0 0 1 1 
0 0 0 0 1 
0 0 0 0 1 
Solution: 20 0
Classic Expectation: 12.900000
Initial Expecation: 12.093750
Gbest: 20.000000
Expectation: 14.101134
Final Parameters:
Gammas:
[ 3.686641 ]
Betas:
[ 0.312790 ]
Aggregate results:
[ 20 16 14 12 10 18 8 0 ]
[ 0.029906 0.354506 0.305600 0.109586 0.072589 0.074331 0.021703 0.031778 ]
3
Num Evals 331
GenUC: 4.671997e-05
GenUB: 2.384302e-06
Optimisation 3.283384e-02
Total Time: 3.288443e-02
5 Add/Rem 5
Graph 1:
0 1 1 0 0 
1 1 1 0 1 
0 0 1 1 1 
1 0 0 0 1 
0 0 0 0 1 
Graph 2:
0 0 1 1 1 
0 1 1 0 1 
0 0 1 1 1 
0 1 0 0 0 
0 0 1 0 1 
Solution: 19 72
Classic Expectation: 12.700000
Initial Expecation: 11.906250
Gbest: 19.000000
Expectation: 14.100728
Final Parameters:
Gammas:
[ 0.165539 ]
Betas:
[ 0.287117 ]
Aggregate results:
[ 17 13 11 15 9 7 5 19 0 ]
[ 0.156656 0.282323 0.114575 0.283345 0.032013 0.004974 0.003225 0.100938 0.021952 ]
3
Num Evals 327
GenUC: 4.679390e-05
GenUB: 2.542161e-06
Optimisation 3.759955e-02
Total Time: 3.765047e-02
