Clock Speed: 3.688923
Num threads: 4
Trotterisation: 1
Num Qubits: 7
Space Dimension: 128
Run-Type: 0
Num_samples: 15624
Optimiser Method: 0
1 Isomorphic
Graph 1:
1 0 1 0 0 
1 0 0 0 0 
1 1 1 1 0 
0 0 0 1 0 
1 0 0 1 1 
Graph 2:
1 0 1 0 0 
1 0 0 0 0 
1 1 1 1 0 
0 0 0 1 0 
1 0 0 1 1 
Solution: 25 0
Classic Expectation: 14.300000
Initial Expecation: 13.406250
Gbest: 25.000000
Expectation: 15.293809
Final Parameters:
Gammas:
[ 5.763704 ]
Betas:
[ 2.820540 ]
Aggregate results:
[ 25 19 15 21 17 13 9 11 0 ]
[ 0.000376 0.081039 0.269215 0.045962 0.332670 0.173912 0.020803 0.057981 0.018043 ]
3
Num Evals 423
GenUC: 4.136685e-05
GenUB: 1.405011e-05
Optimisation 7.087700e-02
Total Time: 7.094974e-02
2 Flipped
Graph 1:
1 0 1 0 0 
1 0 0 0 0 
1 1 1 1 0 
0 0 0 1 0 
1 0 0 1 1 
Graph 2:
0 0 1 0 1 
0 0 0 0 1 
0 1 1 1 1 
0 1 0 0 0 
1 1 0 0 1 
Solution: 17 14
Classic Expectation: 12.500000
Initial Expecation: 11.718750
Gbest: 17.000000
Expectation: 13.433419
Final Parameters:
Gammas:
[ 6.166830 ]
Betas:
[ 2.889490 ]
Aggregate results:
[ 15 13 11 7 9 17 0 ]
[ 0.306943 0.299447 0.184568 0.007329 0.061453 0.135402 0.004858 ]
3
Num Evals 145
GenUC: 4.466838e-05
GenUB: 2.822722e-06
Optimisation 1.820647e-02
Total Time: 1.825565e-02
3 Add 5
Graph 1:
1 0 1 0 0 
1 0 0 0 0 
1 1 1 1 0 
0 0 0 1 0 
1 0 0 1 1 
Graph 2:
1 1 1 0 1 
1 1 0 0 0 
1 1 1 1 1 
1 0 0 1 0 
1 0 0 1 1 
Solution: 20 0
Classic Expectation: 13.700000
Initial Expecation: 12.843750
Gbest: 20.000000
Expectation: 14.606831
Final Parameters:
Gammas:
[ 3.664296 ]
Betas:
[ 0.283475 ]
Aggregate results:
[ 20 18 12 14 16 10 0 ]
[ 0.010161 0.171054 0.065531 0.305219 0.341287 0.080460 0.026288 ]
3
Num Evals 431
GenUC: 4.436268e-05
GenUB: 2.491754e-06
Optimisation 5.536972e-02
Total Time: 5.541817e-02
4 Rem 5
Graph 1:
1 0 1 0 0 
1 0 0 0 0 
1 1 1 1 0 
0 0 0 1 0 
1 0 0 1 1 
Graph 2:
1 0 1 0 0 
1 0 0 0 0 
0 1 0 1 0 
0 0 0 0 0 
1 0 0 1 0 
Solution: 21 0
Classic Expectation: 12.800000
Initial Expecation: 12.000000
Gbest: 21.000000
Expectation: 13.838889
Final Parameters:
Gammas:
[ 5.709354 ]
Betas:
[ 2.812310 ]
Aggregate results:
[ 21 15 13 11 17 9 7 0 ]
[ 0.007085 0.308875 0.332036 0.078018 0.193135 0.064317 0.002883 0.013652 ]
3
Num Evals 301
GenUC: 4.656566e-05
GenUB: 2.618472e-06
Optimisation 5.273278e-02
Total Time: 5.278358e-02
5 Add/Rem 5
Graph 1:
1 0 1 0 0 
1 0 0 0 0 
1 1 1 1 0 
0 0 0 1 0 
1 0 0 1 1 
Graph 2:
0 0 1 0 1 
0 0 1 0 0 
1 1 0 1 1 
0 0 0 1 0 
0 1 0 0 1 
Solution: 18 24
Classic Expectation: 12.800000
Initial Expecation: 12.000000
Gbest: 18.000000
Expectation: 12.195110
Final Parameters:
Gammas:
[ 1.047198 ]
Betas:
[ 2.617994 ]
Aggregate results:
[ 16 8 12 10 14 18 0 ]
[ 0.157284 0.021786 0.216455 0.137285 0.388174 0.005529 0.073486 ]
3
Num Evals 13
GenUC: 4.647701e-05
GenUB: 2.540415e-06
Optimisation 1.522731e-03
Total Time: 1.573287e-03
