Clock Speed: 3.689267
Num threads: 4
Trotterisation: 1
Num Qubits: 7
Space Dimension: 128
Run-Type: 0
Num_samples: 15624
Optimiser Method: 0
1 Isomorphic
Graph 1:
1 0 1 0 1 
1 0 0 1 0 
0 0 1 0 1 
0 0 0 1 0 
0 1 0 1 0 
Graph 2:
1 0 1 0 1 
1 0 0 1 0 
0 0 1 0 1 
0 0 0 1 0 
0 1 0 1 0 
Solution: 25 0
Classic Expectation: 13.500000
Initial Expecation: 12.656250
Gbest: 25.000000
Expectation: 15.152062
Final Parameters:
Gammas:
[ 6.133277 ]
Betas:
[ 2.889933 ]
Aggregate results:
[ 25 13 17 15 11 19 7 21 9 0 ]
[ 0.030561 0.234100 0.209398 0.247894 0.090080 0.130431 0.002405 0.022468 0.012091 0.020571 ]
3
Num Evals 249
GenUC: 4.315318e-05
GenUB: 1.488748e-05
Optimisation 4.269640e-02
Total Time: 4.278067e-02
2 Flipped
Graph 1:
1 0 1 0 1 
1 0 0 1 0 
0 0 1 0 1 
0 0 0 1 0 
0 1 0 1 0 
Graph 2:
1 0 1 0 1 
0 1 0 0 1 
1 0 1 0 0 
0 1 0 0 0 
0 1 0 1 0 
Solution: 21 14
Classic Expectation: 13.500000
Initial Expecation: 12.656250
Gbest: 21.000000
Expectation: 14.424256
Final Parameters:
Gammas:
[ 0.533149 ]
Betas:
[ 0.281666 ]
Aggregate results:
[ 17 15 13 11 21 9 19 0 ]
[ 0.261393 0.372038 0.192601 0.039946 0.031612 0.059770 0.013422 0.029219 ]
3
Num Evals 295
GenUC: 4.384562e-05
GenUB: 2.661312e-06
Optimisation 2.798978e-02
Total Time: 2.803809e-02
3 Add 5
Graph 1:
1 0 1 0 1 
1 0 0 1 0 
0 0 1 0 1 
0 0 0 1 0 
0 1 0 1 0 
Graph 2:
1 0 1 0 1 
1 0 1 1 0 
0 1 1 0 1 
1 0 1 1 0 
0 1 1 1 0 
Solution: 20 0
Classic Expectation: 12.000000
Initial Expecation: 11.250000
Gbest: 20.000000
Expectation: 13.751807
Final Parameters:
Gammas:
[ 6.119195 ]
Betas:
[ 2.902436 ]
Aggregate results:
[ 20 8 16 14 10 12 6 18 4 0 ]
[ 0.024969 0.022720 0.246086 0.251525 0.099126 0.223597 0.004401 0.106142 0.000140 0.021294 ]
3
Num Evals 367
GenUC: 4.387146e-05
GenUB: 2.686575e-06
Optimisation 5.071952e-02
Total Time: 5.076823e-02
4 Rem 5
Graph 1:
1 0 1 0 1 
1 0 0 1 0 
0 0 1 0 1 
0 0 0 1 0 
0 1 0 1 0 
Graph 2:
0 0 1 0 0 
1 0 0 1 0 
0 0 0 0 0 
0 0 0 1 0 
0 1 0 1 0 
Solution: 21 0
Classic Expectation: 13.700000
Initial Expecation: 12.843750
Gbest: 21.000000
Expectation: 13.052229
Final Parameters:
Gammas:
[ 5.235988 ]
Betas:
[ 2.268928 ]
Aggregate results:
[ 21 13 15 17 11 9 19 0 ]
[ 0.011692 0.296140 0.302717 0.115172 0.196237 0.004826 0.013483 0.059734 ]
3
Num Evals 19
GenUC: 4.654744e-05
GenUB: 2.562767e-06
Optimisation 2.803036e-03
Total Time: 2.854022e-03
5 Add/Rem 5
Graph 1:
1 0 1 0 1 
1 0 0 1 0 
0 0 1 0 1 
0 0 0 1 0 
0 1 0 1 0 
Graph 2:
1 0 1 1 1 
0 0 0 0 1 
1 0 1 0 1 
1 0 0 1 0 
0 0 0 1 0 
Solution: 18 0
Classic Expectation: 13.200000
Initial Expecation: 12.375000
Gbest: 18.000000
Expectation: 12.840431
Final Parameters:
Gammas:
[ 1.047198 ]
Betas:
[ 2.113788 ]
Aggregate results:
[ 18 14 16 12 10 8 0 ]
[ 0.048132 0.292664 0.181136 0.319710 0.077260 0.046184 0.034915 ]
3
Num Evals 67
GenUC: 4.641246e-05
GenUB: 2.360845e-06
Optimisation 9.043259e-03
Total Time: 9.093444e-03
