Clock Speed: 3.686863
Num threads: 4
Trotterisation: 3
Num Qubits: 10
Space Dimension: 1024
Run-Type: 0
Num_samples: 32399
Optimiser Method: 29
1 Isomorphic
Graph 1:
0 0 1 1 0 1 
1 0 1 0 1 1 
1 0 0 0 0 1 
0 0 1 1 0 1 
1 0 1 0 1 0 
1 0 0 1 1 1 
Graph 2:
0 0 1 1 0 1 
1 0 1 0 1 1 
1 0 0 0 0 1 
0 0 1 1 0 1 
1 0 1 0 1 0 
1 0 0 1 1 1 
Solution: 36 0
Classic Expectation: 18.066667
Initial Expecation: 12.703125
Gbest: 36.000000
Expectation: 19.063038
Final Parameters:
Gammas:
[ 6.212319 3.957316 2.196835 ]
Betas:
[ 2.522359 3.062430 2.910301 ]
Aggregate results:
[ 36 24 28 22 26 20 18 16 14 12 30 10 6 0 ]
[ 0.008289 0.113345 0.027586 0.160363 0.046128 0.172224 0.205088 0.137590 0.052962 0.014734 0.008403 0.003069 0.001011 0.049207 ]
3
Num Evals 810
GenUC: 2.611139e-04
GenUB: 9.105745e-05
Optimisation 3.742637e+00
Total Time: 3.743010e+00
2 Flipped
Graph 1:
0 0 1 1 0 1 
1 0 1 0 1 1 
1 0 0 0 0 1 
0 0 1 1 0 1 
1 0 1 0 1 0 
1 0 0 1 1 1 
Graph 2:
1 0 1 1 0 0 
1 1 0 1 0 1 
1 0 0 0 0 1 
1 0 1 1 0 0 
0 1 0 1 0 1 
1 1 1 0 0 1 
Solution: 28 709
Classic Expectation: 18.000000
Initial Expecation: 12.656250
Gbest: 28.000000
Expectation: 18.960848
Final Parameters:
Gammas:
[ 6.238817 6.221593 3.024205 ]
Betas:
[ 2.523568 2.673141 2.963986 ]
Aggregate results:
[ 18 22 20 16 12 14 24 26 10 28 0 ]
[ 0.253441 0.127067 0.287753 0.145444 0.010798 0.043996 0.080368 0.027844 0.001526 0.003847 0.017916 ]
3
Num Evals 1089
GenUC: 2.803451e-04
GenUB: 5.489052e-05
Optimisation 6.634743e+00
Total Time: 6.635081e+00
3 Add 6
Graph 1:
0 0 1 1 0 1 
1 0 1 0 1 1 
1 0 0 0 0 1 
0 0 1 1 0 1 
1 0 1 0 1 0 
1 0 0 1 1 1 
Graph 2:
0 0 1 1 0 1 
1 0 1 0 1 1 
1 0 0 0 1 1 
0 1 1 1 0 1 
1 1 1 0 1 1 
1 1 0 1 1 1 
Solution: 31 0
Classic Expectation: 18.400000
Initial Expecation: 12.937500
Gbest: 31.000000
Expectation: 18.995944
Final Parameters:
Gammas:
[ 3.360036 3.381839 6.159875 ]
Betas:
[ 0.292159 1.940554 1.379521 ]
Aggregate results:
[ 31 23 25 17 21 19 27 15 29 13 11 9 0 ]
[ 0.010763 0.170864 0.103676 0.119905 0.262313 0.179499 0.014290 0.032508 0.006018 0.007066 0.002846 0.001326 0.088926 ]
3
Num Evals 1073
GenUC: 2.794443e-04
GenUB: 5.239178e-05
Optimisation 1.538659e+00
Total Time: 1.538993e+00
4 Rem 6
Graph 1:
0 0 1 1 0 1 
1 0 1 0 1 1 
1 0 0 0 0 1 
0 0 1 1 0 1 
1 0 1 0 1 0 
1 0 0 1 1 1 
Graph 2:
0 0 0 1 0 1 
1 0 0 0 1 1 
1 0 0 0 0 0 
0 0 1 1 0 1 
1 0 1 0 1 0 
1 0 0 0 0 1 
Solution: 31 0
Classic Expectation: 17.733333
Initial Expecation: 12.468750
Gbest: 31.000000
Expectation: 16.152803
Final Parameters:
Gammas:
[ 3.126719 0.270982 6.283185 ]
Betas:
[ 2.772038 2.502939 1.386564 ]
Aggregate results:
[ 31 25 23 21 19 27 17 15 11 13 9 5 0 ]
[ 0.005517 0.031352 0.060983 0.124118 0.207747 0.008148 0.203736 0.174119 0.011795 0.058093 0.006300 0.000953 0.107140 ]
3
Num Evals 934
GenUC: 2.799931e-04
GenUB: 5.130615e-05
Optimisation 4.692511e+00
Total Time: 4.692845e+00
5 Add/Rem 6
Graph 1:
0 0 1 1 0 1 
1 0 1 0 1 1 
1 0 0 0 0 1 
0 0 1 1 0 1 
1 0 1 0 1 0 
1 0 0 1 1 1 
Graph 2:
1 0 1 1 0 1 
1 0 1 1 1 1 
1 1 0 1 0 0 
1 0 1 1 0 0 
0 0 0 0 1 0 
1 0 0 1 0 0 
Solution: 27 19
Classic Expectation: 18.000000
Initial Expecation: 12.656250
Gbest: 27.000000
Expectation: 18.630915
Final Parameters:
Gammas:
[ 3.372347 3.382733 3.120185 ]
Betas:
[ 0.387121 1.930465 1.436967 ]
Aggregate results:
[ 25 21 23 19 27 15 17 13 11 9 0 ]
[ 0.101045 0.234943 0.157781 0.160698 0.045920 0.048490 0.125180 0.024201 0.005445 0.002112 0.094185 ]
3
Num Evals 1451
GenUC: 2.798915e-04
GenUB: 5.067355e-05
Optimisation 3.739041e+00
Total Time: 3.739375e+00
