Clock Speed: 3.689414
Num threads: 4
Trotterisation: 3
Num Qubits: 10
Space Dimension: 1024
Run-Type: 0
Num_samples: 32399
Optimiser Method: 29
1 Isomorphic
Graph 1:
1 1 0 0 1 0 
1 1 0 0 1 1 
1 1 1 1 1 1 
0 1 1 0 1 0 
1 1 0 0 0 1 
0 1 1 0 0 0 
Graph 2:
1 1 0 0 1 0 
1 1 0 0 1 1 
1 1 1 1 1 1 
0 1 1 0 1 0 
1 1 0 0 0 1 
0 1 1 0 0 0 
Solution: 36 0
Classic Expectation: 18.600000
Initial Expecation: 13.078125
Gbest: 36.000000
Expectation: 18.609010
Final Parameters:
Gammas:
[ 6.048510 6.118201 3.035189 ]
Betas:
[ 0.310067 2.769140 2.906009 ]
Aggregate results:
[ 36 26 24 30 28 22 20 18 14 16 12 32 10 0 ]
[ 0.004969 0.063134 0.114746 0.021875 0.034923 0.178691 0.193461 0.126246 0.047707 0.087739 0.009469 0.004062 0.001246 0.111732 ]
3
Num Evals 2922
GenUC: 2.614768e-04
GenUB: 9.001512e-05
Optimisation 5.387025e+00
Total Time: 5.387397e+00
2 Flipped
Graph 1:
1 1 0 0 1 0 
1 1 0 0 1 1 
1 1 1 1 1 1 
0 1 1 0 1 0 
1 1 0 0 0 1 
0 1 1 0 0 0 
Graph 2:
0 1 0 0 1 1 
1 1 0 0 1 1 
1 1 1 1 1 1 
0 1 0 1 1 0 
1 0 0 0 1 1 
0 0 0 1 1 0 
Solution: 28 80
Classic Expectation: 18.400000
Initial Expecation: 12.937500
Gbest: 28.000000
Expectation: 17.346903
Final Parameters:
Gammas:
[ 6.283185 6.232574 3.401272 ]
Betas:
[ 2.088202 2.519418 2.669834 ]
Aggregate results:
[ 26 22 16 20 24 18 14 12 10 28 0 ]
[ 0.019729 0.169089 0.209944 0.182204 0.031711 0.218765 0.077830 0.025994 0.000760 0.000101 0.063873 ]
3
Num Evals 819
GenUC: 2.812567e-04
GenUB: 5.024771e-05
Optimisation 1.668270e+00
Total Time: 1.668604e+00
3 Add 6
Graph 1:
1 1 0 0 1 0 
1 1 0 0 1 1 
1 1 1 1 1 1 
0 1 1 0 1 0 
1 1 0 0 0 1 
0 1 1 0 0 0 
Graph 2:
1 1 0 0 1 1 
1 1 0 0 1 1 
1 1 1 1 1 1 
1 1 1 0 1 0 
1 1 0 0 1 1 
0 1 1 1 0 0 
Solution: 32 0
Classic Expectation: 19.200000
Initial Expecation: 13.500000
Gbest: 32.000000
Expectation: 17.674689
Final Parameters:
Gammas:
[ 6.235124 6.015427 0.410948 ]
Betas:
[ 2.278483 2.045876 1.504104 ]
Aggregate results:
[ 32 24 22 26 28 20 16 18 14 30 0 ]
[ 0.003225 0.042356 0.126636 0.038100 0.002413 0.239157 0.168791 0.233791 0.067895 0.002274 0.075362 ]
3
Num Evals 1154
GenUC: 2.801411e-04
GenUB: 5.144952e-05
Optimisation 2.392151e+00
Total Time: 2.392485e+00
4 Rem 6
Graph 1:
1 1 0 0 1 0 
1 1 0 0 1 1 
1 1 1 1 1 1 
0 1 1 0 1 0 
1 1 0 0 0 1 
0 1 1 0 0 0 
Graph 2:
1 1 0 0 1 0 
1 1 0 0 1 1 
0 1 1 1 0 0 
0 1 1 0 1 0 
1 1 0 0 0 0 
0 1 0 0 0 0 
Solution: 31 0
Classic Expectation: 17.600000
Initial Expecation: 12.375000
Gbest: 31.000000
Expectation: 18.236368
Final Parameters:
Gammas:
[ 6.212729 2.639369 3.535881 ]
Betas:
[ 2.503362 3.141593 2.917036 ]
Aggregate results:
[ 31 25 21 23 27 29 19 17 15 11 13 9 7 0 ]
[ 0.005260 0.059090 0.157136 0.102636 0.036088 0.003890 0.214843 0.199042 0.113396 0.011137 0.039999 0.003207 0.001478 0.052797 ]
3
Num Evals 603
GenUC: 2.801635e-04
GenUB: 5.108683e-05
Optimisation 1.333322e+00
Total Time: 1.333655e+00
5 Add/Rem 6
Graph 1:
1 1 0 0 1 0 
1 1 0 0 1 1 
1 1 1 1 1 1 
0 1 1 0 1 0 
1 1 0 0 0 1 
0 1 1 0 0 0 
Graph 2:
1 1 0 0 1 0 
1 0 0 0 0 1 
1 1 0 1 1 1 
1 0 1 0 0 0 
1 1 1 1 0 1 
1 0 1 1 0 0 
Solution: 27 120
Classic Expectation: 18.800000
Initial Expecation: 13.218750
Gbest: 27.000000
Expectation: 17.667094
Final Parameters:
Gammas:
[ 1.795411 1.590428 6.095041 ]
Betas:
[ 3.105658 2.030093 1.334041 ]
Aggregate results:
[ 25 21 23 19 17 27 13 15 11 0 ]
[ 0.063656 0.241734 0.132255 0.241738 0.111578 0.015659 0.013003 0.056390 0.002715 0.121271 ]
3
Num Evals 632
GenUC: 2.806752e-04
GenUB: 5.038321e-05
Optimisation 1.189842e+00
Total Time: 1.190176e+00
