Clock Speed: 3.688583
Num threads: 4
Trotterisation: 3
Num Qubits: 10
Space Dimension: 1024
Run-Type: 0
Num_samples: 32399
Optimiser Method: 29
1 Isomorphic
Graph 1:
1 1 1 1 1 1 
1 1 1 1 1 1 
1 1 0 0 1 0 
0 1 0 1 0 1 
1 1 0 0 0 0 
1 1 0 0 0 0 
Graph 2:
1 1 1 1 1 1 
1 1 1 1 1 1 
1 1 0 0 1 0 
0 1 0 1 0 1 
1 1 0 0 0 0 
1 1 0 0 0 0 
Solution: 36 0
Classic Expectation: 19.066667
Initial Expecation: 13.406250
Gbest: 36.000000
Expectation: 20.168020
Final Parameters:
Gammas:
[ 6.211879 6.283185 3.241184 ]
Betas:
[ 1.718602 0.757069 0.278831 ]
Aggregate results:
[ 36 32 28 30 34 24 22 18 20 26 16 14 12 0 ]
[ 0.007637 0.037904 0.104989 0.042662 0.011257 0.052144 0.263319 0.033812 0.160452 0.011995 0.093328 0.088076 0.014792 0.077631 ]
3
Num Evals 1034
GenUC: 2.602774e-04
GenUB: 9.372097e-05
Optimisation 1.257065e+00
Total Time: 1.257439e+00
2 Flipped
Graph 1:
1 1 1 1 1 1 
1 1 1 1 1 1 
1 1 0 0 1 0 
0 1 0 1 0 1 
1 1 0 0 0 0 
1 1 0 0 0 0 
Graph 2:
1 1 1 1 1 1 
1 1 1 1 1 1 
0 1 0 0 1 1 
1 0 1 0 1 0 
0 0 0 0 1 1 
0 0 0 0 1 1 
Solution: 26 8
Classic Expectation: 18.800000
Initial Expecation: 13.218750
Gbest: 26.000000
Expectation: 18.366167
Final Parameters:
Gammas:
[ 6.220085 6.283185 3.217914 ]
Betas:
[ 1.416686 0.831894 0.281750 ]
Aggregate results:
[ 20 22 24 26 18 16 14 12 0 ]
[ 0.213310 0.194866 0.062707 0.009001 0.260594 0.171536 0.039752 0.006844 0.041390 ]
3
Num Evals 953
GenUC: 2.821846e-04
GenUB: 5.004322e-05
Optimisation 1.161309e+00
Total Time: 1.161643e+00
3 Add 6
Graph 1:
1 1 1 1 1 1 
1 1 1 1 1 1 
1 1 0 0 1 0 
0 1 0 1 0 1 
1 1 0 0 0 0 
1 1 0 0 0 0 
Graph 2:
1 1 1 1 1 1 
1 1 1 1 1 1 
1 1 1 0 1 0 
1 1 0 1 0 1 
1 1 0 0 1 0 
1 1 0 0 0 1 
Solution: 32 0
Classic Expectation: 19.333333
Initial Expecation: 13.593750
Gbest: 32.000000
Expectation: 17.878177
Final Parameters:
Gammas:
[ 6.202643 5.494935 5.729945 ]
Betas:
[ 2.426149 1.823933 1.678714 ]
Aggregate results:
[ 32 28 30 22 20 24 16 18 14 12 0 ]
[ 0.027275 0.063017 0.019513 0.125873 0.345078 0.023264 0.109397 0.058587 0.108950 0.008015 0.111031 ]
3
Num Evals 923
GenUC: 2.803390e-04
GenUB: 5.188416e-05
Optimisation 1.667845e+00
Total Time: 1.668179e+00
4 Rem 6
Graph 1:
1 1 1 1 1 1 
1 1 1 1 1 1 
1 1 0 0 1 0 
0 1 0 1 0 1 
1 1 0 0 0 0 
1 1 0 0 0 0 
Graph 2:
1 1 1 1 1 0 
1 0 1 0 1 0 
0 1 0 0 1 0 
0 1 0 1 0 1 
1 1 0 0 0 0 
1 0 0 0 0 0 
Solution: 30 0
Classic Expectation: 17.733333
Initial Expecation: 12.468750
Gbest: 30.000000
Expectation: 17.989020
Final Parameters:
Gammas:
[ 6.197357 4.024843 5.537437 ]
Betas:
[ 2.683138 3.111183 0.205643 ]
Aggregate results:
[ 30 26 22 24 28 18 20 16 14 12 10 0 ]
[ 0.007625 0.061089 0.161874 0.073924 0.019455 0.212340 0.193239 0.108455 0.041801 0.020479 0.003869 0.095851 ]
3
Num Evals 1182
GenUC: 2.804030e-04
GenUB: 5.128846e-05
Optimisation 2.067526e+00
Total Time: 2.067859e+00
5 Add/Rem 6
Graph 1:
1 1 1 1 1 1 
1 1 1 1 1 1 
1 1 0 0 1 0 
0 1 0 1 0 1 
1 1 0 0 0 0 
1 1 0 0 0 0 
Graph 2:
0 1 1 1 0 1 
1 1 0 1 0 1 
0 0 0 1 1 0 
0 1 0 1 0 1 
1 1 0 0 1 1 
1 1 0 0 0 0 
Solution: 27 0
Classic Expectation: 18.266667
Initial Expecation: 12.843750
Gbest: 27.000000
Expectation: 16.476917
Final Parameters:
Gammas:
[ 3.409557 1.833987 0.476756 ]
Betas:
[ 2.620239 2.905143 1.112650 ]
Aggregate results:
[ 27 23 25 21 19 17 15 13 11 9 0 ]
[ 0.001126 0.067449 0.013369 0.222392 0.255113 0.177405 0.076751 0.053557 0.016193 0.000234 0.116413 ]
3
Num Evals 761
GenUC: 2.808759e-04
GenUB: 4.999334e-05
Optimisation 1.480693e+00
Total Time: 1.481025e+00
