Clock Speed: 3.689424
Num threads: 4
Trotterisation: 3
Num Qubits: 10
Space Dimension: 1024
Run-Type: 0
Num_samples: 32399
Optimiser Method: 29
1 Isomorphic
Graph 1:
1 1 0 1 1 1 
1 1 0 1 1 0 
0 0 1 0 0 1 
1 0 0 1 0 1 
0 0 1 0 1 1 
0 1 1 1 1 1 
Graph 2:
1 1 0 1 1 1 
1 1 0 1 1 0 
0 0 1 0 0 1 
1 0 0 1 0 1 
0 0 1 0 1 1 
0 1 1 1 1 1 
Solution: 36 0
Classic Expectation: 21.066667
Initial Expecation: 14.812500
Gbest: 36.000000
Expectation: 20.319048
Final Parameters:
Gammas:
[ 6.239070 6.283185 3.367545 ]
Betas:
[ 2.493315 3.131637 2.679206 ]
Aggregate results:
[ 36 26 32 22 28 20 18 30 24 16 14 12 0 ]
[ 0.000605 0.087126 0.001732 0.234344 0.015350 0.268293 0.137232 0.003676 0.148059 0.044129 0.012409 0.000976 0.046070 ]
3
Num Evals 776
GenUC: 2.594097e-04
GenUB: 8.794191e-05
Optimisation 1.640606e+00
Total Time: 1.640970e+00
2 Flipped
Graph 1:
1 1 0 1 1 1 
1 1 0 1 1 0 
0 0 1 0 0 1 
1 0 0 1 0 1 
0 0 1 0 1 1 
0 1 1 1 1 1 
Graph 2:
1 1 1 0 1 1 
0 1 1 0 1 1 
1 0 0 1 0 0 
1 0 1 0 0 1 
1 1 0 1 0 0 
1 1 1 1 1 0 
Solution: 24 80
Classic Expectation: 17.333333
Initial Expecation: 12.187500
Gbest: 24.000000
Expectation: 16.041677
Final Parameters:
Gammas:
[ 5.045587 4.526965 0.085618 ]
Betas:
[ 3.113676 0.592266 2.673810 ]
Aggregate results:
[ 16 14 18 20 22 12 10 24 8 0 ]
[ 0.144379 0.039828 0.277956 0.253942 0.116146 0.008259 0.000634 0.017876 0.000286 0.140694 ]
3
Num Evals 1440
GenUC: 2.799843e-04
GenUB: 5.050452e-05
Optimisation 2.513628e+00
Total Time: 2.513961e+00
3 Add 6
Graph 1:
1 1 0 1 1 1 
1 1 0 1 1 0 
0 0 1 0 0 1 
1 0 0 1 0 1 
0 0 1 0 1 1 
0 1 1 1 1 1 
Graph 2:
1 1 1 1 1 1 
1 1 0 1 1 0 
0 1 1 1 0 1 
1 1 0 1 0 1 
1 0 1 0 1 1 
0 1 1 1 1 1 
Solution: 31 0
Classic Expectation: 21.400000
Initial Expecation: 15.046875
Gbest: 31.000000
Expectation: 19.500432
Final Parameters:
Gammas:
[ 5.933281 3.112148 1.931543 ]
Betas:
[ 2.798845 1.774077 1.505710 ]
Aggregate results:
[ 31 21 29 23 17 25 19 27 15 0 ]
[ 0.002180 0.201174 0.004161 0.301866 0.026694 0.191866 0.048129 0.068378 0.008899 0.146652 ]
3
Num Evals 1141
GenUC: 2.809626e-04
GenUB: 5.202912e-05
Optimisation 2.085448e+00
Total Time: 2.085783e+00
4 Rem 6
Graph 1:
1 1 0 1 1 1 
1 1 0 1 1 0 
0 0 1 0 0 1 
1 0 0 1 0 1 
0 0 1 0 1 1 
0 1 1 1 1 1 
Graph 2:
0 1 0 1 1 1 
1 0 0 1 1 0 
0 0 1 0 0 1 
1 0 0 0 0 1 
0 0 1 0 1 1 
0 0 1 1 1 0 
Solution: 31 0
Classic Expectation: 17.000000
Initial Expecation: 11.953125
Gbest: 31.000000
Expectation: 15.921126
Final Parameters:
Gammas:
[ 3.172710 6.165264 0.007733 ]
Betas:
[ 2.889844 1.627403 1.981906 ]
Aggregate results:
[ 31 23 27 19 17 15 25 21 13 11 9 0 ]
[ 0.001852 0.027763 0.002822 0.195627 0.254435 0.178586 0.011082 0.135852 0.084228 0.016060 0.002925 0.088769 ]
3
Num Evals 1332
GenUC: 2.803611e-04
GenUB: 5.164649e-05
Optimisation 2.557322e+00
Total Time: 2.557656e+00
5 Add/Rem 6
Graph 1:
1 1 0 1 1 1 
1 1 0 1 1 0 
0 0 1 0 0 1 
1 0 0 1 0 1 
0 0 1 0 1 1 
0 1 1 1 1 1 
Graph 2:
0 0 1 1 1 1 
1 1 0 1 1 0 
0 1 0 0 1 0 
1 0 1 1 0 0 
1 0 1 0 1 1 
0 1 1 1 1 1 
Solution: 26 0
Classic Expectation: 19.200000
Initial Expecation: 13.500000
Gbest: 26.000000
Expectation: 20.866448
Final Parameters:
Gammas:
[ 6.233147 6.204020 2.823411 ]
Betas:
[ 2.511723 2.900504 2.993869 ]
Aggregate results:
[ 26 22 18 20 16 24 14 12 10 0 ]
[ 0.059325 0.327958 0.071845 0.313885 0.007252 0.177298 0.008644 0.002651 0.001399 0.029743 ]
3
Num Evals 1807
GenUC: 2.797883e-04
GenUB: 4.998632e-05
Optimisation 3.968776e+00
Total Time: 3.969108e+00
