Clock Speed: 3.688811
Num threads: 4
Trotterisation: 3
Num Qubits: 10
Space Dimension: 1024
Run-Type: 0
Num_samples: 32399
Optimiser Method: 29
1 Isomorphic
Graph 1:
1 1 0 0 0 1 
1 0 0 1 1 1 
1 0 0 1 0 0 
0 1 0 0 1 1 
0 0 0 0 0 0 
1 1 1 0 0 0 
Graph 2:
1 1 0 0 0 1 
1 0 0 1 1 1 
1 0 0 1 0 0 
0 1 0 0 1 1 
0 0 0 0 0 0 
1 1 1 0 0 0 
Solution: 36 0
Classic Expectation: 19.400000
Initial Expecation: 13.640625
Gbest: 36.000000
Expectation: 17.343825
Final Parameters:
Gammas:
[ 5.894675 5.497385 0.393584 ]
Betas:
[ 2.370846 3.141593 2.898593 ]
Aggregate results:
[ 36 28 22 24 16 26 20 18 14 12 30 0 ]
[ 0.000871 0.011632 0.197687 0.139039 0.081383 0.035370 0.184326 0.154642 0.031507 0.005834 0.003259 0.154449 ]
3
Num Evals 448
GenUC: 2.605323e-04
GenUB: 9.426894e-05
Optimisation 1.028971e+00
Total Time: 1.029346e+00
2 Flipped
Graph 1:
1 1 0 0 0 1 
1 0 0 1 1 1 
1 0 0 1 0 0 
0 1 0 0 1 1 
0 0 0 0 0 0 
1 1 1 0 0 0 
Graph 2:
1 0 0 0 1 1 
1 1 1 0 0 1 
0 0 1 0 0 1 
1 1 0 0 1 0 
0 0 0 0 0 0 
0 0 0 1 1 1 
Solution: 26 609
Classic Expectation: 17.600000
Initial Expecation: 12.375000
Gbest: 26.000000
Expectation: 16.049027
Final Parameters:
Gammas:
[ 6.236075 4.972774 4.161410 ]
Betas:
[ 2.301565 3.105584 0.484355 ]
Aggregate results:
[ 18 14 16 20 22 12 24 10 26 0 ]
[ 0.249926 0.102525 0.221360 0.165634 0.081039 0.060735 0.021061 0.013484 0.004177 0.080060 ]
3
Num Evals 771
GenUC: 2.804783e-04
GenUB: 5.029904e-05
Optimisation 1.426228e+00
Total Time: 1.426561e+00
3 Add 6
Graph 1:
1 1 0 0 0 1 
1 0 0 1 1 1 
1 0 0 1 0 0 
0 1 0 0 1 1 
0 0 0 0 0 0 
1 1 1 0 0 0 
Graph 2:
1 1 0 0 0 1 
1 0 1 1 1 1 
1 1 0 1 1 0 
1 1 0 0 1 1 
0 0 0 0 1 0 
1 1 1 0 1 0 
Solution: 30 0
Classic Expectation: 18.400000
Initial Expecation: 12.937500
Gbest: 30.000000
Expectation: 19.041298
Final Parameters:
Gammas:
[ 6.208803 5.878436 3.155990 ]
Betas:
[ 2.388296 1.171600 1.744686 ]
Aggregate results:
[ 30 22 24 20 18 28 16 26 12 14 10 0 ]
[ 0.002208 0.266396 0.155343 0.204473 0.113769 0.007466 0.055110 0.055755 0.017296 0.033347 0.003397 0.085440 ]
3
Num Evals 1548
GenUC: 2.799637e-04
GenUB: 5.165226e-05
Optimisation 2.624295e+00
Total Time: 2.624629e+00
4 Rem 6
Graph 1:
1 1 0 0 0 1 
1 0 0 1 1 1 
1 0 0 1 0 0 
0 1 0 0 1 1 
0 0 0 0 0 0 
1 1 1 0 0 0 
Graph 2:
1 0 0 0 0 1 
1 0 0 1 1 1 
1 0 0 0 0 0 
0 1 0 0 1 0 
0 0 0 0 0 0 
1 0 0 0 0 0 
Solution: 31 0
Classic Expectation: 19.733333
Initial Expecation: 13.875000
Gbest: 31.000000
Expectation: 21.398385
Final Parameters:
Gammas:
[ 6.240082 6.228650 2.908629 ]
Betas:
[ 2.543374 2.773130 2.955396 ]
Aggregate results:
[ 31 27 25 23 19 21 15 17 29 13 11 0 ]
[ 0.007195 0.030916 0.102811 0.298578 0.169070 0.317663 0.005884 0.043001 0.005911 0.001941 0.000352 0.016679 ]
3
Num Evals 908
GenUC: 2.806356e-04
GenUB: 5.092577e-05
Optimisation 1.947006e+00
Total Time: 1.947340e+00
5 Add/Rem 6
Graph 1:
1 1 0 0 0 1 
1 0 0 1 1 1 
1 0 0 1 0 0 
0 1 0 0 1 1 
0 0 0 0 0 0 
1 1 1 0 0 0 
Graph 2:
1 1 0 0 0 1 
0 0 0 0 1 1 
1 1 0 0 1 1 
0 1 0 0 0 0 
1 1 0 0 0 0 
1 1 1 0 0 1 
Solution: 27 2
Classic Expectation: 18.733333
Initial Expecation: 13.171875
Gbest: 27.000000
Expectation: 17.668738
Final Parameters:
Gammas:
[ 6.283185 6.236436 3.044406 ]
Betas:
[ 1.079202 2.149103 0.457352 ]
Aggregate results:
[ 25 21 27 23 19 17 15 13 11 0 ]
[ 0.023154 0.167896 0.006590 0.087611 0.238233 0.241338 0.127463 0.054047 0.011582 0.042088 ]
3
Num Evals 1038
GenUC: 2.819184e-04
GenUB: 5.393504e-05
Optimisation 1.506702e+00
Total Time: 1.507041e+00
