Clock Speed: 3.689414
Num threads: 4
Trotterisation: 3
Graph Size: 4
Num Qubits: 5
Space Dimension: 32
Run-Type: 0
Num_samples: 10
1 Isomorphic
Graph 1:
0 0 0 0 
0 1 1 0 
1 1 0 1 
1 1 0 0 
Graph 2:
0 0 0 0 
0 1 1 0 
1 1 0 1 
1 1 0 0 
Solution: 0 0
Gbest: 0.000000
Expectation: -6.241879
Final Parameters:
Gammas:
[ 4.730366 4.520623 5.567578 ]
Betas:
[ 1.480148 3.085633 1.932924 1.652424 ]
Aggregate results:
[ -1 3 9 7 5 15 ]
[ 0.140488 0.208872 0.149206 0.329429 0.147318 0.024687 ]
5
Num Evals 400
GenUC: 1.371833e-04
GenUB: 1.191985e-05
Optimisation 1.175027e-01
Total Time: 1.179872e-01
2 Flipped
Graph 1:
0 0 0 0 
0 1 1 0 
1 1 0 1 
1 1 0 0 
Graph 2:
0 0 0 0 
0 1 1 0 
1 0 1 1 
0 0 1 1 
Solution: -6 0
Gbest: -6.000000
Expectation: -7.454309
Final Parameters:
Gammas:
[ 2.318107 3.877087 0.894790 ]
Betas:
[ 2.359237 2.823780 1.239830 2.408932 ]
Aggregate results:
[ 5 9 7 15 ]
[ 0.614586 0.153503 0.184852 0.047059 ]
5
Num Evals 800
GenUC: 9.391195e-06
GenUB: 8.852454e-06
Optimisation 1.333781e-01
Total Time: 1.337057e-01
3 Add 4
Graph 1:
0 0 0 0 
0 1 1 0 
1 1 0 1 
1 1 0 0 
Graph 2:
0 1 0 0 
0 1 1 1 
1 1 0 1 
1 1 1 0 
Solution: -3 0
Gbest: -3.000000
Expectation: -5.574464
Final Parameters:
Gammas:
[ 2.605311 2.207364 6.198558 ]
Betas:
[ 2.959898 2.107076 1.168018 0.295501 ]
Aggregate results:
[ 2 6 8 10 4 15 ]
[ 0.417473 0.229205 0.072742 0.011278 0.215451 0.053851 ]
5
Num Evals 1200
GenUC: 1.067869e-05
GenUB: 8.206349e-06
Optimisation 1.032017e-01
Total Time: 1.034866e-01
4 Rem 4
Graph 1:
0 0 0 0 
0 1 1 0 
1 1 0 1 
1 1 0 0 
Graph 2:
0 0 0 0 
0 0 1 0 
0 1 0 1 
1 0 0 0 
Solution: -3 0
Gbest: -5.000000
Expectation: -6.546509
Final Parameters:
Gammas:
[ 2.879284 4.451729 5.565634 ]
Betas:
[ 1.763727 2.351555 2.992755 2.910011 ]
Aggregate results:
[ 2 4 6 10 8 15 ]
[ 0.086517 0.510324 0.240597 0.097724 0.008745 0.056093 ]
5
Num Evals 1600
GenUC: 9.099487e-06
GenUB: 7.851311e-06
Optimisation 1.316640e-01
Total Time: 1.320056e-01
5 Add/Rem 4
Graph 1:
0 0 0 0 
0 1 1 0 
1 1 0 1 
1 1 0 0 
Graph 2:
1 0 1 0 
0 1 0 0 
1 0 0 0 
1 0 0 0 
Solution: -4 1
Gbest: -6.000000
Expectation: -7.625380
Final Parameters:
Gammas:
[ 4.029980 5.055877 3.640107 ]
Betas:
[ 3.140590 3.109658 2.857309 2.407247 ]
Aggregate results:
[ 5 3 7 9 15 ]
[ 0.192651 0.170237 0.423790 0.169157 0.044164 ]
5
Num Evals 2000
GenUC: 9.270880e-06
GenUB: 7.837807e-06
Optimisation 1.366031e-01
Total Time: 1.369636e-01
