Clock Speed: 3.688451
Num threads: 4
Trotterisation: 3
Graph Size: 4
Num Qubits: 5
Space Dimension: 32
Run-Type: 0
Num_samples: 10
1 Isomorphic
Graph 1:
1 0 1 0 
0 0 1 1 
1 0 0 1 
0 1 1 1 
Graph 2:
1 0 1 0 
0 0 1 1 
1 0 0 1 
0 1 1 1 
Solution: 0 0
Gbest: -6.000000
Expectation: -8.479445
Final Parameters:
Gammas:
[ 0.854608 3.314471 3.538861 ]
Betas:
[ 3.044528 1.321110 2.127668 1.245321 ]
Aggregate results:
[ -1 7 9 5 3 11 15 ]
[ 0.021418 0.250769 0.154701 0.276576 0.106770 0.049128 0.140638 ]
5
Num Evals 400
GenUC: 1.439254e-04
GenUB: 1.206645e-05
Optimisation 1.143502e-01
Total Time: 1.148697e-01
2 Flipped
Graph 1:
1 0 1 0 
0 0 1 1 
1 0 0 1 
0 1 1 1 
Graph 2:
0 1 0 1 
1 1 0 0 
1 0 0 1 
1 1 1 0 
Solution: -2 4
Gbest: -2.000000
Expectation: -6.655425
Final Parameters:
Gammas:
[ 2.941559 2.820367 5.779914 ]
Betas:
[ 2.293906 0.349330 0.009179 3.074415 ]
Aggregate results:
[ 9 7 1 3 11 5 15 ]
[ 0.110008 0.293883 0.115282 0.143726 0.009905 0.295518 0.031678 ]
5
Num Evals 800
GenUC: 9.655254e-06
GenUB: 8.191681e-06
Optimisation 1.067755e-01
Total Time: 1.070383e-01
3 Add 4
Graph 1:
1 0 1 0 
0 0 1 1 
1 0 0 1 
0 1 1 1 
Graph 2:
1 0 1 0 
1 1 1 1 
1 1 0 1 
0 1 1 1 
Solution: -3 0
Gbest: -5.000000
Expectation: -6.234955
Final Parameters:
Gammas:
[ 0.095816 3.009411 5.858941 ]
Betas:
[ 3.038184 2.037986 2.818155 0.313440 ]
Aggregate results:
[ 2 6 10 4 8 15 ]
[ 0.173962 0.302732 0.020472 0.337864 0.137155 0.027815 ]
5
Num Evals 1200
GenUC: 1.088763e-05
GenUB: 8.191564e-06
Optimisation 1.119140e-01
Total Time: 1.122257e-01
4 Rem 4
Graph 1:
1 0 1 0 
0 0 1 1 
1 0 0 1 
0 1 1 1 
Graph 2:
1 0 1 0 
0 0 1 1 
0 0 0 1 
0 0 0 1 
Solution: -3 0
Gbest: -3.000000
Expectation: -7.016864
Final Parameters:
Gammas:
[ 0.165940 3.387912 0.263663 ]
Betas:
[ 3.141593 1.414830 1.131644 2.838449 ]
Aggregate results:
[ 2 6 8 10 4 15 ]
[ 0.306439 0.283427 0.242130 0.091423 0.026960 0.049621 ]
5
Num Evals 1600
GenUC: 9.274343e-06
GenUB: 8.132425e-06
Optimisation 1.149687e-01
Total Time: 1.152884e-01
5 Add/Rem 4
Graph 1:
1 0 1 0 
0 0 1 1 
1 0 0 1 
0 1 1 1 
Graph 2:
1 0 0 0 
0 1 1 1 
0 1 1 1 
1 1 1 1 
Solution: -4 11
Gbest: -4.000000
Expectation: -7.406098
Final Parameters:
Gammas:
[ 1.637688 2.808110 4.689019 ]
Betas:
[ 1.987531 0.039669 2.627292 1.817383 ]
Aggregate results:
[ 5 9 7 3 15 ]
[ 0.328813 0.180645 0.188696 0.226028 0.075818 ]
5
Num Evals 2000
GenUC: 8.259783e-06
GenUB: 7.908791e-06
Optimisation 1.042488e-01
Total Time: 1.045194e-01
