Clock Speed: 3.689400
Num threads: 4
Trotterisation: 3
Graph Size: 4
Num Qubits: 5
Space Dimension: 32
Run-Type: 0
Num_samples: 10
1 Isomorphic
Graph 1:
0 0 1 0 
1 1 0 0 
0 0 1 0 
0 1 0 0 
Graph 2:
0 0 1 0 
1 1 0 0 
0 0 1 0 
0 1 0 0 
Solution: 0 0
Gbest: 0.000000
Expectation: -5.211324
Final Parameters:
Gammas:
[ 2.549890 2.088283 6.184972 ]
Betas:
[ 1.005098 0.758929 3.115957 2.103748 ]
Aggregate results:
[ -1 7 5 9 1 15 ]
[ 0.210576 0.099682 0.574612 0.047843 0.042058 0.025228 ]
5
Num Evals 400
GenUC: 1.606600e-04
GenUB: 1.278368e-05
Optimisation 1.060433e-01
Total Time: 1.065694e-01
2 Flipped
Graph 1:
0 0 1 0 
1 1 0 0 
0 0 1 0 
0 1 0 0 
Graph 2:
0 1 0 0 
0 0 1 1 
0 1 0 0 
0 0 1 0 
Solution: -4 21
Gbest: -4.000000
Expectation: -7.280749
Final Parameters:
Gammas:
[ 4.516244 3.113993 0.108492 ]
Betas:
[ 0.966753 0.359061 1.334795 0.553501 ]
Aggregate results:
[ 9 5 7 3 15 ]
[ 0.213420 0.328345 0.189279 0.220087 0.048869 ]
5
Num Evals 800
GenUC: 9.249750e-06
GenUB: 8.006813e-06
Optimisation 1.029351e-01
Total Time: 1.031700e-01
3 Add 4
Graph 1:
0 0 1 0 
1 1 0 0 
0 0 1 0 
0 1 0 0 
Graph 2:
0 0 1 0 
1 1 1 1 
0 1 1 0 
0 1 0 1 
Solution: -4 0
Gbest: -4.000000
Expectation: -7.288652
Final Parameters:
Gammas:
[ 3.079910 2.940463 4.846771 ]
Betas:
[ 1.898439 1.564348 1.933977 1.618204 ]
Aggregate results:
[ 3 9 7 5 15 ]
[ 0.160976 0.184716 0.334011 0.299926 0.020372 ]
5
Num Evals 1200
GenUC: 1.079490e-05
GenUB: 8.126546e-06
Optimisation 1.111321e-01
Total Time: 1.114359e-01
4 Rem 4
Graph 1:
0 0 1 0 
1 1 0 0 
0 0 1 0 
0 1 0 0 
Graph 2:
0 0 1 0 
0 1 0 0 
0 0 0 0 
0 0 0 0 
Solution: -3 0
Gbest: -3.000000
Expectation: -5.413314
Final Parameters:
Gammas:
[ 0.783961 4.642367 0.934119 ]
Betas:
[ 0.992145 0.377396 2.461956 1.100598 ]
Aggregate results:
[ 2 6 4 15 ]
[ 0.302923 0.204616 0.437012 0.055448 ]
5
Num Evals 1600
GenUC: 8.511503e-06
GenUB: 8.378905e-06
Optimisation 9.741221e-02
Total Time: 9.766479e-02
5 Add/Rem 4
Graph 1:
0 0 1 0 
1 1 0 0 
0 0 1 0 
0 1 0 0 
Graph 2:
0 0 1 0 
1 0 0 0 
1 1 0 0 
0 0 1 0 
Solution: -4 4
Gbest: -4.000000
Expectation: -6.144685
Final Parameters:
Gammas:
[ 0.211202 3.659478 4.593608 ]
Betas:
[ 0.221100 2.708147 1.376172 1.505810 ]
Aggregate results:
[ 5 9 3 7 15 ]
[ 0.671966 0.005984 0.185602 0.109065 0.027382 ]
5
Num Evals 2000
GenUC: 8.719275e-06
GenUB: 7.867173e-06
Optimisation 9.674043e-02
Total Time: 9.701150e-02
