Clock Speed: 3.689047
Num threads: 4
Trotterisation: 6
Graph Size: 7
Num Qubits: 13
Space Dimension: 8192
Run-Type: 0
Num_samples: 10
1 Isomorphic
Graph 1:
0 0 1 0 0 1 1 
0 0 0 0 1 0 0 
1 0 1 0 1 1 1 
1 0 0 0 1 0 1 
0 1 1 0 1 1 0 
1 0 0 0 1 1 1 
1 1 0 0 1 1 1 
Graph 2:
0 0 1 0 0 1 1 
0 0 0 0 1 0 0 
1 0 1 0 1 1 1 
1 0 0 0 1 0 1 
0 1 1 0 1 1 0 
1 0 0 0 1 1 1 
1 1 0 0 1 1 1 
Solution: 0 0
Gbest: -16.000000
Expectation: -26.465196
Final Parameters:
Gammas:
[ 3.214485 0.518743 4.522973 0.962642 0.168838 0.586023 ]
Betas:
[ 0.449784 0.372948 0.061694 0.109111 1.704362 1.693042 2.986435 ]
Aggregate results:
[ -1 15 19 11 21 13 7 17 27 23 25 29 31 33 9 3 35 5 48 ]
[ 0.000038 0.076720 0.104018 0.011023 0.115997 0.028901 0.000388 0.112470 0.088463 0.117229 0.101229 0.057799 0.027642 0.006659 0.002389 0.000240 0.002675 0.000173 0.145947 ]
5
Num Evals 700
GenUC: 1.534751e-03
GenUB: 1.992448e-03
Optimisation 9.359186e+00
Total Time: 9.376101e+00
2 Flipped
Graph 1:
0 0 1 0 0 1 1 
0 0 0 0 1 0 0 
1 0 1 0 1 1 1 
1 0 0 0 1 0 1 
0 1 1 0 1 1 0 
1 0 0 0 1 1 1 
1 1 0 0 1 1 1 
Graph 2:
1 1 0 0 1 0 0 
0 0 1 0 0 0 0 
1 1 1 0 1 0 1 
1 0 1 0 0 0 1 
0 1 1 0 1 1 0 
1 1 1 0 0 0 1 
1 1 1 0 0 1 1 
Solution: -12 61
Gbest: -20.000000
Expectation: -26.716993
Final Parameters:
Gammas:
[ 3.141593 3.141593 3.141593 3.141593 3.141593 3.141593 ]
Betas:
[ 2.143245 0.062424 0.746498 1.752370 0.520186 1.965758 0.162913 ]
Aggregate results:
[ 17 19 21 23 25 27 15 11 29 31 33 13 35 48 ]
[ 0.062996 0.098908 0.148823 0.159628 0.159325 0.129250 0.023679 0.001907 0.068253 0.030943 0.010388 0.006571 0.001046 0.098285 ]
5
Num Evals 1400
GenUC: 1.200736e-03
GenUB: 1.701790e-03
Optimisation 1.016128e+01
Total Time: 1.017787e+01
3 Add 7
Graph 1:
0 0 1 0 0 1 1 
0 0 0 0 1 0 0 
1 0 1 0 1 1 1 
1 0 0 0 1 0 1 
0 1 1 0 1 1 0 
1 0 0 0 1 1 1 
1 1 0 0 1 1 1 
Graph 2:
1 0 1 0 0 1 1 
0 0 1 0 1 0 0 
1 0 1 1 1 1 1 
1 1 0 1 1 1 1 
1 1 1 0 1 1 0 
1 0 0 0 1 1 1 
1 1 0 0 1 1 1 
Solution: -7 0
Gbest: -21.000000
Expectation: -26.927879
Final Parameters:
Gammas:
[ 0.186774 3.287669 3.630577 4.634254 0.141674 3.064575 ]
Betas:
[ 1.664340 2.018831 1.594918 1.635340 1.765928 0.214362 0.069646 ]
Aggregate results:
[ 6 16 22 18 20 14 24 10 26 28 30 12 32 48 ]
[ 0.000106 0.036512 0.186953 0.066591 0.123312 0.008709 0.188315 0.001190 0.149290 0.079439 0.039852 0.001425 0.005335 0.112970 ]
5
Num Evals 2100
GenUC: 1.197386e-03
GenUB: 1.744226e-03
Optimisation 9.912309e+00
Total Time: 9.930568e+00
4 Rem 7
Graph 1:
0 0 1 0 0 1 1 
0 0 0 0 1 0 0 
1 0 1 0 1 1 1 
1 0 0 0 1 0 1 
0 1 1 0 1 1 0 
1 0 0 0 1 1 1 
1 1 0 0 1 1 1 
Graph 2:
0 0 1 0 0 1 0 
0 0 0 0 0 0 0 
0 0 0 0 1 1 1 
1 0 0 0 0 0 1 
0 1 1 0 1 1 0 
0 0 0 0 1 1 1 
1 0 0 0 1 1 1 
Solution: -7 0
Gbest: -21.000000
Expectation: -26.195962
Final Parameters:
Gammas:
[ 0.004198 6.219300 0.389002 0.517092 0.111797 3.676238 ]
Betas:
[ 1.576730 0.271107 2.188246 1.596880 0.103152 0.081244 3.013071 ]
Aggregate results:
[ 6 14 16 12 18 20 26 22 24 28 30 10 32 34 36 48 ]
[ 0.000228 0.013238 0.031040 0.003014 0.073290 0.127693 0.147788 0.168252 0.171523 0.116456 0.053187 0.001261 0.019738 0.005185 0.000269 0.067838 ]
5
Num Evals 2800
GenUC: 1.392464e-03
GenUB: 1.801014e-03
Optimisation 9.508944e+00
Total Time: 9.526611e+00
5 Add/Rem 7
Graph 1:
0 0 1 0 0 1 1 
0 0 0 0 1 0 0 
1 0 1 0 1 1 1 
1 0 0 0 1 0 1 
0 1 1 0 1 1 0 
1 0 0 0 1 1 1 
1 1 0 0 1 1 1 
Graph 2:
0 0 1 0 0 1 1 
0 0 0 0 1 0 0 
0 0 0 0 1 1 0 
1 1 0 0 1 0 1 
0 1 1 1 1 1 0 
1 0 1 1 1 0 1 
1 0 0 1 0 1 1 
Solution: -11 0
Gbest: -13.000000
Expectation: -27.388534
Final Parameters:
Gammas:
[ 3.227364 0.205519 3.092292 5.300340 0.687969 3.302068 ]
Betas:
[ 1.570796 0.203176 0.404027 0.664703 0.139629 0.047478 0.140221 ]
Aggregate results:
[ 10 22 14 18 24 16 20 12 28 26 30 32 34 36 48 ]
[ 0.000246 0.185523 0.020720 0.103106 0.133251 0.045744 0.160430 0.003302 0.052699 0.092820 0.025055 0.008394 0.001693 0.000257 0.166760 ]
5
Num Evals 3500
GenUC: 1.274734e-03
GenUB: 1.673733e-03
Optimisation 9.237146e+00
Total Time: 9.249328e+00
