Clock Speed: 3.688911
Num threads: 4
Trotterisation: 6
Graph Size: 7
Num Qubits: 13
Space Dimension: 8192
Run-Type: 0
Num_samples: 10
1 Isomorphic
Graph 1:
1 1 1 1 1 0 0 
0 0 0 0 0 1 0 
1 1 0 0 0 1 0 
1 0 1 1 1 1 1 
1 0 1 0 1 1 1 
0 1 1 1 0 0 0 
1 0 0 1 1 1 1 
Graph 2:
1 1 1 1 1 0 0 
0 0 0 0 0 1 0 
1 1 0 0 0 1 0 
1 0 1 1 1 1 1 
1 0 1 0 1 1 1 
0 1 1 1 0 0 0 
1 0 0 1 1 1 1 
Solution: 0 0
Gbest: -18.000000
Expectation: -26.082701
Final Parameters:
Gammas:
[ 3.141593 3.141593 0.097184 3.141593 3.141593 3.141593 ]
Betas:
[ 1.924388 1.568632 0.586703 0.143681 1.573341 1.830549 0.054817 ]
Aggregate results:
[ -1 19 7 11 17 25 13 23 31 21 15 27 29 3 9 5 33 35 48 ]
[ 0.000045 0.088884 0.000591 0.006287 0.047735 0.192175 0.011667 0.190223 0.032589 0.145250 0.024642 0.116861 0.058491 0.000082 0.001432 0.000434 0.003535 0.002409 0.076668 ]
5
Num Evals 700
GenUC: 1.515986e-03
GenUB: 2.082193e-03
Optimisation 9.809817e+00
Total Time: 9.826867e+00
2 Flipped
Graph 1:
1 1 1 1 1 0 0 
0 0 0 0 0 1 0 
1 1 0 0 0 1 0 
1 0 1 1 1 1 1 
1 0 1 0 1 1 1 
0 1 1 1 0 0 0 
1 0 0 1 1 1 1 
Graph 2:
0 0 1 1 1 1 1 
0 1 0 0 0 0 0 
0 1 0 0 0 1 1 
1 1 1 1 1 0 1 
1 1 1 0 1 0 1 
0 0 0 1 1 1 0 
1 1 1 1 0 0 1 
Solution: -12 4252
Gbest: -22.000000
Expectation: -26.796208
Final Parameters:
Gammas:
[ 3.149640 0.112415 3.181592 1.361988 3.947904 0.068780 ]
Betas:
[ 1.684857 1.650970 2.354699 0.104738 1.625985 1.684407 1.309023 ]
Aggregate results:
[ 19 21 25 23 27 31 29 17 33 13 15 11 48 ]
[ 0.106118 0.184359 0.164489 0.213438 0.095813 0.012130 0.034551 0.041752 0.001150 0.004275 0.020661 0.000316 0.120946 ]
5
Num Evals 1400
GenUC: 1.151703e-03
GenUB: 1.716761e-03
Optimisation 1.014884e+01
Total Time: 1.016813e+01
3 Add 7
Graph 1:
1 1 1 1 1 0 0 
0 0 0 0 0 1 0 
1 1 0 0 0 1 0 
1 0 1 1 1 1 1 
1 0 1 0 1 1 1 
0 1 1 1 0 0 0 
1 0 0 1 1 1 1 
Graph 2:
1 1 1 1 1 0 0 
0 1 0 0 1 1 0 
1 1 0 1 0 1 1 
1 0 1 1 1 1 1 
1 1 1 0 1 1 1 
1 1 1 1 0 0 1 
1 0 0 1 1 1 1 
Solution: -7 0
Gbest: -23.000000
Expectation: -25.040001
Final Parameters:
Gammas:
[ 3.192888 3.286678 0.137488 3.308506 0.170876 3.329419 ]
Betas:
[ 1.836388 2.418681 1.733639 0.434286 1.570796 1.570796 1.570796 ]
Aggregate results:
[ 6 18 20 12 14 22 16 26 24 28 10 30 32 48 ]
[ 0.000364 0.099055 0.192734 0.002782 0.013225 0.228758 0.052293 0.104738 0.181466 0.032484 0.000199 0.004746 0.000220 0.086936 ]
5
Num Evals 2100
GenUC: 1.176803e-03
GenUB: 1.804069e-03
Optimisation 1.115626e+01
Total Time: 1.118919e+01
4 Rem 7
Graph 1:
1 1 1 1 1 0 0 
0 0 0 0 0 1 0 
1 1 0 0 0 1 0 
1 0 1 1 1 1 1 
1 0 1 0 1 1 1 
0 1 1 1 0 0 0 
1 0 0 1 1 1 1 
Graph 2:
1 1 1 1 1 0 0 
0 0 0 0 0 1 0 
1 0 0 0 0 1 0 
0 0 1 1 1 1 0 
1 0 0 0 1 0 1 
0 0 1 1 0 0 0 
1 0 0 1 1 1 1 
Solution: -6 0
Gbest: -18.000000
Expectation: -27.977388
Final Parameters:
Gammas:
[ 3.232550 5.373555 0.519882 0.274342 0.310920 2.137166 ]
Betas:
[ 2.158014 0.252083 0.133577 0.037398 1.866756 0.245965 1.681642 ]
Aggregate results:
[ 5 21 23 9 19 17 13 25 31 29 15 27 33 11 35 37 48 ]
[ 0.000272 0.130204 0.167146 0.001267 0.080649 0.033557 0.008334 0.178094 0.028178 0.069682 0.023824 0.131098 0.007120 0.000660 0.002026 0.000055 0.137833 ]
5
Num Evals 2800
GenUC: 1.264759e-03
GenUB: 1.893503e-03
Optimisation 9.762040e+00
Total Time: 9.777432e+00
5 Add/Rem 7
Graph 1:
1 1 1 1 1 0 0 
0 0 0 0 0 1 0 
1 1 0 0 0 1 0 
1 0 1 1 1 1 1 
1 0 1 0 1 1 1 
0 1 1 1 0 0 0 
1 0 0 1 1 1 1 
Graph 2:
1 1 1 1 1 1 0 
1 0 1 0 0 1 0 
1 1 0 0 0 0 0 
0 0 0 1 1 1 0 
1 0 1 1 1 1 1 
0 1 1 0 1 0 0 
1 1 0 1 0 1 0 
Solution: -9 326
Gbest: -11.000000
Expectation: -28.801771
Final Parameters:
Gammas:
[ 3.233743 5.067575 3.185267 3.365019 3.332653 3.307657 ]
Betas:
[ 0.103160 2.379831 0.235991 2.961159 0.132259 1.570796 1.570796 ]
Aggregate results:
[ 12 22 14 20 24 18 26 30 16 28 10 32 34 8 48 ]
[ 0.002589 0.169231 0.017357 0.120908 0.153174 0.066954 0.120847 0.028241 0.029583 0.084670 0.001617 0.009482 0.001310 0.000154 0.193884 ]
5
Num Evals 3500
GenUC: 1.263753e-03
GenUB: 1.748501e-03
Optimisation 9.855103e+00
Total Time: 9.872980e+00
