Clock Speed: 3.688083
Num threads: 4
Trotterisation: 6
Graph Size: 7
Num Qubits: 13
Space Dimension: 8192
Run-Type: 0
Num_samples: 10
1 Isomorphic
Graph 1:
1 0 1 0 0 1 1 
0 0 1 1 0 0 0 
1 0 0 0 0 1 0 
0 1 0 0 1 1 0 
1 0 0 0 0 1 1 
1 1 0 0 1 0 1 
1 0 0 1 0 1 1 
Graph 2:
1 0 1 0 0 1 1 
0 0 1 1 0 0 0 
1 0 0 0 0 1 0 
0 1 0 0 1 1 0 
1 0 0 0 0 1 1 
1 1 0 0 1 0 1 
1 0 0 1 0 1 1 
Solution: 0 0
Gbest: -16.000000
Expectation: -25.541858
Final Parameters:
Gammas:
[ 0.043990 0.229931 3.222996 0.110112 0.176054 1.115706 ]
Betas:
[ 2.062621 2.258554 0.225834 0.297478 1.821859 0.133865 1.586108 ]
Aggregate results:
[ -1 15 19 13 11 25 9 21 17 23 27 29 33 31 7 35 5 48 ]
[ 0.000084 0.030138 0.114761 0.004692 0.002487 0.163318 0.003911 0.172442 0.052261 0.204070 0.105283 0.048832 0.003811 0.020269 0.000481 0.000303 0.000567 0.072289 ]
5
Num Evals 700
GenUC: 1.379639e-03
GenUB: 2.014720e-03
Optimisation 1.097397e+01
Total Time: 1.099141e+01
2 Flipped
Graph 1:
1 0 1 0 0 1 1 
0 0 1 1 0 0 0 
1 0 0 0 0 1 0 
0 1 0 0 1 1 0 
1 0 0 0 0 1 1 
1 1 0 0 1 0 1 
1 0 0 1 0 1 1 
Graph 2:
1 1 0 0 1 0 1 
0 0 0 1 1 0 0 
0 1 0 0 0 0 1 
0 1 1 0 0 1 0 
1 1 0 0 0 0 1 
1 0 1 0 0 1 1 
1 1 0 1 0 0 1 
Solution: -10 476
Gbest: -20.000000
Expectation: -26.461321
Final Parameters:
Gammas:
[ 0.177636 3.143925 1.715027 3.245118 4.195852 3.201016 ]
Betas:
[ 0.076008 0.131224 1.170952 0.032217 0.111396 0.042142 1.675270 ]
Aggregate results:
[ 19 25 23 15 31 29 21 17 27 33 11 13 9 35 48 ]
[ 0.122674 0.145796 0.198669 0.028040 0.011122 0.033685 0.176128 0.066297 0.080968 0.004353 0.001080 0.007919 0.000165 0.000527 0.122577 ]
5
Num Evals 1400
GenUC: 1.189340e-03
GenUB: 1.638338e-03
Optimisation 9.932368e+00
Total Time: 9.943553e+00
3 Add 7
Graph 1:
1 0 1 0 0 1 1 
0 0 1 1 0 0 0 
1 0 0 0 0 1 0 
0 1 0 0 1 1 0 
1 0 0 0 0 1 1 
1 1 0 0 1 0 1 
1 0 0 1 0 1 1 
Graph 2:
1 0 1 0 0 1 1 
0 1 1 1 0 0 0 
1 0 0 0 0 1 0 
1 1 1 0 1 1 0 
1 1 0 0 0 1 1 
1 1 0 0 1 0 1 
1 0 0 1 1 1 1 
Solution: -5 0
Gbest: -13.000000
Expectation: -26.501143
Final Parameters:
Gammas:
[ 0.180209 2.235021 3.279491 3.880309 5.306160 3.209423 ]
Betas:
[ 1.892039 2.040162 0.098102 1.577301 0.085819 1.686609 1.590996 ]
Aggregate results:
[ 4 14 22 16 18 20 12 28 24 26 30 8 32 34 10 48 ]
[ 0.000669 0.011829 0.195861 0.043182 0.096784 0.171115 0.008092 0.048666 0.168378 0.092192 0.020669 0.000305 0.007574 0.003875 0.000123 0.130686 ]
5
Num Evals 2100
GenUC: 1.256043e-03
GenUB: 1.898358e-03
Optimisation 9.914159e+00
Total Time: 9.932132e+00
4 Rem 7
Graph 1:
1 0 1 0 0 1 1 
0 0 1 1 0 0 0 
1 0 0 0 0 1 0 
0 1 0 0 1 1 0 
1 0 0 0 0 1 1 
1 1 0 0 1 0 1 
1 0 0 1 0 1 1 
Graph 2:
1 0 1 0 0 0 0 
0 0 0 1 0 0 0 
1 0 0 0 0 0 0 
0 1 0 0 1 0 0 
1 0 0 0 0 1 1 
1 1 0 0 0 0 1 
1 0 0 1 0 1 1 
Solution: -6 0
Gbest: -20.000000
Expectation: -26.493576
Final Parameters:
Gammas:
[ 3.161554 0.177846 3.182182 6.122248 0.114442 0.333034 ]
Betas:
[ 0.040621 3.027450 0.886512 1.554295 1.800905 0.012990 1.632175 ]
Aggregate results:
[ 5 17 21 15 19 13 23 25 11 27 31 29 9 33 35 48 ]
[ 0.003360 0.077374 0.154244 0.028280 0.126346 0.008949 0.168087 0.154597 0.005156 0.093981 0.012646 0.033741 0.001894 0.002159 0.000282 0.128903 ]
5
Num Evals 2800
GenUC: 1.350383e-03
GenUB: 1.608777e-03
Optimisation 9.662639e+00
Total Time: 9.680435e+00
5 Add/Rem 7
Graph 1:
1 0 1 0 0 1 1 
0 0 1 1 0 0 0 
1 0 0 0 0 1 0 
0 1 0 0 1 1 0 
1 0 0 0 0 1 1 
1 1 0 0 1 0 1 
1 0 0 1 0 1 1 
Graph 2:
0 1 1 0 0 1 1 
0 0 1 1 1 0 0 
0 1 1 0 0 1 0 
0 1 0 0 1 0 0 
1 0 0 0 0 1 1 
1 1 0 1 1 1 0 
1 0 0 1 0 0 1 
Solution: -11 0
Gbest: -17.000000
Expectation: -26.310211
Final Parameters:
Gammas:
[ 0.058381 0.077192 4.151826 3.473374 4.362874 0.093545 ]
Betas:
[ 3.097067 0.676653 0.271562 1.598706 1.779917 0.058866 1.628504 ]
Aggregate results:
[ 10 20 18 26 22 24 16 14 28 30 32 12 34 36 48 ]
[ 0.000435 0.158686 0.098248 0.122124 0.156905 0.150157 0.041586 0.010393 0.084584 0.064106 0.018591 0.001034 0.003104 0.000394 0.089653 ]
5
Num Evals 3500
GenUC: 1.305684e-03
GenUB: 1.797842e-03
Optimisation 9.524605e+00
Total Time: 9.542765e+00
