Clock Speed: 3.390217
Num threads: 4
Trotterisation: 6
Graph Size: 7
Num Qubits: 13
Space Dimension: 8192
Run-Type: 0
Num_samples: 10
1 Isomorphic
Graph 1:
0 0 1 0 0 0 0 
0 1 0 0 1 0 1 
0 1 0 1 1 0 0 
0 0 0 0 1 0 1 
0 0 1 0 0 1 0 
0 1 1 1 1 1 0 
0 0 0 0 0 0 1 
Graph 2:
0 0 1 0 0 0 0 
0 1 0 0 1 0 1 
0 1 0 1 1 0 0 
0 0 0 0 1 0 1 
0 0 1 0 0 1 0 
0 1 1 1 1 1 0 
0 0 0 0 0 0 1 
Solution: 0 0
Gbest: -22.000000
Expectation: -25.059066
Final Parameters:
Gammas:
[ 0.066706 3.698380 0.604637 3.143548 4.036384 1.419436 ]
Betas:
[ 1.872873 0.833382 0.151519 0.306465 0.053594 1.570807 0.056406 ]
Aggregate results:
[ -1 11 13 17 9 1 21 19 15 23 25 27 29 5 7 31 33 48 ]
[ 0.000677 0.011033 0.030071 0.098387 0.002441 0.001219 0.211995 0.155966 0.056128 0.166123 0.094664 0.029825 0.006821 0.000288 0.000452 0.001485 0.000201 0.132224 ]
5
Num Evals 700
GenUC: 1.438801e-03
GenUB: 2.014787e-03
Optimisation 9.406717e+00
Total Time: 9.420858e+00
2 Flipped
Graph 1:
0 0 1 0 0 0 0 
0 1 0 0 1 0 1 
0 1 0 1 1 0 0 
0 0 0 0 1 0 1 
0 0 1 0 0 1 0 
0 1 1 1 1 1 0 
0 0 0 0 0 0 1 
Graph 2:
0 0 0 0 1 0 0 
1 0 1 0 0 1 0 
0 0 1 1 0 1 0 
1 0 1 0 0 0 0 
0 1 0 0 1 0 0 
0 1 1 1 1 1 0 
1 0 0 0 0 0 0 
Solution: -10 1765
Gbest: -20.000000
Expectation: -27.035682
Final Parameters:
Gammas:
[ 0.158301 3.545761 0.152600 0.117646 0.007161 0.515989 ]
Betas:
[ 0.652175 0.801489 1.670665 1.867752 1.690877 0.064078 1.753508 ]
Aggregate results:
[ 21 19 17 23 15 13 25 27 29 11 9 31 48 ]
[ 0.188479 0.159900 0.093765 0.177879 0.038565 0.010651 0.095828 0.037672 0.007115 0.002724 0.000015 0.000439 0.186968 ]
5
Num Evals 1400
GenUC: 1.174157e-03
GenUB: 1.768806e-03
Optimisation 9.969627e+00
Total Time: 9.987311e+00
3 Add 7
Graph 1:
0 0 1 0 0 0 0 
0 1 0 0 1 0 1 
0 1 0 1 1 0 0 
0 0 0 0 1 0 1 
0 0 1 0 0 1 0 
0 1 1 1 1 1 0 
0 0 0 0 0 0 1 
Graph 2:
0 0 1 0 0 1 1 
0 1 0 0 1 0 1 
0 1 0 1 1 0 0 
0 0 0 1 1 1 1 
0 0 1 0 0 1 0 
0 1 1 1 1 1 0 
0 0 0 1 0 0 1 
Solution: -5 0
Gbest: -13.000000
Expectation: -24.937833
Final Parameters:
Gammas:
[ 3.201883 3.395338 0.156048 0.061152 3.696335 4.245377 ]
Betas:
[ 1.658680 0.841014 0.046125 0.068011 1.570796 1.570796 1.570796 ]
Aggregate results:
[ 4 14 16 18 20 12 24 22 26 28 30 32 8 48 ]
[ 0.000739 0.017800 0.050048 0.095566 0.153057 0.003736 0.220910 0.218532 0.105731 0.045804 0.012778 0.003125 0.000750 0.071424 ]
5
Num Evals 2100
GenUC: 1.294468e-03
GenUB: 1.817216e-03
Optimisation 9.635321e+00
Total Time: 9.652296e+00
4 Rem 7
Graph 1:
0 0 1 0 0 0 0 
0 1 0 0 1 0 1 
0 1 0 1 1 0 0 
0 0 0 0 1 0 1 
0 0 1 0 0 1 0 
0 1 1 1 1 1 0 
0 0 0 0 0 0 1 
Graph 2:
0 0 1 0 0 0 0 
0 1 0 0 0 0 0 
0 0 0 0 0 0 0 
0 0 0 0 1 0 1 
0 0 1 0 0 1 0 
0 1 1 1 0 0 0 
0 0 0 0 0 0 1 
Solution: -7 0
Gbest: -17.000000
Expectation: -22.973022
Final Parameters:
Gammas:
[ 3.195839 3.156509 1.532247 0.067413 0.245022 3.280023 ]
Betas:
[ 2.253228 0.516913 1.751486 1.606415 0.105411 0.225053 1.658837 ]
Aggregate results:
[ 6 12 14 18 16 8 20 10 22 24 26 48 ]
[ 0.000043 0.025598 0.080355 0.237954 0.148270 0.000034 0.206079 0.003148 0.133782 0.042052 0.004979 0.117706 ]
5
Num Evals 2800
GenUC: 1.021517e-03
GenUB: 1.953259e-03
Optimisation 9.833383e+00
Total Time: 9.850759e+00
5 Add/Rem 7
Graph 1:
0 0 1 0 0 0 0 
0 1 0 0 1 0 1 
0 1 0 1 1 0 0 
0 0 0 0 1 0 1 
0 0 1 0 0 1 0 
0 1 1 1 1 1 0 
0 0 0 0 0 0 1 
Graph 2:
1 0 0 1 0 1 0 
0 1 0 0 0 0 1 
0 1 0 0 0 0 0 
0 0 1 0 1 0 1 
0 0 1 0 1 1 0 
0 1 1 1 1 1 0 
0 0 0 0 1 0 0 
Solution: -11 0
Gbest: -19.000000
Expectation: -26.457312
Final Parameters:
Gammas:
[ 3.335657 0.001842 0.218404 3.371712 3.285655 3.289670 ]
Betas:
[ 0.075229 0.667057 2.889954 1.973085 1.660147 0.242655 0.292671 ]
Aggregate results:
[ 10 16 18 14 20 22 12 24 26 28 30 32 48 ]
[ 0.000987 0.052056 0.116072 0.016801 0.186984 0.205206 0.004150 0.137088 0.082515 0.037360 0.010324 0.001702 0.148755 ]
5
Num Evals 3500
GenUC: 1.224978e-03
GenUB: 1.913639e-03
Optimisation 1.018205e+01
Total Time: 1.019857e+01
