Clock Speed: 3.688911
Num threads: 4
Trotterisation: 1
Graph Size: 6
Num Qubits: 10
Space Dimension: 1024
Run-Type: 0
Num_samples: 10
1 Isomorphic
Graph 1:
0 1 1 1 0 0 
0 1 1 1 1 1 
1 0 1 0 0 0 
0 0 1 1 0 1 
1 0 0 0 1 0 
1 0 0 1 1 0 
Graph 2:
0 1 1 1 0 0 
0 1 1 1 1 1 
1 0 1 0 0 0 
0 0 1 1 0 1 
1 0 0 0 1 0 
1 0 0 1 1 0 
Solution: 0 0
Gbest: -12.000000
Expectation: -18.143218
Final Parameters:
Gammas:
[ 3.225328 ]
Betas:
[ 1.209790 2.879573 ]
Aggregate results:
[ -1 13 15 11 17 19 7 5 21 9 23 25 35 ]
[ 0.004232 0.133750 0.228386 0.069461 0.209701 0.134369 0.011783 0.006398 0.082487 0.024406 0.022755 0.001838 0.070436 ]
5
Num Evals 600
GenUC: 2.644045e-04
GenUB: 1.981932e-04
Optimisation 5.197553e-01
Total Time: 5.211182e-01
2 Flipped
Graph 1:
0 1 1 1 0 0 
0 1 1 1 1 1 
1 0 1 0 0 0 
0 0 1 1 0 1 
1 0 0 0 1 0 
1 0 0 1 1 0 
Graph 2:
0 0 1 1 1 0 
1 1 1 1 1 0 
0 0 0 1 0 1 
1 0 1 1 0 0 
0 1 0 0 0 1 
0 1 1 0 0 1 
Solution: -8 645
Gbest: -14.000000
Expectation: -22.494798
Final Parameters:
Gammas:
[ 3.899426 ]
Betas:
[ 1.494048 2.692154 ]
Aggregate results:
[ 19 15 21 17 11 13 25 23 9 29 7 35 ]
[ 0.186740 0.131212 0.086452 0.168520 0.032850 0.111954 0.008867 0.013449 0.004690 0.002228 0.000454 0.252586 ]
3
Num Evals 1153
GenUC: 1.363726e-04
GenUB: 1.469234e-04
Optimisation 4.986966e-01
Total Time: 4.999122e-01
3 Add 6
Graph 1:
0 1 1 1 0 0 
0 1 1 1 1 1 
1 0 1 0 0 0 
0 0 1 1 0 1 
1 0 0 0 1 0 
1 0 0 1 1 0 
Graph 2:
0 1 1 1 0 0 
0 1 1 1 1 1 
1 1 1 0 0 1 
0 0 1 1 1 1 
1 0 0 1 1 1 
1 0 0 1 1 1 
Solution: -6 0
Gbest: -14.000000
Expectation: -22.853821
Final Parameters:
Gammas:
[ 4.017630 ]
Betas:
[ 1.503688 2.011462 ]
Aggregate results:
[ 5 17 19 13 15 11 23 9 21 25 35 ]
[ 0.002252 0.217441 0.123791 0.084504 0.153096 0.042883 0.020869 0.009358 0.050451 0.003379 0.291977 ]
5
Num Evals 1753
GenUC: 1.277737e-04
GenUB: 1.630398e-04
Optimisation 4.991561e-01
Total Time: 5.002701e-01
4 Rem 6
Graph 1:
0 1 1 1 0 0 
0 1 1 1 1 1 
1 0 1 0 0 0 
0 0 1 1 0 1 
1 0 0 0 1 0 
1 0 0 1 1 0 
Graph 2:
0 1 0 1 0 0 
0 1 1 1 1 1 
0 0 1 0 0 0 
0 0 1 0 0 0 
1 0 0 0 0 0 
1 0 0 1 0 0 
Solution: -6 0
Gbest: -10.000000
Expectation: -18.714800
Final Parameters:
Gammas:
[ 3.225892 ]
Betas:
[ 1.319565 2.873602 ]
Aggregate results:
[ 5 17 19 15 13 21 9 11 25 23 7 35 ]
[ 0.002179 0.247126 0.168813 0.216838 0.110331 0.077163 0.023741 0.043008 0.005582 0.033682 0.004171 0.067367 ]
5
Num Evals 2353
GenUC: 1.228636e-04
GenUB: 1.581174e-04
Optimisation 5.506080e-01
Total Time: 5.517883e-01
5 Add/Rem 6
Graph 1:
0 1 1 1 0 0 
0 1 1 1 1 1 
1 0 1 0 0 0 
0 0 1 1 0 1 
1 0 0 0 1 0 
1 0 0 1 1 0 
Graph 2:
0 0 0 1 0 0 
1 1 1 1 1 1 
1 0 0 1 1 0 
1 1 1 1 0 1 
0 0 0 0 0 0 
1 0 0 1 1 0 
Solution: -10 0
Gbest: -14.000000
Expectation: -22.237904
Final Parameters:
Gammas:
[ 3.777001 ]
Betas:
[ 1.494915 0.466444 ]
Aggregate results:
[ 9 17 15 13 11 21 19 23 35 ]
[ 0.003203 0.183218 0.203648 0.082654 0.013985 0.135184 0.119596 0.028982 0.229529 ]
3
Num Evals 2635
GenUC: 1.130610e-04
GenUB: 1.619037e-04
Optimisation 1.733408e-01
Total Time: 1.742310e-01
