Clock Speed: 3.673455
Num threads: 4
Trotterisation: 4
Graph Size: 4
Num Qubits: 5
Space Dimension: 32
Run-Type: 0
Num_samples: 10
1 Isomorphic
Graph 1:
1 1 1 1 
0 0 1 1 
1 0 0 0 
0 0 1 1 
Graph 2:
1 1 1 1 
0 0 1 1 
1 0 0 0 
0 0 1 1 
Solution: 0 0
Gbest: 0.000000
Expectation: -6.717641
Final Parameters:
Gammas:
[ 2.448164 0.748892 6.188854 5.780020 ]
Betas:
[ 2.716707 1.147631 0.855324 0.258713 0.414734 ]
Aggregate results:
[ -1 5 7 9 3 13 15 ]
[ 0.264165 0.133524 0.241753 0.079114 0.107261 0.012318 0.161865 ]
5
Num Evals 400
GenUC: 1.698542e-04
GenUB: 1.252076e-05
Optimisation 1.182821e-01
Total Time: 1.187967e-01
2 Flipped
Graph 1:
1 1 1 1 
0 0 1 1 
1 0 0 0 
0 0 1 1 
Graph 2:
1 1 1 1 
1 1 0 0 
0 0 0 1 
1 1 0 0 
Solution: -4 3
Gbest: -4.000000
Expectation: -6.435358
Final Parameters:
Gammas:
[ 2.021876 4.315526 3.215900 3.271472 ]
Betas:
[ 3.137897 0.081589 1.704712 2.775920 2.915612 ]
Aggregate results:
[ 9 3 7 5 15 ]
[ 0.065197 0.155858 0.206599 0.565037 0.007309 ]
5
Num Evals 800
GenUC: 1.154543e-05
GenUB: 8.599513e-06
Optimisation 1.599486e-01
Total Time: 1.603580e-01
3 Add 4
Graph 1:
1 1 1 1 
0 0 1 1 
1 0 0 0 
0 0 1 1 
Graph 2:
1 1 1 1 
1 1 1 1 
1 0 1 0 
0 1 1 1 
Solution: -4 0
Gbest: -4.000000
Expectation: -6.718673
Final Parameters:
Gammas:
[ 5.814848 6.002409 5.869439 1.949011 ]
Betas:
[ 1.544753 1.614508 2.131747 1.335108 2.978735 ]
Aggregate results:
[ 3 5 7 9 15 ]
[ 0.328462 0.326108 0.242965 0.022497 0.079968 ]
5
Num Evals 1200
GenUC: 1.081190e-05
GenUB: 8.391187e-06
Optimisation 1.475318e-01
Total Time: 1.479181e-01
4 Rem 4
Graph 1:
1 1 1 1 
0 0 1 1 
1 0 0 0 
0 0 1 1 
Graph 2:
1 1 1 0 
0 0 1 1 
0 0 0 0 
0 0 0 1 
Solution: -3 0
Gbest: -3.000000
Expectation: -7.632568
Final Parameters:
Gammas:
[ 0.164881 0.729141 2.373728 2.869185 ]
Betas:
[ 2.829267 1.496285 1.281144 2.122501 1.288675 ]
Aggregate results:
[ 2 6 8 10 4 12 15 ]
[ 0.100414 0.476112 0.114502 0.096679 0.131325 0.015853 0.065115 ]
5
Num Evals 1600
GenUC: 9.421667e-06
GenUB: 7.765018e-06
Optimisation 1.457786e-01
Total Time: 1.461608e-01
5 Add/Rem 4
Graph 1:
1 1 1 1 
0 0 1 1 
1 0 0 0 
0 0 1 1 
Graph 2:
1 0 1 1 
0 0 0 0 
1 1 0 0 
1 1 1 0 
Solution: -5 8
Gbest: -5.000000
Expectation: -7.574646
Final Parameters:
Gammas:
[ 3.635744 5.511325 4.862636 1.184224 ]
Betas:
[ 0.717172 2.103453 2.923470 2.452452 2.338617 ]
Aggregate results:
[ 6 8 12 10 4 15 ]
[ 0.413450 0.163421 0.019420 0.006929 0.315223 0.081557 ]
5
Num Evals 2000
GenUC: 8.827192e-06
GenUB: 8.515024e-06
Optimisation 1.692615e-01
Total Time: 1.696703e-01
