Clock Speed: 3.498716
Num threads: 16
Trotterisation: 6
Num Qubits: 16
Space Dimension: 65536
Run-Type: 0
Num_samples: 64
Optimiser Method: 0
1 Isomorphic
Graph 1:
1 1 1 1 0 0 0 0 
1 1 1 0 0 1 1 0 
1 0 1 1 1 0 1 1 
1 1 1 0 1 0 0 0 
1 0 0 1 1 0 0 1 
0 0 1 0 0 1 0 1 
1 0 1 1 1 0 1 0 
1 0 1 0 0 0 1 0 
Graph 2:
1 1 1 1 0 0 0 0 
1 1 1 0 0 1 1 0 
1 0 1 1 1 0 1 1 
1 1 1 0 1 0 0 0 
1 0 0 1 1 0 0 1 
0 0 1 0 0 1 0 1 
1 0 1 1 1 0 1 0 
1 0 1 0 0 0 1 0 
Solution: 64 0
Classic Expectation: 33.000000
Initial Expecation: 20.302734
Gbest: 40.000000
Expectation: 21.968452
Final Parameters:
Gammas:
[ 1.047198 1.047198 1.047198 3.141593 3.141593 3.141593 ]
Betas:
[ 1.570796 1.570796 1.570796 1.570796 1.570796 2.617994 ]
Aggregate results:
[ 64 50 52 48 38 46 44 42 54 40 32 36 34 30 28 56 24 26 22 20 18 0 ]
[ 0.000032 0.000203 0.000138 0.000400 0.060274 0.001433 0.006509 0.013984 0.000064 0.033983 0.114569 0.093190 0.119970 0.100036 0.068464 0.000006 0.014423 0.032963 0.004466 0.000804 0.000055 0.334032 ]
3
Num Evals 49
GenUC: 1.830185e-02
GenUB: 1.313704e-02
Optimisation 2.722256e+01
Total Time: 2.725402e+01
2 Flipped
Graph 1:
1 1 1 1 0 0 0 0 
1 1 1 0 0 1 1 0 
1 0 1 1 1 0 1 1 
1 1 1 0 1 0 0 0 
1 0 0 1 1 0 0 1 
0 0 1 0 0 1 0 1 
1 0 1 1 1 0 1 0 
1 0 1 0 0 0 1 0 
Graph 2:
0 0 0 0 1 1 1 1 
0 1 1 0 0 1 1 1 
1 1 0 1 1 1 0 1 
0 0 0 1 0 1 1 1 
1 0 0 1 1 0 0 1 
1 0 1 0 0 1 0 0 
0 1 0 1 1 1 0 1 
0 1 0 0 0 1 0 1 
Solution: 48 25465
Classic Expectation: 32.500000
Initial Expecation: 19.995117
Gbest: 40.000000
Expectation: 25.889435
Final Parameters:
Gammas:
[ 5.003277 6.166830 4.305145 3.141593 3.141593 3.141593 ]
Betas:
[ 1.415656 2.617994 1.609581 1.570796 1.609581 2.617994 ]
Aggregate results:
[ 28 26 32 30 24 34 36 22 38 40 44 42 46 20 48 0 ]
[ 0.081948 0.034662 0.171571 0.135887 0.009095 0.153303 0.109510 0.001060 0.059334 0.025058 0.002746 0.007943 0.000336 0.000062 0.000050 0.207435 ]
3
Num Evals 533
GenUC: 2.286533e-02
GenUB: 1.357261e-02
Optimisation 3.124358e+02
Total Time: 3.124723e+02
3 Add 8
Graph 1:
1 1 1 1 0 0 0 0 
1 1 1 0 0 1 1 0 
1 0 1 1 1 0 1 1 
1 1 1 0 1 0 0 0 
1 0 0 1 1 0 0 1 
0 0 1 0 0 1 0 1 
1 0 1 1 1 0 1 0 
1 0 1 0 0 0 1 0 
Graph 2:
1 1 1 1 0 1 1 0 
1 1 1 0 1 1 1 0 
1 0 1 1 1 0 1 1 
1 1 1 0 1 0 0 0 
1 0 0 1 1 0 0 1 
0 0 1 1 0 1 0 1 
1 0 1 1 1 0 1 0 
1 0 1 1 0 1 1 1 
Solution: 57 0
Classic Expectation: 33.500000
Initial Expecation: 20.610352
Gbest: 45.000000
Expectation: 27.538745
Final Parameters:
Gammas:
[ 2.908882 3.374303 2.908882 3.141593 2.908882 3.141593 ]
Betas:
[ 1.570796 0.174533 0.523599 1.919862 1.570796 1.570796 ]
Aggregate results:
[ 57 47 49 45 41 43 39 51 37 35 29 33 31 27 25 23 19 21 0 ]
[ 0.000012 0.000853 0.000212 0.003252 0.026510 0.010110 0.061704 0.000126 0.106497 0.146418 0.092848 0.161116 0.140206 0.047801 0.021070 0.006154 0.000173 0.001127 0.173810 ]
3
Num Evals 347
GenUC: 2.289921e-02
GenUB: 1.362960e-02
Optimisation 1.791228e+02
Total Time: 1.791593e+02
4 Rem 8
Graph 1:
1 1 1 1 0 0 0 0 
1 1 1 0 0 1 1 0 
1 0 1 1 1 0 1 1 
1 1 1 0 1 0 0 0 
1 0 0 1 1 0 0 1 
0 0 1 0 0 1 0 1 
1 0 1 1 1 0 1 0 
1 0 1 0 0 0 1 0 
Graph 2:
0 0 1 1 0 0 0 0 
1 1 1 0 0 1 1 0 
1 0 1 0 1 0 1 0 
1 1 0 0 0 0 0 0 
1 0 0 1 0 0 0 1 
0 0 1 0 0 1 0 1 
1 0 1 0 1 0 1 0 
1 0 1 0 0 0 1 0 
Solution: 56 0
Classic Expectation: 32.000000
Initial Expecation: 19.687500
Gbest: 50.000000
Expectation: 21.249950
Final Parameters:
Gammas:
[ 1.047198 5.235988 1.047198 3.141593 3.141593 3.141593 ]
Betas:
[ 1.570796 1.570796 1.570796 1.570796 1.570796 2.617994 ]
Aggregate results:
[ 56 44 46 42 34 40 38 48 36 50 32 30 28 24 26 52 22 20 18 0 ]
[ 0.000026 0.002192 0.000635 0.007518 0.107122 0.019351 0.048045 0.000248 0.078609 0.000064 0.127290 0.114394 0.079910 0.021093 0.050202 0.000017 0.006299 0.001290 0.000043 0.335650 ]
3
Num Evals 75
GenUC: 2.290361e-02
GenUB: 1.421735e-02
Optimisation 4.145733e+01
Total Time: 4.149446e+01
5 Add/Rem 8
Graph 1:
1 1 1 1 0 0 0 0 
1 1 1 0 0 1 1 0 
1 0 1 1 1 0 1 1 
1 1 1 0 1 0 0 0 
1 0 0 1 1 0 0 1 
0 0 1 0 0 1 0 1 
1 0 1 1 1 0 1 0 
1 0 1 0 0 0 1 0 
Graph 2:
1 1 0 0 0 0 0 1 
0 1 1 0 1 1 1 0 
1 0 1 1 0 0 1 0 
1 1 1 0 0 0 0 0 
1 0 0 1 1 0 1 1 
0 0 1 0 0 1 1 1 
1 1 0 1 1 0 1 0 
1 0 1 0 1 0 1 1 
Solution: 50 0
Classic Expectation: 33.500000
Initial Expecation: 20.610352
Gbest: 44.000000
Expectation: 28.082736
Final Parameters:
Gammas:
[ 5.326486 1.040015 5.235509 3.114300 3.154521 3.149414 ]
Betas:
[ 1.357478 3.025237 1.163553 1.583007 1.580612 2.624458 ]
Aggregate results:
[ 50 44 38 40 42 36 34 48 46 30 32 28 26 24 22 20 18 0 ]
[ 0.000046 0.004158 0.097262 0.045930 0.017259 0.141389 0.164302 0.000119 0.001245 0.105179 0.155566 0.063204 0.026693 0.010349 0.002162 0.000331 0.000022 0.164783 ]
3
Num Evals 2469
GenUC: 2.288947e-02
GenUB: 1.347523e-02
Optimisation 1.414825e+03
Total Time: 1.414861e+03
