Clock Speed: 3.689256
Num threads: 4
Trotterisation: 6
Graph Size: 8
Num Qubits: 16
Space Dimension: 65536
Run-Type: 0
Num_samples: 10
1 Isomorphic
Graph 1:
1 0 1 0 1 0 1 0 
1 0 0 0 0 1 1 1 
1 1 1 0 0 0 0 0 
0 1 0 0 1 1 1 0 
1 1 1 0 0 1 1 1 
1 1 1 1 1 1 1 0 
1 1 1 1 0 0 1 0 
1 0 0 1 1 0 0 0 
Graph 2:
1 0 1 0 1 0 1 0 
1 0 0 0 0 1 1 1 
1 1 1 0 0 0 0 0 
0 1 0 0 1 1 1 0 
1 1 1 0 0 1 1 1 
1 1 1 1 1 1 1 0 
1 1 1 1 0 0 1 0 
1 0 0 1 1 0 0 0 
Solution: 0 0
Gbest: -20.000000
Expectation: -35.974900
Final Parameters:
Gammas:
[ 0.118458 3.161596 3.181860 1.465466 5.897284 5.465430 ]
Betas:
[ 1.803301 0.342332 0.409600 1.819565 1.748684 1.756482 1.610602 ]
Aggregate results:
[ -1 15 13 9 19 23 21 27 17 29 11 25 31 33 35 37 39 7 5 41 43 63 ]
[ 0.000004 0.001003 0.000665 0.000130 0.012599 0.064431 0.031177 0.120253 0.003613 0.120098 0.000052 0.097218 0.112841 0.115590 0.087905 0.045736 0.017162 0.000030 0.000009 0.003294 0.000208 0.165983 ]
5
Num Evals 800
GenUC: 4.298425e-03
GenUB: 1.728748e-02
Optimisation 2.868352e+02
Total Time: 2.872711e+02
2 Flipped
Graph 1:
1 0 1 0 1 0 1 0 
1 0 0 0 0 1 1 1 
1 1 1 0 0 0 0 0 
0 1 0 0 1 1 1 0 
1 1 1 0 0 1 1 1 
1 1 1 1 1 1 1 0 
1 1 1 1 0 0 1 0 
1 0 0 1 1 0 0 0 
Graph 2:
0 1 0 1 0 1 0 1 
1 1 1 0 0 0 0 1 
0 0 0 0 0 1 1 1 
0 1 1 1 0 0 1 0 
1 1 1 0 0 1 1 1 
0 1 1 1 1 1 1 1 
0 1 0 0 1 1 1 1 
0 0 0 1 1 0 0 1 
Solution: -16 9983
Gbest: -20.000000
Expectation: -33.122319
Final Parameters:
Gammas:
[ 3.187260 0.026688 3.188332 0.826546 0.016869 5.608706 ]
Betas:
[ 1.721018 2.076248 0.588906 1.448819 1.332593 1.750274 1.675984 ]
Aggregate results:
[ 31 27 25 21 23 29 41 35 33 37 17 19 39 43 47 45 15 63 ]
[ 0.171871 0.146771 0.087073 0.017026 0.044528 0.181903 0.003784 0.081962 0.134288 0.039756 0.001006 0.005564 0.014195 0.001062 0.000025 0.000091 0.000184 0.068911 ]
5
Num Evals 1600
GenUC: 2.608413e-03
GenUB: 1.665821e-02
Optimisation 2.960589e+02
Total Time: 2.965188e+02
3 Add 8
Graph 1:
1 0 1 0 1 0 1 0 
1 0 0 0 0 1 1 1 
1 1 1 0 0 0 0 0 
0 1 0 0 1 1 1 0 
1 1 1 0 0 1 1 1 
1 1 1 1 1 1 1 0 
1 1 1 1 0 0 1 0 
1 0 0 1 1 0 0 0 
Graph 2:
1 1 1 0 1 1 1 0 
1 0 0 0 0 1 1 1 
1 1 1 0 0 1 0 0 
0 1 0 0 1 1 1 1 
1 1 1 0 0 1 1 1 
1 1 1 1 1 1 1 1 
1 1 1 1 1 1 1 0 
1 0 0 1 1 0 0 0 
Solution: -7 0
Gbest: -25.000000
Expectation: -34.219775
Final Parameters:
Gammas:
[ 3.155458 3.157503 0.018518 0.069521 5.524761 0.112588 ]
Betas:
[ 2.013632 1.718435 0.598366 0.042401 1.379550 1.630770 0.015037 ]
Aggregate results:
[ 6 18 20 16 14 22 24 28 26 30 32 34 36 38 12 40 42 44 63 ]
[ 0.000029 0.002290 0.008882 0.000365 0.000393 0.028539 0.069087 0.178514 0.129668 0.183364 0.145233 0.084272 0.038924 0.009848 0.000026 0.002060 0.000121 0.000076 0.118308 ]
5
Num Evals 2400
GenUC: 2.925710e-03
GenUB: 1.666838e-02
Optimisation 2.668116e+02
Total Time: 2.671697e+02
4 Rem 8
Graph 1:
1 0 1 0 1 0 1 0 
1 0 0 0 0 1 1 1 
1 1 1 0 0 0 0 0 
0 1 0 0 1 1 1 0 
1 1 1 0 0 1 1 1 
1 1 1 1 1 1 1 0 
1 1 1 1 0 0 1 0 
1 0 0 1 1 0 0 0 
Graph 2:
1 0 1 0 1 0 0 0 
1 0 0 0 0 1 1 0 
0 1 1 0 0 0 0 0 
0 1 0 0 0 1 1 0 
0 0 1 0 0 1 1 1 
1 1 1 1 1 1 1 0 
0 0 1 1 0 0 1 0 
1 0 0 1 1 0 0 0 
Solution: -8 0
Gbest: -26.000000
Expectation: -36.629750
Final Parameters:
Gammas:
[ 3.189595 3.692020 4.002132 3.327276 2.327965 3.887685 ]
Betas:
[ 0.078871 2.374086 0.301097 0.091852 0.092236 0.035910 0.017861 ]
Aggregate results:
[ 7 21 19 17 15 23 27 31 25 11 29 35 33 37 39 43 41 45 13 47 63 ]
[ 0.000002 0.007863 0.003444 0.001056 0.000592 0.021677 0.080920 0.160825 0.048656 0.000036 0.145774 0.121224 0.137873 0.089466 0.037514 0.002505 0.011776 0.000415 0.000061 0.000064 0.128256 ]
5
Num Evals 3200
GenUC: 2.822796e-03
GenUB: 1.672447e-02
Optimisation 2.632235e+02
Total Time: 2.634384e+02
5 Add/Rem 8
Graph 1:
1 0 1 0 1 0 1 0 
1 0 0 0 0 1 1 1 
1 1 1 0 0 0 0 0 
0 1 0 0 1 1 1 0 
1 1 1 0 0 1 1 1 
1 1 1 1 1 1 1 0 
1 1 1 1 0 0 1 0 
1 0 0 1 1 0 0 0 
Graph 2:
1 0 1 0 1 0 1 0 
0 0 1 0 1 0 1 1 
1 1 1 0 0 0 0 1 
0 1 0 0 1 1 1 0 
1 1 1 1 0 0 0 1 
1 0 0 1 1 0 1 1 
1 1 1 1 1 0 1 0 
1 0 0 1 1 0 0 0 
Solution: -13 0
Gbest: -19.000000
Expectation: -36.295124
Final Parameters:
Gammas:
[ 0.022393 3.159127 2.554312 3.508289 3.269748 3.326530 ]
Betas:
[ 0.098262 0.117179 0.821233 1.840486 0.106622 0.146755 1.715580 ]
Aggregate results:
[ 12 20 24 22 18 28 30 32 26 34 36 16 14 38 40 42 44 46 63 ]
[ 0.000029 0.006181 0.045128 0.020300 0.001585 0.139492 0.167296 0.155479 0.092685 0.115210 0.066718 0.000355 0.000188 0.027706 0.009298 0.002010 0.000180 0.000075 0.150084 ]
5
Num Evals 4000
GenUC: 2.770354e-03
GenUB: 1.686333e-02
Optimisation 2.635428e+02
Total Time: 2.638363e+02
