Clock Speed: 3.688974
Num threads: 4
Trotterisation: 6
Graph Size: 8
Num Qubits: 16
Space Dimension: 65536
Run-Type: 0
Num_samples: 10
1 Isomorphic
Graph 1:
0 1 0 1 1 0 1 1 
0 1 0 0 1 1 1 1 
1 0 1 1 0 1 0 1 
0 1 1 1 0 1 1 0 
1 0 0 0 1 0 0 1 
0 0 0 1 0 1 1 0 
0 0 0 0 1 0 1 1 
1 0 1 0 0 0 1 1 
Graph 2:
0 1 0 1 1 0 1 1 
0 1 0 0 1 1 1 1 
1 0 1 1 0 1 0 1 
0 1 1 1 0 1 1 0 
1 0 0 0 1 0 0 1 
0 0 0 1 0 1 1 0 
0 0 0 0 1 0 1 1 
1 0 1 0 0 0 1 1 
Solution: 0 0
Gbest: -24.000000
Expectation: -32.128923
Final Parameters:
Gammas:
[ 0.042766 0.788688 0.720186 0.886215 0.028937 0.600430 ]
Betas:
[ 1.883881 2.505515 1.619218 0.151952 1.650446 1.496674 1.625059 ]
Aggregate results:
[ -1 15 17 11 19 21 25 13 23 27 29 35 33 31 37 7 39 41 9 43 45 63 ]
[ 0.000073 0.001124 0.003641 0.000306 0.010803 0.031500 0.122365 0.000409 0.074107 0.171196 0.183431 0.048920 0.099803 0.151473 0.017185 0.000072 0.004188 0.001249 0.000013 0.000228 0.000074 0.077840 ]
5
Num Evals 800
GenUC: 3.567947e-03
GenUB: 1.737490e-02
Optimisation 3.026521e+02
Total Time: 3.031102e+02
2 Flipped
Graph 1:
0 1 0 1 1 0 1 1 
0 1 0 0 1 1 1 1 
1 0 1 1 0 1 0 1 
0 1 1 1 0 1 1 0 
1 0 0 0 1 0 0 1 
0 0 0 1 0 1 1 0 
0 0 0 0 1 0 1 1 
1 0 1 0 0 0 1 1 
Graph 2:
1 1 0 1 1 0 1 0 
1 1 1 1 0 0 1 0 
1 0 1 0 1 1 0 1 
0 1 1 0 1 1 1 0 
1 0 0 1 0 0 0 1 
0 1 1 0 1 0 0 0 
1 1 0 1 0 0 0 0 
1 1 0 0 0 1 0 1 
Solution: -16 36924
Gbest: -30.000000
Expectation: -36.402157
Final Parameters:
Gammas:
[ 0.016207 0.053294 0.045804 3.356487 3.151525 0.249376 ]
Betas:
[ 0.370404 0.696037 1.963964 0.840151 1.575439 2.765059 1.578192 ]
Aggregate results:
[ 29 35 27 31 41 33 37 25 39 23 45 43 21 19 47 17 15 63 ]
[ 0.137599 0.135157 0.074631 0.186011 0.007087 0.190416 0.070144 0.034442 0.025458 0.013322 0.000365 0.001948 0.004723 0.001925 0.000006 0.000338 0.000144 0.116282 ]
5
Num Evals 1600
GenUC: 2.605498e-03
GenUB: 1.674034e-02
Optimisation 2.933591e+02
Total Time: 2.937906e+02
3 Add 8
Graph 1:
0 1 0 1 1 0 1 1 
0 1 0 0 1 1 1 1 
1 0 1 1 0 1 0 1 
0 1 1 1 0 1 1 0 
1 0 0 0 1 0 0 1 
0 0 0 1 0 1 1 0 
0 0 0 0 1 0 1 1 
1 0 1 0 0 0 1 1 
Graph 2:
1 1 0 1 1 0 1 1 
0 1 0 0 1 1 1 1 
1 0 1 1 0 1 0 1 
0 1 1 1 0 1 1 0 
1 1 1 0 1 0 0 1 
0 0 0 1 0 1 1 0 
0 0 0 0 1 0 1 1 
1 1 1 0 1 1 1 1 
Solution: -6 0
Gbest: -22.000000
Expectation: -32.707350
Final Parameters:
Gammas:
[ 3.287477 3.142274 3.219095 3.402582 1.347485 0.165976 ]
Betas:
[ 1.856027 0.485338 0.067733 0.011746 1.624341 2.957477 1.645214 ]
Aggregate results:
[ 5 15 17 23 21 27 19 25 29 31 33 35 13 37 39 11 41 43 45 9 63 ]
[ 0.000018 0.000570 0.002732 0.085861 0.038534 0.173859 0.010800 0.141801 0.166136 0.128332 0.081417 0.043299 0.000181 0.016844 0.003515 0.000015 0.000742 0.000140 0.000031 0.000022 0.105150 ]
5
Num Evals 2400
GenUC: 2.762159e-03
GenUB: 1.676686e-02
Optimisation 2.970525e+02
Total Time: 2.974430e+02
4 Rem 8
Graph 1:
0 1 0 1 1 0 1 1 
0 1 0 0 1 1 1 1 
1 0 1 1 0 1 0 1 
0 1 1 1 0 1 1 0 
1 0 0 0 1 0 0 1 
0 0 0 1 0 1 1 0 
0 0 0 0 1 0 1 1 
1 0 1 0 0 0 1 1 
Graph 2:
0 1 0 0 1 0 1 1 
0 1 0 0 1 0 0 0 
1 0 1 1 0 1 0 0 
0 1 0 1 0 0 1 0 
1 0 0 0 1 0 0 1 
0 0 0 1 0 1 0 0 
0 0 0 0 1 0 1 1 
1 0 1 0 0 0 1 1 
Solution: -8 0
Gbest: -26.000000
Expectation: -31.577729
Final Parameters:
Gammas:
[ 0.016287 3.274343 3.217114 0.285066 0.317905 1.111434 ]
Betas:
[ 0.169235 2.192771 0.503720 1.731641 0.148313 1.634623 3.038537 ]
Aggregate results:
[ 7 19 17 23 21 25 15 29 27 31 33 35 13 39 11 9 37 41 63 ]
[ 0.000137 0.012555 0.004115 0.083561 0.037930 0.151582 0.000678 0.187928 0.186509 0.135586 0.077066 0.031298 0.000345 0.001475 0.000195 0.000070 0.009390 0.000140 0.079440 ]
5
Num Evals 3200
GenUC: 2.814565e-03
GenUB: 1.687470e-02
Optimisation 2.673194e+02
Total Time: 2.677248e+02
5 Add/Rem 8
Graph 1:
0 1 0 1 1 0 1 1 
0 1 0 0 1 1 1 1 
1 0 1 1 0 1 0 1 
0 1 1 1 0 1 1 0 
1 0 0 0 1 0 0 1 
0 0 0 1 0 1 1 0 
0 0 0 0 1 0 1 1 
1 0 1 0 0 0 1 1 
Graph 2:
0 1 0 0 0 0 1 1 
0 1 0 1 1 1 0 0 
1 0 1 0 0 1 0 1 
0 1 1 1 0 1 1 0 
0 0 1 0 1 0 1 1 
1 0 1 1 0 1 1 0 
0 0 1 1 1 0 0 0 
1 0 1 0 0 0 1 1 
Solution: -13 8602
Gbest: -27.000000
Expectation: -32.531924
Final Parameters:
Gammas:
[ 3.251753 6.248485 1.854750 3.699096 0.549590 0.863821 ]
Betas:
[ 1.006737 1.902550 0.603299 0.024723 0.053835 0.091596 0.199529 ]
Aggregate results:
[ 14 24 22 20 26 28 30 32 34 18 36 38 40 16 46 42 44 12 63 ]
[ 0.000176 0.123278 0.056793 0.027516 0.174953 0.178696 0.140279 0.095615 0.049043 0.007579 0.024031 0.009866 0.002932 0.001483 0.000202 0.000771 0.000179 0.000000 0.106607 ]
5
Num Evals 4000
GenUC: 2.801486e-03
GenUB: 1.681197e-02
Optimisation 2.882913e+02
Total Time: 2.885483e+02
