Clock Speed: 3.498807
Num threads: 24
Trotterisation: 1
Graph Size: 6
Num Qubits: 10
Space Dimension: 1024
Run-Type: 1
Num_samples: 1
1 Isomorphic
Graph 1:
1 0 1 1 0 0 
1 1 1 1 0 1 
1 0 1 0 1 1 
1 1 1 1 1 1 
0 0 1 0 0 1 
0 0 0 0 1 0 
Graph 2:
1 0 1 1 0 0 
1 1 1 1 0 1 
1 0 1 0 1 1 
1 1 1 1 1 1 
0 0 1 0 0 1 
0 0 0 0 1 0 
Solution: 0 0
Expectation: -21.759610
Final Parameters:
Gammas:
[ 5.659286 ]
Betas:
[ 1.253716 2.674320 ]
Aggregate results:
[ 0 6 12 10 8 4 14 16 18 20 22 24 26 36 ]
[ 0.001038 0.002267 0.042178 0.022065 0.008323 0.002771 0.091548 0.183918 0.182394 0.087359 0.072786 0.050173 0.023300 0.229880 ]
3
Num Evals 149
GenUC: 4.900623e-02
GenUB: 8.880813e-04
Optimisation 3.506618e-01
Total Time: 4.022034e-01
