Clock Speed: 3.498830
Num threads: 24
Trotterisation: 2
Graph Size: 6
Num Qubits: 10
Space Dimension: 1024
Run-Type: 1
Num_samples: 1
1 Isomorphic
Graph 1:
0 0 1 1 1 0 
0 1 1 0 1 1 
1 1 1 1 0 0 
1 0 1 1 0 1 
0 1 1 0 1 0 
0 1 1 1 0 0 
Graph 2:
0 0 1 1 1 0 
0 1 1 0 1 1 
1 1 1 1 0 0 
1 0 1 1 0 1 
0 1 1 0 1 0 
0 1 1 1 0 0 
Solution: 0 0
Expectation: -21.384684
Final Parameters:
Gammas:
[ 4.804381 3.859503 ]
Betas:
[ 1.527624 2.006675 1.658140 ]
Aggregate results:
[ 0 12 18 14 16 20 8 24 22 10 6 26 28 36 ]
[ 0.000945 0.044858 0.137138 0.132501 0.170428 0.143501 0.008859 0.033580 0.071227 0.013752 0.010325 0.009003 0.001383 0.222498 ]
3
Num Evals 243
GenUC: 2.550929e-02
GenUB: 7.278696e-04
Optimisation 6.296723e-01
Total Time: 6.581052e-01
