Clock Speed: 3.498864
Num threads: 24
Trotterisation: 3
Graph Size: 6
Num Qubits: 10
Space Dimension: 1024
Run-Type: 1
Num_samples: 1
1 Isomorphic
Graph 1:
0 1 0 1 0 1 
0 0 0 0 0 0 
0 1 1 1 0 1 
1 0 0 1 1 1 
0 0 1 0 1 0 
1 0 0 1 1 0 
Graph 2:
0 1 0 1 0 1 
0 0 0 0 0 0 
0 1 1 1 0 1 
1 0 0 1 1 1 
0 0 1 0 1 0 
1 0 0 1 1 0 
Solution: 0 0
Expectation: -21.783439
Final Parameters:
Gammas:
[ 4.939456 2.878618 5.198189 ]
Betas:
[ 1.556403 1.987302 1.720322 1.674445 ]
Aggregate results:
[ 0 12 16 8 14 18 10 20 22 24 26 2 6 36 ]
[ 0.002690 0.050659 0.156790 0.012585 0.122189 0.164763 0.024580 0.135936 0.055493 0.009878 0.002635 0.000377 0.000439 0.260986 ]
5
Num Evals 600
GenUC: 4.641911e-03
GenUB: 5.409550e-04
Optimisation 1.808789e+00
Total Time: 1.816921e+00
