Clock Speed: 3.498784
Num threads: 24
Trotterisation: 3
Graph Size: 6
Num Qubits: 10
Space Dimension: 1024
Run-Type: 1
Num_samples: 1
1 Isomorphic
Graph 1:
1 0 1 0 1 1 
0 0 1 1 0 0 
1 0 1 1 0 1 
1 0 1 0 0 0 
0 0 1 0 1 0 
1 0 1 1 1 0 
Graph 2:
1 0 1 0 1 1 
0 0 1 1 0 0 
1 0 1 1 0 1 
1 0 1 0 0 0 
0 0 1 0 1 0 
1 0 1 1 1 0 
Solution: 0 0
Expectation: -21.934505
Final Parameters:
Gammas:
[ 3.788491 3.336302 3.255396 ]
Betas:
[ 1.694959 1.363053 1.684493 1.231599 ]
Aggregate results:
[ 0 14 18 16 8 12 20 24 10 22 26 28 32 6 36 ]
[ 0.002756 0.109855 0.159247 0.124410 0.033912 0.072031 0.091099 0.029992 0.021541 0.068960 0.011590 0.004080 0.003022 0.000429 0.267073 ]
3
Num Evals 456
GenUC: 4.401394e-03
GenUB: 8.992520e-04
Optimisation 1.331480e+00
Total Time: 1.339649e+00
