Clock Speed: 3.498870
Num threads: 24
Trotterisation: 4
Graph Size: 6
Num Qubits: 10
Space Dimension: 1024
Run-Type: 1
Num_samples: 1
1 Isomorphic
Graph 1:
0 1 0 0 1 1 
1 0 0 1 0 1 
1 0 0 0 0 1 
0 1 1 1 1 1 
0 0 0 0 1 0 
1 1 1 0 0 1 
Graph 2:
0 1 0 0 1 1 
1 0 0 1 0 1 
1 0 0 0 0 1 
0 1 1 1 1 1 
0 0 0 0 1 0 
1 1 1 0 0 1 
Solution: 0 0
Expectation: -19.468097
Final Parameters:
Gammas:
[ 4.821235 5.738645 4.971388 3.671714 ]
Betas:
[ 1.335274 1.713414 1.512435 1.667550 1.270869 ]
Aggregate results:
[ 0 8 10 4 12 14 20 18 22 16 24 26 36 ]
[ 0.001223 0.023808 0.040764 0.002188 0.082629 0.150025 0.117220 0.123619 0.061832 0.198556 0.035096 0.004913 0.158126 ]
5
Num Evals 600
GenUC: 2.343047e-02
GenUB: 8.001593e-04
Optimisation 2.213801e+00
Total Time: 2.241625e+00
