Clock Speed: 3.498642
Num threads: 24
Trotterisation: 4
Graph Size: 6
Num Qubits: 10
Space Dimension: 1024
Run-Type: 1
Num_samples: 1
1 Isomorphic
Graph 1:
0 0 0 1 0 0 
0 0 1 1 1 0 
0 1 0 1 0 1 
0 0 1 1 1 0 
1 1 0 0 0 1 
0 1 1 0 1 0 
Graph 2:
0 0 0 1 0 0 
0 0 1 1 1 0 
0 1 0 1 0 1 
0 0 1 1 1 0 
1 1 0 0 0 1 
0 1 1 0 1 0 
Solution: 0 0
Expectation: -15.607237
Final Parameters:
Gammas:
[ 6.234548 6.281912 6.180893 6.279780 ]
Betas:
[ 1.909067 1.908595 1.787964 1.949774 1.372938 ]
Aggregate results:
[ 0 8 14 12 18 16 10 20 22 4 24 36 ]
[ 0.007510 0.022802 0.251888 0.116007 0.156404 0.262916 0.045538 0.072724 0.029058 0.009831 0.001309 0.024015 ]
5
Num Evals 600
GenUC: 2.556092e-02
GenUB: 1.101424e-03
Optimisation 2.339436e+00
Total Time: 2.369837e+00
