Clock Speed: 3.498790
Num threads: 24
Trotterisation: 4
Graph Size: 6
Num Qubits: 10
Space Dimension: 1024
Run-Type: 0
Num_samples: 1
1 Isomorphic
Graph 1:
1 0 0 0 0 1 
0 0 0 1 1 0 
0 0 1 1 0 1 
0 1 0 1 1 0 
1 1 1 1 1 1 
0 1 0 0 1 1 
Graph 2:
1 0 0 0 0 1 
0 0 0 1 1 0 
0 0 1 1 0 1 
0 1 0 1 1 0 
1 1 1 1 1 1 
0 1 0 0 1 1 
Solution: 0 0
Expectation: -22.359375
Final Parameters:
Gammas:
[ 3.141593 3.141593 3.141593 3.141593 ]
Betas:
[ 1.570796 1.570796 1.570796 2.356194 1.570796 ]
Aggregate results:
[ 0 12 10 2 18 14 6 22 16 20 8 24 4 36 ]
[ 0.000977 0.041016 0.032227 0.000977 0.182617 0.086914 0.001953 0.046875 0.211914 0.081055 0.003906 0.010742 0.001953 0.296875 ]
3
Num Evals 10
GenUC: 4.091813e-03
GenUB: 7.126476e-04
Optimisation 1.405053e-01
Total Time: 1.591530e-01
2 Flipped
Graph 1:
1 0 0 0 0 1 
0 0 0 1 1 0 
0 0 1 1 0 1 
0 1 0 1 1 0 
1 1 1 1 1 1 
0 1 0 0 1 1 
Graph 2:
1 0 0 0 0 1 
0 1 1 0 0 0 
1 0 1 1 0 0 
0 1 1 0 1 0 
1 1 1 1 1 1 
1 1 0 0 1 0 
Solution: -8 8
Expectation: -17.403218
Final Parameters:
Gammas:
[ 5.080703 3.239663 4.239145 3.226415 ]
Betas:
[ 1.906577 1.609356 1.537043 1.208367 2.328267 ]
Aggregate results:
[ 10 14 16 12 8 18 24 22 20 26 36 ]
[ 0.029133 0.136910 0.252440 0.067536 0.004848 0.249308 0.009162 0.054905 0.165465 0.000832 0.029462 ]
5
Num Evals 610
GenUC: 4.730015e-04
GenUB: 5.407855e-04
Optimisation 2.263371e+00
Total Time: 2.268068e+00
3 Add 6
Graph 1:
1 0 0 0 0 1 
0 0 0 1 1 0 
0 0 1 1 0 1 
0 1 0 1 1 0 
1 1 1 1 1 1 
0 1 0 0 1 1 
Graph 2:
1 0 1 0 1 1 
0 0 0 1 1 0 
1 0 1 1 0 1 
0 1 0 1 1 0 
1 1 1 1 1 1 
1 1 0 0 1 1 
Solution: -4 0
Expectation: -22.546875
Final Parameters:
Gammas:
[ 3.141593 3.141593 3.141593 3.141593 ]
Betas:
[ 1.570796 1.570796 1.570796 2.356194 1.570796 ]
Aggregate results:
[ 4 12 14 16 6 10 18 22 20 24 26 8 36 ]
[ 0.000977 0.035156 0.110352 0.183594 0.001953 0.013672 0.193359 0.039062 0.111328 0.006836 0.000977 0.005859 0.296875 ]
3
Num Evals 620
GenUC: 2.380484e-04
GenUB: 2.477723e-04
Optimisation 3.644263e-02
Total Time: 4.073099e-02
4 Rem 6
Graph 1:
1 0 0 0 0 1 
0 0 0 1 1 0 
0 0 1 1 0 1 
0 1 0 1 1 0 
1 1 1 1 1 1 
0 1 0 0 1 1 
Graph 2:
0 0 0 0 0 1 
0 0 0 1 1 0 
0 0 1 1 0 1 
0 0 0 1 1 0 
0 1 1 0 1 1 
0 1 0 0 1 1 
Solution: -4 0
Expectation: -17.565151
Final Parameters:
Gammas:
[ 4.700152 3.122284 4.634735 3.923241 ]
Betas:
[ 1.503228 1.500836 1.655942 1.876425 1.529976 ]
Aggregate results:
[ 4 12 14 6 18 16 10 20 22 24 8 36 ]
[ 0.002773 0.073319 0.192294 0.002908 0.222158 0.225957 0.015405 0.136006 0.049151 0.015492 0.010719 0.053819 ]
5
Num Evals 1220
GenUC: 2.465015e-04
GenUB: 2.284325e-04
Optimisation 2.189212e+00
Total Time: 2.193325e+00
5 Add/Rem 6
Graph 1:
1 0 0 0 0 1 
0 0 0 1 1 0 
0 0 1 1 0 1 
0 1 0 1 1 0 
1 1 1 1 1 1 
0 1 0 0 1 1 
Graph 2:
1 1 0 1 0 0 
1 0 0 1 1 1 
0 0 1 0 0 1 
0 1 1 0 1 0 
1 1 0 1 1 1 
0 0 0 1 1 0 
Solution: -8 16
Expectation: -22.353185
Final Parameters:
Gammas:
[ 4.364949 4.215898 3.934222 3.517169 ]
Betas:
[ 1.815043 1.448392 0.886120 1.577491 2.031354 ]
Aggregate results:
[ 12 16 14 10 20 22 18 8 24 26 28 36 ]
[ 0.046734 0.185059 0.086331 0.010804 0.132339 0.093047 0.146980 0.000344 0.037210 0.011367 0.001038 0.248747 ]
5
Num Evals 1820
GenUC: 2.447446e-04
GenUB: 2.430445e-04
Optimisation 2.107399e+00
Total Time: 2.111465e+00
