Clock Speed: 3.498642
Num threads: 24
Trotterisation: 5
Graph Size: 6
Num Qubits: 10
Space Dimension: 1024
Run-Type: 0
Num_samples: 1
Optimiser Method: 28
1 Isomorphic
Graph 1:
1 1 1 0 0 1 
1 0 0 0 0 1 
1 0 1 1 1 1 
1 1 0 1 0 0 
0 1 0 1 0 1 
1 1 0 0 0 1 
Graph 2:
1 1 1 0 0 1 
1 0 0 0 0 1 
1 0 1 1 1 1 
1 1 0 1 0 0 
0 1 0 1 0 1 
1 1 0 0 0 1 
Solution: 0 0
Expectation: -18.754846
Final Parameters:
Gammas:
[ 3.219525 3.181661 3.226745 3.364658 4.137650 ]
Betas:
[ 1.113829 1.675882 1.635235 2.238736 1.539596 ]
Aggregate results:
[ 0 8 16 12 14 18 20 10 22 24 26 6 4 36 ]
[ 0.002205 0.010731 0.181369 0.057436 0.134135 0.209320 0.188311 0.023167 0.069033 0.015222 0.004518 0.005727 0.004978 0.093848 ]
5
Num Evals 300
GenUC: 7.606391e-02
GenUB: 3.081011e-04
Optimisation 1.141264e+00
Total Time: 1.221423e+00
2 Flipped
Graph 1:
1 1 1 0 0 1 
1 0 0 0 0 1 
1 0 1 1 1 1 
1 1 0 1 0 0 
0 1 0 1 0 1 
1 1 0 0 0 1 
Graph 2:
1 0 0 1 1 1 
1 0 0 0 0 1 
1 1 1 1 0 1 
0 0 1 0 1 1 
1 0 1 0 1 0 
1 0 0 0 1 1 
Solution: -8 651
Expectation: -23.062500
Final Parameters:
Gammas:
[ 3.141593 3.141593 3.141593 3.141593 3.141593 ]
Betas:
[ 1.570796 1.570796 1.570796 1.570796 1.570796 ]
Aggregate results:
[ 20 18 16 14 12 22 10 24 26 8 36 ]
[ 0.158203 0.165039 0.160156 0.080078 0.042969 0.060547 0.010742 0.020508 0.003906 0.000977 0.296875 ]
-2
Num Evals 0
GenUC: 2.518031e-04
GenUB: 2.440466e-04
Optimisation 8.101575e-06
Total Time: 4.211236e-03
3 Add 6
Graph 1:
1 1 1 0 0 1 
1 0 0 0 0 1 
1 0 1 1 1 1 
1 1 0 1 0 0 
0 1 0 1 0 1 
1 1 0 0 0 1 
Graph 2:
1 1 1 0 0 1 
1 0 0 1 1 1 
1 0 1 1 1 1 
1 1 0 1 0 1 
1 1 1 1 0 1 
1 1 0 0 0 1 
Solution: -5 0
Expectation: -16.171472
Final Parameters:
Gammas:
[ 3.162379 3.217342 3.118117 3.379519 3.365748 ]
Betas:
[ 1.621318 1.976674 1.640694 1.466025 1.505456 ]
Aggregate results:
[ 5 11 15 19 17 13 21 9 23 25 7 36 ]
[ 0.006411 0.075815 0.242281 0.126344 0.233956 0.184990 0.038637 0.019417 0.008157 0.002097 0.019513 0.042385 ]
5
Num Evals 300
GenUC: 2.330909e-04
GenUB: 2.502063e-04
Optimisation 1.153066e+00
Total Time: 1.157400e+00
4 Rem 6
Graph 1:
1 1 1 0 0 1 
1 0 0 0 0 1 
1 0 1 1 1 1 
1 1 0 1 0 0 
0 1 0 1 0 1 
1 1 0 0 0 1 
Graph 2:
0 1 1 0 0 1 
1 0 0 0 0 1 
1 0 1 1 0 1 
0 1 0 1 0 0 
0 1 0 0 0 1 
1 0 0 0 0 1 
Solution: -5 0
Expectation: -16.522044
Final Parameters:
Gammas:
[ 3.119501 3.145792 3.189625 2.894559 3.151173 ]
Betas:
[ 1.921025 2.190214 1.660210 1.662707 1.666390 ]
Aggregate results:
[ 5 11 15 13 17 9 19 21 23 27 25 36 ]
[ 0.014481 0.049926 0.235648 0.134344 0.252831 0.046658 0.148761 0.059436 0.013491 0.006479 0.002241 0.035704 ]
5
Num Evals 300
GenUC: 2.486706e-04
GenUB: 2.435413e-04
Optimisation 1.189475e+00
Total Time: 1.194048e+00
5 Add/Rem 6
Graph 1:
1 1 1 0 0 1 
1 0 0 0 0 1 
1 0 1 1 1 1 
1 1 0 1 0 0 
0 1 0 1 0 1 
1 1 0 0 0 1 
Graph 2:
1 1 1 0 0 1 
1 1 1 0 0 1 
0 1 1 1 1 0 
0 0 0 0 0 1 
0 1 1 1 0 0 
1 1 0 0 1 1 
Solution: -8 273
Expectation: -20.705342
Final Parameters:
Gammas:
[ 3.134419 3.228053 3.495584 3.320050 4.261444 ]
Betas:
[ 1.581063 1.434386 1.687553 1.996517 1.790699 ]
Aggregate results:
[ 12 20 18 16 10 14 22 24 26 8 36 ]
[ 0.053543 0.182658 0.212359 0.165658 0.008808 0.101339 0.089901 0.014463 0.003005 0.001100 0.167166 ]
5
Num Evals 300
GenUC: 2.431469e-04
GenUB: 2.453593e-04
Optimisation 1.164819e+00
Total Time: 1.169255e+00
