Clock Speed: 3.498562
Num threads: 24
Trotterisation: 5
Graph Size: 6
Num Qubits: 10
Space Dimension: 1024
Run-Type: 0
Num_samples: 1
Optimiser Method: 28
1 Isomorphic
Graph 1:
0 0 1 1 0 1 
0 1 0 0 1 1 
0 0 0 1 0 1 
1 0 0 0 0 1 
0 1 0 0 0 0 
0 0 0 1 1 1 
Graph 2:
0 0 1 1 0 1 
0 1 0 0 1 1 
0 0 0 1 0 1 
1 0 0 0 0 1 
0 1 0 0 0 0 
0 0 0 1 1 1 
Solution: 0 0
Expectation: -22.687500
Final Parameters:
Gammas:
[ 3.141593 3.141593 3.141593 3.141593 3.141593 ]
Betas:
[ 1.570796 1.570796 1.570796 2.356194 1.570796 ]
Aggregate results:
[ 0 12 10 4 14 16 6 18 20 8 22 24 26 36 ]
[ 0.000977 0.037109 0.012695 0.002930 0.084961 0.202148 0.002930 0.179687 0.111328 0.001953 0.049805 0.014648 0.001953 0.296875 ]
3
Num Evals 11
GenUC: 2.936569e-02
GenUB: 1.036901e-03
Optimisation 9.586966e-02
Total Time: 1.302742e-01
2 Flipped
Graph 1:
0 0 1 1 0 1 
0 1 0 0 1 1 
0 0 0 1 0 1 
1 0 0 0 0 1 
0 1 0 0 0 0 
0 0 0 1 1 1 
Graph 2:
1 0 1 1 0 0 
1 1 0 0 1 0 
1 0 1 0 0 0 
1 0 0 0 0 1 
0 0 0 0 1 0 
1 1 1 0 0 0 
Solution: -8 406
Expectation: -22.875000
Final Parameters:
Gammas:
[ 3.141593 3.141593 3.141593 3.141593 3.141593 ]
Betas:
[ 1.570796 1.570796 1.570796 1.570796 1.570796 ]
Aggregate results:
[ 16 24 20 18 22 14 12 10 8 36 ]
[ 0.166016 0.010742 0.140625 0.178711 0.058594 0.102539 0.034180 0.007812 0.003906 0.296875 ]
-2
Num Evals 0
GenUC: 2.415245e-04
GenUB: 2.479614e-04
Optimisation 7.548369e-06
Total Time: 4.185196e-03
3 Add 6
Graph 1:
0 0 1 1 0 1 
0 1 0 0 1 1 
0 0 0 1 0 1 
1 0 0 0 0 1 
0 1 0 0 0 0 
0 0 0 1 1 1 
Graph 2:
0 0 1 1 0 1 
0 1 0 0 1 1 
1 0 1 1 0 1 
1 1 0 0 1 1 
1 1 0 0 0 0 
0 0 0 1 1 1 
Solution: -5 0
Expectation: -16.482865
Final Parameters:
Gammas:
[ 3.107783 3.201710 3.181390 3.374015 4.392293 ]
Betas:
[ 1.607551 2.171039 1.747062 1.395227 1.557893 ]
Aggregate results:
[ 5 13 15 7 9 17 19 21 11 25 23 27 36 ]
[ 0.014570 0.155346 0.237004 0.033080 0.039481 0.210771 0.133376 0.041277 0.056909 0.005931 0.008051 0.000701 0.063504 ]
5
Num Evals 300
GenUC: 2.485290e-04
GenUB: 2.303189e-04
Optimisation 1.165558e+00
Total Time: 1.170000e+00
4 Rem 6
Graph 1:
0 0 1 1 0 1 
0 1 0 0 1 1 
0 0 0 1 0 1 
1 0 0 0 0 1 
0 1 0 0 0 0 
0 0 0 1 1 1 
Graph 2:
0 0 0 0 0 1 
0 1 0 0 1 1 
0 0 0 1 0 1 
1 0 0 0 0 0 
0 1 0 0 0 0 
0 0 0 0 0 0 
Solution: -6 0
Expectation: -21.750000
Final Parameters:
Gammas:
[ 3.141593 3.141593 3.141593 3.141593 3.141593 ]
Betas:
[ 1.570796 1.570796 1.570796 2.356194 1.570796 ]
Aggregate results:
[ 6 14 16 8 10 12 18 20 22 36 ]
[ 0.002930 0.163086 0.208984 0.002930 0.018555 0.079102 0.152344 0.068359 0.006836 0.296875 ]
3
Num Evals 11
GenUC: 2.178140e-04
GenUB: 2.544858e-04
Optimisation 4.227082e-02
Total Time: 4.668886e-02
5 Add/Rem 6
Graph 1:
0 0 1 1 0 1 
0 1 0 0 1 1 
0 0 0 1 0 1 
1 0 0 0 0 1 
0 1 0 0 0 0 
0 0 0 1 1 1 
Graph 2:
0 0 0 1 0 1 
1 1 0 0 0 1 
1 0 0 1 0 1 
0 0 1 0 0 0 
0 0 0 0 0 1 
1 0 1 1 1 1 
Solution: -7 5
Expectation: -15.815408
Final Parameters:
Gammas:
[ 3.098604 3.148971 3.184079 2.891606 4.948886 ]
Betas:
[ 1.784880 2.346686 1.606602 1.733286 1.631836 ]
Aggregate results:
[ 11 15 13 7 9 17 19 23 21 25 36 ]
[ 0.113162 0.213687 0.194865 0.014420 0.041720 0.217807 0.121526 0.005699 0.035295 0.003075 0.038744 ]
5
Num Evals 300
GenUC: 2.403394e-04
GenUB: 2.535977e-04
Optimisation 1.194615e+00
Total Time: 1.199144e+00
