Clock Speed: 3.498562
Num threads: 16
Trotterisation: 6
Num Qubits: 10
Space Dimension: 1024
Run-Type: 0
Num_samples: 36
Optimiser Method: 25
1 Isomorphic
Graph 1:
1 0 1 0 1 1 
1 1 0 1 0 1 
0 0 0 0 0 0 
0 0 0 0 1 1 
0 1 0 1 1 1 
0 1 0 1 0 1 
Graph 2:
1 0 1 0 1 1 
1 1 0 1 0 1 
0 0 0 0 0 0 
0 0 0 0 1 1 
0 1 0 1 1 1 
0 1 0 1 0 1 
Solution: 36 0
Classic Expectation: 18.600000
Initial Expecation: 13.078125
Gbest: 28.000000
Expectation: 16.083731
Final Parameters:
Gammas:
[ 4.795722 3.102327 2.992437 3.196727 3.088381 2.941432 ]
Betas:
[ 2.503181 1.383345 0.781921 1.052270 1.758936 1.050489 ]
Aggregate results:
[ 36 32 26 28 24 20 18 16 22 14 30 12 10 0 ]
[ 0.002793 0.000543 0.032389 0.010882 0.034574 0.183403 0.185992 0.170305 0.128582 0.089631 0.000164 0.012673 0.000782 0.147288 ]
3
Num Evals 137726
GenUC: 3.366848e-04
GenUB: 1.601195e-04
Optimisation 7.675470e+02
Total Time: 7.675475e+02
2 Flipped
Graph 1:
1 0 1 0 1 1 
1 1 0 1 0 1 
0 0 0 0 0 0 
0 0 0 0 1 1 
0 1 0 1 1 1 
0 1 0 1 0 1 
Graph 2:
1 1 0 1 0 1 
1 0 1 0 1 1 
0 0 0 0 0 0 
1 1 0 0 0 0 
1 1 1 0 1 0 
1 0 1 0 1 0 
Solution: 28 593
Classic Expectation: 17.666667
Initial Expecation: 12.421875
Gbest: 28.000000
Expectation: 14.500066
Final Parameters:
Gammas:
[ 5.083041 4.722518 3.245474 3.269126 3.217402 3.088630 ]
Betas:
[ 2.416208 2.313639 1.829412 2.108099 1.471780 1.138912 ]
Aggregate results:
[ 14 16 18 20 22 24 10 12 26 28 0 ]
[ 0.081064 0.178864 0.186955 0.149963 0.079535 0.042678 0.016146 0.027306 0.024831 0.008218 0.204439 ]
3
Num Evals 48448
GenUC: 3.651013e-04
GenUB: 1.334203e-04
Optimisation 3.110293e+02
Total Time: 3.110298e+02
3 Add 6
Graph 1:
1 0 1 0 1 1 
1 1 0 1 0 1 
0 0 0 0 0 0 
0 0 0 0 1 1 
0 1 0 1 1 1 
0 1 0 1 0 1 
Graph 2:
1 1 1 0 1 1 
1 1 1 1 0 1 
0 0 1 0 0 0 
0 1 0 0 1 1 
1 1 0 1 1 1 
0 1 0 1 1 1 
Solution: 30 0
Classic Expectation: 18.266667
Initial Expecation: 12.843750
Gbest: 24.000000
Expectation: 15.052546
Final Parameters:
Gammas:
[ 4.434681 2.897958 2.734741 2.861809 2.421990 2.659670 ]
Betas:
[ 2.773132 1.100067 1.741245 1.095288 1.456385 1.509679 ]
Aggregate results:
[ 30 28 24 26 20 18 22 16 14 12 10 0 ]
[ 0.000922 0.004079 0.060496 0.012564 0.185485 0.181378 0.116074 0.143105 0.074127 0.021820 0.001465 0.198484 ]
3
Num Evals 13010
GenUC: 3.633965e-04
GenUB: 1.364537e-04
Optimisation 7.800327e+01
Total Time: 7.800377e+01
4 Rem 6
Graph 1:
1 0 1 0 1 1 
1 1 0 1 0 1 
0 0 0 0 0 0 
0 0 0 0 1 1 
0 1 0 1 1 1 
0 1 0 1 0 1 
Graph 2:
1 0 1 0 1 0 
0 1 0 1 0 1 
0 0 0 0 0 0 
0 0 0 0 0 0 
0 0 0 0 1 1 
0 1 0 1 0 1 
Solution: 30 0
Classic Expectation: 19.400000
Initial Expecation: 13.640625
Gbest: 30.000000
Expectation: 20.144162
Final Parameters:
Gammas:
[ 4.844138 4.871813 3.110971 3.185677 3.075674 3.466331 ]
Betas:
[ 3.087418 1.122390 1.710730 0.808262 1.285035 1.563505 ]
Aggregate results:
[ 30 26 22 24 20 16 18 14 12 28 0 ]
[ 0.015529 0.076152 0.260908 0.141273 0.280686 0.034360 0.111996 0.012747 0.005021 0.005345 0.055982 ]
3
Num Evals 436271
GenUC: 3.664028e-04
GenUB: 1.319745e-04
Optimisation 2.603527e+03
Total Time: 2.603528e+03
5 Add/Rem 6
Graph 1:
1 0 1 0 1 1 
1 1 0 1 0 1 
0 0 0 0 0 0 
0 0 0 0 1 1 
0 1 0 1 1 1 
0 1 0 1 0 1 
Graph 2:
1 1 0 1 0 1 
1 1 0 1 1 0 
1 0 1 0 0 0 
0 0 1 0 1 1 
0 1 0 1 0 1 
0 1 0 0 0 1 
Solution: 27 46
Classic Expectation: 18.466667
Initial Expecation: 12.984375
Gbest: 25.000000
Expectation: 14.139116
Final Parameters:
Gammas:
[ 4.422936 4.975283 3.147410 2.797902 2.884061 3.547625 ]
Betas:
[ 1.658235 2.368090 2.165297 2.365738 1.203213 1.757105 ]
Aggregate results:
[ 25 19 21 17 15 23 27 13 11 0 ]
[ 0.024611 0.180359 0.175252 0.183034 0.077143 0.070040 0.001078 0.033059 0.007113 0.248313 ]
3
Num Evals 47718
GenUC: 3.640447e-04
GenUB: 1.239423e-04
Optimisation 3.165776e+02
Total Time: 3.165781e+02
