Clock Speed: 3.688895
Num threads: 4
Trotterisation: 3
Graph Size: 8
Num Qubits: 16
Space Dimension: 65536
Run-Type: 0
Num_samples: 10
1 Isomorphic
Graph 1:
0 0 1 0 0 1 1 1 
1 0 1 1 1 0 1 1 
0 0 1 1 0 1 0 0 
1 0 1 1 1 1 0 0 
0 1 0 0 1 0 0 0 
0 1 1 1 0 1 1 1 
1 1 1 1 1 1 1 0 
0 1 0 0 0 0 0 1 
Graph 2:
0 0 1 0 0 1 1 1 
1 0 1 1 1 0 1 1 
0 0 1 1 0 1 0 0 
1 0 1 1 1 1 0 0 
0 1 0 0 1 0 0 0 
0 1 1 1 0 1 1 1 
1 1 1 1 1 1 1 0 
0 1 0 0 0 0 0 1 
Solution: 0 0
Gbest: -26.000000
Expectation: -41.406479
Final Parameters:
Gammas:
[ 5.041871 5.064046 5.034620 ]
Betas:
[ 2.650135 2.855230 2.127980 1.540289 ]
Aggregate results:
[ -1 15 23 21 11 25 17 5 27 33 13 31 29 19 9 35 37 7 39 41 43 45 63 ]
[ 0.000003 0.001322 0.039693 0.015398 0.000294 0.065786 0.002789 0.000011 0.089811 0.114337 0.000718 0.101338 0.117595 0.007512 0.000115 0.064614 0.037504 0.000026 0.017676 0.006081 0.001295 0.000262 0.315821 ]
3
Num Evals 529
GenUC: 3.529465e-03
GenUB: 1.725409e-02
Optimisation 1.702101e+02
Total Time: 1.705488e+02
2 Flipped
Graph 1:
0 0 1 0 0 1 1 1 
1 0 1 1 1 0 1 1 
0 0 1 1 0 1 0 0 
1 0 1 1 1 1 0 0 
0 1 0 0 1 0 0 0 
0 1 1 1 0 1 1 1 
1 1 1 1 1 1 1 0 
0 1 0 0 0 0 0 1 
Graph 2:
1 1 1 0 0 1 0 0 
1 1 0 1 1 1 0 1 
0 0 1 0 1 1 0 0 
0 0 1 1 1 1 0 1 
0 0 0 1 0 0 1 0 
1 1 1 0 1 1 1 0 
0 1 1 1 1 1 1 1 
1 0 0 0 0 0 1 0 
Solution: -14 17750
Gbest: -28.000000
Expectation: -41.764499
Final Parameters:
Gammas:
[ 5.002111 5.989104 5.810966 ]
Betas:
[ 2.920968 2.918907 2.090047 1.610152 ]
Aggregate results:
[ 25 27 31 23 29 21 35 33 37 19 39 41 17 43 45 15 13 63 ]
[ 0.059940 0.115512 0.145732 0.031216 0.118841 0.010307 0.058455 0.085943 0.026175 0.003364 0.009485 0.003122 0.001215 0.000589 0.000160 0.000055 0.000012 0.329874 ]
3
Num Evals 1105
GenUC: 2.454209e-03
GenUB: 1.695803e-02
Optimisation 1.881826e+02
Total Time: 1.885266e+02
3 Add 8
Graph 1:
0 0 1 0 0 1 1 1 
1 0 1 1 1 0 1 1 
0 0 1 1 0 1 0 0 
1 0 1 1 1 1 0 0 
0 1 0 0 1 0 0 0 
0 1 1 1 0 1 1 1 
1 1 1 1 1 1 1 0 
0 1 0 0 0 0 0 1 
Graph 2:
1 0 1 0 0 1 1 1 
1 0 1 1 1 1 1 1 
0 0 1 1 1 1 1 0 
1 1 1 1 1 1 0 0 
1 1 0 0 1 1 0 0 
0 1 1 1 0 1 1 1 
1 1 1 1 1 1 1 0 
1 1 0 0 0 0 0 1 
Solution: -8 0
Gbest: -24.000000
Expectation: -40.069810
Final Parameters:
Gammas:
[ 5.604498 5.814711 6.198735 ]
Betas:
[ 3.072172 2.871751 2.037355 1.892536 ]
Aggregate results:
[ 7 15 21 23 17 11 19 25 27 31 29 33 13 37 35 39 41 43 63 ]
[ 0.000023 0.000945 0.018384 0.045958 0.002406 0.000040 0.005931 0.084017 0.116323 0.122410 0.135180 0.090719 0.000197 0.024767 0.049904 0.008076 0.001516 0.000299 0.292904 ]
3
Num Evals 1814
GenUC: 3.039206e-03
GenUB: 1.696160e-02
Optimisation 2.431535e+02
Total Time: 2.435117e+02
4 Rem 8
Graph 1:
0 0 1 0 0 1 1 1 
1 0 1 1 1 0 1 1 
0 0 1 1 0 1 0 0 
1 0 1 1 1 1 0 0 
0 1 0 0 1 0 0 0 
0 1 1 1 0 1 1 1 
1 1 1 1 1 1 1 0 
0 1 0 0 0 0 0 1 
Graph 2:
0 0 0 0 0 1 1 1 
0 0 1 1 0 0 1 0 
0 0 1 1 0 1 0 0 
1 0 1 1 0 1 0 0 
0 0 0 0 1 0 0 0 
0 0 1 1 0 1 1 1 
1 1 1 1 1 1 0 0 
0 1 0 0 0 0 0 1 
Solution: -8 0
Gbest: -24.000000
Expectation: -32.858571
Final Parameters:
Gammas:
[ 4.725390 4.661872 5.954558 ]
Betas:
[ 3.117384 3.122133 2.086239 1.586739 ]
Aggregate results:
[ 7 15 23 19 17 9 21 27 31 29 25 35 13 33 37 39 41 43 45 47 49 63 ]
[ 0.000035 0.000620 0.045446 0.006770 0.002030 0.000034 0.018309 0.129995 0.157975 0.156624 0.083613 0.103237 0.000309 0.142726 0.062889 0.029853 0.011515 0.003888 0.001098 0.000094 0.000031 0.042909 ]
5
Num Evals 2614
GenUC: 2.950688e-03
GenUB: 1.670281e-02
Optimisation 2.724683e+02
Total Time: 2.728243e+02
5 Add/Rem 8
Graph 1:
0 0 1 0 0 1 1 1 
1 0 1 1 1 0 1 1 
0 0 1 1 0 1 0 0 
1 0 1 1 1 1 0 0 
0 1 0 0 1 0 0 0 
0 1 1 1 0 1 1 1 
1 1 1 1 1 1 1 0 
0 1 0 0 0 0 0 1 
Graph 2:
0 0 1 0 0 1 1 1 
1 0 1 1 1 0 1 1 
0 1 1 1 0 0 0 0 
1 0 0 0 1 1 1 0 
1 1 0 0 1 0 0 0 
0 1 0 1 1 1 0 1 
1 1 1 1 1 1 1 0 
1 1 1 0 1 0 1 1 
Solution: -13 0
Gbest: -21.000000
Expectation: -34.893087
Final Parameters:
Gammas:
[ 3.383077 6.076433 5.034403 ]
Betas:
[ 1.845291 0.431630 1.690206 1.570378 ]
Aggregate results:
[ 12 24 28 26 22 18 32 34 30 20 36 14 16 38 42 40 44 46 63 ]
[ 0.000053 0.101839 0.169804 0.150851 0.047353 0.006405 0.093316 0.050998 0.148125 0.018221 0.025701 0.000464 0.001153 0.013622 0.002132 0.006959 0.000835 0.000159 0.162011 ]
5
Num Evals 3414
GenUC: 2.895388e-03
GenUB: 1.682426e-02
Optimisation 1.929707e+02
Total Time: 1.932232e+02
