Clock Speed: 3.687389
Num threads: 4
Trotterisation: 4
Num Qubits: 3
Space Dimension: 8
Run-Type: 0
Num_samples: 2024
Optimiser Method: 20
1 Isomorphic
Graph 1:
1 0 1 
1 1 1 
0 0 1 
Graph 2:
1 0 1 
1 1 1 
0 0 1 
Solution: 9 0
Classic Expectation: 6.000000
Initial Expecation: 4.500000
Gbest: 9.000000
Expectation: 7.732377
Final Parameters:
Gammas:
[ 2.998156 2.086394 2.494872 2.983801 ]
Betas:
[ 2.275763 0.972582 1.404605 0.767666 ]
Aggregate results:
[ 9 3 7 5 0 ]
[ 0.455036 0.002343 0.467163 0.071977 0.003481 ]
5
Num Evals 2400
GenUC: 2.565561e-06
GenUB: 6.987946e-06
Optimisation 5.898259e-01
Total Time: 5.898584e-01
2 Flipped
Graph 1:
1 0 1 
1 1 1 
0 0 1 
Graph 2:
1 0 1 
1 1 1 
1 0 0 
Solution: 7 0
Classic Expectation: 5.000000
Initial Expecation: 3.750000
Gbest: 7.000000
Expectation: 6.407368
Final Parameters:
Gammas:
[ 0.564589 6.283185 5.996670 2.713829 ]
Betas:
[ 0.334244 2.568961 1.013458 2.789758 ]
Aggregate results:
[ 7 3 5 0 ]
[ 0.791193 0.066911 0.133656 0.008239 ]
5
Num Evals 2400
GenUC: 2.803863e-06
GenUB: 1.021079e-06
Optimisation 6.675171e-01
Total Time: 6.675232e-01
3 Add 3
Graph 1:
1 0 1 
1 1 1 
0 0 1 
Graph 2:
1 0 1 
1 1 1 
1 1 1 
Solution: 7 0
Classic Expectation: 6.000000
Initial Expecation: 4.500000
Gbest: 7.000000
Expectation: 6.995849
Final Parameters:
Gammas:
[ 2.503827 2.363424 4.928564 1.457742 ]
Betas:
[ 2.053855 2.300100 1.249247 1.403909 ]
Aggregate results:
[ 7 5 0 ]
[ 0.998184 0.001712 0.000104 ]
5
Num Evals 2400
GenUC: 3.170047e-06
GenUB: 8.468051e-07
Optimisation 5.951868e-01
Total Time: 5.951931e-01
4 Rem 3
Graph 1:
1 0 1 
1 1 1 
0 0 1 
Graph 2:
1 0 0 
1 0 1 
0 0 1 
Solution: 7 0
Classic Expectation: 5.000000
Initial Expecation: 3.750000
Gbest: 7.000000
Expectation: 5.852502
Final Parameters:
Gammas:
[ 4.939515 0.048786 2.530082 1.489609 ]
Betas:
[ 2.752244 2.741814 0.325121 1.334241 ]
Aggregate results:
[ 7 3 5 0 ]
[ 0.690421 0.119255 0.132359 0.057966 ]
5
Num Evals 2400
GenUC: 2.972316e-06
GenUB: 1.285749e-06
Optimisation 5.876042e-01
Total Time: 5.876107e-01
5 Add/Rem 3
Graph 1:
1 0 1 
1 1 1 
0 0 1 
Graph 2:
0 1 0 
1 1 1 
0 1 1 
Solution: 5 0
Classic Expectation: 5.000000
Initial Expecation: 3.750000
Gbest: 5.000000
Expectation: 5.000000
Final Parameters:
Gammas:
[ 3.492359 1.797668 3.857710 5.780070 ]
Betas:
[ 0.639036 1.533740 2.961515 3.080656 ]
Aggregate results:
[ 5 0 ]
[ 1.000000 0.000000 ]
5
Num Evals 2400
GenUC: 2.742803e-06
GenUB: 9.259675e-07
Optimisation 5.927963e-01
Total Time: 5.928020e-01
