Clock Speed: 3.689315
Num threads: 4
Trotterisation: 5
Num Qubits: 3
Space Dimension: 8
Run-Type: 0
Num_samples: 3
Optimiser Method: 20
1 Isomorphic
Graph 1:
0 1 0 
1 0 1 
0 1 0 
Graph 2:
0 1 0 
1 0 1 
0 1 0 
Solution: 9 0
Classic Expectation: 6.333333
Initial Expecation: 4.750000
Gbest: 9.000000
Expectation: 8.903337
Final Parameters:
Gammas:
[ 1.843422 1.896230 0.853364 4.372924 5.123806 ]
Betas:
[ 0.093848 3.139344 2.795549 1.589122 0.924038 ]
Aggregate results:
[ 9 5 0 ]
[ 0.978187 0.019931 0.001882 ]
5
Num Evals 3000
GenUC: 2.873130e-06
GenUB: 8.187548e-06
Optimisation 8.636246e-01
Total Time: 8.636607e-01
2 Flipped
Graph 1:
0 1 0 
1 0 1 
0 1 0 
Graph 2:
0 1 0 
1 0 1 
0 1 0 
Solution: 9 0
Classic Expectation: 6.333333
Initial Expecation: 4.750000
Gbest: 9.000000
Expectation: 8.999055
Final Parameters:
Gammas:
[ 3.718183 3.417949 3.458202 5.013517 3.535269 ]
Betas:
[ 1.254065 1.514119 1.408267 2.350808 1.599411 ]
Aggregate results:
[ 9 5 0 ]
[ 0.999783 0.000201 0.000016 ]
5
Num Evals 3000
GenUC: 2.544548e-06
GenUB: 9.348150e-07
Optimisation 8.931794e-01
Total Time: 8.931856e-01
3 Add 3
Graph 1:
0 1 0 
1 0 1 
0 1 0 
Graph 2:
1 1 1 
1 1 1 
1 1 0 
Solution: 5 0
Classic Expectation: 5.000000
Initial Expecation: 3.750000
Gbest: 5.000000
Expectation: 5.000000
Final Parameters:
Gammas:
[ 4.753116 6.132135 6.108436 6.124619 5.558312 ]
Betas:
[ 1.191511 0.965805 3.108572 0.313694 0.732758 ]
Aggregate results:
[ 5 0 ]
[ 1.000000 0.000000 ]
5
Num Evals 3000
GenUC: 3.094960e-06
GenUB: 8.427305e-07
Optimisation 1.048831e+00
Total Time: 1.048837e+00
4 Rem 3
Graph 1:
0 1 0 
1 0 1 
0 1 0 
Graph 2:
0 0 0 
0 0 0 
0 0 0 
Solution: 5 0
Classic Expectation: 5.000000
Initial Expecation: 3.750000
Gbest: 5.000000
Expectation: 5.000000
Final Parameters:
Gammas:
[ 3.141593 4.712389 3.141593 3.141593 3.367972 ]
Betas:
[ 1.478729 2.356194 1.570796 1.570796 1.570796 ]
Aggregate results:
[ 5 0 ]
[ 1.000000 0.000000 ]
5
Num Evals 3000
GenUC: 2.742861e-06
GenUB: 8.861534e-07
Optimisation 1.082475e+00
Total Time: 1.082481e+00
5 Add/Rem 3
Graph 1:
0 1 0 
1 0 1 
0 1 0 
Graph 2:
1 0 1 
0 1 0 
1 0 0 
Solution: 5 1
Classic Expectation: 3.666667
Initial Expecation: 2.750000
Gbest: 5.000000
Expectation: 5.000000
Final Parameters:
Gammas:
[ 3.645716 3.379884 2.846287 3.501593 3.552911 ]
Betas:
[ 2.119025 1.904681 1.405102 1.810936 2.301125 ]
Aggregate results:
[ 1 5 0 ]
[ 0.000000 1.000000 0.000000 ]
5
Num Evals 3000
GenUC: 2.540997e-06
GenUB: 8.720090e-07
Optimisation 1.133734e+00
Total Time: 1.133739e+00
