Clock Speed: 3.689400
Num threads: 4
Trotterisation: 5
Num Qubits: 3
Space Dimension: 8
Run-Type: 0
Num_samples: 3
Optimiser Method: 20
1 Isomorphic
Graph 1:
0 1 0 
1 0 0 
0 0 0 
Graph 2:
0 1 0 
1 0 0 
0 0 0 
Solution: 9 0
Classic Expectation: 6.333333
Initial Expecation: 4.750000
Gbest: 9.000000
Expectation: 7.000000
Final Parameters:
Gammas:
[ 5.882218 3.430025 2.187860 0.688328 4.823776 ]
Betas:
[ 0.389163 0.183473 1.226605 1.902779 1.039690 ]
Aggregate results:
[ 9 5 0 ]
[ 0.500000 0.500000 0.000000 ]
5
Num Evals 3000
GenUC: 2.518718e-06
GenUB: 6.976930e-06
Optimisation 3.027717e+01
Total Time: 3.027720e+01
2 Flipped
Graph 1:
0 1 0 
1 0 0 
0 0 0 
Graph 2:
0 1 0 
0 0 1 
0 0 0 
Solution: 7 0
Classic Expectation: 6.333333
Initial Expecation: 4.750000
Gbest: 7.000000
Expectation: 6.824323
Final Parameters:
Gammas:
[ 2.362713 5.593073 1.965558 0.242296 1.447602 ]
Betas:
[ 0.134452 1.182965 0.754029 1.694892 3.035796 ]
Aggregate results:
[ 7 5 0 ]
[ 0.947581 0.038251 0.014168 ]
5
Num Evals 3000
GenUC: 2.742294e-06
GenUB: 8.914067e-07
Optimisation 2.995011e+01
Total Time: 2.995012e+01
3 Add 3
Graph 1:
0 1 0 
1 0 0 
0 0 0 
Graph 2:
0 1 1 
1 1 0 
1 0 0 
Solution: 6 0
Classic Expectation: 4.666667
Initial Expecation: 3.500000
Gbest: 6.000000
Expectation: 5.926024
Final Parameters:
Gammas:
[ 3.499963 0.161235 4.180848 4.148004 3.249476 ]
Betas:
[ 0.122068 1.520657 0.857622 2.096802 2.464039 ]
Aggregate results:
[ 6 2 0 ]
[ 0.986424 0.003741 0.009835 ]
5
Num Evals 3000
GenUC: 2.878456e-06
GenUB: 1.181310e-06
Optimisation 2.924900e+01
Total Time: 2.924901e+01
4 Rem 3
Graph 1:
0 1 0 
1 0 0 
0 0 0 
Graph 2:
0 0 0 
0 0 0 
0 0 0 
Solution: 7 0
Classic Expectation: 7.000000
Initial Expecation: 5.250000
Gbest: 7.000000
Expectation: 7.000000
Final Parameters:
Gammas:
[ 3.548340 1.150775 4.900509 3.879628 3.478770 ]
Betas:
[ 1.154005 2.185316 1.872675 1.830896 1.933244 ]
Aggregate results:
[ 7 0 ]
[ 1.000000 0.000000 ]
5
Num Evals 3000
GenUC: 2.728804e-06
GenUB: 8.385978e-07
Optimisation 3.187435e+01
Total Time: 3.187435e+01
5 Add/Rem 3
Graph 1:
0 1 0 
1 0 0 
0 0 0 
Graph 2:
1 0 1 
0 1 0 
1 0 0 
Solution: 7 1
Classic Expectation: 4.333333
Initial Expecation: 3.250000
Gbest: 7.000000
Expectation: 6.936979
Final Parameters:
Gammas:
[ 1.025115 2.451315 1.667176 2.567374 0.316118 ]
Betas:
[ 3.013456 1.600559 1.730168 1.885645 0.729736 ]
Aggregate results:
[ 3 7 0 ]
[ 0.012320 0.985717 0.001963 ]
5
Num Evals 3000
GenUC: 2.739951e-06
GenUB: 9.348296e-07
Optimisation 3.762976e+01
Total Time: 3.762977e+01
