Clock Speed: 3.689053
Num threads: 4
Trotterisation: 5
Num Qubits: 3
Space Dimension: 8
Run-Type: 0
Num_samples: 3
Optimiser Method: 20
1 Isomorphic
Graph 1:
0 0 1 
0 0 0 
1 0 0 
Graph 2:
0 0 1 
0 0 0 
1 0 0 
Solution: 9 0
Classic Expectation: 6.333333
Initial Expecation: 4.750000
Gbest: 9.000000
Expectation: 8.965938
Final Parameters:
Gammas:
[ 3.580017 1.176244 6.084133 5.552582 0.598266 ]
Betas:
[ 1.562827 0.912489 2.928649 2.988904 1.806067 ]
Aggregate results:
[ 9 5 0 ]
[ 0.993053 0.005693 0.001254 ]
5
Num Evals 3000
GenUC: 2.687098e-06
GenUB: 7.922878e-06
Optimisation 1.096107e+00
Total Time: 1.096147e+00
2 Flipped
Graph 1:
0 0 1 
0 0 0 
1 0 0 
Graph 2:
1 0 0 
0 0 0 
0 0 1 
Solution: 5 0
Classic Expectation: 5.000000
Initial Expecation: 3.750000
Gbest: 5.000000
Expectation: 5.000000
Final Parameters:
Gammas:
[ 3.141593 4.712389 3.141593 3.141593 3.367972 ]
Betas:
[ 1.478729 2.356194 1.570796 1.570796 1.570796 ]
Aggregate results:
[ 5 0 ]
[ 1.000000 0.000000 ]
5
Num Evals 3000
GenUC: 2.741697e-06
GenUB: 9.700307e-07
Optimisation 9.851367e-01
Total Time: 9.851431e-01
3 Add 3
Graph 1:
0 0 1 
0 0 0 
1 0 0 
Graph 2:
1 1 1 
1 0 1 
1 1 0 
Solution: 4 0
Classic Expectation: 4.000000
Initial Expecation: 3.000000
Gbest: 4.000000
Expectation: 4.000000
Final Parameters:
Gammas:
[ 2.832360 2.757433 4.694141 2.785686 3.115292 ]
Betas:
[ 1.591003 1.296568 1.535981 0.907232 1.548153 ]
Aggregate results:
[ 4 0 ]
[ 1.000000 0.000000 ]
5
Num Evals 3000
GenUC: 2.710032e-06
GenUB: 1.067470e-06
Optimisation 9.284763e-01
Total Time: 9.284822e-01
4 Rem 3
Graph 1:
0 0 1 
0 0 0 
1 0 0 
Graph 2:
0 0 0 
0 0 0 
0 0 0 
Solution: 7 0
Classic Expectation: 7.000000
Initial Expecation: 5.250000
Gbest: 7.000000
Expectation: 7.000000
Final Parameters:
Gammas:
[ 6.014195 0.922877 1.330887 6.115475 1.182001 ]
Betas:
[ 1.106027 0.751194 0.370677 0.862132 2.032568 ]
Aggregate results:
[ 7 0 ]
[ 1.000000 0.000000 ]
5
Num Evals 3000
GenUC: 2.482324e-06
GenUB: 1.015782e-06
Optimisation 8.929380e-01
Total Time: 8.929434e-01
5 Add/Rem 3
Graph 1:
0 0 1 
0 0 0 
1 0 0 
Graph 2:
1 1 0 
1 0 1 
0 1 0 
Solution: 6 1
Classic Expectation: 4.666667
Initial Expecation: 3.500000
Gbest: 6.000000
Expectation: 5.646753
Final Parameters:
Gammas:
[ 5.076786 1.860521 3.392752 4.634495 2.879615 ]
Betas:
[ 0.737200 2.208974 0.049548 0.614717 0.008528 ]
Aggregate results:
[ 2 6 0 ]
[ 0.020745 0.934210 0.045044 ]
5
Num Evals 3000
GenUC: 2.639543e-06
GenUB: 7.851631e-07
Optimisation 6.236306e-01
Total Time: 6.236359e-01
