Clock Speed: 3.688849
Num threads: 4
Trotterisation: 1
Num Qubits: 10
Space Dimension: 1024
Run-Type: 0
Num_samples: 6
Optimiser Method: 0
1 Isomorphic
Graph 1:
0 1 1 1 1 1 
1 0 1 0 1 1 
1 1 0 0 1 1 
1 0 0 0 1 0 
1 1 1 1 0 1 
1 1 1 0 1 0 
Graph 2:
0 1 1 1 1 1 
1 0 1 0 1 1 
1 1 0 0 1 1 
1 0 0 0 1 0 
1 1 1 1 0 1 
1 1 1 0 1 0 
Solution: 36 0
Classic Expectation: 26.400000
Initial Expecation: 18.562500
Gbest: 28.000000
Expectation: 23.623042
Final Parameters:
Gammas:
[ 1.511426 ]
Betas:
[ 2.508103 ]
Aggregate results:
[ 36 32 24 28 0 ]
[ 0.022361 0.092984 0.446230 0.326180 0.112245 ]
5
Num Evals 1200
GenUC: 2.597789e-04
GenUB: 9.147820e-05
Optimisation 6.329121e+00
Total Time: 6.329497e+00
2 Flipped
Graph 1:
0 1 1 1 1 1 
1 0 1 0 1 1 
1 1 0 0 1 1 
1 0 0 0 1 0 
1 1 1 1 0 1 
1 1 1 0 1 0 
Graph 2:
1 1 1 1 1 0 
1 1 0 1 0 1 
1 1 0 0 1 1 
0 1 0 0 0 1 
1 0 1 1 1 1 
0 1 0 1 1 1 
Solution: 24 6
Classic Expectation: 20.000000
Initial Expecation: 14.062500
Gbest: 22.000000
Expectation: 17.853767
Final Parameters:
Gammas:
[ 3.372458 ]
Betas:
[ 2.659598 ]
Aggregate results:
[ 20 22 18 24 16 0 ]
[ 0.244279 0.344003 0.194596 0.049154 0.044857 0.123112 ]
5
Num Evals 1200
GenUC: 2.791140e-04
GenUB: 6.197664e-05
Optimisation 5.441783e+00
Total Time: 5.442126e+00
3 Add 6
Graph 1:
0 1 1 1 1 1 
1 0 1 0 1 1 
1 1 0 0 1 1 
1 0 0 0 1 0 
1 1 1 1 0 1 
1 1 1 0 1 0 
Graph 2:
1 1 1 1 1 1 
1 1 1 1 1 1 
1 1 1 0 1 1 
1 1 0 0 1 1 
1 1 1 1 1 1 
1 1 1 1 1 0 
Solution: 28 0
Classic Expectation: 24.800000
Initial Expecation: 17.437500
Gbest: 28.000000
Expectation: 22.149928
Final Parameters:
Gammas:
[ 1.507555 ]
Betas:
[ 2.590284 ]
Aggregate results:
[ 28 24 0 ]
[ 0.190076 0.701158 0.108766 ]
5
Num Evals 1200
GenUC: 2.789098e-04
GenUB: 6.134518e-05
Optimisation 5.688045e+00
Total Time: 5.688388e+00
4 Rem 6
Graph 1:
0 1 1 1 1 1 
1 0 1 0 1 1 
1 1 0 0 1 1 
1 0 0 0 1 0 
1 1 1 1 0 1 
1 1 1 0 1 0 
Graph 2:
0 0 0 0 0 0 
0 0 1 0 1 1 
0 1 0 0 1 1 
0 0 0 0 1 0 
0 1 1 1 0 1 
0 1 1 0 1 0 
Solution: 26 0
Classic Expectation: 20.400000
Initial Expecation: 14.343750
Gbest: 26.000000
Expectation: 18.739692
Final Parameters:
Gammas:
[ 4.497636 ]
Betas:
[ 2.926810 ]
Aggregate results:
[ 26 22 14 18 0 ]
[ 0.439677 0.232148 0.030004 0.098932 0.199239 ]
5
Num Evals 1200
GenUC: 2.814608e-04
GenUB: 6.098312e-05
Optimisation 7.472015e+00
Total Time: 7.472360e+00
5 Add/Rem 6
Graph 1:
0 1 1 1 1 1 
1 0 1 0 1 1 
1 1 0 0 1 1 
1 0 0 0 1 0 
1 1 1 1 0 1 
1 1 1 0 1 0 
Graph 2:
1 0 0 0 0 0 
0 1 0 1 1 1 
0 0 1 1 0 1 
0 1 1 0 1 1 
0 1 0 1 1 1 
0 1 1 1 1 0 
Solution: 24 150
Classic Expectation: 17.600000
Initial Expecation: 12.375000
Gbest: 24.000000
Expectation: 16.009635
Final Parameters:
Gammas:
[ 0.096502 ]
Betas:
[ 0.229306 ]
Aggregate results:
[ 12 16 20 24 0 ]
[ 0.065494 0.277794 0.206260 0.277242 0.173210 ]
5
Num Evals 1200
GenUC: 2.795043e-04
GenUB: 6.056763e-05
Optimisation 4.353030e+00
Total Time: 4.353372e+00
