Clock Speed: 3.688447
Num threads: 4
Trotterisation: 1
Num Qubits: 10
Space Dimension: 1024
Run-Type: 0
Num_samples: 6
Optimiser Method: 0
1 Isomorphic
Graph 1:
0 1 1 0 0 0 
1 0 0 1 0 0 
1 0 0 0 1 1 
0 1 0 0 1 0 
0 0 1 1 0 0 
0 0 1 0 0 0 
Graph 2:
0 1 1 0 0 0 
1 0 0 1 0 0 
1 0 0 0 1 1 
0 1 0 0 1 0 
0 0 1 1 0 0 
0 0 1 0 0 0 
Solution: 36 0
Classic Expectation: 21.600000
Initial Expecation: 15.187500
Gbest: 28.000000
Expectation: 19.474484
Final Parameters:
Gammas:
[ 6.201687 ]
Betas:
[ 2.908882 ]
Aggregate results:
[ 36 32 28 24 20 16 12 0 ]
[ 0.007428 0.044797 0.155245 0.328350 0.223809 0.059976 0.009209 0.171185 ]
5
Num Evals 1200
GenUC: 2.595449e-04
GenUB: 8.990243e-05
Optimisation 8.357585e-01
Total Time: 8.361363e-01
2 Flipped
Graph 1:
0 1 1 0 0 0 
1 0 0 1 0 0 
1 0 0 0 1 1 
0 1 0 0 1 0 
0 0 1 1 0 0 
0 0 1 0 0 0 
Graph 2:
0 0 0 1 1 0 
0 0 1 0 0 1 
1 1 0 0 0 1 
0 1 0 0 1 0 
0 0 1 1 0 0 
0 0 0 1 0 0 
Solution: 28 31
Classic Expectation: 21.600000
Initial Expecation: 15.187500
Gbest: 26.000000
Expectation: 18.389107
Final Parameters:
Gammas:
[ 5.925927 ]
Betas:
[ 2.907463 ]
Aggregate results:
[ 24 22 20 16 18 26 28 0 ]
[ 0.256983 0.142036 0.054667 0.021352 0.056575 0.205706 0.046250 0.216429 ]
5
Num Evals 1200
GenUC: 2.796541e-04
GenUB: 6.160216e-05
Optimisation 6.329860e-01
Total Time: 6.333297e-01
3 Add 6
Graph 1:
0 1 1 0 0 0 
1 0 0 1 0 0 
1 0 0 0 1 1 
0 1 0 0 1 0 
0 0 1 1 0 0 
0 0 1 0 0 0 
Graph 2:
0 1 1 1 1 1 
1 1 1 1 1 1 
1 1 1 0 1 1 
1 1 0 0 1 0 
1 1 1 1 0 0 
1 1 1 0 0 0 
Solution: 22 0
Classic Expectation: 17.200000
Initial Expecation: 12.093750
Gbest: 22.000000
Expectation: 15.257787
Final Parameters:
Gammas:
[ 6.185203 ]
Betas:
[ 2.854429 ]
Aggregate results:
[ 22 18 14 10 0 ]
[ 0.218662 0.416764 0.192785 0.024647 0.147142 ]
5
Num Evals 1200
GenUC: 2.795685e-04
GenUB: 6.176939e-05
Optimisation 5.471536e-01
Total Time: 5.474976e-01
4 Rem 6
Graph 1:
0 1 1 0 0 0 
1 0 0 1 0 0 
1 0 0 0 1 1 
0 1 0 0 1 0 
0 0 1 1 0 0 
0 0 1 0 0 0 
Graph 2:
0 0 0 0 0 0 
0 0 0 0 0 0 
0 0 0 0 0 0 
0 0 0 0 1 0 
0 0 0 1 0 0 
0 0 0 0 0 0 
Solution: 26 0
Classic Expectation: 23.600000
Initial Expecation: 16.593750
Gbest: 26.000000
Expectation: 21.187961
Final Parameters:
Gammas:
[ 4.777438 ]
Betas:
[ 2.624458 ]
Aggregate results:
[ 26 22 0 ]
[ 0.391428 0.500492 0.108080 ]
5
Num Evals 1200
GenUC: 2.795673e-04
GenUB: 6.160745e-05
Optimisation 7.815923e-01
Total Time: 7.819355e-01
5 Add/Rem 6
Graph 1:
0 1 1 0 0 0 
1 0 0 1 0 0 
1 0 0 0 1 1 
0 1 0 0 1 0 
0 0 1 1 0 0 
0 0 1 0 0 0 
Graph 2:
0 0 0 1 1 1 
0 1 1 0 0 1 
0 1 1 1 0 0 
1 0 1 0 1 0 
1 0 0 1 0 0 
1 1 0 0 0 0 
Solution: 32 108
Classic Expectation: 19.200000
Initial Expecation: 13.500000
Gbest: 28.000000
Expectation: 17.613127
Final Parameters:
Gammas:
[ 6.189759 ]
Betas:
[ 2.897028 ]
Aggregate results:
[ 12 8 16 20 24 28 32 0 ]
[ 0.031580 0.008533 0.139975 0.298163 0.241725 0.099389 0.011835 0.168799 ]
5
Num Evals 1200
GenUC: 2.801958e-04
GenUB: 6.077002e-05
Optimisation 8.034621e-01
Total Time: 8.038055e-01
