Clock Speed: 3.689205
Num threads: 4
Trotterisation: 1
Num Qubits: 10
Space Dimension: 1024
Run-Type: 0
Num_samples: 6
Optimiser Method: 0
1 Isomorphic
Graph 1:
0 1 0 1 1 0 
1 0 0 1 0 0 
0 0 0 1 1 0 
1 1 1 0 1 0 
1 0 1 1 0 1 
0 0 0 0 1 0 
Graph 2:
0 1 0 1 1 0 
1 0 0 1 0 0 
0 0 0 1 1 0 
1 1 1 0 1 0 
1 0 1 1 0 1 
0 0 0 0 1 0 
Solution: 36 0
Classic Expectation: 21.066667
Initial Expecation: 14.812500
Gbest: 28.000000
Expectation: 18.839572
Final Parameters:
Gammas:
[ 6.199099 ]
Betas:
[ 2.908882 ]
Aggregate results:
[ 36 24 28 20 16 32 12 8 0 ]
[ 0.003093 0.313239 0.131659 0.257836 0.083115 0.027241 0.013142 0.001007 0.169668 ]
5
Num Evals 1200
GenUC: 2.606570e-04
GenUB: 8.922693e-05
Optimisation 8.363547e-01
Total Time: 8.367319e-01
2 Flipped
Graph 1:
0 1 0 1 1 0 
1 0 0 1 0 0 
0 0 0 1 1 0 
1 1 1 0 1 0 
1 0 1 1 0 1 
0 0 0 0 1 0 
Graph 2:
0 1 1 0 1 0 
0 0 1 0 0 1 
0 1 1 0 0 0 
0 1 0 1 1 1 
1 0 1 1 0 1 
0 1 0 0 0 0 
Solution: 26 43
Classic Expectation: 18.933333
Initial Expecation: 13.312500
Gbest: 24.000000
Expectation: 16.857209
Final Parameters:
Gammas:
[ 0.089207 ]
Betas:
[ 0.310281 ]
Aggregate results:
[ 20 12 18 16 22 24 14 26 0 ]
[ 0.224046 0.004438 0.193777 0.132414 0.136410 0.112769 0.041535 0.016440 0.138170 ]
5
Num Evals 1200
GenUC: 2.811811e-04
GenUB: 6.157631e-05
Optimisation 4.087146e-01
Total Time: 4.090598e-01
3 Add 6
Graph 1:
0 1 0 1 1 0 
1 0 0 1 0 0 
0 0 0 1 1 0 
1 1 1 0 1 0 
1 0 1 1 0 1 
0 0 0 0 1 0 
Graph 2:
1 1 1 1 1 1 
1 1 1 1 1 0 
1 1 1 1 1 0 
1 1 1 1 1 0 
1 1 1 1 0 1 
1 0 0 0 1 0 
Solution: 24 0
Classic Expectation: 17.600000
Initial Expecation: 12.375000
Gbest: 20.000000
Expectation: 15.719889
Final Parameters:
Gammas:
[ 0.097628 ]
Betas:
[ 0.280301 ]
Aggregate results:
[ 24 16 20 12 0 ]
[ 0.133926 0.291639 0.342541 0.082385 0.149509 ]
5
Num Evals 1200
GenUC: 2.799358e-04
GenUB: 6.184273e-05
Optimisation 5.498536e-01
Total Time: 5.501980e-01
4 Rem 6
Graph 1:
0 1 0 1 1 0 
1 0 0 1 0 0 
0 0 0 1 1 0 
1 1 1 0 1 0 
1 0 1 1 0 1 
0 0 0 0 1 0 
Graph 2:
0 0 0 0 0 0 
0 0 0 0 0 0 
0 0 0 0 0 0 
0 0 0 0 1 0 
0 0 0 1 0 0 
0 0 0 0 0 0 
Solution: 22 0
Classic Expectation: 20.133333
Initial Expecation: 14.156250
Gbest: 22.000000
Expectation: 18.043092
Final Parameters:
Gammas:
[ 1.495565 ]
Betas:
[ 0.517134 ]
Aggregate results:
[ 22 18 0 ]
[ 0.510490 0.378462 0.111048 ]
5
Num Evals 1200
GenUC: 2.798296e-04
GenUB: 6.090087e-05
Optimisation 5.415645e-01
Total Time: 5.419074e-01
5 Add/Rem 6
Graph 1:
0 1 0 1 1 0 
1 0 0 1 0 0 
0 0 0 1 1 0 
1 1 1 0 1 0 
1 0 1 1 0 1 
0 0 0 0 1 0 
Graph 2:
1 0 1 0 0 1 
0 1 0 0 1 0 
1 0 1 0 0 0 
0 0 0 1 1 0 
0 1 0 1 0 0 
1 0 0 0 0 0 
Solution: 24 29
Classic Expectation: 16.533333
Initial Expecation: 11.625000
Gbest: 24.000000
Expectation: 14.947805
Final Parameters:
Gammas:
[ 0.106109 ]
Betas:
[ 0.262253 ]
Aggregate results:
[ 12 16 20 24 8 0 ]
[ 0.098964 0.334831 0.320158 0.081667 0.004970 0.159409 ]
5
Num Evals 1200
GenUC: 2.816888e-04
GenUB: 6.158516e-05
Optimisation 6.797817e-01
Total Time: 6.801277e-01
