Clock Speed: 3.689371
Num threads: 4
Trotterisation: 4
Num Qubits: 16
Space Dimension: 65536
Run-Type: 0
Num_samples: 102399
Optimiser Method: 29
1 Isomorphic
Graph 1:
0 0 1 1 1 1 0 1 
0 1 1 0 1 1 1 1 
0 1 1 0 1 0 1 0 
0 1 0 1 0 1 1 0 
0 0 0 0 1 0 1 0 
1 1 1 1 0 0 0 1 
0 0 0 1 1 0 0 1 
0 1 1 0 1 0 1 1 
Graph 2:
0 0 1 1 1 1 0 1 
0 1 1 0 1 1 1 1 
0 1 1 0 1 0 1 0 
0 1 0 1 0 1 1 0 
0 0 0 0 1 0 1 0 
1 1 1 1 0 0 0 1 
0 0 0 1 1 0 0 1 
0 1 1 0 1 0 1 1 
Solution: 64 0
Classic Expectation: 32.285714
Initial Expecation: 19.863281
Gbest: 64.000000
Expectation: 29.796747
Final Parameters:
Gammas:
[ 3.103050 3.289678 3.186664 3.359360 ]
Betas:
[ 2.361698 2.393560 0.405019 2.858885 ]
Aggregate results:
[ 64 46 48 40 42 32 36 44 54 52 34 38 30 50 56 60 28 24 26 22 18 20 0 ]
[ 0.000009 0.003269 0.000577 0.054246 0.020877 0.131617 0.146410 0.008794 0.000113 0.000032 0.152487 0.098165 0.101388 0.000106 0.000058 0.000004 0.077634 0.031873 0.054961 0.013103 0.000422 0.003270 0.100584 ]
3
Num Evals 1630
GenUC: 1.693043e-02
GenUB: 5.531044e-03
Optimisation 7.072242e+02
Total Time: 7.072467e+02
2 Flipped
Graph 1:
0 0 1 1 1 1 0 1 
0 1 1 0 1 1 1 1 
0 1 1 0 1 0 1 0 
0 1 0 1 0 1 1 0 
0 0 0 0 1 0 1 0 
1 1 1 1 0 0 0 1 
0 0 0 1 1 0 0 1 
0 1 1 0 1 0 1 1 
Graph 2:
1 0 1 1 1 1 0 0 
1 1 1 1 0 1 1 0 
0 1 0 1 0 1 1 0 
0 1 1 0 1 0 1 0 
0 1 0 1 0 0 0 0 
1 0 0 0 1 1 1 1 
1 0 0 1 1 0 0 0 
1 1 0 1 0 1 1 0 
Solution: 46 7930
Classic Expectation: 31.857143
Initial Expecation: 19.599609
Gbest: 46.000000
Expectation: 31.083196
Final Parameters:
Gammas:
[ 3.192707 3.235500 3.367554 3.174306 ]
Betas:
[ 2.427313 1.201282 2.116147 1.163315 ]
Aggregate results:
[ 32 26 30 38 40 34 36 28 24 42 22 20 18 46 44 16 0 ]
[ 0.104752 0.022890 0.052179 0.153654 0.092736 0.167277 0.188965 0.028515 0.014831 0.037936 0.006641 0.002036 0.000420 0.002378 0.010893 0.000089 0.113808 ]
3
Num Evals 6542
GenUC: 1.786741e-02
GenUB: 4.628023e-03
Optimisation 2.649227e+03
Total Time: 2.649249e+03
3 Add 8
Graph 1:
0 0 1 1 1 1 0 1 
0 1 1 0 1 1 1 1 
0 1 1 0 1 0 1 0 
0 1 0 1 0 1 1 0 
0 0 0 0 1 0 1 0 
1 1 1 1 0 0 0 1 
0 0 0 1 1 0 0 1 
0 1 1 0 1 0 1 1 
Graph 2:
0 1 1 1 1 1 0 1 
0 1 1 0 1 1 1 1 
1 1 1 1 1 0 1 0 
0 1 1 1 0 1 1 1 
0 0 0 0 1 0 1 0 
1 1 1 1 0 0 1 1 
1 0 0 1 1 0 0 1 
0 1 1 0 1 0 1 1 
Solution: 57 0
Classic Expectation: 32.535714
Initial Expecation: 20.017090
Gbest: 57.000000
Expectation: 31.882268
Final Parameters:
Gammas:
[ 3.108140 3.166415 3.295903 5.519952 ]
Betas:
[ 2.587370 1.002779 1.690606 1.612661 ]
Aggregate results:
[ 57 43 37 45 27 35 33 31 41 47 39 29 49 51 53 25 23 21 19 17 0 ]
[ 0.000082 0.024015 0.157532 0.008483 0.025734 0.185799 0.169665 0.114910 0.051209 0.002824 0.099763 0.056902 0.000708 0.000481 0.000159 0.011252 0.005414 0.001196 0.000143 0.000059 0.083669 ]
3
Num Evals 3836
GenUC: 1.804252e-02
GenUB: 5.181984e-03
Optimisation 1.765355e+03
Total Time: 1.765378e+03
4 Rem 8
Graph 1:
0 0 1 1 1 1 0 1 
0 1 1 0 1 1 1 1 
0 1 1 0 1 0 1 0 
0 1 0 1 0 1 1 0 
0 0 0 0 1 0 1 0 
1 1 1 1 0 0 0 1 
0 0 0 1 1 0 0 1 
0 1 1 0 1 0 1 1 
Graph 2:
0 0 1 0 1 1 0 0 
0 1 1 0 1 1 1 0 
0 1 0 0 1 0 1 0 
0 1 0 1 0 1 0 0 
0 0 0 0 1 0 1 0 
1 1 0 0 0 0 0 1 
0 0 0 1 1 0 0 1 
0 1 1 0 1 0 1 1 
Solution: 57 0
Classic Expectation: 31.821429
Initial Expecation: 19.577637
Gbest: 57.000000
Expectation: 29.995740
Final Parameters:
Gammas:
[ 3.297410 2.965250 3.294303 4.169065 ]
Betas:
[ 2.568536 1.082630 1.694043 1.621996 ]
Aggregate results:
[ 57 43 37 39 33 35 41 49 47 31 27 29 45 51 53 25 23 21 19 17 0 ]
[ 0.000015 0.011304 0.127331 0.081432 0.166493 0.165627 0.036094 0.000231 0.001213 0.126761 0.048113 0.086431 0.003469 0.000288 0.000013 0.024967 0.008447 0.002369 0.000349 0.000053 0.109001 ]
3
Num Evals 2119
GenUC: 1.813703e-02
GenUB: 5.792133e-03
Optimisation 9.581427e+02
Total Time: 9.581666e+02
5 Add/Rem 8
Graph 1:
0 0 1 1 1 1 0 1 
0 1 1 0 1 1 1 1 
0 1 1 0 1 0 1 0 
0 1 0 1 0 1 1 0 
0 0 0 0 1 0 1 0 
1 1 1 1 0 0 0 1 
0 0 0 1 1 0 0 1 
0 1 1 0 1 0 1 1 
Graph 2:
0 0 1 1 1 1 0 1 
0 0 1 0 1 1 0 1 
0 1 1 0 1 0 1 1 
1 1 0 1 0 1 0 1 
1 0 1 0 1 0 1 0 
1 1 0 1 0 0 0 0 
0 0 0 0 0 1 0 1 
0 1 1 0 1 0 1 1 
Solution: 51 0
Classic Expectation: 32.035714
Initial Expecation: 19.709473
Gbest: 51.000000
Expectation: 29.430461
Final Parameters:
Gammas:
[ 3.299498 2.963858 3.299866 3.473721 ]
Betas:
[ 2.552376 1.118753 1.685427 1.620149 ]
Aggregate results:
[ 51 43 39 35 41 37 33 31 45 47 29 27 49 25 23 21 19 17 15 13 0 ]
[ 0.000165 0.010592 0.072880 0.166123 0.035876 0.125206 0.164183 0.126901 0.004624 0.000807 0.081655 0.046987 0.000339 0.023559 0.010424 0.004306 0.001192 0.000465 0.000158 0.000238 0.123319 ]
3
Num Evals 1892
GenUC: 1.821707e-02
GenUB: 5.048361e-03
Optimisation 7.814097e+02
Total Time: 7.814330e+02
