Clock Speed: 3.688934
Num threads: 4
Trotterisation: 4
Num Qubits: 16
Space Dimension: 65536
Run-Type: 0
Num_samples: 102399
Optimiser Method: 29
1 Isomorphic
Graph 1:
0 1 0 0 1 0 0 1 
0 1 0 1 0 1 1 1 
1 0 0 0 0 1 0 1 
1 0 1 0 0 0 1 0 
0 0 1 1 0 1 0 1 
0 0 1 1 1 0 1 1 
1 1 0 0 0 0 1 0 
0 1 0 1 1 1 1 1 
Graph 2:
0 1 0 0 1 0 0 1 
0 1 0 1 0 1 1 1 
1 0 0 0 0 1 0 1 
1 0 1 0 0 0 1 0 
0 0 1 1 0 1 0 1 
0 0 1 1 1 0 1 1 
1 1 0 0 0 0 1 0 
0 1 0 1 1 1 1 1 
Solution: 64 0
Classic Expectation: 32.285714
Initial Expecation: 19.863281
Gbest: 56.000000
Expectation: 27.691929
Final Parameters:
Gammas:
[ 3.309408 3.307779 3.380850 3.633904 ]
Betas:
[ 2.892786 2.591536 1.256480 2.034678 ]
Aggregate results:
[ 64 46 42 40 56 36 38 50 44 34 52 32 48 30 28 26 54 24 22 20 18 16 14 0 ]
[ 0.000015 0.001492 0.015509 0.040985 0.000017 0.130567 0.085906 0.000141 0.004245 0.160033 0.000069 0.143431 0.000436 0.108583 0.070085 0.038490 0.000046 0.023048 0.010335 0.004621 0.001023 0.000119 0.000010 0.160793 ]
3
Num Evals 2676
GenUC: 1.692278e-02
GenUB: 5.256587e-03
Optimisation 1.243616e+03
Total Time: 1.243638e+03
2 Flipped
Graph 1:
0 1 0 0 1 0 0 1 
0 1 0 1 0 1 1 1 
1 0 0 0 0 1 0 1 
1 0 1 0 0 0 1 0 
0 0 1 1 0 1 0 1 
0 0 1 1 1 0 1 1 
1 1 0 0 0 0 1 0 
0 1 0 1 1 1 1 1 
Graph 2:
1 0 0 1 0 0 1 0 
1 1 1 0 1 0 1 0 
1 0 1 0 0 0 0 1 
0 1 0 0 0 1 0 1 
1 0 1 0 1 1 0 0 
1 1 0 1 1 1 0 0 
0 1 0 0 0 0 1 1 
1 1 1 1 1 0 1 0 
Solution: 48 3017
Classic Expectation: 31.428571
Initial Expecation: 19.335937
Gbest: 48.000000
Expectation: 28.922251
Final Parameters:
Gammas:
[ 3.299386 3.303755 3.370069 3.214854 ]
Betas:
[ 2.885351 2.685750 1.192205 2.075311 ]
Aggregate results:
[ 28 26 34 32 30 24 22 36 42 40 38 20 44 46 48 18 0 ]
[ 0.041061 0.030603 0.183717 0.130621 0.072714 0.025111 0.012973 0.172249 0.015202 0.051044 0.113462 0.004544 0.003402 0.000525 0.000083 0.001093 0.141596 ]
3
Num Evals 2113
GenUC: 1.786866e-02
GenUB: 5.314672e-03
Optimisation 9.858758e+02
Total Time: 9.858990e+02
3 Add 8
Graph 1:
0 1 0 0 1 0 0 1 
0 1 0 1 0 1 1 1 
1 0 0 0 0 1 0 1 
1 0 1 0 0 0 1 0 
0 0 1 1 0 1 0 1 
0 0 1 1 1 0 1 1 
1 1 0 0 0 0 1 0 
0 1 0 1 1 1 1 1 
Graph 2:
1 1 0 0 1 0 0 1 
0 1 0 1 1 1 1 1 
1 1 0 0 0 1 0 1 
1 0 1 0 1 0 1 0 
1 0 1 1 0 1 0 1 
0 1 1 1 1 0 1 1 
1 1 0 1 0 1 1 0 
0 1 0 1 1 1 1 1 
Solution: 56 0
Classic Expectation: 32.285714
Initial Expecation: 19.863281
Gbest: 52.000000
Expectation: 28.640642
Final Parameters:
Gammas:
[ 3.308400 3.318905 3.284485 3.322666 ]
Betas:
[ 2.908879 2.361458 0.630736 2.170077 ]
Aggregate results:
[ 56 42 40 38 50 34 44 46 32 36 48 30 28 26 24 22 18 20 16 52 0 ]
[ 0.000017 0.011709 0.029307 0.068372 0.000034 0.158985 0.003991 0.000792 0.169519 0.117084 0.000211 0.136402 0.098519 0.053338 0.026505 0.008375 0.000237 0.002191 0.000144 0.000007 0.114262 ]
3
Num Evals 5161
GenUC: 1.803803e-02
GenUB: 4.906011e-03
Optimisation 2.249319e+03
Total Time: 2.249342e+03
4 Rem 8
Graph 1:
0 1 0 0 1 0 0 1 
0 1 0 1 0 1 1 1 
1 0 0 0 0 1 0 1 
1 0 1 0 0 0 1 0 
0 0 1 1 0 1 0 1 
0 0 1 1 1 0 1 1 
1 1 0 0 0 0 1 0 
0 1 0 1 1 1 1 1 
Graph 2:
0 0 0 0 0 0 0 1 
0 0 0 1 0 1 1 1 
1 0 0 0 0 1 0 1 
0 0 1 0 0 0 0 0 
0 0 1 1 0 1 0 1 
0 0 1 1 0 0 1 1 
1 1 0 0 0 0 1 0 
0 1 0 1 1 1 1 1 
Solution: 58 0
Classic Expectation: 32.357143
Initial Expecation: 19.907227
Gbest: 58.000000
Expectation: 27.697433
Final Parameters:
Gammas:
[ 3.310011 3.331981 3.279645 3.163871 ]
Betas:
[ 2.876877 2.842483 0.190445 2.629306 ]
Aggregate results:
[ 58 42 40 36 38 50 52 32 44 34 46 30 28 26 24 48 22 20 18 0 ]
[ 0.000053 0.011339 0.035967 0.111461 0.070350 0.000097 0.000034 0.152791 0.003973 0.144271 0.000623 0.133971 0.095804 0.056653 0.026744 0.000279 0.009056 0.002844 0.000165 0.143526 ]
3
Num Evals 2119
GenUC: 1.802479e-02
GenUB: 4.903404e-03
Optimisation 9.562227e+02
Total Time: 9.562456e+02
5 Add/Rem 8
Graph 1:
0 1 0 0 1 0 0 1 
0 1 0 1 0 1 1 1 
1 0 0 0 0 1 0 1 
1 0 1 0 0 0 1 0 
0 0 1 1 0 1 0 1 
0 0 1 1 1 0 1 1 
1 1 0 0 0 0 1 0 
0 1 0 1 1 1 1 1 
Graph 2:
0 1 0 0 1 0 0 1 
0 0 0 1 0 1 1 1 
0 1 0 0 0 0 0 1 
1 0 1 0 1 1 1 0 
0 0 1 1 0 0 0 1 
0 1 0 1 0 0 1 1 
1 1 0 1 0 0 1 0 
0 1 1 1 1 0 1 1 
Solution: 51 0
Classic Expectation: 32.535714
Initial Expecation: 20.017090
Gbest: 51.000000
Expectation: 30.128973
Final Parameters:
Gammas:
[ 3.087264 3.392618 3.287303 3.242429 ]
Betas:
[ 1.625041 2.272724 0.506334 2.764337 ]
Aggregate results:
[ 51 37 43 35 49 45 33 29 41 39 31 27 25 47 23 21 19 17 15 0 ]
[ 0.000072 0.141316 0.011075 0.179703 0.000195 0.003107 0.173437 0.068838 0.036049 0.084823 0.125873 0.034014 0.015029 0.000572 0.007421 0.002587 0.000974 0.000487 0.000047 0.114381 ]
3
Num Evals 38863
GenUC: 1.827007e-02
GenUB: 4.880026e-03
Optimisation 1.607041e+04
Total Time: 1.607043e+04
