Clock Speed: 3.498915
Num threads: 16
Trotterisation: 3
Num Qubits: 13
Space Dimension: 8192
Run-Type: 0
Num_samples: 49
Optimiser Method: 28
1 Isomorphic
Graph 1:
1 1 0 1 1 1 1 
0 0 1 1 1 1 0 
1 0 0 0 0 1 0 
0 0 0 0 1 1 0 
0 0 1 0 1 1 1 
1 1 1 1 1 0 0 
0 0 0 0 0 1 1 
Graph 2:
1 1 0 1 1 1 1 
0 0 1 1 1 1 0 
1 0 0 0 0 1 0 
0 0 0 0 1 1 0 
0 0 1 0 1 1 1 
1 1 1 1 1 0 0 
0 0 0 0 0 1 1 
Solution: 49 0
Classic Expectation: 24.619048
Initial Expecation: 15.146484
Gbest: 39.000000
Expectation: 23.442650
Final Parameters:
Gammas:
[ 3.202580 2.944093 3.567595 ]
Betas:
[ 2.488806 1.420104 1.516936 ]
Aggregate results:
[ 49 29 35 31 39 41 23 33 37 27 21 25 19 17 13 15 45 11 9 7 43 0 ]
[ 0.000087 0.134943 0.028021 0.107563 0.008409 0.000917 0.095475 0.055755 0.016402 0.171645 0.042204 0.156093 0.019671 0.014086 0.003433 0.004826 0.000374 0.000979 0.000297 0.000189 0.000389 0.138240 ]
3
Num Evals 495
GenUC: 2.285955e-03
GenUB: 1.262820e-03
Optimisation 1.316813e+01
Total Time: 1.317169e+01
2 Flipped
Graph 1:
1 1 0 1 1 1 1 
0 0 1 1 1 1 0 
1 0 0 0 0 1 0 
0 0 0 0 1 1 0 
0 0 1 0 1 1 1 
1 1 1 1 1 0 0 
0 0 0 0 0 1 1 
Graph 2:
1 1 1 1 0 1 1 
0 1 1 1 1 0 0 
0 1 0 0 0 0 1 
0 1 1 0 0 0 0 
1 1 1 0 1 0 0 
0 0 1 1 1 1 1 
1 1 0 0 0 0 0 
Solution: 37 566
Classic Expectation: 24.428571
Initial Expecation: 15.029297
Gbest: 33.000000
Expectation: 19.206992
Final Parameters:
Gammas:
[ 2.937101 4.822546 2.974507 ]
Betas:
[ 2.587781 1.780339 1.394091 ]
Aggregate results:
[ 25 29 21 23 27 19 31 33 17 35 37 15 13 0 ]
[ 0.166963 0.096261 0.095596 0.148799 0.141539 0.041909 0.040619 0.016124 0.015001 0.002803 0.000802 0.001281 0.000027 0.232276 ]
3
Num Evals 611
GenUC: 2.896360e-03
GenUB: 1.095877e-03
Optimisation 1.696062e+01
Total Time: 1.696461e+01
3 Add 7
Graph 1:
1 1 0 1 1 1 1 
0 0 1 1 1 1 0 
1 0 0 0 0 1 0 
0 0 0 0 1 1 0 
0 0 1 0 1 1 1 
1 1 1 1 1 0 0 
0 0 0 0 0 1 1 
Graph 2:
1 1 0 1 1 1 1 
0 1 1 1 1 1 0 
1 0 0 0 0 1 1 
0 0 0 0 1 1 0 
0 0 1 1 1 1 1 
1 1 1 1 1 1 0 
0 0 1 0 0 1 1 
Solution: 44 0
Classic Expectation: 24.476190
Initial Expecation: 15.058594
Gbest: 34.000000
Expectation: 20.548821
Final Parameters:
Gammas:
[ 3.009724 3.726552 3.066691 ]
Betas:
[ 1.456870 1.124233 0.501761 ]
Aggregate results:
[ 44 30 34 32 36 38 26 28 24 22 20 18 16 40 14 12 0 ]
[ 0.000419 0.083656 0.015762 0.039602 0.009007 0.001813 0.179327 0.138199 0.157390 0.102046 0.049316 0.011792 0.002340 0.000580 0.000702 0.000070 0.207977 ]
3
Num Evals 1158
GenUC: 2.897207e-03
GenUB: 1.201119e-03
Optimisation 2.380631e+01
Total Time: 2.381041e+01
4 Rem 7
Graph 1:
1 1 0 1 1 1 1 
0 0 1 1 1 1 0 
1 0 0 0 0 1 0 
0 0 0 0 1 1 0 
0 0 1 0 1 1 1 
1 1 1 1 1 0 0 
0 0 0 0 0 1 1 
Graph 2:
1 1 0 0 1 0 1 
0 0 0 0 1 1 0 
1 0 0 0 0 1 0 
0 0 0 0 1 1 0 
0 0 1 0 1 1 0 
1 1 1 1 1 0 0 
0 0 0 0 0 0 1 
Solution: 43 0
Classic Expectation: 24.333333
Initial Expecation: 14.970703
Gbest: 35.000000
Expectation: 21.442229
Final Parameters:
Gammas:
[ 2.823487 3.207363 3.681853 ]
Betas:
[ 1.523323 1.362794 1.045291 ]
Aggregate results:
[ 43 25 33 35 37 19 31 23 29 27 17 21 15 13 11 39 0 ]
[ 0.000249 0.186074 0.015520 0.007061 0.002263 0.076154 0.035393 0.182467 0.081477 0.126198 0.030572 0.130573 0.008074 0.002414 0.000296 0.000207 0.115007 ]
3
Num Evals 523
GenUC: 2.905326e-03
GenUB: 1.209000e-03
Optimisation 1.219750e+01
Total Time: 1.220162e+01
5 Add/Rem 7
Graph 1:
1 1 0 1 1 1 1 
0 0 1 1 1 1 0 
1 0 0 0 0 1 0 
0 0 0 0 1 1 0 
0 0 1 0 1 1 1 
1 1 1 1 1 0 0 
0 0 0 0 0 1 1 
Graph 2:
1 1 1 1 1 1 1 
0 0 1 1 1 0 0 
0 0 1 0 0 1 0 
0 0 0 1 1 0 0 
0 0 1 0 0 1 1 
0 0 1 1 1 0 0 
1 1 0 1 1 1 0 
Solution: 37 697
Classic Expectation: 24.619048
Initial Expecation: 15.146484
Gbest: 33.000000
Expectation: 22.177570
Final Parameters:
Gammas:
[ 3.075055 4.175885 2.960579 ]
Betas:
[ 2.662123 1.927542 2.381285 ]
Aggregate results:
[ 35 33 29 27 31 21 25 23 19 37 17 15 13 0 ]
[ 0.003615 0.011764 0.094062 0.146571 0.047500 0.126497 0.205108 0.195462 0.049811 0.000006 0.014857 0.001486 0.000297 0.102964 ]
3
Num Evals 811
GenUC: 2.912886e-03
GenUB: 1.261345e-03
Optimisation 2.528686e+01
Total Time: 2.529103e+01
