Clock Speed: 3.498676
Num threads: 16
Trotterisation: 1
Num Qubits: 13
Space Dimension: 8192
Run-Type: 0
Num_samples: 49
Optimiser Method: 0
1 Isomorphic
Graph 1:
1 0 1 0 0 0 0 
1 0 1 1 1 1 1 
0 1 1 1 0 1 0 
1 0 0 0 1 0 1 
1 0 1 0 0 0 0 
1 0 0 0 1 0 0 
1 1 0 0 1 1 1 
Graph 2:
1 0 1 0 0 0 0 
1 0 1 1 1 1 1 
0 1 1 1 0 1 0 
1 0 0 0 1 0 1 
1 0 1 0 0 0 0 
1 0 0 0 1 0 0 
1 1 0 0 1 1 1 
Solution: 49 0
Classic Expectation: 24.571429
Initial Expecation: 15.117188
Gbest: 37.000000
Expectation: 18.573718
Final Parameters:
Gammas:
[ 3.350150 ]
Betas:
[ 0.698132 ]
Aggregate results:
[ 49 39 41 35 37 29 33 45 31 27 21 23 25 19 15 17 11 13 0 ]
[ 0.000101 0.001003 0.001117 0.006682 0.002978 0.069707 0.016311 0.000131 0.038099 0.124630 0.118726 0.142231 0.132448 0.068314 0.006717 0.030809 0.000195 0.002133 0.237669 ]
3
Num Evals 301
GenUC: 2.298097e-03
GenUB: 1.240002e-03
Optimisation 2.157246e+00
Total Time: 2.160794e+00
2 Flipped
Graph 1:
1 0 1 0 0 0 0 
1 0 1 1 1 1 1 
0 1 1 1 0 1 0 
1 0 0 0 1 0 1 
1 0 1 0 0 0 0 
1 0 0 0 1 0 0 
1 1 0 0 1 1 1 
Graph 2:
0 0 0 0 1 0 1 
1 1 1 1 1 0 1 
0 1 0 1 1 1 0 
1 0 1 0 0 0 1 
0 0 0 0 1 0 1 
0 0 1 0 0 0 1 
1 1 1 0 0 1 1 
Solution: 35 54
Classic Expectation: 24.571429
Initial Expecation: 15.117188
Gbest: 33.000000
Expectation: 18.874292
Final Parameters:
Gammas:
[ 3.342591 ]
Betas:
[ 0.698132 ]
Aggregate results:
[ 29 21 31 27 23 25 19 35 33 17 15 0 ]
[ 0.077980 0.099514 0.038854 0.136611 0.159713 0.170406 0.047514 0.001619 0.013470 0.013514 0.004191 0.236613 ]
3
Num Evals 399
GenUC: 2.902097e-03
GenUB: 1.268070e-03
Optimisation 2.693743e+00
Total Time: 2.697916e+00
3 Add 7
Graph 1:
1 0 1 0 0 0 0 
1 0 1 1 1 1 1 
0 1 1 1 0 1 0 
1 0 0 0 1 0 1 
1 0 1 0 0 0 0 
1 0 0 0 1 0 0 
1 1 0 0 1 1 1 
Graph 2:
1 1 1 0 0 0 1 
1 1 1 1 1 1 1 
0 1 1 1 1 1 0 
1 0 1 0 1 0 1 
1 0 1 0 0 1 0 
1 0 0 0 1 1 0 
1 1 0 0 1 1 1 
Solution: 42 0
Classic Expectation: 24.285714
Initial Expecation: 14.941406
Gbest: 32.000000
Expectation: 17.887371
Final Parameters:
Gammas:
[ 0.349066 ]
Betas:
[ 0.523599 ]
Aggregate results:
[ 42 34 38 30 32 28 36 26 24 20 22 18 16 14 0 ]
[ 0.000854 0.008925 0.001160 0.044370 0.018374 0.095263 0.003001 0.150915 0.162839 0.076612 0.126620 0.027663 0.008608 0.001717 0.273079 ]
3
Num Evals 19
GenUC: 2.902295e-03
GenUB: 1.226807e-03
Optimisation 1.605501e-01
Total Time: 1.646813e-01
4 Rem 7
Graph 1:
1 0 1 0 0 0 0 
1 0 1 1 1 1 1 
0 1 1 1 0 1 0 
1 0 0 0 1 0 1 
1 0 1 0 0 0 0 
1 0 0 0 1 0 0 
1 1 0 0 1 1 1 
Graph 2:
1 0 0 0 0 0 0 
1 0 1 1 1 0 1 
0 1 1 1 0 1 0 
0 0 0 0 1 0 0 
0 0 1 0 0 0 0 
0 0 0 0 1 0 0 
1 1 0 0 1 1 1 
Solution: 43 0
Classic Expectation: 24.571429
Initial Expecation: 15.117188
Gbest: 35.000000
Expectation: 18.690532
Final Parameters:
Gammas:
[ 3.354471 ]
Betas:
[ 0.698132 ]
Aggregate results:
[ 43 35 31 29 33 25 27 41 37 21 23 19 17 13 15 39 0 ]
[ 0.000223 0.005647 0.026539 0.064060 0.011000 0.168540 0.118376 0.000403 0.001100 0.117093 0.170536 0.057401 0.021403 0.001698 0.007119 0.000213 0.228648 ]
3
Num Evals 483
GenUC: 2.894504e-03
GenUB: 1.264259e-03
Optimisation 3.398434e+00
Total Time: 3.402595e+00
5 Add/Rem 7
Graph 1:
1 0 1 0 0 0 0 
1 0 1 1 1 1 1 
0 1 1 1 0 1 0 
1 0 0 0 1 0 1 
1 0 1 0 0 0 0 
1 0 0 0 1 0 0 
1 1 0 0 1 1 1 
Graph 2:
0 0 0 0 0 0 0 
1 1 0 0 1 1 0 
0 0 1 1 0 1 1 
1 0 0 0 1 0 1 
1 0 1 0 0 1 1 
1 0 0 1 1 0 1 
1 1 0 0 1 1 0 
Solution: 40 527
Classic Expectation: 24.714286
Initial Expecation: 15.205078
Gbest: 32.000000
Expectation: 16.494370
Final Parameters:
Gammas:
[ 5.235988 ]
Betas:
[ 0.872665 ]
Aggregate results:
[ 36 32 30 28 26 34 24 22 18 20 38 40 16 14 0 ]
[ 0.001314 0.019979 0.051388 0.107084 0.139287 0.005019 0.116596 0.109688 0.033391 0.071891 0.000732 0.000179 0.009076 0.003225 0.331151 ]
3
Num Evals 19
GenUC: 2.907291e-03
GenUB: 1.240393e-03
Optimisation 1.586831e-01
Total Time: 1.628328e-01
