Clock Speed: 3.688699
Num threads: 4
Trotterisation: 6
Num Qubits: 5
Space Dimension: 32
Run-Type: 0
Num_samples: 6399
Optimiser Method: 0
1 Isomorphic
Graph 1:
0 1 0 0 
1 0 1 1 
0 1 1 0 
0 0 0 1 
Graph 2:
0 1 0 0 
1 0 1 1 
0 1 1 0 
0 0 0 1 
Solution: 16 0
Classic Expectation: 8.166667
Initial Expecation: 6.125000
Gbest: 16.000000
Expectation: 6.125000
Final Parameters:
Gammas:
[ 3.141593 3.141593 3.141593 3.141593 3.141593 3.141593 ]
Betas:
[ 1.919862 1.570796 1.570796 1.570796 1.570796 1.570796 ]
Aggregate results:
[ 16 14 8 6 4 10 12 2 0 ]
[ 0.031250 0.062500 0.156250 0.218750 0.093750 0.062500 0.093750 0.031250 0.250000 ]
3
Num Evals 85
GenUC: 8.718111e-06
GenUB: 9.682844e-06
Optimisation 5.942846e-02
Total Time: 5.947470e-02
2 Flipped
Graph 1:
0 1 0 0 
1 0 1 1 
0 1 1 0 
0 0 0 1 
Graph 2:
0 0 1 0 
1 1 0 1 
0 1 1 0 
1 0 0 0 
Solution: 12 18
Classic Expectation: 8.166667
Initial Expecation: 6.125000
Gbest: 12.000000
Expectation: 6.845703
Final Parameters:
Gammas:
[ 3.141593 5.235988 5.235988 5.235988 5.235988 3.141593 ]
Betas:
[ 1.570796 1.570796 1.570796 2.617994 1.570796 1.570796 ]
Aggregate results:
[ 10 8 6 4 12 0 ]
[ 0.158447 0.505249 0.123047 0.025391 0.031616 0.156250 ]
3
Num Evals 55
GenUC: 9.328360e-06
GenUB: 1.886685e-06
Optimisation 2.992386e-02
Total Time: 2.993771e-02
3 Add 4
Graph 1:
0 1 0 0 
1 0 1 1 
0 1 1 0 
0 0 0 1 
Graph 2:
1 1 0 0 
1 0 1 1 
0 1 1 1 
0 0 1 1 
Solution: 13 0
Classic Expectation: 7.833333
Initial Expecation: 5.875000
Gbest: 13.000000
Expectation: 6.294678
Final Parameters:
Gammas:
[ 3.141593 1.047198 3.141593 3.141593 3.141593 3.141593 ]
Betas:
[ 1.570796 1.570796 1.570796 1.570796 1.570796 0.523599 ]
Aggregate results:
[ 13 11 7 5 9 3 0 ]
[ 0.043457 0.185913 0.403687 0.089233 0.031494 0.043091 0.203125 ]
3
Num Evals 47
GenUC: 8.854200e-06
GenUB: 1.414854e-06
Optimisation 2.424214e-02
Total Time: 2.425433e-02
4 Rem 4
Graph 1:
0 1 0 0 
1 0 1 1 
0 1 1 0 
0 0 0 1 
Graph 2:
0 1 0 0 
0 0 1 1 
0 1 0 0 
0 0 0 0 
Solution: 13 0
Classic Expectation: 8.333333
Initial Expecation: 6.250000
Gbest: 13.000000
Expectation: 9.490464
Final Parameters:
Gammas:
[ 0.939462 3.134410 3.154520 5.223060 3.800940 3.098890 ]
Betas:
[ 0.581777 1.512620 1.551405 1.047199 1.693615 2.727886 ]
Aggregate results:
[ 13 11 9 7 5 0 ]
[ 0.238237 0.382264 0.059250 0.199042 0.052387 0.068820 ]
3
Num Evals 3287
GenUC: 9.290234e-06
GenUB: 1.205364e-06
Optimisation 1.635683e+00
Total Time: 1.635695e+00
5 Add/Rem 4
Graph 1:
0 1 0 0 
1 0 1 1 
0 1 1 0 
0 0 0 1 
Graph 2:
1 0 0 0 
1 0 1 0 
0 1 0 0 
1 0 0 0 
Solution: 12 14
Classic Expectation: 8.333333
Initial Expecation: 6.250000
Gbest: 12.000000
Expectation: 6.584717
Final Parameters:
Gammas:
[ 1.047198 1.047198 3.141593 3.141593 3.141593 3.141593 ]
Betas:
[ 2.617994 1.570796 1.570796 1.570796 1.570796 1.570796 ]
Aggregate results:
[ 10 8 6 12 0 ]
[ 0.179321 0.270630 0.256104 0.090820 0.203125 ]
3
Num Evals 33
GenUC: 9.947515e-06
GenUB: 1.565088e-06
Optimisation 1.688670e-02
Total Time: 1.690128e-02
