Clock Speed: 3.689305
Num threads: 4
Trotterisation: 6
Num Qubits: 5
Space Dimension: 32
Run-Type: 0
Num_samples: 6399
Optimiser Method: 0
1 Isomorphic
Graph 1:
0 0 1 1 
0 1 1 1 
1 1 0 0 
1 0 1 1 
Graph 2:
0 0 1 1 
0 1 1 1 
1 1 0 0 
1 0 1 1 
Solution: 16 0
Classic Expectation: 8.666667
Initial Expecation: 6.500000
Gbest: 16.000000
Expectation: 6.790771
Final Parameters:
Gammas:
[ 3.141593 1.047198 3.141593 3.141593 3.141593 3.141593 ]
Betas:
[ 1.570796 1.570796 2.617994 1.570796 1.570796 1.570796 ]
Aggregate results:
[ 16 10 6 8 12 4 0 ]
[ 0.032715 0.147339 0.021973 0.483032 0.055542 0.032837 0.226562 ]
3
Num Evals 53
GenUC: 8.383533e-06
GenUB: 8.892384e-06
Optimisation 2.724007e-02
Total Time: 2.728458e-02
2 Flipped
Graph 1:
0 0 1 1 
0 1 1 1 
1 1 0 0 
1 0 1 1 
Graph 2:
1 1 0 0 
1 1 1 0 
0 0 1 1 
1 1 0 1 
Solution: 12 2
Classic Expectation: 8.000000
Initial Expecation: 6.000000
Gbest: 12.000000
Expectation: 6.178711
Final Parameters:
Gammas:
[ 5.235988 3.141593 3.141593 3.141593 3.141593 3.141593 ]
Betas:
[ 1.570796 1.570796 1.570796 0.523599 1.570796 1.570796 ]
Aggregate results:
[ 4 8 12 6 10 0 ]
[ 0.159912 0.402222 0.003784 0.184204 0.117065 0.132813 ]
3
Num Evals 31
GenUC: 9.181094e-06
GenUB: 1.735287e-06
Optimisation 1.723784e-02
Total Time: 1.725112e-02
3 Add 4
Graph 1:
0 0 1 1 
0 1 1 1 
1 1 0 0 
1 0 1 1 
Graph 2:
1 0 1 1 
0 1 1 1 
1 1 1 0 
1 1 1 1 
Solution: 13 0
Classic Expectation: 9.000000
Initial Expecation: 6.750000
Gbest: 13.000000
Expectation: 7.201172
Final Parameters:
Gammas:
[ 3.141593 5.235988 3.141593 3.141593 3.141593 3.141593 ]
Betas:
[ 1.570796 1.570796 0.523599 1.570796 1.570796 1.570796 ]
Aggregate results:
[ 13 11 7 9 0 ]
[ 0.015625 0.246094 0.262695 0.272461 0.203125 ]
3
Num Evals 51
GenUC: 9.286741e-06
GenUB: 1.594482e-06
Optimisation 2.672978e-02
Total Time: 2.674313e-02
4 Rem 4
Graph 1:
0 0 1 1 
0 1 1 1 
1 1 0 0 
1 0 1 1 
Graph 2:
0 0 1 1 
0 1 1 0 
0 1 0 0 
0 0 1 1 
Solution: 13 0
Classic Expectation: 7.666667
Initial Expecation: 5.750000
Gbest: 13.000000
Expectation: 5.874512
Final Parameters:
Gammas:
[ 1.047198 3.141593 5.235988 3.141593 3.141593 3.141593 ]
Betas:
[ 0.523599 1.570796 1.570796 1.570796 1.570796 1.570796 ]
Aggregate results:
[ 13 7 9 11 3 5 0 ]
[ 0.011841 0.478149 0.116333 0.105103 0.011230 0.027344 0.250000 ]
3
Num Evals 39
GenUC: 9.448093e-06
GenUB: 1.324515e-06
Optimisation 1.973966e-02
Total Time: 1.975289e-02
5 Add/Rem 4
Graph 1:
0 0 1 1 
0 1 1 1 
1 1 0 0 
1 0 1 1 
Graph 2:
0 0 0 1 
1 1 1 1 
1 1 1 0 
0 1 1 0 
Solution: 12 22
Classic Expectation: 8.666667
Initial Expecation: 6.500000
Gbest: 12.000000
Expectation: 8.077151
Final Parameters:
Gammas:
[ 5.235988 1.047198 3.141593 3.141593 2.443461 2.443461 ]
Betas:
[ 2.617994 1.570796 1.570796 1.919862 0.523599 1.570796 ]
Aggregate results:
[ 10 8 6 4 12 0 ]
[ 0.395824 0.279575 0.049632 0.052568 0.114520 0.107880 ]
3
Num Evals 195
GenUC: 9.440468e-06
GenUB: 1.240580e-06
Optimisation 9.768721e-02
Total Time: 9.770005e-02
