Clock Speed: 3.689163
Num threads: 4
Trotterisation: 6
Num Qubits: 5
Space Dimension: 32
Run-Type: 0
Num_samples: 6399
Optimiser Method: 0
1 Isomorphic
Graph 1:
0 0 1 1 
1 0 1 1 
0 0 0 0 
1 1 1 1 
Graph 2:
0 0 1 1 
1 0 1 1 
0 0 0 0 
1 1 1 1 
Solution: 16 0
Classic Expectation: 9.166667
Initial Expecation: 6.875000
Gbest: 16.000000
Expectation: 7.572266
Final Parameters:
Gammas:
[ 3.141593 1.047198 3.141593 3.141593 3.141593 1.047198 ]
Betas:
[ 1.570796 1.570796 1.570796 1.570796 0.523599 1.570796 ]
Aggregate results:
[ 16 8 6 12 14 10 0 ]
[ 0.052124 0.389893 0.073975 0.058472 0.062378 0.160034 0.203125 ]
3
Num Evals 65
GenUC: 8.623581e-06
GenUB: 8.720963e-06
Optimisation 3.217139e-02
Total Time: 3.221563e-02
2 Flipped
Graph 1:
0 0 1 1 
1 0 1 1 
0 0 0 0 
1 1 1 1 
Graph 2:
1 1 0 0 
1 1 0 1 
0 0 0 0 
1 1 1 1 
Solution: 12 5
Classic Expectation: 7.500000
Initial Expecation: 5.625000
Gbest: 12.000000
Expectation: 6.400635
Final Parameters:
Gammas:
[ 5.235988 3.141593 1.047198 3.141593 3.141593 3.141593 ]
Betas:
[ 1.570796 2.617994 1.570796 1.570796 1.570796 1.570796 ]
Aggregate results:
[ 10 2 8 6 12 4 0 ]
[ 0.282593 0.019287 0.151367 0.281494 0.048462 0.013672 0.203125 ]
3
Num Evals 37
GenUC: 9.191048e-06
GenUB: 1.700071e-06
Optimisation 1.850322e-02
Total Time: 1.851643e-02
3 Add 4
Graph 1:
0 0 1 1 
1 0 1 1 
0 0 0 0 
1 1 1 1 
Graph 2:
0 1 1 1 
1 1 1 1 
0 0 1 0 
1 1 1 1 
Solution: 13 0
Classic Expectation: 8.500000
Initial Expecation: 6.375000
Gbest: 13.000000
Expectation: 6.375000
Final Parameters:
Gammas:
[ 3.141593 1.047198 3.141593 1.047198 3.141593 5.235988 ]
Betas:
[ 1.570796 1.570796 1.570796 1.570796 1.570796 1.570796 ]
Aggregate results:
[ 13 7 5 11 9 0 ]
[ 0.125000 0.375000 0.062500 0.062500 0.125000 0.250000 ]
3
Num Evals 65
GenUC: 8.962816e-06
GenUB: 1.484703e-06
Optimisation 3.218881e-02
Total Time: 3.220124e-02
4 Rem 4
Graph 1:
0 0 1 1 
1 0 1 1 
0 0 0 0 
1 1 1 1 
Graph 2:
0 0 1 0 
0 0 0 0 
0 0 0 0 
1 1 1 1 
Solution: 12 0
Classic Expectation: 7.833333
Initial Expecation: 5.875000
Gbest: 12.000000
Expectation: 7.435059
Final Parameters:
Gammas:
[ 1.047198 3.141593 3.141593 3.141593 3.141593 3.141593 ]
Betas:
[ 2.617994 1.570796 1.570796 1.570796 1.570796 1.570796 ]
Aggregate results:
[ 12 4 10 2 8 6 0 ]
[ 0.136597 0.057007 0.323853 0.022095 0.229980 0.074219 0.156250 ]
3
Num Evals 35
GenUC: 9.263225e-06
GenUB: 1.244072e-06
Optimisation 1.696884e-02
Total Time: 1.698127e-02
5 Add/Rem 4
Graph 1:
0 0 1 1 
1 0 1 1 
0 0 0 0 
1 1 1 1 
Graph 2:
0 0 0 1 
0 1 1 0 
1 1 0 1 
1 1 0 1 
Solution: 12 2
Classic Expectation: 8.333333
Initial Expecation: 6.250000
Gbest: 12.000000
Expectation: 6.491699
Final Parameters:
Gammas:
[ 5.235988 3.141593 3.141593 3.141593 3.141593 3.141593 ]
Betas:
[ 1.570796 1.570796 2.617994 1.570796 1.570796 1.570796 ]
Aggregate results:
[ 8 12 10 6 4 0 ]
[ 0.282349 0.105713 0.216919 0.107544 0.037476 0.250000 ]
3
Num Evals 31
GenUC: 9.328942e-06
GenUB: 1.171895e-06
Optimisation 1.569671e-02
Total Time: 1.570906e-02
