Clock Speed: 3.498704
Num threads: 16
Trotterisation: 6
Num Qubits: 5
Space Dimension: 32
Run-Type: 0
Num_samples: 16
Optimiser Method: 0
1 Isomorphic
Graph 1:
0 0 1 0 
1 0 1 0 
1 1 0 1 
1 0 1 1 
Graph 2:
0 0 1 0 
1 0 1 0 
1 1 0 1 
1 0 1 1 
Solution: 16 0
Classic Expectation: 9.166667
Initial Expecation: 6.875000
Gbest: 14.000000
Expectation: 6.949707
Final Parameters:
Gammas:
[ 1.047198 3.141593 1.047198 3.141593 3.141593 3.141593 ]
Betas:
[ 1.570796 2.617994 1.570796 1.570796 1.570796 1.570796 ]
Aggregate results:
[ 16 8 10 14 12 6 0 ]
[ 0.008911 0.179077 0.240356 0.077759 0.069824 0.174072 0.250000 ]
3
Num Evals 35
GenUC: 9.636860e-06
GenUB: 1.439778e-05
Optimisation 7.375484e-03
Total Time: 7.407705e-03
2 Flipped
Graph 1:
0 0 1 0 
1 0 1 0 
1 1 0 1 
1 0 1 1 
Graph 2:
0 1 0 0 
0 1 0 1 
1 0 1 1 
1 1 0 1 
Solution: 10 1
Classic Expectation: 7.500000
Initial Expecation: 5.625000
Gbest: 10.000000
Expectation: 6.130371
Final Parameters:
Gammas:
[ 1.047198 3.141593 3.141593 3.141593 3.141593 3.141593 ]
Betas:
[ 0.523599 1.570796 1.570796 1.570796 1.570796 1.570796 ]
Aggregate results:
[ 6 10 8 4 0 ]
[ 0.363647 0.243286 0.165527 0.047852 0.179688 ]
3
Num Evals 31
GenUC: 9.794720e-06
GenUB: 2.016779e-06
Optimisation 6.454198e-03
Total Time: 6.467661e-03
3 Add 4
Graph 1:
0 0 1 0 
1 0 1 0 
1 1 0 1 
1 0 1 1 
Graph 2:
0 1 1 0 
1 1 1 0 
1 1 0 1 
1 1 1 1 
Solution: 13 0
Classic Expectation: 9.333333
Initial Expecation: 7.000000
Gbest: 13.000000
Expectation: 7.000000
Final Parameters:
Gammas:
[ 3.141593 1.047198 3.141593 1.047198 5.235988 3.141593 ]
Betas:
[ 1.570796 1.570796 1.570796 1.570796 1.570796 1.570796 ]
Aggregate results:
[ 13 7 11 9 0 ]
[ 0.093750 0.250000 0.187500 0.218750 0.250000 ]
3
Num Evals 43
GenUC: 9.491574e-06
GenUB: 1.773238e-06
Optimisation 8.845278e-03
Total Time: 8.858046e-03
4 Rem 4
Graph 1:
0 0 1 0 
1 0 1 0 
1 1 0 1 
1 0 1 1 
Graph 2:
0 0 1 0 
1 0 0 0 
1 1 0 1 
0 0 0 1 
Solution: 13 0
Classic Expectation: 8.166667
Initial Expecation: 6.125000
Gbest: 13.000000
Expectation: 6.942383
Final Parameters:
Gammas:
[ 5.235988 3.141593 3.141593 3.141593 3.141593 3.141593 ]
Betas:
[ 1.570796 2.617994 1.570796 1.570796 1.570796 1.570796 ]
Aggregate results:
[ 13 7 9 11 5 0 ]
[ 0.036743 0.183960 0.379761 0.090454 0.152832 0.156250 ]
3
Num Evals 31
GenUC: 9.594020e-06
GenUB: 1.847744e-06
Optimisation 6.393697e-03
Total Time: 6.406633e-03
5 Add/Rem 4
Graph 1:
0 0 1 0 
1 0 1 0 
1 1 0 1 
1 0 1 1 
Graph 2:
0 1 1 1 
1 0 1 0 
1 1 1 0 
1 1 0 0 
Solution: 15 10
Classic Expectation: 9.500000
Initial Expecation: 7.125000
Gbest: 11.000000
Expectation: 7.582031
Final Parameters:
Gammas:
[ 5.235988 5.235988 5.235988 3.141593 3.141593 3.141593 ]
Betas:
[ 1.570796 2.617994 1.570796 1.570796 1.570796 1.570796 ]
Aggregate results:
[ 9 11 7 13 15 0 ]
[ 0.259766 0.242676 0.134766 0.030273 0.082520 0.250000 ]
3
Num Evals 115
GenUC: 9.456184e-06
GenUB: 1.591630e-06
Optimisation 2.373740e-02
Total Time: 2.374992e-02
