Clock Speed: 3.688713
Num threads: 4
Trotterisation: 6
Num Qubits: 5
Space Dimension: 32
Run-Type: 0
Num_samples: 6399
Optimiser Method: 0
1 Isomorphic
Graph 1:
1 1 0 0 
0 1 0 1 
1 0 0 0 
0 1 1 1 
Graph 2:
1 1 0 0 
0 1 0 1 
1 0 0 0 
0 1 1 1 
Solution: 16 0
Classic Expectation: 8.666667
Initial Expecation: 6.500000
Gbest: 16.000000
Expectation: 7.364258
Final Parameters:
Gammas:
[ 1.047198 3.141593 1.047198 3.141593 3.141593 3.141593 ]
Betas:
[ 1.570796 2.617994 1.570796 1.570796 1.570796 1.570796 ]
Aggregate results:
[ 16 6 8 12 10 0 ]
[ 0.001587 0.171265 0.350952 0.269287 0.027222 0.179688 ]
3
Num Evals 35
GenUC: 8.313160e-06
GenUB: 9.209849e-06
Optimisation 1.774871e-02
Total Time: 1.779221e-02
2 Flipped
Graph 1:
1 1 0 0 
0 1 0 1 
1 0 0 0 
0 1 1 1 
Graph 2:
0 0 1 1 
1 0 1 0 
0 0 0 1 
1 1 1 0 
Solution: 10 2
Classic Expectation: 6.666667
Initial Expecation: 5.000000
Gbest: 10.000000
Expectation: 5.709717
Final Parameters:
Gammas:
[ 1.047198 3.141593 3.141593 3.141593 3.141593 3.141593 ]
Betas:
[ 1.570796 1.570796 1.570796 1.570796 2.617994 1.570796 ]
Aggregate results:
[ 4 6 10 8 0 ]
[ 0.151123 0.186157 0.062012 0.421021 0.179688 ]
3
Num Evals 31
GenUC: 9.035575e-06
GenUB: 1.756416e-06
Optimisation 1.551843e-02
Total Time: 1.553124e-02
3 Add 4
Graph 1:
1 1 0 0 
0 1 0 1 
1 0 0 0 
0 1 1 1 
Graph 2:
1 1 0 1 
0 1 1 1 
1 0 1 0 
1 1 1 1 
Solution: 12 0
Classic Expectation: 8.666667
Initial Expecation: 6.500000
Gbest: 12.000000
Expectation: 6.707275
Final Parameters:
Gammas:
[ 1.047198 3.141593 3.141593 1.047198 1.047198 3.141593 ]
Betas:
[ 1.570796 1.570796 0.523599 1.570796 1.570796 1.570796 ]
Aggregate results:
[ 12 8 6 10 0 ]
[ 0.101074 0.379761 0.058838 0.210327 0.250000 ]
3
Num Evals 47
GenUC: 9.012641e-06
GenUB: 1.484121e-06
Optimisation 2.364130e-02
Total Time: 2.365363e-02
4 Rem 4
Graph 1:
1 1 0 0 
0 1 0 1 
1 0 0 0 
0 1 1 1 
Graph 2:
1 1 0 0 
0 1 0 0 
1 0 0 0 
0 0 1 0 
Solution: 13 0
Classic Expectation: 8.500000
Initial Expecation: 6.375000
Gbest: 13.000000
Expectation: 6.980713
Final Parameters:
Gammas:
[ 5.235988 3.141593 5.235988 3.141593 3.141593 3.141593 ]
Betas:
[ 0.523599 1.570796 1.570796 1.570796 1.570796 1.570796 ]
Aggregate results:
[ 13 9 7 11 5 0 ]
[ 0.062500 0.247070 0.290405 0.154541 0.042358 0.203125 ]
3
Num Evals 41
GenUC: 9.365962e-06
GenUB: 1.193606e-06
Optimisation 2.038236e-02
Total Time: 2.039484e-02
5 Add/Rem 4
Graph 1:
1 1 0 0 
0 1 0 1 
1 0 0 0 
0 1 1 1 
Graph 2:
1 0 0 1 
0 0 1 0 
1 0 0 0 
1 1 1 0 
Solution: 13 12
Classic Expectation: 7.500000
Initial Expecation: 5.625000
Gbest: 13.000000
Expectation: 6.377197
Final Parameters:
Gammas:
[ 1.047198 3.141593 3.141593 3.141593 3.141593 1.047198 ]
Betas:
[ 1.570796 1.570796 1.570796 0.523599 1.570796 1.570796 ]
Aggregate results:
[ 9 7 11 5 13 3 0 ]
[ 0.144775 0.495605 0.039062 0.051636 0.064941 0.024292 0.179688 ]
3
Num Evals 63
GenUC: 9.354262e-06
GenUB: 1.137902e-06
Optimisation 3.175587e-02
Total Time: 3.176835e-02
