Clock Speed: 3.688804
Num threads: 4
Trotterisation: 6
Num Qubits: 5
Space Dimension: 32
Run-Type: 0
Num_samples: 6399
Optimiser Method: 0
1 Isomorphic
Graph 1:
0 0 0 1 
1 0 0 1 
1 1 1 0 
0 0 1 0 
Graph 2:
0 0 0 1 
1 0 0 1 
1 1 1 0 
0 0 1 0 
Solution: 16 0
Classic Expectation: 8.500000
Initial Expecation: 6.375000
Gbest: 16.000000
Expectation: 7.406250
Final Parameters:
Gammas:
[ 5.235988 1.047198 3.141593 3.141593 3.141593 3.141593 ]
Betas:
[ 1.570796 1.570796 1.570796 1.570796 2.617994 1.570796 ]
Aggregate results:
[ 16 4 8 10 6 14 2 12 0 ]
[ 0.045532 0.104248 0.270752 0.191528 0.099731 0.007446 0.057983 0.113403 0.109375 ]
3
Num Evals 105
GenUC: 8.465722e-06
GenUB: 8.945761e-06
Optimisation 5.046267e-02
Total Time: 5.050689e-02
2 Flipped
Graph 1:
0 0 0 1 
1 0 0 1 
1 1 1 0 
0 0 1 0 
Graph 2:
1 0 0 0 
1 0 0 1 
0 1 1 1 
0 1 0 0 
Solution: 12 11
Classic Expectation: 8.000000
Initial Expecation: 6.000000
Gbest: 12.000000
Expectation: 6.386719
Final Parameters:
Gammas:
[ 3.141593 5.235988 3.141593 3.141593 3.141593 3.141593 ]
Betas:
[ 1.570796 1.570796 1.570796 1.570796 2.617994 1.570796 ]
Aggregate results:
[ 10 8 6 12 4 0 ]
[ 0.265137 0.312500 0.067871 0.051270 0.053223 0.250000 ]
3
Num Evals 57
GenUC: 9.237439e-06
GenUB: 1.665496e-06
Optimisation 2.734292e-02
Total Time: 2.735596e-02
3 Add 4
Graph 1:
0 0 0 1 
1 0 0 1 
1 1 1 0 
0 0 1 0 
Graph 2:
0 1 0 1 
1 0 1 1 
1 1 1 0 
1 0 1 1 
Solution: 12 0
Classic Expectation: 8.000000
Initial Expecation: 6.000000
Gbest: 12.000000
Expectation: 6.105469
Final Parameters:
Gammas:
[ 5.235988 3.141593 3.141593 3.141593 3.141593 3.141593 ]
Betas:
[ 1.570796 0.523599 1.570796 1.570796 1.570796 1.570796 ]
Aggregate results:
[ 12 6 8 10 4 0 ]
[ 0.094116 0.193481 0.189087 0.185913 0.110840 0.226563 ]
3
Num Evals 31
GenUC: 9.036099e-06
GenUB: 1.433655e-06
Optimisation 1.513779e-02
Total Time: 1.515017e-02
4 Rem 4
Graph 1:
0 0 0 1 
1 0 0 1 
1 1 1 0 
0 0 1 0 
Graph 2:
0 0 0 1 
1 0 0 1 
0 1 1 0 
0 0 1 0 
Solution: 15 0
Classic Expectation: 8.500000
Initial Expecation: 6.375000
Gbest: 15.000000
Expectation: 6.855469
Final Parameters:
Gammas:
[ 1.047198 5.235988 3.141593 3.141593 3.141593 3.141593 ]
Betas:
[ 1.570796 1.570796 1.570796 1.570796 2.617994 1.570796 ]
Aggregate results:
[ 15 5 7 9 11 13 3 0 ]
[ 0.076660 0.239258 0.380859 0.099609 0.048828 0.027344 0.018066 0.109375 ]
3
Num Evals 45
GenUC: 9.343668e-06
GenUB: 1.118518e-06
Optimisation 2.181031e-02
Total Time: 2.182254e-02
5 Add/Rem 4
Graph 1:
0 0 0 1 
1 0 0 1 
1 1 1 0 
0 0 1 0 
Graph 2:
0 0 0 1 
0 0 1 0 
1 1 0 1 
1 0 1 1 
Solution: 11 3
Classic Expectation: 8.500000
Initial Expecation: 6.375000
Gbest: 11.000000
Expectation: 7.023926
Final Parameters:
Gammas:
[ 5.235988 3.141593 1.047198 3.141593 3.141593 3.141593 ]
Betas:
[ 0.523599 1.570796 1.570796 1.570796 1.570796 1.570796 ]
Aggregate results:
[ 9 11 7 0 ]
[ 0.372070 0.093384 0.378296 0.156250 ]
3
Num Evals 35
GenUC: 9.378884e-06
GenUB: 1.115026e-06
Optimisation 1.729583e-02
Total Time: 1.730812e-02
