Clock Speed: 3.611983
Num threads: 4
Trotterisation: 1
Graph Size: 7
Num Qubits: 13
Space Dimension: 8192
Run-Type: 0
Num_samples: 10
1 Isomorphic
Graph 1:
0 0 1 1 0 1 1 
1 1 1 0 0 0 0 
0 1 1 0 1 0 0 
0 0 1 1 0 1 0 
1 0 1 0 1 0 1 
0 0 1 0 1 0 0 
0 0 0 0 0 0 1 
Graph 2:
0 0 1 1 0 1 1 
1 1 1 0 0 0 0 
0 1 1 0 1 0 0 
0 0 1 1 0 1 0 
1 0 1 0 1 0 1 
0 0 1 0 1 0 0 
0 0 0 0 0 0 1 
Solution: 0 0
Gbest: -16.000000
Expectation: -24.614649
Final Parameters:
Gammas:
[ 3.221003 ]
Betas:
[ 0.155787 0.402955 ]
Aggregate results:
[ -1 13 17 11 19 15 23 7 9 21 3 25 27 29 5 31 48 ]
[ 0.000196 0.017322 0.093956 0.007138 0.170401 0.041817 0.196350 0.000567 0.002889 0.202430 0.000189 0.117829 0.041521 0.007449 0.000380 0.000735 0.098831 ]
5
Num Evals 700
GenUC: 1.337452e-03
GenUB: 1.857681e-03
Optimisation 2.727464e+00
Total Time: 2.732966e+00
2 Flipped
Graph 1:
0 0 1 1 0 1 1 
1 1 1 0 0 0 0 
0 1 1 0 1 0 0 
0 0 1 1 0 1 0 
1 0 1 0 1 0 1 
0 0 1 0 1 0 0 
0 0 0 0 0 0 1 
Graph 2:
1 1 0 1 1 0 0 
0 0 0 0 1 1 1 
0 0 1 0 1 1 0 
0 1 0 1 1 0 0 
1 0 1 0 1 0 1 
0 0 1 0 1 0 0 
1 0 0 0 0 0 0 
Solution: -10 60
Gbest: -14.000000
Expectation: -24.161345
Final Parameters:
Gammas:
[ 3.207421 ]
Betas:
[ 1.966926 0.439152 ]
Aggregate results:
[ 19 15 21 13 17 23 25 11 9 27 29 31 48 ]
[ 0.150782 0.030057 0.210152 0.009861 0.078026 0.223674 0.157523 0.004284 0.000887 0.061961 0.015948 0.001408 0.055439 ]
5
Num Evals 1400
GenUC: 1.170298e-03
GenUB: 1.609939e-03
Optimisation 3.000514e+00
Total Time: 3.007249e+00
3 Add 7
Graph 1:
0 0 1 1 0 1 1 
1 1 1 0 0 0 0 
0 1 1 0 1 0 0 
0 0 1 1 0 1 0 
1 0 1 0 1 0 1 
0 0 1 0 1 0 0 
0 0 0 0 0 0 1 
Graph 2:
0 0 1 1 1 1 1 
1 1 1 0 0 0 0 
0 1 1 1 1 1 0 
0 0 1 1 0 1 0 
1 0 1 0 1 0 1 
0 0 1 0 1 0 1 
0 0 0 1 0 1 1 
Solution: -6 0
Gbest: -16.000000
Expectation: -25.373695
Final Parameters:
Gammas:
[ 3.216529 ]
Betas:
[ 0.897414 0.481783 ]
Aggregate results:
[ 5 19 17 21 25 15 11 23 9 13 27 29 31 33 48 ]
[ 0.000133 0.107358 0.052600 0.183717 0.189503 0.016971 0.001809 0.218517 0.000247 0.006797 0.107109 0.040995 0.009815 0.001682 0.062748 ]
5
Num Evals 2100
GenUC: 1.211156e-03
GenUB: 1.833868e-03
Optimisation 2.220640e+00
Total Time: 2.226863e+00
4 Rem 7
Graph 1:
0 0 1 1 0 1 1 
1 1 1 0 0 0 0 
0 1 1 0 1 0 0 
0 0 1 1 0 1 0 
1 0 1 0 1 0 1 
0 0 1 0 1 0 0 
0 0 0 0 0 0 1 
Graph 2:
0 0 0 0 0 1 0 
1 1 1 0 0 0 0 
0 0 1 0 1 0 0 
0 0 1 1 0 0 0 
0 0 1 0 1 0 1 
0 0 1 0 1 0 0 
0 0 0 0 0 0 1 
Solution: -6 0
Gbest: -16.000000
Expectation: -21.668302
Final Parameters:
Gammas:
[ 0.049589 ]
Betas:
[ 0.147939 2.618085 ]
Aggregate results:
[ 5 11 17 15 19 7 9 13 21 23 25 27 48 ]
[ 0.000344 0.011249 0.157025 0.089602 0.246834 0.000679 0.001915 0.029905 0.249052 0.133829 0.029602 0.000843 0.049121 ]
5
Num Evals 2800
GenUC: 9.760188e-04
GenUB: 1.564684e-03
Optimisation 3.055818e+00
Total Time: 3.062799e+00
5 Add/Rem 7
Graph 1:
0 0 1 1 0 1 1 
1 1 1 0 0 0 0 
0 1 1 0 1 0 0 
0 0 1 1 0 1 0 
1 0 1 0 1 0 1 
0 0 1 0 1 0 0 
0 0 0 0 0 0 1 
Graph 2:
0 1 1 1 0 1 0 
1 1 0 0 0 0 0 
0 0 1 0 1 0 0 
0 0 1 1 1 1 0 
0 0 0 1 1 0 1 
1 0 0 0 1 0 0 
0 0 1 1 0 0 1 
Solution: -12 0
Gbest: -20.000000
Expectation: -24.641578
Final Parameters:
Gammas:
[ 3.220535 ]
Betas:
[ 0.067941 0.408520 ]
Aggregate results:
[ 11 17 19 15 21 13 23 25 27 29 31 33 48 ]
[ 0.001282 0.108807 0.188181 0.043192 0.215216 0.011500 0.178555 0.101659 0.036515 0.011762 0.002852 0.000084 0.100395 ]
5
Num Evals 3500
GenUC: 1.228716e-03
GenUB: 1.699650e-03
Optimisation 2.456745e+00
Total Time: 2.461653e+00
