Clock Speed: 3.688757
Num threads: 4
Trotterisation: 1
Graph Size: 7
Num Qubits: 13
Space Dimension: 8192
Run-Type: 0
Num_samples: 10
1 Isomorphic
Graph 1:
0 1 0 1 1 0 0 
0 1 0 1 1 1 0 
1 1 1 0 1 0 0 
1 1 0 1 1 1 0 
1 1 1 0 1 0 1 
0 0 0 1 1 0 1 
0 1 1 0 1 1 0 
Graph 2:
0 1 0 1 1 0 0 
0 1 0 1 1 1 0 
1 1 1 0 1 0 0 
1 1 0 1 1 1 0 
1 1 1 0 1 0 1 
0 0 0 1 1 0 1 
0 1 1 0 1 1 0 
Solution: 0 0
Gbest: -16.000000
Expectation: -25.647160
Final Parameters:
Gammas:
[ 3.192682 ]
Betas:
[ 0.466879 0.500629 ]
Aggregate results:
[ -1 7 13 11 9 15 17 19 21 23 25 27 29 31 33 35 37 48 ]
[ 0.000302 0.000773 0.008970 0.005591 0.001610 0.025697 0.065718 0.113122 0.167042 0.176686 0.171511 0.111073 0.051912 0.016698 0.004114 0.001426 0.000171 0.077583 ]
5
Num Evals 700
GenUC: 1.400436e-03
GenUB: 1.948099e-03
Optimisation 2.334936e+00
Total Time: 2.341109e+00
2 Flipped
Graph 1:
0 1 0 1 1 0 0 
0 1 0 1 1 1 0 
1 1 1 0 1 0 0 
1 1 0 1 1 1 0 
1 1 1 0 1 0 1 
0 0 0 1 1 0 1 
0 1 1 0 1 1 0 
Graph 2:
0 0 1 1 0 1 0 
0 1 1 1 0 1 0 
0 0 1 0 1 1 1 
0 1 1 1 0 1 1 
1 0 1 0 1 1 1 
1 0 1 1 0 0 0 
0 1 1 0 1 1 0 
Solution: -10 304
Gbest: -20.000000
Expectation: -25.779061
Final Parameters:
Gammas:
[ 0.069788 ]
Betas:
[ 0.065946 2.488457 ]
Aggregate results:
[ 19 23 17 21 25 27 29 31 15 11 13 9 35 33 48 ]
[ 0.109321 0.201438 0.053166 0.166640 0.178748 0.115491 0.046713 0.015138 0.021404 0.002435 0.008528 0.001073 0.000876 0.002510 0.076517 ]
5
Num Evals 1400
GenUC: 1.215469e-03
GenUB: 1.563569e-03
Optimisation 2.973668e+00
Total Time: 2.980284e+00
3 Add 7
Graph 1:
0 1 0 1 1 0 0 
0 1 0 1 1 1 0 
1 1 1 0 1 0 0 
1 1 0 1 1 1 0 
1 1 1 0 1 0 1 
0 0 0 1 1 0 1 
0 1 1 0 1 1 0 
Graph 2:
0 1 0 1 1 1 1 
0 1 0 1 1 1 0 
1 1 1 1 1 0 1 
1 1 0 1 1 1 0 
1 1 1 0 1 1 1 
0 0 1 1 1 0 1 
0 1 1 0 1 1 0 
Solution: -6 0
Gbest: -14.000000
Expectation: -25.370802
Final Parameters:
Gammas:
[ 0.074081 ]
Betas:
[ 0.078315 2.557037 ]
Aggregate results:
[ 5 11 15 17 13 19 21 23 25 27 29 31 33 35 48 ]
[ 0.000293 0.001845 0.025050 0.066186 0.007491 0.132136 0.209287 0.206501 0.158143 0.078214 0.021165 0.004404 0.000261 0.000141 0.088884 ]
5
Num Evals 2100
GenUC: 1.117610e-03
GenUB: 1.599007e-03
Optimisation 3.038717e+00
Total Time: 3.045447e+00
4 Rem 7
Graph 1:
0 1 0 1 1 0 0 
0 1 0 1 1 1 0 
1 1 1 0 1 0 0 
1 1 0 1 1 1 0 
1 1 1 0 1 0 1 
0 0 0 1 1 0 1 
0 1 1 0 1 1 0 
Graph 2:
0 1 0 1 1 0 0 
0 1 0 1 1 0 0 
0 0 1 0 1 0 0 
1 1 0 0 1 1 0 
0 1 1 0 1 0 1 
0 0 0 1 1 0 1 
0 1 1 0 1 0 0 
Solution: -6 0
Gbest: -18.000000
Expectation: -27.029512
Final Parameters:
Gammas:
[ 0.043064 ]
Betas:
[ 0.016203 2.692435 ]
Aggregate results:
[ 5 11 15 13 17 19 23 21 25 27 29 31 33 9 35 37 48 ]
[ 0.000160 0.002058 0.015772 0.007152 0.042503 0.087869 0.180519 0.126692 0.167093 0.147180 0.080266 0.035739 0.012912 0.000564 0.002594 0.000119 0.090809 ]
5
Num Evals 2800
GenUC: 1.179416e-03
GenUB: 1.725120e-03
Optimisation 3.212312e+00
Total Time: 3.218998e+00
5 Add/Rem 7
Graph 1:
0 1 0 1 1 0 0 
0 1 0 1 1 1 0 
1 1 1 0 1 0 0 
1 1 0 1 1 1 0 
1 1 1 0 1 0 1 
0 0 0 1 1 0 1 
0 1 1 0 1 1 0 
Graph 2:
0 1 1 1 1 0 0 
0 1 0 1 1 1 1 
1 1 1 0 1 1 0 
1 0 0 0 1 1 0 
0 0 1 0 1 0 1 
0 1 1 1 0 0 1 
0 1 1 0 1 0 0 
Solution: -11 0
Gbest: -21.000000
Expectation: -26.632073
Final Parameters:
Gammas:
[ 0.188734 ]
Betas:
[ 3.061505 0.430170 ]
Aggregate results:
[ 10 18 22 16 20 24 14 12 26 30 28 32 34 36 48 ]
[ 0.000764 0.085368 0.193417 0.038941 0.138422 0.163915 0.012055 0.003789 0.128055 0.032658 0.075867 0.010722 0.002481 0.001512 0.112033 ]
5
Num Evals 3500
GenUC: 1.189898e-03
GenUB: 1.627004e-03
Optimisation 2.636482e+00
Total Time: 2.644490e+00
