Clock Speed: 3.390203
Num threads: 4
Trotterisation: 1
Graph Size: 7
Num Qubits: 13
Space Dimension: 8192
Run-Type: 0
Num_samples: 10
1 Isomorphic
Graph 1:
0 0 1 0 1 0 0 
0 0 0 0 1 0 1 
1 0 0 1 1 1 1 
1 1 0 0 0 0 1 
0 1 1 0 1 0 0 
1 1 0 0 0 1 0 
1 0 1 0 0 0 1 
Graph 2:
0 0 1 0 1 0 0 
0 0 0 0 1 0 1 
1 0 0 1 1 1 1 
1 1 0 0 0 0 1 
0 1 1 0 1 0 0 
1 1 0 0 0 1 0 
1 0 1 0 0 0 1 
Solution: 0 0
Gbest: -10.000000
Expectation: -25.157541
Final Parameters:
Gammas:
[ 6.224631 ]
Betas:
[ 0.098124 0.493688 ]
Aggregate results:
[ -1 9 17 13 11 15 19 21 23 27 25 29 7 31 3 37 33 35 48 ]
[ 0.000216 0.001248 0.047650 0.008115 0.002536 0.020623 0.101737 0.176573 0.215464 0.119227 0.191781 0.048361 0.000937 0.012817 0.000229 0.000461 0.002282 0.000283 0.049459 ]
5
Num Evals 700
GenUC: 1.379924e-03
GenUB: 1.852428e-03
Optimisation 2.578818e+00
Total Time: 2.584188e+00
2 Flipped
Graph 1:
0 0 1 0 1 0 0 
0 0 0 0 1 0 1 
1 0 0 1 1 1 1 
1 1 0 0 0 0 1 
0 1 1 0 1 0 0 
1 1 0 0 0 1 0 
1 0 1 0 0 0 1 
Graph 2:
0 0 1 0 1 0 0 
1 0 1 0 0 0 0 
1 1 1 1 0 0 1 
1 0 0 0 0 1 1 
0 0 1 0 1 1 0 
0 1 0 0 0 1 1 
1 0 0 0 1 0 1 
Solution: -10 273
Gbest: -18.000000
Expectation: -25.297410
Final Parameters:
Gammas:
[ 0.064862 ]
Betas:
[ 1.666305 2.557363 ]
Aggregate results:
[ 15 17 25 21 23 19 27 13 11 29 9 31 33 35 48 ]
[ 0.015921 0.052037 0.189086 0.185710 0.210758 0.117141 0.105059 0.002699 0.000940 0.045736 0.000446 0.014916 0.003591 0.000428 0.055532 ]
5
Num Evals 1400
GenUC: 1.280268e-03
GenUB: 1.729575e-03
Optimisation 3.399276e+00
Total Time: 3.407914e+00
3 Add 7
Graph 1:
0 0 1 0 1 0 0 
0 0 0 0 1 0 1 
1 0 0 1 1 1 1 
1 1 0 0 0 0 1 
0 1 1 0 1 0 0 
1 1 0 0 0 1 0 
1 0 1 0 0 0 1 
Graph 2:
0 1 1 0 1 0 1 
1 1 0 0 1 0 1 
1 1 0 1 1 1 1 
1 1 1 0 0 0 1 
0 1 1 0 1 0 0 
1 1 0 0 0 1 0 
1 0 1 0 0 0 1 
Solution: -6 0
Gbest: -20.000000
Expectation: -26.179644
Final Parameters:
Gammas:
[ 3.218622 ]
Betas:
[ 0.010170 0.480472 ]
Aggregate results:
[ 5 11 17 13 15 21 19 23 27 25 29 31 33 9 39 35 37 48 ]
[ 0.000150 0.001386 0.042817 0.004208 0.015643 0.158822 0.085112 0.198885 0.132489 0.189022 0.068413 0.027904 0.006582 0.000470 0.000187 0.001320 0.000304 0.066287 ]
5
Num Evals 2100
GenUC: 1.216071e-03
GenUB: 1.608564e-03
Optimisation 2.366456e+00
Total Time: 2.371248e+00
4 Rem 7
Graph 1:
0 0 1 0 1 0 0 
0 0 0 0 1 0 1 
1 0 0 1 1 1 1 
1 1 0 0 0 0 1 
0 1 1 0 1 0 0 
1 1 0 0 0 1 0 
1 0 1 0 0 0 1 
Graph 2:
0 0 1 0 0 0 0 
0 0 0 0 1 0 1 
1 0 0 1 0 1 1 
0 1 0 0 0 0 1 
0 1 1 0 0 0 0 
1 1 0 0 0 0 0 
0 0 1 0 0 0 1 
Solution: -6 0
Gbest: -18.000000
Expectation: -24.890410
Final Parameters:
Gammas:
[ 0.072653 ]
Betas:
[ 0.011693 2.551273 ]
Aggregate results:
[ 5 13 21 19 15 17 23 27 25 11 29 7 33 31 9 48 ]
[ 0.000400 0.007279 0.213685 0.146699 0.025607 0.071865 0.212115 0.064388 0.154379 0.003072 0.016518 0.000561 0.001216 0.002869 0.000454 0.078892 ]
5
Num Evals 2800
GenUC: 1.208603e-03
GenUB: 1.625970e-03
Optimisation 3.696815e+00
Total Time: 3.703496e+00
5 Add/Rem 7
Graph 1:
0 0 1 0 1 0 0 
0 0 0 0 1 0 1 
1 0 0 1 1 1 1 
1 1 0 0 0 0 1 
0 1 1 0 1 0 0 
1 1 0 0 0 1 0 
1 0 1 0 0 0 1 
Graph 2:
0 1 1 1 1 0 0 
0 1 0 0 1 0 1 
0 0 0 1 1 0 0 
0 1 1 0 1 0 1 
0 0 1 0 1 0 0 
1 1 0 1 0 0 0 
1 0 1 0 0 0 1 
Solution: -12 0
Gbest: -20.000000
Expectation: -25.207106
Final Parameters:
Gammas:
[ 3.209816 ]
Betas:
[ 0.018333 0.483634 ]
Aggregate results:
[ 11 17 21 15 13 19 27 25 23 29 31 33 35 48 ]
[ 0.000525 0.060201 0.189216 0.019223 0.004015 0.125460 0.108683 0.167328 0.198922 0.050103 0.016459 0.002919 0.000437 0.056509 ]
5
Num Evals 3500
GenUC: 1.226144e-03
GenUB: 1.772386e-03
Optimisation 3.139633e+00
Total Time: 3.144520e+00
