Clock Speed: 3.498795
Num threads: 16
Trotterisation: 3
Num Qubits: 7
Space Dimension: 128
Run-Type: 0
Num_samples: 25
Optimiser Method: 29
1 Isomorphic
Graph 1:
0 0 1 1 0 
0 0 1 0 0 
0 1 0 0 1 
0 0 1 0 1 
0 0 0 0 0 
Graph 2:
0 0 1 1 0 
0 0 1 0 0 
0 1 0 0 1 
0 0 1 0 1 
0 0 0 0 0 
Solution: 25 0
Classic Expectation: 15.900000
Initial Expecation: 14.906250
Gbest: 19.000000
Expectation: 16.111435
Final Parameters:
Gammas:
[ 4.102574 5.826734 4.442213 ]
Betas:
[ 2.000152 0.817990 2.048473 ]
Aggregate results:
[ 25 17 19 15 13 21 11 0 ]
[ 0.012606 0.239477 0.158982 0.432596 0.082152 0.050293 0.008314 0.015580 ]
3
Num Evals 1025
GenUC: 4.690094e-05
GenUB: 2.434524e-05
Optimisation 3.085729e-01
Total Time: 3.086527e-01
2 Flipped
Graph 1:
0 0 1 1 0 
0 0 1 0 0 
0 1 0 0 1 
0 0 1 0 1 
0 0 0 0 0 
Graph 2:
0 1 1 0 0 
0 0 1 0 0 
1 0 0 1 0 
1 0 1 0 0 
0 0 0 0 0 
Solution: 21 14
Classic Expectation: 15.900000
Initial Expecation: 14.906250
Gbest: 19.000000
Expectation: 16.632491
Final Parameters:
Gammas:
[ 3.628074 1.127627 3.227150 ]
Betas:
[ 2.445864 1.972624 0.982275 ]
Aggregate results:
[ 17 15 13 11 21 19 0 ]
[ 0.357029 0.210694 0.085493 0.012465 0.017267 0.304814 0.012239 ]
3
Num Evals 709
GenUC: 5.143881e-05
GenUB: 8.049421e-06
Optimisation 2.199971e-01
Total Time: 2.200585e-01
3 Add 5
Graph 1:
0 0 1 1 0 
0 0 1 0 0 
0 1 0 0 1 
0 0 1 0 1 
0 0 0 0 0 
Graph 2:
0 0 1 1 0 
0 0 1 0 1 
0 1 1 1 1 
1 0 1 0 1 
0 1 0 0 0 
Solution: 20 0
Classic Expectation: 13.700000
Initial Expecation: 12.843750
Gbest: 16.000000
Expectation: 13.611721
Final Parameters:
Gammas:
[ 4.626842 4.282846 5.925912 ]
Betas:
[ 2.140457 2.155023 1.404813 ]
Aggregate results:
[ 20 14 16 10 12 18 0 ]
[ 0.008020 0.391182 0.251274 0.083897 0.178265 0.054235 0.033126 ]
3
Num Evals 1007
GenUC: 5.204277e-05
GenUB: 5.998649e-06
Optimisation 3.251333e-01
Total Time: 3.251931e-01
4 Rem 5
Graph 1:
0 0 1 1 0 
0 0 1 0 0 
0 1 0 0 1 
0 0 1 0 1 
0 0 0 0 0 
Graph 2:
0 0 1 1 0 
0 0 1 0 0 
0 0 0 0 0 
0 0 1 0 0 
0 0 0 0 0 
Solution: 22 0
Classic Expectation: 16.800000
Initial Expecation: 15.750000
Gbest: 20.000000
Expectation: 16.725180
Final Parameters:
Gammas:
[ 4.616443 4.314544 3.739023 ]
Betas:
[ 1.595223 2.135532 1.787439 ]
Aggregate results:
[ 22 18 16 14 20 0 ]
[ 0.002809 0.341906 0.363214 0.119836 0.150997 0.021238 ]
3
Num Evals 927
GenUC: 5.136430e-05
GenUB: 6.791670e-06
Optimisation 3.027425e-01
Total Time: 3.028032e-01
5 Add/Rem 5
Graph 1:
0 0 1 1 0 
0 0 1 0 0 
0 1 0 0 1 
0 0 1 0 1 
0 0 0 0 0 
Graph 2:
0 0 0 0 0 
0 0 1 0 0 
0 1 1 0 1 
1 0 1 0 0 
0 0 1 1 1 
Solution: 21 105
Classic Expectation: 13.900000
Initial Expecation: 13.031250
Gbest: 19.000000
Expectation: 15.346253
Final Parameters:
Gammas:
[ 3.318795 2.813705 2.683214 ]
Betas:
[ 2.453732 1.307625 1.586259 ]
Aggregate results:
[ 17 11 15 13 19 9 21 0 ]
[ 0.183085 0.022806 0.483233 0.147136 0.126829 0.006196 0.016960 0.013755 ]
3
Num Evals 685
GenUC: 5.131215e-05
GenUB: 7.167459e-06
Optimisation 2.108239e-01
Total Time: 2.108838e-01
