Clock Speed: 3.689429
Num threads: 4
Trotterisation: 5
Graph Size: 8
Num Qubits: 16
Space Dimension: 65536
Run-Type: 0
Num_samples: 10
1 Isomorphic
Graph 1:
1 0 1 1 0 1 0 1 
1 0 0 0 0 0 1 0 
0 0 1 1 1 1 0 0 
0 0 1 1 1 0 1 1 
0 1 0 1 1 1 1 0 
1 1 0 0 0 0 1 1 
0 0 0 1 1 1 0 0 
1 1 1 1 1 1 0 0 
Graph 2:
1 0 1 1 0 1 0 1 
1 0 0 0 0 0 1 0 
0 0 1 1 1 1 0 0 
0 0 1 1 1 0 1 1 
0 1 0 1 1 1 1 0 
1 1 0 0 0 0 1 1 
0 0 0 1 1 1 0 0 
1 1 1 1 1 1 0 0 
Solution: 0 0
Gbest: -26.000000
Expectation: -33.616789
Final Parameters:
Gammas:
[ 2.968975 3.139341 3.210200 3.153800 3.104125 ]
Betas:
[ 1.581409 1.556321 1.580849 1.725986 1.653224 2.611421 ]
Aggregate results:
[ -1 15 19 11 23 27 25 9 21 17 29 31 13 33 35 37 39 41 43 45 47 63 ]
[ 0.000008 0.000526 0.004788 0.000053 0.031607 0.126765 0.071406 0.000127 0.013252 0.001823 0.168813 0.173510 0.000057 0.152168 0.101935 0.055134 0.024022 0.008811 0.001703 0.000165 0.000033 0.063293 ]
5
Num Evals 800
GenUC: 3.525698e-03
GenUB: 1.762345e-02
Optimisation 3.374867e+02
Total Time: 3.379325e+02
2 Flipped
Graph 1:
1 0 1 1 0 1 0 1 
1 0 0 0 0 0 1 0 
0 0 1 1 1 1 0 0 
0 0 1 1 1 0 1 1 
0 1 0 1 1 1 1 0 
1 1 0 0 0 0 1 1 
0 0 0 1 1 1 0 0 
1 1 1 1 1 1 0 0 
Graph 2:
1 0 1 0 1 1 0 1 
0 1 0 0 0 0 0 1 
0 0 1 1 1 1 0 0 
1 1 0 1 1 1 0 0 
0 1 1 1 1 0 1 0 
1 1 0 0 0 0 1 1 
0 0 1 1 1 0 0 0 
0 0 1 1 1 1 1 1 
Solution: -12 5119
Gbest: -26.000000
Expectation: -36.539405
Final Parameters:
Gammas:
[ 2.721668 3.197548 3.233858 3.190961 3.079434 ]
Betas:
[ 1.645542 1.779781 1.364696 2.565426 1.535906 1.400176 ]
Aggregate results:
[ 19 25 27 23 31 29 35 33 37 21 13 39 41 15 17 11 43 45 63 ]
[ 0.003079 0.064304 0.112639 0.029361 0.167367 0.153104 0.093957 0.137832 0.048602 0.010249 0.000131 0.018044 0.005190 0.000174 0.000918 0.000002 0.001199 0.000137 0.153709 ]
5
Num Evals 1600
GenUC: 2.784804e-03
GenUB: 1.684589e-02
Optimisation 3.284577e+02
Total Time: 3.288821e+02
3 Add 8
Graph 1:
1 0 1 1 0 1 0 1 
1 0 0 0 0 0 1 0 
0 0 1 1 1 1 0 0 
0 0 1 1 1 0 1 1 
0 1 0 1 1 1 1 0 
1 1 0 0 0 0 1 1 
0 0 0 1 1 1 0 0 
1 1 1 1 1 1 0 0 
Graph 2:
1 0 1 1 0 1 0 1 
1 1 1 0 1 0 1 0 
0 0 1 1 1 1 0 0 
0 1 1 1 1 1 1 1 
0 1 0 1 1 1 1 0 
1 1 1 0 0 0 1 1 
1 0 1 1 1 1 0 0 
1 1 1 1 1 1 0 0 
Solution: -8 0
Gbest: -24.000000
Expectation: -31.599328
Final Parameters:
Gammas:
[ 2.995043 3.094878 3.130349 2.949785 3.002380 ]
Betas:
[ 2.074047 1.050491 2.392612 2.166749 1.519703 1.724247 ]
Aggregate results:
[ 7 19 23 15 25 13 21 27 31 17 33 29 35 39 37 43 41 45 63 ]
[ 0.000146 0.010084 0.088880 0.000896 0.158382 0.000417 0.035876 0.205297 0.118353 0.003440 0.057112 0.189552 0.025890 0.007317 0.012826 0.000710 0.002757 0.000069 0.081996 ]
5
Num Evals 2400
GenUC: 2.980313e-03
GenUB: 1.675054e-02
Optimisation 3.355101e+02
Total Time: 3.359519e+02
4 Rem 8
Graph 1:
1 0 1 1 0 1 0 1 
1 0 0 0 0 0 1 0 
0 0 1 1 1 1 0 0 
0 0 1 1 1 0 1 1 
0 1 0 1 1 1 1 0 
1 1 0 0 0 0 1 1 
0 0 0 1 1 1 0 0 
1 1 1 1 1 1 0 0 
Graph 2:
1 0 1 1 0 1 0 1 
1 0 0 0 0 0 1 0 
0 0 1 1 0 1 0 0 
0 0 1 1 1 0 1 1 
0 1 0 0 1 1 0 0 
1 0 0 0 0 0 1 1 
0 0 0 0 0 1 0 0 
1 0 1 0 1 1 0 0 
Solution: -8 0
Gbest: -26.000000
Expectation: -35.243928
Final Parameters:
Gammas:
[ 2.807596 2.897271 3.499145 3.447291 3.029619 ]
Betas:
[ 2.701988 1.708613 1.423004 1.747188 1.297512 1.808919 ]
Aggregate results:
[ 7 23 25 17 29 27 13 21 19 31 11 33 35 37 39 15 41 43 45 47 63 ]
[ 0.000031 0.039972 0.089434 0.000852 0.174065 0.148682 0.000043 0.011757 0.003133 0.149525 0.000026 0.100303 0.066022 0.046265 0.025776 0.000232 0.011188 0.003818 0.000700 0.000105 0.128073 ]
5
Num Evals 3200
GenUC: 3.056416e-03
GenUB: 1.695770e-02
Optimisation 3.354403e+02
Total Time: 3.358693e+02
5 Add/Rem 8
Graph 1:
1 0 1 1 0 1 0 1 
1 0 0 0 0 0 1 0 
0 0 1 1 1 1 0 0 
0 0 1 1 1 0 1 1 
0 1 0 1 1 1 1 0 
1 1 0 0 0 0 1 1 
0 0 0 1 1 1 0 0 
1 1 1 1 1 1 0 0 
Graph 2:
1 0 0 1 0 1 0 1 
1 0 0 0 0 0 1 0 
0 0 1 1 1 1 1 1 
0 0 1 1 0 0 1 1 
0 0 0 1 1 1 1 1 
0 0 0 1 0 0 1 0 
1 0 0 1 1 1 1 1 
1 1 1 1 1 1 0 0 
Solution: -13 0
Gbest: -21.000000
Expectation: -30.940064
Final Parameters:
Gammas:
[ 3.094948 3.074896 3.191708 2.993643 3.100043 ]
Betas:
[ 1.610793 1.585348 2.659583 1.525878 1.580904 1.680082 ]
Aggregate results:
[ 12 24 26 18 22 30 32 28 16 20 34 38 36 40 42 44 46 63 ]
[ 0.000104 0.096917 0.161486 0.004922 0.043888 0.196811 0.128728 0.221445 0.000811 0.018140 0.053835 0.005123 0.015759 0.003066 0.001444 0.000366 0.000137 0.047017 ]
5
Num Evals 4000
GenUC: 3.199240e-03
GenUB: 1.697432e-02
Optimisation 3.332985e+02
Total Time: 3.337818e+02
