Clock Speed: 3.688156
Num threads: 4
Trotterisation: 6
Num Qubits: 7
Space Dimension: 128
Run-Type: 0
Num_samples: 15624
Optimiser Method: 29
1 Isomorphic
Graph 1:
0 1 0 1 0 
0 1 1 0 0 
1 1 0 0 0 
1 0 0 1 0 
1 1 1 0 1 
Graph 2:
0 1 0 1 0 
0 1 1 0 0 
1 1 0 0 0 
1 0 0 1 0 
1 1 1 0 1 
Solution: 25 0
Classic Expectation: 12.700000
Initial Expecation: 11.906250
Gbest: 25.000000
Expectation: 14.383090
Final Parameters:
Gammas:
[ 6.094824 2.288680 4.203383 3.414801 5.490697 3.026726 ]
Betas:
[ 1.298944 1.507045 0.679822 0.769478 2.567324 2.195351 ]
Aggregate results:
[ 25 19 15 13 11 17 9 7 0 ]
[ 0.061829 0.112484 0.122792 0.269352 0.195697 0.145775 0.073325 0.009421 0.009325 ]
3
Num Evals 4481
GenUC: 4.519988e-05
GenUB: 1.460925e-05
Optimisation 3.755596e+00
Total Time: 3.755673e+00
2 Flipped
Graph 1:
0 1 0 1 0 
0 1 1 0 0 
1 1 0 0 0 
1 0 0 1 0 
1 1 1 0 1 
Graph 2:
0 1 0 1 0 
0 0 1 1 0 
0 0 0 1 1 
0 1 0 0 1 
1 0 1 1 1 
Solution: 19 63
Classic Expectation: 12.100000
Initial Expecation: 11.343750
Gbest: 19.000000
Expectation: 12.976461
Final Parameters:
Gammas:
[ 5.125213 2.296275 3.192854 2.587677 0.097866 6.169806 ]
Betas:
[ 1.712537 1.254051 2.840253 1.913464 0.838303 2.307594 ]
Aggregate results:
[ 13 11 9 15 7 5 19 17 0 ]
[ 0.335133 0.118556 0.104549 0.274479 0.008527 0.014048 0.010586 0.113319 0.020803 ]
3
Num Evals 4407
GenUC: 4.769099e-05
GenUB: 2.947636e-06
Optimisation 3.832322e+00
Total Time: 3.832375e+00
3 Add 5
Graph 1:
0 1 0 1 0 
0 1 1 0 0 
1 1 0 0 0 
1 0 0 1 0 
1 1 1 0 1 
Graph 2:
0 1 0 1 1 
0 1 1 1 0 
1 1 0 0 1 
1 1 0 1 1 
1 1 1 0 1 
Solution: 20 0
Classic Expectation: 12.200000
Initial Expecation: 11.437500
Gbest: 20.000000
Expectation: 14.332323
Final Parameters:
Gammas:
[ 6.136818 3.164006 3.434875 3.159211 2.852222 3.084320 ]
Betas:
[ 1.513673 0.988362 1.454996 1.439344 1.514960 2.119013 ]
Aggregate results:
[ 20 18 14 16 12 8 10 6 0 ]
[ 0.049818 0.034236 0.234415 0.382879 0.218867 0.009185 0.060864 0.000552 0.009184 ]
3
Num Evals 2623
GenUC: 4.703022e-05
GenUB: 2.768065e-06
Optimisation 2.083973e+00
Total Time: 2.084026e+00
4 Rem 5
Graph 1:
0 1 0 1 0 
0 1 1 0 0 
1 1 0 0 0 
1 0 0 1 0 
1 1 1 0 1 
Graph 2:
0 0 0 1 0 
0 1 0 0 0 
0 1 0 0 0 
1 0 0 1 0 
1 0 0 0 1 
Solution: 20 0
Classic Expectation: 13.200000
Initial Expecation: 12.375000
Gbest: 20.000000
Expectation: 14.540875
Final Parameters:
Gammas:
[ 3.011705 2.270609 3.138168 3.362634 3.389842 2.535852 ]
Betas:
[ 1.234230 1.386039 1.635447 1.860714 1.827836 1.586307 ]
Aggregate results:
[ 20 18 14 16 12 8 10 0 ]
[ 0.031323 0.179845 0.330842 0.185299 0.211900 0.009568 0.046132 0.005093 ]
3
Num Evals 5417
GenUC: 4.709652e-05
GenUB: 2.610846e-06
Optimisation 4.373688e+00
Total Time: 4.373741e+00
5 Add/Rem 5
Graph 1:
0 1 0 1 0 
0 1 1 0 0 
1 1 0 0 0 
1 0 0 1 0 
1 1 1 0 1 
Graph 2:
0 1 1 0 0 
1 1 1 0 0 
1 1 0 1 1 
1 0 0 1 1 
0 0 0 0 1 
Solution: 18 20
Classic Expectation: 12.600000
Initial Expecation: 11.812500
Gbest: 18.000000
Expectation: 15.629541
Final Parameters:
Gammas:
[ 3.002072 3.202770 2.830981 3.093230 0.633124 3.172824 ]
Betas:
[ 1.322583 1.369149 1.658976 1.293389 1.413637 1.865071 ]
Aggregate results:
[ 16 12 14 10 18 8 6 0 ]
[ 0.318031 0.052711 0.268169 0.017164 0.328648 0.007592 0.001017 0.006667 ]
5
Num Evals 6000
GenUC: 4.706078e-05
GenUB: 2.692454e-06
Optimisation 4.813182e+00
Total Time: 4.813235e+00
