Clock Speed: 3.498647
Num threads: 16
Trotterisation: 3
Num Qubits: 19
Space Dimension: 524288
Run-Type: 0
Num_samples: 81
Optimiser Method: 0
1 Isomorphic
Graph 1:
0 1 0 1 0 1 0 0 0 
1 1 1 1 0 0 1 1 1 
0 1 1 1 0 1 1 0 1 
1 1 1 1 0 0 0 1 1 
0 0 0 0 1 0 0 1 1 
1 0 1 0 0 1 1 1 1 
0 1 1 0 0 1 0 1 1 
0 1 0 1 1 1 1 0 1 
0 1 1 1 1 1 1 1 1 
Graph 2:
0 1 0 1 0 1 0 0 0 
1 1 1 1 0 0 1 1 1 
0 1 1 1 0 1 1 0 1 
1 1 1 1 0 0 0 1 1 
0 0 0 0 1 0 0 1 1 
1 0 1 0 0 1 1 1 1 
0 1 1 0 0 1 0 1 1 
0 1 0 1 1 1 1 0 1 
0 1 1 1 1 1 1 1 1 
Solution: 81 0
Classic Expectation: 42.777778
Initial Expecation: 29.608154
Gbest: 65.000000
Expectation: 30.975248
Final Parameters:
Gammas:
[ 1.047198 1.047198 3.141593 ]
Betas:
[ 2.617994 1.570796 1.570796 ]
Aggregate results:
[ 81 75 69 67 71 65 59 57 63 49 51 53 61 55 47 45 41 43 37 39 73 33 35 29 77 31 27 25 23 21 0 ]
[ 0.000003 0.000006 0.000033 0.000124 0.000035 0.000277 0.003337 0.006060 0.000678 0.058953 0.035876 0.021387 0.001246 0.013035 0.065106 0.099568 0.101174 0.080885 0.071826 0.072174 0.000005 0.029271 0.038817 0.006033 0.000004 0.014997 0.003216 0.000637 0.000271 0.000020 0.274945 ]
3
Num Evals 27
GenUC: 1.786861e-01
GenUB: 1.339341e-01
Optimisation 7.487910e+01
Total Time: 7.519174e+01
2 Flipped
Graph 1:
0 1 0 1 0 1 0 0 0 
1 1 1 1 0 0 1 1 1 
0 1 1 1 0 1 1 0 1 
1 1 1 1 0 0 0 1 1 
0 0 0 0 1 0 0 1 1 
1 0 1 0 0 1 1 1 1 
0 1 1 0 0 1 0 1 1 
0 1 0 1 1 1 1 0 1 
0 1 1 1 1 1 1 1 1 
Graph 2:
0 0 0 1 0 1 0 1 0 
1 1 1 0 0 1 1 1 1 
1 0 1 1 0 1 1 1 0 
1 1 0 0 0 1 1 1 1 
1 1 0 0 1 0 0 0 0 
1 1 1 1 0 0 1 0 1 
1 1 0 1 0 0 1 1 0 
1 0 1 1 1 1 0 1 0 
1 1 1 1 1 1 1 1 0 
Solution: 59 103862
Classic Expectation: 42.666667
Initial Expecation: 29.531250
Gbest: 51.000000
Expectation: 30.922966
Final Parameters:
Gammas:
[ 1.047198 3.141593 3.141593 ]
Betas:
[ 2.617994 1.570796 1.570796 ]
Aggregate results:
[ 47 51 49 45 53 43 39 41 37 35 31 33 29 55 57 27 59 0 ]
[ 0.070496 0.024478 0.044987 0.106680 0.009006 0.134545 0.106451 0.133279 0.058299 0.024080 0.001728 0.008111 0.000404 0.002182 0.000410 0.000020 0.000013 0.274829 ]
3
Num Evals 19
GenUC: 3.009086e-01
GenUB: 1.333405e-01
Optimisation 5.354530e+01
Total Time: 5.397956e+01
3 Add 9
Graph 1:
0 1 0 1 0 1 0 0 0 
1 1 1 1 0 0 1 1 1 
0 1 1 1 0 1 1 0 1 
1 1 1 1 0 0 0 1 1 
0 0 0 0 1 0 0 1 1 
1 0 1 0 0 1 1 1 1 
0 1 1 0 0 1 0 1 1 
0 1 0 1 1 1 1 0 1 
0 1 1 1 1 1 1 1 1 
Graph 2:
1 1 1 1 1 1 1 1 1 
1 1 1 1 1 1 1 1 1 
1 1 1 1 1 1 1 0 1 
1 1 1 1 1 1 0 1 1 
1 1 1 1 1 0 0 1 1 
1 1 1 1 0 1 1 1 1 
1 1 1 0 0 1 0 1 1 
1 1 0 1 1 1 1 0 1 
1 1 1 1 1 1 1 1 1 
Solution: 60 0
Classic Expectation: 47.555556
Initial Expecation: 32.915039
Gbest: 58.000000
Expectation: 34.665150
Final Parameters:
Gammas:
[ 1.047198 3.141593 3.141593 ]
Betas:
[ 1.570796 1.570796 0.523599 ]
Aggregate results:
[ 60 54 48 46 50 58 52 44 40 42 56 0 ]
[ 0.000642 0.053151 0.128099 0.134800 0.135408 0.007301 0.059843 0.116054 0.036945 0.044552 0.011534 0.271672 ]
3
Num Evals 19
GenUC: 3.006983e-01
GenUB: 1.305518e-01
Optimisation 5.506307e+01
Total Time: 5.549433e+01
4 Rem 9
Graph 1:
0 1 0 1 0 1 0 0 0 
1 1 1 1 0 0 1 1 1 
0 1 1 1 0 1 1 0 1 
1 1 1 1 0 0 0 1 1 
0 0 0 0 1 0 0 1 1 
1 0 1 0 0 1 1 1 1 
0 1 1 0 0 1 0 1 1 
0 1 0 1 1 1 1 0 1 
0 1 1 1 1 1 1 1 1 
Graph 2:
0 1 0 0 0 0 0 0 0 
1 1 0 0 0 0 0 0 0 
0 0 1 1 0 0 1 0 0 
0 0 1 0 0 0 0 1 1 
0 0 0 0 0 0 0 1 1 
0 0 0 0 0 1 1 1 1 
0 0 1 0 0 1 0 1 1 
0 0 0 1 1 1 1 0 1 
0 0 0 1 1 1 1 1 1 
Solution: 61 0
Classic Expectation: 38.111111
Initial Expecation: 26.378174
Gbest: 49.000000
Expectation: 27.554445
Final Parameters:
Gammas:
[ 5.235988 3.141593 3.141593 ]
Betas:
[ 2.617994 1.570796 1.570796 ]
Aggregate results:
[ 61 59 49 51 47 57 41 39 53 43 55 45 37 35 31 33 29 27 25 23 21 19 17 15 0 ]
[ 0.000028 0.000031 0.017150 0.009465 0.035616 0.000458 0.075608 0.103459 0.004285 0.074173 0.001345 0.046760 0.084568 0.087424 0.046946 0.069085 0.034231 0.018001 0.010142 0.003809 0.002086 0.000410 0.000142 0.000021 0.274756 ]
3
Num Evals 19
GenUC: 3.007903e-01
GenUB: 1.308300e-01
Optimisation 5.342295e+01
Total Time: 5.385458e+01
5 Add/Rem 9
Graph 1:
0 1 0 1 0 1 0 0 0 
1 1 1 1 0 0 1 1 1 
0 1 1 1 0 1 1 0 1 
1 1 1 1 0 0 0 1 1 
0 0 0 0 1 0 0 1 1 
1 0 1 0 0 1 1 1 1 
0 1 1 0 0 1 0 1 1 
0 1 0 1 1 1 1 0 1 
0 1 1 1 1 1 1 1 1 
Graph 2:
0 1 1 0 1 0 1 1 1 
1 1 0 0 1 1 0 0 0 
1 0 0 1 0 1 1 1 1 
0 0 1 1 1 0 1 0 1 
1 1 0 1 0 0 0 1 1 
0 1 1 0 0 1 1 1 1 
1 0 1 1 0 1 0 1 1 
1 0 1 0 1 1 1 0 1 
1 0 1 1 1 1 1 1 1 
Solution: 69 44190
Classic Expectation: 43.000000
Initial Expecation: 29.761963
Gbest: 55.000000
Expectation: 31.148778
Final Parameters:
Gammas:
[ 1.047198 3.141593 3.141593 ]
Betas:
[ 2.617994 1.570796 1.570796 ]
Aggregate results:
[ 43 41 37 49 47 45 39 35 33 53 51 31 55 57 59 29 61 27 25 63 65 69 67 23 0 ]
[ 0.094827 0.097453 0.061675 0.061617 0.067195 0.101567 0.083596 0.040844 0.022168 0.024011 0.033394 0.012280 0.010561 0.005936 0.002051 0.003714 0.000965 0.001436 0.000177 0.000189 0.000069 0.000005 0.000003 0.000042 0.274221 ]
3
Num Evals 19
GenUC: 3.005897e-01
GenUB: 1.310628e-01
Optimisation 5.336036e+01
Total Time: 5.379201e+01
