Clock Speed: 3.498738
Num threads: 16
Trotterisation: 3
Num Qubits: 13
Space Dimension: 8192
Run-Type: 0
Num_samples: 49
Optimiser Method: 12
1 Isomorphic
Graph 1:
1 1 1 1 1 1 0 
0 1 0 0 0 1 1 
1 0 0 1 1 0 0 
1 1 1 0 1 0 0 
1 1 1 0 0 0 1 
1 0 0 1 0 0 1 
0 0 1 1 0 1 1 
Graph 2:
1 1 1 1 1 1 0 
0 1 0 0 0 1 1 
1 0 0 1 1 0 0 
1 1 1 0 1 0 0 
1 1 1 0 0 0 1 
1 0 0 1 0 0 1 
0 0 1 1 0 1 1 
Solution: 49 0
Classic Expectation: 25.000000
Initial Expecation: 15.380859
Gbest: 37.000000
Expectation: 23.581994
Final Parameters:
Gammas:
[ 3.201336 2.950258 5.764474 ]
Betas:
[ 2.502725 1.421987 1.513412 ]
Aggregate results:
[ 49 39 35 27 41 33 29 31 21 23 25 43 37 19 17 15 11 13 0 ]
[ 0.000363 0.005081 0.021910 0.211355 0.001569 0.038273 0.183425 0.105367 0.030379 0.082282 0.149450 0.000570 0.006087 0.014167 0.005845 0.005537 0.000521 0.000453 0.137368 ]
3
Num Evals 448
GenUC: 2.295234e-03
GenUB: 1.134363e-03
Optimisation 1.306291e+01
Total Time: 1.306635e+01
2 Flipped
Graph 1:
1 1 1 1 1 1 0 
0 1 0 0 0 1 1 
1 0 0 1 1 0 0 
1 1 1 0 1 0 0 
1 1 1 0 0 0 1 
1 0 0 1 0 0 1 
0 0 1 1 0 1 1 
Graph 2:
0 1 1 1 1 1 1 
1 1 0 0 0 1 0 
0 0 1 1 0 0 1 
0 0 1 0 1 1 1 
1 0 0 0 1 1 1 
1 0 0 1 0 0 1 
1 1 0 1 1 0 0 
Solution: 37 913
Classic Expectation: 25.000000
Initial Expecation: 15.380859
Gbest: 33.000000
Expectation: 23.624598
Final Parameters:
Gammas:
[ 3.201325 2.947493 3.768522 ]
Betas:
[ 2.459531 1.424437 1.508102 ]
Aggregate results:
[ 27 25 31 23 19 21 29 33 35 15 17 13 37 0 ]
[ 0.212953 0.143803 0.124479 0.069777 0.015928 0.029656 0.201453 0.052716 0.002917 0.001734 0.008281 0.000225 0.001003 0.135076 ]
3
Num Evals 419
GenUC: 2.928898e-03
GenUB: 1.217724e-03
Optimisation 1.223456e+01
Total Time: 1.223871e+01
3 Add 7
Graph 1:
1 1 1 1 1 1 0 
0 1 0 0 0 1 1 
1 0 0 1 1 0 0 
1 1 1 0 1 0 0 
1 1 1 0 0 0 1 
1 0 0 1 0 0 1 
0 0 1 1 0 1 1 
Graph 2:
1 1 1 1 1 1 0 
0 1 1 0 1 1 1 
1 1 0 1 1 0 0 
1 1 1 1 1 1 0 
1 1 1 0 0 0 1 
1 0 1 1 0 0 1 
0 0 1 1 0 1 1 
Solution: 43 0
Classic Expectation: 25.571429
Initial Expecation: 15.732422
Gbest: 31.000000
Expectation: 22.054731
Final Parameters:
Gammas:
[ 3.197860 2.717594 3.839090 ]
Betas:
[ 2.582219 1.419409 1.538836 ]
Aggregate results:
[ 43 35 27 25 23 31 29 33 21 41 37 17 19 15 39 0 ]
[ 0.000077 0.011046 0.183930 0.112106 0.054795 0.112036 0.210041 0.035155 0.045678 0.000005 0.001449 0.012437 0.034741 0.001710 0.000030 0.184765 ]
3
Num Evals 466
GenUC: 2.929002e-03
GenUB: 1.217086e-03
Optimisation 1.381573e+01
Total Time: 1.381988e+01
4 Rem 7
Graph 1:
1 1 1 1 1 1 0 
0 1 0 0 0 1 1 
1 0 0 1 1 0 0 
1 1 1 0 1 0 0 
1 1 1 0 0 0 1 
1 0 0 1 0 0 1 
0 0 1 1 0 1 1 
Graph 2:
1 1 0 1 0 0 0 
0 1 0 0 0 1 0 
1 0 0 1 1 0 0 
1 1 1 0 0 0 0 
1 1 1 0 0 0 0 
1 0 0 1 0 0 1 
0 0 1 1 0 1 0 
Solution: 42 0
Classic Expectation: 24.285714
Initial Expecation: 14.941406
Gbest: 28.000000
Expectation: 22.391375
Final Parameters:
Gammas:
[ 3.204537 3.221141 2.812524 ]
Betas:
[ 0.690424 1.718445 1.670310 ]
Aggregate results:
[ 42 38 30 26 34 28 22 32 36 24 18 20 16 12 14 10 0 ]
[ 0.000248 0.001078 0.078567 0.199344 0.009274 0.142404 0.134800 0.027538 0.003245 0.187828 0.022815 0.072894 0.007990 0.000804 0.001381 0.000053 0.109737 ]
3
Num Evals 347
GenUC: 2.935032e-03
GenUB: 1.224863e-03
Optimisation 8.874051e+00
Total Time: 8.878214e+00
5 Add/Rem 7
Graph 1:
1 1 1 1 1 1 0 
0 1 0 0 0 1 1 
1 0 0 1 1 0 0 
1 1 1 0 1 0 0 
1 1 1 0 0 0 1 
1 0 0 1 0 0 1 
0 0 1 1 0 1 1 
Graph 2:
0 1 1 1 1 1 0 
0 1 0 1 0 0 1 
1 0 0 1 1 0 1 
1 1 0 1 0 0 0 
1 1 0 1 0 0 1 
0 0 1 1 1 0 0 
0 1 1 1 0 1 1 
Solution: 37 80
Classic Expectation: 25.000000
Initial Expecation: 15.380859
Gbest: 33.000000
Expectation: 23.547694
Final Parameters:
Gammas:
[ 3.201876 2.954461 2.556086 ]
Betas:
[ 2.511110 1.426218 1.508755 ]
Aggregate results:
[ 35 29 31 25 33 23 21 27 19 37 17 15 11 13 0 ]
[ 0.011552 0.197285 0.122143 0.145245 0.039597 0.067468 0.026274 0.227580 0.012363 0.000405 0.009170 0.002646 0.000206 0.000148 0.137917 ]
3
Num Evals 681
GenUC: 2.950814e-03
GenUB: 1.170415e-03
Optimisation 1.997183e+01
Total Time: 1.997596e+01
