Clock Speed: 3.689117
Num threads: 4
Trotterisation: 2
Num Qubits: 7
Space Dimension: 128
Run-Type: 0
Num_samples: 5
Optimiser Method: 29
1 Isomorphic
Graph 1:
0 1 0 0 1 
1 0 0 1 1 
0 0 0 0 0 
0 1 0 0 1 
1 1 0 1 0 
Graph 2:
0 1 0 0 1 
1 0 0 1 1 
0 0 0 0 0 
0 1 0 0 1 
1 1 0 1 0 
Solution: 25 0
Classic Expectation: 15.000000
Initial Expecation: 14.062500
Gbest: 21.000000
Expectation: 15.173421
Final Parameters:
Gammas:
[ 3.893543 4.037537 ]
Betas:
[ 1.318124 0.875364 ]
Aggregate results:
[ 25 21 17 13 9 0 ]
[ 0.060351 0.198991 0.177945 0.421452 0.109099 0.032162 ]
3
Num Evals 1474
GenUC: 4.081577e-05
GenUB: 1.511871e-05
Optimisation 8.747514e+00
Total Time: 8.747595e+00
2 Flipped
Graph 1:
0 1 0 0 1 
1 0 0 1 1 
0 0 0 0 0 
0 1 0 0 1 
1 1 0 1 0 
Graph 2:
1 0 0 1 0 
1 1 0 0 1 
0 0 0 0 0 
1 0 0 1 0 
0 1 0 1 1 
Solution: 17 1
Classic Expectation: 11.000000
Initial Expecation: 10.312500
Gbest: 17.000000
Expectation: 11.126434
Final Parameters:
Gammas:
[ 4.354349 3.437123 ]
Betas:
[ 1.446158 1.147230 ]
Aggregate results:
[ 13 17 11 7 9 15 0 ]
[ 0.091768 0.077159 0.501320 0.054155 0.131006 0.103273 0.041320 ]
4
Num Evals 764
GenUC: 4.424643e-05
GenUB: 3.068577e-06
Optimisation 5.302895e+00
Total Time: 5.302945e+00
3 Add 5
Graph 1:
0 1 0 0 1 
1 0 0 1 1 
0 0 0 0 0 
0 1 0 0 1 
1 1 0 1 0 
Graph 2:
0 1 1 1 1 
1 1 0 1 1 
1 0 0 0 1 
1 1 0 0 1 
1 1 1 1 0 
Solution: 18 0
Classic Expectation: 14.000000
Initial Expecation: 13.125000
Gbest: 14.000000
Expectation: 15.288735
Final Parameters:
Gammas:
[ 5.894385 4.846550 ]
Betas:
[ 2.156406 1.647809 ]
Aggregate results:
[ 18 14 10 0 ]
[ 0.543704 0.302649 0.126497 0.027150 ]
4
Num Evals 808
GenUC: 4.444067e-05
GenUB: 6.110746e-06
Optimisation 7.166642e+00
Total Time: 7.166695e+00
4 Rem 5
Graph 1:
0 1 0 0 1 
1 0 0 1 1 
0 0 0 0 0 
0 1 0 0 1 
1 1 0 1 0 
Graph 2:
0 0 0 0 0 
0 0 0 0 0 
0 0 0 0 0 
0 0 0 0 1 
0 0 0 1 0 
Solution: 17 0
Classic Expectation: 15.000000
Initial Expecation: 14.062500
Gbest: 17.000000
Expectation: 16.351793
Final Parameters:
Gammas:
[ 4.327459 4.223282 ]
Betas:
[ 2.913816 0.000000 ]
Aggregate results:
[ 17 13 0 ]
[ 0.887456 0.097311 0.015233 ]
4
Num Evals 602
GenUC: 4.633909e-05
GenUB: 7.153558e-06
Optimisation 3.044301e+00
Total Time: 3.044357e+00
5 Add/Rem 5
Graph 1:
0 1 0 0 1 
1 0 0 1 1 
0 0 0 0 0 
0 1 0 0 1 
1 1 0 1 0 
Graph 2:
1 0 1 1 0 
0 1 1 0 0 
1 1 0 0 1 
1 0 0 0 1 
0 0 1 1 0 
Solution: 19 7
Classic Expectation: 13.000000
Initial Expecation: 12.187500
Gbest: 15.000000
Expectation: 13.940636
Final Parameters:
Gammas:
[ 2.939978 3.368079 ]
Betas:
[ 2.391280 1.413842 ]
Aggregate results:
[ 7 11 15 19 0 ]
[ 0.046814 0.237275 0.573327 0.126475 0.016110 ]
4
Num Evals 1014
GenUC: 4.660200e-05
GenUB: 6.654744e-06
Optimisation 6.908234e+00
Total Time: 6.908290e+00
