Clock Speed: 3.498716
Num threads: 16
Trotterisation: 5
Num Qubits: 5
Space Dimension: 32
Run-Type: 0
Num_samples: 16
Optimiser Method: 29
1 Isomorphic
Graph 1:
0 1 1 0 
1 1 0 1 
1 0 0 1 
1 1 0 1 
Graph 2:
0 1 1 0 
1 1 0 1 
1 0 0 1 
1 1 0 1 
Solution: 16 0
Classic Expectation: 8.666667
Initial Expecation: 6.500000
Gbest: 16.000000
Expectation: 9.350831
Final Parameters:
Gammas:
[ 2.807213 3.532998 1.481688 4.876606 4.078990 ]
Betas:
[ 1.675362 0.322268 1.929394 1.765436 0.989707 ]
Aggregate results:
[ 16 6 12 8 10 0 ]
[ 0.148812 0.063013 0.144401 0.438317 0.135240 0.070216 ]
3
Num Evals 4704
GenUC: 9.621028e-06
GenUB: 1.803925e-05
Optimisation 7.474686e-01
Total Time: 7.475045e-01
2 Flipped
Graph 1:
0 1 1 0 
1 1 0 1 
1 0 0 1 
1 1 0 1 
Graph 2:
0 1 1 0 
1 0 1 1 
1 0 0 1 
1 0 1 1 
Solution: 14 2
Classic Expectation: 9.000000
Initial Expecation: 6.750000
Gbest: 14.000000
Expectation: 11.081542
Final Parameters:
Gammas:
[ 3.327758 2.636575 3.117589 3.599134 2.872232 ]
Betas:
[ 1.093772 3.014494 0.452918 1.280173 1.084240 ]
Aggregate results:
[ 12 8 14 6 10 0 ]
[ 0.475610 0.143115 0.157050 0.010379 0.196834 0.017013 ]
3
Num Evals 4333
GenUC: 1.026038e-05
GenUB: 1.713634e-06
Optimisation 6.981356e-01
Total Time: 6.981494e-01
3 Add 4
Graph 1:
0 1 1 0 
1 1 0 1 
1 0 0 1 
1 1 0 1 
Graph 2:
0 1 1 1 
1 1 1 1 
1 0 0 1 
1 1 1 1 
Solution: 13 0
Classic Expectation: 9.666667
Initial Expecation: 7.250000
Gbest: 13.000000
Expectation: 10.495546
Final Parameters:
Gammas:
[ 5.419239 2.028834 2.746964 3.501441 1.508828 ]
Betas:
[ 2.117917 1.725256 0.783355 1.979893 2.240565 ]
Aggregate results:
[ 13 9 11 7 0 ]
[ 0.319117 0.385797 0.223982 0.058722 0.012383 ]
3
Num Evals 11055
GenUC: 9.918585e-06
GenUB: 1.589302e-06
Optimisation 2.065970e+00
Total Time: 2.065983e+00
4 Rem 4
Graph 1:
0 1 1 0 
1 1 0 1 
1 0 0 1 
1 1 0 1 
Graph 2:
0 0 1 0 
1 1 0 1 
0 0 0 0 
1 1 0 0 
Solution: 12 0
Classic Expectation: 7.666667
Initial Expecation: 5.750000
Gbest: 12.000000
Expectation: 8.729326
Final Parameters:
Gammas:
[ 2.757086 3.198762 3.162106 3.042724 3.330566 ]
Betas:
[ 1.730785 2.606783 0.935947 1.228083 2.689001 ]
Aggregate results:
[ 12 6 8 10 4 0 ]
[ 0.237800 0.151549 0.468606 0.120025 0.004334 0.017686 ]
3
Num Evals 6693
GenUC: 9.997282e-06
GenUB: 1.568347e-06
Optimisation 1.277665e+00
Total Time: 1.277678e+00
5 Add/Rem 4
Graph 1:
0 1 1 0 
1 1 0 1 
1 0 0 1 
1 1 0 1 
Graph 2:
1 0 1 1 
1 0 0 1 
1 0 1 1 
1 1 0 0 
Solution: 14 18
Classic Expectation: 8.666667
Initial Expecation: 6.500000
Gbest: 14.000000
Expectation: 10.493996
Final Parameters:
Gammas:
[ 3.280749 2.870430 3.459440 3.102837 4.449505 ]
Betas:
[ 0.933395 1.419115 2.278651 0.727266 1.467756 ]
Aggregate results:
[ 10 6 8 14 0 ]
[ 0.498125 0.050249 0.142248 0.290947 0.018430 ]
3
Num Evals 8181
GenUC: 9.949785e-06
GenUB: 1.584645e-06
Optimisation 1.318984e+00
Total Time: 1.318997e+00
