Clock Speed: 3.689405
Num threads: 4
Trotterisation: 3
Graph Size: 8
Num Qubits: 16
Space Dimension: 65536
Run-Type: 0
Num_samples: 10
1 Isomorphic
Graph 1:
1 0 0 0 1 0 0 0 
0 0 0 0 0 1 1 0 
1 1 1 1 1 0 1 1 
1 0 0 1 1 1 1 0 
1 0 1 1 1 1 1 1 
0 0 1 1 1 1 1 0 
0 1 1 0 1 1 1 0 
1 0 0 0 1 1 1 1 
Graph 2:
1 0 0 0 1 0 0 0 
0 0 0 0 0 1 1 0 
1 1 1 1 1 0 1 1 
1 0 0 1 1 1 1 0 
1 0 1 1 1 1 1 1 
0 0 1 1 1 1 1 0 
0 1 1 0 1 1 1 0 
1 0 0 0 1 1 1 1 
Solution: 0 0
Gbest: -22.000000
Expectation: -27.283389
Final Parameters:
Gammas:
[ 3.178374 3.357531 3.376653 ]
Betas:
[ 2.882496 2.624603 1.436008 1.586975 ]
Aggregate results:
[ -1 15 25 17 19 23 9 11 27 33 29 31 21 35 13 37 39 5 41 1 43 7 63 ]
[ 0.000010 0.012588 0.194054 0.033268 0.066138 0.184680 0.000822 0.001842 0.159983 0.016790 0.090062 0.033184 0.118518 0.017819 0.005665 0.014383 0.008427 0.000038 0.001905 0.000001 0.000083 0.000014 0.039725 ]
5
Num Evals 800
GenUC: 3.672330e-03
GenUB: 1.773971e-02
Optimisation 2.502717e+02
Total Time: 2.505996e+02
2 Flipped
Graph 1:
1 0 0 0 1 0 0 0 
0 0 0 0 0 1 1 0 
1 1 1 1 1 0 1 1 
1 0 0 1 1 1 1 0 
1 0 1 1 1 1 1 1 
0 0 1 1 1 1 1 0 
0 1 1 0 1 1 1 0 
1 0 0 0 1 1 1 1 
Graph 2:
0 0 0 1 0 0 0 1 
0 1 1 0 0 0 0 0 
1 1 0 1 1 1 1 1 
0 1 1 1 1 0 0 1 
1 1 1 1 1 1 0 1 
0 1 1 1 1 1 0 0 
0 1 1 1 0 1 1 0 
1 1 1 1 0 0 0 1 
Solution: -12 6072
Gbest: -22.000000
Expectation: -32.080048
Final Parameters:
Gammas:
[ 3.362938 3.338813 3.235705 ]
Betas:
[ 1.994379 2.929408 1.393153 1.617549 ]
Aggregate results:
[ 27 25 33 31 35 29 37 39 21 19 23 41 17 13 15 43 11 45 63 ]
[ 0.104577 0.120693 0.031112 0.068863 0.015854 0.095012 0.014325 0.010244 0.120082 0.072353 0.138322 0.005084 0.031932 0.004923 0.010042 0.001296 0.000792 0.000189 0.154305 ]
5
Num Evals 1600
GenUC: 2.591748e-03
GenUB: 1.709738e-02
Optimisation 2.364473e+02
Total Time: 2.367606e+02
3 Add 8
Graph 1:
1 0 0 0 1 0 0 0 
0 0 0 0 0 1 1 0 
1 1 1 1 1 0 1 1 
1 0 0 1 1 1 1 0 
1 0 1 1 1 1 1 1 
0 0 1 1 1 1 1 0 
0 1 1 0 1 1 1 0 
1 0 0 0 1 1 1 1 
Graph 2:
1 0 1 0 1 0 1 0 
0 1 0 0 1 1 1 0 
1 1 1 1 1 0 1 1 
1 0 0 1 1 1 1 0 
1 0 1 1 1 1 1 1 
0 1 1 1 1 1 1 1 
0 1 1 0 1 1 1 0 
1 0 1 0 1 1 1 1 
Solution: -7 0
Gbest: -23.000000
Expectation: -30.828965
Final Parameters:
Gammas:
[ 3.165958 3.155592 1.152420 ]
Betas:
[ 2.753238 1.596073 2.197822 1.569509 ]
Aggregate results:
[ 6 16 22 18 24 20 12 26 14 32 30 28 34 36 38 10 40 63 ]
[ 0.000003 0.002989 0.070653 0.010719 0.132079 0.031121 0.000151 0.172004 0.000264 0.097879 0.158780 0.188808 0.047179 0.016178 0.003288 0.000003 0.000329 0.067573 ]
5
Num Evals 2400
GenUC: 2.866589e-03
GenUB: 1.715964e-02
Optimisation 2.396914e+02
Total Time: 2.400096e+02
4 Rem 8
Graph 1:
1 0 0 0 1 0 0 0 
0 0 0 0 0 1 1 0 
1 1 1 1 1 0 1 1 
1 0 0 1 1 1 1 0 
1 0 1 1 1 1 1 1 
0 0 1 1 1 1 1 0 
0 1 1 0 1 1 1 0 
1 0 0 0 1 1 1 1 
Graph 2:
1 0 0 0 0 0 0 0 
0 0 0 0 0 0 1 0 
1 1 1 1 1 0 1 1 
1 0 0 1 0 1 1 0 
1 0 1 1 1 1 0 0 
0 0 1 1 1 1 1 0 
0 0 1 0 1 1 1 0 
1 0 0 0 0 1 0 1 
Solution: -8 0
Gbest: -18.000000
Expectation: -28.244850
Final Parameters:
Gammas:
[ 3.179668 3.362716 4.410275 ]
Betas:
[ 2.587088 2.617761 1.452760 1.572133 ]
Aggregate results:
[ 7 17 29 23 25 27 21 15 31 33 19 37 35 11 39 13 41 43 9 63 ]
[ 0.000016 0.017395 0.117844 0.174780 0.205833 0.182436 0.094241 0.005067 0.048652 0.018299 0.042647 0.017656 0.017326 0.000656 0.010961 0.001383 0.002969 0.000312 0.000021 0.041506 ]
5
Num Evals 3200
GenUC: 2.885555e-03
GenUB: 1.722734e-02
Optimisation 2.414839e+02
Total Time: 2.418056e+02
5 Add/Rem 8
Graph 1:
1 0 0 0 1 0 0 0 
0 0 0 0 0 1 1 0 
1 1 1 1 1 0 1 1 
1 0 0 1 1 1 1 0 
1 0 1 1 1 1 1 1 
0 0 1 1 1 1 1 0 
0 1 1 0 1 1 1 0 
1 0 0 0 1 1 1 1 
Graph 2:
0 1 0 0 1 0 0 1 
1 1 0 0 0 1 1 0 
0 1 1 1 1 0 1 1 
1 0 1 1 1 1 1 1 
1 0 1 1 1 0 0 0 
0 0 1 1 0 1 1 0 
0 1 1 0 1 1 1 1 
1 1 0 0 0 1 1 1 
Solution: -15 0
Gbest: -19.000000
Expectation: -27.930613
Final Parameters:
Gammas:
[ 3.194031 6.072116 0.006831 ]
Betas:
[ 2.496886 0.444619 1.645454 1.604208 ]
Aggregate results:
[ 14 24 30 26 32 20 28 22 34 36 18 16 38 40 42 63 ]
[ 0.000227 0.226751 0.061887 0.245105 0.014198 0.059398 0.165937 0.136729 0.011126 0.010639 0.016076 0.004301 0.005173 0.001292 0.000067 0.041095 ]
5
Num Evals 4000
GenUC: 2.888887e-03
GenUB: 1.726882e-02
Optimisation 2.102782e+02
Total Time: 2.105521e+02
