Clock Speed: 3.689115
Num threads: 4
Trotterisation: 2
Graph Size: 4
Num Qubits: 5
Space Dimension: 32
Run-Type: 0
Num_samples: 10
1 Isomorphic
Graph 1:
1 1 0 0 
1 1 0 0 
1 0 1 1 
0 0 1 1 
Graph 2:
1 1 0 0 
1 1 0 0 
1 0 1 1 
0 0 1 1 
Solution: 0 0
Gbest: 0.000000
Expectation: -4.902456
Final Parameters:
Gammas:
[ 0.118533 6.167590 ]
Betas:
[ 2.169365 1.640400 0.429286 ]
Aggregate results:
[ -1 1 7 5 9 15 ]
[ 0.164683 0.320457 0.219398 0.197100 0.041672 0.056690 ]
5
Num Evals 400
GenUC: 1.660020e-04
GenUB: 1.298799e-05
Optimisation 6.605815e-02
Total Time: 6.660842e-02
2 Flipped
Graph 1:
1 1 0 0 
1 1 0 0 
1 0 1 1 
0 0 1 1 
Graph 2:
0 0 1 1 
0 0 1 1 
1 1 0 1 
1 1 0 0 
Solution: -8 2
Gbest: -8.000000
Expectation: -9.304796
Final Parameters:
Gammas:
[ 3.188376 6.070255 ]
Betas:
[ 0.737134 2.197273 0.412203 ]
Aggregate results:
[ 13 7 9 15 ]
[ 0.080708 0.601311 0.287217 0.030764 ]
5
Num Evals 800
GenUC: 9.727431e-06
GenUB: 8.150004e-06
Optimisation 7.045424e-02
Total Time: 7.065021e-02
3 Add 4
Graph 1:
1 1 0 0 
1 1 0 0 
1 0 1 1 
0 0 1 1 
Graph 2:
1 1 0 0 
1 1 1 0 
1 0 1 1 
0 1 1 1 
Solution: -2 0
Gbest: -2.000000
Expectation: -6.006407
Final Parameters:
Gammas:
[ 0.223706 0.313805 ]
Betas:
[ 0.122081 2.648009 2.558319 ]
Aggregate results:
[ 1 3 5 7 9 15 ]
[ 0.228648 0.277710 0.241723 0.117272 0.017434 0.117214 ]
5
Num Evals 1200
GenUC: 1.058844e-05
GenUB: 8.478062e-06
Optimisation 8.370439e-02
Total Time: 8.393320e-02
4 Rem 4
Graph 1:
1 1 0 0 
1 1 0 0 
1 0 1 1 
0 0 1 1 
Graph 2:
1 1 0 0 
0 1 0 0 
1 0 1 1 
0 0 0 0 
Solution: -3 0
Gbest: -5.000000
Expectation: -6.350933
Final Parameters:
Gammas:
[ 0.064828 3.570022 ]
Betas:
[ 0.100830 1.841882 2.746639 ]
Aggregate results:
[ 2 4 6 8 15 ]
[ 0.117075 0.480453 0.260348 0.071282 0.070842 ]
5
Num Evals 1600
GenUC: 1.070811e-05
GenUB: 8.229166e-06
Optimisation 8.057302e-02
Total Time: 8.079331e-02
5 Add/Rem 4
Graph 1:
1 1 0 0 
1 1 0 0 
1 0 1 1 
0 0 1 1 
Graph 2:
1 0 0 0 
0 1 1 1 
1 0 1 0 
0 1 1 1 
Solution: -2 2
Gbest: -2.000000
Expectation: -5.579416
Final Parameters:
Gammas:
[ 3.306829 5.699413 ]
Betas:
[ 1.724352 1.033291 1.701009 ]
Aggregate results:
[ 5 7 1 3 15 ]
[ 0.249382 0.212433 0.162729 0.329092 0.046365 ]
5
Num Evals 2000
GenUC: 1.044152e-05
GenUB: 8.878764e-06
Optimisation 7.512574e-02
Total Time: 7.534612e-02
