Clock Speed: 3.688098
Num threads: 4
Trotterisation: 3
Num Qubits: 3
Space Dimension: 8
Run-Type: 0
Num_samples: 2024
Optimiser Method: 29
1 Isomorphic
Graph 1:
1 0 1 
0 0 0 
0 1 0 
Graph 2:
1 0 1 
0 0 0 
0 1 0 
Solution: 9 0
Classic Expectation: 5.000000
Initial Expecation: 3.750000
Gbest: 9.000000
Expectation: 6.248827
Final Parameters:
Gammas:
[ 2.531254 2.247005 2.740056 ]
Betas:
[ 1.339715 0.843963 0.732704 ]
Aggregate results:
[ 9 5 3 0 ]
[ 0.457695 0.384701 0.068689 0.088915 ]
3
Num Evals 1387
GenUC: 2.765795e-06
GenUB: 7.515075e-06
Optimisation 2.098043e-01
Total Time: 2.098427e-01
2 Flipped
Graph 1:
1 0 1 
0 0 0 
0 1 0 
Graph 2:
1 0 1 
0 0 0 
0 1 0 
Solution: 9 0
Classic Expectation: 5.000000
Initial Expecation: 3.750000
Gbest: 9.000000
Expectation: 6.248827
Final Parameters:
Gammas:
[ 2.531254 2.247005 2.740056 ]
Betas:
[ 1.339715 0.843963 0.732704 ]
Aggregate results:
[ 9 5 3 0 ]
[ 0.457695 0.384701 0.068689 0.088915 ]
3
Num Evals 1387
GenUC: 2.542743e-06
GenUB: 9.835348e-07
Optimisation 2.068451e-01
Total Time: 2.068509e-01
3 Add 3
Graph 1:
1 0 1 
0 0 0 
0 1 0 
Graph 2:
1 1 1 
0 0 1 
1 1 0 
Solution: 6 0
Classic Expectation: 4.000000
Initial Expecation: 3.000000
Gbest: 6.000000
Expectation: 4.868714
Final Parameters:
Gammas:
[ 3.481644 3.885366 6.110331 ]
Betas:
[ 0.810206 3.141593 0.377512 ]
Aggregate results:
[ 6 4 2 0 ]
[ 0.496811 0.445910 0.052104 0.005175 ]
3
Num Evals 392
GenUC: 2.732908e-06
GenUB: 7.857452e-07
Optimisation 6.577727e-02
Total Time: 6.578320e-02
4 Rem 3
Graph 1:
1 0 1 
0 0 0 
0 1 0 
Graph 2:
0 0 0 
0 0 0 
0 1 0 
Solution: 7 0
Classic Expectation: 5.666667
Initial Expecation: 4.250000
Gbest: 7.000000
Expectation: 6.998924
Final Parameters:
Gammas:
[ 1.374839 5.317205 2.690622 ]
Betas:
[ 1.694218 1.705959 0.653209 ]
Aggregate results:
[ 7 5 0 ]
[ 0.999532 0.000439 0.000028 ]
5
Num Evals 1800
GenUC: 2.544548e-06
GenUB: 6.795744e-07
Optimisation 3.033863e-01
Total Time: 3.033911e-01
5 Add/Rem 3
Graph 1:
1 0 1 
0 0 0 
0 1 0 
Graph 2:
0 1 0 
0 1 0 
0 1 0 
Solution: 5 0
Classic Expectation: 5.000000
Initial Expecation: 3.750000
Gbest: 5.000000
Expectation: 5.000000
Final Parameters:
Gammas:
[ 3.959429 3.884776 1.539283 ]
Betas:
[ 0.687539 1.862894 1.359961 ]
Aggregate results:
[ 5 0 ]
[ 1.000000 0.000000 ]
3
Num Evals 349
GenUC: 2.380228e-06
GenUB: 7.358612e-07
Optimisation 5.594010e-02
Total Time: 5.594555e-02
