Clock Speed: 3.688374
Num threads: 4
Trotterisation: 3
Num Qubits: 3
Space Dimension: 8
Run-Type: 0
Num_samples: 2024
Optimiser Method: 29
1 Isomorphic
Graph 1:
1 1 1 
1 1 0 
0 0 1 
Graph 2:
1 1 1 
1 1 0 
0 0 1 
Solution: 9 0
Classic Expectation: 6.000000
Initial Expecation: 4.500000
Gbest: 9.000000
Expectation: 6.988648
Final Parameters:
Gammas:
[ 1.977238 4.001403 3.778532 ]
Betas:
[ 0.300662 1.873674 0.428839 ]
Aggregate results:
[ 9 7 5 3 0 ]
[ 0.499454 0.000546 0.495520 0.004047 0.000433 ]
3
Num Evals 1484
GenUC: 2.580346e-06
GenUB: 7.928174e-06
Optimisation 1.956163e-01
Total Time: 1.956425e-01
2 Flipped
Graph 1:
1 1 1 
1 1 0 
0 0 1 
Graph 2:
1 1 1 
0 1 1 
1 0 0 
Solution: 7 1
Classic Expectation: 5.000000
Initial Expecation: 3.750000
Gbest: 7.000000
Expectation: 4.969084
Final Parameters:
Gammas:
[ 4.908739 0.785398 0.000000 ]
Betas:
[ 2.370243 1.946137 0.749632 ]
Aggregate results:
[ 5 7 3 0 ]
[ 0.773844 0.143276 0.032312 0.050569 ]
3
Num Evals 126
GenUC: 2.516375e-06
GenUB: 8.157222e-07
Optimisation 2.308429e-02
Total Time: 2.308914e-02
3 Add 3
Graph 1:
1 1 1 
1 1 0 
0 0 1 
Graph 2:
1 1 1 
1 1 1 
0 1 1 
Solution: 7 0
Classic Expectation: 6.000000
Initial Expecation: 4.500000
Gbest: 7.000000
Expectation: 6.000000
Final Parameters:
Gammas:
[ 3.951440 3.329655 3.880312 ]
Betas:
[ 0.677724 1.047207 1.794501 ]
Aggregate results:
[ 7 5 0 ]
[ 0.500000 0.500000 0.000000 ]
3
Num Evals 1727
GenUC: 2.727669e-06
GenUB: 7.077469e-07
Optimisation 2.690085e-01
Total Time: 2.690134e-01
4 Rem 3
Graph 1:
1 1 1 
1 1 0 
0 0 1 
Graph 2:
1 0 0 
1 0 0 
0 0 1 
Solution: 6 0
Classic Expectation: 5.000000
Initial Expecation: 3.750000
Gbest: 6.000000
Expectation: 5.000000
Final Parameters:
Gammas:
[ 5.306297 5.145707 1.406646 ]
Betas:
[ 1.052257 0.780748 2.003325 ]
Aggregate results:
[ 6 4 0 ]
[ 0.500000 0.500000 0.000000 ]
3
Num Evals 706
GenUC: 2.604967e-06
GenUB: 7.664203e-07
Optimisation 1.121813e-01
Total Time: 1.121861e-01
5 Add/Rem 3
Graph 1:
1 1 1 
1 1 0 
0 0 1 
Graph 2:
0 0 1 
1 1 1 
1 1 0 
Solution: 5 3
Classic Expectation: 4.000000
Initial Expecation: 3.000000
Gbest: 5.000000
Expectation: 5.000000
Final Parameters:
Gammas:
[ 3.145586 2.352255 0.785458 ]
Betas:
[ 3.108584 1.570363 0.785601 ]
Aggregate results:
[ 3 5 0 ]
[ 0.000000 1.000000 0.000000 ]
3
Num Evals 1406
GenUC: 2.307468e-06
GenUB: 5.562906e-07
Optimisation 2.526730e-01
Total Time: 2.526770e-01
