Clock Speed: 3.683693
Num threads: 4
Trotterisation: 3
Num Qubits: 3
Space Dimension: 8
Run-Type: 0
Num_samples: 2024
Optimiser Method: 29
1 Isomorphic
Graph 1:
1 1 1 
1 1 0 
1 1 0 
Graph 2:
1 1 1 
1 1 0 
1 1 0 
Solution: 9 0
Classic Expectation: 6.000000
Initial Expecation: 4.500000
Gbest: 9.000000
Expectation: 6.747702
Final Parameters:
Gammas:
[ 3.817601 3.889706 0.281531 ]
Betas:
[ 0.877728 2.242803 1.085733 ]
Aggregate results:
[ 9 5 7 0 ]
[ 0.433439 0.559198 0.007252 0.000111 ]
5
Num Evals 1800
GenUC: 2.708810e-06
GenUB: 8.572533e-06
Optimisation 3.620811e-01
Total Time: 3.621088e-01
2 Flipped
Graph 1:
1 1 1 
1 1 0 
1 1 0 
Graph 2:
1 1 1 
0 1 1 
0 1 1 
Solution: 7 3
Classic Expectation: 5.666667
Initial Expecation: 4.250000
Gbest: 7.000000
Expectation: 6.886057
Final Parameters:
Gammas:
[ 6.013158 2.292967 0.642044 ]
Betas:
[ 2.425981 1.260915 1.253091 ]
Aggregate results:
[ 5 7 0 ]
[ 0.054080 0.945094 0.000826 ]
5
Num Evals 1800
GenUC: 2.694782e-06
GenUB: 1.030450e-06
Optimisation 3.668694e-01
Total Time: 3.668753e-01
3 Add 3
Graph 1:
1 1 1 
1 1 0 
1 1 0 
Graph 2:
1 1 1 
1 1 1 
1 1 0 
Solution: 8 0
Classic Expectation: 6.666667
Initial Expecation: 5.000000
Gbest: 8.000000
Expectation: 7.000000
Final Parameters:
Gammas:
[ 2.651242 2.658960 3.400469 ]
Betas:
[ 2.238425 1.995645 0.923480 ]
Aggregate results:
[ 8 6 0 ]
[ 0.500000 0.500000 0.000000 ]
3
Num Evals 1159
GenUC: 2.981746e-06
GenUB: 1.178414e-06
Optimisation 2.286780e-01
Total Time: 2.286841e-01
4 Rem 3
Graph 1:
1 1 1 
1 1 0 
1 1 0 
Graph 2:
0 1 1 
1 1 0 
1 0 0 
Solution: 7 0
Classic Expectation: 5.000000
Initial Expecation: 3.750000
Gbest: 7.000000
Expectation: 5.998729
Final Parameters:
Gammas:
[ 0.975929 5.361463 2.668669 ]
Betas:
[ 1.588856 2.222466 0.202093 ]
Aggregate results:
[ 7 5 3 0 ]
[ 0.499661 0.500136 0.000141 0.000062 ]
3
Num Evals 1245
GenUC: 2.966437e-06
GenUB: 8.738134e-07
Optimisation 2.116955e-01
Total Time: 2.117015e-01
5 Add/Rem 3
Graph 1:
1 1 1 
1 1 0 
1 1 0 
Graph 2:
1 0 1 
1 1 1 
1 0 1 
Solution: 7 1
Classic Expectation: 5.666667
Initial Expecation: 4.250000
Gbest: 7.000000
Expectation: 6.998924
Final Parameters:
Gammas:
[ 1.374839 5.317205 2.690622 ]
Betas:
[ 1.694218 1.705959 0.653209 ]
Aggregate results:
[ 5 7 0 ]
[ 0.000439 0.999532 0.000028 ]
5
Num Evals 1800
GenUC: 2.681860e-06
GenUB: 7.083290e-07
Optimisation 3.339002e-01
Total Time: 3.339053e-01
