Clock Speed: 3.687504
Num threads: 4
Trotterisation: 3
Num Qubits: 3
Space Dimension: 8
Run-Type: 0
Num_samples: 2024
Optimiser Method: 29
1 Isomorphic
Graph 1:
0 1 1 
1 0 1 
0 0 1 
Graph 2:
0 1 1 
1 0 1 
0 0 1 
Solution: 9 0
Classic Expectation: 5.000000
Initial Expecation: 3.750000
Gbest: 9.000000
Expectation: 6.000000
Final Parameters:
Gammas:
[ 4.533945 0.611605 3.398002 ]
Betas:
[ 0.634384 1.590927 1.281952 ]
Aggregate results:
[ 9 3 0 ]
[ 0.500000 0.500000 0.000000 ]
3
Num Evals 700
GenUC: 2.630753e-06
GenUB: 8.087838e-06
Optimisation 1.175472e-01
Total Time: 1.175772e-01
2 Flipped
Graph 1:
0 1 1 
1 0 1 
0 0 1 
Graph 2:
1 1 0 
1 0 1 
1 0 0 
Solution: 7 3
Classic Expectation: 5.000000
Initial Expecation: 3.750000
Gbest: 7.000000
Expectation: 6.135757
Final Parameters:
Gammas:
[ 0.456689 6.165944 5.643410 ]
Betas:
[ 2.983538 0.590447 2.841527 ]
Aggregate results:
[ 5 3 7 0 ]
[ 0.178497 0.046526 0.729099 0.045878 ]
3
Num Evals 1678
GenUC: 3.037509e-06
GenUB: 1.091510e-06
Optimisation 3.678655e-01
Total Time: 3.678715e-01
3 Add 3
Graph 1:
0 1 1 
1 0 1 
0 0 1 
Graph 2:
1 1 1 
1 0 1 
0 1 1 
Solution: 7 0
Classic Expectation: 5.000000
Initial Expecation: 3.750000
Gbest: 7.000000
Expectation: 5.685844
Final Parameters:
Gammas:
[ 4.317943 4.893976 3.364641 ]
Betas:
[ 0.060081 1.517937 0.788763 ]
Aggregate results:
[ 7 3 5 0 ]
[ 0.483856 0.117882 0.389042 0.009221 ]
3
Num Evals 1056
GenUC: 3.102061e-06
GenUB: 8.843490e-07
Optimisation 1.324161e-01
Total Time: 1.324221e-01
4 Rem 3
Graph 1:
0 1 1 
1 0 1 
0 0 1 
Graph 2:
0 1 1 
0 0 0 
0 0 0 
Solution: 6 0
Classic Expectation: 4.666667
Initial Expecation: 3.500000
Gbest: 6.000000
Expectation: 5.954052
Final Parameters:
Gammas:
[ 3.961566 2.789854 1.068500 ]
Betas:
[ 2.434365 0.273146 2.273721 ]
Aggregate results:
[ 6 2 0 ]
[ 0.989706 0.007909 0.002386 ]
5
Num Evals 1800
GenUC: 2.608460e-06
GenUB: 6.865594e-07
Optimisation 3.264027e-01
Total Time: 3.264074e-01
5 Add/Rem 3
Graph 1:
0 1 1 
1 0 1 
0 0 1 
Graph 2:
1 1 1 
1 0 0 
1 1 0 
Solution: 6 1
Classic Expectation: 5.333333
Initial Expecation: 4.000000
Gbest: 6.000000
Expectation: 6.000000
Final Parameters:
Gammas:
[ 4.201111 3.697986 4.469168 ]
Betas:
[ 0.634452 2.264050 2.456833 ]
Aggregate results:
[ 4 6 0 ]
[ 0.000000 1.000000 0.000000 ]
3
Num Evals 459
GenUC: 2.509332e-06
GenUB: 8.462230e-07
Optimisation 8.300434e-02
Total Time: 8.300954e-02
