Clock Speed: 3.689446
Num threads: 4
Trotterisation: 3
Num Qubits: 3
Space Dimension: 8
Run-Type: 0
Num_samples: 2024
Optimiser Method: 29
1 Isomorphic
Graph 1:
1 0 0 
1 1 1 
0 0 1 
Graph 2:
1 0 0 
1 1 1 
0 0 1 
Solution: 9 0
Classic Expectation: 6.333333
Initial Expecation: 4.750000
Gbest: 9.000000
Expectation: 8.194498
Final Parameters:
Gammas:
[ 4.002109 4.056080 3.363291 ]
Betas:
[ 2.160790 0.848907 1.670304 ]
Aggregate results:
[ 9 5 0 ]
[ 0.815413 0.171157 0.013430 ]
3
Num Evals 1424
GenUC: 2.667133e-06
GenUB: 9.442214e-06
Optimisation 2.726243e-01
Total Time: 2.726570e-01
2 Flipped
Graph 1:
1 0 0 
1 1 1 
0 0 1 
Graph 2:
0 0 1 
1 1 1 
1 0 0 
Solution: 5 0
Classic Expectation: 3.666667
Initial Expecation: 2.750000
Gbest: 5.000000
Expectation: 4.467847
Final Parameters:
Gammas:
[ 1.688450 4.892044 4.651125 ]
Betas:
[ 2.747343 2.184440 1.754980 ]
Aggregate results:
[ 5 3 0 ]
[ 0.754019 0.232584 0.013397 ]
3
Num Evals 1073
GenUC: 3.049208e-06
GenUB: 1.015840e-06
Optimisation 2.741362e-01
Total Time: 2.741423e-01
3 Add 3
Graph 1:
1 0 0 
1 1 1 
0 0 1 
Graph 2:
1 1 0 
1 1 1 
0 1 1 
Solution: 7 0
Classic Expectation: 5.666667
Initial Expecation: 4.250000
Gbest: 7.000000
Expectation: 6.998924
Final Parameters:
Gammas:
[ 1.374839 5.317205 2.690622 ]
Betas:
[ 1.694218 1.705959 0.653209 ]
Aggregate results:
[ 7 5 0 ]
[ 0.999532 0.000439 0.000028 ]
5
Num Evals 1800
GenUC: 3.358466e-06
GenUB: 8.714851e-07
Optimisation 3.353387e-01
Total Time: 3.353450e-01
4 Rem 3
Graph 1:
1 0 0 
1 1 1 
0 0 1 
Graph 2:
1 0 0 
1 1 0 
0 0 0 
Solution: 7 0
Classic Expectation: 5.666667
Initial Expecation: 4.250000
Gbest: 7.000000
Expectation: 6.998924
Final Parameters:
Gammas:
[ 1.374839 5.317205 2.690622 ]
Betas:
[ 1.694218 1.705959 0.653209 ]
Aggregate results:
[ 7 5 0 ]
[ 0.999532 0.000439 0.000028 ]
5
Num Evals 1800
GenUC: 2.981746e-06
GenUB: 9.201467e-07
Optimisation 3.061731e-01
Total Time: 3.061790e-01
5 Add/Rem 3
Graph 1:
1 0 0 
1 1 1 
0 0 1 
Graph 2:
1 0 1 
1 0 0 
1 1 1 
Solution: 6 1
Classic Expectation: 4.666667
Initial Expecation: 3.500000
Gbest: 6.000000
Expectation: 5.000000
Final Parameters:
Gammas:
[ 4.910936 4.828247 3.733753 ]
Betas:
[ 0.884599 0.808514 0.707587 ]
Aggregate results:
[ 4 6 0 ]
[ 0.500000 0.500000 0.000000 ]
3
Num Evals 540
GenUC: 2.676563e-06
GenUB: 8.245115e-07
Optimisation 7.645166e-02
Total Time: 7.645720e-02
