Clock Speed: 3.688923
Num threads: 4
Trotterisation: 3
Num Qubits: 3
Space Dimension: 8
Run-Type: 0
Num_samples: 2024
Optimiser Method: 29
1 Isomorphic
Graph 1:
1 1 1 
0 1 1 
1 0 0 
Graph 2:
1 1 1 
0 1 1 
1 0 0 
Solution: 9 0
Classic Expectation: 5.000000
Initial Expecation: 3.750000
Gbest: 9.000000
Expectation: 6.205080
Final Parameters:
Gammas:
[ 3.559544 5.227769 2.566333 ]
Betas:
[ 2.342647 1.746732 0.801918 ]
Aggregate results:
[ 9 3 5 0 ]
[ 0.468460 0.084058 0.347354 0.100129 ]
5
Num Evals 1800
GenUC: 2.620800e-06
GenUB: 7.372408e-06
Optimisation 3.252465e-01
Total Time: 3.252762e-01
2 Flipped
Graph 1:
1 1 1 
0 1 1 
1 0 0 
Graph 2:
1 1 1 
1 1 0 
0 0 1 
Solution: 7 1
Classic Expectation: 5.000000
Initial Expecation: 3.750000
Gbest: 7.000000
Expectation: 5.998729
Final Parameters:
Gammas:
[ 0.975929 5.361463 2.668669 ]
Betas:
[ 1.588856 2.222466 0.202093 ]
Aggregate results:
[ 5 7 3 0 ]
[ 0.500136 0.499661 0.000141 0.000062 ]
3
Num Evals 1245
GenUC: 2.553337e-06
GenUB: 8.210191e-07
Optimisation 2.082813e-01
Total Time: 2.082862e-01
3 Add 3
Graph 1:
1 1 1 
0 1 1 
1 0 0 
Graph 2:
1 1 1 
1 1 1 
1 0 1 
Solution: 7 0
Classic Expectation: 5.666667
Initial Expecation: 4.250000
Gbest: 7.000000
Expectation: 6.000000
Final Parameters:
Gammas:
[ 4.132700 4.368779 5.113530 ]
Betas:
[ 0.472207 1.417499 1.382853 ]
Aggregate results:
[ 7 5 0 ]
[ 0.500000 0.500000 0.000000 ]
3
Num Evals 445
GenUC: 2.786925e-06
GenUB: 6.132177e-07
Optimisation 6.840094e-02
Total Time: 6.840574e-02
4 Rem 3
Graph 1:
1 1 1 
0 1 1 
1 0 0 
Graph 2:
1 0 1 
0 0 0 
1 0 0 
Solution: 6 0
Classic Expectation: 4.000000
Initial Expecation: 3.000000
Gbest: 6.000000
Expectation: 5.000000
Final Parameters:
Gammas:
[ 3.666011 4.132349 3.184110 ]
Betas:
[ 0.955408 3.003240 0.444846 ]
Aggregate results:
[ 6 4 2 0 ]
[ 0.500000 0.500000 0.000000 0.000000 ]
3
Num Evals 513
GenUC: 2.566841e-06
GenUB: 6.413902e-07
Optimisation 8.258601e-02
Total Time: 8.259039e-02
5 Add/Rem 3
Graph 1:
1 1 1 
0 1 1 
1 0 0 
Graph 2:
1 0 1 
0 1 0 
1 1 1 
Solution: 7 5
Classic Expectation: 5.000000
Initial Expecation: 3.750000
Gbest: 7.000000
Expectation: 5.968818
Final Parameters:
Gammas:
[ 1.244446 5.129490 1.266184 ]
Betas:
[ 0.561644 1.949951 0.863618 ]
Aggregate results:
[ 5 3 7 0 ]
[ 0.485317 0.014702 0.499732 0.000249 ]
3
Num Evals 986
GenUC: 2.313871e-06
GenUB: 5.715992e-07
Optimisation 1.543626e-01
Total Time: 1.543666e-01
