Clock Speed: 3.688059
Num threads: 4
Trotterisation: 3
Num Qubits: 3
Space Dimension: 8
Run-Type: 0
Num_samples: 2024
Optimiser Method: 29
1 Isomorphic
Graph 1:
1 1 0 
0 1 1 
1 1 0 
Graph 2:
1 1 0 
0 1 1 
1 1 0 
Solution: 9 0
Classic Expectation: 5.000000
Initial Expecation: 3.750000
Gbest: 9.000000
Expectation: 6.205080
Final Parameters:
Gammas:
[ 3.559544 5.227769 2.566333 ]
Betas:
[ 2.342647 1.746732 0.801918 ]
Aggregate results:
[ 9 3 5 0 ]
[ 0.468460 0.084058 0.347354 0.100129 ]
5
Num Evals 1800
GenUC: 2.760440e-06
GenUB: 9.923358e-06
Optimisation 4.403903e-01
Total Time: 4.404207e-01
2 Flipped
Graph 1:
1 1 0 
0 1 1 
1 1 0 
Graph 2:
0 1 1 
1 1 0 
0 1 1 
Solution: 9 5
Classic Expectation: 5.000000
Initial Expecation: 3.750000
Gbest: 9.000000
Expectation: 6.991632
Final Parameters:
Gammas:
[ 2.334100 5.038954 0.669728 ]
Betas:
[ 1.002721 1.394767 1.147059 ]
Aggregate results:
[ 3 5 9 0 ]
[ 0.003973 0.496073 0.499928 0.000026 ]
3
Num Evals 771
GenUC: 2.744608e-06
GenUB: 1.126726e-06
Optimisation 1.585351e-01
Total Time: 1.585409e-01
3 Add 3
Graph 1:
1 1 0 
0 1 1 
1 1 0 
Graph 2:
1 1 1 
1 1 1 
1 1 1 
Solution: 6 0
Classic Expectation: 6.000000
Initial Expecation: 4.500000
Gbest: 6.000000
Expectation: 6.000000
Final Parameters:
Gammas:
[ 4.501254 2.887266 1.554405 ]
Betas:
[ 0.777259 1.712352 1.560101 ]
Aggregate results:
[ 6 0 ]
[ 1.000000 0.000000 ]
3
Num Evals 378
GenUC: 3.023946e-06
GenUB: 9.412761e-07
Optimisation 9.128529e-02
Total Time: 9.129121e-02
4 Rem 3
Graph 1:
1 1 0 
0 1 1 
1 1 0 
Graph 2:
0 1 0 
0 0 1 
0 1 0 
Solution: 6 0
Classic Expectation: 4.000000
Initial Expecation: 3.000000
Gbest: 6.000000
Expectation: 4.775259
Final Parameters:
Gammas:
[ 3.548388 2.378199 1.565425 ]
Betas:
[ 2.208739 1.129980 0.203750 ]
Aggregate results:
[ 6 4 2 0 ]
[ 0.405991 0.579684 0.010290 0.004036 ]
3
Num Evals 1206
GenUC: 3.006950e-06
GenUB: 9.805663e-07
Optimisation 2.207058e-01
Total Time: 2.207117e-01
5 Add/Rem 3
Graph 1:
1 1 0 
0 1 1 
1 1 0 
Graph 2:
1 0 1 
0 0 0 
1 1 1 
Solution: 6 1
Classic Expectation: 4.666667
Initial Expecation: 3.500000
Gbest: 6.000000
Expectation: 5.000000
Final Parameters:
Gammas:
[ 2.177560 5.201810 2.245362 ]
Betas:
[ 0.817177 0.765128 1.143727 ]
Aggregate results:
[ 4 6 0 ]
[ 0.500000 0.500000 0.000000 ]
3
Num Evals 500
GenUC: 2.602639e-06
GenUB: 2.610846e-06
Optimisation 7.780436e-02
Total Time: 7.781173e-02
