Clock Speed: 3.498864
Num threads: 16
Trotterisation: 3
Num Qubits: 7
Space Dimension: 128
Run-Type: 0
Num_samples: 25
Optimiser Method: 0
1 Isomorphic
Graph 1:
0 1 0 1 0 
0 0 1 1 0 
0 0 1 1 0 
1 1 0 1 0 
0 0 1 0 0 
Graph 2:
0 1 0 1 0 
0 0 1 1 0 
0 0 1 1 0 
1 1 0 1 0 
0 0 1 0 0 
Solution: 25 0
Classic Expectation: 13.000000
Initial Expecation: 12.187500
Gbest: 19.000000
Expectation: 15.063208
Final Parameters:
Gammas:
[ 0.358096 3.257950 3.053969 ]
Betas:
[ 2.559817 0.491279 0.310280 ]
Aggregate results:
[ 25 11 15 13 17 9 19 21 7 0 ]
[ 0.020360 0.055097 0.298295 0.212482 0.245114 0.018395 0.079319 0.036839 0.014037 0.020060 ]
3
Num Evals 993
GenUC: 5.423976e-05
GenUB: 2.275361e-05
Optimisation 2.761010e-01
Total Time: 2.761865e-01
2 Flipped
Graph 1:
0 1 0 1 0 
0 0 1 1 0 
0 0 1 1 0 
1 1 0 1 0 
0 0 1 0 0 
Graph 2:
0 1 0 1 0 
0 1 1 0 0 
0 1 1 0 0 
0 1 0 1 1 
0 0 1 0 0 
Solution: 19 0
Classic Expectation: 13.000000
Initial Expecation: 12.187500
Gbest: 19.000000
Expectation: 12.187500
Final Parameters:
Gammas:
[ 1.047198 1.047198 3.141593 ]
Betas:
[ 1.570796 1.570796 1.570796 ]
Aggregate results:
[ 19 11 15 17 13 9 7 0 ]
[ 0.031250 0.195312 0.210937 0.109375 0.242187 0.117187 0.031250 0.062500 ]
3
Num Evals 17
GenUC: 5.228166e-05
GenUB: 3.289431e-06
Optimisation 4.931858e-03
Total Time: 4.989664e-03
3 Add 5
Graph 1:
0 1 0 1 0 
0 0 1 1 0 
0 0 1 1 0 
1 1 0 1 0 
0 0 1 0 0 
Graph 2:
0 1 0 1 0 
1 0 1 1 1 
0 1 1 1 0 
1 1 0 1 0 
0 1 1 0 0 
Solution: 21 0
Classic Expectation: 12.200000
Initial Expecation: 11.437500
Gbest: 17.000000
Expectation: 11.711861
Final Parameters:
Gammas:
[ 5.235988 1.047198 3.141593 ]
Betas:
[ 0.523599 1.570796 1.570796 ]
Aggregate results:
[ 21 11 13 15 9 17 7 19 5 0 ]
[ 0.003962 0.334534 0.188560 0.193722 0.122007 0.051416 0.054440 0.012249 0.001146 0.037964 ]
3
Num Evals 45
GenUC: 5.151331e-05
GenUB: 3.037974e-06
Optimisation 1.290143e-02
Total Time: 1.295755e-02
4 Rem 5
Graph 1:
0 1 0 1 0 
0 0 1 1 0 
0 0 1 1 0 
1 1 0 1 0 
0 0 1 0 0 
Graph 2:
0 1 0 0 0 
0 0 1 1 0 
0 0 0 1 0 
1 0 0 1 0 
0 0 0 0 0 
Solution: 21 0
Classic Expectation: 13.800000
Initial Expecation: 12.937500
Gbest: 19.000000
Expectation: 12.937500
Final Parameters:
Gammas:
[ 1.047198 3.141593 1.047198 ]
Betas:
[ 1.570796 1.570796 1.570796 ]
Aggregate results:
[ 21 13 17 9 15 11 19 0 ]
[ 0.007812 0.320312 0.148438 0.054687 0.218750 0.156250 0.031250 0.062500 ]
3
Num Evals 25
GenUC: 5.149189e-05
GenUB: 2.872664e-06
Optimisation 7.295005e-03
Total Time: 7.350871e-03
5 Add/Rem 5
Graph 1:
0 1 0 1 0 
0 0 1 1 0 
0 0 1 1 0 
1 1 0 1 0 
0 0 1 0 0 
Graph 2:
0 1 0 0 0 
0 0 0 0 0 
0 0 0 1 0 
1 1 1 0 1 
1 1 1 0 0 
Solution: 18 93
Classic Expectation: 13.200000
Initial Expecation: 12.375000
Gbest: 16.000000
Expectation: 12.807916
Final Parameters:
Gammas:
[ 1.745329 2.443461 3.141593 ]
Betas:
[ 0.523599 1.570796 1.570796 ]
Aggregate results:
[ 16 14 10 12 8 18 0 ]
[ 0.166260 0.344732 0.106301 0.349507 0.004721 0.001480 0.026998 ]
3
Num Evals 75
GenUC: 5.187094e-05
GenUB: 2.908520e-06
Optimisation 2.055357e-02
Total Time: 2.060986e-02
