Clock Speed: 3.498824
Num threads: 16
Trotterisation: 3
Num Qubits: 7
Space Dimension: 128
Run-Type: 0
Num_samples: 25
Optimiser Method: 0
1 Isomorphic
Graph 1:
1 1 0 0 0 
1 1 0 0 0 
0 1 0 0 1 
0 0 1 0 0 
0 0 1 1 0 
Graph 2:
1 1 0 0 0 
1 1 0 0 0 
0 1 0 0 1 
0 0 1 0 0 
0 0 1 1 0 
Solution: 25 0
Classic Expectation: 13.500000
Initial Expecation: 12.656250
Gbest: 21.000000
Expectation: 12.656250
Final Parameters:
Gammas:
[ 5.235988 1.047198 3.141593 ]
Betas:
[ 1.570796 1.570796 1.570796 ]
Aggregate results:
[ 25 21 19 11 9 13 17 15 23 0 ]
[ 0.007813 0.039062 0.039062 0.187500 0.054687 0.437500 0.007812 0.156250 0.007812 0.062500 ]
3
Num Evals 19
GenUC: 5.285256e-05
GenUB: 2.106791e-05
Optimisation 5.692148e-03
Total Time: 5.775301e-03
2 Flipped
Graph 1:
1 1 0 0 0 
1 1 0 0 0 
0 1 0 0 1 
0 0 1 0 0 
0 0 1 1 0 
Graph 2:
0 0 0 1 1 
0 0 0 1 1 
1 0 0 1 0 
0 0 1 0 0 
0 1 1 0 0 
Solution: 19 42
Classic Expectation: 13.300000
Initial Expecation: 12.468750
Gbest: 17.000000
Expectation: 13.868925
Final Parameters:
Gammas:
[ 0.370614 3.057939 3.172763 ]
Betas:
[ 2.676171 1.555714 1.241122 ]
Aggregate results:
[ 11 13 15 17 9 19 7 0 ]
[ 0.129733 0.300914 0.344694 0.133115 0.036935 0.040215 0.000016 0.014378 ]
3
Num Evals 1993
GenUC: 5.165255e-05
GenUB: 7.626135e-06
Optimisation 5.864961e-01
Total Time: 5.865571e-01
3 Add 5
Graph 1:
1 1 0 0 0 
1 1 0 0 0 
0 1 0 0 1 
0 0 1 0 0 
0 0 1 1 0 
Graph 2:
1 1 1 0 1 
1 1 0 0 0 
0 1 1 0 1 
0 0 1 0 0 
0 1 1 1 0 
Solution: 21 0
Classic Expectation: 12.400000
Initial Expecation: 11.625000
Gbest: 17.000000
Expectation: 11.625000
Final Parameters:
Gammas:
[ 1.047198 3.141593 1.047198 ]
Betas:
[ 1.570796 1.570796 1.570796 ]
Aggregate results:
[ 21 17 15 19 13 11 9 7 0 ]
[ 0.007813 0.039062 0.140625 0.015625 0.304687 0.296875 0.117187 0.015625 0.062500 ]
3
Num Evals 23
GenUC: 5.234592e-05
GenUB: 3.215391e-06
Optimisation 6.722213e-03
Total Time: 6.779754e-03
4 Rem 5
Graph 1:
1 1 0 0 0 
1 1 0 0 0 
0 1 0 0 1 
0 0 1 0 0 
0 0 1 1 0 
Graph 2:
1 0 0 0 0 
1 1 0 0 0 
0 0 0 0 0 
0 0 0 0 0 
0 0 1 1 0 
Solution: 21 0
Classic Expectation: 14.700000
Initial Expecation: 13.781250
Gbest: 21.000000
Expectation: 13.909241
Final Parameters:
Gammas:
[ 1.047198 3.141593 1.047198 ]
Betas:
[ 0.523599 1.570796 1.570796 ]
Aggregate results:
[ 21 19 15 13 17 11 0 ]
[ 0.007538 0.031830 0.388397 0.350830 0.139709 0.034943 0.046753 ]
3
Num Evals 35
GenUC: 5.223695e-05
GenUB: 2.970919e-06
Optimisation 1.022217e-02
Total Time: 1.027894e-02
5 Add/Rem 5
Graph 1:
1 1 0 0 0 
1 1 0 0 0 
0 1 0 0 1 
0 0 1 0 0 
0 0 1 1 0 
Graph 2:
1 1 0 0 0 
0 0 0 1 0 
1 0 1 0 1 
0 0 1 0 1 
0 1 1 1 0 
Solution: 21 8
Classic Expectation: 12.900000
Initial Expecation: 12.093750
Gbest: 17.000000
Expectation: 12.446869
Final Parameters:
Gammas:
[ 5.235988 3.839724 3.141593 ]
Betas:
[ 0.523599 1.570796 1.570796 ]
Aggregate results:
[ 17 15 19 21 13 9 11 7 0 ]
[ 0.051508 0.277117 0.023319 0.012545 0.217974 0.092257 0.271656 0.007971 0.045654 ]
3
Num Evals 85
GenUC: 5.178014e-05
GenUB: 2.929475e-06
Optimisation 2.388150e-02
Total Time: 2.393767e-02
