Clock Speed: 3.498721
Num threads: 16
Trotterisation: 1
Num Qubits: 7
Space Dimension: 128
Run-Type: 0
Num_samples: 25
Optimiser Method: 12
1 Isomorphic
Graph 1:
1 0 0 1 0 
1 1 0 1 1 
1 1 1 1 0 
0 0 0 0 0 
1 0 0 0 0 
Graph 2:
1 0 0 1 0 
1 1 0 1 1 
1 1 1 1 0 
0 0 0 0 0 
1 0 0 0 0 
Solution: 25 0
Classic Expectation: 13.000000
Initial Expecation: 12.187500
Gbest: 19.000000
Expectation: 13.367279
Final Parameters:
Gammas:
[ 3.428995 ]
Betas:
[ 1.806660 ]
Aggregate results:
[ 25 19 13 17 21 15 9 7 11 5 0 ]
[ 0.002730 0.098399 0.296726 0.108806 0.000626 0.254432 0.077278 0.033963 0.085802 0.003120 0.038117 ]
3
Num Evals 97
GenUC: 4.699035e-05
GenUB: 2.123648e-05
Optimisation 1.044155e-02
Total Time: 1.051774e-02
2 Flipped
Graph 1:
1 0 0 1 0 
1 1 0 1 1 
1 1 1 1 0 
0 0 0 0 0 
1 0 0 0 0 
Graph 2:
0 1 0 0 1 
1 1 0 1 1 
0 1 1 1 1 
0 0 0 0 0 
0 0 0 0 1 
Solution: 23 105
Classic Expectation: 13.000000
Initial Expecation: 12.187500
Gbest: 17.000000
Expectation: 12.480827
Final Parameters:
Gammas:
[ 4.063087 ]
Betas:
[ 1.884373 ]
Aggregate results:
[ 17 19 9 11 15 13 7 23 0 ]
[ 0.133471 0.038707 0.086756 0.251803 0.160441 0.200874 0.041265 0.026910 0.059774 ]
3
Num Evals 83
GenUC: 5.107047e-05
GenUB: 1.015561e-05
Optimisation 9.013823e-03
Total Time: 9.076743e-03
3 Add 5
Graph 1:
1 0 0 1 0 
1 1 0 1 1 
1 1 1 1 0 
0 0 0 0 0 
1 0 0 0 0 
Graph 2:
1 0 1 1 0 
1 1 0 1 1 
1 1 1 1 0 
0 0 1 0 1 
1 0 0 0 0 
Solution: 22 0
Classic Expectation: 12.400000
Initial Expecation: 11.625000
Gbest: 22.000000
Expectation: 11.980786
Final Parameters:
Gammas:
[ 4.075004 ]
Betas:
[ 2.000190 ]
Aggregate results:
[ 22 16 14 12 18 8 10 4 6 0 ]
[ 0.015171 0.132516 0.257903 0.284197 0.016230 0.046014 0.164933 0.007605 0.027625 0.047805 ]
3
Num Evals 62
GenUC: 5.194824e-05
GenUB: 7.647090e-06
Optimisation 6.994155e-03
Total Time: 7.055112e-03
4 Rem 5
Graph 1:
1 0 0 1 0 
1 1 0 1 1 
1 1 1 1 0 
0 0 0 0 0 
1 0 0 0 0 
Graph 2:
1 0 0 0 0 
1 0 0 1 1 
0 1 0 0 0 
0 0 0 0 0 
1 0 0 0 0 
Solution: 20 0
Classic Expectation: 13.200000
Initial Expecation: 12.375000
Gbest: 18.000000
Expectation: 12.564097
Final Parameters:
Gammas:
[ 3.256615 ]
Betas:
[ 1.804287 ]
Aggregate results:
[ 20 18 16 14 12 10 8 0 ]
[ 0.006465 0.025275 0.121351 0.351105 0.330783 0.111124 0.005263 0.048632 ]
3
Num Evals 103
GenUC: 5.150028e-05
GenUB: 7.329509e-06
Optimisation 1.114947e-02
Total Time: 1.121083e-02
5 Add/Rem 5
Graph 1:
1 0 0 1 0 
1 1 0 1 1 
1 1 1 1 0 
0 0 0 0 0 
1 0 0 0 0 
Graph 2:
1 0 0 1 0 
0 0 1 1 1 
1 0 1 1 1 
0 1 1 0 0 
0 0 0 1 0 
Solution: 18 6
Classic Expectation: 12.400000
Initial Expecation: 11.625000
Gbest: 16.000000
Expectation: 11.913459
Final Parameters:
Gammas:
[ 3.278916 ]
Betas:
[ 1.786205 ]
Aggregate results:
[ 16 14 12 8 18 10 6 4 0 ]
[ 0.106336 0.273806 0.256879 0.040899 0.033912 0.233247 0.002262 0.003151 0.049508 ]
3
Num Evals 93
GenUC: 5.116966e-05
GenUB: 1.010764e-05
Optimisation 9.949354e-03
Total Time: 1.001186e-02
