Clock Speed: 3.498727
Num threads: 16
Trotterisation: 1
Num Qubits: 16
Space Dimension: 65536
Run-Type: 0
Num_samples: 64
Optimiser Method: 12
1 Isomorphic
Graph 1:
1 0 0 1 1 1 1 0 
1 1 1 0 1 0 0 0 
0 0 1 1 1 1 0 1 
1 1 0 1 1 0 1 1 
1 0 0 1 0 0 1 0 
0 1 0 1 1 1 0 1 
1 1 1 1 1 1 0 0 
1 0 1 1 1 1 0 1 
Graph 2:
1 0 0 1 1 1 1 0 
1 1 1 0 1 0 0 0 
0 0 1 1 1 1 0 1 
1 1 0 1 1 0 1 1 
1 0 0 1 0 0 1 0 
0 1 0 1 1 1 0 1 
1 1 1 1 1 1 0 0 
1 0 1 1 1 1 0 1 
Solution: 64 0
Classic Expectation: 34.285714
Initial Expecation: 21.093750
Gbest: 44.000000
Expectation: 23.507875
Final Parameters:
Gammas:
[ 2.642184 ]
Betas:
[ 0.706252 ]
Aggregate results:
[ 64 52 46 44 48 42 38 50 40 56 36 34 32 30 26 28 54 24 22 20 0 ]
[ 0.000011 0.000150 0.003315 0.008617 0.001612 0.018507 0.078717 0.000444 0.042243 0.000079 0.116468 0.146692 0.131512 0.080900 0.014530 0.040349 0.000024 0.002675 0.000595 0.000177 0.312382 ]
3
Num Evals 100
GenUC: 1.893565e-02
GenUB: 1.311353e-02
Optimisation 6.304948e+00
Total Time: 6.337011e+00
2 Flipped
Graph 1:
1 0 0 1 1 1 1 0 
1 1 1 0 1 0 0 0 
0 0 1 1 1 1 0 1 
1 1 0 1 1 0 1 1 
1 0 0 1 0 0 1 0 
0 1 0 1 1 1 0 1 
1 1 1 1 1 1 0 0 
1 0 1 1 1 1 0 1 
Graph 2:
0 1 1 1 1 0 0 1 
0 0 0 1 0 1 1 1 
1 0 1 1 1 1 0 0 
1 1 0 1 1 0 1 1 
0 1 0 0 1 0 0 1 
1 0 1 1 1 0 1 0 
0 0 1 1 1 1 1 1 
1 0 1 1 1 1 0 1 
Solution: 50 39905
Classic Expectation: 34.000000
Initial Expecation: 20.917969
Gbest: 42.000000
Expectation: 22.745437
Final Parameters:
Gammas:
[ 2.361735 ]
Betas:
[ 0.764233 ]
Aggregate results:
[ 32 38 36 30 40 34 28 26 24 22 42 44 20 46 48 50 0 ]
[ 0.120431 0.079234 0.122289 0.084428 0.041750 0.136400 0.042454 0.015755 0.004600 0.000818 0.016047 0.003936 0.000098 0.001099 0.000236 0.000005 0.330422 ]
3
Num Evals 89
GenUC: 2.278052e-02
GenUB: 1.307745e-02
Optimisation 5.808535e+00
Total Time: 5.844397e+00
3 Add 8
Graph 1:
1 0 0 1 1 1 1 0 
1 1 1 0 1 0 0 0 
0 0 1 1 1 1 0 1 
1 1 0 1 1 0 1 1 
1 0 0 1 0 0 1 0 
0 1 0 1 1 1 0 1 
1 1 1 1 1 1 0 0 
1 0 1 1 1 1 0 1 
Graph 2:
1 0 1 1 1 1 1 0 
1 1 1 1 1 0 1 0 
0 0 1 1 1 1 0 1 
1 1 0 1 1 0 1 1 
1 0 1 1 0 0 1 0 
0 1 0 1 1 1 0 1 
1 1 1 1 1 1 1 0 
1 0 1 1 1 1 1 1 
Solution: 58 0
Classic Expectation: 35.857143
Initial Expecation: 22.060547
Gbest: 42.000000
Expectation: 24.001013
Final Parameters:
Gammas:
[ 2.339776 ]
Betas:
[ 2.405729 ]
Aggregate results:
[ 58 48 44 42 46 40 38 36 50 52 34 32 30 28 26 24 56 0 ]
[ 0.000009 0.001086 0.015162 0.035992 0.005279 0.070507 0.116632 0.140417 0.000463 0.000085 0.135650 0.088507 0.044243 0.013019 0.001986 0.000139 0.000014 0.330811 ]
3
Num Evals 92
GenUC: 2.281557e-02
GenUB: 1.311818e-02
Optimisation 1.084485e+01
Total Time: 1.088079e+01
4 Rem 8
Graph 1:
1 0 0 1 1 1 1 0 
1 1 1 0 1 0 0 0 
0 0 1 1 1 1 0 1 
1 1 0 1 1 0 1 1 
1 0 0 1 0 0 1 0 
0 1 0 1 1 1 0 1 
1 1 1 1 1 1 0 0 
1 0 1 1 1 1 0 1 
Graph 2:
1 0 0 0 1 1 1 0 
1 0 1 0 1 0 0 0 
0 0 0 1 1 1 0 1 
1 1 0 1 1 0 1 1 
1 0 0 0 0 0 1 0 
0 1 0 1 1 1 0 1 
1 0 1 0 1 0 0 0 
1 0 1 0 1 1 0 1 
Solution: 56 0
Classic Expectation: 32.000000
Initial Expecation: 19.687500
Gbest: 42.000000
Expectation: 23.024810
Final Parameters:
Gammas:
[ 2.811632 ]
Betas:
[ 0.645765 ]
Aggregate results:
[ 56 46 40 36 38 34 32 48 30 42 44 50 28 24 26 22 20 52 18 16 0 ]
[ 0.000004 0.000720 0.022413 0.083038 0.047875 0.118657 0.139445 0.000228 0.126373 0.008623 0.003100 0.000009 0.091470 0.021346 0.048625 0.005564 0.001290 0.000006 0.000106 0.000029 0.281079 ]
3
Num Evals 124
GenUC: 2.280121e-02
GenUB: 1.304522e-02
Optimisation 7.744359e+00
Total Time: 7.780210e+00
5 Add/Rem 8
Graph 1:
1 0 0 1 1 1 1 0 
1 1 1 0 1 0 0 0 
0 0 1 1 1 1 0 1 
1 1 0 1 1 0 1 1 
1 0 0 1 0 0 1 0 
0 1 0 1 1 1 0 1 
1 1 1 1 1 1 0 0 
1 0 1 1 1 1 0 1 
Graph 2:
1 0 1 0 1 1 0 0 
1 1 1 1 1 0 0 0 
0 0 1 0 0 1 1 1 
1 1 0 1 1 0 0 1 
1 0 0 1 1 0 1 0 
1 1 0 0 1 0 1 1 
1 1 1 1 1 1 0 0 
1 0 1 1 1 0 0 1 
Solution: 52 21048
Classic Expectation: 33.857143
Initial Expecation: 20.830078
Gbest: 46.000000
Expectation: 22.629068
Final Parameters:
Gammas:
[ 1.546279 ]
Betas:
[ 0.755375 ]
Aggregate results:
[ 50 44 40 42 38 34 36 46 32 30 28 26 24 48 22 52 20 0 ]
[ 0.000092 0.005187 0.036735 0.016742 0.074200 0.139877 0.112948 0.001365 0.127886 0.087356 0.046199 0.015946 0.003122 0.000297 0.000332 0.000006 0.000071 0.331641 ]
3
Num Evals 72
GenUC: 2.280786e-02
GenUB: 1.305722e-02
Optimisation 4.757307e+00
Total Time: 4.793176e+00
