Clock Speed: 3.688937
Num threads: 4
Trotterisation: 1
Num Qubits: 5
Space Dimension: 32
Run-Type: 0
Num_samples: 6399
Optimiser Method: 28
1 Isomorphic
Graph 1:
1 1 1 0 
1 1 0 1 
0 1 0 1 
0 0 1 1 
Graph 2:
1 1 1 0 
1 1 0 1 
0 1 0 1 
0 0 1 1 
Solution: 16 0
Classic Expectation: 8.666667
Initial Expecation: 6.500000
Gbest: 16.000000
Expectation: 7.992781
Final Parameters:
Gammas:
[ 5.157418 ]
Betas:
[ 2.092699 ]
Aggregate results:
[ 16 8 10 12 6 0 ]
[ 0.073826 0.317098 0.083719 0.174529 0.223873 0.126954 ]
3
Num Evals 77
GenUC: 8.609513e-06
GenUB: 8.617728e-06
Optimisation 7.990904e-03
Total Time: 8.026059e-03
2 Flipped
Graph 1:
1 1 1 0 
1 1 0 1 
0 1 0 1 
0 0 1 1 
Graph 2:
0 1 1 1 
1 0 1 1 
1 0 1 0 
1 1 0 0 
Solution: 12 20
Classic Expectation: 8.000000
Initial Expecation: 6.000000
Gbest: 12.000000
Expectation: 6.972858
Final Parameters:
Gammas:
[ 3.869437 ]
Betas:
[ 2.384415 ]
Aggregate results:
[ 4 8 10 6 12 0 ]
[ 0.027588 0.405652 0.169819 0.172254 0.073799 0.150889 ]
3
Num Evals 66
GenUC: 8.933450e-06
GenUB: 1.616154e-06
Optimisation 7.038899e-03
Total Time: 7.051008e-03
3 Add 4
Graph 1:
1 1 1 0 
1 1 0 1 
0 1 0 1 
0 0 1 1 
Graph 2:
1 1 1 0 
1 1 1 1 
0 1 0 1 
1 0 1 1 
Solution: 14 0
Classic Expectation: 9.000000
Initial Expecation: 6.750000
Gbest: 14.000000
Expectation: 9.539488
Final Parameters:
Gammas:
[ 6.091906 ]
Betas:
[ 2.619701 ]
Aggregate results:
[ 14 8 6 10 12 0 ]
[ 0.089841 0.251048 0.068726 0.293408 0.243908 0.053069 ]
3
Num Evals 71
GenUC: 9.185791e-06
GenUB: 1.325083e-06
Optimisation 8.845411e-03
Total Time: 8.857439e-03
4 Rem 4
Graph 1:
1 1 1 0 
1 1 0 1 
0 1 0 1 
0 0 1 1 
Graph 2:
0 1 0 0 
0 0 0 1 
0 1 0 1 
0 0 1 1 
Solution: 12 0
Classic Expectation: 7.333333
Initial Expecation: 5.500000
Gbest: 12.000000
Expectation: 8.019754
Final Parameters:
Gammas:
[ 6.064007 ]
Betas:
[ 2.593878 ]
Aggregate results:
[ 12 6 8 10 4 0 ]
[ 0.214040 0.220022 0.317336 0.137189 0.055141 0.056272 ]
3
Num Evals 66
GenUC: 8.863030e-06
GenUB: 1.016990e-06
Optimisation 7.587787e-03
Total Time: 7.598999e-03
5 Add/Rem 4
Graph 1:
1 1 1 0 
1 1 0 1 
0 1 0 1 
0 0 1 1 
Graph 2:
0 1 1 0 
0 1 1 1 
0 0 1 1 
1 1 1 0 
Solution: 12 7
Classic Expectation: 8.333333
Initial Expecation: 6.250000
Gbest: 12.000000
Expectation: 8.452067
Final Parameters:
Gammas:
[ 3.341146 ]
Betas:
[ 0.875759 ]
Aggregate results:
[ 8 10 6 12 4 0 ]
[ 0.397455 0.218552 0.190695 0.157716 0.012536 0.023046 ]
3
Num Evals 80
GenUC: 8.471605e-06
GenUB: 8.990355e-07
Optimisation 6.237096e-03
Total Time: 6.247714e-03
