Clock Speed: 3.689255
Num threads: 4
Trotterisation: 4
Num Qubits: 7
Space Dimension: 128
Run-Type: 0
Num_samples: 15624
Optimiser Method: 0
1 Isomorphic
Graph 1:
1 0 1 1 1 
0 1 0 1 1 
0 1 0 1 1 
1 0 0 0 0 
1 1 1 1 1 
Graph 2:
1 0 1 1 1 
0 1 0 1 1 
0 1 0 1 1 
1 0 0 0 0 
1 1 1 1 1 
Solution: 25 0
Classic Expectation: 13.500000
Initial Expecation: 12.656250
Gbest: 25.000000
Expectation: 14.242921
Final Parameters:
Gammas:
[ 5.231732 3.180376 5.338619 3.111432 ]
Betas:
[ 1.616049 1.861682 1.641905 0.568845 ]
Aggregate results:
[ 25 17 15 13 19 11 9 0 ]
[ 0.003068 0.078939 0.337821 0.257658 0.131990 0.146446 0.032075 0.012003 ]
3
Num Evals 2017
GenUC: 4.132511e-05
GenUB: 1.328718e-05
Optimisation 1.095775e+00
Total Time: 1.095859e+00
2 Flipped
Graph 1:
1 0 1 1 1 
0 1 0 1 1 
0 1 0 1 1 
1 0 0 0 0 
1 1 1 1 1 
Graph 2:
1 1 1 0 1 
1 1 0 1 0 
1 1 0 1 0 
0 0 0 0 1 
1 1 1 1 1 
Solution: 23 105
Classic Expectation: 13.500000
Initial Expecation: 12.656250
Gbest: 23.000000
Expectation: 12.656250
Final Parameters:
Gammas:
[ 5.235988 5.235988 3.141593 3.141593 ]
Betas:
[ 1.570796 1.570796 1.570796 1.570796 ]
Aggregate results:
[ 17 11 15 13 7 19 9 23 0 ]
[ 0.101562 0.171875 0.265625 0.289062 0.015625 0.023437 0.062500 0.007812 0.062500 ]
3
Num Evals 21
GenUC: 4.717475e-05
GenUB: 3.041583e-06
Optimisation 1.141940e-02
Total Time: 1.147236e-02
3 Add 5
Graph 1:
1 0 1 1 1 
0 1 0 1 1 
0 1 0 1 1 
1 0 0 0 0 
1 1 1 1 1 
Graph 2:
1 0 1 1 1 
1 1 0 1 1 
1 1 0 1 1 
1 1 1 1 0 
1 1 1 1 1 
Solution: 20 0
Classic Expectation: 14.900000
Initial Expecation: 13.968750
Gbest: 20.000000
Expectation: 13.968750
Final Parameters:
Gammas:
[ 3.141593 1.047198 3.141593 3.141593 ]
Betas:
[ 0.523599 1.570796 1.570796 1.570796 ]
Aggregate results:
[ 20 18 16 14 12 0 ]
[ 0.007813 0.078125 0.375000 0.343750 0.132812 0.062500 ]
3
Num Evals 33
GenUC: 4.681735e-05
GenUB: 2.494082e-06
Optimisation 1.767603e-02
Total Time: 1.772722e-02
4 Rem 5
Graph 1:
1 0 1 1 1 
0 1 0 1 1 
0 1 0 1 1 
1 0 0 0 0 
1 1 1 1 1 
Graph 2:
0 0 1 1 1 
0 0 0 0 0 
0 1 0 1 1 
1 0 0 0 0 
1 1 1 0 1 
Solution: 20 0
Classic Expectation: 12.200000
Initial Expecation: 11.437500
Gbest: 20.000000
Expectation: 11.437500
Final Parameters:
Gammas:
[ 3.141593 1.047198 3.141593 3.141593 ]
Betas:
[ 0.523599 1.570796 1.570796 1.570796 ]
Aggregate results:
[ 20 14 12 10 16 8 6 4 18 0 ]
[ 0.007813 0.250000 0.281250 0.195313 0.101562 0.070313 0.015625 0.007812 0.007812 0.062500 ]
3
Num Evals 31
GenUC: 4.675513e-05
GenUB: 2.367888e-06
Optimisation 1.684800e-02
Total Time: 1.689891e-02
5 Add/Rem 5
Graph 1:
1 0 1 1 1 
0 1 0 1 1 
0 1 0 1 1 
1 0 0 0 0 
1 1 1 1 1 
Graph 2:
1 0 0 1 1 
1 1 1 1 0 
1 0 1 1 1 
0 0 0 0 0 
1 0 1 1 1 
Solution: 20 24
Classic Expectation: 13.100000
Initial Expecation: 12.281250
Gbest: 20.000000
Expectation: 12.281250
Final Parameters:
Gammas:
[ 3.141593 5.235988 3.141593 3.141593 ]
Betas:
[ 0.523599 1.570796 1.570796 1.570796 ]
Aggregate results:
[ 16 10 14 12 18 8 20 6 0 ]
[ 0.078125 0.179687 0.195312 0.335938 0.101563 0.015625 0.023437 0.007813 0.062500 ]
3
Num Evals 29
GenUC: 4.692707e-05
GenUB: 2.369634e-06
Optimisation 1.562185e-02
Total Time: 1.567314e-02
