Clock Speed: 3.688500
Num threads: 4
Trotterisation: 4
Num Qubits: 7
Space Dimension: 128
Run-Type: 0
Num_samples: 15624
Optimiser Method: 0
1 Isomorphic
Graph 1:
0 1 1 1 1 
0 0 0 0 0 
0 0 0 0 0 
0 0 1 0 1 
1 1 1 1 1 
Graph 2:
0 1 1 1 1 
0 0 0 0 0 
0 0 0 0 0 
0 0 1 0 1 
1 1 1 1 1 
Solution: 25 0
Classic Expectation: 13.400000
Initial Expecation: 12.562500
Gbest: 25.000000
Expectation: 12.633911
Final Parameters:
Gammas:
[ 5.235988 3.141593 3.141593 3.141593 ]
Betas:
[ 1.570796 1.570796 1.570796 0.523599 ]
Aggregate results:
[ 25 19 21 15 23 13 11 17 7 5 3 0 ]
[ 0.017797 0.093050 0.062407 0.211334 0.023359 0.090982 0.183460 0.070112 0.132601 0.011974 0.007463 0.095459 ]
3
Num Evals 23
GenUC: 4.115963e-05
GenUB: 1.482759e-05
Optimisation 7.222426e-02
Total Time: 7.230847e-02
2 Flipped
Graph 1:
0 1 1 1 1 
0 0 0 0 0 
0 0 0 0 0 
0 0 1 0 1 
1 1 1 1 1 
Graph 2:
1 1 1 1 0 
0 0 0 0 0 
0 0 0 0 0 
1 0 1 0 0 
1 1 1 1 1 
Solution: 23 105
Classic Expectation: 12.800000
Initial Expecation: 12.000000
Gbest: 23.000000
Expectation: 14.571133
Final Parameters:
Gammas:
[ 3.143029 3.183251 3.102808 3.053967 ]
Betas:
[ 1.628974 2.908882 1.628974 2.792527 ]
Aggregate results:
[ 21 17 19 13 11 9 15 7 5 3 23 0 ]
[ 0.039471 0.070305 0.226294 0.133733 0.121044 0.036784 0.257779 0.068048 0.006851 0.001461 0.020206 0.018024 ]
3
Num Evals 1597
GenUC: 4.443649e-05
GenUB: 3.004621e-06
Optimisation 1.136317e+00
Total Time: 1.136367e+00
3 Add 5
Graph 1:
0 1 1 1 1 
0 0 0 0 0 
0 0 0 0 0 
0 0 1 0 1 
1 1 1 1 1 
Graph 2:
0 1 1 1 1 
0 0 0 0 1 
1 0 1 0 0 
1 0 1 1 1 
1 1 1 1 1 
Solution: 20 0
Classic Expectation: 12.200000
Initial Expecation: 11.437500
Gbest: 20.000000
Expectation: 11.437500
Final Parameters:
Gammas:
[ 3.141593 5.235988 3.141593 3.141593 ]
Betas:
[ 0.523599 1.570796 1.570796 1.570796 ]
Aggregate results:
[ 20 18 16 14 12 10 8 6 4 0 ]
[ 0.007812 0.078125 0.093750 0.195312 0.242188 0.156250 0.109375 0.039062 0.015625 0.062500 ]
3
Num Evals 23
GenUC: 4.469405e-05
GenUB: 2.788031e-06
Optimisation 1.230456e-02
Total Time: 1.235509e-02
4 Rem 5
Graph 1:
0 1 1 1 1 
0 0 0 0 0 
0 0 0 0 0 
0 0 1 0 1 
1 1 1 1 1 
Graph 2:
0 1 1 0 1 
0 0 0 0 0 
0 0 0 0 0 
0 0 1 0 0 
0 1 0 1 0 
Solution: 20 0
Classic Expectation: 14.000000
Initial Expecation: 13.125000
Gbest: 20.000000
Expectation: 13.125000
Final Parameters:
Gammas:
[ 3.141593 5.235988 3.141593 3.141593 ]
Betas:
[ 0.523599 1.570796 1.570796 1.570796 ]
Aggregate results:
[ 20 18 16 14 12 10 8 0 ]
[ 0.023438 0.117187 0.195313 0.265625 0.195313 0.117188 0.023437 0.062500 ]
3
Num Evals 29
GenUC: 4.461897e-05
GenUB: 2.391345e-06
Optimisation 1.583642e-02
Total Time: 1.588523e-02
5 Add/Rem 5
Graph 1:
0 1 1 1 1 
0 0 0 0 0 
0 0 0 0 0 
0 0 1 0 1 
1 1 1 1 1 
Graph 2:
0 1 0 1 0 
1 0 1 0 0 
0 0 0 1 0 
0 0 0 1 1 
1 0 1 1 0 
Solution: 18 110
Classic Expectation: 13.400000
Initial Expecation: 12.562500
Gbest: 18.000000
Expectation: 13.118225
Final Parameters:
Gammas:
[ 5.235988 1.047198 3.141593 3.141593 ]
Betas:
[ 2.617994 1.570796 1.570796 1.570796 ]
Aggregate results:
[ 16 14 12 10 8 18 0 ]
[ 0.246996 0.344025 0.286400 0.073153 0.000494 0.009871 0.039062 ]
3
Num Evals 27
GenUC: 4.429329e-05
GenUB: 2.232904e-06
Optimisation 1.471944e-02
Total Time: 1.476772e-02
