Clock Speed: 3.688888
Num threads: 4
Trotterisation: 4
Num Qubits: 7
Space Dimension: 128
Run-Type: 0
Num_samples: 15624
Optimiser Method: 0
1 Isomorphic
Graph 1:
0 1 1 1 1 
1 0 0 1 1 
1 0 0 0 0 
1 0 1 1 0 
0 1 1 1 0 
Graph 2:
0 1 1 1 1 
1 0 0 1 1 
1 0 0 0 0 
1 0 1 1 0 
0 1 1 1 0 
Solution: 25 0
Classic Expectation: 14.300000
Initial Expecation: 13.406250
Gbest: 25.000000
Expectation: 14.492203
Final Parameters:
Gammas:
[ 3.141593 5.235988 3.141593 3.141593 ]
Betas:
[ 1.570796 1.570796 1.570796 0.523599 ]
Aggregate results:
[ 25 17 19 13 15 21 11 9 0 ]
[ 0.028898 0.217302 0.031128 0.304621 0.265137 0.015177 0.069611 0.051403 0.016724 ]
3
Num Evals 45
GenUC: 4.111032e-05
GenUB: 1.444144e-05
Optimisation 2.499548e-02
Total Time: 2.507146e-02
2 Flipped
Graph 1:
0 1 1 1 1 
1 0 0 1 1 
1 0 0 0 0 
1 0 1 1 0 
0 1 1 1 0 
Graph 2:
1 1 1 1 0 
1 1 0 0 1 
0 0 0 0 1 
0 1 1 0 1 
0 1 1 1 0 
Solution: 19 105
Classic Expectation: 13.400000
Initial Expecation: 12.562500
Gbest: 19.000000
Expectation: 13.833416
Final Parameters:
Gammas:
[ 3.232085 1.060120 5.249088 3.352774 ]
Betas:
[ 2.016834 1.758249 1.667762 0.698123 ]
Aggregate results:
[ 15 13 11 9 7 17 19 0 ]
[ 0.327949 0.281967 0.142267 0.027211 0.003833 0.123572 0.069011 0.024189 ]
3
Num Evals 2681
GenUC: 4.442711e-05
GenUB: 2.795074e-06
Optimisation 1.463553e+00
Total Time: 1.463602e+00
3 Add 5
Graph 1:
0 1 1 1 1 
1 0 0 1 1 
1 0 0 0 0 
1 0 1 1 0 
0 1 1 1 0 
Graph 2:
1 1 1 1 1 
1 0 1 1 1 
1 0 0 0 0 
1 0 1 1 0 
1 1 1 1 1 
Solution: 21 0
Classic Expectation: 13.700000
Initial Expecation: 12.843750
Gbest: 21.000000
Expectation: 13.147591
Final Parameters:
Gammas:
[ 5.235988 3.141593 3.141593 3.141593 ]
Betas:
[ 1.570796 1.570796 1.570796 0.523599 ]
Aggregate results:
[ 21 17 15 13 11 9 0 ]
[ 0.004501 0.107208 0.311394 0.384602 0.118366 0.028641 0.045288 ]
3
Num Evals 23
GenUC: 4.526280e-05
GenUB: 2.708286e-06
Optimisation 1.261257e-02
Total Time: 1.266299e-02
4 Rem 5
Graph 1:
0 1 1 1 1 
1 0 0 1 1 
1 0 0 0 0 
1 0 1 1 0 
0 1 1 1 0 
Graph 2:
0 1 1 0 1 
1 0 0 0 1 
0 0 0 0 0 
0 0 1 1 0 
0 0 1 1 0 
Solution: 20 0
Classic Expectation: 12.800000
Initial Expecation: 12.000000
Gbest: 20.000000
Expectation: 12.508105
Final Parameters:
Gammas:
[ 1.047198 5.235988 0.349066 3.141593 ]
Betas:
[ 0.174533 2.617994 1.570796 1.570796 ]
Aggregate results:
[ 20 16 14 12 18 10 8 0 ]
[ 0.007046 0.124163 0.254757 0.332697 0.049703 0.153371 0.049154 0.029108 ]
3
Num Evals 215
GenUC: 4.449522e-05
GenUB: 2.320390e-06
Optimisation 1.169825e-01
Total Time: 1.170309e-01
5 Add/Rem 5
Graph 1:
0 1 1 1 1 
1 0 0 1 1 
1 0 0 0 0 
1 0 1 1 0 
0 1 1 1 0 
Graph 2:
1 1 1 0 0 
1 0 0 0 1 
1 0 0 0 1 
0 0 1 1 0 
0 1 1 1 1 
Solution: 18 0
Classic Expectation: 12.200000
Initial Expecation: 11.437500
Gbest: 18.000000
Expectation: 11.437500
Final Parameters:
Gammas:
[ 3.141593 5.235988 3.141593 3.141593 ]
Betas:
[ 0.523599 1.570796 1.570796 1.570796 ]
Aggregate results:
[ 18 14 12 10 8 16 6 0 ]
[ 0.031250 0.195313 0.367188 0.195313 0.054687 0.078125 0.015625 0.062500 ]
3
Num Evals 27
GenUC: 4.452572e-05
GenUB: 2.581510e-06
Optimisation 1.469486e-02
Total Time: 1.474373e-02
