Clock Speed: 3.498619
Num threads: 16
Trotterisation: 4
Num Qubits: 7
Space Dimension: 128
Run-Type: 0
Num_samples: 25
Optimiser Method: 0
1 Isomorphic
Graph 1:
1 0 1 1 1 
0 0 1 0 1 
1 1 0 1 1 
1 0 1 0 1 
0 0 1 1 1 
Graph 2:
1 0 1 1 1 
0 0 1 0 1 
1 1 0 1 1 
1 0 1 0 1 
0 0 1 1 1 
Solution: 25 0
Classic Expectation: 14.200000
Initial Expecation: 13.312500
Gbest: 19.000000
Expectation: 13.753601
Final Parameters:
Gammas:
[ 1.047198 5.235988 3.141593 3.141593 ]
Betas:
[ 1.570796 1.570796 1.570796 0.523599 ]
Aggregate results:
[ 25 19 21 17 15 11 13 9 0 ]
[ 0.006416 0.068077 0.026848 0.165459 0.208313 0.289345 0.200294 0.001312 0.033936 ]
3
Num Evals 27
GenUC: 1.347284e-04
GenUB: 5.342765e-05
Optimisation 1.074651e-02
Total Time: 1.095709e-02
2 Flipped
Graph 1:
1 0 1 1 1 
0 0 1 0 1 
1 1 0 1 1 
1 0 1 0 1 
0 0 1 1 1 
Graph 2:
1 1 1 0 1 
1 0 1 0 0 
1 1 0 1 1 
1 0 1 0 1 
1 1 1 0 0 
Solution: 21 14
Classic Expectation: 14.800000
Initial Expecation: 13.875000
Gbest: 19.000000
Expectation: 14.306168
Final Parameters:
Gammas:
[ 5.235988 3.141593 3.141593 3.141593 ]
Betas:
[ 1.570796 1.570796 1.570796 2.617994 ]
Aggregate results:
[ 17 13 15 21 19 11 0 ]
[ 0.203087 0.236984 0.253204 0.047890 0.071474 0.146467 0.040894 ]
3
Num Evals 23
GenUC: 5.143601e-05
GenUB: 6.106682e-06
Optimisation 8.814129e-03
Total Time: 8.873434e-03
3 Add 5
Graph 1:
1 0 1 1 1 
0 0 1 0 1 
1 1 0 1 1 
1 0 1 0 1 
0 0 1 1 1 
Graph 2:
1 1 1 1 1 
0 1 1 0 1 
1 1 0 1 1 
1 1 1 1 1 
0 0 1 1 1 
Solution: 21 0
Classic Expectation: 14.600000
Initial Expecation: 13.687500
Gbest: 17.000000
Expectation: 14.707961
Final Parameters:
Gammas:
[ 1.055302 5.240297 3.150490 3.138633 ]
Betas:
[ 1.628973 1.525548 1.745329 2.232297 ]
Aggregate results:
[ 21 17 19 15 13 11 0 ]
[ 0.006137 0.259180 0.034905 0.363395 0.281343 0.036495 0.018545 ]
3
Num Evals 1685
GenUC: 5.239155e-05
GenUB: 5.810056e-06
Optimisation 6.731989e-01
Total Time: 6.732588e-01
4 Rem 5
Graph 1:
1 0 1 1 1 
0 0 1 0 1 
1 1 0 1 1 
1 0 1 0 1 
0 0 1 1 1 
Graph 2:
1 0 1 0 1 
0 0 1 0 1 
0 1 0 1 1 
0 0 0 0 1 
0 0 1 0 1 
Solution: 20 0
Classic Expectation: 12.200000
Initial Expecation: 11.437500
Gbest: 20.000000
Expectation: 11.437500
Final Parameters:
Gammas:
[ 3.141593 1.047198 3.141593 3.141593 ]
Betas:
[ 0.523599 1.570796 1.570796 1.570796 ]
Aggregate results:
[ 20 16 14 12 10 18 8 6 0 ]
[ 0.015625 0.109375 0.195313 0.242187 0.187500 0.039063 0.132813 0.015625 0.062500 ]
3
Num Evals 21
GenUC: 5.250378e-05
GenUB: 3.150664e-06
Optimisation 8.046414e-03
Total Time: 8.103897e-03
5 Add/Rem 5
Graph 1:
1 0 1 1 1 
0 0 1 0 1 
1 1 0 1 1 
1 0 1 0 1 
0 0 1 1 1 
Graph 2:
0 1 0 1 1 
0 0 1 0 0 
1 1 1 1 1 
0 0 1 1 1 
1 1 1 1 0 
Solution: 19 1
Classic Expectation: 14.200000
Initial Expecation: 13.312500
Gbest: 19.000000
Expectation: 13.573368
Final Parameters:
Gammas:
[ 1.047198 5.235988 3.141593 3.141593 ]
Betas:
[ 1.570796 1.570796 1.570796 2.617994 ]
Aggregate results:
[ 15 19 11 17 13 9 0 ]
[ 0.378111 0.047464 0.071741 0.150476 0.272852 0.011728 0.067627 ]
3
Num Evals 53
GenUC: 5.151145e-05
GenUB: 2.946239e-06
Optimisation 2.069799e-02
Total Time: 2.075396e-02
