Clock Speed: 3.688348
Num threads: 4
Trotterisation: 2
Num Qubits: 10
Space Dimension: 1024
Run-Type: 0
Num_samples: 32399
Optimiser Method: 28
1 Isomorphic
Graph 1:
1 1 1 0 0 1 
1 1 0 0 1 1 
0 0 0 0 0 0 
0 0 1 0 0 0 
0 1 0 1 0 0 
1 0 1 1 0 1 
Graph 2:
1 1 1 0 0 1 
1 1 0 0 1 1 
0 0 0 0 0 0 
0 0 1 0 0 0 
0 1 0 1 0 0 
1 0 1 1 0 1 
Solution: 36 0
Classic Expectation: 18.600000
Initial Expecation: 13.078125
Gbest: 36.000000
Expectation: 14.105343
Final Parameters:
Gammas:
[ 4.349503 3.902188 ]
Betas:
[ 2.236349 1.248900 ]
Aggregate results:
[ 36 26 20 24 30 22 14 16 18 12 10 28 32 0 ]
[ 0.000530 0.019096 0.143941 0.066074 0.000015 0.101369 0.088953 0.105773 0.182540 0.030478 0.004888 0.007577 0.001387 0.247379 ]
3
Num Evals 396
GenUC: 2.888630e-04
GenUB: 8.984731e-05
Optimisation 5.485620e-01
Total Time: 5.489608e-01
2 Flipped
Graph 1:
1 1 1 0 0 1 
1 1 0 0 1 1 
0 0 0 0 0 0 
0 0 1 0 0 0 
0 1 0 1 0 0 
1 0 1 1 0 1 
Graph 2:
1 0 0 1 1 1 
1 1 0 0 1 1 
0 0 0 0 0 0 
0 0 0 1 0 0 
0 0 1 0 1 0 
1 0 1 1 0 1 
Solution: 30 6
Classic Expectation: 19.000000
Initial Expecation: 13.359375
Gbest: 30.000000
Expectation: 13.812622
Final Parameters:
Gammas:
[ 4.928932 4.564264 ]
Betas:
[ 1.864271 2.298999 ]
Aggregate results:
[ 26 24 20 22 30 16 18 14 12 28 0 ]
[ 0.022334 0.061697 0.152204 0.103340 0.000140 0.151104 0.176328 0.053374 0.006489 0.000455 0.272534 ]
3
Num Evals 248
GenUC: 2.794742e-04
GenUB: 5.008901e-05
Optimisation 3.544123e-01
Total Time: 3.547438e-01
3 Add 6
Graph 1:
1 1 1 0 0 1 
1 1 0 0 1 1 
0 0 0 0 0 0 
0 0 1 0 0 0 
0 1 0 1 0 0 
1 0 1 1 0 1 
Graph 2:
1 1 1 0 0 1 
1 1 0 0 1 1 
1 0 1 0 0 0 
1 0 1 1 0 0 
0 1 0 1 0 0 
1 0 1 1 1 1 
Solution: 31 0
Classic Expectation: 18.000000
Initial Expecation: 12.656250
Gbest: 31.000000
Expectation: 15.853456
Final Parameters:
Gammas:
[ 6.024012 6.068449 ]
Betas:
[ 2.321143 1.313085 ]
Aggregate results:
[ 31 21 23 15 25 17 19 13 9 11 27 0 ]
[ 0.001019 0.146256 0.059470 0.138941 0.018418 0.216353 0.203098 0.078340 0.009188 0.013319 0.001986 0.113612 ]
3
Num Evals 306
GenUC: 2.801267e-04
GenUB: 5.110659e-05
Optimisation 4.067808e-01
Total Time: 4.071135e-01
4 Rem 6
Graph 1:
1 1 1 0 0 1 
1 1 0 0 1 1 
0 0 0 0 0 0 
0 0 1 0 0 0 
0 1 0 1 0 0 
1 0 1 1 0 1 
Graph 2:
0 1 0 0 0 1 
1 0 0 0 0 0 
0 0 0 0 0 0 
0 0 1 0 0 0 
0 1 0 1 0 0 
1 0 1 1 0 1 
Solution: 31 0
Classic Expectation: 19.200000
Initial Expecation: 13.500000
Gbest: 31.000000
Expectation: 14.412145
Final Parameters:
Gammas:
[ 5.294332 6.273684 ]
Betas:
[ 3.141593 2.656011 ]
Aggregate results:
[ 31 21 23 17 27 19 25 15 13 11 0 ]
[ 0.000039 0.142029 0.115528 0.140524 0.004740 0.201937 0.036010 0.073506 0.026447 0.006442 0.252799 ]
3
Num Evals 155
GenUC: 2.800575e-04
GenUB: 5.147512e-05
Optimisation 2.270912e-01
Total Time: 2.274244e-01
5 Add/Rem 6
Graph 1:
1 1 1 0 0 1 
1 1 0 0 1 1 
0 0 0 0 0 0 
0 0 1 0 0 0 
0 1 0 1 0 0 
1 0 1 1 0 1 
Graph 2:
1 0 1 1 1 0 
0 1 0 1 0 1 
0 0 0 1 0 0 
0 0 1 0 0 1 
0 0 0 1 0 0 
1 0 1 1 0 0 
Solution: 25 0
Classic Expectation: 18.600000
Initial Expecation: 13.078125
Gbest: 25.000000
Expectation: 14.769686
Final Parameters:
Gammas:
[ 3.732238 3.885882 ]
Betas:
[ 1.804108 1.649238 ]
Aggregate results:
[ 25 23 21 19 17 15 13 11 0 ]
[ 0.027417 0.157330 0.204573 0.154330 0.089127 0.080242 0.031177 0.010296 0.245507 ]
3
Num Evals 238
GenUC: 2.801097e-04
GenUB: 5.004324e-05
Optimisation 3.249675e-01
Total Time: 3.252994e-01
