Clock Speed: 3.688618
Num threads: 4
Trotterisation: 6
Graph Size: 7
Num Qubits: 13
Space Dimension: 8192
Run-Type: 0
Num_samples: 10
1 Isomorphic
Graph 1:
1 1 1 1 0 1 1 
0 1 1 0 1 0 1 
0 0 0 1 0 0 0 
1 0 1 0 0 0 0 
1 1 0 0 1 1 1 
1 0 1 0 0 0 0 
0 0 0 0 1 0 0 
Graph 2:
1 1 1 1 0 1 1 
0 1 1 0 1 0 1 
0 0 0 1 0 0 0 
1 0 1 0 0 0 0 
1 1 0 0 1 1 1 
1 0 1 0 0 0 0 
0 0 0 0 1 0 0 
Solution: 0 0
Gbest: -18.000000
Expectation: -28.116346
Final Parameters:
Gammas:
[ 3.141593 3.141593 3.141593 3.141593 3.141593 3.141593 ]
Betas:
[ 0.523599 1.570796 1.570796 1.570796 1.570796 1.570796 2.617994 ]
Aggregate results:
[ -1 11 19 15 13 17 5 21 25 27 23 9 29 31 33 7 3 35 48 ]
[ 0.000082 0.001886 0.092439 0.020002 0.008360 0.050245 0.000137 0.121151 0.156987 0.113772 0.156753 0.001138 0.076356 0.039291 0.013858 0.000474 0.000011 0.002481 0.144577 ]
3
Num Evals 73
GenUC: 1.286956e-03
GenUB: 1.870076e-03
Optimisation 1.221442e+00
Total Time: 1.240584e+00
2 Flipped
Graph 1:
1 1 1 1 0 1 1 
0 1 1 0 1 0 1 
0 0 0 1 0 0 0 
1 0 1 0 0 0 0 
1 1 0 0 1 1 1 
1 0 1 0 0 0 0 
0 0 0 0 1 0 0 
Graph 2:
1 1 0 1 1 1 1 
1 0 1 0 1 1 0 
0 0 0 1 0 0 0 
0 0 0 0 1 0 1 
1 1 1 0 0 1 1 
0 0 0 0 1 0 1 
0 0 1 0 0 0 0 
Solution: -12 1767
Gbest: -24.000000
Expectation: -28.141020
Final Parameters:
Gammas:
[ 3.141593 3.141593 3.141593 3.141593 3.141593 3.141593 ]
Betas:
[ 0.523599 1.570796 1.570796 1.570796 1.570796 1.570796 2.617994 ]
Aggregate results:
[ 17 19 23 25 27 21 29 15 13 31 11 33 35 39 37 48 ]
[ 0.046645 0.081740 0.163558 0.164638 0.125142 0.138009 0.075001 0.017371 0.004601 0.029386 0.000937 0.006377 0.001113 0.000463 0.000443 0.144577 ]
3
Num Evals 142
GenUC: 1.022227e-03
GenUB: 1.595573e-03
Optimisation 1.159027e+00
Total Time: 1.178114e+00
3 Add 7
Graph 1:
1 1 1 1 0 1 1 
0 1 1 0 1 0 1 
0 0 0 1 0 0 0 
1 0 1 0 0 0 0 
1 1 0 0 1 1 1 
1 0 1 0 0 0 0 
0 0 0 0 1 0 0 
Graph 2:
1 1 1 1 0 1 1 
0 1 1 0 1 1 1 
0 0 0 1 1 0 0 
1 1 1 0 1 1 0 
1 1 0 0 1 1 1 
1 1 1 0 0 1 0 
0 0 0 0 1 0 0 
Solution: -7 0
Gbest: -19.000000
Expectation: -33.957495
Final Parameters:
Gammas:
[ 5.235988 3.141593 3.141593 3.141593 3.141593 3.141593 ]
Betas:
[ 1.570796 1.570796 1.570796 1.570796 1.570796 1.570796 2.617994 ]
Aggregate results:
[ 6 12 22 16 18 20 24 26 14 28 30 32 10 34 36 48 ]
[ 0.000160 0.001091 0.114095 0.018409 0.037184 0.079108 0.125134 0.110095 0.002464 0.077874 0.039780 0.016503 0.000152 0.002989 0.001344 0.373618 ]
3
Num Evals 175
GenUC: 1.137118e-03
GenUB: 1.671037e-03
Optimisation 5.464106e-01
Total Time: 5.661120e-01
4 Rem 7
Graph 1:
1 1 1 1 0 1 1 
0 1 1 0 1 0 1 
0 0 0 1 0 0 0 
1 0 1 0 0 0 0 
1 1 0 0 1 1 1 
1 0 1 0 0 0 0 
0 0 0 0 1 0 0 
Graph 2:
1 1 1 1 0 0 1 
0 0 1 0 1 0 0 
0 0 0 1 0 0 0 
0 0 0 0 0 0 0 
1 1 0 0 0 1 1 
1 0 1 0 0 0 0 
0 0 0 0 1 0 0 
Solution: -6 0
Gbest: -20.000000
Expectation: -27.470550
Final Parameters:
Gammas:
[ 3.141593 3.141593 3.141593 3.141593 3.141593 3.141593 ]
Betas:
[ 0.523599 1.570796 1.570796 1.570796 1.570796 1.570796 2.617994 ]
Aggregate results:
[ 5 13 17 15 21 19 9 11 25 23 29 27 31 7 33 48 ]
[ 0.000082 0.002927 0.051179 0.019191 0.155471 0.105312 0.000159 0.001380 0.161483 0.197542 0.044434 0.105365 0.010068 0.000055 0.000776 0.144577 ]
3
Num Evals 246
GenUC: 1.049092e-03
GenUB: 1.637007e-03
Optimisation 1.205930e+00
Total Time: 1.225374e+00
5 Add/Rem 7
Graph 1:
1 1 1 1 0 1 1 
0 1 1 0 1 0 1 
0 0 0 1 0 0 0 
1 0 1 0 0 0 0 
1 1 0 0 1 1 1 
1 0 1 0 0 0 0 
0 0 0 0 1 0 0 
Graph 2:
1 0 1 0 0 1 0 
0 1 1 0 1 1 0 
0 1 0 1 0 0 0 
1 0 0 0 0 0 0 
1 1 1 0 1 1 1 
0 0 1 0 1 1 0 
0 1 0 1 0 0 0 
Solution: -12 77
Gbest: -22.000000
Expectation: -28.036822
Final Parameters:
Gammas:
[ 3.141593 3.141593 3.141593 3.141593 3.141593 3.141593 ]
Betas:
[ 0.523599 1.570796 1.570796 1.570796 1.570796 1.570796 2.617994 ]
Aggregate results:
[ 13 17 23 21 19 31 29 25 15 27 11 33 35 37 48 ]
[ 0.004696 0.039890 0.162872 0.147434 0.100177 0.028308 0.061887 0.161942 0.013547 0.121813 0.001375 0.009034 0.002203 0.000246 0.144577 ]
3
Num Evals 315
GenUC: 1.375163e-03
GenUB: 1.616538e-03
Optimisation 1.159942e+00
Total Time: 1.179734e+00
