Clock Speed: 3.688448
Num threads: 4
Trotterisation: 6
Graph Size: 7
Num Qubits: 13
Space Dimension: 8192
Run-Type: 0
Num_samples: 10
1 Isomorphic
Graph 1:
1 1 1 1 1 1 0 
0 0 1 1 0 1 1 
1 0 1 1 1 0 0 
1 0 0 1 1 1 0 
0 1 1 1 1 1 0 
0 1 1 1 1 1 0 
0 1 0 1 1 1 1 
Graph 2:
1 1 1 1 1 1 0 
0 0 1 1 0 1 1 
1 0 1 1 1 0 0 
1 0 0 1 1 1 0 
0 1 1 1 1 1 0 
0 1 1 1 1 1 0 
0 1 0 1 1 1 1 
Solution: 0 0
Gbest: -16.000000
Expectation: -25.199012
Final Parameters:
Gammas:
[ 3.141593 3.141593 3.141593 3.141593 3.141593 3.141593 ]
Betas:
[ 0.523599 1.570796 1.570796 1.570796 1.570796 1.570796 2.617994 ]
Aggregate results:
[ -1 17 13 11 19 15 23 5 21 9 7 3 27 25 29 31 48 ]
[ 0.000082 0.124043 0.025994 0.008399 0.165907 0.064240 0.155959 0.000093 0.199470 0.000781 0.000748 0.000011 0.025457 0.079321 0.003502 0.001419 0.144577 ]
3
Num Evals 69
GenUC: 1.299706e-03
GenUB: 1.892632e-03
Optimisation 1.167560e+00
Total Time: 1.188191e+00
2 Flipped
Graph 1:
1 1 1 1 1 1 0 
0 0 1 1 0 1 1 
1 0 1 1 1 0 0 
1 0 0 1 1 1 0 
0 1 1 1 1 1 0 
0 1 1 1 1 1 0 
0 1 0 1 1 1 1 
Graph 2:
0 1 1 1 1 1 1 
1 1 0 1 1 0 0 
0 0 1 1 1 0 1 
0 1 1 1 0 0 1 
0 1 1 1 1 1 0 
0 1 1 1 1 1 0 
1 1 1 1 0 1 0 
Solution: -12 305
Gbest: -18.000000
Expectation: -24.701626
Final Parameters:
Gammas:
[ 3.141593 3.141593 3.141593 3.141593 3.141593 3.141593 ]
Betas:
[ 0.523599 1.570796 1.570796 1.570796 1.570796 1.570796 2.617994 ]
Aggregate results:
[ 19 17 15 21 23 13 25 27 11 29 31 48 ]
[ 0.198484 0.143316 0.082515 0.203317 0.130847 0.026783 0.048299 0.012772 0.007047 0.001922 0.000121 0.144577 ]
3
Num Evals 140
GenUC: 1.038571e-03
GenUB: 1.730136e-03
Optimisation 1.190926e+00
Total Time: 1.210710e+00
3 Add 7
Graph 1:
1 1 1 1 1 1 0 
0 0 1 1 0 1 1 
1 0 1 1 1 0 0 
1 0 0 1 1 1 0 
0 1 1 1 1 1 0 
0 1 1 1 1 1 0 
0 1 0 1 1 1 1 
Graph 2:
1 1 1 1 1 1 1 
1 0 1 1 0 1 1 
1 1 1 1 1 0 0 
1 0 1 1 1 1 0 
0 1 1 1 1 1 0 
0 1 1 1 1 1 0 
1 1 1 1 1 1 1 
Solution: -6 0
Gbest: -12.000000
Expectation: -23.547896
Final Parameters:
Gammas:
[ 3.141593 3.141593 3.141593 3.141593 3.141593 3.141593 ]
Betas:
[ 0.523599 1.570796 1.570796 1.570796 1.570796 1.570796 2.617994 ]
Aggregate results:
[ 5 15 13 19 11 17 7 9 21 23 25 48 ]
[ 0.000082 0.113833 0.047004 0.234263 0.010106 0.214097 0.000082 0.001688 0.164643 0.063228 0.006397 0.144577 ]
3
Num Evals 209
GenUC: 1.065595e-03
GenUB: 1.581706e-03
Optimisation 1.165700e+00
Total Time: 1.184762e+00
4 Rem 7
Graph 1:
1 1 1 1 1 1 0 
0 0 1 1 0 1 1 
1 0 1 1 1 0 0 
1 0 0 1 1 1 0 
0 1 1 1 1 1 0 
0 1 1 1 1 1 0 
0 1 0 1 1 1 1 
Graph 2:
0 1 1 1 1 1 0 
0 0 0 0 0 1 1 
1 0 1 1 1 0 0 
1 0 0 1 1 0 0 
0 1 1 1 1 1 0 
0 1 0 1 1 0 0 
0 1 0 1 1 1 1 
Solution: -6 0
Gbest: -18.000000
Expectation: -27.611762
Final Parameters:
Gammas:
[ 3.141593 3.141593 3.141593 3.141593 3.141593 3.141593 ]
Betas:
[ 0.523599 1.570796 1.570796 1.570796 1.570796 1.570796 2.617994 ]
Aggregate results:
[ 5 21 19 17 23 13 25 9 15 27 11 29 31 33 48 ]
[ 0.000082 0.155869 0.099454 0.044780 0.199374 0.002799 0.178254 0.000104 0.014089 0.101835 0.001222 0.046637 0.009505 0.001419 0.144577 ]
3
Num Evals 276
GenUC: 1.240859e-03
GenUB: 1.739979e-03
Optimisation 1.135491e+00
Total Time: 1.155241e+00
5 Add/Rem 7
Graph 1:
1 1 1 1 1 1 0 
0 0 1 1 0 1 1 
1 0 1 1 1 0 0 
1 0 0 1 1 1 0 
0 1 1 1 1 1 0 
0 1 1 1 1 1 0 
0 1 0 1 1 1 1 
Graph 2:
1 1 1 1 1 0 0 
0 0 0 1 0 1 1 
1 0 1 1 0 1 0 
0 1 1 1 1 1 1 
0 1 1 1 1 1 0 
0 1 1 0 1 1 1 
1 1 1 1 0 0 1 
Solution: -10 510
Gbest: -10.000000
Expectation: -24.461391
Final Parameters:
Gammas:
[ 3.141593 3.141593 3.141593 3.141593 3.141593 3.141593 ]
Betas:
[ 0.523599 1.570796 1.570796 1.570796 1.570796 1.570796 2.617994 ]
Aggregate results:
[ 13 25 23 19 15 17 21 11 9 29 27 31 48 ]
[ 0.030699 0.045933 0.115875 0.201844 0.085051 0.175790 0.183680 0.004755 0.001149 0.001034 0.009499 0.000116 0.144577 ]
3
Num Evals 345
GenUC: 1.106299e-03
GenUB: 1.748082e-03
Optimisation 1.155966e+00
Total Time: 1.175447e+00
