Clock Speed: 3.689367
Num threads: 4
Trotterisation: 4
Graph Size: 5
Num Qubits: 7
Space Dimension: 128
Run-Type: 0
Num_samples: 10
1 Isomorphic
Graph 1:
0 1 0 1 0 
1 1 1 1 0 
0 0 0 1 1 
0 1 0 1 0 
0 0 0 0 1 
Graph 2:
0 1 0 1 0 
1 1 1 1 0 
0 0 0 1 1 
0 1 0 1 0 
0 0 0 0 1 
Solution: 0 0
Gbest: -4.000000
Expectation: -10.031571
Final Parameters:
Gammas:
[ 3.255777 0.020065 3.496451 0.137493 ]
Betas:
[ 1.647455 2.419871 1.793675 0.626452 2.327044 ]
Aggregate results:
[ -1 5 9 11 3 13 7 15 17 24 ]
[ 0.038633 0.079526 0.346935 0.230345 0.079150 0.114634 0.068356 0.020516 0.003326 0.018580 ]
5
Num Evals 500
GenUC: 1.560631e-04
GenUB: 3.063353e-05
Optimisation 2.694471e-01
Total Time: 2.702531e-01
2 Flipped
Graph 1:
0 1 0 1 0 
1 1 1 1 0 
0 0 0 1 1 
0 1 0 1 0 
0 0 0 0 1 
Graph 2:
0 1 0 1 0 
0 1 1 1 1 
1 1 0 0 0 
0 1 0 1 0 
1 0 0 0 0 
Solution: -6 87
Gbest: -8.000000
Expectation: -12.242071
Final Parameters:
Gammas:
[ 5.566349 3.400854 0.519685 3.421988 ]
Betas:
[ 1.605187 1.458867 0.601240 1.659188 0.801355 ]
Aggregate results:
[ 7 13 9 11 15 17 5 19 24 ]
[ 0.103173 0.181031 0.198545 0.385266 0.072291 0.012137 0.014087 0.004558 0.028913 ]
5
Num Evals 1000
GenUC: 2.542417e-05
GenUB: 1.805113e-05
Optimisation 2.464143e-01
Total Time: 2.469830e-01
3 Add 5
Graph 1:
0 1 0 1 0 
1 1 1 1 0 
0 0 0 1 1 
0 1 0 1 0 
0 0 0 0 1 
Graph 2:
0 1 0 1 0 
1 1 1 1 1 
1 0 0 1 1 
1 1 1 1 0 
0 0 1 0 1 
Solution: -5 0
Gbest: -5.000000
Expectation: -11.749689
Final Parameters:
Gammas:
[ 0.109563 3.334108 3.439662 3.256709 ]
Betas:
[ 1.907786 0.452216 1.599034 0.819350 3.009881 ]
Aggregate results:
[ 4 8 10 12 6 14 16 18 24 ]
[ 0.081509 0.140904 0.197433 0.223191 0.106987 0.172814 0.031076 0.003465 0.042621 ]
5
Num Evals 1500
GenUC: 2.505921e-05
GenUB: 2.268481e-05
Optimisation 2.630618e-01
Total Time: 2.636832e-01
4 Rem 5
Graph 1:
0 1 0 1 0 
1 1 1 1 0 
0 0 0 1 1 
0 1 0 1 0 
0 0 0 0 1 
Graph 2:
0 1 0 1 0 
1 1 0 0 0 
0 0 0 1 0 
0 1 0 0 0 
0 0 0 0 1 
Solution: -4 0
Gbest: -6.000000
Expectation: -10.188176
Final Parameters:
Gammas:
[ 3.480513 1.081503 4.792951 3.503691 ]
Betas:
[ 0.208280 2.229246 0.308649 1.836730 1.672750 ]
Aggregate results:
[ 3 7 9 11 5 13 15 24 ]
[ 0.044435 0.170341 0.156769 0.258174 0.195004 0.112585 0.036844 0.025849 ]
5
Num Evals 2000
GenUC: 2.481032e-05
GenUB: 1.751888e-05
Optimisation 2.649072e-01
Total Time: 2.654672e-01
5 Add/Rem 5
Graph 1:
0 1 0 1 0 
1 1 1 1 0 
0 0 0 1 1 
0 1 0 1 0 
0 0 0 0 1 
Graph 2:
1 0 1 1 0 
0 1 1 1 1 
0 0 0 0 1 
1 1 1 0 0 
0 0 0 0 1 
Solution: -7 8
Gbest: -7.000000
Expectation: -10.956613
Final Parameters:
Gammas:
[ 0.128177 0.120338 2.786160 1.096679 ]
Betas:
[ 0.234186 1.002495 1.692228 1.749315 1.667348 ]
Aggregate results:
[ 8 10 12 6 14 16 24 ]
[ 0.323066 0.237199 0.146313 0.172550 0.050109 0.023850 0.046913 ]
5
Num Evals 2500
GenUC: 2.426398e-05
GenUB: 1.783692e-05
Optimisation 2.520674e-01
Total Time: 2.526324e-01
