Clock Speed: 3.498790
Num threads: 16
Trotterisation: 5
Num Qubits: 10
Space Dimension: 1024
Run-Type: 0
Num_samples: 36
Optimiser Method: 29
1 Isomorphic
Graph 1:
0 1 1 1 0 1 
0 1 0 1 1 1 
1 0 0 0 0 1 
1 1 0 1 1 0 
1 1 1 1 0 1 
0 1 1 1 0 1 
Graph 2:
0 1 1 1 0 1 
0 1 0 1 1 1 
1 0 0 0 0 1 
1 1 0 1 1 0 
1 1 1 1 0 1 
0 1 1 1 0 1 
Solution: 36 0
Classic Expectation: 19.666667
Initial Expecation: 13.828125
Gbest: 28.000000
Expectation: 20.565611
Final Parameters:
Gammas:
[ 6.206749 5.988072 3.181611 1.745337 3.152693 ]
Betas:
[ 2.822980 2.661053 0.289687 1.294717 1.834797 ]
Aggregate results:
[ 36 24 26 22 20 16 18 12 14 32 28 30 0 ]
[ 0.004474 0.233539 0.129547 0.232110 0.131388 0.013825 0.037816 0.009117 0.012874 0.012954 0.065035 0.009005 0.108315 ]
3
Num Evals 109092
GenUC: 3.287205e-04
GenUB: 1.556803e-04
Optimisation 5.585325e+02
Total Time: 5.585330e+02
2 Flipped
Graph 1:
0 1 1 1 0 1 
0 1 0 1 1 1 
1 0 0 0 0 1 
1 1 0 1 1 0 
1 1 1 1 0 1 
0 1 1 1 0 1 
Graph 2:
1 0 1 1 1 0 
1 1 1 0 1 0 
1 0 0 0 0 1 
0 1 1 0 1 1 
1 0 1 1 1 1 
1 0 1 1 1 0 
Solution: 28 201
Classic Expectation: 19.666667
Initial Expecation: 13.828125
Gbest: 28.000000
Expectation: 18.383301
Final Parameters:
Gammas:
[ 5.060257 3.770043 2.840203 2.459677 4.686914 ]
Betas:
[ 1.297610 1.751129 1.397349 1.785660 0.776763 ]
Aggregate results:
[ 18 20 22 16 14 12 24 26 28 0 ]
[ 0.243670 0.306682 0.176245 0.093287 0.026744 0.003688 0.069195 0.012861 0.002853 0.064775 ]
3
Num Evals 17905
GenUC: 3.648773e-04
GenUB: 1.362092e-04
Optimisation 8.196697e+01
Total Time: 8.196747e+01
3 Add 6
Graph 1:
0 1 1 1 0 1 
0 1 0 1 1 1 
1 0 0 0 0 1 
1 1 0 1 1 0 
1 1 1 1 0 1 
0 1 1 1 0 1 
Graph 2:
1 1 1 1 0 1 
1 1 0 1 1 1 
1 1 0 1 1 1 
1 1 0 1 1 0 
1 1 1 1 0 1 
0 1 1 1 0 1 
Solution: 31 0
Classic Expectation: 21.000000
Initial Expecation: 14.765625
Gbest: 29.000000
Expectation: 17.815114
Final Parameters:
Gammas:
[ 6.283185 4.673692 3.358966 2.448172 4.663056 ]
Betas:
[ 0.763465 2.210695 2.695163 1.311200 0.533951 ]
Aggregate results:
[ 31 21 23 25 19 17 15 27 29 0 ]
[ 0.000085 0.206172 0.182232 0.104939 0.189239 0.098085 0.015643 0.030967 0.011528 0.161110 ]
3
Num Evals 8886
GenUC: 3.653998e-04
GenUB: 1.249844e-04
Optimisation 4.189408e+01
Total Time: 4.189458e+01
4 Rem 6
Graph 1:
0 1 1 1 0 1 
0 1 0 1 1 1 
1 0 0 0 0 1 
1 1 0 1 1 0 
1 1 1 1 0 1 
0 1 1 1 0 1 
Graph 2:
0 1 1 0 0 1 
0 1 0 1 1 0 
1 0 0 0 0 1 
1 0 0 1 1 0 
1 0 0 1 0 1 
0 1 1 1 0 1 
Solution: 31 0
Classic Expectation: 18.000000
Initial Expecation: 12.656250
Gbest: 25.000000
Expectation: 16.153891
Final Parameters:
Gammas:
[ 5.171371 3.306394 3.410888 3.058292 0.947883 ]
Betas:
[ 1.481645 1.543143 1.446666 1.712720 1.823665 ]
Aggregate results:
[ 31 19 25 21 23 17 15 11 29 13 27 0 ]
[ 0.002567 0.213426 0.030187 0.185837 0.102339 0.157645 0.098016 0.008803 0.002807 0.031243 0.010132 0.156998 ]
3
Num Evals 11194
GenUC: 3.647879e-04
GenUB: 1.235637e-04
Optimisation 5.610376e+01
Total Time: 5.610425e+01
5 Add/Rem 6
Graph 1:
0 1 1 1 0 1 
0 1 0 1 1 1 
1 0 0 0 0 1 
1 1 0 1 1 0 
1 1 1 1 0 1 
0 1 1 1 0 1 
Graph 2:
1 1 1 0 1 0 
0 1 0 1 0 1 
1 0 0 1 0 1 
1 0 0 1 0 0 
1 1 1 1 1 1 
1 1 1 1 0 1 
Solution: 28 687
Classic Expectation: 19.000000
Initial Expecation: 13.359375
Gbest: 26.000000
Expectation: 18.281764
Final Parameters:
Gammas:
[ 6.245938 6.014420 4.752779 3.135954 1.517102 ]
Betas:
[ 2.382454 1.187689 1.698885 1.510274 2.408194 ]
Aggregate results:
[ 26 24 22 20 18 16 14 12 28 0 ]
[ 0.021978 0.098408 0.188308 0.243510 0.183097 0.112346 0.067004 0.022206 0.001347 0.061794 ]
3
Num Evals 22352
GenUC: 3.683558e-04
GenUB: 1.156311e-04
Optimisation 1.180300e+02
Total Time: 1.180305e+02
