Clock Speed: 3.689308
Num threads: 4
Trotterisation: 3
Graph Size: 5
Num Qubits: 7
Space Dimension: 128
Run-Type: 0
Num_samples: 10
1 Isomorphic
Graph 1:
1 0 1 0 1 
1 0 1 0 0 
0 0 0 0 0 
1 1 1 0 0 
0 1 0 1 0 
Graph 2:
1 0 1 0 1 
1 0 1 0 0 
0 0 0 0 0 
1 1 1 0 0 
0 1 0 1 0 
Solution: 0 0
Gbest: -10.000000
Expectation: -10.882860
Final Parameters:
Gammas:
[ 3.951009 0.235433 1.106526 ]
Betas:
[ 2.126544 2.277381 1.736464 0.187600 ]
Aggregate results:
[ -1 7 9 5 13 11 17 19 1 15 24 ]
[ 0.021273 0.194518 0.302550 0.027621 0.153526 0.146793 0.013396 0.000592 0.039691 0.067636 0.032403 ]
5
Num Evals 500
GenUC: 1.588048e-04
GenUB: 3.101083e-05
Optimisation 2.249700e-01
Total Time: 2.256174e-01
2 Flipped
Graph 1:
1 0 1 0 1 
1 0 1 0 0 
0 0 0 0 0 
1 1 1 0 0 
0 1 0 1 0 
Graph 2:
1 0 1 0 1 
0 0 1 0 1 
0 0 0 0 0 
0 0 1 1 1 
0 1 0 1 0 
Solution: -6 0
Gbest: -8.000000
Expectation: -11.478711
Final Parameters:
Gammas:
[ 5.622074 0.086779 3.441187 ]
Betas:
[ 0.115939 0.021301 1.651968 1.646001 ]
Aggregate results:
[ 5 9 13 11 15 17 7 24 ]
[ 0.011724 0.397022 0.070440 0.355822 0.033492 0.010730 0.092126 0.028644 ]
5
Num Evals 1000
GenUC: 2.416607e-05
GenUB: 2.095359e-05
Optimisation 2.013432e-01
Total Time: 2.017050e-01
3 Add 5
Graph 1:
1 0 1 0 1 
1 0 1 0 0 
0 0 0 0 0 
1 1 1 0 0 
0 1 0 1 0 
Graph 2:
1 0 1 0 1 
1 1 1 0 1 
0 0 0 1 0 
1 1 1 0 1 
0 1 0 1 1 
Solution: -5 0
Gbest: -5.000000
Expectation: -12.789932
Final Parameters:
Gammas:
[ 3.493045 0.464536 0.697467 ]
Betas:
[ 1.698237 1.101229 1.591882 0.382332 ]
Aggregate results:
[ 4 8 14 12 10 18 6 16 24 ]
[ 0.050948 0.149737 0.142585 0.238044 0.233610 0.005178 0.032044 0.079317 0.068537 ]
5
Num Evals 1500
GenUC: 2.419949e-05
GenUB: 1.735915e-05
Optimisation 2.039295e-01
Total Time: 2.043585e-01
4 Rem 5
Graph 1:
1 0 1 0 1 
1 0 1 0 0 
0 0 0 0 0 
1 1 1 0 0 
0 1 0 1 0 
Graph 2:
1 0 1 0 1 
0 0 0 0 0 
0 0 0 0 0 
1 1 1 0 0 
0 0 0 0 0 
Solution: -4 0
Gbest: -4.000000
Expectation: -9.792714
Final Parameters:
Gammas:
[ 3.397700 3.426420 6.077875 ]
Betas:
[ 1.786730 0.977330 0.221276 1.688423 ]
Aggregate results:
[ 3 7 5 9 13 11 15 24 ]
[ 0.053673 0.353736 0.059152 0.221285 0.085950 0.194248 0.016980 0.014977 ]
5
Num Evals 2000
GenUC: 2.077932e-05
GenUB: 1.665554e-05
Optimisation 2.212016e-01
Total Time: 2.216279e-01
5 Add/Rem 5
Graph 1:
1 0 1 0 1 
1 0 1 0 0 
0 0 0 0 0 
1 1 1 0 0 
0 1 0 1 0 
Graph 2:
1 1 1 0 0 
0 0 1 0 0 
1 0 0 1 0 
0 1 0 0 1 
1 1 0 1 0 
Solution: -5 53
Gbest: -5.000000
Expectation: -10.724911
Final Parameters:
Gammas:
[ 3.995864 0.166361 5.067626 ]
Betas:
[ 3.074403 0.108277 0.005731 0.247386 ]
Aggregate results:
[ 8 10 14 12 16 6 4 24 ]
[ 0.360457 0.300680 0.033918 0.121413 0.023619 0.079246 0.044337 0.036330 ]
5
Num Evals 2500
GenUC: 2.510787e-05
GenUB: 1.734693e-05
Optimisation 1.847159e-01
Total Time: 1.850626e-01
