Clock Speed: 3.498710
Num threads: 16
Trotterisation: 4
Num Qubits: 10
Space Dimension: 1024
Run-Type: 0
Num_samples: 36
Optimiser Method: 0
1 Isomorphic
Graph 1:
0 0 1 0 0 1 
1 0 0 1 0 1 
0 1 0 0 0 1 
0 0 0 0 0 1 
1 1 1 0 0 1 
0 1 1 1 0 0 
Graph 2:
0 0 1 0 0 1 
1 0 0 1 0 1 
0 1 0 0 0 1 
0 0 0 0 0 1 
1 1 1 0 0 1 
0 1 1 1 0 0 
Solution: 36 0
Classic Expectation: 21.000000
Initial Expecation: 14.765625
Gbest: 30.000000
Expectation: 14.927750
Final Parameters:
Gammas:
[ 5.235988 1.047198 3.141593 3.141593 ]
Betas:
[ 2.617994 1.570796 1.570796 1.570796 ]
Aggregate results:
[ 36 22 26 20 28 16 24 30 14 18 32 0 ]
[ 0.000342 0.156449 0.065435 0.196227 0.014607 0.050170 0.096765 0.003236 0.020006 0.107149 0.000243 0.289371 ]
3
Num Evals 29
GenUC: 3.171773e-04
GenUB: 1.316820e-04
Optimisation 1.818296e-01
Total Time: 1.822899e-01
2 Flipped
Graph 1:
0 0 1 0 0 1 
1 0 0 1 0 1 
0 1 0 0 0 1 
0 0 0 0 0 1 
1 1 1 0 0 1 
0 1 1 1 0 0 
Graph 2:
1 0 0 1 0 0 
1 0 1 0 0 1 
1 0 0 0 1 0 
1 0 0 0 0 0 
1 0 0 1 1 1 
0 0 1 1 1 0 
Solution: 28 338
Classic Expectation: 19.000000
Initial Expecation: 13.359375
Gbest: 24.000000
Expectation: 13.458835
Final Parameters:
Gammas:
[ 5.235988 3.141593 3.141593 3.141593 ]
Betas:
[ 2.617994 1.570796 1.570796 1.570796 ]
Aggregate results:
[ 18 16 24 20 22 26 14 12 28 10 0 ]
[ 0.182686 0.115383 0.026623 0.204115 0.109159 0.011777 0.052549 0.011162 0.000839 0.000226 0.285480 ]
3
Num Evals 23
GenUC: 3.587268e-04
GenUB: 1.415419e-04
Optimisation 9.183571e-02
Total Time: 9.233841e-02
3 Add 6
Graph 1:
0 0 1 0 0 1 
1 0 0 1 0 1 
0 1 0 0 0 1 
0 0 0 0 0 1 
1 1 1 0 0 1 
0 1 1 1 0 0 
Graph 2:
0 1 1 1 0 1 
1 0 0 1 0 1 
0 1 0 0 0 1 
0 0 1 0 0 1 
1 1 1 0 0 1 
1 1 1 1 0 1 
Solution: 31 0
Classic Expectation: 20.000000
Initial Expecation: 14.062500
Gbest: 27.000000
Expectation: 19.031905
Final Parameters:
Gammas:
[ 3.111427 0.107896 3.177505 3.128665 ]
Betas:
[ 1.396264 1.551404 0.349066 1.435049 ]
Aggregate results:
[ 31 19 23 21 17 25 15 13 27 11 29 0 ]
[ 0.005339 0.192216 0.169982 0.247830 0.083097 0.098176 0.027284 0.008024 0.056031 0.000807 0.006826 0.104388 ]
3
Num Evals 1729
GenUC: 3.595925e-04
GenUB: 1.276261e-04
Optimisation 6.455271e+00
Total Time: 6.455760e+00
4 Rem 6
Graph 1:
0 0 1 0 0 1 
1 0 0 1 0 1 
0 1 0 0 0 1 
0 0 0 0 0 1 
1 1 1 0 0 1 
0 1 1 1 0 0 
Graph 2:
0 0 0 0 0 1 
0 0 0 1 0 0 
0 1 0 0 0 1 
0 0 0 0 0 0 
1 0 1 0 0 1 
0 1 0 1 0 0 
Solution: 30 0
Classic Expectation: 21.000000
Initial Expecation: 14.765625
Gbest: 30.000000
Expectation: 15.062898
Final Parameters:
Gammas:
[ 1.047198 3.141593 3.141593 3.141593 ]
Betas:
[ 2.617994 1.570796 1.570796 1.570796 ]
Aggregate results:
[ 30 20 22 18 24 16 26 28 14 0 ]
[ 0.000762 0.225824 0.196484 0.113217 0.094125 0.024964 0.047241 0.008443 0.002852 0.286089 ]
3
Num Evals 23
GenUC: 3.583259e-04
GenUB: 7.996801e-05
Optimisation 8.985558e-02
Total Time: 9.029629e-02
5 Add/Rem 6
Graph 1:
0 0 1 0 0 1 
1 0 0 1 0 1 
0 1 0 0 0 1 
0 0 0 0 0 1 
1 1 1 0 0 1 
0 1 1 1 0 0 
Graph 2:
0 0 1 0 0 1 
0 0 0 1 0 1 
1 1 0 0 0 1 
0 0 1 1 0 1 
0 1 0 1 1 1 
1 1 1 0 0 0 
Solution: 30 150
Classic Expectation: 19.000000
Initial Expecation: 13.359375
Gbest: 22.000000
Expectation: 13.552742
Final Parameters:
Gammas:
[ 5.235988 1.047198 3.141593 3.141593 ]
Betas:
[ 0.523599 1.570796 1.570796 1.570796 ]
Aggregate results:
[ 26 20 24 16 22 12 18 14 30 10 28 0 ]
[ 0.022185 0.161302 0.045242 0.104388 0.119735 0.022468 0.179932 0.054561 0.001727 0.000288 0.001171 0.287002 ]
3
Num Evals 23
GenUC: 3.589517e-04
GenUB: 1.076674e-04
Optimisation 8.956689e-02
Total Time: 9.003577e-02
