Clock Speed: 3.498921
Num threads: 16
Trotterisation: 4
Num Qubits: 10
Space Dimension: 1024
Run-Type: 0
Num_samples: 36
Optimiser Method: 0
1 Isomorphic
Graph 1:
1 1 0 1 1 0 
0 0 1 0 0 0 
1 1 0 0 0 1 
0 0 0 1 1 0 
0 0 0 1 0 0 
1 1 1 0 0 1 
Graph 2:
1 1 0 1 1 0 
0 0 1 0 0 0 
1 1 0 0 0 1 
0 0 0 1 1 0 
0 0 0 1 0 0 
1 1 1 0 0 1 
Solution: 36 0
Classic Expectation: 18.600000
Initial Expecation: 13.078125
Gbest: 28.000000
Expectation: 13.458711
Final Parameters:
Gammas:
[ 5.235988 1.047198 3.141593 3.141593 ]
Betas:
[ 0.523599 1.570796 1.570796 1.570796 ]
Aggregate results:
[ 36 20 34 22 18 16 32 30 28 12 14 26 24 10 0 ]
[ 0.002942 0.169574 0.001173 0.068075 0.179542 0.145029 0.000393 0.001201 0.006989 0.008754 0.074672 0.021607 0.036014 0.005070 0.278965 ]
3
Num Evals 23
GenUC: 3.099944e-04
GenUB: 1.618760e-04
Optimisation 9.249362e-02
Total Time: 9.297690e-02
2 Flipped
Graph 1:
1 1 0 1 1 0 
0 0 1 0 0 0 
1 1 0 0 0 1 
0 0 0 1 1 0 
0 0 0 1 0 0 
1 1 1 0 0 1 
Graph 2:
0 1 1 0 1 1 
0 0 0 1 0 0 
1 0 0 0 1 1 
0 1 1 0 0 0 
0 0 1 0 0 0 
1 0 0 1 1 1 
Solution: 30 711
Classic Expectation: 18.200000
Initial Expecation: 12.796875
Gbest: 28.000000
Expectation: 12.982092
Final Parameters:
Gammas:
[ 5.235988 1.047198 3.141593 5.235988 ]
Betas:
[ 0.523599 1.570796 1.570796 1.570796 ]
Aggregate results:
[ 18 20 22 26 24 16 14 28 12 10 30 0 ]
[ 0.201839 0.145205 0.082365 0.009020 0.036156 0.116035 0.079418 0.003391 0.025207 0.011199 0.001759 0.288406 ]
3
Num Evals 45
GenUC: 3.575757e-04
GenUB: 1.460058e-04
Optimisation 1.734653e-01
Total Time: 1.739715e-01
3 Add 6
Graph 1:
1 1 0 1 1 0 
0 0 1 0 0 0 
1 1 0 0 0 1 
0 0 0 1 1 0 
0 0 0 1 0 0 
1 1 1 0 0 1 
Graph 2:
1 1 1 1 1 0 
0 0 1 1 0 1 
1 1 1 0 0 1 
1 0 0 1 1 1 
0 0 0 1 0 0 
1 1 1 0 0 1 
Solution: 30 0
Classic Expectation: 17.600000
Initial Expecation: 12.375000
Gbest: 26.000000
Expectation: 12.607738
Final Parameters:
Gammas:
[ 5.235988 5.235988 3.141593 3.141593 ]
Betas:
[ 2.617994 1.570796 1.570796 1.570796 ]
Aggregate results:
[ 30 16 28 18 22 20 14 26 12 24 10 0 ]
[ 0.001451 0.180918 0.006359 0.199697 0.048009 0.109320 0.079474 0.008078 0.042048 0.031109 0.008046 0.285491 ]
3
Num Evals 31
GenUC: 3.583282e-04
GenUB: 1.383382e-04
Optimisation 1.214526e-01
Total Time: 1.219516e-01
4 Rem 6
Graph 1:
1 1 0 1 1 0 
0 0 1 0 0 0 
1 1 0 0 0 1 
0 0 0 1 1 0 
0 0 0 1 0 0 
1 1 1 0 0 1 
Graph 2:
1 0 0 0 1 0 
0 0 1 0 0 0 
1 0 0 0 0 1 
0 0 0 1 0 0 
0 0 0 1 0 0 
1 1 1 0 0 1 
Solution: 32 0
Classic Expectation: 19.400000
Initial Expecation: 13.640625
Gbest: 26.000000
Expectation: 13.716485
Final Parameters:
Gammas:
[ 1.047198 3.141593 3.141593 3.141593 ]
Betas:
[ 2.617994 1.570796 1.570796 1.570796 ]
Aggregate results:
[ 32 18 30 20 22 16 28 26 24 14 12 0 ]
[ 0.000470 0.179160 0.000348 0.204746 0.132171 0.104826 0.000963 0.018971 0.031768 0.032263 0.004326 0.289989 ]
3
Num Evals 23
GenUC: 3.716820e-04
GenUB: 1.306236e-04
Optimisation 8.964325e-02
Total Time: 9.014764e-02
5 Add/Rem 6
Graph 1:
1 1 0 1 1 0 
0 0 1 0 0 0 
1 1 0 0 0 1 
0 0 0 1 1 0 
0 0 0 1 0 0 
1 1 1 0 0 1 
Graph 2:
1 0 0 1 1 1 
0 0 1 1 0 1 
1 0 0 1 1 1 
0 0 0 1 0 0 
0 0 1 0 0 0 
1 0 1 0 0 1 
Solution: 29 80
Classic Expectation: 18.400000
Initial Expecation: 12.937500
Gbest: 25.000000
Expectation: 13.643563
Final Parameters:
Gammas:
[ 3.141593 5.235988 3.141593 1.047198 ]
Betas:
[ 0.523599 1.570796 0.523599 1.570796 ]
Aggregate results:
[ 25 21 23 19 15 17 13 27 29 11 0 ]
[ 0.013402 0.160185 0.060375 0.185584 0.100439 0.161569 0.044278 0.000928 0.002654 0.009000 0.261586 ]
3
Num Evals 61
GenUC: 3.590435e-04
GenUB: 1.235600e-04
Optimisation 2.333951e-01
Total Time: 2.338799e-01
