Clock Speed: 3.689418
Num threads: 4
Trotterisation: 3
Num Qubits: 10
Space Dimension: 1024
Run-Type: 0
Num_samples: 6
Optimiser Method: 29
1 Isomorphic
Graph 1:
0 0 0 0 0 1 
0 0 1 0 1 0 
0 1 0 0 1 0 
0 0 0 0 1 1 
0 1 1 1 0 1 
1 0 0 1 1 0 
Graph 2:
0 0 0 0 0 1 
0 0 1 0 1 0 
0 1 0 0 1 0 
0 0 0 0 1 1 
0 1 1 1 0 1 
1 0 0 1 1 0 
Solution: 36 0
Classic Expectation: 21.066667
Initial Expecation: 14.812500
Gbest: 36.000000
Expectation: 22.152223
Final Parameters:
Gammas:
[ 6.235505 4.529345 1.667538 ]
Betas:
[ 2.380855 0.149599 2.806610 ]
Aggregate results:
[ 36 24 28 32 20 16 12 0 ]
[ 0.010661 0.408907 0.165029 0.033124 0.235971 0.090278 0.009169 0.046862 ]
5
Num Evals 3600
GenUC: 2.604056e-04
GenUB: 8.908234e-05
Optimisation 6.103650e+00
Total Time: 6.104027e+00
2 Flipped
Graph 1:
0 0 0 0 0 1 
0 0 1 0 1 0 
0 1 0 0 1 0 
0 0 0 0 1 1 
0 1 1 1 0 1 
1 0 0 1 1 0 
Graph 2:
1 0 0 0 0 0 
0 1 0 1 0 0 
0 1 0 0 1 0 
1 1 0 0 0 0 
1 0 1 1 1 0 
0 1 1 0 0 1 
Solution: 24 163
Classic Expectation: 17.333333
Initial Expecation: 12.187500
Gbest: 22.000000
Expectation: 15.652468
Final Parameters:
Gammas:
[ 6.208828 5.078755 0.262504 ]
Betas:
[ 0.577368 1.779867 2.740100 ]
Aggregate results:
[ 16 18 20 22 14 12 24 0 ]
[ 0.278145 0.198628 0.158729 0.089151 0.062589 0.101828 0.016365 0.094565 ]
4
Num Evals 1423
GenUC: 3.013121e-04
GenUB: 7.016212e-05
Optimisation 2.411549e+00
Total Time: 2.411923e+00
3 Add 6
Graph 1:
0 0 0 0 0 1 
0 0 1 0 1 0 
0 1 0 0 1 0 
0 0 0 0 1 1 
0 1 1 1 0 1 
1 0 0 1 1 0 
Graph 2:
0 1 1 1 1 1 
1 0 1 0 1 1 
1 1 0 0 1 0 
1 0 0 0 1 1 
1 1 1 1 0 1 
1 1 0 1 1 0 
Solution: 26 0
Classic Expectation: 20.400000
Initial Expecation: 14.343750
Gbest: 26.000000
Expectation: 18.095011
Final Parameters:
Gammas:
[ 2.906468 4.330590 6.101227 ]
Betas:
[ 2.429739 2.905703 1.434122 ]
Aggregate results:
[ 26 22 18 14 0 ]
[ 0.112284 0.342098 0.370555 0.069963 0.105100 ]
4
Num Evals 1440
GenUC: 2.845680e-04
GenUB: 7.386913e-05
Optimisation 2.865976e+00
Total Time: 2.866337e+00
4 Rem 6
Graph 1:
0 0 0 0 0 1 
0 0 1 0 1 0 
0 1 0 0 1 0 
0 0 0 0 1 1 
0 1 1 1 0 1 
1 0 0 1 1 0 
Graph 2:
0 0 0 0 0 0 
0 0 0 0 0 0 
0 0 0 0 1 0 
0 0 0 0 0 0 
0 0 1 0 0 1 
0 0 0 0 1 0 
Solution: 26 0
Classic Expectation: 21.733333
Initial Expecation: 15.281250
Gbest: 26.000000
Expectation: 20.741910
Final Parameters:
Gammas:
[ 3.211865 5.204475 0.000000 ]
Betas:
[ 0.380599 2.733148 0.598487 ]
Aggregate results:
[ 26 22 18 0 ]
[ 0.362137 0.422566 0.112772 0.102525 ]
4
Num Evals 1614
GenUC: 2.858913e-04
GenUB: 7.639843e-05
Optimisation 2.321078e+00
Total Time: 2.321443e+00
5 Add/Rem 6
Graph 1:
0 0 0 0 0 1 
0 0 1 0 1 0 
0 1 0 0 1 0 
0 0 0 0 1 1 
0 1 1 1 0 1 
1 0 0 1 1 0 
Graph 2:
0 1 1 1 1 0 
1 1 0 0 0 1 
1 0 0 0 1 0 
1 0 0 0 0 0 
1 0 1 0 0 1 
0 1 0 0 1 0 
Solution: 31 405
Classic Expectation: 20.066667
Initial Expecation: 14.109375
Gbest: 27.000000
Expectation: 19.559004
Final Parameters:
Gammas:
[ 3.222003 5.948706 2.766963 ]
Betas:
[ 2.566307 1.386044 1.594029 ]
Aggregate results:
[ 15 19 11 23 7 27 31 0 ]
[ 0.075999 0.184818 0.027287 0.422012 0.002295 0.166245 0.012786 0.108558 ]
4
Num Evals 1861
GenUC: 2.844025e-04
GenUB: 6.145996e-05
Optimisation 3.404774e+00
Total Time: 3.405122e+00
