Clock Speed: 3.689201
Num threads: 4
Trotterisation: 3
Num Qubits: 10
Space Dimension: 1024
Run-Type: 0
Num_samples: 6
Optimiser Method: 29
1 Isomorphic
Graph 1:
0 0 0 0 0 0 
0 0 0 1 1 1 
0 0 0 1 0 1 
0 1 1 0 0 0 
0 1 0 0 0 1 
0 1 1 0 1 0 
Graph 2:
0 0 0 0 0 0 
0 0 0 1 1 1 
0 0 0 1 0 1 
0 1 1 0 0 0 
0 1 0 0 0 1 
0 1 1 0 1 0 
Solution: 36 0
Classic Expectation: 21.600000
Initial Expecation: 15.187500
Gbest: 28.000000
Expectation: 19.451972
Final Parameters:
Gammas:
[ 4.666956 2.884632 4.735159 ]
Betas:
[ 2.017012 2.452997 1.225754 ]
Aggregate results:
[ 36 32 28 24 20 16 12 0 ]
[ 0.000804 0.011724 0.060297 0.294033 0.379051 0.158940 0.014888 0.080262 ]
4
Num Evals 1801
GenUC: 2.589345e-04
GenUB: 8.527026e-05
Optimisation 2.491179e+01
Total Time: 2.491215e+01
2 Flipped
Graph 1:
0 0 0 0 0 0 
0 0 0 1 1 1 
0 0 0 1 0 1 
0 1 1 0 0 0 
0 1 0 0 0 1 
0 1 1 0 1 0 
Graph 2:
0 0 0 0 0 0 
1 1 1 0 0 0 
1 0 1 0 0 0 
0 0 0 1 1 0 
1 0 0 0 1 0 
0 1 0 1 1 0 
Solution: 24 318
Classic Expectation: 18.400000
Initial Expecation: 12.937500
Gbest: 22.000000
Expectation: 17.635176
Final Parameters:
Gammas:
[ 6.217106 6.151787 2.752286 ]
Betas:
[ 2.483161 2.523360 0.454036 ]
Aggregate results:
[ 16 20 18 14 22 24 0 ]
[ 0.176919 0.314482 0.282591 0.023894 0.131357 0.008494 0.062265 ]
4
Num Evals 2863
GenUC: 2.797717e-04
GenUB: 6.587017e-05
Optimisation 4.104008e+01
Total Time: 4.104043e+01
3 Add 6
Graph 1:
0 0 0 0 0 0 
0 0 0 1 1 1 
0 0 0 1 0 1 
0 1 1 0 0 0 
0 1 0 0 0 1 
0 1 1 0 1 0 
Graph 2:
1 1 1 1 1 1 
1 1 0 1 1 1 
1 0 0 1 0 1 
1 1 1 0 0 0 
1 1 0 0 0 1 
1 1 1 0 1 0 
Solution: 24 0
Classic Expectation: 17.600000
Initial Expecation: 12.375000
Gbest: 24.000000
Expectation: 18.489373
Final Parameters:
Gammas:
[ 3.213293 3.255758 3.170740 ]
Betas:
[ 0.740323 1.589264 1.782422 ]
Aggregate results:
[ 24 20 16 12 8 0 ]
[ 0.183604 0.472717 0.265274 0.029731 0.003423 0.045251 ]
5
Num Evals 3600
GenUC: 4.263918e-04
GenUB: 7.046096e-05
Optimisation 4.645203e+01
Total Time: 4.645253e+01
4 Rem 6
Graph 1:
0 0 0 0 0 0 
0 0 0 1 1 1 
0 0 0 1 0 1 
0 1 1 0 0 0 
0 1 0 0 0 1 
0 1 1 0 1 0 
Graph 2:
0 0 0 0 0 0 
0 0 0 0 0 0 
0 0 0 0 0 0 
0 0 0 0 0 0 
0 0 0 0 0 1 
0 0 0 0 1 0 
Solution: 26 0
Classic Expectation: 23.600000
Initial Expecation: 16.593750
Gbest: 26.000000
Expectation: 21.835311
Final Parameters:
Gammas:
[ 1.775272 0.000000 0.095840 ]
Betas:
[ 0.603616 1.561903 1.269755 ]
Aggregate results:
[ 26 22 0 ]
[ 0.341225 0.589248 0.069527 ]
4
Num Evals 1495
GenUC: 2.798240e-04
GenUB: 6.698867e-05
Optimisation 1.690073e+01
Total Time: 1.690108e+01
5 Add/Rem 6
Graph 1:
0 0 0 0 0 0 
0 0 0 1 1 1 
0 0 0 1 0 1 
0 1 1 0 0 0 
0 1 0 0 0 1 
0 1 1 0 1 0 
Graph 2:
0 1 1 1 1 1 
1 1 0 0 0 0 
1 0 1 0 0 0 
1 0 0 0 0 0 
1 0 0 0 0 1 
1 0 0 0 1 0 
Solution: 26 120
Classic Expectation: 19.600000
Initial Expecation: 13.781250
Gbest: 26.000000
Expectation: 17.698535
Final Parameters:
Gammas:
[ 3.769563 4.476044 5.915397 ]
Betas:
[ 2.407786 0.786685 2.036661 ]
Aggregate results:
[ 14 10 26 22 18 0 ]
[ 0.093762 0.043982 0.060081 0.402977 0.306580 0.092618 ]
4
Num Evals 3269
GenUC: 2.796755e-04
GenUB: 6.140437e-05
Optimisation 4.659347e+01
Total Time: 4.659382e+01
