Clock Speed: 3.689314
Num threads: 4
Trotterisation: 4
Num Qubits: 5
Space Dimension: 32
Run-Type: 0
Num_samples: 4
Optimiser Method: 20
1 Isomorphic
Graph 1:
0 1 1 1 
1 0 1 0 
1 1 0 1 
1 0 1 0 
Graph 2:
0 1 1 1 
1 0 1 0 
1 1 0 1 
1 0 1 0 
Solution: 16 0
Classic Expectation: 12.666667
Initial Expecation: 9.500000
Gbest: 16.000000
Expectation: 13.963901
Final Parameters:
Gammas:
[ 5.849777 4.551763 1.143288 0.243861 ]
Betas:
[ 2.601787 1.937954 1.322202 1.299857 ]
Aggregate results:
[ 16 12 0 ]
[ 0.550937 0.429076 0.019987 ]
5
Num Evals 3200
GenUC: 8.233343e-06
GenUB: 9.067240e-06
Optimisation 3.900739e+01
Total Time: 3.900744e+01
2 Flipped
Graph 1:
0 1 1 1 
1 0 1 0 
1 1 0 1 
1 0 1 0 
Graph 2:
1 1 1 0 
0 1 0 1 
1 0 1 1 
0 1 0 1 
Solution: 8 1
Classic Expectation: 6.000000
Initial Expecation: 4.500000
Gbest: 8.000000
Expectation: 7.230511
Final Parameters:
Gammas:
[ 5.647490 5.969351 3.327341 3.818642 ]
Betas:
[ 0.285247 0.496440 2.610308 2.615130 ]
Aggregate results:
[ 4 8 6 0 ]
[ 0.018618 0.747594 0.195881 0.037907 ]
5
Num Evals 3200
GenUC: 9.290830e-06
GenUB: 2.017550e-06
Optimisation 3.418533e+01
Total Time: 3.418535e+01
3 Add 4
Graph 1:
0 1 1 1 
1 0 1 0 
1 1 0 1 
1 0 1 0 
Graph 2:
1 1 1 1 
1 1 1 1 
1 1 1 1 
1 1 1 0 
Solution: 11 0
Classic Expectation: 11.000000
Initial Expecation: 8.250000
Gbest: 11.000000
Expectation: 11.000000
Final Parameters:
Gammas:
[ 4.712389 3.173502 3.141593 3.141593 ]
Betas:
[ 2.356194 1.570796 1.570796 1.570796 ]
Aggregate results:
[ 11 0 ]
[ 1.000000 0.000000 ]
5
Num Evals 3200
GenUC: 9.539654e-06
GenUB: 1.798660e-06
Optimisation 3.617270e+01
Total Time: 3.617271e+01
4 Rem 4
Graph 1:
0 1 1 1 
1 0 1 0 
1 1 0 1 
1 0 1 0 
Graph 2:
0 0 0 0 
0 0 0 0 
0 0 0 1 
0 0 1 0 
Solution: 8 0
Classic Expectation: 7.333333
Initial Expecation: 5.500000
Gbest: 8.000000
Expectation: 7.959006
Final Parameters:
Gammas:
[ 5.429487 6.278271 1.462177 0.587632 ]
Betas:
[ 0.561473 0.509055 1.955331 2.724560 ]
Aggregate results:
[ 8 4 0 ]
[ 0.989772 0.010208 0.000020 ]
5
Num Evals 3200
GenUC: 9.489188e-06
GenUB: 1.748194e-06
Optimisation 3.301233e+01
Total Time: 3.301234e+01
5 Add/Rem 4
Graph 1:
0 1 1 1 
1 0 1 0 
1 1 0 1 
1 0 1 0 
Graph 2:
1 0 0 0 
0 1 0 1 
0 0 1 1 
0 1 1 0 
Solution: 7 1
Classic Expectation: 5.666667
Initial Expecation: 4.250000
Gbest: 7.000000
Expectation: 6.435479
Final Parameters:
Gammas:
[ 0.519739 3.604930 6.042655 4.357596 ]
Betas:
[ 1.553970 1.297916 2.394117 1.336345 ]
Aggregate results:
[ 3 7 0 ]
[ 0.066064 0.891041 0.042895 ]
5
Num Evals 3200
GenUC: 9.472758e-06
GenUB: 1.546898e-06
Optimisation 3.499409e+01
Total Time: 3.499411e+01
