Clock Speed: 3.689028
Num threads: 4
Trotterisation: 4
Graph Size: 3
Num Qubits: 3
Space Dimension: 8
Run-Type: 0
Num_samples: 10
1 Isomorphic
Graph 1:
0 1 0 
0 1 1 
1 1 0 
Graph 2:
0 1 0 
0 1 1 
1 1 0 
Solution: 0 0
Gbest: 0.000000
Expectation: -0.711792
Final Parameters:
Gammas:
[ 2.666349 2.823341 3.308985 3.641259 ]
Betas:
[ 1.768277 1.551987 1.726700 1.382639 2.433051 ]
Aggregate results:
[ -1 5 3 8 ]
[ 0.884298 0.012363 0.058487 0.044852 ]
5
Num Evals 300
GenUC: 1.209686e-04
GenUB: 7.811934e-06
Optimisation 7.747501e-02
Total Time: 7.789328e-02
2 Flipped
Graph 1:
0 1 0 
0 1 1 
1 1 0 
Graph 2:
0 1 0 
1 1 0 
0 1 1 
Solution: -2 5
Gbest: -2.000000
Expectation: -3.349383
Final Parameters:
Gammas:
[ 2.917940 2.504495 2.959842 3.846587 ]
Betas:
[ 2.654474 1.492026 1.234792 1.742712 1.890535 ]
Aggregate results:
[ 3 5 1 8 ]
[ 0.527681 0.070021 0.400307 0.001991 ]
5
Num Evals 600
GenUC: 6.690505e-06
GenUB: 5.678274e-06
Optimisation 7.802460e-02
Total Time: 7.829671e-02
3 Add 3
Graph 1:
0 1 0 
0 1 1 
1 1 0 
Graph 2:
1 1 0 
1 1 1 
1 1 0 
Solution: -2 0
Gbest: -2.000000
Expectation: -5.250000
Final Parameters:
Gammas:
[ 2.984513 3.141593 3.141593 3.141593 ]
Betas:
[ 0.863938 1.570796 1.570796 1.570796 1.570796 ]
Aggregate results:
[ 1 3 5 8 ]
[ 0.250000 0.250000 0.250000 0.250000 ]
3
Num Evals 622
GenUC: 6.290385e-06
GenUB: 5.454640e-06
Optimisation 1.699994e-02
Total Time: 1.725528e-02
4 Rem 3
Graph 1:
0 1 0 
0 1 1 
1 1 0 
Graph 2:
0 0 0 
0 0 0 
1 1 0 
Solution: -3 0
Gbest: -3.000000
Expectation: -3.000000
Final Parameters:
Gammas:
[ 3.362025 2.916779 3.110295 3.190786 ]
Betas:
[ 1.670440 1.578046 0.057866 1.786903 2.082356 ]
Aggregate results:
[ 2 4 8 ]
[ 1.000000 0.000000 0.000000 ]
3
Num Evals 765
GenUC: 8.083647e-06
GenUB: 5.509239e-06
Optimisation 3.488117e-02
Total Time: 3.512715e-02
5 Add/Rem 3
Graph 1:
0 1 0 
0 1 1 
1 1 0 
Graph 2:
0 1 1 
1 0 0 
0 1 0 
Solution: -1 5
Gbest: -1.000000
Expectation: -1.987175
Final Parameters:
Gammas:
[ 3.519021 2.458337 2.780859 3.086034 ]
Betas:
[ 0.004976 2.746861 0.443978 1.731991 1.616349 ]
Aggregate results:
[ 4 2 0 8 ]
[ 0.039491 0.409935 0.549406 0.001167 ]
5
Num Evals 1065
GenUC: 6.591319e-06
GenUB: 5.772221e-06
Optimisation 6.711611e-02
Total Time: 6.735910e-02
