Clock Speed: 3.687805
Num threads: 4
Trotterisation: 3
Graph Size: 7
Num Qubits: 13
Space Dimension: 8192
Run-Type: 0
Num_samples: 10
1 Isomorphic
Graph 1:
1 1 1 0 0 1 1 
0 1 0 0 1 1 0 
0 0 0 1 0 1 0 
1 0 1 1 0 1 0 
0 1 1 1 1 0 0 
0 1 1 0 0 1 1 
0 1 1 1 0 0 1 
Graph 2:
1 1 1 0 0 1 1 
0 1 0 0 1 1 0 
0 0 0 1 0 1 0 
1 0 1 1 0 1 0 
0 1 1 1 1 0 0 
0 1 1 0 0 1 1 
0 1 1 1 0 0 1 
Solution: 0 0
Gbest: -14.000000
Expectation: -24.423279
Final Parameters:
Gammas:
[ 3.141593 3.141593 3.012474 ]
Betas:
[ 1.958152 1.570796 2.356194 1.570796 ]
Aggregate results:
[ -1 15 19 7 13 21 17 11 25 23 29 9 27 31 5 33 37 48 ]
[ 0.000017 0.043306 0.154190 0.000034 0.018501 0.188896 0.093306 0.007339 0.137690 0.174696 0.034250 0.002443 0.064728 0.004267 0.000340 0.002356 0.000002 0.073639 ]
3
Num Evals 17
GenUC: 1.384978e-03
GenUB: 1.872844e-03
Optimisation 1.833745e-01
Total Time: 1.981740e-01
2 Flipped
Graph 1:
1 1 1 0 0 1 1 
0 1 0 0 1 1 0 
0 0 0 1 0 1 0 
1 0 1 1 0 1 0 
0 1 1 1 1 0 0 
0 1 1 0 0 1 1 
0 1 1 1 0 0 1 
Graph 2:
1 1 0 0 1 1 1 
0 1 1 0 0 1 0 
0 1 0 1 0 0 0 
0 1 0 1 1 0 1 
0 0 1 1 1 1 0 
1 1 0 0 1 1 0 
1 0 0 1 1 1 0 
Solution: -12 273
Gbest: -22.000000
Expectation: -23.961345
Final Parameters:
Gammas:
[ 3.135244 3.082511 3.151128 ]
Betas:
[ 1.633015 2.391755 2.141413 1.780069 ]
Aggregate results:
[ 23 19 25 27 21 29 17 13 15 31 11 33 35 37 48 ]
[ 0.221995 0.144797 0.176765 0.093430 0.209498 0.030941 0.065311 0.004768 0.019187 0.007242 0.000781 0.002141 0.000572 0.000132 0.022440 ]
5
Num Evals 717
GenUC: 1.245634e-03
GenUB: 2.243034e-03
Optimisation 7.826640e+00
Total Time: 7.841243e+00
3 Add 7
Graph 1:
1 1 1 0 0 1 1 
0 1 0 0 1 1 0 
0 0 0 1 0 1 0 
1 0 1 1 0 1 0 
0 1 1 1 1 0 0 
0 1 1 0 0 1 1 
0 1 1 1 0 0 1 
Graph 2:
1 1 1 0 0 1 1 
0 1 0 1 1 1 0 
1 0 1 1 0 1 1 
1 0 1 1 0 1 0 
1 1 1 1 1 0 1 
0 1 1 0 0 1 1 
0 1 1 1 0 0 1 
Solution: -6 0
Gbest: -20.000000
Expectation: -22.802263
Final Parameters:
Gammas:
[ 3.137001 3.083829 2.904905 ]
Betas:
[ 1.979974 2.506252 2.163182 1.592363 ]
Aggregate results:
[ 5 19 15 9 21 13 17 23 27 25 29 31 33 11 35 48 ]
[ 0.000004 0.196556 0.047892 0.000821 0.233419 0.011179 0.108744 0.187129 0.046003 0.116031 0.016366 0.003010 0.000386 0.003761 0.000017 0.028681 ]
5
Num Evals 1417
GenUC: 1.251180e-03
GenUB: 1.629301e-03
Optimisation 9.031673e+00
Total Time: 9.045930e+00
4 Rem 7
Graph 1:
1 1 1 0 0 1 1 
0 1 0 0 1 1 0 
0 0 0 1 0 1 0 
1 0 1 1 0 1 0 
0 1 1 1 1 0 0 
0 1 1 0 0 1 1 
0 1 1 1 0 0 1 
Graph 2:
0 1 0 0 0 1 1 
0 1 0 0 1 0 0 
0 0 0 0 0 1 0 
1 0 1 0 0 1 0 
0 1 1 1 1 0 0 
0 1 1 0 0 0 1 
0 1 1 1 0 0 1 
Solution: -6 0
Gbest: -20.000000
Expectation: -25.311198
Final Parameters:
Gammas:
[ 3.137247 3.079962 3.050404 ]
Betas:
[ 1.609425 2.430493 2.203334 1.573028 ]
Aggregate results:
[ 5 19 21 11 15 17 23 9 29 25 27 31 13 33 35 37 48 ]
[ 0.000025 0.087160 0.171335 0.000371 0.013546 0.039519 0.212484 0.000007 0.066734 0.208213 0.137469 0.024474 0.002792 0.004297 0.001062 0.000012 0.030501 ]
5
Num Evals 2117
GenUC: 1.182562e-03
GenUB: 1.909238e-03
Optimisation 8.516608e+00
Total Time: 8.530625e+00
5 Add/Rem 7
Graph 1:
1 1 1 0 0 1 1 
0 1 0 0 1 1 0 
0 0 0 1 0 1 0 
1 0 1 1 0 1 0 
0 1 1 1 1 0 0 
0 1 1 0 0 1 1 
0 1 1 1 0 0 1 
Graph 2:
1 1 1 0 0 0 1 
1 1 0 0 1 1 0 
0 0 0 0 1 1 0 
0 1 1 1 1 1 1 
0 1 1 1 1 1 0 
0 1 1 0 0 1 0 
0 0 0 1 1 0 1 
Solution: -7 4202
Gbest: -19.000000
Expectation: -32.828125
Final Parameters:
Gammas:
[ 3.141593 3.141593 3.141593 ]
Betas:
[ 1.669347 1.817568 1.647676 0.506662 ]
Aggregate results:
[ 12 20 24 14 22 26 18 16 28 8 30 32 10 6 48 ]
[ 0.003174 0.122681 0.115845 0.011475 0.142090 0.068481 0.077026 0.037842 0.024780 0.000244 0.009644 0.001099 0.000732 0.000122 0.384766 ]
3
Num Evals 2134
GenUC: 1.247646e-03
GenUB: 1.804421e-03
Optimisation 1.690021e-01
Total Time: 1.809868e-01
