Clock Speed: 3.688678
Num threads: 4
Trotterisation: 1
Graph Size: 3
Num Qubits: 3
Space Dimension: 8
Run-Type: 0
Num_samples: 10
1 Isomorphic
Graph 1:
1 0 1 
1 1 1 
1 1 1 
Graph 2:
1 0 1 
1 1 1 
1 1 1 
Solution: 0 0
Gbest: 0.000000
Expectation: -1.051099
Final Parameters:
Gammas:
[ 3.797766 ]
Betas:
[ 0.182386 2.609074 ]
Aggregate results:
[ -1 1 8 ]
[ 0.500980 0.491441 0.007580 ]
3
Num Evals 128
GenUC: 1.399774e-04
GenUB: 7.753260e-06
Optimisation 1.040264e-02
Total Time: 1.065962e-02
2 Flipped
Graph 1:
1 0 1 
1 1 1 
1 1 1 
Graph 2:
1 0 1 
1 1 1 
1 1 1 
Solution: 0 0
Gbest: 0.000000
Expectation: -1.051099
Final Parameters:
Gammas:
[ 2.485419 ]
Betas:
[ 2.409197 0.532518 ]
Aggregate results:
[ -1 1 8 ]
[ 0.500980 0.491441 0.007580 ]
3
Num Evals 252
GenUC: 6.488059e-06
GenUB: 5.390146e-06
Optimisation 1.064033e-02
Total Time: 1.074019e-02
3 Add 3
Graph 1:
1 0 1 
1 1 1 
1 1 1 
Graph 2:
1 1 1 
1 1 1 
1 1 1 
Solution: -1 0
Gbest: -1.000000
Expectation: -1.000000
Final Parameters:
Gammas:
[ 3.308153 ]
Betas:
[ 0.052472 2.689314 ]
Aggregate results:
[ 0 8 ]
[ 1.000000 0.000000 ]
3
Num Evals 374
GenUC: 5.788635e-06
GenUB: 5.174079e-06
Optimisation 1.029579e-02
Total Time: 1.038899e-02
4 Rem 3
Graph 1:
1 0 1 
1 1 1 
1 1 1 
Graph 2:
1 0 1 
1 0 0 
1 1 1 
Solution: -2 0
Gbest: -2.000000
Expectation: -2.808037
Final Parameters:
Gammas:
[ 2.348223 ]
Betas:
[ 1.879017 0.586375 ]
Aggregate results:
[ 1 3 8 ]
[ 0.698593 0.260362 0.041045 ]
3
Num Evals 480
GenUC: 5.850219e-06
GenUB: 5.427632e-06
Optimisation 8.630194e-03
Total Time: 8.730317e-03
5 Add/Rem 3
Graph 1:
1 0 1 
1 1 1 
1 1 1 
Graph 2:
1 1 0 
1 1 0 
0 1 1 
Solution: -2 2
Gbest: -2.000000
Expectation: -2.822273
Final Parameters:
Gammas:
[ 3.862774 ]
Betas:
[ 0.870507 1.147126 ]
Aggregate results:
[ 3 1 8 ]
[ 0.246226 0.706657 0.047117 ]
3
Num Evals 612
GenUC: 5.877111e-06
GenUB: 5.091424e-06
Optimisation 1.050865e-02
Total Time: 1.059988e-02
