Clock Speed: 3.498944
Num threads: 16
Trotterisation: 5
Num Qubits: 13
Space Dimension: 8192
Run-Type: 0
Num_samples: 49
Optimiser Method: 29
1 Isomorphic
Graph 1:
1 1 0 0 0 0 1 
1 1 0 0 1 0 0 
0 1 0 1 1 1 0 
0 1 1 0 0 0 1 
0 1 0 0 1 1 0 
0 0 0 1 0 1 1 
1 0 0 0 1 0 0 
Graph 2:
1 1 0 0 0 0 1 
1 1 0 0 1 0 0 
0 1 0 1 1 1 0 
0 1 1 0 0 0 1 
0 1 0 0 1 1 0 
0 0 0 1 0 1 1 
1 0 0 0 1 0 0 
Solution: 49 0
Classic Expectation: 25.333333
Initial Expecation: 15.585938
Gbest: 37.000000
Expectation: 26.747346
Final Parameters:
Gammas:
[ 3.143871 3.253429 3.176156 3.230469 2.954966 ]
Betas:
[ 1.638617 1.380199 1.503883 2.397218 2.990363 ]
Aggregate results:
[ 49 31 37 33 29 35 27 39 21 25 41 23 19 17 9 15 13 43 0 ]
[ 0.000296 0.146153 0.014162 0.066272 0.209577 0.048440 0.214714 0.000967 0.027740 0.140486 0.000944 0.058748 0.011248 0.006140 0.000314 0.002644 0.001114 0.000545 0.049499 ]
3
Num Evals 3893
GenUC: 2.235744e-03
GenUB: 1.248102e-03
Optimisation 1.961187e+02
Total Time: 1.961222e+02
2 Flipped
Graph 1:
1 1 0 0 0 0 1 
1 1 0 0 1 0 0 
0 1 0 1 1 1 0 
0 1 1 0 0 0 1 
0 1 0 0 1 1 0 
0 0 0 1 0 1 1 
1 0 0 0 1 0 0 
Graph 2:
1 0 0 0 0 1 1 
0 0 1 0 0 1 1 
0 1 1 1 0 1 0 
1 0 0 0 1 1 0 
0 1 1 0 0 1 0 
1 1 0 1 0 0 0 
0 0 1 0 0 0 1 
Solution: 37 684
Classic Expectation: 25.000000
Initial Expecation: 15.380859
Gbest: 35.000000
Expectation: 21.991940
Final Parameters:
Gammas:
[ 3.338278 3.685144 2.892599 3.019278 3.148454 ]
Betas:
[ 1.692534 1.469402 1.962469 1.926965 2.223047 ]
Aggregate results:
[ 23 21 25 27 29 31 19 33 15 17 35 37 13 11 0 ]
[ 0.116973 0.064559 0.182440 0.182975 0.136935 0.078947 0.027196 0.025400 0.002736 0.009636 0.010525 0.002535 0.000104 0.000249 0.158790 ]
3
Num Evals 5331
GenUC: 2.808627e-03
GenUB: 1.015582e-03
Optimisation 2.624955e+02
Total Time: 2.624994e+02
3 Add 7
Graph 1:
1 1 0 0 0 0 1 
1 1 0 0 1 0 0 
0 1 0 1 1 1 0 
0 1 1 0 0 0 1 
0 1 0 0 1 1 0 
0 0 0 1 0 1 1 
1 0 0 0 1 0 0 
Graph 2:
1 1 1 0 0 0 1 
1 1 0 0 1 1 0 
1 1 0 1 1 1 0 
0 1 1 0 1 0 1 
0 1 0 1 1 1 1 
0 0 0 1 0 1 1 
1 0 0 0 1 1 0 
Solution: 42 0
Classic Expectation: 24.000000
Initial Expecation: 14.765625
Gbest: 36.000000
Expectation: 24.502280
Final Parameters:
Gammas:
[ 3.179373 3.187513 3.069515 3.123022 3.219466 ]
Betas:
[ 0.377424 0.681660 2.597374 1.479973 2.067666 ]
Aggregate results:
[ 42 28 38 30 36 26 22 32 24 34 18 20 16 12 14 40 8 10 0 ]
[ 0.000469 0.155850 0.000909 0.102654 0.006031 0.200653 0.120132 0.052211 0.182172 0.017205 0.031306 0.073773 0.012234 0.000536 0.002527 0.000549 0.000004 0.000120 0.040663 ]
3
Num Evals 4608
GenUC: 2.815078e-03
GenUB: 1.239703e-03
Optimisation 1.950487e+02
Total Time: 1.950527e+02
4 Rem 7
Graph 1:
1 1 0 0 0 0 1 
1 1 0 0 1 0 0 
0 1 0 1 1 1 0 
0 1 1 0 0 0 1 
0 1 0 0 1 1 0 
0 0 0 1 0 1 1 
1 0 0 0 1 0 0 
Graph 2:
1 1 0 0 0 0 0 
1 1 0 0 1 0 0 
0 1 0 0 1 1 0 
0 1 0 0 0 0 1 
0 1 0 0 1 0 0 
0 0 0 1 0 0 1 
0 0 0 0 0 0 0 
Solution: 42 0
Classic Expectation: 26.333333
Initial Expecation: 16.201172
Gbest: 34.000000
Expectation: 26.314781
Final Parameters:
Gammas:
[ 3.107316 3.364464 3.170740 3.197891 6.237437 ]
Betas:
[ 2.471087 2.456204 0.513199 1.365624 2.080795 ]
Aggregate results:
[ 42 34 30 32 38 36 26 28 24 22 20 18 16 40 0 ]
[ 0.000079 0.035627 0.215678 0.100389 0.001323 0.011679 0.196789 0.247587 0.081481 0.026155 0.010823 0.006325 0.001633 0.000258 0.064175 ]
3
Num Evals 3990
GenUC: 2.815082e-03
GenUB: 1.202807e-03
Optimisation 1.891904e+02
Total Time: 1.891944e+02
5 Add/Rem 7
Graph 1:
1 1 0 0 0 0 1 
1 1 0 0 1 0 0 
0 1 0 1 1 1 0 
0 1 1 0 0 0 1 
0 1 0 0 1 1 0 
0 0 0 1 0 1 1 
1 0 0 0 1 0 0 
Graph 2:
1 1 0 1 0 0 1 
1 1 1 0 0 0 1 
0 1 1 0 1 1 0 
0 1 1 0 0 0 0 
0 0 0 0 1 1 0 
0 0 1 0 1 1 1 
0 0 0 1 1 0 0 
Solution: 38 3434
Classic Expectation: 25.476190
Initial Expecation: 15.673828
Gbest: 34.000000
Expectation: 23.643102
Final Parameters:
Gammas:
[ 3.194886 4.018795 3.289856 3.231625 3.193566 ]
Betas:
[ 2.712789 1.242772 1.702759 1.648376 2.582140 ]
Aggregate results:
[ 36 28 32 24 30 26 34 22 20 14 18 16 12 38 0 ]
[ 0.002971 0.151050 0.040357 0.199277 0.089653 0.197091 0.010575 0.128375 0.077896 0.001067 0.029813 0.007406 0.000127 0.000141 0.064199 ]
3
Num Evals 6460
GenUC: 2.813979e-03
GenUB: 1.106802e-03
Optimisation 3.249420e+02
Total Time: 3.249459e+02
