Clock Speed: 3.498585
Num threads: 16
Trotterisation: 5
Num Qubits: 13
Space Dimension: 8192
Run-Type: 0
Num_samples: 49
Optimiser Method: 29
1 Isomorphic
Graph 1:
0 1 1 1 0 1 1 
1 0 1 1 0 0 1 
1 0 1 0 0 1 1 
1 1 0 1 1 1 1 
1 1 0 1 0 0 1 
1 0 0 0 0 0 1 
1 0 0 1 0 1 0 
Graph 2:
0 1 1 1 0 1 1 
1 0 1 1 0 0 1 
1 0 1 0 0 1 1 
1 1 0 1 1 1 1 
1 1 0 1 0 0 1 
1 0 0 0 0 0 1 
1 0 0 1 0 1 0 
Solution: 49 0
Classic Expectation: 26.333333
Initial Expecation: 16.201172
Gbest: 39.000000
Expectation: 25.137793
Final Parameters:
Gammas:
[ 3.064172 3.438464 3.204817 3.138639 3.172486 ]
Betas:
[ 1.446706 2.210164 1.091291 1.676488 2.838508 ]
Aggregate results:
[ 49 43 39 35 37 33 29 25 31 41 27 23 21 17 19 13 15 45 0 ]
[ 0.000442 0.000802 0.005127 0.029358 0.009174 0.059407 0.169609 0.158515 0.126370 0.000722 0.187726 0.104065 0.046391 0.002988 0.011618 0.000003 0.000119 0.000355 0.087207 ]
3
Num Evals 5417
GenUC: 2.280775e-03
GenUB: 1.248269e-03
Optimisation 2.525941e+02
Total Time: 2.525977e+02
2 Flipped
Graph 1:
0 1 1 1 0 1 1 
1 0 1 1 0 0 1 
1 0 1 0 0 1 1 
1 1 0 1 1 1 1 
1 1 0 1 0 0 1 
1 0 0 0 0 0 1 
1 0 0 1 0 1 0 
Graph 2:
1 1 0 1 1 1 0 
1 0 0 1 1 0 1 
1 1 0 0 1 0 1 
1 1 1 1 0 1 1 
1 0 0 1 0 1 1 
1 0 0 0 0 0 1 
0 1 0 1 0 0 1 
Solution: 39 54
Classic Expectation: 25.666667
Initial Expecation: 15.791016
Gbest: 33.000000
Expectation: 22.696470
Final Parameters:
Gammas:
[ 3.225638 3.651560 3.299182 2.900771 2.899584 ]
Betas:
[ 1.925483 1.774309 1.272968 1.873337 2.028670 ]
Aggregate results:
[ 31 27 29 33 25 23 35 39 21 19 37 17 15 0 ]
[ 0.058149 0.197842 0.133578 0.016134 0.197046 0.153420 0.004125 0.000037 0.086333 0.028902 0.000929 0.008001 0.000851 0.114653 ]
5
Num Evals 7000
GenUC: 2.810990e-03
GenUB: 1.253403e-03
Optimisation 3.201131e+02
Total Time: 3.201172e+02
3 Add 7
Graph 1:
0 1 1 1 0 1 1 
1 0 1 1 0 0 1 
1 0 1 0 0 1 1 
1 1 0 1 1 1 1 
1 1 0 1 0 0 1 
1 0 0 0 0 0 1 
1 0 0 1 0 1 0 
Graph 2:
0 1 1 1 0 1 1 
1 0 1 1 0 1 1 
1 0 1 0 0 1 1 
1 1 0 1 1 1 1 
1 1 1 1 1 0 1 
1 0 0 0 0 1 1 
1 1 1 1 1 1 0 
Solution: 42 0
Classic Expectation: 26.666667
Initial Expecation: 16.406250
Gbest: 38.000000
Expectation: 28.340683
Final Parameters:
Gammas:
[ 3.107447 3.246886 3.091436 3.058590 3.078040 ]
Betas:
[ 2.305979 1.435006 1.564138 0.483462 2.978951 ]
Aggregate results:
[ 42 38 34 30 32 36 28 26 24 22 20 18 40 0 ]
[ 0.002774 0.010742 0.075940 0.228963 0.171212 0.025737 0.199032 0.143018 0.077240 0.028998 0.006134 0.000448 0.001149 0.028612 ]
3
Num Evals 4177
GenUC: 2.816407e-03
GenUB: 1.158153e-03
Optimisation 1.897468e+02
Total Time: 1.897507e+02
4 Rem 7
Graph 1:
0 1 1 1 0 1 1 
1 0 1 1 0 0 1 
1 0 1 0 0 1 1 
1 1 0 1 1 1 1 
1 1 0 1 0 0 1 
1 0 0 0 0 0 1 
1 0 0 1 0 1 0 
Graph 2:
0 1 1 1 0 1 1 
0 0 1 1 0 0 0 
1 0 0 0 0 0 0 
0 1 0 1 1 1 1 
1 1 0 1 0 0 1 
0 0 0 0 0 0 1 
1 0 0 1 0 1 0 
Solution: 42 0
Classic Expectation: 25.333333
Initial Expecation: 15.585938
Gbest: 32.000000
Expectation: 24.700366
Final Parameters:
Gammas:
[ 3.100524 3.743436 3.492692 2.561912 2.738749 ]
Betas:
[ 2.388245 1.414495 1.667380 1.562396 2.130108 ]
Aggregate results:
[ 42 38 34 32 28 30 26 24 22 20 36 18 16 14 0 ]
[ 0.000568 0.000958 0.013386 0.039119 0.179637 0.104620 0.243589 0.200382 0.111423 0.043311 0.001707 0.011111 0.002588 0.000133 0.047467 ]
3
Num Evals 5109
GenUC: 2.819981e-03
GenUB: 1.060504e-03
Optimisation 2.395531e+02
Total Time: 2.395570e+02
5 Add/Rem 7
Graph 1:
0 1 1 1 0 1 1 
1 0 1 1 0 0 1 
1 0 1 0 0 1 1 
1 1 0 1 1 1 1 
1 1 0 1 0 0 1 
1 0 0 0 0 0 1 
1 0 0 1 0 1 0 
Graph 2:
0 1 0 0 1 1 0 
1 0 1 1 0 0 1 
1 0 1 0 1 0 1 
1 1 0 0 1 0 1 
1 1 0 1 0 0 1 
1 0 1 1 0 0 1 
1 0 1 1 0 0 0 
Solution: 37 0
Classic Expectation: 26.523810
Initial Expecation: 16.318359
Gbest: 37.000000
Expectation: 24.843399
Final Parameters:
Gammas:
[ 3.076310 3.299572 3.131120 3.079240 0.875668 ]
Betas:
[ 0.871981 1.567826 0.989047 1.984790 1.934975 ]
Aggregate results:
[ 37 33 31 35 25 27 29 21 23 19 17 15 0 ]
[ 0.005659 0.049359 0.117500 0.017485 0.173914 0.200346 0.157654 0.052933 0.121286 0.021772 0.006137 0.000158 0.075798 ]
3
Num Evals 5254
GenUC: 2.817478e-03
GenUB: 1.064963e-03
Optimisation 2.179377e+02
Total Time: 2.179416e+02
