Clock Speed: 3.689247
Num threads: 4
Trotterisation: 2
Graph Size: 5
Num Qubits: 7
Space Dimension: 128
Run-Type: 0
Num_samples: 10
1 Isomorphic
Graph 1:
0 0 0 1 0 
1 1 1 1 0 
0 1 1 1 0 
1 0 1 1 0 
1 0 1 0 0 
Graph 2:
0 0 0 1 0 
1 1 1 1 0 
0 1 1 1 0 
1 0 1 1 0 
1 0 1 0 0 
Solution: 0 0
Gbest: 0.000000
Expectation: -10.106786
Final Parameters:
Gammas:
[ 0.175371 0.183487 ]
Betas:
[ 1.064096 2.333553 2.963034 ]
Aggregate results:
[ -1 11 9 5 3 7 15 13 17 19 24 ]
[ 0.071919 0.134577 0.226192 0.125598 0.078070 0.110637 0.072650 0.119089 0.011179 0.000821 0.049267 ]
5
Num Evals 500
GenUC: 1.886807e-04
GenUB: 3.144599e-05
Optimisation 1.974383e-01
Total Time: 1.980724e-01
2 Flipped
Graph 1:
0 0 0 1 0 
1 1 1 1 0 
0 1 1 1 0 
1 0 1 1 0 
1 0 1 0 0 
Graph 2:
0 1 0 0 0 
0 1 1 1 1 
0 1 1 1 0 
0 1 1 0 1 
0 0 1 0 1 
Solution: -6 96
Gbest: -6.000000
Expectation: -10.597467
Final Parameters:
Gammas:
[ 2.867296 0.007298 ]
Betas:
[ 0.761398 1.684840 1.720263 ]
Aggregate results:
[ 9 11 15 13 7 17 5 24 ]
[ 0.254261 0.276727 0.037493 0.092708 0.275586 0.002197 0.049137 0.011891 ]
5
Num Evals 1000
GenUC: 2.545805e-05
GenUB: 2.004276e-05
Optimisation 1.654591e-01
Total Time: 1.659605e-01
3 Add 5
Graph 1:
0 0 0 1 0 
1 1 1 1 0 
0 1 1 1 0 
1 0 1 1 0 
1 0 1 0 0 
Graph 2:
1 0 1 1 0 
1 1 1 1 0 
0 1 1 1 0 
1 0 1 1 0 
1 0 1 1 0 
Solution: -3 0
Gbest: -3.000000
Expectation: -8.990264
Final Parameters:
Gammas:
[ 3.281750 6.084545 ]
Betas:
[ 2.949464 2.278732 0.349439 ]
Aggregate results:
[ 2 10 8 4 6 12 16 14 18 24 ]
[ 0.061350 0.169393 0.290479 0.066725 0.261390 0.086866 0.013931 0.042835 0.003194 0.003837 ]
5
Num Evals 1500
GenUC: 2.429087e-05
GenUB: 1.753226e-05
Optimisation 1.724805e-01
Total Time: 1.728878e-01
4 Rem 5
Graph 1:
0 0 0 1 0 
1 1 1 1 0 
0 1 1 1 0 
1 0 1 1 0 
1 0 1 0 0 
Graph 2:
0 0 0 1 0 
1 1 1 1 0 
0 0 0 1 0 
1 0 0 1 0 
0 0 1 0 0 
Solution: -4 0
Gbest: -8.000000
Expectation: -11.724633
Final Parameters:
Gammas:
[ 3.500007 0.049166 ]
Betas:
[ 0.328992 0.495064 2.561601 ]
Aggregate results:
[ 3 11 7 13 9 5 15 17 19 24 ]
[ 0.026421 0.346520 0.150933 0.144173 0.191280 0.017273 0.076021 0.019572 0.009084 0.018723 ]
5
Num Evals 2000
GenUC: 2.453616e-05
GenUB: 1.813076e-05
Optimisation 1.738347e-01
Total Time: 1.742212e-01
5 Add/Rem 5
Graph 1:
0 0 0 1 0 
1 1 1 1 0 
0 1 1 1 0 
1 0 1 1 0 
1 0 1 0 0 
Graph 2:
1 1 1 1 1 
1 1 0 1 0 
1 1 0 0 0 
1 0 0 0 0 
1 0 1 0 0 
Solution: -6 21
Gbest: -8.000000
Expectation: -11.384748
Final Parameters:
Gammas:
[ 6.134323 3.503729 ]
Betas:
[ 1.793897 1.760621 1.637601 ]
Aggregate results:
[ 9 11 7 13 5 15 17 19 24 ]
[ 0.306503 0.287275 0.162365 0.108801 0.027357 0.078031 0.012977 0.002641 0.014050 ]
5
Num Evals 2500
GenUC: 2.445513e-05
GenUB: 1.757103e-05
Optimisation 1.482986e-01
Total Time: 1.486847e-01
