Clock Speed: 3.689233
Num threads: 4
Trotterisation: 2
Graph Size: 4
Num Qubits: 5
Space Dimension: 32
Run-Type: 0
Num_samples: 10
1 Isomorphic
Graph 1:
0 1 1 0 
1 1 0 1 
0 1 1 0 
0 1 1 1 
Graph 2:
0 1 1 0 
1 1 0 1 
0 1 1 0 
0 1 1 1 
Solution: 0 0
Gbest: 0.000000
Expectation: -6.029020
Final Parameters:
Gammas:
[ 6.075590 3.084317 ]
Betas:
[ 3.141593 1.121534 2.388523 ]
Aggregate results:
[ -1 9 7 5 1 15 ]
[ 0.112044 0.049474 0.454373 0.233983 0.136187 0.013939 ]
5
Num Evals 400
GenUC: 1.660055e-04
GenUB: 1.157774e-05
Optimisation 9.581835e-02
Total Time: 9.628810e-02
2 Flipped
Graph 1:
0 1 1 0 
1 1 0 1 
0 1 1 0 
0 1 1 1 
Graph 2:
0 1 1 0 
1 0 1 1 
0 1 1 0 
1 1 1 0 
Solution: -4 0
Gbest: -4.000000
Expectation: -7.340181
Final Parameters:
Gammas:
[ 0.188388 2.951136 ]
Betas:
[ 2.049179 1.313249 1.390155 ]
Aggregate results:
[ 3 7 9 5 11 15 ]
[ 0.181131 0.460423 0.137968 0.194775 0.006827 0.018876 ]
5
Num Evals 800
GenUC: 9.559619e-06
GenUB: 8.435221e-06
Optimisation 1.027081e-01
Total Time: 1.029324e-01
3 Add 4
Graph 1:
0 1 1 0 
1 1 0 1 
0 1 1 0 
0 1 1 1 
Graph 2:
1 1 1 0 
1 1 0 1 
0 1 1 0 
1 1 1 1 
Solution: -2 0
Gbest: -2.000000
Expectation: -6.514990
Final Parameters:
Gammas:
[ 0.451551 1.826609 ]
Betas:
[ 1.569775 0.114854 0.462199 ]
Aggregate results:
[ 1 7 5 15 ]
[ 0.121033 0.108930 0.691910 0.078126 ]
5
Num Evals 1200
GenUC: 1.030311e-05
GenUB: 8.402334e-06
Optimisation 5.915411e-02
Total Time: 5.931893e-02
4 Rem 4
Graph 1:
0 1 1 0 
1 1 0 1 
0 1 1 0 
0 1 1 1 
Graph 2:
0 0 0 0 
1 1 0 1 
0 1 1 0 
0 1 0 1 
Solution: -3 0
Gbest: -7.000000
Expectation: -8.108318
Final Parameters:
Gammas:
[ 5.655771 4.365872 ]
Betas:
[ 1.201964 0.821921 1.705207 ]
Aggregate results:
[ 2 10 6 8 4 15 ]
[ 0.095228 0.146909 0.366716 0.153502 0.140383 0.097262 ]
5
Num Evals 1600
GenUC: 9.140582e-06
GenUB: 8.133589e-06
Optimisation 6.889108e-02
Total Time: 6.908845e-02
5 Add/Rem 4
Graph 1:
0 1 1 0 
1 1 0 1 
0 1 1 0 
0 1 1 1 
Graph 2:
1 1 1 1 
0 1 1 0 
0 1 0 0 
0 1 0 1 
Solution: -3 22
Gbest: -5.000000
Expectation: -6.991178
Final Parameters:
Gammas:
[ 4.489946 1.617694 ]
Betas:
[ 2.901793 3.141593 0.361646 ]
Aggregate results:
[ 6 8 4 10 2 15 ]
[ 0.445186 0.214260 0.194500 0.034247 0.091660 0.020146 ]
5
Num Evals 2000
GenUC: 8.911738e-06
GenUB: 8.232775e-06
Optimisation 8.573384e-02
Total Time: 8.596703e-02
