Clock Speed: 3.689204
Num threads: 4
Trotterisation: 2
Graph Size: 4
Num Qubits: 5
Space Dimension: 32
Run-Type: 0
Num_samples: 10
1 Isomorphic
Graph 1:
0 1 1 0 
1 1 0 0 
0 1 1 1 
1 1 1 0 
Graph 2:
0 1 1 0 
1 1 0 0 
0 1 1 1 
1 1 1 0 
Solution: 0 0
Gbest: 0.000000
Expectation: -7.526557
Final Parameters:
Gammas:
[ 4.519709 4.489152 ]
Betas:
[ 1.187421 2.804117 2.633153 ]
Aggregate results:
[ -1 5 7 9 11 3 15 ]
[ 0.137260 0.354492 0.050139 0.299249 0.001472 0.044157 0.113232 ]
5
Num Evals 400
GenUC: 2.265143e-04
GenUB: 1.240568e-05
Optimisation 9.561500e-02
Total Time: 9.612521e-02
2 Flipped
Graph 1:
0 1 1 0 
1 1 0 0 
0 1 1 1 
1 1 1 0 
Graph 2:
0 1 1 0 
0 0 1 1 
1 1 1 0 
0 1 1 1 
Solution: -4 3
Gbest: -4.000000
Expectation: -5.451026
Final Parameters:
Gammas:
[ 0.209266 2.679894 ]
Betas:
[ 3.141593 2.766985 0.241577 ]
Aggregate results:
[ 7 3 11 15 ]
[ 0.315081 0.667434 0.004779 0.012706 ]
5
Num Evals 800
GenUC: 9.493320e-06
GenUB: 8.756761e-06
Optimisation 1.009010e-01
Total Time: 1.011455e-01
3 Add 4
Graph 1:
0 1 1 0 
1 1 0 0 
0 1 1 1 
1 1 1 0 
Graph 2:
1 1 1 1 
1 1 0 0 
0 1 1 1 
1 1 1 1 
Solution: -3 0
Gbest: -5.000000
Expectation: -7.137454
Final Parameters:
Gammas:
[ 5.955398 1.901015 ]
Betas:
[ 3.031316 1.005826 2.400096 ]
Aggregate results:
[ 2 6 8 4 15 ]
[ 0.000739 0.371116 0.154707 0.402722 0.070716 ]
5
Num Evals 1200
GenUC: 1.029205e-05
GenUB: 8.238712e-06
Optimisation 8.378701e-02
Total Time: 8.403546e-02
4 Rem 4
Graph 1:
0 1 1 0 
1 1 0 0 
0 1 1 1 
1 1 1 0 
Graph 2:
0 1 1 0 
1 0 0 0 
0 0 1 1 
0 0 1 0 
Solution: -4 0
Gbest: -4.000000
Expectation: -8.276801
Final Parameters:
Gammas:
[ 0.641038 1.512042 ]
Betas:
[ 3.131992 1.073443 2.766924 ]
Aggregate results:
[ 3 5 9 7 11 15 ]
[ 0.109080 0.133913 0.221447 0.450363 0.035882 0.049315 ]
5
Num Evals 1600
GenUC: 8.819625e-06
GenUB: 8.111820e-06
Optimisation 9.106582e-02
Total Time: 9.132469e-02
5 Add/Rem 4
Graph 1:
0 1 1 0 
1 1 0 0 
0 1 1 1 
1 1 1 0 
Graph 2:
0 1 0 0 
1 1 1 1 
1 1 0 1 
1 0 1 0 
Solution: -4 8
Gbest: -6.000000
Expectation: -6.565158
Final Parameters:
Gammas:
[ 6.137227 6.124511 ]
Betas:
[ 1.360597 2.269245 1.212365 ]
Aggregate results:
[ 5 9 3 7 15 ]
[ 0.796586 0.120591 0.038916 0.034805 0.009102 ]
5
Num Evals 2000
GenUC: 9.137089e-06
GenUB: 8.162227e-06
Optimisation 7.764316e-02
Total Time: 7.785705e-02
