Clock Speed: 3.689080
Num threads: 4
Trotterisation: 6
Num Qubits: 7
Space Dimension: 128
Run-Type: 0
Num_samples: 5
Optimiser Method: 20
1 Isomorphic
Graph 1:
0 1 1 0 1 
1 0 0 1 1 
1 0 0 1 0 
0 1 1 0 1 
1 1 0 1 0 
Graph 2:
0 1 1 0 1 
1 0 0 1 1 
1 0 0 1 0 
0 1 1 0 1 
1 1 0 1 0 
Solution: 25 0
Classic Expectation: 16.600000
Initial Expecation: 15.562500
Gbest: 21.000000
Expectation: 17.894152
Final Parameters:
Gammas:
[ 4.346691 4.810103 3.521515 0.161331 4.046182 2.062640 ]
Betas:
[ 2.943894 1.444776 1.212841 1.017105 2.982906 1.984752 ]
Aggregate results:
[ 25 17 13 21 0 ]
[ 0.077105 0.407128 0.190989 0.312499 0.012278 ]
5
Num Evals 6000
GenUC: 4.125242e-05
GenUB: 1.463460e-05
Optimisation 1.346079e+02
Total Time: 1.346080e+02
2 Flipped
Graph 1:
0 1 1 0 1 
1 0 0 1 1 
1 0 0 1 0 
0 1 1 0 1 
1 1 0 1 0 
Graph 2:
1 0 1 1 0 
1 1 0 0 1 
0 1 0 0 1 
1 0 1 1 0 
0 1 0 1 1 
Solution: 15 3
Classic Expectation: 11.000000
Initial Expecation: 10.312500
Gbest: 13.000000
Expectation: 11.542871
Final Parameters:
Gammas:
[ 2.338785 0.267620 0.000000 0.824074 2.863435 4.670979 ]
Betas:
[ 1.757665 0.160392 0.560267 0.095584 0.146891 1.330685 ]
Aggregate results:
[ 9 13 15 7 11 0 ]
[ 0.118702 0.281725 0.223227 0.094296 0.254878 0.027173 ]
5
Num Evals 6000
GenUC: 4.455223e-05
GenUB: 3.204143e-06
Optimisation 7.477322e+01
Total Time: 7.477327e+01
3 Add 5
Graph 1:
0 1 1 0 1 
1 0 0 1 1 
1 0 0 1 0 
0 1 1 0 1 
1 1 0 1 0 
Graph 2:
0 1 1 1 1 
1 1 1 1 1 
1 1 0 1 1 
1 1 1 0 1 
1 1 1 1 0 
Solution: 18 0
Classic Expectation: 18.000000
Initial Expecation: 16.875000
Gbest: 18.000000
Expectation: 18.000000
Final Parameters:
Gammas:
[ 4.952788 4.615654 3.125074 3.060304 3.150570 3.466713 ]
Betas:
[ 1.948076 1.595154 1.541423 1.569755 1.528828 1.562381 ]
Aggregate results:
[ 18 0 ]
[ 1.000000 0.000000 ]
5
Num Evals 6000
GenUC: 4.447652e-05
GenUB: 3.072098e-06
Optimisation 1.187426e+02
Total Time: 1.187426e+02
4 Rem 5
Graph 1:
0 1 1 0 1 
1 0 0 1 1 
1 0 0 1 0 
0 1 1 0 1 
1 1 0 1 0 
Graph 2:
0 1 0 0 0 
1 0 0 0 1 
0 0 0 1 0 
0 0 1 0 1 
0 1 0 1 0 
Solution: 19 0
Classic Expectation: 14.200000
Initial Expecation: 13.312500
Gbest: 19.000000
Expectation: 17.797273
Final Parameters:
Gammas:
[ 5.186684 4.654526 1.708446 3.929960 0.026882 1.246304 ]
Betas:
[ 2.093935 1.067729 3.115027 0.756014 2.108602 2.972476 ]
Aggregate results:
[ 19 15 11 7 0 ]
[ 0.760794 0.197928 0.031751 0.003430 0.006097 ]
5
Num Evals 6000
GenUC: 4.445597e-05
GenUB: 2.843823e-06
Optimisation 1.404351e+02
Total Time: 1.404351e+02
5 Add/Rem 5
Graph 1:
0 1 1 0 1 
1 0 0 1 1 
1 0 0 1 0 
0 1 1 0 1 
1 1 0 1 0 
Graph 2:
1 0 0 1 0 
0 1 1 0 0 
0 1 0 1 1 
1 0 1 0 1 
0 0 1 1 0 
Solution: 19 12
Classic Expectation: 13.000000
Initial Expecation: 12.187500
Gbest: 15.000000
Expectation: 14.100108
Final Parameters:
Gammas:
[ 0.409444 6.001799 5.880354 2.595786 3.887133 4.028578 ]
Betas:
[ 0.877930 0.346548 1.101144 0.861314 1.922741 2.086996 ]
Aggregate results:
[ 7 11 15 19 0 ]
[ 0.028335 0.307277 0.450787 0.197890 0.015711 ]
5
Num Evals 6000
GenUC: 4.439084e-05
GenUB: 2.918940e-06
Optimisation 1.033299e+02
Total Time: 1.033299e+02
