Clock Speed: 3.498887
Num threads: 16
Trotterisation: 1
Num Qubits: 5
Space Dimension: 32
Run-Type: 0
Num_samples: 16
Optimiser Method: 0
1 Isomorphic
Graph 1:
0 1 1 0 
1 1 1 1 
1 0 0 0 
0 0 0 1 
Graph 2:
0 1 1 0 
1 1 1 1 
1 0 0 0 
0 0 0 1 
Solution: 16 0
Classic Expectation: 8.000000
Initial Expecation: 6.000000
Gbest: 16.000000
Expectation: 8.749604
Final Parameters:
Gammas:
[ 0.349066 ]
Betas:
[ 0.523599 ]
Aggregate results:
[ 16 10 6 8 14 4 0 ]
[ 0.130001 0.051829 0.185362 0.319661 0.161085 0.056662 0.095400 ]
3
Num Evals 91
GenUC: 9.926967e-06
GenUB: 1.213187e-05
Optimisation 4.969034e-03
Total Time: 4.998169e-03
2 Flipped
Graph 1:
0 1 1 0 
1 1 1 1 
1 0 0 0 
0 0 0 1 
Graph 2:
0 1 1 0 
1 1 1 1 
0 0 0 1 
1 0 0 0 
Solution: 12 0
Classic Expectation: 8.000000
Initial Expecation: 6.000000
Gbest: 12.000000
Expectation: 7.861947
Final Parameters:
Gammas:
[ 0.349066 ]
Betas:
[ 0.523599 ]
Aggregate results:
[ 12 8 6 10 4 0 ]
[ 0.176808 0.200743 0.054541 0.379724 0.002455 0.185729 ]
3
Num Evals 69
GenUC: 9.419862e-06
GenUB: 3.295951e-06
Optimisation 2.623824e-03
Total Time: 2.638579e-03
3 Add 4
Graph 1:
0 1 1 0 
1 1 1 1 
1 0 0 0 
0 0 0 1 
Graph 2:
0 1 1 0 
1 1 1 1 
1 1 1 0 
1 0 1 1 
Solution: 12 0
Classic Expectation: 8.000000
Initial Expecation: 6.000000
Gbest: 12.000000
Expectation: 8.000841
Final Parameters:
Gammas:
[ 0.349066 ]
Betas:
[ 0.523599 ]
Aggregate results:
[ 12 10 8 6 0 ]
[ 0.229140 0.167514 0.293103 0.205198 0.105044 ]
3
Num Evals 23
GenUC: 9.081792e-06
GenUB: 2.383254e-06
Optimisation 8.756230e-04
Total Time: 8.882624e-04
4 Rem 4
Graph 1:
0 1 1 0 
1 1 1 1 
1 0 0 0 
0 0 0 1 
Graph 2:
0 1 0 0 
1 1 0 1 
0 0 0 0 
0 0 0 1 
Solution: 13 0
Classic Expectation: 8.000000
Initial Expecation: 6.000000
Gbest: 13.000000
Expectation: 6.791016
Final Parameters:
Gammas:
[ 1.047198 ]
Betas:
[ 2.617994 ]
Aggregate results:
[ 13 11 9 5 7 0 ]
[ 0.077759 0.138062 0.344482 0.083374 0.106323 0.250000 ]
3
Num Evals 13
GenUC: 9.586103e-06
GenUB: 1.865905e-06
Optimisation 4.238887e-04
Total Time: 4.365230e-04
5 Add/Rem 4
Graph 1:
0 1 1 0 
1 1 1 1 
1 0 0 0 
0 0 0 1 
Graph 2:
1 1 1 1 
0 1 1 1 
0 0 0 0 
0 0 1 0 
Solution: 12 13
Classic Expectation: 8.000000
Initial Expecation: 6.000000
Gbest: 10.000000
Expectation: 7.619136
Final Parameters:
Gammas:
[ 0.349066 ]
Betas:
[ 0.523599 ]
Aggregate results:
[ 10 4 6 8 12 0 ]
[ 0.399101 0.023685 0.091439 0.144306 0.152526 0.188944 ]
3
Num Evals 39
GenUC: 8.775853e-06
GenUB: 1.418870e-06
Optimisation 1.460122e-03
Total Time: 1.471252e-03
