Clock Speed: 3.689397
Num threads: 4
Trotterisation: 1
Num Qubits: 5
Space Dimension: 32
Run-Type: 0
Num_samples: 6399
Optimiser Method: 0
1 Isomorphic
Graph 1:
1 0 1 1 
0 0 1 1 
1 1 1 1 
1 1 1 0 
Graph 2:
1 0 1 1 
0 0 1 1 
1 1 1 1 
1 1 1 0 
Solution: 16 0
Classic Expectation: 10.666667
Initial Expecation: 8.000000
Gbest: 16.000000
Expectation: 9.465673
Final Parameters:
Gammas:
[ 4.537750 ]
Betas:
[ 0.772004 ]
Aggregate results:
[ 16 14 10 12 8 0 ]
[ 0.054979 0.222932 0.191172 0.196034 0.150104 0.184779 ]
3
Num Evals 331
GenUC: 8.333125e-06
GenUB: 8.115428e-06
Optimisation 2.866001e-02
Total Time: 2.869373e-02
2 Flipped
Graph 1:
1 0 1 1 
0 0 1 1 
1 1 1 1 
1 1 1 0 
Graph 2:
1 1 0 1 
1 1 0 0 
1 1 1 1 
0 1 1 1 
Solution: 10 2
Classic Expectation: 9.333333
Initial Expecation: 7.000000
Gbest: 10.000000
Expectation: 8.663222
Final Parameters:
Gammas:
[ 0.864285 ]
Betas:
[ 0.518403 ]
Aggregate results:
[ 8 10 0 ]
[ 0.114911 0.774393 0.110696 ]
3
Num Evals 249
GenUC: 9.411131e-06
GenUB: 1.527544e-06
Optimisation 1.561360e-02
Total Time: 1.562608e-02
3 Add 4
Graph 1:
1 0 1 1 
0 0 1 1 
1 1 1 1 
1 1 1 0 
Graph 2:
1 1 1 1 
1 0 1 1 
1 1 1 1 
1 1 1 1 
Solution: 13 0
Classic Expectation: 12.000000
Initial Expecation: 9.000000
Gbest: 13.000000
Expectation: 9.905273
Final Parameters:
Gammas:
[ 5.235988 ]
Betas:
[ 2.617994 ]
Aggregate results:
[ 13 11 0 ]
[ 0.569824 0.227051 0.203125 ]
3
Num Evals 13
GenUC: 9.685813e-06
GenUB: 1.546345e-06
Optimisation 1.007807e-03
Total Time: 1.020493e-03
4 Rem 4
Graph 1:
1 0 1 1 
0 0 1 1 
1 1 1 1 
1 1 1 0 
Graph 2:
0 0 1 1 
0 0 1 0 
1 1 0 1 
0 1 1 0 
Solution: 12 0
Classic Expectation: 9.333333
Initial Expecation: 7.000000
Gbest: 12.000000
Expectation: 7.569023
Final Parameters:
Gammas:
[ 0.349066 ]
Betas:
[ 0.523599 ]
Aggregate results:
[ 12 8 10 0 ]
[ 0.217427 0.182916 0.349657 0.250000 ]
3
Num Evals 19
GenUC: 8.914678e-06
GenUB: 9.606592e-07
Optimisation 1.671373e-03
Total Time: 1.682380e-03
5 Add/Rem 4
Graph 1:
1 0 1 1 
0 0 1 1 
1 1 1 1 
1 1 1 0 
Graph 2:
0 1 0 1 
1 0 1 1 
1 0 1 0 
1 1 1 0 
Solution: 12 12
Classic Expectation: 10.000000
Initial Expecation: 7.500000
Gbest: 12.000000
Expectation: 10.070129
Final Parameters:
Gammas:
[ 2.981983 ]
Betas:
[ 2.443541 ]
Aggregate results:
[ 10 8 12 0 ]
[ 0.404875 0.249729 0.335296 0.010101 ]
5
Num Evals 800
GenUC: 8.863048e-06
GenUB: 1.203036e-06
Optimisation 7.279909e-02
Total Time: 7.281034e-02
