Clock Speed: 3.498545
Num threads: 16
Trotterisation: 1
Num Qubits: 5
Space Dimension: 32
Run-Type: 0
Num_samples: 16
Optimiser Method: 0
1 Isomorphic
Graph 1:
1 1 1 0 
1 0 0 0 
1 0 0 1 
1 1 1 0 
Graph 2:
1 1 1 0 
1 0 0 0 
1 0 0 1 
1 1 1 0 
Solution: 16 0
Classic Expectation: 9.166667
Initial Expecation: 6.875000
Gbest: 16.000000
Expectation: 8.850946
Final Parameters:
Gammas:
[ 0.349066 ]
Betas:
[ 0.523599 ]
Aggregate results:
[ 16 12 14 10 8 6 0 ]
[ 0.145360 0.009744 0.112344 0.324410 0.180617 0.024400 0.203125 ]
3
Num Evals 19
GenUC: 1.078844e-05
GenUB: 1.488207e-05
Optimisation 8.159312e-04
Total Time: 8.507962e-04
2 Flipped
Graph 1:
1 1 1 0 
1 0 0 0 
1 0 0 1 
1 1 1 0 
Graph 2:
0 1 1 1 
0 0 0 1 
1 0 0 1 
0 1 1 1 
Solution: 16 21
Classic Expectation: 9.166667
Initial Expecation: 6.875000
Gbest: 16.000000
Expectation: 8.314801
Final Parameters:
Gammas:
[ 0.465421 ]
Betas:
[ 2.252089 ]
Aggregate results:
[ 10 8 6 12 16 14 0 ]
[ 0.427704 0.213123 0.100150 0.014228 0.049104 0.055392 0.140300 ]
3
Num Evals 397
GenUC: 9.218231e-06
GenUB: 1.995359e-06
Optimisation 1.621377e-02
Total Time: 1.622631e-02
3 Add 4
Graph 1:
1 1 1 0 
1 0 0 0 
1 0 0 1 
1 1 1 0 
Graph 2:
1 1 1 1 
1 1 1 0 
1 0 0 1 
1 1 1 0 
Solution: 13 0
Classic Expectation: 9.333333
Initial Expecation: 7.000000
Gbest: 13.000000
Expectation: 9.341685
Final Parameters:
Gammas:
[ 3.711616 ]
Betas:
[ 0.581776 ]
Aggregate results:
[ 13 11 9 7 0 ]
[ 0.164289 0.206505 0.454944 0.119982 0.054280 ]
3
Num Evals 579
GenUC: 9.341165e-06
GenUB: 7.785857e-06
Optimisation 1.628268e-02
Total Time: 1.630132e-02
4 Rem 4
Graph 1:
1 1 1 0 
1 0 0 0 
1 0 0 1 
1 1 1 0 
Graph 2:
1 1 0 0 
1 0 0 0 
1 0 0 0 
1 0 1 0 
Solution: 13 0
Classic Expectation: 8.166667
Initial Expecation: 6.125000
Gbest: 13.000000
Expectation: 8.714411
Final Parameters:
Gammas:
[ 0.251148 ]
Betas:
[ 0.641970 ]
Aggregate results:
[ 13 9 11 5 7 0 ]
[ 0.249947 0.250141 0.043163 0.127753 0.300040 0.028957 ]
3
Num Evals 379
GenUC: 9.351876e-06
GenUB: 1.377892e-06
Optimisation 1.104462e-02
Total Time: 1.105678e-02
5 Add/Rem 4
Graph 1:
1 1 1 0 
1 0 0 0 
1 0 0 1 
1 1 1 0 
Graph 2:
1 1 1 0 
0 0 0 0 
0 1 1 1 
0 0 1 1 
Solution: 11 15
Classic Expectation: 7.166667
Initial Expecation: 5.375000
Gbest: 11.000000
Expectation: 7.178114
Final Parameters:
Gammas:
[ 6.166830 ]
Betas:
[ 2.617994 ]
Aggregate results:
[ 9 7 3 5 11 0 ]
[ 0.263278 0.374416 0.019175 0.127681 0.135615 0.079834 ]
3
Num Evals 39
GenUC: 9.246636e-06
GenUB: 7.352326e-06
Optimisation 1.372062e-03
Total Time: 1.389994e-03
