Clock Speed: 3.498716
Num threads: 16
Trotterisation: 6
Num Qubits: 7
Space Dimension: 128
Run-Type: 0
Num_samples: 25
Optimiser Method: 33
1 Isomorphic
Graph 1:
0 1 1 1 1 
0 0 1 1 1 
1 0 1 0 1 
1 1 1 0 0 
0 0 1 0 1 
Graph 2:
0 1 1 1 1 
0 0 1 1 1 
1 0 1 0 1 
1 1 1 0 0 
0 0 1 0 1 
Solution: 25 0
Classic Expectation: 13.500000
Initial Expecation: 12.656250
Gbest: 17.000000
Expectation: 12.656250
Final Parameters:
Gammas:
[ 3.141593 3.141593 3.141593 3.141593 3.141593 3.141593 ]
Betas:
[ 1.570796 1.570796 1.570796 1.570796 1.570796 1.570796 ]
Aggregate results:
[ 25 17 15 21 11 13 19 9 7 0 ]
[ 0.007812 0.039062 0.226562 0.023437 0.156250 0.320312 0.062500 0.062500 0.039062 0.062500 ]
4
Num Evals 3
GenUC: 1.364802e-04
GenUB: 2.223998e-05
Optimisation 1.842276e-03
Total Time: 2.011223e-03
2 Flipped
Graph 1:
0 1 1 1 1 
0 0 1 1 1 
1 0 1 0 1 
1 1 1 0 0 
0 0 1 0 1 
Graph 2:
1 1 1 1 0 
1 1 1 0 0 
1 0 1 0 1 
0 0 1 1 1 
1 0 1 0 0 
Solution: 17 14
Classic Expectation: 12.500000
Initial Expecation: 11.718750
Gbest: 17.000000
Expectation: 11.718750
Final Parameters:
Gammas:
[ 3.141593 3.141593 3.141593 3.141593 3.141593 3.141593 ]
Betas:
[ 1.570796 1.570796 1.570796 1.570796 1.570796 1.570796 ]
Aggregate results:
[ 13 15 9 11 17 7 0 ]
[ 0.328125 0.164062 0.101562 0.281250 0.054687 0.007813 0.062500 ]
4
Num Evals 3
GenUC: 5.138060e-05
GenUB: 7.673167e-06
Optimisation 1.745151e-03
Total Time: 1.806032e-03
3 Add 5
Graph 1:
0 1 1 1 1 
0 0 1 1 1 
1 0 1 0 1 
1 1 1 0 0 
0 0 1 0 1 
Graph 2:
1 1 1 1 1 
1 1 1 1 1 
1 0 1 0 1 
1 1 1 0 0 
0 0 1 1 1 
Solution: 21 0
Classic Expectation: 13.700000
Initial Expecation: 12.843750
Gbest: 21.000000
Expectation: 12.843750
Final Parameters:
Gammas:
[ 3.141593 3.141593 3.141593 3.141593 3.141593 3.141593 ]
Betas:
[ 1.570796 1.570796 1.570796 1.570796 1.570796 1.570796 ]
Aggregate results:
[ 21 13 17 15 11 19 9 0 ]
[ 0.007812 0.367187 0.085937 0.250000 0.171875 0.031250 0.023437 0.062500 ]
4
Num Evals 3
GenUC: 5.283300e-05
GenUB: 7.610302e-06
Optimisation 1.754253e-03
Total Time: 1.816408e-03
4 Rem 5
Graph 1:
0 1 1 1 1 
0 0 1 1 1 
1 0 1 0 1 
1 1 1 0 0 
0 0 1 0 1 
Graph 2:
0 0 1 1 1 
0 0 1 1 1 
0 0 1 0 1 
1 1 0 0 0 
0 0 0 0 0 
Solution: 20 0
Classic Expectation: 12.500000
Initial Expecation: 11.718750
Gbest: 16.000000
Expectation: 11.718750
Final Parameters:
Gammas:
[ 3.141593 3.141593 3.141593 3.141593 3.141593 3.141593 ]
Betas:
[ 1.570796 1.570796 1.570796 1.570796 1.570796 1.570796 ]
Aggregate results:
[ 20 14 16 12 10 8 6 4 0 ]
[ 0.031250 0.296875 0.093750 0.281250 0.140625 0.062500 0.015625 0.015625 0.062500 ]
4
Num Evals 3
GenUC: 5.185883e-05
GenUB: 7.260125e-06
Optimisation 1.741003e-03
Total Time: 1.802848e-03
5 Add/Rem 5
Graph 1:
0 1 1 1 1 
0 0 1 1 1 
1 0 1 0 1 
1 1 1 0 0 
0 0 1 0 1 
Graph 2:
0 1 1 0 0 
1 1 1 1 1 
1 0 1 1 1 
1 1 1 0 0 
0 1 0 0 0 
Solution: 17 0
Classic Expectation: 13.500000
Initial Expecation: 12.656250
Gbest: 17.000000
Expectation: 12.656250
Final Parameters:
Gammas:
[ 3.141593 3.141593 3.141593 3.141593 3.141593 3.141593 ]
Betas:
[ 1.570796 1.570796 1.570796 1.570796 1.570796 1.570796 ]
Aggregate results:
[ 17 15 11 9 13 0 ]
[ 0.109375 0.296875 0.156250 0.062500 0.312500 0.062500 ]
4
Num Evals 3
GenUC: 5.172752e-05
GenUB: 7.797964e-06
Optimisation 1.761663e-03
Total Time: 1.822689e-03
