Clock Speed: 3.686152
Num threads: 4
Trotterisation: 5
Num Qubits: 3
Space Dimension: 8
Run-Type: 0
Num_samples: 2024
Optimiser Method: 28
1 Isomorphic
Graph 1:
0 0 1 
0 0 1 
1 1 0 
Graph 2:
0 0 1 
0 0 1 
1 1 0 
Solution: 9 0
Classic Expectation: 6.333333
Initial Expecation: 4.750000
Gbest: 9.000000
Expectation: 7.000000
Final Parameters:
Gammas:
[ 5.892022 5.468699 3.556099 4.394242 3.773931 ]
Betas:
[ 1.788554 1.164674 1.678909 1.819730 1.705642 ]
Aggregate results:
[ 9 5 0 ]
[ 0.500000 0.500000 0.000000 ]
3
Num Evals 370
GenUC: 2.580917e-06
GenUB: 9.333085e-06
Optimisation 1.237904e+00
Total Time: 1.237936e+00
2 Flipped
Graph 1:
0 0 1 
0 0 1 
1 1 0 
Graph 2:
1 0 0 
1 0 0 
0 1 1 
Solution: 5 1
Classic Expectation: 3.666667
Initial Expecation: 2.750000
Gbest: 5.000000
Expectation: 4.999968
Final Parameters:
Gammas:
[ 1.990600 3.726194 3.853480 3.535013 4.301575 ]
Betas:
[ 1.805840 1.673861 2.230202 1.475991 1.622178 ]
Aggregate results:
[ 3 5 0 ]
[ 0.000016 0.999984 0.000000 ]
3
Num Evals 1631
GenUC: 2.722933e-06
GenUB: 9.917603e-07
Optimisation 2.156817e+00
Total Time: 2.156823e+00
3 Add 3
Graph 1:
0 0 1 
0 0 1 
1 1 0 
Graph 2:
1 1 1 
0 0 1 
1 1 1 
Solution: 6 0
Classic Expectation: 4.666667
Initial Expecation: 3.500000
Gbest: 6.000000
Expectation: 3.500000
Final Parameters:
Gammas:
[ 4.712389 4.712389 3.141593 3.141593 4.712389 ]
Betas:
[ 2.356194 1.570796 1.570796 1.570796 2.356194 ]
Aggregate results:
[ 6 4 0 ]
[ 0.250000 0.500000 0.250000 ]
3
Num Evals 11
GenUC: 2.913654e-06
GenUB: 9.817813e-07
Optimisation 3.383297e-03
Total Time: 3.389533e-03
4 Rem 3
Graph 1:
0 0 1 
0 0 1 
1 1 0 
Graph 2:
0 0 1 
0 0 1 
0 0 0 
Solution: 7 0
Classic Expectation: 5.666667
Initial Expecation: 4.250000
Gbest: 7.000000
Expectation: 6.000000
Final Parameters:
Gammas:
[ 2.244300 3.082370 5.658879 5.453362 5.031944 ]
Betas:
[ 1.758526 1.554731 2.319399 2.084509 1.373505 ]
Aggregate results:
[ 7 5 0 ]
[ 0.500000 0.500000 0.000000 ]
3
Num Evals 406
GenUC: 2.431272e-06
GenUB: 7.851886e-07
Optimisation 1.958269e-01
Total Time: 1.958314e-01
5 Add/Rem 3
Graph 1:
0 0 1 
0 0 1 
1 1 0 
Graph 2:
0 1 1 
0 1 0 
0 1 0 
Solution: 5 0
Classic Expectation: 5.000000
Initial Expecation: 3.750000
Gbest: 5.000000
Expectation: 5.000000
Final Parameters:
Gammas:
[ 4.712389 3.141593 4.712389 4.712389 4.712389 ]
Betas:
[ 2.356194 1.570796 1.570796 1.570796 1.570796 ]
Aggregate results:
[ 5 0 ]
[ 1.000000 0.000000 ]
3
Num Evals 327
GenUC: 2.462963e-06
GenUB: 7.687595e-07
Optimisation 2.175373e-01
Total Time: 2.175426e-01
