Clock Speed: 3.689069
Num threads: 4
Trotterisation: 2
Num Qubits: 3
Space Dimension: 8
Run-Type: 0
Num_samples: 2024
Optimiser Method: 0
1 Isomorphic
Graph 1:
0 1 0 
1 0 0 
1 1 1 
Graph 2:
0 1 0 
1 0 0 
1 1 1 
Solution: 9 0
Classic Expectation: 5.000000
Initial Expecation: 3.750000
Gbest: 9.000000
Expectation: 3.750000
Final Parameters:
Gammas:
[ 5.235988 3.141593 ]
Betas:
[ 0.523599 1.570796 ]
Aggregate results:
[ 9 3 0 ]
[ 0.250000 0.500000 0.250000 ]
3
Num Evals 11
GenUC: 2.741115e-06
GenUB: 7.288530e-06
Optimisation 1.619209e-03
Total Time: 1.656733e-03
2 Flipped
Graph 1:
0 1 0 
1 0 0 
1 1 1 
Graph 2:
0 1 0 
0 0 1 
1 1 1 
Solution: 7 0
Classic Expectation: 5.000000
Initial Expecation: 3.750000
Gbest: 7.000000
Expectation: 3.750000
Final Parameters:
Gammas:
[ 5.235988 3.141593 ]
Betas:
[ 2.617994 1.570796 ]
Aggregate results:
[ 7 3 5 0 ]
[ 0.250000 0.484375 0.109375 0.156250 ]
3
Num Evals 15
GenUC: 2.506364e-06
GenUB: 8.532661e-07
Optimisation 1.970281e-03
Total Time: 1.975346e-03
3 Add 3
Graph 1:
0 1 0 
1 0 0 
1 1 1 
Graph 2:
1 1 0 
1 1 0 
1 1 1 
Solution: 7 0
Classic Expectation: 4.333333
Initial Expecation: 3.250000
Gbest: 7.000000
Expectation: 4.000000
Final Parameters:
Gammas:
[ 1.047198 1.047198 ]
Betas:
[ 0.523599 1.570796 ]
Aggregate results:
[ 7 3 0 ]
[ 0.437500 0.312500 0.250000 ]
3
Num Evals 15
GenUC: 2.612011e-06
GenUB: 6.320188e-07
Optimisation 1.676042e-03
Total Time: 1.680602e-03
4 Rem 3
Graph 1:
0 1 0 
1 0 0 
1 1 1 
Graph 2:
0 0 0 
1 0 0 
0 1 0 
Solution: 6 0
Classic Expectation: 4.666667
Initial Expecation: 3.500000
Gbest: 6.000000
Expectation: 3.875000
Final Parameters:
Gammas:
[ 1.047198 5.235988 ]
Betas:
[ 0.523599 1.570796 ]
Aggregate results:
[ 6 4 0 ]
[ 0.062500 0.875000 0.062500 ]
3
Num Evals 15
GenUC: 2.619054e-06
GenUB: 6.284681e-07
Optimisation 1.673890e-03
Total Time: 1.678449e-03
5 Add/Rem 3
Graph 1:
0 1 0 
1 0 0 
1 1 1 
Graph 2:
0 1 1 
1 1 0 
1 0 1 
Solution: 6 0
Classic Expectation: 4.666667
Initial Expecation: 3.500000
Gbest: 6.000000
Expectation: 3.625484
Final Parameters:
Gammas:
[ 2.443461 2.443461 ]
Betas:
[ 0.523599 1.570796 ]
Aggregate results:
[ 6 2 0 ]
[ 0.524942 0.237917 0.237141 ]
3
Num Evals 39
GenUC: 2.421904e-06
GenUB: 6.983755e-07
Optimisation 4.555956e-03
Total Time: 4.560231e-03
