Clock Speed: 3.689365
Num threads: 4
Trotterisation: 2
Num Qubits: 3
Space Dimension: 8
Run-Type: 0
Num_samples: 2024
Optimiser Method: 0
1 Isomorphic
Graph 1:
1 0 0 
0 1 0 
0 0 0 
Graph 2:
1 0 0 
0 1 0 
0 0 0 
Solution: 9 0
Classic Expectation: 7.666667
Initial Expecation: 5.750000
Gbest: 9.000000
Expectation: 7.437500
Final Parameters:
Gammas:
[ 5.235988 1.047198 ]
Betas:
[ 0.523599 1.570796 ]
Aggregate results:
[ 9 7 0 ]
[ 0.437500 0.500000 0.062500 ]
3
Num Evals 21
GenUC: 2.672430e-06
GenUB: 7.951050e-06
Optimisation 2.859650e-03
Total Time: 2.886432e-03
2 Flipped
Graph 1:
1 0 0 
0 1 0 
0 0 0 
Graph 2:
0 0 1 
0 1 0 
0 0 0 
Solution: 7 0
Classic Expectation: 6.333333
Initial Expecation: 4.750000
Gbest: 7.000000
Expectation: 6.922784
Final Parameters:
Gammas:
[ 1.008413 2.327106 ]
Betas:
[ 1.512619 2.365891 ]
Aggregate results:
[ 7 5 0 ]
[ 0.979760 0.012893 0.007347 ]
3
Num Evals 1167
GenUC: 2.471148e-06
GenUB: 9.753276e-07
Optimisation 1.923308e-01
Total Time: 1.923357e-01
3 Add 3
Graph 1:
1 0 0 
0 1 0 
0 0 0 
Graph 2:
1 0 1 
1 1 1 
0 0 0 
Solution: 6 0
Classic Expectation: 4.666667
Initial Expecation: 3.500000
Gbest: 6.000000
Expectation: 3.875000
Final Parameters:
Gammas:
[ 1.047198 5.235988 ]
Betas:
[ 0.523599 1.570796 ]
Aggregate results:
[ 6 4 0 ]
[ 0.062500 0.875000 0.062500 ]
3
Num Evals 15
GenUC: 2.628425e-06
GenUB: 8.068746e-07
Optimisation 1.662683e-03
Total Time: 1.667552e-03
4 Rem 3
Graph 1:
1 0 0 
0 1 0 
0 0 0 
Graph 2:
1 0 0 
0 0 0 
0 0 0 
Solution: 8 0
Classic Expectation: 7.333333
Initial Expecation: 5.500000
Gbest: 8.000000
Expectation: 6.250000
Final Parameters:
Gammas:
[ 5.235988 1.047198 ]
Betas:
[ 0.523599 1.570796 ]
Aggregate results:
[ 8 6 0 ]
[ 0.593750 0.250000 0.156250 ]
3
Num Evals 15
GenUC: 2.491754e-06
GenUB: 6.437767e-07
Optimisation 1.662578e-03
Total Time: 1.666833e-03
5 Add/Rem 3
Graph 1:
1 0 0 
0 1 0 
0 0 0 
Graph 2:
0 1 0 
0 0 1 
1 0 0 
Solution: 4 0
Classic Expectation: 4.000000
Initial Expecation: 3.000000
Gbest: 4.000000
Expectation: 3.000000
Final Parameters:
Gammas:
[ 3.141593 5.235988 ]
Betas:
[ 0.523599 1.570796 ]
Aggregate results:
[ 4 0 ]
[ 0.750000 0.250000 ]
3
Num Evals 13
GenUC: 2.427143e-06
GenUB: 7.452909e-07
Optimisation 1.471731e-03
Total Time: 1.475972e-03
