Clock Speed: 3.688698
Num threads: 4
Trotterisation: 2
Num Qubits: 3
Space Dimension: 8
Run-Type: 0
Num_samples: 2024
Optimiser Method: 0
1 Isomorphic
Graph 1:
1 1 0 
1 1 1 
0 0 0 
Graph 2:
1 1 0 
1 1 1 
0 0 0 
Solution: 9 0
Classic Expectation: 4.666667
Initial Expecation: 3.500000
Gbest: 9.000000
Expectation: 4.015625
Final Parameters:
Gammas:
[ 5.235988 1.047198 ]
Betas:
[ 2.617994 1.570796 ]
Aggregate results:
[ 9 1 7 3 5 0 ]
[ 0.218750 0.031250 0.031250 0.507812 0.054688 0.156250 ]
3
Num Evals 21
GenUC: 2.575631e-06
GenUB: 7.522700e-06
Optimisation 2.550443e-03
Total Time: 2.576111e-03
2 Flipped
Graph 1:
1 1 0 
1 1 1 
0 0 0 
Graph 2:
0 1 1 
1 1 1 
0 0 0 
Solution: 7 0
Classic Expectation: 4.333333
Initial Expecation: 3.250000
Gbest: 7.000000
Expectation: 4.000000
Final Parameters:
Gammas:
[ 1.047198 5.235988 ]
Betas:
[ 0.523599 1.570796 ]
Aggregate results:
[ 7 1 3 5 0 ]
[ 0.343750 0.007812 0.437500 0.054687 0.156250 ]
3
Num Evals 23
GenUC: 2.490531e-06
GenUB: 8.215429e-07
Optimisation 2.560578e-03
Total Time: 2.565349e-03
3 Add 3
Graph 1:
1 1 0 
1 1 1 
0 0 0 
Graph 2:
1 1 0 
1 1 1 
0 1 1 
Solution: 7 0
Classic Expectation: 5.000000
Initial Expecation: 3.750000
Gbest: 7.000000
Expectation: 3.750000
Final Parameters:
Gammas:
[ 3.141593 3.141593 ]
Betas:
[ 0.523599 2.617994 ]
Aggregate results:
[ 7 3 5 0 ]
[ 0.250000 0.250000 0.250000 0.250000 ]
3
Num Evals 19
GenUC: 2.444780e-06
GenUB: 6.003538e-07
Optimisation 2.232918e-03
Total Time: 2.237101e-03
4 Rem 3
Graph 1:
1 1 0 
1 1 1 
0 0 0 
Graph 2:
1 1 0 
0 1 0 
0 0 0 
Solution: 7 0
Classic Expectation: 4.666667
Initial Expecation: 3.500000
Gbest: 7.000000
Expectation: 4.390625
Final Parameters:
Gammas:
[ 1.047198 1.047198 ]
Betas:
[ 0.523599 1.570796 ]
Aggregate results:
[ 7 3 5 0 ]
[ 0.437500 0.351562 0.054687 0.156250 ]
3
Num Evals 15
GenUC: 2.417190e-06
GenUB: 6.150221e-07
Optimisation 1.611933e-03
Total Time: 1.616011e-03
5 Add/Rem 3
Graph 1:
1 1 0 
1 1 1 
0 0 0 
Graph 2:
0 0 1 
1 0 1 
0 1 1 
Solution: 7 5
Classic Expectation: 4.333333
Initial Expecation: 3.250000
Gbest: 7.000000
Expectation: 4.713162
Final Parameters:
Gammas:
[ 5.934119 3.839724 ]
Betas:
[ 0.523599 1.570796 ]
Aggregate results:
[ 3 5 7 0 ]
[ 0.225460 0.389168 0.298706 0.086666 ]
3
Num Evals 37
GenUC: 2.343848e-06
GenUB: 6.226473e-07
Optimisation 3.802818e-03
Total Time: 3.806859e-03
