Clock Speed: 3.498898
Num threads: 16
Trotterisation: 6
Num Qubits: 7
Space Dimension: 128
Run-Type: 0
Num_samples: 25
Optimiser Method: 0
1 Isomorphic
Graph 1:
0 0 1 0 0 
0 0 1 0 0 
0 0 1 0 0 
0 1 0 0 0 
0 1 0 0 0 
Graph 2:
0 0 1 0 0 
0 0 1 0 0 
0 0 1 0 0 
0 1 0 0 0 
0 1 0 0 0 
Solution: 25 0
Classic Expectation: 17.000000
Initial Expecation: 15.937500
Gbest: 21.000000
Expectation: 16.471436
Final Parameters:
Gammas:
[ 1.047198 3.141593 3.141593 3.141593 3.141593 3.141593 ]
Betas:
[ 1.570796 1.570796 1.570796 0.523599 1.570796 1.570796 ]
Aggregate results:
[ 25 17 15 19 21 0 ]
[ 0.029770 0.376495 0.298172 0.150803 0.094711 0.050049 ]
3
Num Evals 31
GenUC: 5.482649e-05
GenUB: 3.200257e-05
Optimisation 1.820595e-02
Total Time: 1.831287e-02
2 Flipped
Graph 1:
0 0 1 0 0 
0 0 1 0 0 
0 0 1 0 0 
0 1 0 0 0 
0 1 0 0 0 
Graph 2:
0 0 1 0 0 
0 0 1 0 0 
0 0 1 0 0 
0 0 0 1 0 
0 0 0 1 0 
Solution: 23 112
Classic Expectation: 17.000000
Initial Expecation: 15.937500
Gbest: 19.000000
Expectation: 16.535339
Final Parameters:
Gammas:
[ 3.141593 1.047198 3.141593 3.141593 1.047198 3.141593 ]
Betas:
[ 1.570796 1.570796 1.570796 2.617994 1.570796 1.570796 ]
Aggregate results:
[ 21 17 15 19 23 0 ]
[ 0.011230 0.216949 0.219742 0.477844 0.010269 0.063965 ]
3
Num Evals 49
GenUC: 5.137036e-05
GenUB: 4.513655e-06
Optimisation 2.880953e-02
Total Time: 2.886745e-02
3 Add 5
Graph 1:
0 0 1 0 0 
0 0 1 0 0 
0 0 1 0 0 
0 1 0 0 0 
0 1 0 0 0 
Graph 2:
0 0 1 0 0 
0 0 1 0 0 
1 1 1 0 0 
1 1 0 0 0 
0 1 0 1 0 
Solution: 21 0
Classic Expectation: 14.600000
Initial Expecation: 13.687500
Gbest: 17.000000
Expectation: 14.366913
Final Parameters:
Gammas:
[ 1.047198 3.141593 3.141593 3.141593 3.141593 3.141593 ]
Betas:
[ 1.570796 1.570796 1.570796 2.617994 1.570796 1.570796 ]
Aggregate results:
[ 21 15 13 17 11 19 0 ]
[ 0.020889 0.244446 0.416885 0.233994 0.060822 0.010269 0.012695 ]
3
Num Evals 31
GenUC: 5.223136e-05
GenUB: 2.942979e-06
Optimisation 1.792671e-02
Total Time: 1.798377e-02
4 Rem 5
Graph 1:
0 0 1 0 0 
0 0 1 0 0 
0 0 1 0 0 
0 1 0 0 0 
0 1 0 0 0 
Graph 2:
0 0 1 0 0 
0 0 0 0 0 
0 0 0 0 0 
0 0 0 0 0 
0 0 0 0 0 
Solution: 21 0
Classic Expectation: 19.400000
Initial Expecation: 18.187500
Gbest: 21.000000
Expectation: 18.187500
Final Parameters:
Gammas:
[ 5.235988 5.235988 3.141593 3.141593 3.141593 3.141593 ]
Betas:
[ 1.570796 1.570796 1.570796 1.570796 1.570796 1.570796 ]
Aggregate results:
[ 21 19 0 ]
[ 0.187500 0.750000 0.062500 ]
3
Num Evals 27
GenUC: 5.144300e-05
GenUB: 2.776273e-06
Optimisation 1.556404e-02
Total Time: 1.562115e-02
5 Add/Rem 5
Graph 1:
0 0 1 0 0 
0 0 1 0 0 
0 0 1 0 0 
0 1 0 0 0 
0 1 0 0 0 
Graph 2:
0 0 0 0 1 
1 0 0 1 0 
0 0 1 0 0 
1 1 0 0 1 
0 0 0 0 0 
Solution: 19 16
Classic Expectation: 15.800000
Initial Expecation: 14.812500
Gbest: 19.000000
Expectation: 15.259094
Final Parameters:
Gammas:
[ 5.235988 3.141593 3.141593 3.141593 3.141593 3.141593 ]
Betas:
[ 1.570796 1.570796 1.570796 0.523599 1.570796 1.570796 ]
Aggregate results:
[ 17 15 13 19 0 ]
[ 0.398758 0.334122 0.095413 0.117264 0.054443 ]
3
Num Evals 31
GenUC: 5.146209e-05
GenUB: 4.622154e-06
Optimisation 1.802228e-02
Total Time: 1.808001e-02
