Clock Speed: 3.688931
Num threads: 4
Trotterisation: 5
Graph Size: 6
Num Qubits: 10
Space Dimension: 1024
Run-Type: 0
Num_samples: 10
1 Isomorphic
Graph 1:
0 0 0 1 0 1 
1 1 1 1 1 1 
1 0 1 1 0 1 
1 0 1 1 0 1 
0 1 0 0 1 0 
0 0 0 0 1 0 
Graph 2:
0 0 0 1 0 1 
1 1 1 1 1 1 
1 0 1 1 0 1 
1 0 1 1 0 1 
0 1 0 0 1 0 
0 0 0 0 1 0 
Solution: 0 0
Gbest: -12.000000
Expectation: -18.751740
Final Parameters:
Gammas:
[ 3.750489 3.146336 2.744633 3.054459 3.301321 ]
Betas:
[ 0.028936 1.915363 1.251086 1.034061 1.992533 2.360019 ]
Aggregate results:
[ -1 13 11 7 3 9 1 15 17 19 21 23 25 5 35 ]
[ 0.012269 0.131937 0.055230 0.012350 0.012582 0.029690 0.004917 0.189086 0.195147 0.122734 0.093169 0.022940 0.003981 0.000444 0.113524 ]
5
Num Evals 557
GenUC: 4.920509e-03
GenUB: 1.217228e-03
Optimisation 1.395809e+00
Total Time: 1.404324e+00
2 Flipped
Graph 1:
0 0 0 1 0 1 
1 1 1 1 1 1 
1 0 1 1 0 1 
1 0 1 1 0 1 
0 1 0 0 1 0 
0 0 0 0 1 0 
Graph 2:
1 0 1 0 0 0 
1 1 1 1 1 1 
1 0 1 1 0 1 
1 0 1 1 0 1 
0 1 0 0 1 0 
0 1 0 0 0 0 
Solution: -4 11
Gbest: -4.000000
Expectation: -15.193211
Final Parameters:
Gammas:
[ 3.237762 2.849806 3.157244 3.204749 1.712664 ]
Betas:
[ 0.972607 2.791934 1.258625 1.847585 1.772802 1.588668 ]
Aggregate results:
[ 5 15 13 11 3 9 17 19 21 23 25 35 ]
[ 0.049522 0.217152 0.230661 0.213959 0.011687 0.065891 0.106358 0.024739 0.019678 0.007002 0.001161 0.052190 ]
5
Num Evals 1165
GenUC: 1.172936e-04
GenUB: 1.522502e-04
Optimisation 1.532681e+00
Total Time: 1.535418e+00
3 Add 6
Graph 1:
0 0 0 1 0 1 
1 1 1 1 1 1 
1 0 1 1 0 1 
1 0 1 1 0 1 
0 1 0 0 1 0 
0 0 0 0 1 0 
Graph 2:
0 0 1 1 0 1 
1 1 1 1 1 1 
1 0 1 1 0 1 
1 1 1 1 0 1 
0 1 0 0 1 0 
1 1 0 0 1 1 
Solution: -5 0
Gbest: -13.000000
Expectation: -15.434775
Final Parameters:
Gammas:
[ 3.110868 3.152183 3.138328 3.385571 1.818348 ]
Betas:
[ 1.659813 1.816486 2.344060 1.565486 1.410138 1.533154 ]
Aggregate results:
[ 4 14 12 10 6 18 16 20 22 24 8 35 ]
[ 0.027643 0.290212 0.155070 0.086617 0.046350 0.111485 0.208132 0.018273 0.005580 0.000251 0.012537 0.037850 ]
5
Num Evals 1766
GenUC: 1.248585e-04
GenUB: 1.659774e-04
Optimisation 1.497455e+00
Total Time: 1.500180e+00
4 Rem 6
Graph 1:
0 0 0 1 0 1 
1 1 1 1 1 1 
1 0 1 1 0 1 
1 0 1 1 0 1 
0 1 0 0 1 0 
0 0 0 0 1 0 
Graph 2:
0 0 0 1 0 1 
1 1 1 0 0 0 
1 0 1 1 0 1 
1 0 0 1 0 1 
0 1 0 0 0 0 
0 0 0 0 1 0 
Solution: -5 0
Gbest: -9.000000
Expectation: -15.679636
Final Parameters:
Gammas:
[ 3.107021 3.157372 3.044289 2.902311 3.095814 ]
Betas:
[ 1.838419 1.792725 2.431383 1.353218 1.666462 1.660469 ]
Aggregate results:
[ 4 16 14 8 12 10 6 18 20 22 24 26 35 ]
[ 0.019238 0.237736 0.229497 0.062158 0.091307 0.101852 0.045562 0.115138 0.038601 0.013169 0.003035 0.000077 0.042629 ]
5
Num Evals 2367
GenUC: 1.308706e-04
GenUB: 1.607146e-04
Optimisation 1.491589e+00
Total Time: 1.494345e+00
5 Add/Rem 6
Graph 1:
0 0 0 1 0 1 
1 1 1 1 1 1 
1 0 1 1 0 1 
1 0 1 1 0 1 
0 1 0 0 1 0 
0 0 0 0 1 0 
Graph 2:
1 0 1 0 1 0 
1 1 1 1 1 1 
1 0 1 1 1 1 
0 0 0 1 1 1 
0 1 0 0 1 0 
1 0 0 0 0 0 
Solution: -7 103
Gbest: -11.000000
Expectation: -15.311014
Final Parameters:
Gammas:
[ 3.111958 3.176755 3.105834 2.901537 3.092417 ]
Betas:
[ 0.000008 1.678119 2.321198 1.504606 1.680006 1.634264 ]
Aggregate results:
[ 10 16 14 8 18 12 20 6 24 22 35 ]
[ 0.151504 0.159531 0.259837 0.094035 0.064422 0.148894 0.028981 0.026325 0.004260 0.008467 0.053745 ]
5
Num Evals 2865
GenUC: 1.230428e-04
GenUB: 1.621917e-04
Optimisation 1.154721e+00
Total Time: 1.157126e+00
