Clock Speed: 3.498813
Num threads: 16
Trotterisation: 4
Num Qubits: 7
Space Dimension: 128
Run-Type: 0
Num_samples: 25
Optimiser Method: 33
1 Isomorphic
Graph 1:
0 0 1 0 0 
1 0 1 0 1 
0 0 1 0 1 
1 1 0 0 1 
1 1 1 0 1 
Graph 2:
0 0 1 0 0 
1 0 1 0 1 
0 0 1 0 1 
1 1 0 0 1 
1 1 1 0 1 
Solution: 25 0
Classic Expectation: 12.700000
Initial Expecation: 11.906250
Gbest: 25.000000
Expectation: 11.906250
Final Parameters:
Gammas:
[ 3.141593 3.141593 3.141593 3.141593 ]
Betas:
[ 1.570796 1.570796 1.570796 1.570796 ]
Aggregate results:
[ 25 15 13 11 17 7 19 21 9 0 ]
[ 0.007812 0.187500 0.250000 0.226562 0.070312 0.031250 0.007812 0.015625 0.140625 0.062500 ]
4
Num Evals 3
GenUC: 4.707556e-05
GenUB: 1.939805e-05
Optimisation 1.384751e-03
Total Time: 1.460522e-03
2 Flipped
Graph 1:
0 0 1 0 0 
1 0 1 0 1 
0 0 1 0 1 
1 1 0 0 1 
1 1 1 0 1 
Graph 2:
0 0 1 0 0 
1 0 1 0 1 
1 0 1 0 0 
1 0 0 1 1 
1 0 1 1 1 
Solution: 19 0
Classic Expectation: 12.400000
Initial Expecation: 11.625000
Gbest: 19.000000
Expectation: 11.625000
Final Parameters:
Gammas:
[ 3.141593 3.141593 3.141593 3.141593 ]
Betas:
[ 1.570796 1.570796 1.570796 1.570796 ]
Aggregate results:
[ 19 15 13 11 17 9 7 5 0 ]
[ 0.039062 0.179687 0.187500 0.312500 0.054687 0.125000 0.031250 0.007813 0.062500 ]
4
Num Evals 3
GenUC: 5.165255e-05
GenUB: 7.013790e-06
Optimisation 1.208765e-03
Total Time: 1.269141e-03
3 Add 5
Graph 1:
0 0 1 0 0 
1 0 1 0 1 
0 0 1 0 1 
1 1 0 0 1 
1 1 1 0 1 
Graph 2:
0 0 1 1 0 
1 0 1 1 1 
1 0 1 1 1 
1 1 0 0 1 
1 1 1 0 1 
Solution: 21 0
Classic Expectation: 13.100000
Initial Expecation: 12.281250
Gbest: 17.000000
Expectation: 12.281250
Final Parameters:
Gammas:
[ 3.141593 3.141593 3.141593 3.141593 ]
Betas:
[ 1.570796 1.570796 1.570796 1.570796 ]
Aggregate results:
[ 21 15 13 9 17 11 19 0 ]
[ 0.007812 0.218750 0.367187 0.101562 0.070312 0.164062 0.007813 0.062500 ]
4
Num Evals 3
GenUC: 5.267002e-05
GenUB: 6.201211e-06
Optimisation 1.251722e-03
Total Time: 1.311980e-03
4 Rem 5
Graph 1:
0 0 1 0 0 
1 0 1 0 1 
0 0 1 0 1 
1 1 0 0 1 
1 1 1 0 1 
Graph 2:
0 0 0 0 0 
1 0 0 0 1 
0 0 1 0 1 
1 1 0 0 1 
0 1 0 0 1 
Solution: 21 0
Classic Expectation: 12.300000
Initial Expecation: 11.531250
Gbest: 17.000000
Expectation: 11.531250
Final Parameters:
Gammas:
[ 3.141593 3.141593 3.141593 3.141593 ]
Betas:
[ 1.570796 1.570796 1.570796 1.570796 ]
Aggregate results:
[ 21 13 15 9 17 7 11 0 ]
[ 0.007812 0.289062 0.156250 0.148437 0.070312 0.046875 0.218750 0.062500 ]
4
Num Evals 3
GenUC: 5.206792e-05
GenUB: 6.020069e-06
Optimisation 1.204521e-03
Total Time: 1.264712e-03
5 Add/Rem 5
Graph 1:
0 0 1 0 0 
1 0 1 0 1 
0 0 1 0 1 
1 1 0 0 1 
1 1 1 0 1 
Graph 2:
0 0 0 0 0 
1 1 1 0 1 
0 1 1 0 1 
0 1 1 1 1 
1 1 0 0 1 
Solution: 18 0
Classic Expectation: 12.200000
Initial Expecation: 11.437500
Gbest: 16.000000
Expectation: 11.437500
Final Parameters:
Gammas:
[ 3.141593 3.141593 3.141593 3.141593 ]
Betas:
[ 1.570796 1.570796 1.570796 1.570796 ]
Aggregate results:
[ 18 14 16 12 10 6 8 0 ]
[ 0.039062 0.203125 0.101562 0.273437 0.218750 0.007812 0.093750 0.062500 ]
4
Num Evals 3
GenUC: 5.194172e-05
GenUB: 7.904600e-06
Optimisation 1.237514e-03
Total Time: 1.298530e-03
