Clock Speed: 3.688761
Num threads: 4
Trotterisation: 2
Graph Size: 6
Num Qubits: 10
Space Dimension: 1024
Run-Type: 0
Num_samples: 10
1 Isomorphic
Graph 1:
1 1 1 0 1 1 
0 0 1 1 0 0 
1 0 0 0 0 1 
0 0 1 0 1 1 
1 0 0 1 1 0 
0 0 0 0 1 0 
Graph 2:
1 1 1 0 1 1 
0 0 1 1 0 0 
1 0 0 0 0 1 
0 0 1 0 1 1 
1 0 0 1 1 0 
0 0 0 0 1 0 
Solution: 0 0
Gbest: -12.000000
Expectation: -22.217407
Final Parameters:
Gammas:
[ 5.086084 3.117220 ]
Betas:
[ 1.568975 2.360215 1.396376 ]
Aggregate results:
[ -1 13 9 11 15 19 7 17 23 21 35 ]
[ 0.000729 0.084930 0.022994 0.035397 0.167555 0.209197 0.004458 0.142897 0.018334 0.058949 0.254560 ]
5
Num Evals 600
GenUC: 2.913702e-04
GenUB: 1.968222e-04
Optimisation 7.963325e-01
Total Time: 7.981060e-01
2 Flipped
Graph 1:
1 1 1 0 1 1 
0 0 1 1 0 0 
1 0 0 0 0 1 
0 0 1 0 1 1 
1 0 0 1 1 0 
0 0 0 0 1 0 
Graph 2:
1 1 0 1 1 1 
0 0 1 1 0 0 
1 0 0 0 0 1 
1 1 0 1 0 0 
0 1 1 0 0 1 
0 1 0 0 0 0 
Solution: -6 76
Gbest: -14.000000
Expectation: -21.932668
Final Parameters:
Gammas:
[ 5.103792 2.739686 ]
Betas:
[ 1.359344 2.635259 0.766493 ]
Aggregate results:
[ 15 23 17 21 19 13 11 9 5 25 7 35 ]
[ 0.176018 0.024105 0.209161 0.079787 0.109298 0.096456 0.044850 0.012095 0.000063 0.001651 0.003418 0.243097 ]
5
Num Evals 1200
GenUC: 1.356613e-04
GenUB: 1.528228e-04
Optimisation 7.210207e-01
Total Time: 7.226119e-01
3 Add 6
Graph 1:
1 1 1 0 1 1 
0 0 1 1 0 0 
1 0 0 0 0 1 
0 0 1 0 1 1 
1 0 0 1 1 0 
0 0 0 0 1 0 
Graph 2:
1 1 1 0 1 1 
0 0 1 1 0 1 
1 0 1 1 1 1 
1 0 1 0 1 1 
1 0 0 1 1 0 
0 0 0 0 1 0 
Solution: -5 0
Gbest: -5.000000
Expectation: -18.677799
Final Parameters:
Gammas:
[ 3.222708 3.057990 ]
Betas:
[ 1.568548 1.677462 2.340689 ]
Aggregate results:
[ 4 16 12 10 14 18 8 20 22 24 26 28 35 ]
[ 0.005576 0.237028 0.095844 0.044759 0.139378 0.217092 0.007368 0.139759 0.028280 0.003425 0.000309 0.000217 0.080965 ]
5
Num Evals 1800
GenUC: 1.305898e-04
GenUB: 1.688905e-04
Optimisation 7.912356e-01
Total Time: 7.928320e-01
4 Rem 6
Graph 1:
1 1 1 0 1 1 
0 0 1 1 0 0 
1 0 0 0 0 1 
0 0 1 0 1 1 
1 0 0 1 1 0 
0 0 0 0 1 0 
Graph 2:
1 0 0 0 1 1 
0 0 1 1 0 0 
1 0 0 0 0 1 
0 0 1 0 1 0 
1 0 0 0 1 0 
0 0 0 0 1 0 
Solution: -4 0
Gbest: -12.000000
Expectation: -21.736917
Final Parameters:
Gammas:
[ 4.616927 3.045028 ]
Betas:
[ 1.652198 0.700111 0.588944 ]
Aggregate results:
[ 3 15 13 11 17 19 9 7 23 21 25 35 ]
[ 0.001888 0.175417 0.102403 0.043347 0.194062 0.135806 0.021383 0.002168 0.007572 0.071821 0.002213 0.241921 ]
5
Num Evals 2400
GenUC: 1.309912e-04
GenUB: 1.717173e-04
Optimisation 5.700599e-01
Total Time: 5.712953e-01
5 Add/Rem 6
Graph 1:
1 1 1 0 1 1 
0 0 1 1 0 0 
1 0 0 0 0 1 
0 0 1 0 1 1 
1 0 0 1 1 0 
0 0 0 0 1 0 
Graph 2:
0 1 0 1 1 1 
0 0 1 1 1 1 
1 1 0 0 0 1 
0 0 0 0 1 1 
1 0 0 0 1 0 
0 0 0 0 1 1 
Solution: -9 0
Gbest: -13.000000
Expectation: -17.873208
Final Parameters:
Gammas:
[ 3.165134 3.126015 ]
Betas:
[ 1.577293 1.427536 2.355188 ]
Aggregate results:
[ 8 12 10 14 16 18 22 20 24 26 35 ]
[ 0.019338 0.120080 0.033117 0.177697 0.240336 0.198850 0.043462 0.112943 0.005116 0.002334 0.046727 ]
5
Num Evals 3000
GenUC: 1.254133e-04
GenUB: 1.705207e-04
Optimisation 7.601620e-01
Total Time: 7.617105e-01
