Clock Speed: 3.688847
Num threads: 4
Trotterisation: 2
Graph Size: 8
Num Qubits: 16
Space Dimension: 65536
Run-Type: 0
Num_samples: 10
1 Isomorphic
Graph 1:
1 0 1 0 1 0 0 0 
1 0 0 0 1 1 0 0 
0 0 0 0 0 0 0 0 
1 1 1 1 1 1 1 0 
0 0 1 0 0 1 0 0 
0 0 0 1 0 1 0 1 
1 1 0 0 1 0 0 0 
0 1 0 0 1 0 1 1 
Graph 2:
1 0 1 0 1 0 0 0 
1 0 0 0 1 1 0 0 
0 0 0 0 0 0 0 0 
1 1 1 1 1 1 1 0 
0 0 1 0 0 1 0 0 
0 0 0 1 0 1 0 1 
1 1 0 0 1 0 0 0 
0 1 0 0 1 0 1 1 
Solution: 0 0
Gbest: -26.000000
Expectation: -41.895527
Final Parameters:
Gammas:
[ 2.047857 6.007798 ]
Betas:
[ 2.709524 2.145629 1.736605 ]
Aggregate results:
[ -1 9 13 11 21 23 25 27 19 17 7 15 29 31 35 33 37 41 39 3 43 45 5 63 ]
[ 0.000001 0.000131 0.000653 0.000266 0.019961 0.041771 0.072769 0.104784 0.009215 0.003358 0.000044 0.001874 0.117983 0.110010 0.049829 0.082843 0.025380 0.003327 0.007908 0.000005 0.000631 0.000074 0.000042 0.347140 ]
5
Num Evals 800
GenUC: 3.622273e-03
GenUB: 1.905896e-02
Optimisation 1.449597e+02
Total Time: 1.452231e+02
2 Flipped
Graph 1:
1 0 1 0 1 0 0 0 
1 0 0 0 1 1 0 0 
0 0 0 0 0 0 0 0 
1 1 1 1 1 1 1 0 
0 0 1 0 0 1 0 0 
0 0 0 1 0 1 0 1 
1 1 0 0 1 0 0 0 
0 1 0 0 1 0 1 1 
Graph 2:
0 0 0 1 0 1 0 1 
0 0 1 1 0 0 0 1 
0 0 0 0 0 0 0 0 
0 1 1 1 1 1 1 1 
0 0 1 0 0 1 0 0 
1 0 1 0 1 0 0 0 
0 0 0 1 0 0 1 1 
1 1 0 1 0 0 1 0 
Solution: -18 35533
Gbest: -26.000000
Expectation: -32.403226
Final Parameters:
Gammas:
[ 6.168981 3.182586 ]
Betas:
[ 3.100390 2.145662 0.666132 ]
Aggregate results:
[ 29 25 33 35 37 39 31 27 23 21 41 19 43 17 63 ]
[ 0.203593 0.106431 0.115047 0.064714 0.028334 0.010017 0.172679 0.172263 0.046816 0.014406 0.002670 0.002362 0.000286 0.000359 0.060024 ]
5
Num Evals 1600
GenUC: 2.774152e-03
GenUB: 1.672359e-02
Optimisation 1.414458e+02
Total Time: 1.416804e+02
3 Add 8
Graph 1:
1 0 1 0 1 0 0 0 
1 0 0 0 1 1 0 0 
0 0 0 0 0 0 0 0 
1 1 1 1 1 1 1 0 
0 0 1 0 0 1 0 0 
0 0 0 1 0 1 0 1 
1 1 0 0 1 0 0 0 
0 1 0 0 1 0 1 1 
Graph 2:
1 0 1 1 1 0 0 0 
1 0 0 0 1 1 0 0 
0 1 0 0 0 0 0 0 
1 1 1 1 1 1 1 1 
0 1 1 0 0 1 0 0 
0 0 0 1 1 1 1 1 
1 1 0 0 1 0 0 0 
0 1 0 0 1 0 1 1 
Solution: -6 0
Gbest: -26.000000
Expectation: -33.303800
Final Parameters:
Gammas:
[ 0.045832 1.538106 ]
Betas:
[ 1.646529 1.044978 1.563607 ]
Aggregate results:
[ 5 15 17 25 27 31 21 29 19 23 11 33 35 13 39 37 41 43 9 45 49 47 63 ]
[ 0.000042 0.001286 0.003593 0.073062 0.118604 0.170911 0.018086 0.153464 0.007999 0.036583 0.000153 0.149444 0.106441 0.000173 0.028406 0.065109 0.010230 0.003085 0.000047 0.000704 0.000015 0.000106 0.052454 ]
5
Num Evals 2400
GenUC: 2.913482e-03
GenUB: 1.676447e-02
Optimisation 1.417669e+02
Total Time: 1.419667e+02
4 Rem 8
Graph 1:
1 0 1 0 1 0 0 0 
1 0 0 0 1 1 0 0 
0 0 0 0 0 0 0 0 
1 1 1 1 1 1 1 0 
0 0 1 0 0 1 0 0 
0 0 0 1 0 1 0 1 
1 1 0 0 1 0 0 0 
0 1 0 0 1 0 1 1 
Graph 2:
1 0 1 0 1 0 0 0 
1 0 0 0 1 1 0 0 
0 0 0 0 0 0 0 0 
0 0 0 1 1 1 1 0 
0 0 1 0 0 1 0 0 
0 0 0 1 0 1 0 0 
1 0 0 0 1 0 0 0 
0 0 0 0 0 0 0 1 
Solution: -8 0
Gbest: -22.000000
Expectation: -29.938423
Final Parameters:
Gammas:
[ 1.158357 5.166494 ]
Betas:
[ 2.945050 3.141593 2.609114 ]
Aggregate results:
[ 7 15 17 19 25 23 27 21 13 29 31 33 35 9 37 39 11 63 ]
[ 0.000048 0.001494 0.005016 0.016255 0.172282 0.103128 0.219929 0.043066 0.000371 0.192652 0.123903 0.053332 0.015027 0.000058 0.003011 0.000198 0.000051 0.050178 ]
5
Num Evals 3200
GenUC: 2.855770e-03
GenUB: 1.676782e-02
Optimisation 2.150468e+02
Total Time: 2.153527e+02
5 Add/Rem 8
Graph 1:
1 0 1 0 1 0 0 0 
1 0 0 0 1 1 0 0 
0 0 0 0 0 0 0 0 
1 1 1 1 1 1 1 0 
0 0 1 0 0 1 0 0 
0 0 0 1 0 1 0 1 
1 1 0 0 1 0 0 0 
0 1 0 0 1 0 1 1 
Graph 2:
1 0 0 1 1 0 0 0 
1 0 0 0 1 0 0 0 
0 1 1 0 0 0 0 0 
0 1 1 0 1 1 1 0 
1 1 0 0 0 1 1 0 
0 0 0 1 0 1 0 1 
1 1 0 0 1 1 0 0 
0 0 0 0 1 1 0 0 
Solution: -16 0
Gbest: -24.000000
Expectation: -32.286117
Final Parameters:
Gammas:
[ 0.079174 6.248081 ]
Betas:
[ 0.000000 3.141593 2.626868 ]
Aggregate results:
[ 15 19 17 27 21 23 29 25 31 33 35 37 39 41 43 63 ]
[ 0.000211 0.004347 0.001088 0.160307 0.013819 0.040613 0.203221 0.091905 0.195736 0.138255 0.068731 0.023436 0.005016 0.000818 0.000057 0.052439 ]
5
Num Evals 4000
GenUC: 2.864481e-03
GenUB: 1.636580e-02
Optimisation 1.487345e+02
Total Time: 1.489473e+02
