Clock Speed: 3.689167
Num threads: 4
Trotterisation: 2
Graph Size: 8
Num Qubits: 16
Space Dimension: 65536
Run-Type: 0
Num_samples: 10
1 Isomorphic
Graph 1:
1 1 0 1 0 0 1 1 
0 0 0 0 1 0 1 1 
1 0 0 0 1 0 0 1 
0 0 1 1 1 0 1 1 
1 1 0 0 0 1 1 1 
0 0 1 0 0 1 1 1 
1 0 0 0 1 1 0 1 
1 0 1 1 0 1 0 1 
Graph 2:
1 1 0 1 0 0 1 1 
0 0 0 0 1 0 1 1 
1 0 0 0 1 0 0 1 
0 0 1 1 1 0 1 1 
1 1 0 0 0 1 1 1 
0 0 1 0 0 1 1 1 
1 0 0 0 1 1 0 1 
1 0 1 1 0 1 0 1 
Solution: 0 0
Gbest: -20.000000
Expectation: -40.012327
Final Parameters:
Gammas:
[ 5.827176 3.246034 ]
Betas:
[ 2.461990 2.044276 1.967634 ]
Aggregate results:
[ -1 13 19 15 21 11 17 7 25 23 27 29 31 33 35 9 37 39 41 43 47 63 ]
[ 0.000004 0.000415 0.006242 0.001101 0.011643 0.000122 0.001961 0.000089 0.049078 0.026507 0.084730 0.117172 0.144307 0.132272 0.093014 0.000051 0.051334 0.019223 0.004030 0.000556 0.000020 0.256128 ]
5
Num Evals 800
GenUC: 3.538430e-03
GenUB: 1.733820e-02
Optimisation 1.728563e+02
Total Time: 1.731093e+02
2 Flipped
Graph 1:
1 1 0 1 0 0 1 1 
0 0 0 0 1 0 1 1 
1 0 0 0 1 0 0 1 
0 0 1 1 1 0 1 1 
1 1 0 0 0 1 1 1 
0 0 1 0 0 1 1 1 
1 0 0 0 1 1 0 1 
1 0 1 1 0 1 0 1 
Graph 2:
1 1 0 0 1 0 1 1 
1 1 0 1 0 0 0 0 
1 0 0 1 0 0 0 1 
1 1 0 1 1 1 0 0 
1 1 1 0 0 0 1 1 
1 1 1 0 0 1 0 0 
1 0 1 1 0 0 0 1 
1 0 1 0 1 1 0 1 
Solution: -16 2625
Gbest: -18.000000
Expectation: -37.843502
Final Parameters:
Gammas:
[ 1.759515 4.663656 ]
Betas:
[ 3.122464 0.220311 2.802069 ]
Aggregate results:
[ 27 29 33 31 25 23 35 19 17 21 37 39 15 41 43 45 47 63 ]
[ 0.072369 0.153258 0.164388 0.125454 0.067378 0.020863 0.090623 0.004845 0.001633 0.014720 0.066236 0.024471 0.000388 0.007902 0.002322 0.000284 0.000121 0.182744 ]
5
Num Evals 1600
GenUC: 2.629883e-03
GenUB: 1.684192e-02
Optimisation 1.898042e+02
Total Time: 1.900407e+02
3 Add 8
Graph 1:
1 1 0 1 0 0 1 1 
0 0 0 0 1 0 1 1 
1 0 0 0 1 0 0 1 
0 0 1 1 1 0 1 1 
1 1 0 0 0 1 1 1 
0 0 1 0 0 1 1 1 
1 0 0 0 1 1 0 1 
1 0 1 1 0 1 0 1 
Graph 2:
1 1 0 1 1 0 1 1 
1 0 0 0 1 0 1 1 
1 1 0 0 1 1 0 1 
0 0 1 1 1 1 1 1 
1 1 0 1 1 1 1 1 
0 0 1 0 0 1 1 1 
1 0 0 0 1 1 0 1 
1 0 1 1 0 1 0 1 
Solution: -7 0
Gbest: -27.000000
Expectation: -35.104503
Final Parameters:
Gammas:
[ 6.046366 3.245589 ]
Betas:
[ 1.611029 1.237046 2.449447 ]
Aggregate results:
[ 6 14 24 18 22 16 20 12 30 28 26 32 34 36 38 40 42 44 46 63 ]
[ 0.000007 0.000192 0.066615 0.004346 0.026976 0.000718 0.012267 0.000192 0.168389 0.152814 0.109116 0.148368 0.099689 0.049598 0.019281 0.005793 0.001113 0.000219 0.000007 0.134300 ]
5
Num Evals 2400
GenUC: 2.933697e-03
GenUB: 2.235103e-02
Optimisation 1.952488e+02
Total Time: 1.954771e+02
4 Rem 8
Graph 1:
1 1 0 1 0 0 1 1 
0 0 0 0 1 0 1 1 
1 0 0 0 1 0 0 1 
0 0 1 1 1 0 1 1 
1 1 0 0 0 1 1 1 
0 0 1 0 0 1 1 1 
1 0 0 0 1 1 0 1 
1 0 1 1 0 1 0 1 
Graph 2:
1 1 0 0 0 0 1 1 
0 0 0 0 1 0 1 1 
1 0 0 0 1 0 0 1 
0 0 0 1 1 0 1 1 
1 1 0 0 0 1 1 1 
0 0 1 0 0 0 0 1 
1 0 0 0 1 1 0 0 
0 0 1 1 0 1 0 0 
Solution: -7 0
Gbest: -25.000000
Expectation: -32.826841
Final Parameters:
Gammas:
[ 3.215980 3.080920 ]
Betas:
[ 2.703987 0.661443 2.826788 ]
Aggregate results:
[ 6 16 20 18 22 14 12 28 26 24 30 32 34 36 38 40 42 44 63 ]
[ 0.000029 0.000795 0.008110 0.002200 0.019351 0.000126 0.000125 0.138878 0.083093 0.042071 0.187065 0.190637 0.151200 0.090291 0.041873 0.012514 0.002707 0.000391 0.028543 ]
5
Num Evals 3200
GenUC: 2.864227e-03
GenUB: 1.693847e-02
Optimisation 1.804342e+02
Total Time: 1.806827e+02
5 Add/Rem 8
Graph 1:
1 1 0 1 0 0 1 1 
0 0 0 0 1 0 1 1 
1 0 0 0 1 0 0 1 
0 0 1 1 1 0 1 1 
1 1 0 0 0 1 1 1 
0 0 1 0 0 1 1 1 
1 0 0 0 1 1 0 1 
1 0 1 1 0 1 0 1 
Graph 2:
1 1 1 1 0 0 1 0 
0 1 1 0 0 0 0 1 
1 0 1 0 1 0 0 1 
0 0 1 1 0 0 1 1 
1 1 0 0 0 0 1 1 
1 0 1 0 1 1 0 0 
1 0 0 0 1 1 0 1 
1 0 1 1 0 1 1 0 
Solution: -13 6752
Gbest: -23.000000
Expectation: -30.221514
Final Parameters:
Gammas:
[ 3.086761 0.216044 ]
Betas:
[ 3.126047 2.716545 3.021835 ]
Aggregate results:
[ 14 24 28 26 22 30 18 32 34 36 20 38 16 40 42 44 12 46 63 ]
[ 0.000345 0.128219 0.210092 0.187379 0.065497 0.167376 0.007305 0.090080 0.031783 0.013816 0.025858 0.012305 0.001789 0.009367 0.004322 0.001499 0.000180 0.000152 0.042635 ]
5
Num Evals 4000
GenUC: 2.872756e-03
GenUB: 1.705928e-02
Optimisation 2.227337e+02
Total Time: 2.230423e+02
