Clock Speed: 3.688988
Num threads: 4
Trotterisation: 2
Num Qubits: 5
Space Dimension: 32
Run-Type: 0
Num_samples: 4
Optimiser Method: 20
1 Isomorphic
Graph 1:
0 1 1 0 
1 0 1 1 
1 1 0 1 
0 1 1 0 
Graph 2:
0 1 1 0 
1 0 1 1 
1 1 0 1 
0 1 1 0 
Solution: 16 0
Classic Expectation: 12.666667
Initial Expecation: 9.500000
Gbest: 16.000000
Expectation: 12.968309
Final Parameters:
Gammas:
[ 4.868995 1.390580 ]
Betas:
[ 2.121576 1.228150 ]
Aggregate results:
[ 16 12 0 ]
[ 0.259518 0.734668 0.005814 ]
5
Num Evals 1600
GenUC: 8.783565e-06
GenUB: 8.744842e-06
Optimisation 7.950872e+00
Total Time: 7.950913e+00
2 Flipped
Graph 1:
0 1 1 0 
1 0 1 1 
1 1 0 1 
0 1 1 0 
Graph 2:
0 1 1 0 
1 1 0 1 
1 0 1 1 
0 1 1 0 
Solution: 12 0
Classic Expectation: 9.333333
Initial Expecation: 7.000000
Gbest: 12.000000
Expectation: 9.379164
Final Parameters:
Gammas:
[ 5.795090 0.025072 ]
Betas:
[ 1.936120 2.071101 ]
Aggregate results:
[ 12 8 0 ]
[ 0.546573 0.352536 0.100891 ]
5
Num Evals 1600
GenUC: 9.523559e-06
GenUB: 1.852604e-06
Optimisation 8.964667e+00
Total Time: 8.964681e+00
3 Add 4
Graph 1:
0 1 1 0 
1 0 1 1 
1 1 0 1 
0 1 1 0 
Graph 2:
1 1 1 1 
1 1 1 1 
1 1 1 1 
1 1 1 0 
Solution: 11 0
Classic Expectation: 11.000000
Initial Expecation: 8.250000
Gbest: 11.000000
Expectation: 11.000000
Final Parameters:
Gammas:
[ 6.220455 0.739951 ]
Betas:
[ 0.603628 1.104006 ]
Aggregate results:
[ 11 0 ]
[ 1.000000 0.000000 ]
5
Num Evals 1600
GenUC: 9.653828e-06
GenUB: 1.832057e-06
Optimisation 8.346557e+00
Total Time: 8.346571e+00
4 Rem 4
Graph 1:
0 1 1 0 
1 0 1 1 
1 1 0 1 
0 1 1 0 
Graph 2:
0 0 0 0 
0 0 1 0 
0 1 0 1 
0 0 1 0 
Solution: 10 0
Classic Expectation: 8.666667
Initial Expecation: 6.500000
Gbest: 10.000000
Expectation: 8.911199
Final Parameters:
Gammas:
[ 2.934377 3.804973 ]
Betas:
[ 1.010797 1.333815 ]
Aggregate results:
[ 10 6 0 ]
[ 0.780983 0.183562 0.035456 ]
5
Num Evals 1600
GenUC: 8.975461e-06
GenUB: 1.493463e-06
Optimisation 8.460134e+00
Total Time: 8.460147e+00
5 Add/Rem 4
Graph 1:
0 1 1 0 
1 0 1 1 
1 1 0 1 
0 1 1 0 
Graph 2:
1 0 0 1 
0 1 0 0 
0 0 1 1 
1 0 1 0 
Solution: 7 1
Classic Expectation: 5.666667
Initial Expecation: 4.250000
Gbest: 7.000000
Expectation: 6.699771
Final Parameters:
Gammas:
[ 4.717244 1.912643 ]
Betas:
[ 0.563639 0.295827 ]
Aggregate results:
[ 3 7 0 ]
[ 0.045884 0.937445 0.016670 ]
5
Num Evals 1600
GenUC: 9.170879e-06
GenUB: 1.448861e-06
Optimisation 8.242042e+00
Total Time: 8.242055e+00
