Clock Speed: 3.689402
Num threads: 4
Trotterisation: 2
Num Qubits: 5
Space Dimension: 32
Run-Type: 0
Num_samples: 4
Optimiser Method: 20
1 Isomorphic
Graph 1:
0 0 1 1 
0 0 0 1 
1 0 0 1 
1 1 1 0 
Graph 2:
0 0 1 1 
0 0 0 1 
1 0 0 1 
1 1 1 0 
Solution: 16 0
Classic Expectation: 10.666667
Initial Expecation: 8.000000
Gbest: 12.000000
Expectation: 11.670480
Final Parameters:
Gammas:
[ 4.916582 6.100281 ]
Betas:
[ 2.181476 1.333146 ]
Aggregate results:
[ 16 12 8 0 ]
[ 0.173308 0.629488 0.167961 0.029242 ]
5
Num Evals 1600
GenUC: 8.400006e-06
GenUB: 1.039526e-05
Optimisation 1.243947e+01
Total Time: 1.243952e+01
2 Flipped
Graph 1:
0 0 1 1 
0 0 0 1 
1 0 0 1 
1 1 1 0 
Graph 2:
1 1 0 0 
1 0 0 0 
1 0 0 1 
0 1 1 1 
Solution: 10 2
Classic Expectation: 8.000000
Initial Expecation: 6.000000
Gbest: 10.000000
Expectation: 8.521109
Final Parameters:
Gammas:
[ 0.071643 3.399929 ]
Betas:
[ 1.034483 0.418398 ]
Aggregate results:
[ 8 6 10 0 ]
[ 0.322080 0.143334 0.508446 0.026139 ]
5
Num Evals 1600
GenUC: 9.080730e-06
GenUB: 1.894907e-06
Optimisation 6.917149e+00
Total Time: 6.917163e+00
3 Add 4
Graph 1:
0 0 1 1 
0 0 0 1 
1 0 0 1 
1 1 1 0 
Graph 2:
1 1 1 1 
1 0 1 1 
1 1 0 1 
1 1 1 1 
Solution: 10 0
Classic Expectation: 10.000000
Initial Expecation: 7.500000
Gbest: 10.000000
Expectation: 10.000000
Final Parameters:
Gammas:
[ 3.079060 2.074554 ]
Betas:
[ 2.599139 0.513369 ]
Aggregate results:
[ 10 0 ]
[ 1.000000 0.000000 ]
5
Num Evals 1600
GenUC: 9.184601e-06
GenUB: 1.965323e-06
Optimisation 9.376298e+00
Total Time: 9.376312e+00
4 Rem 4
Graph 1:
0 0 1 1 
0 0 0 1 
1 0 0 1 
1 1 1 0 
Graph 2:
0 0 0 0 
0 0 0 0 
0 0 0 1 
0 0 1 0 
Solution: 10 0
Classic Expectation: 8.666667
Initial Expecation: 6.500000
Gbest: 10.000000
Expectation: 9.571402
Final Parameters:
Gammas:
[ 2.680718 5.960679 ]
Betas:
[ 1.807336 1.006935 ]
Aggregate results:
[ 10 6 0 ]
[ 0.944124 0.021694 0.034182 ]
5
Num Evals 1600
GenUC: 8.784395e-06
GenUB: 1.526947e-06
Optimisation 9.364200e+00
Total Time: 9.364213e+00
5 Add/Rem 4
Graph 1:
0 0 1 1 
0 0 0 1 
1 0 0 1 
1 1 1 0 
Graph 2:
0 1 0 0 
1 1 1 0 
0 1 0 1 
0 0 1 1 
Solution: 12 4
Classic Expectation: 8.000000
Initial Expecation: 6.000000
Gbest: 12.000000
Expectation: 8.455478
Final Parameters:
Gammas:
[ 3.726769 5.906790 ]
Betas:
[ 3.129820 0.403322 ]
Aggregate results:
[ 4 8 12 0 ]
[ 0.039790 0.556810 0.320153 0.083247 ]
5
Num Evals 1600
GenUC: 8.770890e-06
GenUB: 1.507011e-06
Optimisation 1.081296e+01
Total Time: 1.081297e+01
