Clock Speed: 3.688945
Num threads: 4
Trotterisation: 1
Graph Size: 4
Num Qubits: 5
Space Dimension: 32
Run-Type: 0
Num_samples: 10
1 Isomorphic
Graph 1:
0 0 1 0 
0 0 0 0 
0 1 1 1 
0 1 1 1 
Graph 2:
0 0 1 0 
0 0 0 0 
0 1 1 1 
0 1 1 1 
Solution: 0 0
Gbest: -6.000000
Expectation: -9.875000
Final Parameters:
Gammas:
[ 3.141593 ]
Betas:
[ 3.140274 1.525305 ]
Aggregate results:
[ -1 5 7 9 1 13 11 15 ]
[ 0.031250 0.125000 0.406250 0.062500 0.031250 0.031250 0.062500 0.250000 ]
3
Num Evals 8
GenUC: 1.213142e-04
GenUB: 1.158065e-05
Optimisation 1.142304e-03
Total Time: 1.460519e-03
2 Flipped
Graph 1:
0 0 1 0 
0 0 0 0 
0 1 1 1 
0 1 1 1 
Graph 2:
0 1 0 0 
0 0 0 0 
1 1 1 0 
1 1 1 0 
Solution: -4 6
Gbest: -6.000000
Expectation: -10.000000
Final Parameters:
Gammas:
[ 3.141593 ]
Betas:
[ 3.139651 1.515611 ]
Aggregate results:
[ 5 7 9 3 15 ]
[ 0.218750 0.125000 0.343750 0.062500 0.250000 ]
3
Num Evals 16
GenUC: 9.199954e-06
GenUB: 8.760835e-06
Optimisation 1.042918e-03
Total Time: 1.228092e-03
3 Add 4
Graph 1:
0 0 1 0 
0 0 0 0 
0 1 1 1 
0 1 1 1 
Graph 2:
1 0 1 1 
0 1 0 1 
0 1 1 1 
0 1 1 1 
Solution: -4 0
Gbest: -4.000000
Expectation: -8.698247
Final Parameters:
Gammas:
[ 2.473632 ]
Betas:
[ 1.121120 2.250309 ]
Aggregate results:
[ 3 9 7 5 11 15 ]
[ 0.145715 0.108918 0.457925 0.094747 0.072199 0.120496 ]
3
Num Evals 106
GenUC: 8.532661e-06
GenUB: 7.722178e-06
Optimisation 1.155105e-02
Total Time: 1.170427e-02
4 Rem 4
Graph 1:
0 0 1 0 
0 0 0 0 
0 1 1 1 
0 1 1 1 
Graph 2:
0 0 1 0 
0 0 0 0 
0 0 0 0 
0 1 0 1 
Solution: -4 0
Gbest: -6.000000
Expectation: -6.882587
Final Parameters:
Gammas:
[ 2.963484 ]
Betas:
[ 1.851588 0.421800 ]
Aggregate results:
[ 3 7 5 9 15 ]
[ 0.064478 0.285780 0.557487 0.080429 0.011827 ]
3
Num Evals 188
GenUC: 8.939882e-06
GenUB: 7.979805e-06
Optimisation 9.376360e-03
Total Time: 9.507564e-03
5 Add/Rem 4
Graph 1:
0 0 1 0 
0 0 0 0 
0 1 1 1 
0 1 1 1 
Graph 2:
0 1 1 0 
1 0 0 0 
1 1 0 0 
0 1 0 0 
Solution: -5 6
Gbest: -5.000000
Expectation: -10.000000
Final Parameters:
Gammas:
[ 4.869469 ]
Betas:
[ 1.649336 1.570796 ]
Aggregate results:
[ 6 10 8 4 15 ]
[ 0.250000 0.125000 0.250000 0.125000 0.250000 ]
3
Num Evals 198
GenUC: 8.530216e-06
GenUB: 8.266186e-06
Optimisation 1.256873e-03
Total Time: 1.404455e-03
