Clock Speed: 3.689053
Num threads: 4
Trotterisation: 1
Graph Size: 4
Num Qubits: 5
Space Dimension: 32
Run-Type: 0
Num_samples: 10
1 Isomorphic
Graph 1:
0 0 1 1 
1 1 1 0 
1 0 1 1 
0 0 0 0 
Graph 2:
0 0 1 1 
1 1 1 0 
1 0 1 1 
0 0 0 0 
Solution: 0 0
Gbest: 0.000000
Expectation: -7.889956
Final Parameters:
Gammas:
[ 3.331195 ]
Betas:
[ 2.185576 2.146358 ]
Aggregate results:
[ -1 7 5 1 9 11 15 ]
[ 0.099536 0.426782 0.077432 0.099654 0.136270 0.029029 0.131297 ]
3
Num Evals 74
GenUC: 1.451056e-04
GenUB: 1.187355e-05
Optimisation 1.122333e-02
Total Time: 1.156220e-02
2 Flipped
Graph 1:
0 0 1 1 
1 1 1 0 
1 0 1 1 
0 0 0 0 
Graph 2:
1 1 0 0 
0 1 1 1 
1 1 0 1 
0 0 0 0 
Solution: -2 2
Gbest: -2.000000
Expectation: -9.037745
Final Parameters:
Gammas:
[ 1.834303 ]
Betas:
[ 2.374742 0.913891 ]
Aggregate results:
[ 7 3 1 5 9 11 15 ]
[ 0.092995 0.037655 0.097265 0.229595 0.345639 0.008733 0.188117 ]
3
Num Evals 154
GenUC: 9.404030e-06
GenUB: 8.407631e-06
Optimisation 1.077931e-02
Total Time: 1.093304e-02
3 Add 4
Graph 1:
0 0 1 1 
1 1 1 0 
1 0 1 1 
0 0 0 0 
Graph 2:
0 0 1 1 
1 1 1 1 
1 1 1 1 
0 0 0 1 
Solution: -3 0
Gbest: -7.000000
Expectation: -10.000000
Final Parameters:
Gammas:
[ 3.926991 ]
Betas:
[ 1.570796 1.570796 ]
Aggregate results:
[ 2 6 4 8 10 15 ]
[ 0.031250 0.312500 0.062500 0.187500 0.156250 0.250000 ]
3
Num Evals 162
GenUC: 8.637668e-06
GenUB: 7.943483e-06
Optimisation 1.007802e-03
Total Time: 1.153460e-03
4 Rem 4
Graph 1:
0 0 1 1 
1 1 1 0 
1 0 1 1 
0 0 0 0 
Graph 2:
0 0 0 1 
1 0 1 0 
0 0 1 0 
0 0 0 0 
Solution: -4 0
Gbest: -4.000000
Expectation: -7.652996
Final Parameters:
Gammas:
[ 2.944934 ]
Betas:
[ 3.101048 0.398911 ]
Aggregate results:
[ 3 7 9 5 11 15 ]
[ 0.062174 0.554421 0.106196 0.246772 0.015165 0.015273 ]
3
Num Evals 259
GenUC: 8.181669e-06
GenUB: 8.079573e-06
Optimisation 1.313990e-02
Total Time: 1.328959e-02
5 Add/Rem 4
Graph 1:
0 0 1 1 
1 1 1 0 
1 0 1 1 
0 0 0 0 
Graph 2:
1 0 1 1 
0 0 1 1 
0 1 1 0 
1 0 0 0 
Solution: -4 1
Gbest: -8.000000
Expectation: -10.000000
Final Parameters:
Gammas:
[ 3.141593 ]
Betas:
[ 3.140021 1.521137 ]
Aggregate results:
[ 7 3 5 9 11 15 ]
[ 0.437500 0.031250 0.125000 0.125000 0.031250 0.250000 ]
3
Num Evals 267
GenUC: 8.822419e-06
GenUB: 7.870723e-06
Optimisation 1.034564e-03
Total Time: 1.207223e-03
