Clock Speed: 3.498636
Num threads: 16
Trotterisation: 6
Num Qubits: 10
Space Dimension: 1024
Run-Type: 0
Num_samples: 36
Optimiser Method: 0
1 Isomorphic
Graph 1:
0 0 0 1 1 1 
0 1 0 0 1 1 
1 1 0 1 1 0 
1 1 0 0 1 1 
1 0 1 1 0 1 
1 1 0 0 1 0 
Graph 2:
0 0 0 1 1 1 
0 1 0 0 1 1 
1 1 0 1 1 0 
1 1 0 0 1 1 
1 0 1 1 0 1 
1 1 0 0 1 0 
Solution: 36 0
Classic Expectation: 21.000000
Initial Expecation: 14.765625
Gbest: 26.000000
Expectation: 15.105807
Final Parameters:
Gammas:
[ 1.047198 1.047198 1.047198 3.141593 3.141593 3.141593 ]
Betas:
[ 2.617994 1.570796 1.570796 1.570796 1.570796 1.570796 ]
Aggregate results:
[ 36 28 26 30 24 22 20 18 14 16 32 0 ]
[ 0.000801 0.010324 0.035159 0.004937 0.101760 0.167352 0.233297 0.124256 0.004927 0.037438 0.000973 0.278776 ]
3
Num Evals 43
GenUC: 3.070650e-04
GenUB: 1.141555e-04
Optimisation 2.580082e-01
Total Time: 2.584393e-01
2 Flipped
Graph 1:
0 0 0 1 1 1 
0 1 0 0 1 1 
1 1 0 1 1 0 
1 1 0 0 1 1 
1 0 1 1 0 1 
1 1 0 0 1 0 
Graph 2:
1 1 1 0 0 0 
1 1 0 0 1 0 
0 1 1 0 1 1 
1 1 0 0 1 1 
1 0 1 1 0 1 
0 1 0 0 1 1 
Solution: 26 111
Classic Expectation: 18.000000
Initial Expecation: 12.656250
Gbest: 24.000000
Expectation: 12.656250
Final Parameters:
Gammas:
[ 3.141593 5.235988 3.141593 3.141593 3.141593 3.141593 ]
Betas:
[ 0.523599 1.570796 1.570796 1.570796 1.570796 1.570796 ]
Aggregate results:
[ 22 16 14 24 18 20 12 26 10 0 ]
[ 0.083984 0.177734 0.074219 0.023438 0.166016 0.145508 0.024414 0.005859 0.001953 0.296875 ]
3
Num Evals 95
GenUC: 3.580810e-04
GenUB: 1.163785e-04
Optimisation 5.661545e-01
Total Time: 5.666315e-01
3 Add 6
Graph 1:
0 0 0 1 1 1 
0 1 0 0 1 1 
1 1 0 1 1 0 
1 1 0 0 1 1 
1 0 1 1 0 1 
1 1 0 0 1 0 
Graph 2:
0 1 0 1 1 1 
0 1 0 0 1 1 
1 1 1 1 1 0 
1 1 0 1 1 1 
1 0 1 1 0 1 
1 1 1 0 1 1 
Solution: 31 0
Classic Expectation: 19.666667
Initial Expecation: 13.828125
Gbest: 27.000000
Expectation: 16.418487
Final Parameters:
Gammas:
[ 3.145900 1.008414 3.145900 5.246041 1.784112 1.046721 ]
Betas:
[ 1.396266 1.439361 0.504209 1.417814 1.577258 0.698135 ]
Aggregate results:
[ 31 25 23 21 27 19 17 15 13 29 0 ]
[ 0.000662 0.035387 0.098655 0.220692 0.004356 0.270017 0.149752 0.046395 0.009093 0.000063 0.164927 ]
3
Num Evals 3283
GenUC: 3.577955e-04
GenUB: 1.232717e-04
Optimisation 1.876504e+01
Total Time: 1.876553e+01
4 Rem 6
Graph 1:
0 0 0 1 1 1 
0 1 0 0 1 1 
1 1 0 1 1 0 
1 1 0 0 1 1 
1 0 1 1 0 1 
1 1 0 0 1 0 
Graph 2:
0 0 0 1 0 0 
0 1 0 0 1 1 
0 1 0 1 1 0 
1 0 0 0 1 0 
1 0 0 1 0 1 
1 1 0 0 1 0 
Solution: 30 0
Classic Expectation: 19.000000
Initial Expecation: 13.359375
Gbest: 26.000000
Expectation: 13.359375
Final Parameters:
Gammas:
[ 3.141593 1.047198 1.047198 1.047198 3.141593 3.141593 ]
Betas:
[ 1.570796 1.570796 1.570796 1.570796 1.570796 1.570796 ]
Aggregate results:
[ 30 24 26 22 20 18 28 16 14 12 0 ]
[ 0.000977 0.040039 0.013672 0.094727 0.181641 0.205078 0.004883 0.108398 0.044922 0.008789 0.296875 ]
3
Num Evals 45
GenUC: 3.581899e-04
GenUB: 7.997453e-05
Optimisation 2.662806e-01
Total Time: 2.667214e-01
5 Add/Rem 6
Graph 1:
0 0 0 1 1 1 
0 1 0 0 1 1 
1 1 0 1 1 0 
1 1 0 0 1 1 
1 0 1 1 0 1 
1 1 0 0 1 0 
Graph 2:
1 1 0 1 0 1 
0 1 0 0 0 1 
1 1 0 1 1 1 
1 1 1 0 1 0 
0 0 1 1 0 0 
1 0 1 1 1 0 
Solution: 28 399
Classic Expectation: 20.000000
Initial Expecation: 14.062500
Gbest: 24.000000
Expectation: 14.062500
Final Parameters:
Gammas:
[ 1.047198 1.047198 3.141593 3.141593 3.141593 3.141593 ]
Betas:
[ 1.570796 1.570796 1.570796 1.570796 1.570796 1.570796 ]
Aggregate results:
[ 24 22 20 16 18 14 26 12 28 0 ]
[ 0.083984 0.146484 0.204102 0.071289 0.157227 0.020508 0.015625 0.001953 0.001953 0.296875 ]
3
Num Evals 27
GenUC: 3.583319e-04
GenUB: 8.744001e-05
Optimisation 1.592076e-01
Total Time: 1.596557e-01
