Clock Speed: 3.689041
Num threads: 4
Trotterisation: 3
Num Qubits: 5
Space Dimension: 32
Run-Type: 0
Num_samples: 6399
Optimiser Method: 20
1 Isomorphic
Graph 1:
1 1 0 0 
1 1 0 1 
1 1 1 1 
0 1 0 1 
Graph 2:
1 1 0 0 
1 1 0 1 
1 1 1 1 
0 1 0 1 
Solution: 16 0
Classic Expectation: 10.166667
Initial Expecation: 7.625000
Gbest: 16.000000
Expectation: 9.983311
Final Parameters:
Gammas:
[ 2.816347 0.857487 4.985334 ]
Betas:
[ 0.164998 0.852890 1.428692 ]
Aggregate results:
[ 16 10 8 12 0 ]
[ 0.138839 0.255535 0.265972 0.256564 0.083091 ]
5
Num Evals 2400
GenUC: 8.479226e-06
GenUB: 8.778530e-06
Optimisation 4.219752e-01
Total Time: 4.220126e-01
2 Flipped
Graph 1:
1 1 0 0 
1 1 0 1 
1 1 1 1 
0 1 0 1 
Graph 2:
0 0 1 1 
1 0 1 1 
1 1 1 1 
1 0 1 0 
Solution: 10 2
Classic Expectation: 7.666667
Initial Expecation: 5.750000
Gbest: 10.000000
Expectation: 8.160298
Final Parameters:
Gammas:
[ 3.676275 5.627800 2.931362 ]
Betas:
[ 1.553549 1.940081 0.935451 ]
Aggregate results:
[ 6 10 8 0 ]
[ 0.183602 0.528657 0.221515 0.066226 ]
5
Num Evals 2400
GenUC: 9.076030e-06
GenUB: 1.549255e-06
Optimisation 5.771899e-01
Total Time: 5.772021e-01
3 Add 4
Graph 1:
1 1 0 0 
1 1 0 1 
1 1 1 1 
0 1 0 1 
Graph 2:
1 1 0 1 
1 1 1 1 
1 1 1 1 
1 1 0 1 
Solution: 13 0
Classic Expectation: 10.666667
Initial Expecation: 8.000000
Gbest: 13.000000
Expectation: 10.141385
Final Parameters:
Gammas:
[ 4.144027 6.248922 1.507306 ]
Betas:
[ 2.760491 0.514861 2.704567 ]
Aggregate results:
[ 13 11 9 0 ]
[ 0.505604 0.236572 0.107359 0.150464 ]
5
Num Evals 2400
GenUC: 9.484473e-06
GenUB: 1.693028e-06
Optimisation 6.584510e-01
Total Time: 6.584643e-01
4 Rem 4
Graph 1:
1 1 0 0 
1 1 0 1 
1 1 1 1 
0 1 0 1 
Graph 2:
1 0 0 0 
1 0 0 0 
1 1 1 1 
0 1 0 1 
Solution: 13 0
Classic Expectation: 8.833333
Initial Expecation: 6.625000
Gbest: 13.000000
Expectation: 9.510589
Final Parameters:
Gammas:
[ 6.206597 3.242778 5.912180 ]
Betas:
[ 1.685760 2.305765 2.967972 ]
Aggregate results:
[ 13 9 7 11 0 ]
[ 0.177481 0.142763 0.365206 0.305640 0.008911 ]
5
Num Evals 2400
GenUC: 9.021431e-06
GenUB: 1.440698e-06
Optimisation 7.483132e-01
Total Time: 7.483256e-01
5 Add/Rem 4
Graph 1:
1 1 0 0 
1 1 0 1 
1 1 1 1 
0 1 0 1 
Graph 2:
1 1 1 0 
0 1 1 1 
0 1 1 0 
1 1 1 1 
Solution: 13 1
Classic Expectation: 10.333333
Initial Expecation: 7.750000
Gbest: 13.000000
Expectation: 10.380107
Final Parameters:
Gammas:
[ 5.440505 3.876539 1.209895 ]
Betas:
[ 2.079407 0.264375 2.906000 ]
Aggregate results:
[ 9 13 7 11 0 ]
[ 0.349978 0.424708 0.028754 0.137075 0.059485 ]
5
Num Evals 2400
GenUC: 9.202224e-06
GenUB: 1.531618e-06
Optimisation 5.948443e-01
Total Time: 5.948571e-01
