Clock Speed: 3.498790
Num threads: 16
Trotterisation: 6
Num Qubits: 16
Space Dimension: 65536
Run-Type: 0
Num_samples: 64
Optimiser Method: 20
1 Isomorphic
Graph 1:
1 0 1 0 0 1 0 1 
1 1 0 0 0 0 1 1 
0 0 1 0 0 1 1 1 
1 1 0 0 1 1 0 0 
0 0 1 0 0 1 0 1 
1 1 1 1 1 0 1 0 
1 0 0 1 1 0 0 1 
0 1 0 1 1 0 0 1 
Graph 2:
1 0 1 0 0 1 0 1 
1 1 0 0 0 0 1 1 
0 0 1 0 0 1 1 1 
1 1 0 0 1 1 0 0 
0 0 1 0 0 1 0 1 
1 1 1 1 1 0 1 0 
1 0 0 1 1 0 0 1 
0 1 0 1 1 0 0 1 
Solution: 64 0
Classic Expectation: 32.035714
Initial Expecation: 19.709473
Gbest: 40.000000
Expectation: 26.742176
Final Parameters:
Gammas:
[ 3.724713 3.001527 5.731946 4.080323 2.246079 5.575479 ]
Betas:
[ 1.306679 2.613968 1.146014 1.757830 1.372382 0.085210 ]
Aggregate results:
[ 64 50 48 46 40 42 38 36 34 44 32 54 30 24 28 26 52 20 22 18 16 12 58 14 0 ]
[ 0.000012 0.000366 0.000596 0.002121 0.037596 0.016459 0.082011 0.120176 0.146123 0.005241 0.141845 0.000009 0.110674 0.020881 0.072277 0.042373 0.000143 0.003213 0.008439 0.000581 0.000274 0.000085 0.000004 0.000029 0.188470 ]
5
Num Evals 9600
GenUC: 1.832047e-02
GenUB: 1.263835e-02
Optimisation 4.867115e+03
Total Time: 4.867146e+03
2 Flipped
Graph 1:
1 0 1 0 0 1 0 1 
1 1 0 0 0 0 1 1 
0 0 1 0 0 1 1 1 
1 1 0 0 1 1 0 0 
0 0 1 0 0 1 0 1 
1 1 1 1 1 0 1 0 
1 0 0 1 1 0 0 1 
0 1 0 1 1 0 0 1 
Graph 2:
1 0 1 0 0 1 0 1 
1 1 0 0 0 0 1 1 
1 1 1 0 0 1 0 0 
0 0 1 1 0 0 1 1 
1 0 1 0 0 1 0 0 
0 1 0 1 1 1 1 1 
1 0 0 1 1 0 0 1 
1 0 0 1 1 0 1 0 
Solution: 48 2362
Classic Expectation: 32.000000
Initial Expecation: 19.687500
Gbest: 42.000000
Expectation: 24.991515
Final Parameters:
Gammas:
[ 0.437557 4.248595 2.024783 4.240372 4.343883 4.606096 ]
Betas:
[ 0.652689 0.110298 1.544020 2.594603 0.007478 1.698688 ]
Aggregate results:
[ 42 40 34 44 32 30 36 38 46 28 26 24 22 20 18 48 16 0 ]
[ 0.009520 0.029585 0.125235 0.002679 0.123526 0.117713 0.099341 0.059979 0.000372 0.098397 0.067073 0.036428 0.010686 0.002276 0.000872 0.000075 0.000152 0.216091 ]
5
Num Evals 9600
GenUC: 2.338118e-02
GenUB: 1.350969e-02
Optimisation 4.063643e+03
Total Time: 4.063679e+03
3 Add 8
Graph 1:
1 0 1 0 0 1 0 1 
1 1 0 0 0 0 1 1 
0 0 1 0 0 1 1 1 
1 1 0 0 1 1 0 0 
0 0 1 0 0 1 0 1 
1 1 1 1 1 0 1 0 
1 0 0 1 1 0 0 1 
0 1 0 1 1 0 0 1 
Graph 2:
1 1 1 1 0 1 0 1 
1 1 0 1 0 0 1 1 
1 0 1 0 1 1 1 1 
1 1 0 0 1 1 0 0 
1 0 1 0 0 1 0 1 
1 1 1 1 1 0 1 0 
1 0 0 1 1 1 0 1 
0 1 0 1 1 0 0 1 
Solution: 57 0
Classic Expectation: 32.285714
Initial Expecation: 19.863281
Gbest: 39.000000
Expectation: 25.877782
Final Parameters:
Gammas:
[ 2.031669 3.185378 1.176004 2.161603 2.442894 4.748581 ]
Betas:
[ 0.589905 2.389861 0.332685 1.153686 1.624681 0.066312 ]
Aggregate results:
[ 57 43 39 45 41 35 29 37 31 49 33 47 27 25 23 21 19 51 17 15 0 ]
[ 0.000017 0.004376 0.031619 0.001537 0.014136 0.124829 0.110375 0.087207 0.170994 0.000056 0.144389 0.000346 0.062086 0.036432 0.011197 0.003077 0.000657 0.000014 0.000096 0.000102 0.196459 ]
5
Num Evals 9600
GenUC: 2.345764e-02
GenUB: 1.338988e-02
Optimisation 4.021130e+03
Total Time: 4.021167e+03
4 Rem 8
Graph 1:
1 0 1 0 0 1 0 1 
1 1 0 0 0 0 1 1 
0 0 1 0 0 1 1 1 
1 1 0 0 1 1 0 0 
0 0 1 0 0 1 0 1 
1 1 1 1 1 0 1 0 
1 0 0 1 1 0 0 1 
0 1 0 1 1 0 0 1 
Graph 2:
1 0 1 0 0 1 0 1 
0 1 0 0 0 0 1 1 
0 0 1 0 0 1 1 0 
1 1 0 0 1 0 0 0 
0 0 1 0 0 1 0 0 
0 1 1 1 1 0 0 0 
0 0 0 1 1 0 0 0 
0 1 0 1 1 0 0 1 
Solution: 56 0
Classic Expectation: 31.750000
Initial Expecation: 19.533691
Gbest: 42.000000
Expectation: 26.350371
Final Parameters:
Gammas:
[ 3.284721 6.035859 6.029744 5.758251 1.671495 2.946572 ]
Betas:
[ 0.977219 2.562779 0.894379 1.391897 1.286464 1.857492 ]
Aggregate results:
[ 56 50 46 44 38 34 36 40 32 30 48 42 28 26 24 22 20 18 16 52 0 ]
[ 0.000011 0.000042 0.000572 0.002153 0.050219 0.136583 0.094002 0.022142 0.161058 0.144644 0.000132 0.006944 0.104033 0.066002 0.028566 0.010851 0.002392 0.000555 0.000111 0.000012 0.168975 ]
5
Num Evals 9600
GenUC: 2.345832e-02
GenUB: 1.371056e-02
Optimisation 5.222228e+03
Total Time: 5.222265e+03
5 Add/Rem 8
Graph 1:
1 0 1 0 0 1 0 1 
1 1 0 0 0 0 1 1 
0 0 1 0 0 1 1 1 
1 1 0 0 1 1 0 0 
0 0 1 0 0 1 0 1 
1 1 1 1 1 0 1 0 
1 0 0 1 1 0 0 1 
0 1 0 1 1 0 0 1 
Graph 2:
1 0 1 1 1 0 0 1 
1 1 0 1 0 0 1 1 
1 0 1 0 0 0 1 1 
1 1 1 0 1 0 0 1 
0 0 1 0 0 1 0 1 
1 1 1 1 1 0 1 1 
1 0 0 1 1 0 0 1 
1 0 0 0 0 0 0 0 
Solution: 51 36897
Classic Expectation: 32.107143
Initial Expecation: 19.753418
Gbest: 39.000000
Expectation: 24.443724
Final Parameters:
Gammas:
[ 6.101056 4.424769 2.120073 0.999706 3.246945 5.986961 ]
Betas:
[ 3.134326 1.016199 0.063423 0.047244 0.040801 2.949239 ]
Aggregate results:
[ 49 43 39 41 35 33 37 29 31 45 47 27 25 21 23 19 17 51 0 ]
[ 0.000454 0.005272 0.041921 0.016833 0.124890 0.136881 0.094093 0.097681 0.130489 0.001086 0.000764 0.058920 0.026017 0.002622 0.009608 0.000652 0.000019 0.000143 0.251654 ]
5
Num Evals 9600
GenUC: 2.344213e-02
GenUB: 1.378208e-02
Optimisation 4.248141e+03
Total Time: 4.248178e+03
