Clock Speed: 3.689000
Num threads: 4
Trotterisation: 2
Graph Size: 6
Num Qubits: 10
Space Dimension: 1024
Run-Type: 0
Num_samples: 10
1 Isomorphic
Graph 1:
1 0 1 0 0 1 
1 0 0 1 0 0 
0 1 1 1 1 0 
1 0 1 1 1 0 
0 0 1 0 0 0 
0 0 1 0 0 0 
Graph 2:
1 0 1 0 0 1 
1 0 0 1 0 0 
0 1 1 1 1 0 
1 0 1 1 1 0 
0 0 1 0 0 0 
0 0 1 0 0 0 
Solution: 0 0
Gbest: -6.000000
Expectation: -17.981088
Final Parameters:
Gammas:
[ 3.410881 2.979026 ]
Betas:
[ 1.997537 0.667333 0.200465 ]
Aggregate results:
[ -1 13 15 9 11 7 21 17 19 23 25 5 27 29 35 ]
[ 0.003951 0.181868 0.202471 0.056433 0.110662 0.032672 0.040021 0.140371 0.082459 0.010705 0.006961 0.005306 0.002302 0.001039 0.122780 ]
3
Num Evals 373
GenUC: 3.868324e-04
GenUB: 1.963818e-04
Optimisation 3.433324e-01
Total Time: 3.449332e-01
2 Flipped
Graph 1:
1 0 1 0 0 1 
1 0 0 1 0 0 
0 1 1 1 1 0 
1 0 1 1 1 0 
0 0 1 0 0 0 
0 0 1 0 0 0 
Graph 2:
1 0 0 1 0 1 
0 0 1 0 0 1 
0 1 1 1 1 0 
0 1 1 1 0 1 
0 0 0 1 0 0 
0 0 0 1 0 0 
Solution: -6 11
Gbest: -12.000000
Expectation: -18.053143
Final Parameters:
Gammas:
[ 3.357359 6.149872 ]
Betas:
[ 1.632524 3.141593 2.868069 ]
Aggregate results:
[ 13 11 17 15 5 19 21 9 7 23 25 27 35 ]
[ 0.161923 0.077092 0.206330 0.198998 0.004902 0.141700 0.069935 0.030289 0.011576 0.021982 0.006266 0.001121 0.067884 ]
3
Num Evals 685
GenUC: 1.292448e-04
GenUB: 1.396460e-04
Optimisation 4.800261e-01
Total Time: 4.818611e-01
3 Add 6
Graph 1:
1 0 1 0 0 1 
1 0 0 1 0 0 
0 1 1 1 1 0 
1 0 1 1 1 0 
0 0 1 0 0 0 
0 0 1 0 0 0 
Graph 2:
1 1 1 0 1 1 
1 0 0 1 0 0 
1 1 1 1 1 0 
1 1 1 1 1 0 
0 0 1 0 0 1 
0 0 1 0 0 0 
Solution: -5 0
Gbest: -11.000000
Expectation: -17.654157
Final Parameters:
Gammas:
[ 3.371911 3.027025 ]
Betas:
[ 0.596657 0.616833 2.279231 ]
Aggregate results:
[ 4 12 16 14 18 10 8 20 22 24 26 28 35 ]
[ 0.007237 0.155291 0.199812 0.224479 0.112804 0.060355 0.035090 0.072293 0.032837 0.011289 0.003159 0.000209 0.085145 ]
3
Num Evals 1157
GenUC: 1.198929e-04
GenUB: 1.556157e-04
Optimisation 5.012592e-01
Total Time: 5.025468e-01
4 Rem 6
Graph 1:
1 0 1 0 0 1 
1 0 0 1 0 0 
0 1 1 1 1 0 
1 0 1 1 1 0 
0 0 1 0 0 0 
0 0 1 0 0 0 
Graph 2:
0 0 0 0 0 1 
0 0 0 1 0 0 
0 0 1 1 1 0 
1 0 1 1 0 0 
0 0 1 0 0 0 
0 0 1 0 0 0 
Solution: -5 0
Gbest: -9.000000
Expectation: -21.352028
Final Parameters:
Gammas:
[ 5.576674 5.335991 ]
Betas:
[ 1.309714 2.144823 1.794472 ]
Aggregate results:
[ 4 10 16 14 18 12 20 8 22 24 35 ]
[ 0.000256 0.058123 0.184755 0.159616 0.148974 0.078523 0.069454 0.020318 0.024306 0.007246 0.248429 ]
3
Num Evals 1604
GenUC: 1.161483e-04
GenUB: 1.682152e-04
Optimisation 5.660902e-01
Total Time: 5.676251e-01
5 Add/Rem 6
Graph 1:
1 0 1 0 0 1 
1 0 0 1 0 0 
0 1 1 1 1 0 
1 0 1 1 1 0 
0 0 1 0 0 0 
0 0 1 0 0 0 
Graph 2:
1 0 1 0 0 0 
1 1 1 1 1 0 
0 1 1 1 1 0 
1 1 1 0 0 0 
0 1 1 1 0 0 
0 0 0 0 0 0 
Solution: -6 15
Gbest: -10.000000
Expectation: -21.929888
Final Parameters:
Gammas:
[ 4.043501 3.325787 ]
Betas:
[ 0.727916 1.788228 2.324724 ]
Aggregate results:
[ 9 15 11 13 19 5 17 21 7 23 27 25 35 ]
[ 0.031059 0.158678 0.055935 0.120069 0.114397 0.000788 0.132209 0.081336 0.002268 0.044951 0.001657 0.011644 0.245009 ]
3
Num Evals 1972
GenUC: 1.210073e-04
GenUB: 1.573745e-04
Optimisation 4.344943e-01
Total Time: 4.359718e-01
