Clock Speed: 3.689427
Num threads: 4
Trotterisation: 2
Graph Size: 6
Num Qubits: 10
Space Dimension: 1024
Run-Type: 0
Num_samples: 10
1 Isomorphic
Graph 1:
0 0 1 0 1 1 
1 1 0 1 1 0 
0 1 0 1 1 0 
1 1 0 1 1 1 
1 1 1 1 1 0 
0 1 1 1 0 0 
Graph 2:
0 0 1 0 1 1 
1 1 0 1 1 0 
0 1 0 1 1 0 
1 1 0 1 1 1 
1 1 1 1 1 0 
0 1 1 1 0 0 
Solution: 0 0
Gbest: -10.000000
Expectation: -16.024661
Final Parameters:
Gammas:
[ 3.192878 3.190268 ]
Betas:
[ 1.355353 0.618906 2.257692 ]
Aggregate results:
[ -1 13 9 11 15 1 5 17 7 19 21 23 35 ]
[ 0.005987 0.205951 0.050374 0.104115 0.221964 0.006169 0.005740 0.202863 0.025613 0.085506 0.050444 0.013019 0.022257 ]
3
Num Evals 422
GenUC: 2.675854e-04
GenUB: 1.920311e-04
Optimisation 4.811675e-01
Total Time: 4.827553e-01
2 Flipped
Graph 1:
0 0 1 0 1 1 
1 1 0 1 1 0 
0 1 0 1 1 0 
1 1 0 1 1 1 
1 1 1 1 1 0 
0 1 1 1 0 0 
Graph 2:
1 1 0 1 0 0 
0 1 1 0 1 1 
0 1 1 0 1 0 
1 1 1 0 1 1 
0 1 1 1 1 1 
0 0 1 1 1 0 
Solution: -8 630
Gbest: -12.000000
Expectation: -18.164542
Final Parameters:
Gammas:
[ 5.891681 3.445174 ]
Betas:
[ 0.197291 1.864942 1.527969 ]
Aggregate results:
[ 17 11 15 13 19 9 21 23 7 35 ]
[ 0.109261 0.129109 0.193120 0.247455 0.070672 0.061503 0.026875 0.005517 0.010408 0.146079 ]
3
Num Evals 878
GenUC: 1.281549e-04
GenUB: 1.546589e-04
Optimisation 5.123308e-01
Total Time: 5.136119e-01
3 Add 6
Graph 1:
0 0 1 0 1 1 
1 1 0 1 1 0 
0 1 0 1 1 0 
1 1 0 1 1 1 
1 1 1 1 1 0 
0 1 1 1 0 0 
Graph 2:
0 0 1 1 1 1 
1 1 0 1 1 1 
0 1 1 1 1 1 
1 1 1 1 1 1 
1 1 1 1 1 1 
0 1 1 1 0 0 
Solution: -6 0
Gbest: -12.000000
Expectation: -15.620058
Final Parameters:
Gammas:
[ 4.937910 4.256364 ]
Betas:
[ 2.084373 0.000000 2.662505 ]
Aggregate results:
[ 5 15 9 11 7 13 17 19 35 ]
[ 0.005921 0.246973 0.069918 0.171077 0.016620 0.264426 0.134698 0.039490 0.050877 ]
3
Num Evals 1155
GenUC: 1.075646e-04
GenUB: 1.643511e-04
Optimisation 2.994874e-01
Total Time: 3.007567e-01
4 Rem 6
Graph 1:
0 0 1 0 1 1 
1 1 0 1 1 0 
0 1 0 1 1 0 
1 1 0 1 1 1 
1 1 1 1 1 0 
0 1 1 1 0 0 
Graph 2:
0 0 1 0 1 1 
1 1 0 1 1 0 
0 1 0 1 1 0 
1 0 0 0 1 1 
0 0 1 0 1 0 
0 1 1 0 0 0 
Solution: -6 0
Gbest: -12.000000
Expectation: -22.363636
Final Parameters:
Gammas:
[ 5.408870 5.107401 ]
Betas:
[ 1.849126 1.993363 1.731214 ]
Aggregate results:
[ 5 19 13 15 9 17 7 21 11 23 25 27 35 ]
[ 0.001162 0.129126 0.092791 0.183456 0.012406 0.168604 0.000132 0.071258 0.040638 0.037841 0.003069 0.000770 0.258748 ]
3
Num Evals 1521
GenUC: 1.332516e-04
GenUB: 1.771947e-04
Optimisation 4.665493e-01
Total Time: 4.681370e-01
5 Add/Rem 6
Graph 1:
0 0 1 0 1 1 
1 1 0 1 1 0 
0 1 0 1 1 0 
1 1 0 1 1 1 
1 1 1 1 1 0 
0 1 1 1 0 0 
Graph 2:
0 0 1 1 1 1 
1 1 0 1 1 0 
1 1 0 1 1 1 
0 1 0 1 1 1 
0 0 1 1 1 0 
0 1 1 0 1 1 
Solution: -9 0
Gbest: -13.000000
Expectation: -21.243138
Final Parameters:
Gammas:
[ 4.612400 4.638950 ]
Betas:
[ 1.523801 2.344357 1.926833 ]
Aggregate results:
[ 8 18 14 16 12 20 10 24 22 35 ]
[ 0.008540 0.141068 0.178719 0.171171 0.134274 0.068224 0.037626 0.000723 0.004808 0.254847 ]
3
Num Evals 1851
GenUC: 1.263762e-04
GenUB: 1.667243e-04
Optimisation 4.417332e-01
Total Time: 4.434873e-01
