Clock Speed: 3.687139
Num threads: 4
Trotterisation: 6
Graph Size: 5
Num Qubits: 7
Space Dimension: 128
Run-Type: 0
Num_samples: 10
1 Isomorphic
Graph 1:
1 0 0 0 0 
1 1 1 1 0 
0 1 0 0 1 
1 0 0 0 0 
0 0 0 1 0 
Graph 2:
1 0 0 0 0 
1 1 1 1 0 
0 1 0 0 1 
1 0 0 0 0 
0 0 0 1 0 
Solution: 0 0
Gbest: -8.000000
Expectation: -11.125812
Final Parameters:
Gammas:
[ 0.073240 3.359969 0.627195 0.125121 3.345097 3.669097 ]
Betas:
[ 1.617195 0.399226 1.783910 1.856416 1.034495 1.637125 1.685620 ]
Aggregate results:
[ -1 9 11 7 13 5 15 17 24 ]
[ 0.018600 0.202409 0.272103 0.245012 0.139288 0.034467 0.044773 0.011501 0.031847 ]
5
Num Evals 500
GenUC: 2.101680e-04
GenUB: 2.997683e-05
Optimisation 3.887895e-01
Total Time: 3.898047e-01
2 Flipped
Graph 1:
1 0 0 0 0 
1 1 1 1 0 
0 1 0 0 1 
1 0 0 0 0 
0 0 0 1 0 
Graph 2:
0 0 0 0 1 
0 1 1 1 1 
1 0 0 1 0 
0 0 0 0 1 
0 1 0 0 0 
Solution: -6 78
Gbest: -6.000000
Expectation: -11.164373
Final Parameters:
Gammas:
[ 3.416671 3.262989 0.607016 1.109605 3.861440 0.500042 ]
Betas:
[ 2.102508 2.024927 1.757419 1.844662 0.021749 1.719169 0.294312 ]
Aggregate results:
[ 11 13 15 9 7 17 5 24 ]
[ 0.249583 0.152280 0.021644 0.228223 0.156892 0.006707 0.135985 0.048686 ]
5
Num Evals 1000
GenUC: 2.439704e-05
GenUB: 1.991249e-05
Optimisation 3.728555e-01
Total Time: 3.736241e-01
3 Add 5
Graph 1:
1 0 0 0 0 
1 1 1 1 0 
0 1 0 0 1 
1 0 0 0 0 
0 0 0 1 0 
Graph 2:
1 0 1 0 0 
1 1 1 1 0 
0 1 1 1 1 
1 0 1 0 0 
0 0 0 1 0 
Solution: -4 0
Gbest: -4.000000
Expectation: -11.769046
Final Parameters:
Gammas:
[ 3.141593 3.322090 3.141593 3.141593 3.141593 3.141593 ]
Betas:
[ 1.570796 1.631636 0.045605 0.274102 1.904527 2.433269 0.041210 ]
Aggregate results:
[ 3 11 9 7 13 15 17 24 ]
[ 0.044706 0.294069 0.208434 0.139586 0.195043 0.073922 0.022711 0.021528 ]
5
Num Evals 1500
GenUC: 2.488540e-05
GenUB: 1.775415e-05
Optimisation 4.276774e-01
Total Time: 4.283672e-01
4 Rem 5
Graph 1:
1 0 0 0 0 
1 1 1 1 0 
0 1 0 0 1 
1 0 0 0 0 
0 0 0 1 0 
Graph 2:
1 0 0 0 0 
1 0 1 0 0 
0 0 0 0 1 
1 0 0 0 0 
0 0 0 0 0 
Solution: -4 0
Gbest: -4.000000
Expectation: -9.979924
Final Parameters:
Gammas:
[ 2.096641 0.787208 0.187935 3.884964 3.922198 0.137611 ]
Betas:
[ 1.635958 0.062573 1.768337 1.666534 1.739071 0.023676 1.727632 ]
Aggregate results:
[ 3 9 7 13 11 5 24 ]
[ 0.017830 0.314551 0.313004 0.044673 0.213456 0.070524 0.025960 ]
5
Num Evals 2000
GenUC: 2.280681e-05
GenUB: 1.809211e-05
Optimisation 4.060074e-01
Total Time: 4.068667e-01
5 Add/Rem 5
Graph 1:
1 0 0 0 0 
1 1 1 1 0 
0 1 0 0 1 
1 0 0 0 0 
0 0 0 1 0 
Graph 2:
1 0 0 0 0 
0 1 1 1 1 
0 0 0 0 1 
0 0 1 0 1 
1 0 0 1 1 
Solution: -6 50
Gbest: -8.000000
Expectation: -11.789322
Final Parameters:
Gammas:
[ 3.578727 1.453615 4.446493 2.033985 0.360681 3.544298 ]
Betas:
[ 0.688626 1.280683 1.855896 1.709962 0.194539 1.676655 0.126772 ]
Aggregate results:
[ 7 11 15 9 13 17 5 24 ]
[ 0.187067 0.270467 0.027941 0.221627 0.250596 0.012151 0.005104 0.025047 ]
5
Num Evals 2500
GenUC: 2.402754e-05
GenUB: 1.695310e-05
Optimisation 3.601024e-01
Total Time: 3.607881e-01
