Clock Speed: 3.689494
Num threads: 4
Trotterisation: 6
Graph Size: 5
Num Qubits: 7
Space Dimension: 128
Run-Type: 0
Num_samples: 10
1 Isomorphic
Graph 1:
0 0 1 1 0 
0 1 1 0 0 
1 1 0 0 1 
1 1 0 0 1 
0 1 1 1 0 
Graph 2:
0 0 1 1 0 
0 1 1 0 0 
1 1 0 0 1 
1 1 0 0 1 
0 1 1 1 0 
Solution: 0 0
Gbest: -4.000000
Expectation: -10.178007
Final Parameters:
Gammas:
[ 0.090734 3.601768 0.150678 0.339083 3.610976 0.132529 ]
Betas:
[ 0.191001 2.926967 0.126994 0.222427 1.762049 1.637400 0.125402 ]
Aggregate results:
[ -1 5 13 9 11 15 1 7 17 3 24 ]
[ 0.019193 0.146218 0.186692 0.170670 0.151243 0.129199 0.013095 0.035519 0.000299 0.138776 0.009095 ]
5
Num Evals 500
GenUC: 5.243658e-04
GenUB: 3.846148e-04
Optimisation 4.157966e-01
Total Time: 4.173434e-01
2 Flipped
Graph 1:
0 0 1 1 0 
0 1 1 0 0 
1 1 0 0 1 
1 1 0 0 1 
0 1 1 1 0 
Graph 2:
0 1 1 0 0 
0 0 1 1 0 
1 0 0 1 1 
1 0 0 1 1 
0 1 1 1 0 
Solution: -6 8
Gbest: -8.000000
Expectation: -10.407348
Final Parameters:
Gammas:
[ 4.518402 3.211347 1.637557 3.410690 3.375270 3.354282 ]
Betas:
[ 0.695374 1.706138 1.682401 0.634271 1.152106 0.077231 1.608602 ]
Aggregate results:
[ 7 11 13 9 5 15 24 ]
[ 0.190821 0.232159 0.099766 0.326684 0.117512 0.011134 0.021924 ]
5
Num Evals 1000
GenUC: 2.490147e-05
GenUB: 1.902482e-05
Optimisation 3.728397e-01
Total Time: 3.735534e-01
3 Add 5
Graph 1:
0 0 1 1 0 
0 1 1 0 0 
1 1 0 0 1 
1 1 0 0 1 
0 1 1 1 0 
Graph 2:
1 0 1 1 0 
1 1 1 0 1 
1 1 0 1 1 
1 1 0 0 1 
0 1 1 1 1 
Solution: -5 0
Gbest: -9.000000
Expectation: -11.720341
Final Parameters:
Gammas:
[ 3.657674 0.510763 3.279712 5.437494 1.206611 3.725890 ]
Betas:
[ 0.299198 1.901580 0.614798 1.756025 1.850674 2.215444 3.066603 ]
Aggregate results:
[ 4 8 10 16 12 6 14 24 ]
[ 0.027052 0.177206 0.245716 0.050516 0.173157 0.127464 0.168693 0.030195 ]
5
Num Evals 1500
GenUC: 3.686210e-05
GenUB: 1.754379e-05
Optimisation 3.552635e-01
Total Time: 3.561381e-01
4 Rem 5
Graph 1:
0 0 1 1 0 
0 1 1 0 0 
1 1 0 0 1 
1 1 0 0 1 
0 1 1 1 0 
Graph 2:
0 0 0 1 0 
0 1 1 0 0 
0 1 0 0 1 
1 0 0 0 1 
0 1 1 0 0 
Solution: -4 0
Gbest: -6.000000
Expectation: -11.018615
Final Parameters:
Gammas:
[ 1.906643 3.339699 1.267922 3.226070 3.410246 3.480283 ]
Betas:
[ 0.132149 0.102966 0.126327 2.264073 0.652357 1.571887 1.604251 ]
Aggregate results:
[ 3 9 11 7 17 15 5 13 19 24 ]
[ 0.021407 0.272380 0.161078 0.247632 0.062624 0.048160 0.079168 0.066641 0.006665 0.034245 ]
5
Num Evals 2000
GenUC: 4.574016e-05
GenUB: 1.704553e-05
Optimisation 3.875709e-01
Total Time: 3.882348e-01
5 Add/Rem 5
Graph 1:
0 0 1 1 0 
0 1 1 0 0 
1 1 0 0 1 
1 1 0 0 1 
0 1 1 1 0 
Graph 2:
0 0 1 1 1 
0 0 1 1 0 
0 1 0 0 0 
0 1 1 0 1 
0 1 1 0 1 
Solution: -5 84
Gbest: -5.000000
Expectation: -11.322929
Final Parameters:
Gammas:
[ 0.283252 0.807212 0.020846 1.978623 4.503880 4.128062 ]
Betas:
[ 0.199327 0.529751 1.776317 0.759626 1.759575 0.018250 1.887537 ]
Aggregate results:
[ 8 10 14 12 6 16 4 24 ]
[ 0.215105 0.327257 0.024959 0.332970 0.028839 0.000417 0.044307 0.026147 ]
5
Num Evals 2500
GenUC: 2.506224e-05
GenUB: 1.727324e-05
Optimisation 3.789203e-01
Total Time: 3.797309e-01
