Clock Speed: 3.688897
Num threads: 4
Trotterisation: 5
Graph Size: 3
Num Qubits: 3
Space Dimension: 8
Run-Type: 0
Num_samples: 10
1 Isomorphic
Graph 1:
1 0 1 
1 1 1 
0 0 0 
Graph 2:
1 0 1 
1 1 1 
0 0 0 
Solution: 0 0
Gbest: 0.000000
Expectation: -4.972656
Final Parameters:
Gammas:
[ 5.235988 3.141593 3.141593 5.235988 3.141593 ]
Betas:
[ 1.570796 0.523599 1.570796 1.570796 1.570796 1.570796 ]
Aggregate results:
[ -1 1 5 7 3 8 ]
[ 0.306641 0.060547 0.191406 0.142578 0.025391 0.273437 ]
3
Num Evals 43
GenUC: 1.295189e-04
GenUB: 7.952243e-06
Optimisation 1.249661e-02
Total Time: 1.294686e-02
2 Flipped
Graph 1:
1 0 1 
1 1 1 
0 0 0 
Graph 2:
1 0 1 
1 1 1 
0 0 0 
Solution: 0 0
Gbest: 0.000000
Expectation: -4.972656
Final Parameters:
Gammas:
[ 5.235988 3.141593 3.141593 5.235988 3.141593 ]
Betas:
[ 1.570796 0.523599 1.570796 1.570796 1.570796 1.570796 ]
Aggregate results:
[ -1 1 5 7 3 8 ]
[ 0.306641 0.060547 0.191406 0.142578 0.025391 0.273437 ]
3
Num Evals 86
GenUC: 6.813789e-06
GenUB: 5.445880e-06
Optimisation 1.241591e-02
Total Time: 1.271518e-02
3 Add 3
Graph 1:
1 0 1 
1 1 1 
0 0 0 
Graph 2:
1 0 1 
1 1 1 
1 1 1 
Solution: -3 0
Gbest: -3.000000
Expectation: -5.250000
Final Parameters:
Gammas:
[ 5.235988 1.047198 3.141593 3.141593 3.141593 ]
Betas:
[ 1.570796 1.570796 1.570796 1.570796 1.570796 1.570796 ]
Aggregate results:
[ 2 4 8 ]
[ 0.375000 0.375000 0.250000 ]
3
Num Evals 111
GenUC: 6.157701e-06
GenUB: 5.333190e-06
Optimisation 7.299802e-03
Total Time: 7.611441e-03
4 Rem 3
Graph 1:
1 0 1 
1 1 1 
0 0 0 
Graph 2:
0 0 0 
1 1 0 
0 0 0 
Solution: -3 0
Gbest: -3.000000
Expectation: -5.750000
Final Parameters:
Gammas:
[ 1.047198 5.235988 3.141593 3.141593 3.141593 ]
Betas:
[ 1.570796 1.570796 1.570796 1.570796 1.570796 1.570796 ]
Aggregate results:
[ 2 4 6 8 ]
[ 0.375000 0.125000 0.250000 0.250000 ]
3
Num Evals 136
GenUC: 6.127782e-06
GenUB: 5.821435e-06
Optimisation 7.380233e-03
Total Time: 7.696431e-03
5 Add/Rem 3
Graph 1:
1 0 1 
1 1 1 
0 0 0 
Graph 2:
1 0 0 
1 0 0 
0 1 1 
Solution: -3 2
Gbest: -3.000000
Expectation: -5.500000
Final Parameters:
Gammas:
[ 1.047198 5.235988 5.235988 3.141593 3.141593 ]
Betas:
[ 1.570796 1.570796 1.570796 1.570796 1.570796 1.570796 ]
Aggregate results:
[ 4 6 2 8 ]
[ 0.250000 0.125000 0.375000 0.250000 ]
3
Num Evals 173
GenUC: 6.089016e-06
GenUB: 5.717564e-06
Optimisation 1.060007e-02
Total Time: 1.091131e-02
