Clock Speed: 3.498624
Num threads: 16
Trotterisation: 6
Num Qubits: 13
Space Dimension: 8192
Run-Type: 0
Num_samples: 49
Optimiser Method: 0
1 Isomorphic
Graph 1:
0 1 0 0 1 1 1 
0 1 1 0 1 1 0 
0 1 0 0 0 0 0 
0 1 1 1 0 1 1 
0 0 1 0 0 0 1 
1 1 1 0 1 1 0 
0 1 1 0 0 1 1 
Graph 2:
0 1 0 0 1 1 1 
0 1 1 0 1 1 0 
0 1 0 0 0 0 0 
0 1 1 1 0 1 1 
0 0 1 0 0 0 1 
1 1 1 0 1 1 0 
0 1 1 0 0 1 1 
Solution: 49 0
Classic Expectation: 24.571429
Initial Expecation: 15.117188
Gbest: 35.000000
Expectation: 21.328417
Final Parameters:
Gammas:
[ 3.401596 3.361375 3.150690 3.102808 3.141114 2.939048 ]
Betas:
[ 1.435049 0.232711 1.641902 1.659140 2.637386 1.047198 ]
Aggregate results:
[ 49 39 35 37 31 33 43 23 21 25 29 27 19 17 45 15 9 13 11 41 0 ]
[ 0.000085 0.001364 0.007090 0.002888 0.045692 0.023115 0.000009 0.179234 0.120058 0.156462 0.078179 0.131026 0.081294 0.036436 0.000083 0.010451 0.000393 0.001979 0.001876 0.000050 0.122238 ]
3
Num Evals 4435
GenUC: 2.209926e-03
GenUB: 1.210909e-03
Optimisation 2.310194e+02
Total Time: 2.310228e+02
2 Flipped
Graph 1:
0 1 0 0 1 1 1 
0 1 1 0 1 1 0 
0 1 0 0 0 0 0 
0 1 1 1 0 1 1 
0 0 1 0 0 0 1 
1 1 1 0 1 1 0 
0 1 1 0 0 1 1 
Graph 2:
1 1 1 0 0 1 0 
0 1 1 0 1 1 0 
0 0 0 0 0 1 0 
1 1 0 1 1 1 0 
1 0 0 0 1 0 0 
0 1 1 0 1 1 1 
1 1 0 0 1 1 0 
Solution: 43 4473
Classic Expectation: 24.714286
Initial Expecation: 15.205078
Gbest: 37.000000
Expectation: 22.571089
Final Parameters:
Gammas:
[ 3.402128 3.364248 2.918937 2.870098 3.366466 2.930427 ]
Betas:
[ 1.551405 0.180998 1.564333 1.684996 2.676171 1.055817 ]
Aggregate results:
[ 29 27 31 21 23 25 19 35 33 17 15 11 37 13 39 41 43 0 ]
[ 0.106185 0.134250 0.056428 0.125382 0.159689 0.177850 0.057728 0.013613 0.030224 0.020525 0.005259 0.000242 0.005498 0.001026 0.002284 0.000295 0.001081 0.102440 ]
3
Num Evals 2459
GenUC: 2.785279e-03
GenUB: 1.094363e-03
Optimisation 1.277868e+02
Total Time: 1.277907e+02
3 Add 7
Graph 1:
0 1 0 0 1 1 1 
0 1 1 0 1 1 0 
0 1 0 0 0 0 0 
0 1 1 1 0 1 1 
0 0 1 0 0 0 1 
1 1 1 0 1 1 0 
0 1 1 0 0 1 1 
Graph 2:
0 1 0 0 1 1 1 
0 1 1 0 1 1 0 
1 1 0 1 0 0 1 
0 1 1 1 0 1 1 
1 1 1 0 0 1 1 
1 1 1 0 1 1 0 
0 1 1 0 1 1 1 
Solution: 42 0
Classic Expectation: 24.571429
Initial Expecation: 15.117188
Gbest: 36.000000
Expectation: 19.098945
Final Parameters:
Gammas:
[ 5.274771 0.775704 4.082488 3.372869 2.903034 3.145896 ]
Betas:
[ 1.628973 1.241120 1.202341 1.607430 1.590186 2.624455 ]
Aggregate results:
[ 42 36 34 28 30 32 26 24 22 20 18 38 16 14 12 0 ]
[ 0.000040 0.002047 0.005737 0.087285 0.063810 0.019700 0.152674 0.173492 0.143028 0.086093 0.038789 0.000265 0.007478 0.000697 0.000032 0.218834 ]
3
Num Evals 2599
GenUC: 2.795975e-03
GenUB: 1.156793e-03
Optimisation 1.379559e+02
Total Time: 1.379599e+02
4 Rem 7
Graph 1:
0 1 0 0 1 1 1 
0 1 1 0 1 1 0 
0 1 0 0 0 0 0 
0 1 1 1 0 1 1 
0 0 1 0 0 0 1 
1 1 1 0 1 1 0 
0 1 1 0 0 1 1 
Graph 2:
0 1 0 0 1 0 1 
0 1 1 0 0 0 0 
0 1 0 0 0 0 0 
0 1 1 1 0 1 1 
0 0 0 0 0 0 1 
1 0 1 0 1 1 0 
0 1 0 0 0 0 1 
Solution: 42 0
Classic Expectation: 24.571429
Initial Expecation: 15.117188
Gbest: 36.000000
Expectation: 16.382577
Final Parameters:
Gammas:
[ 1.047198 1.047198 1.047198 3.141593 3.141593 3.141593 ]
Betas:
[ 1.570796 1.570796 1.570796 1.570796 1.570796 0.523599 ]
Aggregate results:
[ 42 36 32 34 30 28 24 22 26 20 38 18 16 10 12 14 0 ]
[ 0.000021 0.001208 0.018352 0.005679 0.059123 0.086280 0.145063 0.110899 0.124329 0.071139 0.000254 0.032917 0.009213 0.000004 0.000846 0.002279 0.332393 ]
3
Num Evals 59
GenUC: 2.782708e-03
GenUB: 1.053359e-03
Optimisation 3.125090e+00
Total Time: 3.128928e+00
5 Add/Rem 7
Graph 1:
0 1 0 0 1 1 1 
0 1 1 0 1 1 0 
0 1 0 0 0 0 0 
0 1 1 1 0 1 1 
0 0 1 0 0 0 1 
1 1 1 0 1 1 0 
0 1 1 0 0 1 1 
Graph 2:
1 1 1 0 1 1 1 
0 1 0 0 1 1 0 
0 0 0 0 0 1 0 
0 1 1 1 0 1 1 
0 1 1 1 0 0 1 
1 1 1 0 0 1 0 
0 0 0 0 1 1 1 
Solution: 38 0
Classic Expectation: 24.714286
Initial Expecation: 15.205078
Gbest: 34.000000
Expectation: 19.706751
Final Parameters:
Gammas:
[ 5.947030 4.964510 5.025800 3.144005 3.145884 3.403494 ]
Betas:
[ 1.551395 3.094180 1.590180 1.590162 1.577234 2.546914 ]
Aggregate results:
[ 38 32 30 24 28 22 26 34 36 20 16 18 14 12 0 ]
[ 0.000344 0.022664 0.061718 0.159211 0.104304 0.138151 0.162769 0.008260 0.001321 0.082791 0.012450 0.047778 0.003372 0.001117 0.193751 ]
3
Num Evals 2039
GenUC: 2.789008e-03
GenUB: 1.236821e-03
Optimisation 1.136623e+02
Total Time: 1.136663e+02
