Clock Speed: 3.498716
Num threads: 16
Trotterisation: 6
Num Qubits: 13
Space Dimension: 8192
Run-Type: 0
Num_samples: 49
Optimiser Method: 0
1 Isomorphic
Graph 1:
1 0 0 1 0 0 0 
1 0 1 1 1 0 1 
0 0 0 1 0 0 1 
1 0 1 1 1 1 1 
1 1 1 0 0 0 1 
0 1 1 1 0 0 1 
1 1 1 0 0 0 0 
Graph 2:
1 0 0 1 0 0 0 
1 0 1 1 1 0 1 
0 0 0 1 0 0 1 
1 0 1 1 1 1 1 
1 1 1 0 0 0 1 
0 1 1 1 0 0 1 
1 1 1 0 0 0 0 
Solution: 49 0
Classic Expectation: 25.571429
Initial Expecation: 15.732422
Gbest: 33.000000
Expectation: 17.709247
Final Parameters:
Gammas:
[ 3.141593 3.141593 3.141593 3.141593 3.141593 5.235988 ]
Betas:
[ 1.570796 1.570796 1.570796 1.570796 2.617994 1.570796 ]
Aggregate results:
[ 49 37 43 35 27 33 29 31 25 21 23 39 41 19 15 17 13 0 ]
[ 0.000122 0.003100 0.000488 0.006404 0.141282 0.017931 0.092001 0.036427 0.157659 0.072711 0.130762 0.000854 0.000366 0.024816 0.000854 0.007532 0.000244 0.306445 ]
3
Num Evals 55
GenUC: 2.267541e-03
GenUB: 1.224946e-03
Optimisation 3.108049e+00
Total Time: 3.111552e+00
2 Flipped
Graph 1:
1 0 0 1 0 0 0 
1 0 1 1 1 0 1 
0 0 0 1 0 0 1 
1 0 1 1 1 1 1 
1 1 1 0 0 0 1 
0 1 1 1 0 0 1 
1 1 1 0 0 0 0 
Graph 2:
0 0 0 1 0 0 1 
1 0 1 1 1 0 1 
1 0 0 1 0 0 0 
1 1 1 1 1 0 1 
1 0 0 0 1 1 1 
1 0 0 1 1 1 0 
0 0 0 0 1 1 1 
Solution: 39 4743
Classic Expectation: 24.428571
Initial Expecation: 15.029297
Gbest: 33.000000
Expectation: 17.079738
Final Parameters:
Gammas:
[ 3.141593 3.141593 3.141593 3.141593 1.047198 3.141593 ]
Betas:
[ 1.570796 1.570796 0.523599 1.570796 1.570796 1.570796 ]
Aggregate results:
[ 27 23 25 29 21 19 31 17 33 15 13 35 37 39 0 ]
[ 0.115549 0.141425 0.147892 0.068241 0.098816 0.051185 0.033584 0.014785 0.013692 0.003174 0.000244 0.004043 0.000969 0.000275 0.306124 ]
3
Num Evals 51
GenUC: 2.825912e-03
GenUB: 1.278524e-03
Optimisation 2.768659e+00
Total Time: 2.772766e+00
3 Add 7
Graph 1:
1 0 0 1 0 0 0 
1 0 1 1 1 0 1 
0 0 0 1 0 0 1 
1 0 1 1 1 1 1 
1 1 1 0 0 0 1 
0 1 1 1 0 0 1 
1 1 1 0 0 0 0 
Graph 2:
1 0 0 1 0 1 0 
1 0 1 1 1 0 1 
0 1 1 1 1 0 1 
1 0 1 1 1 1 1 
1 1 1 0 1 0 1 
0 1 1 1 0 1 1 
1 1 1 1 0 0 0 
Solution: 42 0
Classic Expectation: 24.857143
Initial Expecation: 15.292969
Gbest: 34.000000
Expectation: 16.495725
Final Parameters:
Gammas:
[ 1.047198 1.047198 3.141593 3.141593 3.141593 3.141593 ]
Betas:
[ 1.570796 1.570796 1.570796 1.570796 1.570796 0.523599 ]
Aggregate results:
[ 42 32 36 34 30 38 24 28 26 22 20 40 18 16 14 0 ]
[ 0.000041 0.011224 0.000973 0.003846 0.042866 0.000470 0.176095 0.097152 0.149579 0.109597 0.053799 0.000087 0.016314 0.002776 0.000069 0.335112 ]
3
Num Evals 35
GenUC: 2.825416e-03
GenUB: 1.194208e-03
Optimisation 1.898563e+00
Total Time: 1.902585e+00
4 Rem 7
Graph 1:
1 0 0 1 0 0 0 
1 0 1 1 1 0 1 
0 0 0 1 0 0 1 
1 0 1 1 1 1 1 
1 1 1 0 0 0 1 
0 1 1 1 0 0 1 
1 1 1 0 0 0 0 
Graph 2:
0 0 0 1 0 0 0 
1 0 0 0 1 0 1 
0 0 0 1 0 0 0 
1 0 1 0 1 1 1 
1 1 1 0 0 0 0 
0 1 1 1 0 0 1 
1 1 1 0 0 0 0 
Solution: 43 0
Classic Expectation: 25.857143
Initial Expecation: 15.908203
Gbest: 33.000000
Expectation: 17.894787
Final Parameters:
Gammas:
[ 3.141593 3.141593 3.141593 3.141593 3.141593 1.047198 ]
Betas:
[ 1.570796 1.570796 1.570796 1.570796 2.617994 1.570796 ]
Aggregate results:
[ 43 35 37 41 31 25 27 29 33 23 21 19 39 17 15 0 ]
[ 0.000122 0.003418 0.000977 0.000244 0.047553 0.169012 0.147558 0.108676 0.013867 0.120840 0.057385 0.018184 0.000244 0.004743 0.000732 0.306445 ]
3
Num Evals 57
GenUC: 2.836787e-03
GenUB: 1.217153e-03
Optimisation 3.138599e+00
Total Time: 3.142655e+00
5 Add/Rem 7
Graph 1:
1 0 0 1 0 0 0 
1 0 1 1 1 0 1 
0 0 0 1 0 0 1 
1 0 1 1 1 1 1 
1 1 1 0 0 0 1 
0 1 1 1 0 0 1 
1 1 1 0 0 0 0 
Graph 2:
1 0 0 1 0 0 0 
1 1 1 1 1 0 0 
1 0 1 1 0 1 0 
1 0 1 1 1 1 1 
1 0 1 0 0 0 1 
0 0 0 1 0 0 0 
1 0 1 1 0 1 0 
Solution: 38 81
Classic Expectation: 24.285714
Initial Expecation: 14.941406
Gbest: 30.000000
Expectation: 16.236378
Final Parameters:
Gammas:
[ 5.235988 5.235988 3.141593 3.141593 3.141593 3.141593 ]
Betas:
[ 1.570796 1.570796 1.570796 1.570796 1.570796 0.523599 ]
Aggregate results:
[ 36 30 32 34 24 26 22 28 20 38 18 16 14 12 10 0 ]
[ 0.001222 0.041645 0.016082 0.006275 0.140418 0.117172 0.123028 0.096444 0.076372 0.000056 0.032260 0.014615 0.002901 0.000540 0.000032 0.330938 ]
3
Num Evals 35
GenUC: 2.823776e-03
GenUB: 1.139082e-03
Optimisation 1.909904e+00
Total Time: 1.913870e+00
