Clock Speed: 3.688863
Num threads: 4
Trotterisation: 4
Graph Size: 7
Num Qubits: 13
Space Dimension: 8192
Run-Type: 0
Num_samples: 10
1 Isomorphic
Graph 1:
0 1 1 1 1 1 1 
0 0 1 1 1 0 0 
1 0 1 0 1 0 0 
1 0 0 1 0 1 0 
0 0 1 1 1 0 0 
1 0 0 1 0 0 0 
0 0 1 1 1 0 0 
Graph 2:
0 1 1 1 1 1 1 
0 0 1 1 1 0 0 
1 0 1 0 1 0 0 
1 0 0 1 0 1 0 
0 0 1 1 1 0 0 
1 0 0 1 0 0 0 
0 0 1 1 1 0 0 
Solution: 0 0
Gbest: -4.000000
Expectation: -26.262904
Final Parameters:
Gammas:
[ 6.273935 6.283183 2.951197 5.927631 ]
Betas:
[ 0.146695 1.615811 2.977015 1.860304 1.428305 ]
Aggregate results:
[ -1 11 17 19 21 23 5 29 25 27 7 15 9 13 3 31 33 35 48 ]
[ 0.000523 0.025567 0.123769 0.113110 0.124461 0.134151 0.001208 0.025485 0.109766 0.058195 0.004814 0.045902 0.013883 0.027762 0.000828 0.015776 0.006460 0.001824 0.166514 ]
5
Num Evals 700
GenUC: 1.543934e-03
GenUB: 1.908631e-03
Optimisation 8.987560e+00
Total Time: 9.002884e+00
2 Flipped
Graph 1:
0 1 1 1 1 1 1 
0 0 1 1 1 0 0 
1 0 1 0 1 0 0 
1 0 0 1 0 1 0 
0 0 1 1 1 0 0 
1 0 0 1 0 0 0 
0 0 1 1 1 0 0 
Graph 2:
1 1 1 1 1 1 0 
0 0 1 1 1 0 0 
0 0 1 0 1 0 1 
0 1 0 1 0 0 1 
0 0 1 1 1 0 0 
0 0 0 1 0 0 1 
0 0 1 1 1 0 0 
Solution: -8 2606
Gbest: -18.000000
Expectation: -25.742870
Final Parameters:
Gammas:
[ 6.224146 4.733492 4.868335 4.601458 ]
Betas:
[ 1.483701 2.107877 1.598944 1.565568 1.583068 ]
Aggregate results:
[ 9 11 19 17 23 21 15 13 27 25 29 31 33 35 7 48 ]
[ 0.000448 0.002501 0.098885 0.052659 0.176108 0.148158 0.020758 0.007195 0.137996 0.198806 0.063863 0.026409 0.009897 0.001445 0.000175 0.054697 ]
5
Num Evals 1400
GenUC: 1.203206e-03
GenUB: 1.773374e-03
Optimisation 9.113288e+00
Total Time: 9.129500e+00
3 Add 7
Graph 1:
0 1 1 1 1 1 1 
0 0 1 1 1 0 0 
1 0 1 0 1 0 0 
1 0 0 1 0 1 0 
0 0 1 1 1 0 0 
1 0 0 1 0 0 0 
0 0 1 1 1 0 0 
Graph 2:
0 1 1 1 1 1 1 
0 0 1 1 1 0 1 
1 0 1 1 1 0 0 
1 0 0 1 0 1 1 
0 1 1 1 1 0 1 
1 0 0 1 0 0 0 
1 1 1 1 1 0 0 
Solution: -7 0
Gbest: -23.000000
Expectation: -34.058594
Final Parameters:
Gammas:
[ 3.141593 3.141593 3.141593 3.141593 ]
Betas:
[ 1.570796 2.356194 1.570796 1.570796 1.570796 ]
Aggregate results:
[ 6 16 18 12 22 26 20 24 28 10 14 8 30 32 34 48 ]
[ 0.000244 0.018799 0.038818 0.002441 0.106445 0.112061 0.075195 0.134277 0.071045 0.001465 0.005615 0.000244 0.032959 0.013428 0.002197 0.384766 ]
3
Num Evals 1410
GenUC: 1.351877e-03
GenUB: 1.756449e-03
Optimisation 1.296099e-01
Total Time: 1.460696e-01
4 Rem 7
Graph 1:
0 1 1 1 1 1 1 
0 0 1 1 1 0 0 
1 0 1 0 1 0 0 
1 0 0 1 0 1 0 
0 0 1 1 1 0 0 
1 0 0 1 0 0 0 
0 0 1 1 1 0 0 
Graph 2:
0 1 1 1 1 1 1 
0 0 1 1 1 0 0 
1 0 1 0 0 0 0 
1 0 0 1 0 1 0 
0 0 0 1 1 0 0 
0 0 0 0 0 0 0 
0 0 1 0 0 0 0 
Solution: -6 0
Gbest: -20.000000
Expectation: -32.601725
Final Parameters:
Gammas:
[ 4.245542 4.082463 4.092898 4.079965 ]
Betas:
[ 1.371850 2.148836 1.670052 1.499190 1.428647 ]
Aggregate results:
[ 5 15 19 21 17 7 23 27 25 9 11 13 29 31 33 48 ]
[ 0.000448 0.014850 0.064770 0.097493 0.032633 0.000744 0.152185 0.086185 0.139480 0.001714 0.005149 0.008599 0.040776 0.010118 0.000572 0.344284 ]
5
Num Evals 2110
GenUC: 1.052005e-03
GenUB: 1.579318e-03
Optimisation 8.848182e+00
Total Time: 8.863458e+00
5 Add/Rem 7
Graph 1:
0 1 1 1 1 1 1 
0 0 1 1 1 0 0 
1 0 1 0 1 0 0 
1 0 0 1 0 1 0 
0 0 1 1 1 0 0 
1 0 0 1 0 0 0 
0 0 1 1 1 0 0 
Graph 2:
0 1 1 1 0 0 1 
0 0 1 0 1 1 0 
1 0 0 1 1 1 0 
1 0 0 1 0 1 0 
0 0 1 1 1 0 1 
0 1 0 1 1 0 0 
1 0 0 0 1 0 0 
Solution: -10 1476
Gbest: -18.000000
Expectation: -28.854443
Final Parameters:
Gammas:
[ 5.975869 5.468571 4.689312 3.018239 ]
Betas:
[ 1.395446 2.121819 1.569066 1.783251 1.387955 ]
Aggregate results:
[ 13 17 15 19 21 23 25 29 27 31 33 35 9 48 ]
[ 0.001878 0.034761 0.010159 0.090959 0.161691 0.189429 0.158651 0.041167 0.097457 0.022224 0.003929 0.000389 0.000213 0.187095 ]
5
Num Evals 2810
GenUC: 1.307772e-03
GenUB: 1.694076e-03
Optimisation 8.931164e+00
Total Time: 8.947681e+00
