Clock Speed: 3.689399
Num threads: 4
Trotterisation: 5
Graph Size: 3
Num Qubits: 3
Space Dimension: 8
Run-Type: 0
Num_samples: 10
1 Isomorphic
Graph 1:
1 1 1 
1 1 0 
0 1 1 
Graph 2:
1 1 1 
1 1 0 
0 1 1 
Solution: 0 0
Gbest: 0.000000
Expectation: -0.591154
Final Parameters:
Gammas:
[ 3.658462 2.822315 3.506367 3.330885 2.985240 ]
Betas:
[ 2.220587 2.041696 1.461787 1.442835 1.375740 2.262270 ]
Aggregate results:
[ -1 3 1 8 ]
[ 0.848673 0.129302 0.017754 0.004271 ]
5
Num Evals 300
GenUC: 1.383951e-04
GenUB: 7.916475e-06
Optimisation 9.084476e-02
Total Time: 9.133417e-02
2 Flipped
Graph 1:
1 1 1 
1 1 0 
0 1 1 
Graph 2:
1 1 1 
0 1 1 
1 1 0 
Solution: -2 3
Gbest: -2.000000
Expectation: -2.340652
Final Parameters:
Gammas:
[ 4.419498 3.104796 1.972325 3.427796 3.749247 ]
Betas:
[ 1.905842 1.567008 1.825107 1.735905 1.015429 1.700841 ]
Aggregate results:
[ 3 1 8 ]
[ 0.121022 0.864891 0.014087 ]
5
Num Evals 600
GenUC: 6.374787e-06
GenUB: 5.292124e-06
Optimisation 1.028028e-01
Total Time: 1.031348e-01
3 Add 3
Graph 1:
1 1 1 
1 1 0 
0 1 1 
Graph 2:
1 1 1 
1 1 1 
1 1 1 
Solution: -2 0
Gbest: -2.000000
Expectation: -2.000000
Final Parameters:
Gammas:
[ 3.472137 4.064393 3.503387 3.467213 3.505900 ]
Betas:
[ 1.741067 1.734631 1.371053 1.543116 1.177614 1.029801 ]
Aggregate results:
[ 1 8 ]
[ 1.000000 0.000000 ]
5
Num Evals 900
GenUC: 7.972179e-06
GenUB: 5.385431e-06
Optimisation 1.058015e-01
Total Time: 1.061144e-01
4 Rem 3
Graph 1:
1 1 1 
1 1 0 
0 1 1 
Graph 2:
1 1 0 
1 0 0 
0 1 1 
Solution: -2 0
Gbest: -2.000000
Expectation: -2.180739
Final Parameters:
Gammas:
[ 4.203225 4.348778 4.090349 3.977402 2.589490 ]
Betas:
[ 1.977460 0.994792 2.482614 2.254477 1.847038 1.660001 ]
Aggregate results:
[ 1 3 5 8 ]
[ 0.917399 0.079083 0.000686 0.002833 ]
5
Num Evals 1200
GenUC: 8.134695e-06
GenUB: 5.731010e-06
Optimisation 9.419623e-02
Total Time: 9.453107e-02
5 Add/Rem 3
Graph 1:
1 1 1 
1 1 0 
0 1 1 
Graph 2:
1 1 0 
1 1 1 
1 1 0 
Solution: -2 1
Gbest: -2.000000
Expectation: -2.845091
Final Parameters:
Gammas:
[ 3.349169 4.057334 3.342054 3.080805 2.903338 ]
Betas:
[ 1.239736 1.450249 1.033994 1.058152 1.539430 1.153116 ]
Aggregate results:
[ 3 1 8 ]
[ 0.399458 0.593945 0.006596 ]
5
Num Evals 1500
GenUC: 6.906514e-06
GenUB: 5.300913e-06
Optimisation 8.724606e-02
Total Time: 8.754445e-02
