Clock Speed: 3.689289
Num threads: 4
Trotterisation: 3
Graph Size: 4
Num Qubits: 5
Space Dimension: 32
Run-Type: 0
Num_samples: 10
1 Isomorphic
Graph 1:
0 1 1 1 
1 1 1 0 
0 1 0 0 
1 0 0 1 
Graph 2:
0 1 1 1 
1 1 1 0 
0 1 0 0 
1 0 0 1 
Solution: 0 0
Gbest: -8.000000
Expectation: -9.875000
Final Parameters:
Gammas:
[ 3.141593 3.141593 3.141593 ]
Betas:
[ 2.617994 1.570796 1.570796 0.523599 ]
Aggregate results:
[ -1 7 3 5 9 11 15 ]
[ 0.031250 0.218750 0.062500 0.156250 0.218750 0.062500 0.250000 ]
3
Num Evals 61
GenUC: 1.249961e-04
GenUB: 1.221569e-05
Optimisation 1.591743e-02
Total Time: 1.635088e-02
2 Flipped
Graph 1:
0 1 1 1 
1 1 1 0 
0 1 0 0 
1 0 0 1 
Graph 2:
1 1 1 0 
0 1 1 1 
0 0 1 0 
1 0 0 1 
Solution: -6 0
Gbest: -6.000000
Expectation: -8.671460
Final Parameters:
Gammas:
[ 3.839724 3.141593 3.141593 ]
Betas:
[ 2.734349 1.803507 1.570796 0.523599 ]
Aggregate results:
[ 5 9 7 15 ]
[ 0.270324 0.212690 0.418645 0.098341 ]
3
Num Evals 304
GenUC: 8.843723e-06
GenUB: 8.416944e-06
Optimisation 6.329132e-02
Total Time: 6.358341e-02
3 Add 4
Graph 1:
0 1 1 1 
1 1 1 0 
0 1 0 0 
1 0 0 1 
Graph 2:
1 1 1 1 
1 1 1 0 
0 1 0 0 
1 1 1 1 
Solution: -3 0
Gbest: -3.000000
Expectation: -9.625000
Final Parameters:
Gammas:
[ 1.047198 3.141593 3.141593 ]
Betas:
[ 0.523599 1.570796 1.570796 1.570796 ]
Aggregate results:
[ 2 6 8 4 10 15 ]
[ 0.031250 0.375000 0.250000 0.062500 0.031250 0.250000 ]
3
Num Evals 321
GenUC: 8.763280e-06
GenUB: 8.138828e-06
Optimisation 4.450550e-03
Total Time: 4.710151e-03
4 Rem 4
Graph 1:
0 1 1 1 
1 1 1 0 
0 1 0 0 
1 0 0 1 
Graph 2:
0 1 1 0 
0 1 1 0 
0 1 0 0 
0 0 0 0 
Solution: -4 0
Gbest: -8.000000
Expectation: -10.250000
Final Parameters:
Gammas:
[ 3.141593 3.141593 3.141593 ]
Betas:
[ 2.617994 1.570796 1.570796 0.523599 ]
Aggregate results:
[ 3 7 5 9 11 15 ]
[ 0.031250 0.312500 0.125000 0.250000 0.031250 0.250000 ]
3
Num Evals 382
GenUC: 8.393545e-06
GenUB: 8.736853e-06
Optimisation 1.599751e-02
Total Time: 1.628406e-02
5 Add/Rem 4
Graph 1:
0 1 1 1 
1 1 1 0 
0 1 0 0 
1 0 0 1 
Graph 2:
1 0 1 1 
0 1 1 1 
0 0 1 0 
1 0 0 1 
Solution: -6 0
Gbest: -6.000000
Expectation: -10.125000
Final Parameters:
Gammas:
[ 3.141593 3.141593 3.141593 ]
Betas:
[ 2.617994 1.570796 1.570796 0.523599 ]
Aggregate results:
[ 5 7 11 9 15 ]
[ 0.250000 0.250000 0.062500 0.187500 0.250000 ]
3
Num Evals 439
GenUC: 8.060248e-06
GenUB: 8.261530e-06
Optimisation 1.523336e-02
Total Time: 1.550974e-02
