Clock Speed: 3.689317
Num threads: 4
Trotterisation: 3
Graph Size: 4
Num Qubits: 5
Space Dimension: 32
Run-Type: 0
Num_samples: 10
1 Isomorphic
Graph 1:
0 0 1 0 
1 0 0 0 
0 0 0 0 
1 0 1 0 
Graph 2:
0 0 1 0 
1 0 0 0 
0 0 0 0 
1 0 1 0 
Solution: 0 0
Gbest: 0.000000
Expectation: -4.862421
Final Parameters:
Gammas:
[ 3.705500 2.937838 3.457079 ]
Betas:
[ 1.669773 2.284597 2.122607 1.303165 ]
Aggregate results:
[ -1 5 3 7 1 15 ]
[ 0.214323 0.267072 0.303507 0.056754 0.067255 0.091089 ]
5
Num Evals 402
GenUC: 1.458058e-04
GenUB: 1.233121e-05
Optimisation 1.280135e-01
Total Time: 1.285155e-01
2 Flipped
Graph 1:
0 0 1 0 
1 0 0 0 
0 0 0 0 
1 0 1 0 
Graph 2:
0 1 0 0 
0 0 0 1 
0 0 0 0 
0 1 0 1 
Solution: -4 1
Gbest: -4.000000
Expectation: -5.840437
Final Parameters:
Gammas:
[ 3.490729 2.358419 4.376735 ]
Betas:
[ 1.535230 1.288563 2.196469 1.443662 ]
Aggregate results:
[ 7 3 5 15 ]
[ 0.104306 0.292711 0.581258 0.021725 ]
3
Num Evals 783
GenUC: 8.818432e-06
GenUB: 8.273812e-06
Optimisation 1.128688e-01
Total Time: 1.131618e-01
3 Add 4
Graph 1:
0 0 1 0 
1 0 0 0 
0 0 0 0 
1 0 1 0 
Graph 2:
0 1 1 0 
1 1 0 0 
0 0 0 0 
1 1 1 1 
Solution: -4 0
Gbest: -4.000000
Expectation: -7.505956
Final Parameters:
Gammas:
[ 3.742261 2.505950 3.389587 ]
Betas:
[ 1.763051 2.352201 0.666786 1.041428 ]
Aggregate results:
[ 3 5 7 9 15 ]
[ 0.155262 0.298089 0.356475 0.133035 0.057139 ]
3
Num Evals 1102
GenUC: 1.095861e-05
GenUB: 8.415838e-06
Optimisation 8.091002e-02
Total Time: 8.117959e-02
4 Rem 4
Graph 1:
0 0 1 0 
1 0 0 0 
0 0 0 0 
1 0 1 0 
Graph 2:
0 0 0 0 
1 0 0 0 
0 0 0 0 
0 0 1 0 
Solution: -2 0
Gbest: -2.000000
Expectation: -4.357524
Final Parameters:
Gammas:
[ 3.834108 3.170325 3.368309 ]
Betas:
[ 1.316380 1.688592 2.753652 1.335020 ]
Aggregate results:
[ 1 3 5 15 ]
[ 0.217659 0.616660 0.119532 0.046148 ]
5
Num Evals 1506
GenUC: 8.506235e-06
GenUB: 8.027942e-06
Optimisation 1.124691e-01
Total Time: 1.127615e-01
5 Add/Rem 4
Graph 1:
0 0 1 0 
1 0 0 0 
0 0 0 0 
1 0 1 0 
Graph 2:
0 0 0 0 
0 1 0 1 
1 0 0 0 
0 1 0 0 
Solution: -4 3
Gbest: -4.000000
Expectation: -4.957059
Final Parameters:
Gammas:
[ 3.337689 2.695811 2.921410 ]
Betas:
[ 1.485747 2.310262 2.873778 0.548960 ]
Aggregate results:
[ 7 5 3 15 ]
[ 0.024807 0.371751 0.593914 0.009527 ]
5
Num Evals 1913
GenUC: 8.334289e-06
GenUB: 7.901777e-06
Optimisation 1.123009e-01
Total Time: 1.125928e-01
