Clock Speed: 3.689380
Num threads: 4
Trotterisation: 3
Graph Size: 4
Num Qubits: 5
Space Dimension: 32
Run-Type: 0
Num_samples: 10
1 Isomorphic
Graph 1:
1 1 1 1 
0 1 1 1 
0 1 1 0 
1 0 1 0 
Graph 2:
1 1 1 1 
0 1 1 1 
0 1 1 0 
1 0 1 0 
Solution: 0 0
Gbest: 0.000000
Expectation: -6.868120
Final Parameters:
Gammas:
[ 3.575299 2.999683 2.941539 ]
Betas:
[ 1.348147 2.227548 3.121285 0.776370 ]
Aggregate results:
[ -1 5 7 3 9 15 ]
[ 0.063245 0.558688 0.165785 0.051245 0.098645 0.062393 ]
5
Num Evals 396
GenUC: 1.701502e-04
GenUB: 1.199974e-05
Optimisation 1.245941e-01
Total Time: 1.251204e-01
2 Flipped
Graph 1:
1 1 1 1 
0 1 1 1 
0 1 1 0 
1 0 1 0 
Graph 2:
1 1 1 1 
1 1 1 0 
0 1 1 0 
0 1 0 1 
Solution: -4 3
Gbest: -4.000000
Expectation: -6.160698
Final Parameters:
Gammas:
[ 2.428581 3.290279 3.987056 ]
Betas:
[ 1.742785 1.571840 1.442135 1.232988 ]
Aggregate results:
[ 5 3 7 9 15 ]
[ 0.515736 0.223458 0.248651 0.001872 0.010283 ]
3
Num Evals 795
GenUC: 1.081836e-05
GenUB: 8.421717e-06
Optimisation 1.152447e-01
Total Time: 1.155312e-01
3 Add 4
Graph 1:
1 1 1 1 
0 1 1 1 
0 1 1 0 
1 0 1 0 
Graph 2:
1 1 1 1 
1 1 1 1 
1 1 1 0 
1 1 1 0 
Solution: -3 0
Gbest: -3.000000
Expectation: -5.197414
Final Parameters:
Gammas:
[ 3.323806 2.327166 3.025209 ]
Betas:
[ 1.605139 1.525887 0.822789 2.358172 ]
Aggregate results:
[ 2 4 6 15 ]
[ 0.169610 0.710225 0.087242 0.032923 ]
3
Num Evals 1191
GenUC: 9.821262e-06
GenUB: 8.298550e-06
Optimisation 1.039120e-01
Total Time: 1.042003e-01
4 Rem 4
Graph 1:
1 1 1 1 
0 1 1 1 
0 1 1 0 
1 0 1 0 
Graph 2:
1 0 1 1 
0 1 1 0 
0 1 0 0 
1 0 0 0 
Solution: -4 0
Gbest: -4.000000
Expectation: -7.212904
Final Parameters:
Gammas:
[ 3.389370 3.194514 1.310517 ]
Betas:
[ 1.299950 2.130914 2.212222 1.715742 ]
Aggregate results:
[ 3 7 9 5 11 15 ]
[ 0.310151 0.300841 0.216233 0.133953 0.005406 0.033416 ]
5
Num Evals 1594
GenUC: 9.432901e-06
GenUB: 8.381205e-06
Optimisation 1.123445e-01
Total Time: 1.126516e-01
5 Add/Rem 4
Graph 1:
1 1 1 1 
0 1 1 1 
0 1 1 0 
1 0 1 0 
Graph 2:
1 1 1 0 
0 1 0 1 
0 0 0 1 
1 1 1 1 
Solution: -3 9
Gbest: -3.000000
Expectation: -7.008121
Final Parameters:
Gammas:
[ 3.840949 3.124046 2.730686 ]
Betas:
[ 1.403920 1.161352 0.538783 1.930318 ]
Aggregate results:
[ 6 8 4 2 10 15 ]
[ 0.484546 0.118701 0.323290 0.011609 0.018589 0.043264 ]
3
Num Evals 1920
GenUC: 8.873641e-06
GenUB: 7.894123e-06
Optimisation 7.816071e-02
Total Time: 7.842214e-02
