Clock Speed: 3.689390
Num threads: 4
Trotterisation: 4
Num Qubits: 10
Space Dimension: 1024
Run-Type: 0
Num_samples: 6
Optimiser Method: 0
1 Isomorphic
Graph 1:
0 0 0 0 1 0 
0 0 0 1 0 1 
0 0 0 1 1 1 
0 1 1 0 0 1 
1 0 1 0 0 1 
0 1 1 1 1 0 
Graph 2:
0 0 0 0 1 0 
0 0 0 1 0 1 
0 0 0 1 1 1 
0 1 1 0 0 1 
1 0 1 0 0 1 
0 1 1 1 1 0 
Solution: 36 0
Classic Expectation: 21.066667
Initial Expecation: 14.812500
Gbest: 28.000000
Expectation: 20.107270
Final Parameters:
Gammas:
[ 4.568022 4.783495 3.128664 2.947667 ]
Betas:
[ 0.465421 2.624458 1.382236 1.649830 ]
Aggregate results:
[ 36 24 28 32 20 16 12 0 ]
[ 0.003157 0.342326 0.131743 0.021123 0.283139 0.101231 0.010879 0.106401 ]
5
Num Evals 4800
GenUC: 2.594686e-04
GenUB: 8.737900e-05
Optimisation 9.064568e+01
Total Time: 9.064605e+01
2 Flipped
Graph 1:
0 0 0 0 1 0 
0 0 0 1 0 1 
0 0 0 1 1 1 
0 1 1 0 0 1 
1 0 1 0 0 1 
0 1 1 1 1 0 
Graph 2:
0 1 0 0 0 0 
1 0 1 0 0 0 
1 1 1 0 0 0 
1 0 0 1 1 0 
1 0 0 1 0 1 
0 1 1 1 1 0 
Solution: 26 56
Classic Expectation: 18.933333
Initial Expecation: 13.312500
Gbest: 24.000000
Expectation: 15.451793
Final Parameters:
Gammas:
[ 1.019904 1.108288 2.792527 3.154521 ]
Betas:
[ 0.426636 2.407549 1.435048 1.551404 ]
Aggregate results:
[ 16 14 12 18 24 20 22 26 0 ]
[ 0.110931 0.055236 0.007923 0.146743 0.074951 0.232341 0.149069 0.016999 0.205807 ]
5
Num Evals 4800
GenUC: 2.817620e-04
GenUB: 6.132513e-05
Optimisation 8.599904e+01
Total Time: 8.599939e+01
3 Add 6
Graph 1:
0 0 0 0 1 0 
0 0 0 1 0 1 
0 0 0 1 1 1 
0 1 1 0 0 1 
1 0 1 0 0 1 
0 1 1 1 1 0 
Graph 2:
0 1 1 1 1 1 
1 0 0 1 1 1 
1 0 0 1 1 1 
1 1 1 0 0 1 
1 1 1 0 0 1 
1 1 1 1 1 0 
Solution: 26 0
Classic Expectation: 21.733333
Initial Expecation: 15.281250
Gbest: 26.000000
Expectation: 18.875690
Final Parameters:
Gammas:
[ 1.034269 5.146447 5.236438 3.171759 ]
Betas:
[ 1.590189 1.706544 1.745329 0.633490 ]
Aggregate results:
[ 26 22 18 0 ]
[ 0.170246 0.477880 0.218663 0.133211 ]
5
Num Evals 4800
GenUC: 2.792703e-04
GenUB: 6.049419e-05
Optimisation 8.451916e+01
Total Time: 8.451950e+01
4 Rem 6
Graph 1:
0 0 0 0 1 0 
0 0 0 1 0 1 
0 0 0 1 1 1 
0 1 1 0 0 1 
1 0 1 0 0 1 
0 1 1 1 1 0 
Graph 2:
0 0 0 0 0 0 
0 0 0 0 0 0 
0 0 0 0 0 1 
0 0 0 0 0 1 
0 0 0 0 0 1 
0 0 1 1 1 0 
Solution: 26 0
Classic Expectation: 20.400000
Initial Expecation: 14.343750
Gbest: 26.000000
Expectation: 19.408708
Final Parameters:
Gammas:
[ 1.085983 3.151648 3.089400 5.237105 ]
Betas:
[ 2.676172 1.628974 1.926326 0.693822 ]
Aggregate results:
[ 26 22 18 14 0 ]
[ 0.101675 0.451791 0.328186 0.065600 0.052748 ]
5
Num Evals 4800
GenUC: 2.793290e-04
GenUB: 6.078994e-05
Optimisation 9.042936e+01
Total Time: 9.042970e+01
5 Add/Rem 6
Graph 1:
0 0 0 0 1 0 
0 0 0 1 0 1 
0 0 0 1 1 1 
0 1 1 0 0 1 
1 0 1 0 0 1 
0 1 1 1 1 0 
Graph 2:
0 1 1 1 0 1 
1 0 0 0 1 0 
1 0 0 0 1 0 
1 0 0 0 0 1 
0 1 1 0 0 1 
1 0 0 1 1 0 
Solution: 32 174
Classic Expectation: 21.066667
Initial Expecation: 14.812500
Gbest: 20.000000
Expectation: 18.879422
Final Parameters:
Gammas:
[ 6.205615 5.266154 1.292836 5.119632 ]
Betas:
[ 0.866200 1.581570 1.628974 1.906216 ]
Aggregate results:
[ 16 20 24 12 8 28 32 0 ]
[ 0.159998 0.281237 0.288364 0.038023 0.001904 0.114442 0.003066 0.112967 ]
5
Num Evals 4800
GenUC: 2.796288e-04
GenUB: 6.045077e-05
Optimisation 8.683662e+01
Total Time: 8.683696e+01
