Clock Speed: 3.688881
Num threads: 4
Trotterisation: 4
Num Qubits: 10
Space Dimension: 1024
Run-Type: 0
Num_samples: 6
Optimiser Method: 29
1 Isomorphic
Graph 1:
0 0 1 0 1 1 
0 0 0 1 1 1 
1 0 0 0 1 1 
0 1 0 0 0 0 
1 1 1 0 0 1 
1 1 1 0 1 0 
Graph 2:
0 0 1 0 1 1 
0 0 0 1 1 1 
1 0 0 0 1 1 
0 1 0 0 0 0 
1 1 1 0 0 1 
1 1 1 0 1 0 
Solution: 36 0
Classic Expectation: 21.600000
Initial Expecation: 15.187500
Gbest: 28.000000
Expectation: 20.669966
Final Parameters:
Gammas:
[ 2.186851 5.407052 3.190000 1.486237 ]
Betas:
[ 3.141593 2.232459 1.122960 2.763089 ]
Aggregate results:
[ 36 24 20 32 28 16 0 ]
[ 0.000859 0.445482 0.244511 0.013824 0.135895 0.050614 0.108815 ]
4
Num Evals 3706
GenUC: 2.593974e-04
GenUB: 8.591673e-05
Optimisation 8.286546e+01
Total Time: 8.286583e+01
2 Flipped
Graph 1:
0 0 1 0 1 1 
0 0 0 1 1 1 
1 0 0 0 1 1 
0 1 0 0 0 0 
1 1 1 0 0 1 
1 1 1 0 1 0 
Graph 2:
1 1 0 1 0 0 
1 1 1 0 0 0 
1 1 0 0 0 1 
0 0 0 0 1 0 
1 0 0 1 1 1 
0 1 0 1 1 1 
Solution: 24 200
Classic Expectation: 16.800000
Initial Expecation: 11.812500
Gbest: 16.000000
Expectation: 15.359010
Final Parameters:
Gammas:
[ 5.079775 4.312467 2.242716 6.124348 ]
Betas:
[ 0.143305 2.459456 1.662150 1.685722 ]
Aggregate results:
[ 12 10 20 14 16 18 22 24 0 ]
[ 0.094665 0.010427 0.216286 0.122375 0.214504 0.202247 0.030873 0.013669 0.094953 ]
4
Num Evals 4289
GenUC: 2.792144e-04
GenUB: 6.976575e-05
Optimisation 7.247477e+01
Total Time: 7.247512e+01
3 Add 6
Graph 1:
0 0 1 0 1 1 
0 0 0 1 1 1 
1 0 0 0 1 1 
0 1 0 0 0 0 
1 1 1 0 0 1 
1 1 1 0 1 0 
Graph 2:
0 1 1 1 1 1 
1 0 1 1 1 1 
1 1 1 0 1 1 
1 1 0 0 1 1 
1 1 1 1 0 1 
1 1 1 1 1 0 
Solution: 25 0
Classic Expectation: 22.600000
Initial Expecation: 15.890625
Gbest: 25.000000
Expectation: 21.978378
Final Parameters:
Gammas:
[ 1.762438 3.512728 3.616248 3.333193 ]
Betas:
[ 0.339712 2.385132 1.914089 1.389226 ]
Aggregate results:
[ 25 21 0 ]
[ 0.665725 0.254059 0.080215 ]
4
Num Evals 4421
GenUC: 2.792127e-04
GenUB: 6.899699e-05
Optimisation 7.760276e+01
Total Time: 7.760311e+01
4 Rem 6
Graph 1:
0 0 1 0 1 1 
0 0 0 1 1 1 
1 0 0 0 1 1 
0 1 0 0 0 0 
1 1 1 0 0 1 
1 1 1 0 1 0 
Graph 2:
0 0 0 0 0 0 
0 0 0 0 1 0 
0 0 0 0 0 0 
0 0 0 0 0 0 
0 1 0 0 0 1 
0 0 0 0 1 0 
Solution: 22 0
Classic Expectation: 18.800000
Initial Expecation: 13.218750
Gbest: 22.000000
Expectation: 18.617208
Final Parameters:
Gammas:
[ 3.412920 3.333612 2.860758 3.321490 ]
Betas:
[ 2.486159 0.041830 2.904004 0.139141 ]
Aggregate results:
[ 22 18 14 0 ]
[ 0.569514 0.303439 0.044714 0.082333 ]
5
Num Evals 4800
GenUC: 2.790272e-04
GenUB: 7.160373e-05
Optimisation 7.790471e+01
Total Time: 7.790507e+01
5 Add/Rem 6
Graph 1:
0 0 1 0 1 1 
0 0 0 1 1 1 
1 0 0 0 1 1 
0 1 0 0 0 0 
1 1 1 0 0 1 
1 1 1 0 1 0 
Graph 2:
1 1 0 1 0 0 
1 0 1 0 0 0 
0 1 1 0 0 1 
1 0 0 0 1 1 
0 0 0 1 0 1 
0 0 1 1 1 0 
Solution: 26 30
Classic Expectation: 18.800000
Initial Expecation: 13.218750
Gbest: 26.000000
Expectation: 20.986083
Final Parameters:
Gammas:
[ 6.222538 4.526122 3.198003 4.775191 ]
Betas:
[ 2.791507 2.692598 1.755391 1.636156 ]
Aggregate results:
[ 10 14 22 18 26 0 ]
[ 0.003976 0.012091 0.412807 0.178846 0.326003 0.066278 ]
4
Num Evals 3956
GenUC: 3.734226e-04
GenUB: 6.237980e-05
Optimisation 9.385745e+01
Total Time: 9.385789e+01
