Clock Speed: 3.688279
Num threads: 4
Trotterisation: 2
Graph Size: 7
Num Qubits: 13
Space Dimension: 8192
Run-Type: 0
Num_samples: 10
1 Isomorphic
Graph 1:
0 1 0 1 0 0 0 
1 1 0 1 1 1 0 
1 0 1 1 1 1 0 
1 1 1 0 0 1 0 
1 1 1 1 1 1 1 
1 0 1 1 1 0 1 
0 0 1 1 0 1 1 
Graph 2:
0 1 0 1 0 0 0 
1 1 0 1 1 1 0 
1 0 1 1 1 1 0 
1 1 1 0 0 1 0 
1 1 1 1 1 1 1 
1 0 1 1 1 0 1 
0 0 1 1 0 1 1 
Solution: 0 0
Gbest: -12.000000
Expectation: -22.976718
Final Parameters:
Gammas:
[ 3.206343 3.084553 ]
Betas:
[ 0.001457 2.047448 1.866295 ]
Aggregate results:
[ -1 9 13 5 19 15 17 11 21 23 25 7 31 29 27 33 48 ]
[ 0.000552 0.002778 0.023613 0.001308 0.177141 0.068631 0.111720 0.011019 0.194261 0.168021 0.115545 0.000879 0.008299 0.016066 0.054205 0.000561 0.045399 ]
5
Num Evals 700
GenUC: 1.542863e-03
GenUB: 2.084739e-03
Optimisation 4.426453e+00
Total Time: 4.436304e+00
2 Flipped
Graph 1:
0 1 0 1 0 0 0 
1 1 0 1 1 1 0 
1 0 1 1 1 1 0 
1 1 1 0 0 1 0 
1 1 1 1 1 1 1 
1 0 1 1 1 0 1 
0 0 1 1 0 1 1 
Graph 2:
0 0 0 1 0 1 0 
0 1 1 1 0 1 1 
0 1 1 1 1 0 1 
0 1 0 0 1 1 1 
1 1 1 1 1 1 1 
1 0 1 1 1 0 1 
1 1 0 1 1 0 0 
Solution: -8 4982
Gbest: -16.000000
Expectation: -24.332917
Final Parameters:
Gammas:
[ 2.974860 3.613664 ]
Betas:
[ 0.022838 1.904073 1.398688 ]
Aggregate results:
[ 19 21 17 15 23 25 27 13 29 31 33 9 11 7 48 ]
[ 0.189067 0.174189 0.148628 0.086585 0.124562 0.059864 0.027062 0.035004 0.008217 0.001815 0.000214 0.002625 0.010420 0.001313 0.130436 ]
5
Num Evals 1400
GenUC: 1.147749e-03
GenUB: 1.541302e-03
Optimisation 4.081658e+00
Total Time: 4.090084e+00
3 Add 7
Graph 1:
0 1 0 1 0 0 0 
1 1 0 1 1 1 0 
1 0 1 1 1 1 0 
1 1 1 0 0 1 0 
1 1 1 1 1 1 1 
1 0 1 1 1 0 1 
0 0 1 1 0 1 1 
Graph 2:
0 1 0 1 0 1 0 
1 1 0 1 1 1 0 
1 0 1 1 1 1 1 
1 1 1 0 0 1 1 
1 1 1 1 1 1 1 
1 1 1 1 1 0 1 
1 0 1 1 0 1 1 
Solution: -5 0
Gbest: -13.000000
Expectation: -21.583308
Final Parameters:
Gammas:
[ 6.233709 6.018740 ]
Betas:
[ 0.025886 2.167939 1.490000 ]
Aggregate results:
[ 4 10 14 8 12 18 16 20 6 22 24 26 28 48 ]
[ 0.000328 0.009266 0.073143 0.001806 0.025107 0.191210 0.141451 0.205229 0.000881 0.163793 0.091239 0.043847 0.006403 0.046297 ]
5
Num Evals 2100
GenUC: 1.072172e-03
GenUB: 1.796849e-03
Optimisation 4.606053e+00
Total Time: 4.615160e+00
4 Rem 7
Graph 1:
0 1 0 1 0 0 0 
1 1 0 1 1 1 0 
1 0 1 1 1 1 0 
1 1 1 0 0 1 0 
1 1 1 1 1 1 1 
1 0 1 1 1 0 1 
0 0 1 1 0 1 1 
Graph 2:
0 1 0 1 0 0 0 
1 1 0 1 1 1 0 
1 0 1 0 1 1 0 
1 1 0 0 0 0 0 
1 1 1 1 0 0 1 
1 0 1 1 1 0 1 
0 0 1 1 0 0 0 
Solution: -7 0
Gbest: -19.000000
Expectation: -31.710499
Final Parameters:
Gammas:
[ 5.726750 4.360301 ]
Betas:
[ 0.004899 2.173404 1.540699 ]
Aggregate results:
[ 6 16 20 12 18 26 24 14 28 22 8 10 30 32 48 ]
[ 0.000028 0.014822 0.111390 0.001813 0.050797 0.115216 0.148915 0.006160 0.059752 0.157959 0.000648 0.000256 0.020749 0.004792 0.306704 ]
5
Num Evals 2800
GenUC: 1.194885e-03
GenUB: 1.738608e-03
Optimisation 4.844284e+00
Total Time: 4.852683e+00
5 Add/Rem 7
Graph 1:
0 1 0 1 0 0 0 
1 1 0 1 1 1 0 
1 0 1 1 1 1 0 
1 1 1 0 0 1 0 
1 1 1 1 1 1 1 
1 0 1 1 1 0 1 
0 0 1 1 0 1 1 
Graph 2:
1 1 1 1 0 1 0 
1 1 0 1 1 1 0 
1 1 0 1 1 1 0 
0 0 1 0 0 1 0 
1 1 0 1 1 0 0 
1 0 1 1 0 0 1 
1 0 1 1 0 1 1 
Solution: -10 37
Gbest: -18.000000
Expectation: -23.612618
Final Parameters:
Gammas:
[ 6.225587 5.179394 ]
Betas:
[ 0.154355 2.151572 1.556930 ]
Aggregate results:
[ 11 15 17 13 21 19 9 23 25 27 29 31 33 48 ]
[ 0.004731 0.054954 0.109652 0.019174 0.188051 0.161465 0.001157 0.175244 0.122313 0.076776 0.030738 0.006902 0.001040 0.047802 ]
3
Num Evals 3494
GenUC: 1.227266e-03
GenUB: 1.740106e-03
Optimisation 4.895503e+00
Total Time: 4.904837e+00
