Clock Speed: 3.498795
Num threads: 16
Trotterisation: 5
Num Qubits: 10
Space Dimension: 1024
Run-Type: 0
Num_samples: 36
Optimiser Method: 33
1 Isomorphic
Graph 1:
0 0 1 0 1 0 
1 0 0 0 0 0 
0 1 1 0 0 1 
0 1 1 0 0 0 
1 1 0 1 1 0 
0 1 1 0 0 1 
Graph 2:
0 0 1 0 1 0 
1 0 0 0 0 0 
0 1 1 0 0 1 
0 1 1 0 0 0 
1 1 0 1 1 0 
0 1 1 0 0 1 
Solution: 36 0
Classic Expectation: 18.600000
Initial Expecation: 13.078125
Gbest: 36.000000
Expectation: 13.078125
Final Parameters:
Gammas:
[ 3.141593 3.141593 3.141593 3.141593 3.141593 ]
Betas:
[ 1.570796 1.570796 1.570796 1.570796 1.570796 ]
Aggregate results:
[ 36 26 24 30 28 22 32 18 16 20 14 12 10 0 ]
[ 0.000977 0.015625 0.044922 0.001953 0.000977 0.076172 0.000977 0.181641 0.147461 0.156250 0.052734 0.019531 0.003906 0.296875 ]
4
Num Evals 3
GenUC: 3.462280e-04
GenUB: 1.584319e-04
Optimisation 1.969576e-02
Total Time: 2.021093e-02
2 Flipped
Graph 1:
0 0 1 0 1 0 
1 0 0 0 0 0 
0 1 1 0 0 1 
0 1 1 0 0 0 
1 1 0 1 1 0 
0 1 1 0 0 1 
Graph 2:
0 1 0 1 0 0 
0 0 0 0 0 1 
1 0 0 1 1 0 
0 0 0 1 1 0 
0 1 1 0 1 1 
1 0 0 1 1 0 
Solution: 28 625
Classic Expectation: 18.400000
Initial Expecation: 12.937500
Gbest: 24.000000
Expectation: 13.569987
Final Parameters:
Gammas:
[ 3.634116 3.634116 3.634116 3.634116 3.634116 ]
Betas:
[ 1.712274 1.712274 1.712274 1.712274 1.712274 ]
Aggregate results:
[ 10 18 16 20 22 24 14 12 26 28 0 ]
[ 0.005225 0.165484 0.087584 0.165217 0.160792 0.041800 0.072045 0.008485 0.005246 0.001638 0.286484 ]
3
Num Evals 51
GenUC: 3.630938e-04
GenUB: 1.381845e-04
Optimisation 2.690296e-01
Total Time: 2.695333e-01
3 Add 6
Graph 1:
0 0 1 0 1 0 
1 0 0 0 0 0 
0 1 1 0 0 1 
0 1 1 0 0 0 
1 1 0 1 1 0 
0 1 1 0 0 1 
Graph 2:
0 0 1 1 1 0 
1 1 0 1 0 0 
0 1 1 0 0 1 
0 1 1 0 0 1 
1 1 1 1 1 0 
0 1 1 0 0 1 
Solution: 31 0
Classic Expectation: 17.800000
Initial Expecation: 12.515625
Gbest: 25.000000
Expectation: 12.714400
Final Parameters:
Gammas:
[ 3.141593 3.141593 3.141593 3.141593 3.141593 ]
Betas:
[ 1.570796 1.570796 1.570796 0.849369 0.849369 ]
Aggregate results:
[ 31 23 25 21 29 19 17 15 13 11 27 9 0 ]
[ 0.000977 0.047092 0.016190 0.097120 0.000977 0.154352 0.199836 0.132542 0.054464 0.006212 0.000977 0.000849 0.288412 ]
3
Num Evals 22
GenUC: 3.623380e-04
GenUB: 1.286604e-04
Optimisation 9.772738e-02
Total Time: 9.822058e-02
4 Rem 6
Graph 1:
0 0 1 0 1 0 
1 0 0 0 0 0 
0 1 1 0 0 1 
0 1 1 0 0 0 
1 1 0 1 1 0 
0 1 1 0 0 1 
Graph 2:
0 0 1 0 1 0 
1 0 0 0 0 0 
0 0 1 0 0 1 
0 1 0 0 0 0 
0 1 0 1 1 0 
0 0 0 0 0 0 
Solution: 30 0
Classic Expectation: 19.600000
Initial Expecation: 13.781250
Gbest: 24.000000
Expectation: 13.909646
Final Parameters:
Gammas:
[ 3.142670 3.142670 3.855996 3.855996 3.855995 ]
Betas:
[ 1.791750 1.791750 1.697278 1.697278 1.697278 ]
Aggregate results:
[ 30 24 22 26 28 20 18 14 16 12 0 ]
[ 0.000202 0.068838 0.161990 0.008980 0.000521 0.195890 0.160353 0.031941 0.072454 0.002421 0.296410 ]
3
Num Evals 47
GenUC: 3.637946e-04
GenUB: 1.264489e-04
Optimisation 2.450738e-01
Total Time: 2.455661e-01
5 Add/Rem 6
Graph 1:
0 0 1 0 1 0 
1 0 0 0 0 0 
0 1 1 0 0 1 
0 1 1 0 0 0 
1 1 0 1 1 0 
0 1 1 0 0 1 
Graph 2:
0 1 0 0 1 0 
0 0 1 1 1 0 
0 1 1 0 0 0 
0 1 1 0 0 1 
1 1 0 1 1 0 
1 0 1 0 0 0 
Solution: 27 99
Classic Expectation: 18.200000
Initial Expecation: 12.796875
Gbest: 25.000000
Expectation: 12.796875
Final Parameters:
Gammas:
[ 3.141593 3.141593 3.141593 3.141593 3.141593 ]
Betas:
[ 1.570796 1.570796 1.570796 1.570796 1.570796 ]
Aggregate results:
[ 25 19 15 17 23 21 11 13 27 9 0 ]
[ 0.017578 0.178711 0.103516 0.180664 0.056641 0.110352 0.014648 0.038086 0.001953 0.000977 0.296875 ]
4
Num Evals 3
GenUC: 3.640638e-04
GenUB: 1.220610e-04
Optimisation 1.468182e-02
Total Time: 1.517008e-02
