Clock Speed: 3.498801
Num threads: 16
Trotterisation: 5
Num Qubits: 10
Space Dimension: 1024
Run-Type: 0
Num_samples: 36
Optimiser Method: 33
1 Isomorphic
Graph 1:
1 0 0 0 1 0 
0 1 1 1 1 1 
1 0 0 1 0 1 
0 1 1 0 1 0 
1 1 0 0 0 1 
0 0 0 1 0 1 
Graph 2:
1 0 0 0 1 0 
0 1 1 1 1 1 
1 0 0 1 0 1 
0 1 1 0 1 0 
1 1 0 0 0 1 
0 0 0 1 0 1 
Solution: 36 0
Classic Expectation: 18.000000
Initial Expecation: 12.656250
Gbest: 26.000000
Expectation: 12.656250
Final Parameters:
Gammas:
[ 3.141593 3.141593 3.141593 3.141593 3.141593 ]
Betas:
[ 1.570796 1.570796 1.570796 1.570796 1.570796 ]
Aggregate results:
[ 36 20 22 24 26 30 14 16 18 28 12 10 8 0 ]
[ 0.000977 0.163086 0.059570 0.036133 0.008789 0.001953 0.078125 0.148437 0.157227 0.001953 0.038086 0.006836 0.001953 0.296875 ]
4
Num Evals 3
GenUC: 3.515654e-04
GenUB: 1.411363e-04
Optimisation 3.068854e-02
Total Time: 3.119170e-02
2 Flipped
Graph 1:
1 0 0 0 1 0 
0 1 1 1 1 1 
1 0 0 1 0 1 
0 1 1 0 1 0 
1 1 0 0 0 1 
0 0 0 1 0 1 
Graph 2:
0 1 0 0 0 1 
1 1 1 1 1 0 
1 0 1 0 0 1 
0 1 0 1 1 0 
1 0 0 0 1 1 
1 0 1 0 0 0 
Solution: 28 450
Classic Expectation: 18.000000
Initial Expecation: 12.656250
Gbest: 26.000000
Expectation: 13.303328
Final Parameters:
Gammas:
[ 4.710042 4.710042 4.710042 4.710042 4.710042 ]
Betas:
[ 2.222941 2.222941 2.222941 2.222941 2.222941 ]
Aggregate results:
[ 20 18 14 22 16 8 12 24 10 26 28 0 ]
[ 0.164930 0.176422 0.057038 0.079458 0.172618 0.006677 0.028183 0.034805 0.004988 0.006930 0.002273 0.265678 ]
3
Num Evals 55
GenUC: 3.651814e-04
GenUB: 1.288150e-04
Optimisation 3.286501e-01
Total Time: 3.291465e-01
3 Add 6
Graph 1:
1 0 0 0 1 0 
0 1 1 1 1 1 
1 0 0 1 0 1 
0 1 1 0 1 0 
1 1 0 0 0 1 
0 0 0 1 0 1 
Graph 2:
1 1 1 1 1 0 
0 1 1 1 1 1 
1 0 0 1 1 1 
0 1 1 1 1 0 
1 1 0 0 0 1 
0 1 0 1 0 1 
Solution: 30 0
Classic Expectation: 18.000000
Initial Expecation: 12.656250
Gbest: 28.000000
Expectation: 12.656250
Final Parameters:
Gammas:
[ 3.141593 3.141593 3.141593 3.141593 3.141593 ]
Betas:
[ 1.570796 1.723752 1.570796 1.210592 1.210592 ]
Aggregate results:
[ 30 18 20 24 22 16 26 10 14 28 12 0 ]
[ 0.000977 0.183594 0.121094 0.022461 0.090820 0.170898 0.006836 0.006836 0.085938 0.000977 0.012695 0.296875 ]
3
Num Evals 46
GenUC: 3.658612e-04
GenUB: 1.307018e-04
Optimisation 2.169959e-01
Total Time: 2.174948e-01
4 Rem 6
Graph 1:
1 0 0 0 1 0 
0 1 1 1 1 1 
1 0 0 1 0 1 
0 1 1 0 1 0 
1 1 0 0 0 1 
0 0 0 1 0 1 
Graph 2:
1 0 0 0 0 0 
0 1 1 1 0 1 
1 0 0 1 0 1 
0 1 1 0 1 0 
0 0 0 0 0 0 
0 0 0 1 0 0 
Solution: 30 0
Classic Expectation: 18.000000
Initial Expecation: 12.656250
Gbest: 22.000000
Expectation: 12.777286
Final Parameters:
Gammas:
[ 3.150298 3.150298 3.851243 3.851243 3.851236 ]
Betas:
[ 1.789991 1.789991 1.696142 1.706401 1.696142 ]
Aggregate results:
[ 30 24 22 26 20 28 18 16 14 12 10 8 0 ]
[ 0.003070 0.033139 0.102122 0.001719 0.141648 0.001176 0.147385 0.151533 0.094967 0.020325 0.006561 0.002008 0.294347 ]
3
Num Evals 38
GenUC: 3.660568e-04
GenUB: 1.233425e-04
Optimisation 1.986800e-01
Total Time: 1.991716e-01
5 Add/Rem 6
Graph 1:
1 0 0 0 1 0 
0 1 1 1 1 1 
1 0 0 1 0 1 
0 1 1 0 1 0 
1 1 0 0 0 1 
0 0 0 1 0 1 
Graph 2:
0 0 0 0 1 0 
0 0 1 1 1 1 
0 1 1 1 0 1 
0 1 0 1 1 1 
1 1 0 0 0 1 
1 1 0 1 0 1 
Solution: 28 340
Classic Expectation: 18.000000
Initial Expecation: 12.656250
Gbest: 22.000000
Expectation: 12.656250
Final Parameters:
Gammas:
[ 3.141593 3.141593 3.141593 3.141593 3.141593 ]
Betas:
[ 1.570796 1.570796 1.570796 1.570796 1.570796 ]
Aggregate results:
[ 26 16 22 18 20 24 14 12 10 28 8 0 ]
[ 0.007812 0.150391 0.079102 0.199219 0.131836 0.026367 0.073242 0.029297 0.003906 0.000977 0.000977 0.296875 ]
4
Num Evals 3
GenUC: 3.654012e-04
GenUB: 1.164284e-04
Optimisation 1.483587e-02
Total Time: 1.531990e-02
