Clock Speed: 3.498567
Num threads: 16
Trotterisation: 5
Num Qubits: 10
Space Dimension: 1024
Run-Type: 0
Num_samples: 36
Optimiser Method: 33
1 Isomorphic
Graph 1:
1 0 1 0 0 1 
1 1 1 1 0 1 
1 1 0 0 1 0 
0 0 1 1 0 1 
1 0 0 1 0 1 
0 1 0 0 0 1 
Graph 2:
1 0 1 0 0 1 
1 1 1 1 0 1 
1 1 0 0 1 0 
0 0 1 1 0 1 
1 0 0 1 0 1 
0 1 0 0 0 1 
Solution: 36 0
Classic Expectation: 18.333333
Initial Expecation: 12.890625
Gbest: 28.000000
Expectation: 12.890625
Final Parameters:
Gammas:
[ 3.141593 3.141593 3.141593 3.141593 3.141593 ]
Betas:
[ 1.570796 1.570796 1.570796 1.570796 1.570796 ]
Aggregate results:
[ 36 18 24 28 20 12 16 22 14 26 30 34 10 0 ]
[ 0.000977 0.209961 0.029297 0.004883 0.153320 0.029297 0.137695 0.063477 0.057617 0.012695 0.000977 0.000977 0.001953 0.296875 ]
4
Num Evals 3
GenUC: 3.452031e-04
GenUB: 1.586517e-04
Optimisation 1.703505e-02
Total Time: 1.755040e-02
2 Flipped
Graph 1:
1 0 1 0 0 1 
1 1 1 1 0 1 
1 1 0 0 1 0 
0 0 1 1 0 1 
1 0 0 1 0 1 
0 1 0 0 0 1 
Graph 2:
1 0 0 1 0 1 
1 0 1 1 1 1 
0 1 0 0 1 1 
1 0 1 1 0 0 
1 0 1 0 0 1 
1 0 0 0 1 0 
Solution: 28 513
Classic Expectation: 17.666667
Initial Expecation: 12.421875
Gbest: 24.000000
Expectation: 12.621100
Final Parameters:
Gammas:
[ 5.933491 5.933491 5.933491 5.933491 5.933491 ]
Betas:
[ 2.622537 2.622537 2.622537 2.622537 2.622537 ]
Aggregate results:
[ 22 20 18 14 24 16 12 10 8 26 28 6 0 ]
[ 0.058477 0.110753 0.158082 0.128598 0.019322 0.192448 0.044996 0.017939 0.002777 0.004107 0.002888 0.000267 0.259346 ]
3
Num Evals 24
GenUC: 3.657509e-04
GenUB: 1.411564e-04
Optimisation 1.588460e-01
Total Time: 1.593553e-01
3 Add 6
Graph 1:
1 0 1 0 0 1 
1 1 1 1 0 1 
1 1 0 0 1 0 
0 0 1 1 0 1 
1 0 0 1 0 1 
0 1 0 0 0 1 
Graph 2:
1 0 1 1 1 1 
1 1 1 1 0 1 
1 1 1 0 1 0 
0 0 1 1 1 1 
1 0 0 1 0 1 
0 1 1 0 0 1 
Solution: 31 0
Classic Expectation: 18.666667
Initial Expecation: 13.125000
Gbest: 29.000000
Expectation: 13.248869
Final Parameters:
Gammas:
[ 3.141593 3.141593 3.141593 3.141593 3.141593 ]
Betas:
[ 1.570796 1.570796 1.570796 2.292224 2.292224 ]
Aggregate results:
[ 31 17 21 15 19 27 23 25 13 11 9 29 0 ]
[ 0.000977 0.153909 0.131261 0.091484 0.216411 0.002605 0.057140 0.019705 0.024864 0.011278 0.000977 0.000977 0.288412 ]
3
Num Evals 22
GenUC: 3.634486e-04
GenUB: 1.328434e-04
Optimisation 1.187582e-01
Total Time: 1.192569e-01
4 Rem 6
Graph 1:
1 0 1 0 0 1 
1 1 1 1 0 1 
1 1 0 0 1 0 
0 0 1 1 0 1 
1 0 0 1 0 1 
0 1 0 0 0 1 
Graph 2:
1 0 1 0 0 0 
1 1 1 0 0 1 
0 1 0 0 1 0 
0 0 0 0 0 0 
1 0 0 1 0 1 
0 1 0 0 0 1 
Solution: 30 0
Classic Expectation: 18.000000
Initial Expecation: 12.656250
Gbest: 24.000000
Expectation: 13.118484
Final Parameters:
Gammas:
[ 3.368101 3.368101 5.429871 5.429871 5.429754 ]
Betas:
[ 2.575951 2.575951 2.410464 2.410464 2.410464 ]
Aggregate results:
[ 30 16 24 18 20 28 22 14 12 26 10 0 ]
[ 0.001763 0.204542 0.026506 0.164625 0.164277 0.003770 0.066444 0.060365 0.024351 0.004294 0.009168 0.269895 ]
3
Num Evals 42
GenUC: 3.649611e-04
GenUB: 1.264624e-04
Optimisation 2.658193e-01
Total Time: 2.663129e-01
5 Add/Rem 6
Graph 1:
1 0 1 0 0 1 
1 1 1 1 0 1 
1 1 0 0 1 0 
0 0 1 1 0 1 
1 0 0 1 0 1 
0 1 0 0 0 1 
Graph 2:
1 0 0 0 1 1 
0 1 1 0 0 1 
0 1 1 0 0 0 
1 0 1 1 0 1 
1 0 0 1 1 0 
0 1 1 0 0 1 
Solution: 27 12
Classic Expectation: 19.000000
Initial Expecation: 13.359375
Gbest: 25.000000
Expectation: 13.359375
Final Parameters:
Gammas:
[ 3.141593 3.141593 3.141593 3.141593 3.141593 ]
Betas:
[ 1.570796 1.570796 1.570796 1.570796 1.570796 ]
Aggregate results:
[ 25 15 21 13 19 17 27 23 11 0 ]
[ 0.022461 0.078125 0.156250 0.020508 0.202148 0.140625 0.001953 0.075195 0.005859 0.296875 ]
4
Num Evals 3
GenUC: 3.659176e-04
GenUB: 1.161625e-04
Optimisation 1.511097e-02
Total Time: 1.559512e-02
