Clock Speed: 3.689243
Num threads: 4
Trotterisation: 1
Graph Size: 8
Num Qubits: 16
Space Dimension: 65536
Run-Type: 0
Num_samples: 10
1 Isomorphic
Graph 1:
0 0 0 1 1 1 1 1 
1 1 1 0 1 0 1 0 
0 1 1 0 1 1 1 0 
0 1 0 1 1 1 0 1 
1 1 1 1 0 0 0 0 
0 1 0 1 0 1 1 1 
0 1 1 0 1 1 0 0 
0 1 1 0 0 1 0 1 
Graph 2:
0 0 0 1 1 1 1 1 
1 1 1 0 1 0 1 0 
0 1 1 0 1 1 1 0 
0 1 0 1 1 1 0 1 
1 1 1 1 0 0 0 0 
0 1 0 1 0 1 1 1 
0 1 1 0 1 1 0 0 
0 1 1 0 0 1 0 1 
Solution: 0 0
Gbest: -28.000000
Expectation: -43.807129
Final Parameters:
Gammas:
[ 3.141593 ]
Betas:
[ 1.570796 1.221730 ]
Aggregate results:
[ -1 21 19 7 11 17 23 27 13 15 25 29 31 33 37 35 39 43 41 47 9 49 45 63 ]
[ 0.000015 0.010071 0.003586 0.000046 0.000107 0.001511 0.025589 0.086426 0.000244 0.000443 0.053665 0.112000 0.116135 0.096893 0.029129 0.061630 0.011993 0.001236 0.004135 0.000046 0.000046 0.000031 0.000259 0.384766 ]
3
Num Evals 17
GenUC: 3.545961e-03
GenUB: 1.750217e-02
Optimisation 2.378340e+00
Total Time: 2.517400e+00
2 Flipped
Graph 1:
0 0 0 1 1 1 1 1 
1 1 1 0 1 0 1 0 
0 1 1 0 1 1 1 0 
0 1 0 1 1 1 0 1 
1 1 1 1 0 0 0 0 
0 1 0 1 0 1 1 1 
0 1 1 0 1 1 0 0 
0 1 1 0 0 1 0 1 
Graph 2:
1 1 1 1 1 0 0 0 
0 1 0 1 0 1 1 1 
0 1 1 1 0 1 1 0 
1 0 1 1 1 0 1 0 
0 0 0 0 1 1 1 1 
1 1 1 0 1 0 1 0 
0 0 1 1 0 1 1 0 
1 0 1 0 0 1 1 0 
Solution: -16 736
Gbest: -26.000000
Expectation: -43.741211
Final Parameters:
Gammas:
[ 3.141593 ]
Betas:
[ 1.570796 1.221730 ]
Aggregate results:
[ 41 31 37 39 33 43 35 29 27 25 23 19 21 45 17 15 47 63 ]
[ 0.003876 0.118271 0.028732 0.010864 0.091583 0.000748 0.057877 0.114258 0.090729 0.057068 0.027634 0.002869 0.009628 0.000275 0.000732 0.000076 0.000015 0.384766 ]
3
Num Evals 34
GenUC: 2.469617e-03
GenUB: 1.722053e-02
Optimisation 2.560497e+00
Total Time: 2.705418e+00
3 Add 8
Graph 1:
0 0 0 1 1 1 1 1 
1 1 1 0 1 0 1 0 
0 1 1 0 1 1 1 0 
0 1 0 1 1 1 0 1 
1 1 1 1 0 0 0 0 
0 1 0 1 0 1 1 1 
0 1 1 0 1 1 0 0 
0 1 1 0 0 1 0 1 
Graph 2:
0 0 0 1 1 1 1 1 
1 1 1 0 1 0 1 0 
0 1 1 0 1 1 1 0 
1 1 0 1 1 1 0 1 
1 1 1 1 1 0 1 0 
0 1 0 1 0 1 1 1 
0 1 1 0 1 1 0 0 
1 1 1 0 0 1 1 1 
Solution: -5 0
Gbest: -19.000000
Expectation: -38.857442
Final Parameters:
Gammas:
[ 5.934119 ]
Betas:
[ 2.617994 2.617994 ]
Aggregate results:
[ 4 22 20 12 14 24 28 18 26 30 32 36 16 34 38 40 42 10 44 46 63 ]
[ 0.000027 0.028795 0.011298 0.000077 0.000259 0.059113 0.133517 0.003045 0.098561 0.150138 0.126849 0.036358 0.000768 0.080538 0.013920 0.003909 0.000664 0.000059 0.000021 0.000002 0.252081 ]
3
Num Evals 167
GenUC: 3.059842e-03
GenUB: 1.712381e-02
Optimisation 1.787647e+01
Total Time: 1.807533e+01
4 Rem 8
Graph 1:
0 0 0 1 1 1 1 1 
1 1 1 0 1 0 1 0 
0 1 1 0 1 1 1 0 
0 1 0 1 1 1 0 1 
1 1 1 1 0 0 0 0 
0 1 0 1 0 1 1 1 
0 1 1 0 1 1 0 0 
0 1 1 0 0 1 0 1 
Graph 2:
0 0 0 1 1 1 0 1 
1 1 1 0 1 0 1 0 
0 0 1 0 1 1 1 0 
0 1 0 1 1 1 0 0 
1 1 1 0 0 0 0 0 
0 1 0 1 0 1 1 0 
0 0 1 0 0 1 0 0 
0 1 1 0 0 1 0 1 
Solution: -7 0
Gbest: -27.000000
Expectation: -39.425929
Final Parameters:
Gammas:
[ 0.349066 ]
Betas:
[ 1.570796 0.523599 ]
Aggregate results:
[ 6 24 14 16 22 26 28 18 20 30 32 34 36 38 40 44 42 46 12 10 63 ]
[ 0.000013 0.032170 0.000060 0.000426 0.012904 0.061593 0.102045 0.001384 0.004893 0.138417 0.151829 0.127664 0.084412 0.039448 0.013343 0.000676 0.003681 0.000127 0.000020 0.000023 0.224872 ]
3
Num Evals 342
GenUC: 2.851277e-03
GenUB: 1.722421e-02
Optimisation 2.214908e+01
Total Time: 2.226890e+01
5 Add/Rem 8
Graph 1:
0 0 0 1 1 1 1 1 
1 1 1 0 1 0 1 0 
0 1 1 0 1 1 1 0 
0 1 0 1 1 1 0 1 
1 1 1 1 0 0 0 0 
0 1 0 1 0 1 1 1 
0 1 1 0 1 1 0 0 
0 1 1 0 0 1 0 1 
Graph 2:
0 0 0 1 0 1 1 1 
1 1 1 0 1 0 1 1 
0 0 1 1 1 1 1 1 
0 1 0 1 1 0 0 1 
0 1 1 1 1 0 0 1 
0 1 0 0 0 0 1 1 
0 1 1 0 1 0 1 0 
1 1 1 0 0 1 0 0 
Solution: -13 6255
Gbest: -25.000000
Expectation: -39.266882
Final Parameters:
Gammas:
[ 0.349066 ]
Betas:
[ 1.570796 0.523599 ]
Aggregate results:
[ 14 30 26 22 18 28 32 24 34 36 38 40 20 42 44 46 16 12 63 ]
[ 0.000139 0.146912 0.075569 0.020416 0.002276 0.114333 0.145907 0.043084 0.108514 0.060431 0.025389 0.007510 0.006987 0.001282 0.000257 0.000059 0.000349 0.000039 0.240547 ]
3
Num Evals 433
GenUC: 2.883886e-03
GenUB: 1.717602e-02
Optimisation 1.193093e+01
Total Time: 1.204980e+01
