Clock Speed: 3.688622
Num threads: 4
Trotterisation: 3
Graph Size: 3
Num Qubits: 3
Space Dimension: 8
Run-Type: 0
Num_samples: 10
1 Isomorphic
Graph 1:
1 0 1 
1 1 1 
1 0 0 
Graph 2:
1 0 1 
1 1 1 
1 0 0 
Solution: 0 0
Gbest: 0.000000
Expectation: -2.895093
Final Parameters:
Gammas:
[ 2.970335 4.974730 0.696855 ]
Betas:
[ 2.688333 1.026105 2.612341 0.061128 ]
Aggregate results:
[ -1 3 5 1 8 ]
[ 0.351785 0.138184 0.232662 0.221419 0.055950 ]
5
Num Evals 300
GenUC: 1.348240e-04
GenUB: 7.679948e-06
Optimisation 5.702359e-02
Total Time: 5.737965e-02
2 Flipped
Graph 1:
1 0 1 
1 1 1 
1 0 0 
Graph 2:
1 0 1 
1 1 1 
0 0 1 
Solution: -2 0
Gbest: -2.000000
Expectation: -2.550113
Final Parameters:
Gammas:
[ 0.492521 5.771254 1.499324 ]
Betas:
[ 2.749833 0.973389 2.179090 0.095693 ]
Aggregate results:
[ 1 3 5 8 ]
[ 0.820211 0.110683 0.051665 0.017441 ]
5
Num Evals 600
GenUC: 6.698188e-06
GenUB: 5.883659e-06
Optimisation 5.462647e-02
Total Time: 5.482534e-02
3 Add 3
Graph 1:
1 0 1 
1 1 1 
1 0 0 
Graph 2:
1 1 1 
1 1 1 
1 1 0 
Solution: -2 0
Gbest: -2.000000
Expectation: -2.000000
Final Parameters:
Gammas:
[ 4.268209 6.141800 1.616879 ]
Betas:
[ 1.403443 2.767333 0.987866 1.307852 ]
Aggregate results:
[ 1 3 8 ]
[ 1.000000 0.000000 0.000000 ]
5
Num Evals 900
GenUC: 6.068498e-06
GenUB: 5.556183e-06
Optimisation 6.902788e-02
Total Time: 6.924454e-02
4 Rem 3
Graph 1:
1 0 1 
1 1 1 
1 0 0 
Graph 2:
1 0 1 
1 0 0 
1 0 0 
Solution: -2 0
Gbest: -2.000000
Expectation: -2.145845
Final Parameters:
Gammas:
[ 3.946609 3.742461 3.685655 ]
Betas:
[ 2.079370 1.543172 1.434457 0.829970 ]
Aggregate results:
[ 1 5 3 8 ]
[ 0.946546 0.014416 0.037017 0.002021 ]
5
Num Evals 1200
GenUC: 8.884148e-06
GenUB: 5.498092e-06
Optimisation 5.593340e-02
Total Time: 5.613883e-02
5 Add/Rem 3
Graph 1:
1 0 1 
1 1 1 
1 0 0 
Graph 2:
0 1 0 
1 0 1 
1 0 1 
Solution: -3 3
Gbest: -3.000000
Expectation: -3.285177
Final Parameters:
Gammas:
[ 2.861530 5.160521 0.343038 ]
Betas:
[ 0.168439 1.947560 0.776854 2.453942 ]
Aggregate results:
[ 4 6 2 8 ]
[ 0.056128 0.009502 0.911884 0.022486 ]
5
Num Evals 1500
GenUC: 6.903574e-06
GenUB: 5.471084e-06
Optimisation 5.357569e-02
Total Time: 5.376882e-02
