Clock Speed: 3.688231
Num threads: 4
Trotterisation: 2
Num Qubits: 3
Space Dimension: 8
Run-Type: 0
Num_samples: 2024
Optimiser Method: 20
1 Isomorphic
Graph 1:
1 0 0 
0 1 0 
1 1 0 
Graph 2:
1 0 0 
0 1 0 
1 1 0 
Solution: 9 0
Classic Expectation: 5.000000
Initial Expecation: 3.750000
Gbest: 9.000000
Expectation: 5.834943
Final Parameters:
Gammas:
[ 6.142405 5.912397 ]
Betas:
[ 2.125426 2.672141 ]
Aggregate results:
[ 9 3 0 ]
[ 0.496039 0.456865 0.047096 ]
5
Num Evals 1200
GenUC: 2.662477e-06
GenUB: 7.750932e-06
Optimisation 1.845980e-01
Total Time: 1.846244e-01
2 Flipped
Graph 1:
1 0 0 
0 1 0 
1 1 0 
Graph 2:
0 0 1 
0 1 0 
0 1 1 
Solution: 7 3
Classic Expectation: 5.000000
Initial Expecation: 3.750000
Gbest: 7.000000
Expectation: 5.671500
Final Parameters:
Gammas:
[ 5.984870 2.686654 ]
Betas:
[ 0.952205 1.512063 ]
Aggregate results:
[ 5 3 7 0 ]
[ 0.237721 0.124980 0.586851 0.050448 ]
5
Num Evals 1200
GenUC: 2.897170e-06
GenUB: 1.062173e-06
Optimisation 1.276761e-01
Total Time: 1.276817e-01
3 Add 3
Graph 1:
1 0 0 
0 1 0 
1 1 0 
Graph 2:
1 1 0 
0 1 0 
1 1 1 
Solution: 7 0
Classic Expectation: 5.000000
Initial Expecation: 3.750000
Gbest: 7.000000
Expectation: 4.972852
Final Parameters:
Gammas:
[ 4.010759 4.759705 ]
Betas:
[ 0.676629 2.767805 ]
Aggregate results:
[ 7 3 5 0 ]
[ 0.397836 0.179818 0.329710 0.092637 ]
5
Num Evals 1200
GenUC: 2.513407e-06
GenUB: 6.795162e-07
Optimisation 1.514992e-01
Total Time: 1.515038e-01
4 Rem 3
Graph 1:
1 0 0 
0 1 0 
1 1 0 
Graph 2:
0 0 0 
0 1 0 
0 1 0 
Solution: 7 0
Classic Expectation: 5.000000
Initial Expecation: 3.750000
Gbest: 7.000000
Expectation: 5.278539
Final Parameters:
Gammas:
[ 2.280971 1.888683 ]
Betas:
[ 0.705202 2.194154 ]
Aggregate results:
[ 7 3 5 0 ]
[ 0.369175 0.144115 0.452394 0.034316 ]
5
Num Evals 1200
GenUC: 2.509332e-06
GenUB: 6.296905e-07
Optimisation 1.825330e-01
Total Time: 1.825374e-01
5 Add/Rem 3
Graph 1:
1 0 0 
0 1 0 
1 1 0 
Graph 2:
0 0 1 
1 1 0 
1 0 0 
Solution: 5 0
Classic Expectation: 4.333333
Initial Expecation: 3.250000
Gbest: 5.000000
Expectation: 4.618544
Final Parameters:
Gammas:
[ 2.411463 5.757042 ]
Betas:
[ 0.756513 2.277197 ]
Aggregate results:
[ 5 3 0 ]
[ 0.853665 0.116740 0.029595 ]
5
Num Evals 1200
GenUC: 2.430053e-06
GenUB: 6.185146e-07
Optimisation 1.446265e-01
Total Time: 1.446307e-01
