Clock Speed: 3.688578
Num threads: 4
Trotterisation: 2
Num Qubits: 3
Space Dimension: 8
Run-Type: 0
Num_samples: 2024
Optimiser Method: 20
1 Isomorphic
Graph 1:
1 1 1 
1 0 1 
0 1 0 
Graph 2:
1 1 1 
1 0 1 
0 1 0 
Solution: 9 0
Classic Expectation: 6.000000
Initial Expecation: 4.500000
Gbest: 9.000000
Expectation: 6.342066
Final Parameters:
Gammas:
[ 2.694458 0.425531 ]
Betas:
[ 1.525332 0.784611 ]
Aggregate results:
[ 9 7 5 0 ]
[ 0.331986 0.045758 0.606778 0.015478 ]
5
Num Evals 1200
GenUC: 2.619054e-06
GenUB: 7.563154e-06
Optimisation 1.844569e-01
Total Time: 1.844873e-01
2 Flipped
Graph 1:
1 1 1 
1 0 1 
0 1 0 
Graph 2:
1 1 1 
1 0 1 
0 1 0 
Solution: 9 0
Classic Expectation: 6.000000
Initial Expecation: 4.500000
Gbest: 9.000000
Expectation: 6.752987
Final Parameters:
Gammas:
[ 4.389481 5.279663 ]
Betas:
[ 1.131366 2.355701 ]
Aggregate results:
[ 9 7 5 0 ]
[ 0.448996 0.002740 0.538568 0.009696 ]
5
Num Evals 1200
GenUC: 2.737041e-06
GenUB: 1.095643e-06
Optimisation 1.590695e-01
Total Time: 1.590750e-01
3 Add 3
Graph 1:
1 1 1 
1 0 1 
0 1 0 
Graph 2:
1 1 1 
1 1 1 
1 1 1 
Solution: 6 0
Classic Expectation: 6.000000
Initial Expecation: 4.500000
Gbest: 6.000000
Expectation: 6.000000
Final Parameters:
Gammas:
[ 0.852779 2.717366 ]
Betas:
[ 2.015106 2.753529 ]
Aggregate results:
[ 6 0 ]
[ 1.000000 0.000000 ]
5
Num Evals 1200
GenUC: 2.967019e-06
GenUB: 9.178184e-07
Optimisation 2.193792e-01
Total Time: 2.193845e-01
4 Rem 3
Graph 1:
1 1 1 
1 0 1 
0 1 0 
Graph 2:
0 0 1 
1 0 1 
0 1 0 
Solution: 7 0
Classic Expectation: 5.666667
Initial Expecation: 4.250000
Gbest: 7.000000
Expectation: 5.998647
Final Parameters:
Gammas:
[ 2.962544 5.301422 ]
Betas:
[ 0.875029 2.790035 ]
Aggregate results:
[ 7 5 0 ]
[ 0.499408 0.500558 0.000034 ]
5
Num Evals 1200
GenUC: 2.869056e-06
GenUB: 1.055130e-06
Optimisation 2.139312e-01
Total Time: 2.139370e-01
5 Add/Rem 3
Graph 1:
1 1 1 
1 0 1 
0 1 0 
Graph 2:
0 0 1 
0 0 1 
1 1 1 
Solution: 6 1
Classic Expectation: 5.333333
Initial Expecation: 4.000000
Gbest: 6.000000
Expectation: 5.756822
Final Parameters:
Gammas:
[ 3.144745 1.296210 ]
Betas:
[ 1.400293 0.782567 ]
Aggregate results:
[ 4 6 0 ]
[ 0.118239 0.880644 0.001117 ]
5
Num Evals 1200
GenUC: 2.748158e-06
GenUB: 8.597272e-07
Optimisation 1.323794e-01
Total Time: 1.323848e-01
