Clock Speed: 3.688637
Num threads: 4
Trotterisation: 5
Graph Size: 6
Num Qubits: 10
Space Dimension: 1024
Run-Type: 0
Num_samples: 10
1 Isomorphic
Graph 1:
0 1 1 1 1 0 
0 1 0 1 1 1 
0 0 1 1 0 0 
1 0 0 1 0 1 
0 1 1 0 0 1 
1 0 1 0 0 0 
Graph 2:
0 1 1 1 1 0 
0 1 0 1 1 1 
0 0 1 1 0 0 
1 0 0 1 0 1 
0 1 1 0 0 1 
1 0 1 0 0 0 
Solution: 0 0
Gbest: -14.000000
Expectation: -20.011098
Final Parameters:
Gammas:
[ 6.241540 2.864988 5.661128 1.707603 5.486401 ]
Betas:
[ 0.531170 2.245980 0.791606 1.641579 1.590100 1.671980 ]
Aggregate results:
[ -1 13 15 5 11 19 21 9 17 25 23 27 7 35 ]
[ 0.003037 0.114854 0.187309 0.005692 0.035254 0.155755 0.065311 0.023534 0.209415 0.013707 0.044654 0.013804 0.000665 0.127010 ]
5
Num Evals 600
GenUC: 2.991033e-04
GenUB: 1.959306e-04
Optimisation 1.377875e+00
Total Time: 1.380584e+00
2 Flipped
Graph 1:
0 1 1 1 1 0 
0 1 0 1 1 1 
0 0 1 1 0 0 
1 0 0 1 0 1 
0 1 1 0 0 1 
1 0 1 0 0 0 
Graph 2:
0 1 1 1 1 0 
1 1 1 0 1 0 
0 0 1 1 0 0 
1 0 1 0 0 1 
1 0 0 1 1 0 
0 0 0 1 0 1 
Solution: -10 126
Gbest: -14.000000
Expectation: -19.654608
Final Parameters:
Gammas:
[ 3.958847 2.041857 2.712366 1.659827 1.876254 ]
Betas:
[ 2.975591 0.111444 0.754855 3.064846 3.054793 2.116356 ]
Aggregate results:
[ 15 17 21 19 13 11 23 25 9 35 ]
[ 0.191629 0.228531 0.078397 0.188827 0.114927 0.048083 0.040375 0.003774 0.002917 0.102540 ]
5
Num Evals 1200
GenUC: 1.300281e-04
GenUB: 1.500522e-04
Optimisation 1.584332e+00
Total Time: 1.587305e+00
3 Add 6
Graph 1:
0 1 1 1 1 0 
0 1 0 1 1 1 
0 0 1 1 0 0 
1 0 0 1 0 1 
0 1 1 0 0 1 
1 0 1 0 0 0 
Graph 2:
0 1 1 1 1 0 
0 1 0 1 1 1 
0 0 1 1 1 0 
1 0 0 1 0 1 
0 1 1 0 0 1 
1 1 1 0 1 1 
Solution: -4 0
Gbest: -12.000000
Expectation: -22.146768
Final Parameters:
Gammas:
[ 4.307331 1.609973 4.266461 5.216609 3.338415 ]
Betas:
[ 1.191365 1.541367 0.838134 1.478792 2.236659 0.422727 ]
Aggregate results:
[ 3 15 5 13 19 21 23 17 27 9 25 11 35 ]
[ 0.000044 0.153664 0.001943 0.118281 0.147624 0.072244 0.020502 0.163365 0.003657 0.006762 0.007225 0.053365 0.251324 ]
5
Num Evals 1800
GenUC: 1.353454e-04
GenUB: 1.696039e-04
Optimisation 1.269039e+00
Total Time: 1.271464e+00
4 Rem 6
Graph 1:
0 1 1 1 1 0 
0 1 0 1 1 1 
0 0 1 1 0 0 
1 0 0 1 0 1 
0 1 1 0 0 1 
1 0 1 0 0 0 
Graph 2:
0 0 1 1 1 0 
0 1 0 0 1 1 
0 0 1 0 0 0 
1 0 0 0 0 1 
0 1 0 0 0 1 
1 0 1 0 0 0 
Solution: -5 0
Gbest: -11.000000
Expectation: -18.675959
Final Parameters:
Gammas:
[ 5.963687 6.254622 2.342061 0.984757 0.687103 ]
Betas:
[ 2.327417 2.007899 1.873062 0.127820 2.435381 3.018302 ]
Aggregate results:
[ 4 16 10 18 12 20 14 22 6 24 8 35 ]
[ 0.000848 0.188983 0.031851 0.084300 0.145069 0.060904 0.306308 0.033437 0.000373 0.011905 0.008097 0.127924 ]
5
Num Evals 2400
GenUC: 1.277758e-04
GenUB: 1.713791e-04
Optimisation 1.608476e+00
Total Time: 1.611465e+00
5 Add/Rem 6
Graph 1:
0 1 1 1 1 0 
0 1 0 1 1 1 
0 0 1 1 0 0 
1 0 0 1 0 1 
0 1 1 0 0 1 
1 0 1 0 0 0 
Graph 2:
0 1 0 1 1 0 
1 1 0 0 0 1 
0 0 1 0 1 0 
1 0 0 0 1 1 
0 1 1 0 0 1 
1 0 0 0 0 0 
Solution: -9 0
Gbest: -15.000000
Expectation: -18.779265
Final Parameters:
Gammas:
[ 6.219858 3.036026 2.921537 2.366937 3.503092 ]
Betas:
[ 2.963666 1.681597 0.805801 2.877995 0.236394 1.685989 ]
Aggregate results:
[ 8 18 16 20 12 24 14 10 22 26 35 ]
[ 0.023982 0.236405 0.205302 0.102213 0.083386 0.017044 0.171793 0.021995 0.065936 0.000039 0.071905 ]
5
Num Evals 3000
GenUC: 1.343655e-04
GenUB: 1.725346e-04
Optimisation 1.454644e+00
Total Time: 1.457334e+00
