Clock Speed: 3.688542
Num threads: 4
Trotterisation: 5
Graph Size: 6
Num Qubits: 10
Space Dimension: 1024
Run-Type: 0
Num_samples: 10
1 Isomorphic
Graph 1:
0 1 0 0 0 0 
0 0 0 1 1 0 
0 0 0 1 0 1 
0 0 0 0 0 0 
0 0 1 1 1 1 
1 0 1 0 0 1 
Graph 2:
0 1 0 0 0 0 
0 0 0 1 1 0 
0 0 0 1 0 1 
0 0 0 0 0 0 
0 0 1 1 1 1 
1 0 1 0 0 1 
Solution: 0 0
Gbest: -8.000000
Expectation: -15.199443
Final Parameters:
Gammas:
[ 6.211066 1.002951 2.871934 5.000248 3.099976 ]
Betas:
[ 3.067684 0.350650 1.601737 1.515588 3.131601 0.175620 ]
Aggregate results:
[ -1 7 11 9 13 15 17 21 19 23 5 35 ]
[ 0.004662 0.039067 0.154855 0.111656 0.302080 0.180718 0.095576 0.016858 0.031878 0.009823 0.002496 0.050332 ]
5
Num Evals 600
GenUC: 6.937532e-04
GenUB: 1.957341e-04
Optimisation 1.556148e+00
Total Time: 1.559361e+00
2 Flipped
Graph 1:
0 1 0 0 0 0 
0 0 0 1 1 0 
0 0 0 1 0 1 
0 0 0 0 0 0 
0 0 1 1 1 1 
1 0 1 0 0 1 
Graph 2:
0 0 0 0 1 0 
0 1 1 0 0 0 
1 0 1 0 0 0 
0 0 0 0 0 0 
1 1 1 1 0 0 
1 0 0 1 0 1 
Solution: -8 38
Gbest: -12.000000
Expectation: -20.153791
Final Parameters:
Gammas:
[ 5.366676 0.110961 1.405335 2.856457 2.571871 ]
Betas:
[ 0.948022 0.259862 0.004477 2.124014 0.797506 3.133403 ]
Aggregate results:
[ 15 13 11 17 9 7 19 21 23 35 ]
[ 0.196787 0.184959 0.136922 0.109224 0.028824 0.003930 0.094194 0.015259 0.000752 0.229150 ]
5
Num Evals 1200
GenUC: 1.194311e-04
GenUB: 1.522951e-04
Optimisation 1.215724e+00
Total Time: 1.217921e+00
3 Add 6
Graph 1:
0 1 0 0 0 0 
0 0 0 1 1 0 
0 0 0 1 0 1 
0 0 0 0 0 0 
0 0 1 1 1 1 
1 0 1 0 0 1 
Graph 2:
1 1 1 0 0 0 
0 1 0 1 1 0 
0 0 0 1 1 1 
0 0 0 0 0 1 
0 0 1 1 1 1 
1 0 1 1 0 1 
Solution: -6 0
Gbest: -12.000000
Expectation: -20.177354
Final Parameters:
Gammas:
[ 5.651960 5.322733 0.667494 1.990821 2.062641 ]
Betas:
[ 2.285595 2.633013 0.179464 1.819992 1.517302 3.117108 ]
Aggregate results:
[ 5 13 17 11 15 19 9 23 21 25 7 35 ]
[ 0.000215 0.145630 0.157337 0.062010 0.159788 0.184746 0.013699 0.010395 0.106336 0.007275 0.003499 0.149070 ]
5
Num Evals 1800
GenUC: 1.373981e-04
GenUB: 1.680799e-04
Optimisation 1.566060e+00
Total Time: 1.568928e+00
4 Rem 6
Graph 1:
0 1 0 0 0 0 
0 0 0 1 1 0 
0 0 0 1 0 1 
0 0 0 0 0 0 
0 0 1 1 1 1 
1 0 1 0 0 1 
Graph 2:
0 1 0 0 0 0 
0 0 0 1 1 0 
0 0 0 0 0 1 
0 0 0 0 0 0 
0 0 1 0 1 0 
0 0 1 0 0 1 
Solution: -4 0
Gbest: -10.000000
Expectation: -19.597668
Final Parameters:
Gammas:
[ 5.359044 2.850964 3.347936 3.110996 4.235377 ]
Betas:
[ 1.681349 0.440417 1.026344 1.239765 2.666972 1.830126 ]
Aggregate results:
[ 3 9 11 13 15 7 17 19 5 35 ]
[ 0.002960 0.056094 0.106693 0.274908 0.192205 0.006544 0.100586 0.024943 0.000119 0.234947 ]
5
Num Evals 2400
GenUC: 1.112795e-04
GenUB: 1.692899e-04
Optimisation 1.395587e+00
Total Time: 1.398125e+00
5 Add/Rem 6
Graph 1:
0 1 0 0 0 0 
0 0 0 1 1 0 
0 0 0 1 0 1 
0 0 0 0 0 0 
0 0 1 1 1 1 
1 0 1 0 0 1 
Graph 2:
0 0 0 0 0 1 
0 0 0 1 1 1 
0 1 0 1 0 1 
0 0 0 1 0 0 
1 0 1 0 1 0 
0 0 0 0 0 1 
Solution: -8 207
Gbest: -10.000000
Expectation: -18.823446
Final Parameters:
Gammas:
[ 2.919750 3.590325 0.328685 0.534241 3.531609 ]
Betas:
[ 1.111968 0.192677 2.946950 2.875717 0.836889 3.042229 ]
Aggregate results:
[ 9 13 15 11 17 19 21 7 35 ]
[ 0.060665 0.190008 0.257895 0.104844 0.143462 0.056698 0.008860 0.004693 0.172875 ]
5
Num Evals 3000
GenUC: 1.138370e-04
GenUB: 1.700526e-04
Optimisation 1.578297e+00
Total Time: 1.581032e+00
