Clock Speed: 3.689313
Num threads: 4
Trotterisation: 6
Graph Size: 3
Num Qubits: 3
Space Dimension: 8
Run-Type: 0
Num_samples: 10
1 Isomorphic
Graph 1:
0 0 1 
0 1 1 
1 1 0 
Graph 2:
0 0 1 
0 1 1 
1 1 0 
Solution: 0 0
Gbest: 0.000000
Expectation: -2.118781
Final Parameters:
Gammas:
[ 0.021183 0.526358 2.175541 0.846797 3.878453 5.306644 ]
Betas:
[ 1.623627 1.859944 2.086456 0.461556 0.365407 0.107453 0.083987 ]
Aggregate results:
[ -1 1 5 3 8 ]
[ 0.598923 0.107513 0.162619 0.050093 0.080852 ]
5
Num Evals 300
GenUC: 1.565401e-04
GenUB: 8.110073e-06
Optimisation 1.036892e-01
Total Time: 1.047212e-01
2 Flipped
Graph 1:
0 0 1 
0 1 1 
1 1 0 
Graph 2:
1 0 0 
1 1 0 
0 1 1 
Solution: -4 2
Gbest: -4.000000
Expectation: -4.462531
Final Parameters:
Gammas:
[ 0.171128 1.152689 3.193776 3.160062 4.774077 1.495618 ]
Betas:
[ 0.461079 1.699635 0.123036 1.707807 1.611408 1.656931 0.690459 ]
Aggregate results:
[ 5 3 8 ]
[ 0.095278 0.850327 0.054395 ]
5
Num Evals 600
GenUC: 8.804956e-06
GenUB: 5.706912e-06
Optimisation 1.064046e-01
Total Time: 1.067312e-01
3 Add 3
Graph 1:
0 0 1 
0 1 1 
1 1 0 
Graph 2:
1 0 1 
0 1 1 
1 1 0 
Solution: -1 0
Gbest: -1.000000
Expectation: -2.145347
Final Parameters:
Gammas:
[ 3.337451 3.309311 3.187754 0.697767 0.757593 3.391843 ]
Betas:
[ 2.454261 3.067368 1.959339 2.189853 1.655777 1.516708 1.784709 ]
Aggregate results:
[ 0 4 6 8 ]
[ 0.778962 0.111286 0.088907 0.020845 ]
5
Num Evals 900
GenUC: 8.519739e-06
GenUB: 5.501090e-06
Optimisation 1.030610e-01
Total Time: 1.034702e-01
4 Rem 3
Graph 1:
0 0 1 
0 1 1 
1 1 0 
Graph 2:
0 0 1 
0 1 0 
0 1 0 
Solution: -2 0
Gbest: -2.000000
Expectation: -2.862759
Final Parameters:
Gammas:
[ 6.043364 0.168751 1.768697 0.416500 3.627032 2.287783 ]
Betas:
[ 1.817460 1.184159 2.629489 0.030767 0.025912 1.609860 1.789040 ]
Aggregate results:
[ 1 3 5 8 ]
[ 0.661676 0.281718 0.032307 0.024299 ]
5
Num Evals 1200
GenUC: 8.047209e-06
GenUB: 5.608890e-06
Optimisation 9.774932e-02
Total Time: 9.808012e-02
5 Add/Rem 3
Graph 1:
0 0 1 
0 1 1 
1 1 0 
Graph 2:
1 0 0 
1 1 1 
1 0 0 
Solution: -4 0
Gbest: -4.000000
Expectation: -4.123344
Final Parameters:
Gammas:
[ 2.153280 0.280709 0.034250 0.617743 0.442879 3.361796 ]
Betas:
[ 1.680136 2.196112 1.796655 2.761510 0.085413 1.722254 1.685325 ]
Aggregate results:
[ 3 5 8 ]
[ 0.956537 0.031324 0.012139 ]
5
Num Evals 1500
GenUC: 8.455128e-06
GenUB: 5.674781e-06
Optimisation 1.005740e-01
Total Time: 1.009421e-01
