Clock Speed: 3.688699
Num threads: 4
Trotterisation: 6
Graph Size: 3
Num Qubits: 3
Space Dimension: 8
Run-Type: 0
Num_samples: 10
1 Isomorphic
Graph 1:
0 0 1 
0 0 1 
1 0 1 
Graph 2:
0 0 1 
0 0 1 
1 0 1 
Solution: 0 0
Gbest: 0.000000
Expectation: -1.602287
Final Parameters:
Gammas:
[ 0.257566 6.082481 0.247913 1.928723 0.156148 4.415420 ]
Betas:
[ 2.220402 0.119302 0.184123 1.737746 0.063912 1.971826 1.470999 ]
Aggregate results:
[ -1 1 5 7 3 8 ]
[ 0.576363 0.196252 0.069208 0.020716 0.121667 0.015793 ]
5
Num Evals 300
GenUC: 1.338814e-04
GenUB: 8.065515e-06
Optimisation 9.136418e-02
Total Time: 9.183001e-02
2 Flipped
Graph 1:
0 0 1 
0 0 1 
1 0 1 
Graph 2:
1 0 0 
1 0 0 
1 0 1 
Solution: -2 4
Gbest: -2.000000
Expectation: -3.540307
Final Parameters:
Gammas:
[ 4.243638 4.492111 3.467361 0.985432 2.259700 3.167182 ]
Betas:
[ 1.525962 1.678695 0.138095 0.415376 2.021066 2.519581 2.962710 ]
Aggregate results:
[ 3 5 7 1 8 ]
[ 0.152499 0.088470 0.027206 0.629226 0.102599 ]
5
Num Evals 600
GenUC: 6.622460e-06
GenUB: 5.442911e-06
Optimisation 1.063808e-01
Total Time: 1.072941e-01
3 Add 3
Graph 1:
0 0 1 
0 0 1 
1 0 1 
Graph 2:
1 1 1 
0 1 1 
1 0 1 
Solution: -3 0
Gbest: -3.000000
Expectation: -4.087965
Final Parameters:
Gammas:
[ 3.629586 3.200828 0.317447 3.878363 2.549278 5.230833 ]
Betas:
[ 1.813050 1.855259 1.660483 0.272649 1.607014 2.017027 1.836227 ]
Aggregate results:
[ 2 4 6 8 ]
[ 0.642283 0.261877 0.005415 0.090425 ]
5
Num Evals 900
GenUC: 8.820207e-06
GenUB: 5.824375e-06
Optimisation 3.023136e-01
Total Time: 3.026875e-01
4 Rem 3
Graph 1:
0 0 1 
0 0 1 
1 0 1 
Graph 2:
0 0 1 
0 0 0 
1 0 0 
Solution: -2 0
Gbest: -2.000000
Expectation: -3.018129
Final Parameters:
Gammas:
[ 3.725604 3.905668 3.892044 1.279787 0.153057 0.334830 ]
Betas:
[ 1.698802 1.958305 0.681404 0.269710 2.226321 0.228610 0.399032 ]
Aggregate results:
[ 1 3 5 8 ]
[ 0.625490 0.258426 0.103772 0.012313 ]
5
Num Evals 1200
GenUC: 8.353061e-06
GenUB: 6.010407e-06
Optimisation 9.167912e-02
Total Time: 9.214990e-02
5 Add/Rem 3
Graph 1:
0 0 1 
0 0 1 
1 0 1 
Graph 2:
1 1 1 
0 0 0 
0 1 0 
Solution: -4 1
Gbest: -4.000000
Expectation: -4.466041
Final Parameters:
Gammas:
[ 0.273636 0.364733 3.784102 0.495463 0.162001 0.379128 ]
Betas:
[ 0.445815 2.731276 1.807470 0.435107 1.813137 0.137679 2.363007 ]
Aggregate results:
[ 5 3 8 ]
[ 0.045065 0.879753 0.075182 ]
5
Num Evals 1500
GenUC: 6.397720e-06
GenUB: 5.448208e-06
Optimisation 1.047634e-01
Total Time: 1.051166e-01
