Clock Speed: 3.688824
Num threads: 4
Trotterisation: 5
Num Qubits: 5
Space Dimension: 32
Run-Type: 0
Num_samples: 6399
Optimiser Method: 0
1 Isomorphic
Graph 1:
0 0 0 1 
1 0 1 1 
0 1 1 0 
0 1 1 0 
Graph 2:
0 0 0 1 
1 0 1 1 
0 1 1 0 
0 1 1 0 
Solution: 16 0
Classic Expectation: 8.666667
Initial Expecation: 6.500000
Gbest: 16.000000
Expectation: 8.060722
Final Parameters:
Gammas:
[ 3.141593 5.235988 1.047198 1.047198 5.235988 ]
Betas:
[ 1.570796 0.523599 2.617994 1.570796 1.570796 ]
Aggregate results:
[ 16 10 8 4 6 12 0 ]
[ 0.018640 0.261464 0.407266 0.013571 0.114296 0.095805 0.088959 ]
3
Num Evals 73
GenUC: 8.400646e-06
GenUB: 8.426374e-06
Optimisation 3.192668e-02
Total Time: 3.196155e-02
2 Flipped
Graph 1:
0 0 0 1 
1 0 1 1 
0 1 1 0 
0 1 1 0 
Graph 2:
1 0 0 0 
1 1 0 1 
0 1 1 0 
0 1 1 0 
Solution: 12 0
Classic Expectation: 7.333333
Initial Expecation: 5.500000
Gbest: 12.000000
Expectation: 6.036133
Final Parameters:
Gammas:
[ 5.235988 3.141593 3.141593 3.141593 5.235988 ]
Betas:
[ 1.570796 1.570796 2.617994 1.570796 1.570796 ]
Aggregate results:
[ 12 8 6 10 0 4 ]
[ 0.058472 0.372559 0.223999 0.079712 0.212036 0.053223 ]
3
Num Evals 47
GenUC: 9.329524e-06
GenUB: 1.769920e-06
Optimisation 1.950839e-02
Total Time: 1.952142e-02
3 Add 4
Graph 1:
0 0 0 1 
1 0 1 1 
0 1 1 0 
0 1 1 0 
Graph 2:
1 0 1 1 
1 1 1 1 
0 1 1 0 
1 1 1 0 
Solution: 12 0
Classic Expectation: 8.000000
Initial Expecation: 6.000000
Gbest: 12.000000
Expectation: 6.704590
Final Parameters:
Gammas:
[ 1.047198 3.141593 3.141593 3.141593 3.141593 ]
Betas:
[ 1.570796 1.570796 1.570796 1.570796 0.523599 ]
Aggregate results:
[ 12 8 4 10 6 0 ]
[ 0.055908 0.401611 0.096191 0.173950 0.116089 0.156250 ]
3
Num Evals 29
GenUC: 9.117706e-06
GenUB: 1.514039e-06
Optimisation 1.343010e-02
Total Time: 1.344234e-02
4 Rem 4
Graph 1:
0 0 0 1 
1 0 1 1 
0 1 1 0 
0 1 1 0 
Graph 2:
0 0 0 1 
0 0 1 1 
0 1 0 0 
0 0 1 0 
Solution: 13 0
Classic Expectation: 8.833333
Initial Expecation: 6.625000
Gbest: 13.000000
Expectation: 8.652344
Final Parameters:
Gammas:
[ 1.047198 5.235988 3.141593 1.047198 1.047198 ]
Betas:
[ 1.570796 1.570796 0.523599 1.570796 1.570796 ]
Aggregate results:
[ 13 9 11 7 5 0 ]
[ 0.293091 0.226318 0.218750 0.052734 0.005981 0.203125 ]
3
Num Evals 59
GenUC: 8.870091e-06
GenUB: 1.278124e-06
Optimisation 4.517417e-02
Total Time: 4.518612e-02
5 Add/Rem 4
Graph 1:
0 0 0 1 
1 0 1 1 
0 1 1 0 
0 1 1 0 
Graph 2:
1 0 0 1 
0 0 0 1 
1 1 1 0 
0 1 1 1 
Solution: 11 0
Classic Expectation: 7.500000
Initial Expecation: 5.625000
Gbest: 11.000000
Expectation: 7.157271
Final Parameters:
Gammas:
[ 5.235988 3.839724 3.141593 2.908882 3.141593 ]
Betas:
[ 0.407243 2.617994 0.174533 1.570796 1.570796 ]
Aggregate results:
[ 11 7 9 5 3 0 ]
[ 0.190671 0.213021 0.351199 0.070597 0.018324 0.156189 ]
3
Num Evals 443
GenUC: 8.979230e-06
GenUB: 1.625565e-06
Optimisation 3.046180e-01
Total Time: 3.046309e-01
