Clock Speed: 3.689105
Num threads: 4
Trotterisation: 5
Num Qubits: 5
Space Dimension: 32
Run-Type: 0
Num_samples: 6399
Optimiser Method: 0
1 Isomorphic
Graph 1:
1 0 1 0 
0 0 0 0 
1 0 1 1 
1 1 1 1 
Graph 2:
1 0 1 0 
0 0 0 0 
1 0 1 1 
1 1 1 1 
Solution: 16 0
Classic Expectation: 8.500000
Initial Expecation: 6.375000
Gbest: 16.000000
Expectation: 7.661865
Final Parameters:
Gammas:
[ 3.141593 5.235988 5.235988 5.235988 5.235988 ]
Betas:
[ 1.570796 1.570796 1.570796 2.617994 1.570796 ]
Aggregate results:
[ 16 12 8 6 10 14 4 0 ]
[ 0.032715 0.119141 0.183960 0.086548 0.044922 0.176270 0.200195 0.156250 ]
3
Num Evals 43
GenUC: 8.581905e-06
GenUB: 8.923467e-06
Optimisation 1.812228e-02
Total Time: 1.816710e-02
2 Flipped
Graph 1:
1 0 1 0 
0 0 0 0 
1 0 1 1 
1 1 1 1 
Graph 2:
0 1 0 1 
0 0 0 0 
1 1 0 1 
1 1 1 1 
Solution: 12 1
Classic Expectation: 7.500000
Initial Expecation: 5.625000
Gbest: 12.000000
Expectation: 6.364746
Final Parameters:
Gammas:
[ 1.047198 5.235988 3.141593 5.235988 3.141593 ]
Betas:
[ 1.570796 1.570796 2.617994 1.570796 1.570796 ]
Aggregate results:
[ 10 12 8 6 2 4 0 ]
[ 0.320312 0.057983 0.118408 0.221436 0.062500 0.016235 0.203125 ]
3
Num Evals 53
GenUC: 9.191048e-06
GenUB: 1.798675e-06
Optimisation 2.238608e-02
Total Time: 2.239914e-02
3 Add 4
Graph 1:
1 0 1 0 
0 0 0 0 
1 0 1 1 
1 1 1 1 
Graph 2:
1 0 1 0 
0 1 1 0 
1 1 1 1 
1 1 1 1 
Solution: 13 0
Classic Expectation: 9.000000
Initial Expecation: 6.750000
Gbest: 13.000000
Expectation: 8.057412
Final Parameters:
Gammas:
[ 3.141593 1.047198 2.443461 3.141593 3.141593 ]
Betas:
[ 1.919862 1.570796 1.570796 2.617994 1.570796 ]
Aggregate results:
[ 13 11 7 9 5 0 ]
[ 0.058903 0.243957 0.130072 0.292732 0.212613 0.061725 ]
3
Num Evals 183
GenUC: 9.067240e-06
GenUB: 1.540466e-06
Optimisation 9.658586e-02
Total Time: 9.659828e-02
4 Rem 4
Graph 1:
1 0 1 0 
0 0 0 0 
1 0 1 1 
1 1 1 1 
Graph 2:
1 0 0 0 
0 0 0 0 
1 0 0 1 
1 1 0 0 
Solution: 12 0
Classic Expectation: 7.500000
Initial Expecation: 5.625000
Gbest: 12.000000
Expectation: 5.881348
Final Parameters:
Gammas:
[ 1.047198 1.047198 3.141593 3.141593 3.141593 ]
Betas:
[ 2.617994 1.570796 1.570796 1.570796 1.570796 ]
Aggregate results:
[ 12 10 8 6 4 0 ]
[ 0.038208 0.145386 0.283325 0.238159 0.068359 0.226562 ]
3
Num Evals 27
GenUC: 8.935225e-06
GenUB: 1.558627e-06
Optimisation 1.372382e-02
Total Time: 1.373752e-02
5 Add/Rem 4
Graph 1:
1 0 1 0 
0 0 0 0 
1 0 1 1 
1 1 1 1 
Graph 2:
0 0 1 0 
0 1 0 1 
1 1 1 0 
1 1 1 0 
Solution: 12 7
Classic Expectation: 8.000000
Initial Expecation: 6.000000
Gbest: 12.000000
Expectation: 7.128006
Final Parameters:
Gammas:
[ 5.934119 3.839724 3.839724 3.141593 3.141593 ]
Betas:
[ 2.617994 1.570796 1.570796 1.570796 1.570796 ]
Aggregate results:
[ 10 8 6 12 4 0 ]
[ 0.190508 0.296588 0.272228 0.099030 0.007123 0.134523 ]
3
Num Evals 155
GenUC: 8.741568e-06
GenUB: 1.380278e-06
Optimisation 6.814034e-02
Total Time: 6.815306e-02
