Clock Speed: 3.499263
Num threads: 16
Trotterisation: 2
Num Qubits: 13
Space Dimension: 8192
Run-Type: 0
Num_samples: 49
Optimiser Method: 0
1 Isomorphic
Graph 1:
0 1 1 0 0 1 0 
1 1 1 0 0 1 1 
1 0 0 1 0 0 0 
0 0 0 0 1 1 0 
0 1 1 1 0 1 0 
1 0 0 1 0 0 1 
0 0 0 0 0 1 1 
Graph 2:
0 1 1 0 0 1 0 
1 1 1 0 0 1 1 
1 0 0 1 0 0 0 
0 0 0 0 1 1 0 
0 1 1 1 0 1 0 
1 0 0 1 0 0 1 
0 0 0 0 0 1 1 
Solution: 49 0
Classic Expectation: 25.333333
Initial Expecation: 15.585938
Gbest: 49.000000
Expectation: 21.194003
Final Parameters:
Gammas:
[ 3.345551 2.939965 ]
Betas:
[ 2.482246 0.853273 ]
Aggregate results:
[ 49 37 33 29 35 41 31 25 39 27 21 19 23 43 17 15 0 ]
[ 0.000716 0.003633 0.039549 0.137663 0.019921 0.001713 0.102611 0.130760 0.002483 0.164333 0.051876 0.027896 0.089937 0.000879 0.012678 0.002312 0.211042 ]
3
Num Evals 1049
GenUC: 2.298590e-03
GenUB: 1.223709e-03
Optimisation 1.753234e+01
Total Time: 1.753587e+01
2 Flipped
Graph 1:
0 1 1 0 0 1 0 
1 1 1 0 0 1 1 
1 0 0 1 0 0 0 
0 0 0 0 1 1 0 
0 1 1 1 0 1 0 
1 0 0 1 0 0 1 
0 0 0 0 0 1 1 
Graph 2:
0 1 0 0 1 1 0 
1 1 0 0 1 1 1 
0 0 0 1 0 0 1 
0 1 1 0 0 0 0 
0 1 0 1 1 1 0 
1 0 0 1 0 0 1 
1 1 0 0 0 0 0 
Solution: 37 103
Classic Expectation: 25.333333
Initial Expecation: 15.585938
Gbest: 33.000000
Expectation: 21.329626
Final Parameters:
Gammas:
[ 3.335516 2.936173 ]
Betas:
[ 2.443462 0.887187 ]
Aggregate results:
[ 33 27 25 31 21 29 23 17 35 37 19 15 13 0 ]
[ 0.041806 0.171107 0.151135 0.090871 0.046055 0.154972 0.098380 0.008067 0.010993 0.000089 0.022737 0.003316 0.000293 0.200182 ]
3
Num Evals 741
GenUC: 2.884111e-03
GenUB: 1.238810e-03
Optimisation 1.238924e+01
Total Time: 1.239337e+01
3 Add 7
Graph 1:
0 1 1 0 0 1 0 
1 1 1 0 0 1 1 
1 0 0 1 0 0 0 
0 0 0 0 1 1 0 
0 1 1 1 0 1 0 
1 0 0 1 0 0 1 
0 0 0 0 0 1 1 
Graph 2:
0 1 1 0 0 1 0 
1 1 1 0 1 1 1 
1 0 1 1 0 0 0 
0 0 1 0 1 1 0 
0 1 1 1 1 1 0 
1 1 0 1 0 0 1 
1 0 1 0 0 1 1 
Solution: 42 0
Classic Expectation: 24.000000
Initial Expecation: 14.765625
Gbest: 32.000000
Expectation: 19.208253
Final Parameters:
Gammas:
[ 1.047198 5.235988 ]
Betas:
[ 0.174533 2.501639 ]
Aggregate results:
[ 42 32 30 26 34 36 28 22 24 20 18 16 40 14 12 38 10 0 ]
[ 0.000223 0.018521 0.053446 0.139771 0.005384 0.001443 0.101548 0.135691 0.168148 0.096212 0.048927 0.022435 0.000398 0.004794 0.000823 0.000208 0.000501 0.201527 ]
3
Num Evals 1113
GenUC: 2.889148e-03
GenUB: 1.059899e-03
Optimisation 1.817813e+01
Total Time: 1.818208e+01
4 Rem 7
Graph 1:
0 1 1 0 0 1 0 
1 1 1 0 0 1 1 
1 0 0 1 0 0 0 
0 0 0 0 1 1 0 
0 1 1 1 0 1 0 
1 0 0 1 0 0 1 
0 0 0 0 0 1 1 
Graph 2:
0 1 1 0 0 0 0 
0 0 0 0 0 0 1 
1 0 0 1 0 0 0 
0 0 0 0 1 1 0 
0 1 1 1 0 1 0 
0 0 0 1 0 0 1 
0 0 0 0 0 1 0 
Solution: 42 0
Classic Expectation: 26.666667
Initial Expecation: 16.406250
Gbest: 32.000000
Expectation: 21.501227
Final Parameters:
Gammas:
[ 0.064086 4.260423 ]
Betas:
[ 1.745332 2.094396 ]
Aggregate results:
[ 42 36 32 30 28 34 26 24 22 20 38 18 16 14 0 ]
[ 0.000034 0.005771 0.061796 0.120599 0.163819 0.020565 0.179744 0.139195 0.077021 0.027923 0.000348 0.006370 0.000640 0.000384 0.195791 ]
3
Num Evals 963
GenUC: 2.878642e-03
GenUB: 1.005496e-03
Optimisation 1.700328e+01
Total Time: 1.700717e+01
5 Add/Rem 7
Graph 1:
0 1 1 0 0 1 0 
1 1 1 0 0 1 1 
1 0 0 1 0 0 0 
0 0 0 0 1 1 0 
0 1 1 1 0 1 0 
1 0 0 1 0 0 1 
0 0 0 0 0 1 1 
Graph 2:
0 1 1 0 0 1 1 
0 0 0 0 0 1 1 
1 0 0 0 0 0 1 
0 0 0 0 1 1 1 
0 0 1 0 0 1 1 
0 0 0 1 1 0 1 
1 1 0 0 0 1 1 
Solution: 37 633
Classic Expectation: 25.666667
Initial Expecation: 15.791016
Gbest: 33.000000
Expectation: 20.854466
Final Parameters:
Gammas:
[ 3.353030 2.955319 ]
Betas:
[ 2.753743 0.919347 ]
Aggregate results:
[ 35 33 27 29 25 31 21 23 19 17 15 37 0 ]
[ 0.002935 0.018838 0.172571 0.114458 0.204215 0.055546 0.066820 0.146156 0.024097 0.004502 0.000332 0.000538 0.188991 ]
3
Num Evals 889
GenUC: 2.879740e-03
GenUB: 9.864233e-04
Optimisation 1.508862e+01
Total Time: 1.509248e+01
