Clock Speed: 3.498909
Num threads: 16
Trotterisation: 2
Num Qubits: 13
Space Dimension: 8192
Run-Type: 0
Num_samples: 49
Optimiser Method: 0
1 Isomorphic
Graph 1:
1 0 1 1 0 1 0 
1 1 0 0 1 0 0 
1 0 1 1 0 1 0 
1 1 1 1 0 1 1 
1 1 1 0 0 1 0 
0 1 0 0 0 1 0 
1 1 1 1 1 0 1 
Graph 2:
1 0 1 1 0 1 0 
1 1 0 0 1 0 0 
1 0 1 1 0 1 0 
1 1 1 1 0 1 1 
1 1 1 0 0 1 0 
0 1 0 0 0 1 0 
1 1 1 1 1 0 1 
Solution: 49 0
Classic Expectation: 26.476190
Initial Expecation: 16.289063
Gbest: 35.000000
Expectation: 21.920189
Final Parameters:
Gammas:
[ 3.357385 2.944583 ]
Betas:
[ 2.559817 0.764475 ]
Aggregate results:
[ 49 35 31 37 39 27 29 25 33 41 43 23 21 19 17 47 15 0 ]
[ 0.000468 0.025489 0.095964 0.009118 0.006141 0.154571 0.152421 0.142705 0.059645 0.001249 0.000315 0.085300 0.045048 0.013889 0.003599 0.000340 0.000675 0.203062 ]
3
Num Evals 909
GenUC: 2.349306e-03
GenUB: 1.184321e-03
Optimisation 1.602525e+01
Total Time: 1.602879e+01
2 Flipped
Graph 1:
1 0 1 1 0 1 0 
1 1 0 0 1 0 0 
1 0 1 1 0 1 0 
1 1 1 1 0 1 1 
1 1 1 0 0 1 0 
0 1 0 0 0 1 0 
1 1 1 1 1 0 1 
Graph 2:
0 1 0 1 1 0 1 
0 0 1 0 0 1 1 
0 1 0 1 1 0 1 
1 1 0 1 1 1 1 
0 1 0 0 1 1 1 
0 1 0 0 0 1 0 
1 0 1 1 1 1 1 
Solution: 39 4527
Classic Expectation: 25.238095
Initial Expecation: 15.527344
Gbest: 33.000000
Expectation: 21.806567
Final Parameters:
Gammas:
[ 3.120826 2.961908 ]
Betas:
[ 2.753742 0.780010 ]
Aggregate results:
[ 23 19 27 21 25 13 15 17 31 29 33 35 37 39 0 ]
[ 0.155744 0.025456 0.169921 0.085464 0.190859 0.000093 0.000523 0.007040 0.065232 0.117841 0.023224 0.005595 0.001107 0.000390 0.151511 ]
3
Num Evals 1319
GenUC: 5.458173e-03
GenUB: 1.414245e-03
Optimisation 2.358262e+01
Total Time: 2.358950e+01
3 Add 7
Graph 1:
1 0 1 1 0 1 0 
1 1 0 0 1 0 0 
1 0 1 1 0 1 0 
1 1 1 1 0 1 1 
1 1 1 0 0 1 0 
0 1 0 0 0 1 0 
1 1 1 1 1 0 1 
Graph 2:
1 1 1 1 1 1 1 
1 1 0 1 1 0 0 
1 1 1 1 0 1 0 
1 1 1 1 1 1 1 
1 1 1 0 0 1 0 
0 1 0 0 0 1 0 
1 1 1 1 1 0 1 
Solution: 43 0
Classic Expectation: 27.047619
Initial Expecation: 16.640625
Gbest: 33.000000
Expectation: 22.551891
Final Parameters:
Gammas:
[ 3.128664 2.947667 ]
Betas:
[ 2.779598 0.711060 ]
Aggregate results:
[ 43 31 29 33 37 27 25 39 35 23 21 19 41 17 0 ]
[ 0.000261 0.072842 0.163984 0.029861 0.001970 0.208617 0.185530 0.000583 0.010091 0.109406 0.051106 0.011255 0.000221 0.000551 0.153720 ]
3
Num Evals 1053
GenUC: 5.458367e-03
GenUB: 1.276483e-03
Optimisation 1.839509e+01
Total Time: 1.840183e+01
4 Rem 7
Graph 1:
1 0 1 1 0 1 0 
1 1 0 0 1 0 0 
1 0 1 1 0 1 0 
1 1 1 1 0 1 1 
1 1 1 0 0 1 0 
0 1 0 0 0 1 0 
1 1 1 1 1 0 1 
Graph 2:
1 0 0 1 0 1 0 
0 1 0 0 1 0 0 
1 0 1 1 0 1 0 
1 1 0 1 0 1 1 
1 1 1 0 0 0 0 
0 1 0 0 0 1 0 
1 1 0 1 1 0 0 
Solution: 43 0
Classic Expectation: 25.285714
Initial Expecation: 15.556641
Gbest: 33.000000
Expectation: 17.443393
Final Parameters:
Gammas:
[ 3.141593 1.047198 ]
Betas:
[ 2.617994 1.570796 ]
Aggregate results:
[ 43 33 27 29 35 23 31 25 21 37 19 17 15 13 0 ]
[ 0.000244 0.014467 0.131290 0.083616 0.005175 0.132191 0.040610 0.155078 0.075757 0.001099 0.042020 0.009617 0.001957 0.000435 0.306445 ]
3
Num Evals 15
GenUC: 5.454751e-03
GenUB: 1.350167e-03
Optimisation 2.680307e-01
Total Time: 2.748385e-01
5 Add/Rem 7
Graph 1:
1 0 1 1 0 1 0 
1 1 0 0 1 0 0 
1 0 1 1 0 1 0 
1 1 1 1 0 1 1 
1 1 1 0 0 1 0 
0 1 0 0 0 1 0 
1 1 1 1 1 0 1 
Graph 2:
1 0 1 1 1 0 0 
0 1 1 0 1 0 1 
1 0 1 1 0 1 0 
1 1 1 1 0 1 1 
1 1 1 0 0 1 0 
1 1 0 1 1 0 0 
1 0 1 1 1 0 1 
Solution: 41 1560
Classic Expectation: 26.047619
Initial Expecation: 16.025391
Gbest: 35.000000
Expectation: 21.674269
Final Parameters:
Gammas:
[ 3.349245 2.937559 ]
Betas:
[ 2.482246 0.853272 ]
Aggregate results:
[ 39 33 31 27 29 23 25 21 35 19 37 17 41 0 ]
[ 0.000836 0.038892 0.092404 0.182334 0.154652 0.094557 0.153213 0.051194 0.015849 0.014919 0.002082 0.003683 0.000677 0.194708 ]
3
Num Evals 1247
GenUC: 5.460635e-03
GenUB: 1.340802e-03
Optimisation 2.189963e+01
Total Time: 2.190643e+01
