Clock Speed: 3.688941
Num threads: 4
Trotterisation: 2
Graph Size: 7
Num Qubits: 13
Space Dimension: 8192
Run-Type: 0
Num_samples: 10
1 Isomorphic
Graph 1:
1 1 0 1 1 1 1 
1 1 1 1 1 1 0 
1 0 0 1 0 1 1 
0 1 0 0 0 0 0 
1 1 0 1 1 0 0 
1 0 1 1 0 0 0 
1 0 1 1 0 1 1 
Graph 2:
1 1 0 1 1 1 1 
1 1 1 1 1 1 0 
1 0 0 1 0 1 1 
0 1 0 0 0 0 0 
1 1 0 1 1 0 0 
1 0 1 1 0 0 0 
1 0 1 1 0 1 1 
Solution: 0 0
Gbest: -16.000000
Expectation: -23.865877
Final Parameters:
Gammas:
[ 3.324961 3.510623 ]
Betas:
[ 0.575295 2.886663 2.973554 ]
Aggregate results:
[ -1 11 15 17 9 19 21 13 23 27 25 5 29 31 3 33 7 35 48 ]
[ 0.000831 0.021299 0.135322 0.196911 0.003315 0.171432 0.102083 0.062259 0.042786 0.037682 0.031875 0.000430 0.035866 0.015235 0.000419 0.004872 0.001066 0.000821 0.135495 ]
3
Num Evals 477
GenUC: 1.563486e-03
GenUB: 1.984988e-03
Optimisation 3.879779e+00
Total Time: 3.891809e+00
2 Flipped
Graph 1:
1 1 0 1 1 1 1 
1 1 1 1 1 1 0 
1 0 0 1 0 1 1 
0 1 0 0 0 0 0 
1 1 0 1 1 0 0 
1 0 1 1 0 0 0 
1 0 1 1 0 1 1 
Graph 2:
1 1 1 1 0 1 1 
0 1 1 1 1 1 1 
1 1 0 1 0 0 1 
0 0 0 0 0 1 0 
0 0 1 1 0 1 1 
0 0 0 1 1 0 1 
1 1 0 1 1 0 1 
Solution: -10 2688
Gbest: -18.000000
Expectation: -31.251157
Final Parameters:
Gammas:
[ 4.551214 6.177800 ]
Betas:
[ 0.834601 2.168515 2.254268 ]
Aggregate results:
[ 21 17 23 27 25 29 31 15 19 13 11 33 9 35 48 ]
[ 0.122393 0.049457 0.147943 0.081143 0.121417 0.040430 0.014962 0.022957 0.083467 0.009208 0.003363 0.002535 0.000673 0.000328 0.299724 ]
3
Num Evals 807
GenUC: 1.204694e-03
GenUB: 1.842895e-03
Optimisation 2.550313e+00
Total Time: 2.561059e+00
3 Add 7
Graph 1:
1 1 0 1 1 1 1 
1 1 1 1 1 1 0 
1 0 0 1 0 1 1 
0 1 0 0 0 0 0 
1 1 0 1 1 0 0 
1 0 1 1 0 0 0 
1 0 1 1 0 1 1 
Graph 2:
1 1 1 1 1 1 1 
1 1 1 1 1 1 0 
1 0 0 1 1 1 1 
1 1 0 1 0 0 0 
1 1 0 1 1 1 0 
1 0 1 1 0 0 1 
1 0 1 1 0 1 1 
Solution: -6 0
Gbest: -16.000000
Expectation: -29.684530
Final Parameters:
Gammas:
[ 5.734681 5.348195 ]
Betas:
[ 1.855886 1.903637 1.458774 ]
Aggregate results:
[ 5 13 15 19 11 17 21 23 25 9 27 29 31 48 ]
[ 0.000298 0.009579 0.050552 0.143191 0.001295 0.120364 0.113920 0.100845 0.110613 0.000638 0.051323 0.006081 0.000482 0.290820 ]
3
Num Evals 1128
GenUC: 1.178604e-03
GenUB: 1.792241e-03
Optimisation 2.542816e+00
Total Time: 2.553458e+00
4 Rem 7
Graph 1:
1 1 0 1 1 1 1 
1 1 1 1 1 1 0 
1 0 0 1 0 1 1 
0 1 0 0 0 0 0 
1 1 0 1 1 0 0 
1 0 1 1 0 0 0 
1 0 1 1 0 1 1 
Graph 2:
1 1 0 1 1 1 1 
0 0 1 1 1 1 0 
1 0 0 1 0 1 1 
0 0 0 0 0 0 0 
1 1 0 1 1 0 0 
1 0 1 1 0 0 0 
0 0 1 1 0 0 1 
Solution: -5 0
Gbest: -19.000000
Expectation: -26.764048
Final Parameters:
Gammas:
[ 3.350328 3.115218 ]
Betas:
[ 0.107876 2.610979 0.944768 ]
Aggregate results:
[ 4 12 18 16 14 20 22 24 28 26 30 8 32 34 10 48 ]
[ 0.000366 0.008569 0.074905 0.043705 0.026585 0.116716 0.161680 0.162108 0.095167 0.146764 0.036071 0.000751 0.008559 0.001222 0.000892 0.115939 ]
5
Num Evals 1828
GenUC: 1.143931e-03
GenUB: 1.652131e-03
Optimisation 5.239849e+00
Total Time: 5.248754e+00
5 Add/Rem 7
Graph 1:
1 1 0 1 1 1 1 
1 1 1 1 1 1 0 
1 0 0 1 0 1 1 
0 1 0 0 0 0 0 
1 1 0 1 1 0 0 
1 0 1 1 0 0 0 
1 0 1 1 0 1 1 
Graph 2:
1 1 1 1 0 1 1 
0 1 0 1 0 1 0 
1 1 0 1 1 1 1 
0 1 0 1 0 0 0 
1 1 0 1 1 0 0 
0 1 0 1 0 1 0 
0 1 1 1 0 1 1 
Solution: -12 1
Gbest: -18.000000
Expectation: -27.884405
Final Parameters:
Gammas:
[ 3.448193 2.812542 ]
Betas:
[ 1.221166 2.030448 1.538557 ]
Aggregate results:
[ 13 11 15 21 23 19 17 29 27 25 31 33 48 ]
[ 0.001856 0.000173 0.019317 0.178527 0.163029 0.145066 0.074433 0.031613 0.079884 0.111891 0.008031 0.000548 0.185631 ]
5
Num Evals 2528
GenUC: 1.162358e-03
GenUB: 1.796174e-03
Optimisation 5.168924e+00
Total Time: 5.179332e+00
