Clock Speed: 3.498573
Num threads: 16
Trotterisation: 2
Num Qubits: 13
Space Dimension: 8192
Run-Type: 0
Num_samples: 49
Optimiser Method: 0
1 Isomorphic
Graph 1:
0 0 0 0 1 0 1 
0 1 1 0 1 1 1 
0 1 0 1 0 1 1 
0 0 1 1 0 0 1 
1 1 0 0 0 0 1 
0 1 1 0 0 0 0 
1 1 1 1 1 0 1 
Graph 2:
0 0 0 0 1 0 1 
0 1 1 0 1 1 1 
0 1 0 1 0 1 1 
0 0 1 1 0 0 1 
1 1 0 0 0 0 1 
0 1 1 0 0 0 0 
1 1 1 1 1 0 1 
Solution: 49 0
Classic Expectation: 24.619048
Initial Expecation: 15.146484
Gbest: 39.000000
Expectation: 21.132468
Final Parameters:
Gammas:
[ 3.324026 3.144944 ]
Betas:
[ 2.443461 0.851357 ]
Aggregate results:
[ 49 35 37 31 39 21 23 25 33 29 27 19 41 17 15 13 43 11 9 7 45 0 ]
[ 0.000584 0.047583 0.013771 0.117444 0.011502 0.054713 0.053954 0.111701 0.061806 0.115853 0.111036 0.021762 0.002637 0.021344 0.011345 0.006163 0.001675 0.002457 0.000997 0.000579 0.000289 0.230805 ]
3
Num Evals 1403
GenUC: 2.404448e-03
GenUB: 1.271450e-03
Optimisation 2.362482e+01
Total Time: 2.362851e+01
2 Flipped
Graph 1:
0 0 0 0 1 0 1 
0 1 1 0 1 1 1 
0 1 0 1 0 1 1 
0 0 1 1 0 0 1 
1 1 0 0 0 0 1 
0 1 1 0 0 0 0 
1 1 1 1 1 0 1 
Graph 2:
1 0 1 0 0 0 0 
1 1 1 0 1 1 0 
1 1 0 1 0 1 0 
1 0 0 1 1 0 0 
1 0 0 0 0 1 1 
0 0 0 0 1 1 0 
1 0 1 1 1 1 1 
Solution: 35 1407
Classic Expectation: 24.238095
Initial Expecation: 14.912109
Gbest: 33.000000
Expectation: 20.327481
Final Parameters:
Gammas:
[ 3.355461 2.921674 ]
Betas:
[ 2.443462 0.890460 ]
Aggregate results:
[ 29 25 23 21 19 17 27 33 31 35 0 ]
[ 0.105059 0.183493 0.149034 0.084580 0.036305 0.007481 0.163808 0.022455 0.047123 0.001369 0.199295 ]
3
Num Evals 1139
GenUC: 2.838566e-03
GenUB: 1.288143e-03
Optimisation 1.927332e+01
Total Time: 1.927744e+01
3 Add 7
Graph 1:
0 0 0 0 1 0 1 
0 1 1 0 1 1 1 
0 1 0 1 0 1 1 
0 0 1 1 0 0 1 
1 1 0 0 0 0 1 
0 1 1 0 0 0 0 
1 1 1 1 1 0 1 
Graph 2:
0 1 1 1 1 1 1 
1 1 1 1 1 1 1 
1 1 1 1 1 1 1 
1 1 1 1 0 0 1 
1 1 1 0 0 0 1 
1 1 1 0 0 0 1 
1 1 1 1 1 1 1 
Solution: 34 0
Classic Expectation: 25.142857
Initial Expecation: 15.468750
Gbest: 34.000000
Expectation: 17.359301
Final Parameters:
Gammas:
[ 1.047198 5.235988 ]
Betas:
[ 1.570796 0.523599 ]
Aggregate results:
[ 34 24 28 32 22 26 30 18 20 16 0 ]
[ 0.007577 0.124922 0.158303 0.029284 0.111083 0.092421 0.068256 0.041205 0.051469 0.004279 0.311201 ]
3
Num Evals 19
GenUC: 2.839543e-03
GenUB: 1.191291e-03
Optimisation 3.221967e-01
Total Time: 3.262296e-01
4 Rem 7
Graph 1:
0 0 0 0 1 0 1 
0 1 1 0 1 1 1 
0 1 0 1 0 1 1 
0 0 1 1 0 0 1 
1 1 0 0 0 0 1 
0 1 1 0 0 0 0 
1 1 1 1 1 0 1 
Graph 2:
0 0 0 0 0 0 0 
0 0 0 0 0 0 1 
0 0 0 0 0 1 1 
0 0 0 1 0 0 1 
0 0 0 0 0 0 1 
0 0 1 0 0 0 0 
0 1 1 1 1 0 1 
Solution: 36 0
Classic Expectation: 24.190476
Initial Expecation: 14.882813
Gbest: 32.000000
Expectation: 19.240745
Final Parameters:
Gammas:
[ 6.200249 5.453021 ]
Betas:
[ 0.465420 2.094398 ]
Aggregate results:
[ 36 26 28 22 34 24 20 30 16 18 32 14 12 0 ]
[ 0.004093 0.154962 0.061614 0.145263 0.015878 0.099013 0.110263 0.080281 0.036856 0.051887 0.029649 0.006786 0.003840 0.199613 ]
3
Num Evals 767
GenUC: 2.844857e-03
GenUB: 1.146467e-03
Optimisation 1.217923e+01
Total Time: 1.218323e+01
5 Add/Rem 7
Graph 1:
0 0 0 0 1 0 1 
0 1 1 0 1 1 1 
0 1 0 1 0 1 1 
0 0 1 1 0 0 1 
1 1 0 0 0 0 1 
0 1 1 0 0 0 0 
1 1 1 1 1 0 1 
Graph 2:
1 1 1 1 0 1 0 
1 0 0 1 1 0 1 
1 0 0 0 1 1 0 
1 1 0 1 0 0 1 
0 1 1 0 0 0 1 
1 0 1 0 0 0 1 
0 1 0 1 1 1 1 
Solution: 43 2075
Classic Expectation: 24.714286
Initial Expecation: 15.205078
Gbest: 37.000000
Expectation: 21.451512
Final Parameters:
Gammas:
[ 3.326899 3.154521 ]
Betas:
[ 2.443461 0.848963 ]
Aggregate results:
[ 21 15 25 23 19 27 31 17 13 29 33 9 11 35 37 39 43 41 0 ]
[ 0.028739 0.012184 0.078523 0.077123 0.028820 0.143455 0.102229 0.014887 0.007359 0.140564 0.087334 0.001017 0.001895 0.029701 0.021287 0.003368 0.000530 0.000487 0.220499 ]
3
Num Evals 1061
GenUC: 2.850442e-03
GenUB: 1.088797e-03
Optimisation 1.774419e+01
Total Time: 1.774814e+01
