Clock Speed: 3.498585
Num threads: 16
Trotterisation: 2
Num Qubits: 13
Space Dimension: 8192
Run-Type: 0
Num_samples: 49
Optimiser Method: 0
1 Isomorphic
Graph 1:
0 0 1 1 1 1 0 
0 1 1 1 0 1 1 
0 1 0 0 0 1 1 
0 0 1 1 1 1 0 
1 1 0 1 0 1 0 
1 0 1 0 0 0 0 
1 1 1 1 0 1 0 
Graph 2:
0 0 1 1 1 1 0 
0 1 1 1 0 1 1 
0 1 0 0 0 1 1 
0 0 1 1 1 1 0 
1 1 0 1 0 1 0 
1 0 1 0 0 0 0 
1 1 1 1 0 1 0 
Solution: 49 0
Classic Expectation: 25.904762
Initial Expecation: 15.937500
Gbest: 33.000000
Expectation: 22.253828
Final Parameters:
Gammas:
[ 3.118696 2.961565 ]
Betas:
[ 2.753743 0.805871 ]
Aggregate results:
[ 49 37 35 31 39 27 25 33 23 29 21 41 19 15 17 43 0 ]
[ 0.000171 0.005078 0.013546 0.072591 0.002300 0.178881 0.172950 0.029927 0.137753 0.128255 0.080080 0.000475 0.022122 0.000074 0.004856 0.000221 0.150722 ]
3
Num Evals 831
GenUC: 2.247036e-03
GenUB: 1.318702e-03
Optimisation 1.469284e+01
Total Time: 1.469642e+01
2 Flipped
Graph 1:
0 0 1 1 1 1 0 
0 1 1 1 0 1 1 
0 1 0 0 0 1 1 
0 0 1 1 1 1 0 
1 1 0 1 0 1 0 
1 0 1 0 0 0 0 
1 1 1 1 0 1 0 
Graph 2:
0 1 1 1 1 0 0 
1 1 0 1 1 1 0 
1 1 0 0 0 1 0 
0 1 1 1 1 0 0 
0 1 0 1 0 1 1 
0 0 0 0 1 0 1 
0 1 0 1 1 1 1 
Solution: 39 566
Classic Expectation: 25.285714
Initial Expecation: 15.556641
Gbest: 39.000000
Expectation: 21.151554
Final Parameters:
Gammas:
[ 3.345851 2.932898 ]
Betas:
[ 2.482246 0.853273 ]
Aggregate results:
[ 29 25 23 19 27 21 17 31 37 33 35 39 13 15 0 ]
[ 0.128288 0.149660 0.103688 0.030267 0.162920 0.061906 0.007963 0.088514 0.005043 0.041828 0.013295 0.002214 0.000311 0.001935 0.202168 ]
3
Num Evals 1245
GenUC: 2.846949e-03
GenUB: 1.031321e-03
Optimisation 2.172102e+01
Total Time: 2.172490e+01
3 Add 7
Graph 1:
0 0 1 1 1 1 0 
0 1 1 1 0 1 1 
0 1 0 0 0 1 1 
0 0 1 1 1 1 0 
1 1 0 1 0 1 0 
1 0 1 0 0 0 0 
1 1 1 1 0 1 0 
Graph 2:
1 0 1 1 1 1 0 
1 1 1 1 0 1 1 
0 1 0 0 0 1 1 
0 0 1 1 1 1 1 
1 1 0 1 1 1 0 
1 0 1 0 0 1 1 
1 1 1 1 0 1 0 
Solution: 43 0
Classic Expectation: 25.190476
Initial Expecation: 15.498047
Gbest: 29.000000
Expectation: 21.440865
Final Parameters:
Gammas:
[ 3.120495 2.947667 ]
Betas:
[ 2.753743 0.775701 ]
Aggregate results:
[ 43 35 29 27 33 25 23 31 21 37 19 17 39 15 0 ]
[ 0.000144 0.004814 0.106280 0.163080 0.021764 0.188357 0.169809 0.050385 0.095040 0.001117 0.037307 0.006387 0.000240 0.001482 0.153793 ]
3
Num Evals 833
GenUC: 2.865312e-03
GenUB: 1.152685e-03
Optimisation 1.445610e+01
Total Time: 1.446012e+01
4 Rem 7
Graph 1:
0 0 1 1 1 1 0 
0 1 1 1 0 1 1 
0 1 0 0 0 1 1 
0 0 1 1 1 1 0 
1 1 0 1 0 1 0 
1 0 1 0 0 0 0 
1 1 1 1 0 1 0 
Graph 2:
0 0 1 1 1 0 0 
0 1 1 1 0 1 1 
0 1 0 0 0 0 1 
0 0 1 0 1 1 0 
0 1 0 1 0 1 0 
0 0 1 0 0 0 0 
0 1 1 1 0 0 0 
Solution: 42 0
Classic Expectation: 25.190476
Initial Expecation: 15.498047
Gbest: 32.000000
Expectation: 16.850962
Final Parameters:
Gammas:
[ 1.047198 5.235988 ]
Betas:
[ 1.570796 0.523599 ]
Aggregate results:
[ 42 34 32 28 26 30 38 22 24 36 20 18 16 14 12 0 ]
[ 0.000069 0.004840 0.022783 0.110601 0.144957 0.056185 0.000506 0.102286 0.154854 0.001386 0.048145 0.017600 0.004505 0.000547 0.000658 0.330080 ]
3
Num Evals 19
GenUC: 2.783832e-03
GenUB: 1.167054e-03
Optimisation 3.320803e-01
Total Time: 3.360332e-01
5 Add/Rem 7
Graph 1:
0 0 1 1 1 1 0 
0 1 1 1 0 1 1 
0 1 0 0 0 1 1 
0 0 1 1 1 1 0 
1 1 0 1 0 1 0 
1 0 1 0 0 0 0 
1 1 1 1 0 1 0 
Graph 2:
0 1 1 0 1 1 0 
0 1 1 1 1 1 1 
0 1 1 0 0 0 1 
0 0 1 1 1 0 1 
1 1 1 0 0 1 1 
1 0 1 0 0 0 0 
1 0 0 1 0 1 1 
Solution: 36 0
Classic Expectation: 24.857143
Initial Expecation: 15.292969
Gbest: 34.000000
Expectation: 20.280911
Final Parameters:
Gammas:
[ 5.961253 0.321400 ]
Betas:
[ 1.435022 0.862822 ]
Aggregate results:
[ 36 32 30 34 28 26 24 22 20 18 16 14 0 ]
[ 0.001285 0.019231 0.064563 0.005396 0.126988 0.179518 0.176659 0.137609 0.069010 0.026540 0.008676 0.000844 0.183680 ]
3
Num Evals 1295
GenUC: 2.806136e-03
GenUB: 1.281364e-03
Optimisation 2.152701e+01
Total Time: 2.153110e+01
