Clock Speed: 3.688926
Num threads: 4
Trotterisation: 3
Num Qubits: 5
Space Dimension: 32
Run-Type: 0
Num_samples: 6399
Optimiser Method: 29
1 Isomorphic
Graph 1:
1 0 0 0 
1 1 0 1 
0 1 0 1 
0 0 0 1 
Graph 2:
1 0 0 0 
1 1 0 1 
0 1 0 1 
0 0 0 1 
Solution: 16 0
Classic Expectation: 9.166667
Initial Expecation: 6.875000
Gbest: 16.000000
Expectation: 11.041165
Final Parameters:
Gammas:
[ 3.282971 3.384352 2.346507 ]
Betas:
[ 0.804950 1.895580 1.526654 ]
Aggregate results:
[ 16 8 10 12 6 14 0 ]
[ 0.161661 0.140784 0.419334 0.054149 0.022110 0.168038 0.033924 ]
3
Num Evals 1013
GenUC: 8.299015e-06
GenUB: 1.005305e-05
Optimisation 2.431729e-01
Total Time: 2.432202e-01
2 Flipped
Graph 1:
1 0 0 0 
1 1 0 1 
0 1 0 1 
0 0 0 1 
Graph 2:
0 0 0 1 
1 0 1 1 
1 0 1 0 
1 0 0 0 
Solution: 10 2
Classic Expectation: 7.500000
Initial Expecation: 5.625000
Gbest: 10.000000
Expectation: 7.426800
Final Parameters:
Gammas:
[ 4.874141 3.046199 1.133668 ]
Betas:
[ 2.160319 2.798134 2.561639 ]
Aggregate results:
[ 6 8 10 4 0 ]
[ 0.172179 0.208769 0.462444 0.024785 0.131824 ]
3
Num Evals 1323
GenUC: 9.326031e-06
GenUB: 1.708861e-06
Optimisation 4.198144e-01
Total Time: 4.198280e-01
3 Add 4
Graph 1:
1 0 0 0 
1 1 0 1 
0 1 0 1 
0 0 0 1 
Graph 2:
1 1 0 0 
1 1 0 1 
1 1 0 1 
0 1 0 1 
Solution: 13 0
Classic Expectation: 8.166667
Initial Expecation: 6.125000
Gbest: 13.000000
Expectation: 6.446880
Final Parameters:
Gammas:
[ 4.712389 3.141593 0.000000 ]
Betas:
[ 2.096871 1.664716 1.492910 ]
Aggregate results:
[ 13 7 9 5 11 0 ]
[ 0.029598 0.370306 0.124513 0.022011 0.203572 0.250000 ]
3
Num Evals 161
GenUC: 9.350071e-06
GenUB: 1.455948e-06
Optimisation 4.249223e-02
Total Time: 4.250525e-02
4 Rem 4
Graph 1:
1 0 0 0 
1 1 0 1 
0 1 0 1 
0 0 0 1 
Graph 2:
1 0 0 0 
0 0 0 0 
0 1 0 1 
0 0 0 1 
Solution: 13 0
Classic Expectation: 9.333333
Initial Expecation: 7.000000
Gbest: 13.000000
Expectation: 9.668871
Final Parameters:
Gammas:
[ 4.692832 4.222599 0.701671 ]
Betas:
[ 1.109533 1.817892 1.893908 ]
Aggregate results:
[ 13 7 11 9 0 ]
[ 0.105726 0.155898 0.530248 0.152270 0.055859 ]
3
Num Evals 728
GenUC: 8.573697e-06
GenUB: 1.369684e-06
Optimisation 1.878321e-01
Total Time: 1.878435e-01
5 Add/Rem 4
Graph 1:
1 0 0 0 
1 1 0 1 
0 1 0 1 
0 0 0 1 
Graph 2:
0 0 0 1 
1 0 0 0 
0 1 0 1 
0 1 0 0 
Solution: 10 0
Classic Expectation: 7.333333
Initial Expecation: 5.500000
Gbest: 10.000000
Expectation: 8.156192
Final Parameters:
Gammas:
[ 2.988101 2.876891 2.090971 ]
Betas:
[ 2.361371 1.314563 1.470632 ]
Aggregate results:
[ 10 8 6 4 0 ]
[ 0.206538 0.701677 0.074393 0.007761 0.009632 ]
3
Num Evals 892
GenUC: 9.002048e-06
GenUB: 1.248787e-06
Optimisation 2.319824e-01
Total Time: 2.319943e-01
