Clock Speed: 3.688314
Num threads: 4
Trotterisation: 3
Num Qubits: 5
Space Dimension: 32
Run-Type: 0
Num_samples: 6399
Optimiser Method: 29
1 Isomorphic
Graph 1:
0 0 0 1 
1 0 1 1 
1 1 1 0 
0 1 0 0 
Graph 2:
0 0 0 1 
1 0 1 1 
1 1 1 0 
0 1 0 0 
Solution: 16 0
Classic Expectation: 8.666667
Initial Expecation: 6.500000
Gbest: 16.000000
Expectation: 9.890155
Final Parameters:
Gammas:
[ 2.979810 2.379451 4.260640 ]
Betas:
[ 2.597940 1.387468 1.493803 ]
Aggregate results:
[ 16 10 6 8 0 ]
[ 0.065151 0.797902 0.057702 0.065313 0.013932 ]
3
Num Evals 1195
GenUC: 8.732721e-06
GenUB: 9.215728e-06
Optimisation 3.220505e-01
Total Time: 3.220886e-01
2 Flipped
Graph 1:
0 0 0 1 
1 0 1 1 
1 1 1 0 
0 1 0 0 
Graph 2:
1 0 0 0 
1 1 0 1 
0 1 1 1 
0 0 1 0 
Solution: 10 2
Classic Expectation: 7.333333
Initial Expecation: 5.500000
Gbest: 10.000000
Expectation: 7.773668
Final Parameters:
Gammas:
[ 3.346543 3.845194 2.251589 ]
Betas:
[ 1.971021 1.789286 0.100089 ]
Aggregate results:
[ 8 6 10 0 ]
[ 0.214317 0.257726 0.451278 0.076679 ]
3
Num Evals 958
GenUC: 9.088370e-06
GenUB: 1.759909e-06
Optimisation 2.185917e-01
Total Time: 2.186045e-01
3 Add 4
Graph 1:
0 0 0 1 
1 0 1 1 
1 1 1 0 
0 1 0 0 
Graph 2:
1 1 0 1 
1 0 1 1 
1 1 1 0 
0 1 1 1 
Solution: 12 0
Classic Expectation: 8.000000
Initial Expecation: 6.000000
Gbest: 12.000000
Expectation: 9.591723
Final Parameters:
Gammas:
[ 3.348995 3.731809 6.141885 ]
Betas:
[ 0.554415 1.470939 1.944066 ]
Aggregate results:
[ 12 8 4 0 ]
[ 0.504783 0.430487 0.022607 0.042123 ]
3
Num Evals 1126
GenUC: 9.429350e-06
GenUB: 1.382607e-06
Optimisation 2.668653e-01
Total Time: 2.668779e-01
4 Rem 4
Graph 1:
0 0 0 1 
1 0 1 1 
1 1 1 0 
0 1 0 0 
Graph 2:
0 0 0 1 
0 0 1 0 
0 1 1 0 
0 0 0 0 
Solution: 12 0
Classic Expectation: 8.000000
Initial Expecation: 6.000000
Gbest: 12.000000
Expectation: 9.077852
Final Parameters:
Gammas:
[ 6.283185 3.268465 2.904685 ]
Betas:
[ 0.414561 0.644081 2.843670 ]
Aggregate results:
[ 12 8 10 4 6 0 ]
[ 0.084086 0.382539 0.473945 0.010473 0.037861 0.011096 ]
3
Num Evals 1373
GenUC: 8.648261e-06
GenUB: 1.475273e-06
Optimisation 3.043426e-01
Total Time: 3.043543e-01
5 Add/Rem 4
Graph 1:
0 0 0 1 
1 0 1 1 
1 1 1 0 
0 1 0 0 
Graph 2:
0 1 1 1 
0 1 0 1 
0 1 0 0 
0 1 1 0 
Solution: 12 16
Classic Expectation: 8.666667
Initial Expecation: 6.500000
Gbest: 12.000000
Expectation: 9.152909
Final Parameters:
Gammas:
[ 3.887556 3.175700 5.611230 ]
Betas:
[ 0.348376 0.966262 2.449425 ]
Aggregate results:
[ 8 6 10 12 0 ]
[ 0.404667 0.063314 0.230370 0.269333 0.032317 ]
3
Num Evals 1364
GenUC: 9.259733e-06
GenUB: 1.668988e-06
Optimisation 3.034337e-01
Total Time: 3.034464e-01
