Clock Speed: 3.688314
Num threads: 4
Trotterisation: 1
Graph Size: 5
Num Qubits: 7
Space Dimension: 128
Run-Type: 0
Num_samples: 10
1 Isomorphic
Graph 1:
0 1 1 0 1 
1 1 1 0 0 
0 1 0 0 1 
0 0 0 1 0 
1 0 0 0 1 
Graph 2:
0 1 1 0 1 
1 1 1 0 0 
0 1 0 0 1 
0 0 0 1 0 
1 0 0 0 1 
Solution: 0 0
Gbest: 0.000000
Expectation: -12.118397
Final Parameters:
Gammas:
[ 3.174837 ]
Betas:
[ 2.400247 1.105708 ]
Aggregate results:
[ -1 7 5 3 11 13 15 9 17 1 19 24 ]
[ 0.033348 0.170340 0.053466 0.030504 0.246958 0.154315 0.076444 0.100841 0.037520 0.003192 0.010212 0.082858 ]
3
Num Evals 219
GenUC: 2.255292e-04
GenUB: 2.888538e-05
Optimisation 4.850942e-02
Total Time: 4.901315e-02
2 Flipped
Graph 1:
0 1 1 0 1 
1 1 1 0 0 
0 1 0 0 1 
0 0 0 1 0 
1 0 0 0 1 
Graph 2:
1 0 1 1 0 
0 0 1 1 1 
1 0 0 1 0 
0 1 0 0 0 
1 0 0 0 1 
Solution: -6 44
Gbest: -10.000000
Expectation: -12.807629
Final Parameters:
Gammas:
[ 2.826231 ]
Betas:
[ 2.824522 1.778401 ]
Aggregate results:
[ 13 9 11 15 7 17 19 5 24 ]
[ 0.234545 0.217802 0.352843 0.059330 0.051470 0.001865 0.008634 0.015432 0.058080 ]
3
Num Evals 348
GenUC: 2.361852e-05
GenUB: 1.716387e-05
Optimisation 3.657393e-02
Total Time: 3.692926e-02
3 Add 5
Graph 1:
0 1 1 0 1 
1 1 1 0 0 
0 1 0 0 1 
0 0 0 1 0 
1 0 0 0 1 
Graph 2:
1 1 1 0 1 
1 1 1 0 0 
1 1 0 1 1 
0 0 0 1 0 
1 0 1 0 1 
Solution: -4 0
Gbest: -4.000000
Expectation: -12.514910
Final Parameters:
Gammas:
[ 3.332570 ]
Betas:
[ 2.307159 1.798015 ]
Aggregate results:
[ 3 7 5 9 15 17 13 11 19 24 ]
[ 0.029728 0.185964 0.032476 0.136809 0.117090 0.076104 0.217341 0.154759 0.008218 0.041512 ]
3
Num Evals 620
GenUC: 2.002588e-05
GenUB: 1.683288e-05
Optimisation 6.681077e-02
Total Time: 6.709333e-02
4 Rem 5
Graph 1:
0 1 1 0 1 
1 1 1 0 0 
0 1 0 0 1 
0 0 0 1 0 
1 0 0 0 1 
Graph 2:
0 1 0 0 1 
1 1 1 0 0 
0 0 0 0 0 
0 0 0 1 0 
1 0 0 0 0 
Solution: -4 0
Gbest: -8.000000
Expectation: -11.969638
Final Parameters:
Gammas:
[ 3.191733 ]
Betas:
[ 2.347846 1.150928 ]
Aggregate results:
[ 3 9 11 7 5 13 15 24 ]
[ 0.035193 0.218830 0.214365 0.176076 0.048947 0.133048 0.092810 0.080730 ]
3
Num Evals 817
GenUC: 2.090026e-05
GenUB: 1.883694e-05
Optimisation 5.840257e-02
Total Time: 5.867753e-02
5 Add/Rem 5
Graph 1:
0 1 1 0 1 
1 1 1 0 0 
0 1 0 0 1 
0 0 0 1 0 
1 0 0 0 1 
Graph 2:
0 1 1 1 0 
1 1 0 1 0 
0 0 1 1 1 
0 0 1 1 0 
0 0 0 0 1 
Solution: -5 42
Gbest: -7.000000
Expectation: -12.061453
Final Parameters:
Gammas:
[ 4.071316 ]
Betas:
[ 1.721803 1.854329 ]
Aggregate results:
[ 8 10 12 6 14 16 4 18 24 ]
[ 0.136910 0.239406 0.291119 0.065177 0.128477 0.021030 0.063078 0.002520 0.052283 ]
3
Num Evals 906
GenUC: 2.389138e-05
GenUB: 1.750598e-05
Optimisation 2.132963e-02
Total Time: 2.164288e-02
