Clock Speed: 3.689163
Num threads: 4
Trotterisation: 3
Graph Size: 6
Num Qubits: 10
Space Dimension: 1024
Run-Type: 0
Num_samples: 10
1 Isomorphic
Graph 1:
0 0 1 0 1 1 
0 0 0 1 0 1 
0 0 1 1 1 1 
1 1 1 0 1 1 
1 1 1 0 0 1 
1 1 0 0 1 1 
Graph 2:
0 0 1 0 1 1 
0 0 0 1 0 1 
0 0 1 1 1 1 
1 1 1 0 1 1 
1 1 1 0 0 1 
1 1 0 0 1 1 
Solution: 0 0
Gbest: -10.000000
Expectation: -16.157940
Final Parameters:
Gammas:
[ 3.496116 3.056377 4.307230 ]
Betas:
[ 1.893554 2.702795 1.814999 1.559140 ]
Aggregate results:
[ -1 5 9 7 11 13 15 17 19 3 21 23 35 ]
[ 0.000832 0.014883 0.118263 0.019569 0.175948 0.291116 0.176168 0.052600 0.023385 0.004267 0.009180 0.000514 0.113276 ]
5
Num Evals 600
GenUC: 2.710244e-04
GenUB: 1.970246e-04
Optimisation 1.116921e+00
Total Time: 1.119206e+00
2 Flipped
Graph 1:
0 0 1 0 1 1 
0 0 0 1 0 1 
0 0 1 1 1 1 
1 1 1 0 1 1 
1 1 1 0 0 1 
1 1 0 0 1 1 
Graph 2:
1 1 0 1 0 0 
1 0 1 0 0 0 
1 1 1 1 0 0 
1 1 0 1 1 1 
1 0 0 1 1 1 
1 1 0 0 1 1 
Solution: -10 603
Gbest: -14.000000
Expectation: -19.303314
Final Parameters:
Gammas:
[ 2.729452 1.388076 2.608655 ]
Betas:
[ 0.586201 1.842356 1.525295 0.066484 ]
Aggregate results:
[ 19 15 21 17 13 23 11 25 9 35 ]
[ 0.072715 0.279369 0.062698 0.105570 0.192467 0.017323 0.096189 0.004115 0.014462 0.155093 ]
5
Num Evals 1200
GenUC: 1.323298e-04
GenUB: 1.522729e-04
Optimisation 7.491914e-01
Total Time: 7.507041e-01
3 Add 6
Graph 1:
0 0 1 0 1 1 
0 0 0 1 0 1 
0 0 1 1 1 1 
1 1 1 0 1 1 
1 1 1 0 0 1 
1 1 0 0 1 1 
Graph 2:
0 1 1 0 1 1 
1 1 0 1 0 1 
0 1 1 1 1 1 
1 1 1 1 1 1 
1 1 1 1 0 1 
1 1 0 0 1 1 
Solution: -6 0
Gbest: -6.000000
Expectation: -15.040432
Final Parameters:
Gammas:
[ 2.745804 5.548467 0.997734 ]
Betas:
[ 3.139916 0.479462 3.066522 2.895637 ]
Aggregate results:
[ 5 11 9 13 17 15 19 7 21 35 ]
[ 0.005302 0.266384 0.139618 0.286922 0.066333 0.124056 0.012129 0.020646 0.001262 0.077348 ]
5
Num Evals 1800
GenUC: 1.169405e-04
GenUB: 1.679613e-04
Optimisation 1.165546e+00
Total Time: 1.167712e+00
4 Rem 6
Graph 1:
0 0 1 0 1 1 
0 0 0 1 0 1 
0 0 1 1 1 1 
1 1 1 0 1 1 
1 1 1 0 0 1 
1 1 0 0 1 1 
Graph 2:
0 0 1 0 1 1 
0 0 0 0 0 1 
0 0 1 0 1 1 
0 1 1 0 1 0 
1 0 1 0 0 1 
1 1 0 0 0 1 
Solution: -6 0
Gbest: -16.000000
Expectation: -22.192222
Final Parameters:
Gammas:
[ 2.319912 2.492562 5.365177 ]
Betas:
[ 2.024483 1.811776 2.438986 0.892168 ]
Aggregate results:
[ 5 9 13 11 15 17 19 21 23 7 25 27 35 ]
[ 0.000583 0.008920 0.085695 0.027450 0.214862 0.191496 0.125388 0.060888 0.024219 0.000376 0.011014 0.000019 0.249089 ]
5
Num Evals 2400
GenUC: 1.342517e-04
GenUB: 1.729514e-04
Optimisation 1.023319e+00
Total Time: 1.025268e+00
5 Add/Rem 6
Graph 1:
0 0 1 0 1 1 
0 0 0 1 0 1 
0 0 1 1 1 1 
1 1 1 0 1 1 
1 1 1 0 0 1 
1 1 0 0 1 1 
Graph 2:
1 0 0 0 1 1 
1 0 0 0 1 0 
1 1 1 1 1 1 
1 1 0 0 1 1 
1 1 1 0 0 1 
1 0 0 1 1 1 
Solution: -7 644
Gbest: -13.000000
Expectation: -14.721527
Final Parameters:
Gammas:
[ 0.027005 3.040666 3.408755 ]
Betas:
[ 1.125549 2.529501 2.698390 2.969589 ]
Aggregate results:
[ 10 12 14 16 18 20 22 24 8 6 35 ]
[ 0.164622 0.271512 0.306545 0.162811 0.039906 0.011531 0.006350 0.001586 0.012494 0.003400 0.019243 ]
5
Num Evals 3000
GenUC: 1.265571e-04
GenUB: 1.684086e-04
Optimisation 1.192210e+00
Total Time: 1.194549e+00
