Clock Speed: 3.688826
Num threads: 4
Trotterisation: 3
Graph Size: 6
Num Qubits: 10
Space Dimension: 1024
Run-Type: 0
Num_samples: 10
1 Isomorphic
Graph 1:
0 0 1 1 1 1 
0 1 0 1 1 0 
0 1 0 1 0 0 
0 1 1 0 0 0 
0 0 1 1 0 1 
0 1 1 1 1 1 
Graph 2:
0 0 1 1 1 1 
0 1 0 1 1 0 
0 1 0 1 0 0 
0 1 1 0 0 0 
0 0 1 1 0 1 
0 1 1 1 1 1 
Solution: 0 0
Gbest: -12.000000
Expectation: -19.793778
Final Parameters:
Gammas:
[ 3.550283 1.451942 2.420480 ]
Betas:
[ 0.158456 1.317140 3.141593 1.630226 ]
Aggregate results:
[ -1 11 13 9 15 1 17 19 21 23 7 5 25 35 ]
[ 0.000529 0.090621 0.230916 0.040529 0.176476 0.000670 0.086342 0.048276 0.070371 0.039376 0.013855 0.002532 0.007783 0.191722 ]
5
Num Evals 600
GenUC: 3.125280e-04
GenUB: 1.977406e-04
Optimisation 9.449096e-01
Total Time: 9.470925e-01
2 Flipped
Graph 1:
0 0 1 1 1 1 
0 1 0 1 1 0 
0 1 0 1 0 0 
0 1 1 0 0 0 
0 0 1 1 0 1 
0 1 1 1 1 1 
Graph 2:
1 1 1 1 0 0 
0 1 1 0 1 0 
0 0 1 0 1 0 
0 0 0 1 1 0 
1 0 1 1 0 0 
1 1 1 1 1 0 
Solution: -8 667
Gbest: -10.000000
Expectation: -16.285658
Final Parameters:
Gammas:
[ 6.192511 5.068105 0.904343 ]
Betas:
[ 1.437232 0.252139 3.137607 0.149422 ]
Aggregate results:
[ 17 21 15 13 19 23 11 25 9 27 29 7 35 ]
[ 0.136643 0.012533 0.230609 0.213261 0.036508 0.012085 0.202016 0.005413 0.078255 0.001865 0.000683 0.003217 0.066912 ]
5
Num Evals 1200
GenUC: 1.181089e-04
GenUB: 1.470911e-04
Optimisation 9.897470e-01
Total Time: 9.914979e-01
3 Add 6
Graph 1:
0 0 1 1 1 1 
0 1 0 1 1 0 
0 1 0 1 0 0 
0 1 1 0 0 0 
0 0 1 1 0 1 
0 1 1 1 1 1 
Graph 2:
0 0 1 1 1 1 
0 1 0 1 1 0 
1 1 0 1 0 0 
1 1 1 1 0 1 
1 1 1 1 0 1 
0 1 1 1 1 1 
Solution: -6 0
Gbest: -14.000000
Expectation: -20.953528
Final Parameters:
Gammas:
[ 5.537467 3.332694 4.414811 ]
Betas:
[ 0.197253 0.696058 1.777582 1.250012 ]
Aggregate results:
[ 5 13 15 11 7 17 19 9 21 23 35 ]
[ 0.003247 0.143019 0.235052 0.039516 0.001011 0.194425 0.124254 0.006595 0.031021 0.002621 0.219239 ]
5
Num Evals 1800
GenUC: 1.243399e-04
GenUB: 1.659873e-04
Optimisation 8.658393e-01
Total Time: 8.673562e-01
4 Rem 6
Graph 1:
0 0 1 1 1 1 
0 1 0 1 1 0 
0 1 0 1 0 0 
0 1 1 0 0 0 
0 0 1 1 0 1 
0 1 1 1 1 1 
Graph 2:
0 0 0 1 1 1 
0 0 0 1 1 0 
0 0 0 1 0 0 
0 1 0 0 0 0 
0 0 1 1 0 1 
0 0 1 1 1 1 
Solution: -5 0
Gbest: -15.000000
Expectation: -20.098085
Final Parameters:
Gammas:
[ 6.027326 5.258413 1.746350 ]
Betas:
[ 1.440960 1.235587 0.281743 1.805377 ]
Aggregate results:
[ 4 8 12 20 14 18 10 6 22 16 24 26 35 ]
[ 0.002568 0.006843 0.094236 0.125651 0.140431 0.165648 0.043467 0.004529 0.052061 0.192951 0.022536 0.001281 0.147799 ]
5
Num Evals 2400
GenUC: 1.307776e-04
GenUB: 1.691474e-04
Optimisation 9.804917e-01
Total Time: 9.822630e-01
5 Add/Rem 6
Graph 1:
0 0 1 1 1 1 
0 1 0 1 1 0 
0 1 0 1 0 0 
0 1 1 0 0 0 
0 0 1 1 0 1 
0 1 1 1 1 1 
Graph 2:
0 0 1 1 1 0 
1 1 1 1 0 1 
0 1 0 0 0 0 
0 0 0 0 0 1 
1 0 1 1 1 1 
0 1 1 1 1 1 
Solution: -11 0
Gbest: -15.000000
Expectation: -19.224186
Final Parameters:
Gammas:
[ 2.897894 4.877817 2.977257 ]
Betas:
[ 3.113252 2.237777 0.131330 1.522981 ]
Aggregate results:
[ 10 14 16 18 12 20 22 24 35 ]
[ 0.039901 0.222669 0.218696 0.175156 0.083069 0.098769 0.038551 0.006918 0.116272 ]
5
Num Evals 3000
GenUC: 1.214645e-04
GenUB: 1.752447e-04
Optimisation 1.129627e+00
Total Time: 1.131540e+00
