Clock Speed: 3.611698
Num threads: 4
Trotterisation: 6
Num Qubits: 3
Space Dimension: 8
Run-Type: 0
Num_samples: 3
Optimiser Method: 29
1 Isomorphic
Graph 1:
0 1 1 
1 0 0 
1 0 0 
Graph 2:
0 1 1 
1 0 0 
1 0 0 
Solution: 9 0
Classic Expectation: 6.333333
Initial Expecation: 4.750000
Gbest: 5.000000
Expectation: 7.000000
Final Parameters:
Gammas:
[ 3.571677 3.678050 4.722094 4.828248 4.269328 2.996715 ]
Betas:
[ 1.516579 1.824702 2.187219 0.723234 1.477439 1.009066 ]
Aggregate results:
[ 9 5 0 ]
[ 0.500000 0.500000 0.000000 ]
4
Num Evals 1270
GenUC: 2.628278e-06
GenUB: 6.845610e-06
Optimisation 1.372165e+01
Total Time: 1.372169e+01
2 Flipped
Graph 1:
0 1 1 
1 0 0 
1 0 0 
Graph 2:
1 1 0 
0 0 1 
0 0 1 
Solution: 5 2
Classic Expectation: 3.666667
Initial Expecation: 2.750000
Gbest: 3.000000
Expectation: 4.000000
Final Parameters:
Gammas:
[ 3.336199 3.973139 3.624031 3.022162 3.338747 3.163130 ]
Betas:
[ 1.434556 0.893160 1.275714 0.805360 1.957424 2.294794 ]
Aggregate results:
[ 3 5 0 ]
[ 0.500000 0.500000 0.000000 ]
4
Num Evals 1150
GenUC: 2.709256e-06
GenUB: 9.165815e-07
Optimisation 1.593613e+01
Total Time: 1.593614e+01
3 Add 3
Graph 1:
0 1 1 
1 0 0 
1 0 0 
Graph 2:
1 1 1 
1 1 1 
1 1 0 
Solution: 5 0
Classic Expectation: 5.000000
Initial Expecation: 3.750000
Gbest: 5.000000
Expectation: 5.000000
Final Parameters:
Gammas:
[ 4.707033 4.313881 3.141748 3.141733 2.353605 3.145507 ]
Betas:
[ 1.569879 1.300198 1.570796 2.425127 1.570806 1.293057 ]
Aggregate results:
[ 5 0 ]
[ 1.000000 0.000000 ]
4
Num Evals 1124
GenUC: 2.863584e-06
GenUB: 1.235216e-06
Optimisation 1.460612e+01
Total Time: 1.460613e+01
4 Rem 3
Graph 1:
0 1 1 
1 0 0 
1 0 0 
Graph 2:
0 0 0 
0 0 0 
0 0 0 
Solution: 5 0
Classic Expectation: 5.000000
Initial Expecation: 3.750000
Gbest: 5.000000
Expectation: 5.000000
Final Parameters:
Gammas:
[ 4.707033 4.313881 3.141748 3.141733 2.353605 3.145507 ]
Betas:
[ 1.569879 1.300198 1.570796 2.425127 1.570806 1.293057 ]
Aggregate results:
[ 5 0 ]
[ 1.000000 0.000000 ]
4
Num Evals 1124
GenUC: 2.661138e-06
GenUB: 1.206461e-06
Optimisation 1.582511e+01
Total Time: 1.582511e+01
5 Add/Rem 3
Graph 1:
0 1 1 
1 0 0 
1 0 0 
Graph 2:
1 0 0 
0 1 1 
0 1 0 
Solution: 5 2
Classic Expectation: 3.666667
Initial Expecation: 2.750000
Gbest: 5.000000
Expectation: 5.000000
Final Parameters:
Gammas:
[ 4.612678 2.003079 1.736073 4.845467 3.534376 3.237861 ]
Betas:
[ 1.605427 1.585728 1.670017 0.783777 1.693850 1.216818 ]
Aggregate results:
[ 1 5 0 ]
[ 0.000000 1.000000 0.000000 ]
4
Num Evals 1255
GenUC: 2.502702e-06
GenUB: 7.845520e-07
Optimisation 1.553227e+01
Total Time: 1.553228e+01
