Clock Speed: 3.689281
Num threads: 4
Trotterisation: 6
Num Qubits: 3
Space Dimension: 8
Run-Type: 0
Num_samples: 3
Optimiser Method: 29
1 Isomorphic
Graph 1:
0 0 1 
0 0 1 
1 1 0 
Graph 2:
0 0 1 
0 0 1 
1 1 0 
Solution: 9 0
Classic Expectation: 6.333333
Initial Expecation: 4.750000
Gbest: 9.000000
Expectation: 7.000000
Final Parameters:
Gammas:
[ 4.661970 4.466623 1.840750 1.984074 3.422934 5.400747 ]
Betas:
[ 1.674968 3.096600 1.570802 0.831263 1.574993 1.466744 ]
Aggregate results:
[ 9 5 0 ]
[ 0.500000 0.500000 0.000000 ]
4
Num Evals 1525
GenUC: 2.738188e-06
GenUB: 6.853688e-06
Optimisation 2.302043e+01
Total Time: 2.302047e+01
2 Flipped
Graph 1:
0 0 1 
0 0 1 
1 1 0 
Graph 2:
1 0 0 
1 0 0 
0 1 1 
Solution: 5 1
Classic Expectation: 3.666667
Initial Expecation: 2.750000
Gbest: 5.000000
Expectation: 4.996735
Final Parameters:
Gammas:
[ 2.063924 2.189333 3.403549 3.447445 0.832590 1.178914 ]
Betas:
[ 1.793156 1.367530 1.264734 0.841361 1.793387 2.399732 ]
Aggregate results:
[ 3 5 0 ]
[ 0.001371 0.998524 0.000105 ]
5
Num Evals 3600
GenUC: 2.798048e-06
GenUB: 1.022860e-06
Optimisation 4.324330e+01
Total Time: 4.324331e+01
3 Add 3
Graph 1:
0 0 1 
0 0 1 
1 1 0 
Graph 2:
1 1 1 
1 0 1 
1 1 1 
Solution: 5 0
Classic Expectation: 5.000000
Initial Expecation: 3.750000
Gbest: 5.000000
Expectation: 5.000000
Final Parameters:
Gammas:
[ 4.707033 4.313881 3.141748 3.141733 2.353605 3.145507 ]
Betas:
[ 1.569879 1.300198 1.570796 2.425127 1.570806 1.293057 ]
Aggregate results:
[ 5 0 ]
[ 1.000000 0.000000 ]
4
Num Evals 1124
GenUC: 2.977618e-06
GenUB: 1.064525e-06
Optimisation 1.513903e+01
Total Time: 1.513903e+01
4 Rem 3
Graph 1:
0 0 1 
0 0 1 
1 1 0 
Graph 2:
0 0 0 
0 0 0 
0 0 0 
Solution: 5 0
Classic Expectation: 5.000000
Initial Expecation: 3.750000
Gbest: 5.000000
Expectation: 5.000000
Final Parameters:
Gammas:
[ 4.707033 4.313881 3.141748 3.141733 2.353605 3.145507 ]
Betas:
[ 1.569879 1.300198 1.570796 2.425127 1.570806 1.293057 ]
Aggregate results:
[ 5 0 ]
[ 1.000000 0.000000 ]
4
Num Evals 1124
GenUC: 2.827388e-06
GenUB: 9.653504e-07
Optimisation 1.462674e+01
Total Time: 1.462675e+01
5 Add/Rem 3
Graph 1:
0 0 1 
0 0 1 
1 1 0 
Graph 2:
1 1 0 
1 0 0 
0 0 1 
Solution: 5 1
Classic Expectation: 3.666667
Initial Expecation: 2.750000
Gbest: 5.000000
Expectation: 5.000000
Final Parameters:
Gammas:
[ 4.611993 2.005832 1.738990 4.844700 3.534292 3.238658 ]
Betas:
[ 1.606450 1.586383 1.669018 0.784932 1.693658 1.216986 ]
Aggregate results:
[ 1 5 0 ]
[ 0.000000 1.000000 0.000000 ]
4
Num Evals 1248
GenUC: 2.695937e-06
GenUB: 8.092502e-07
Optimisation 1.631467e+01
Total Time: 1.631468e+01
