Clock Speed: 3.689350
Num threads: 4
Trotterisation: 6
Num Qubits: 3
Space Dimension: 8
Run-Type: 0
Num_samples: 3
Optimiser Method: 29
1 Isomorphic
Graph 1:
0 0 1 
0 0 0 
1 0 0 
Graph 2:
0 0 1 
0 0 0 
1 0 0 
Solution: 9 0
Classic Expectation: 6.333333
Initial Expecation: 4.750000
Gbest: 9.000000
Expectation: 8.999877
Final Parameters:
Gammas:
[ 4.318948 1.361974 3.053041 1.699490 3.659936 3.271885 ]
Betas:
[ 1.488167 0.777500 1.762898 0.799280 1.565830 2.305649 ]
Aggregate results:
[ 9 5 0 ]
[ 0.999975 0.000021 0.000004 ]
5
Num Evals 3600
GenUC: 2.681802e-06
GenUB: 7.354829e-06
Optimisation 1.260562e+00
Total Time: 1.260600e+00
2 Flipped
Graph 1:
0 0 1 
0 0 0 
1 0 0 
Graph 2:
1 0 0 
0 0 0 
0 0 1 
Solution: 5 0
Classic Expectation: 5.000000
Initial Expecation: 3.750000
Gbest: 5.000000
Expectation: 5.000000
Final Parameters:
Gammas:
[ 4.707033 4.313881 3.141748 3.141733 2.353605 3.145507 ]
Betas:
[ 1.569879 1.300198 1.570796 2.425127 1.570806 1.293057 ]
Aggregate results:
[ 5 0 ]
[ 1.000000 0.000000 ]
4
Num Evals 1124
GenUC: 2.795714e-06
GenUB: 9.729993e-07
Optimisation 4.154247e-01
Total Time: 4.154312e-01
3 Add 3
Graph 1:
0 0 1 
0 0 0 
1 0 0 
Graph 2:
0 1 1 
1 0 1 
1 1 0 
Solution: 5 0
Classic Expectation: 5.000000
Initial Expecation: 3.750000
Gbest: 5.000000
Expectation: 5.000000
Final Parameters:
Gammas:
[ 4.707033 4.313881 3.141748 3.141733 2.353605 3.145507 ]
Betas:
[ 1.569879 1.300198 1.570796 2.425127 1.570806 1.293057 ]
Aggregate results:
[ 5 0 ]
[ 1.000000 0.000000 ]
4
Num Evals 1124
GenUC: 2.723536e-06
GenUB: 7.195049e-07
Optimisation 4.177092e-01
Total Time: 4.177144e-01
4 Rem 3
Graph 1:
0 0 1 
0 0 0 
1 0 0 
Graph 2:
0 0 0 
0 0 0 
0 0 0 
Solution: 7 0
Classic Expectation: 7.000000
Initial Expecation: 5.250000
Gbest: 7.000000
Expectation: 7.000000
Final Parameters:
Gammas:
[ 2.716561 2.931203 5.425352 4.709246 3.141593 3.146730 ]
Betas:
[ 1.600597 2.371720 1.568448 0.715207 1.399877 0.714138 ]
Aggregate results:
[ 7 0 ]
[ 1.000000 0.000000 ]
4
Num Evals 1135
GenUC: 2.609100e-06
GenUB: 7.136259e-07
Optimisation 3.932681e-01
Total Time: 3.932733e-01
5 Add/Rem 3
Graph 1:
0 0 1 
0 0 0 
1 0 0 
Graph 2:
1 1 0 
1 0 1 
0 1 0 
Solution: 6 1
Classic Expectation: 4.666667
Initial Expecation: 3.500000
Gbest: 6.000000
Expectation: 6.000000
Final Parameters:
Gammas:
[ 4.028308 2.013870 4.963844 3.982677 6.226558 4.756604 ]
Betas:
[ 1.656598 1.663240 0.681813 1.255258 1.636716 1.866250 ]
Aggregate results:
[ 2 6 0 ]
[ 0.000000 1.000000 0.000000 ]
5
Num Evals 3600
GenUC: 2.428307e-06
GenUB: 8.433126e-07
Optimisation 1.292014e+00
Total Time: 1.292019e+00
