Clock Speed: 3.498733
Num threads: 16
Trotterisation: 6
Num Qubits: 13
Space Dimension: 8192
Run-Type: 0
Num_samples: 49
Optimiser Method: 20
1 Isomorphic
Graph 1:
0 0 0 0 1 1 1 
0 1 0 1 0 0 1 
1 0 0 1 1 1 1 
1 1 0 0 0 0 1 
1 0 1 1 0 0 1 
0 1 1 1 0 1 0 
0 0 0 0 0 1 1 
Graph 2:
0 0 0 0 1 1 1 
0 1 0 1 0 0 1 
1 0 0 1 1 1 1 
1 1 0 0 0 0 1 
1 0 1 1 0 0 1 
0 1 1 1 0 1 0 
0 0 0 0 0 1 1 
Solution: 49 0
Classic Expectation: 24.571429
Initial Expecation: 15.117188
Gbest: 39.000000
Expectation: 21.859833
Final Parameters:
Gammas:
[ 0.677500 0.061002 5.781822 5.279547 0.060511 1.285874 ]
Betas:
[ 1.587959 1.520431 0.738587 0.344722 2.683066 1.731457 ]
Aggregate results:
[ 49 35 39 33 37 25 29 31 27 23 21 43 19 17 41 13 15 0 ]
[ 0.000058 0.007545 0.000374 0.015869 0.001127 0.173646 0.084231 0.048932 0.143693 0.186364 0.125379 0.000092 0.071998 0.023042 0.000911 0.000738 0.006838 0.109163 ]
5
Num Evals 8400
GenUC: 2.248382e-03
GenUB: 1.178442e-03
Optimisation 4.101105e+02
Total Time: 4.101140e+02
2 Flipped
Graph 1:
0 0 0 0 1 1 1 
0 1 0 1 0 0 1 
1 0 0 1 1 1 1 
1 1 0 0 0 0 1 
1 0 1 1 0 0 1 
0 1 1 1 0 1 0 
0 0 0 0 0 1 1 
Graph 2:
1 1 1 0 0 0 0 
1 0 0 1 0 1 0 
1 1 1 1 0 0 1 
1 0 0 0 0 1 1 
1 0 0 1 1 0 1 
0 1 0 1 1 1 0 
1 1 0 0 0 0 0 
Solution: 37 1149
Classic Expectation: 24.428571
Initial Expecation: 15.029297
Gbest: 33.000000
Expectation: 19.585662
Final Parameters:
Gammas:
[ 4.999775 3.121149 0.456929 6.168234 1.637440 1.572196 ]
Betas:
[ 2.905112 2.426601 2.250631 2.480322 0.020519 0.551743 ]
Aggregate results:
[ 25 23 19 21 13 17 27 31 15 29 35 33 37 0 ]
[ 0.162375 0.161199 0.047026 0.102151 0.001518 0.013994 0.149353 0.038427 0.002636 0.091136 0.002929 0.014899 0.000595 0.211763 ]
5
Num Evals 8400
GenUC: 2.848922e-03
GenUB: 1.197075e-03
Optimisation 4.461856e+02
Total Time: 4.461896e+02
3 Add 7
Graph 1:
0 0 0 0 1 1 1 
0 1 0 1 0 0 1 
1 0 0 1 1 1 1 
1 1 0 0 0 0 1 
1 0 1 1 0 0 1 
0 1 1 1 0 1 0 
0 0 0 0 0 1 1 
Graph 2:
1 0 1 0 1 1 1 
0 1 0 1 0 1 1 
1 0 0 1 1 1 1 
1 1 0 0 0 0 1 
1 0 1 1 1 0 1 
0 1 1 1 1 1 0 
0 0 0 0 1 1 1 
Solution: 43 0
Classic Expectation: 24.285714
Initial Expecation: 14.941406
Gbest: 31.000000
Expectation: 19.914382
Final Parameters:
Gammas:
[ 5.202454 1.997760 4.674358 1.072266 0.613887 4.942289 ]
Betas:
[ 1.126448 2.075204 1.019314 2.019980 0.578106 1.057736 ]
Aggregate results:
[ 43 31 37 33 23 25 29 27 21 41 19 35 17 15 39 13 0 ]
[ 0.000222 0.031859 0.000375 0.010354 0.175284 0.176180 0.065305 0.141749 0.122816 0.000108 0.064799 0.003869 0.019932 0.006019 0.000473 0.000524 0.180132 ]
5
Num Evals 8400
GenUC: 2.841080e-03
GenUB: 1.262445e-03
Optimisation 4.009376e+02
Total Time: 4.009417e+02
4 Rem 7
Graph 1:
0 0 0 0 1 1 1 
0 1 0 1 0 0 1 
1 0 0 1 1 1 1 
1 1 0 0 0 0 1 
1 0 1 1 0 0 1 
0 1 1 1 0 1 0 
0 0 0 0 0 1 1 
Graph 2:
0 0 0 0 1 1 0 
0 1 0 1 0 0 0 
1 0 0 1 1 1 1 
0 1 0 0 0 0 0 
1 0 1 1 0 0 1 
0 1 1 1 0 1 0 
0 0 0 0 0 1 1 
Solution: 45 0
Classic Expectation: 24.571429
Initial Expecation: 15.117188
Gbest: 37.000000
Expectation: 19.150099
Final Parameters:
Gammas:
[ 0.327397 4.719567 1.763888 0.269542 0.390238 1.307075 ]
Betas:
[ 0.763209 1.829626 0.217209 2.843549 1.522410 3.019643 ]
Aggregate results:
[ 45 35 33 25 29 31 27 37 23 21 19 39 17 13 15 41 0 ]
[ 0.000122 0.003664 0.018533 0.156858 0.100415 0.058133 0.145051 0.001431 0.124736 0.089188 0.037822 0.000175 0.015875 0.000779 0.003378 0.000047 0.243795 ]
5
Num Evals 8400
GenUC: 2.858252e-03
GenUB: 1.184843e-03
Optimisation 4.443024e+02
Total Time: 4.443065e+02
5 Add/Rem 7
Graph 1:
0 0 0 0 1 1 1 
0 1 0 1 0 0 1 
1 0 0 1 1 1 1 
1 1 0 0 0 0 1 
1 0 1 1 0 0 1 
0 1 1 1 0 1 0 
0 0 0 0 0 1 1 
Graph 2:
0 1 0 0 0 1 0 
0 1 1 1 1 1 1 
0 1 0 0 1 1 1 
1 1 0 0 0 1 1 
0 0 0 1 0 1 0 
0 1 1 1 0 1 0 
0 0 0 0 0 1 1 
Solution: 37 632
Classic Expectation: 24.571429
Initial Expecation: 15.117188
Gbest: 31.000000
Expectation: 22.228638
Final Parameters:
Gammas:
[ 0.542299 6.082790 5.853297 5.913857 5.706352 4.742681 ]
Betas:
[ 1.968899 2.638831 3.026089 1.825960 1.069772 1.321789 ]
Aggregate results:
[ 35 29 25 27 21 23 19 33 31 17 15 37 13 0 ]
[ 0.001570 0.090595 0.202601 0.175482 0.119620 0.186069 0.060051 0.010546 0.032607 0.022265 0.003511 0.000244 0.000907 0.093932 ]
5
Num Evals 8400
GenUC: 2.928326e-03
GenUB: 1.293073e-03
Optimisation 4.968793e+02
Total Time: 4.968835e+02
