Clock Speed: 3.498533
Num threads: 16
Trotterisation: 6
Num Qubits: 13
Space Dimension: 8192
Run-Type: 0
Num_samples: 49
Optimiser Method: 20
1 Isomorphic
Graph 1:
1 0 1 0 1 1 1 
1 1 0 0 1 1 1 
0 0 1 1 1 0 1 
0 1 1 1 1 1 0 
0 0 1 1 1 0 1 
0 1 0 1 1 0 0 
0 1 1 1 0 1 1 
Graph 2:
1 0 1 0 1 1 1 
1 1 0 0 1 1 1 
0 0 1 1 1 0 1 
0 1 1 1 1 1 0 
0 0 1 1 1 0 1 
0 1 0 1 1 0 0 
0 1 1 1 0 1 1 
Solution: 49 0
Classic Expectation: 27.047619
Initial Expecation: 16.640625
Gbest: 31.000000
Expectation: 22.002716
Final Parameters:
Gammas:
[ 2.172678 5.950940 3.192953 5.973567 0.723164 5.580550 ]
Betas:
[ 0.337064 2.018418 0.826722 0.278418 1.643604 0.101201 ]
Aggregate results:
[ 49 35 39 37 33 31 29 27 43 25 23 21 19 17 15 0 ]
[ 0.000342 0.013859 0.000561 0.004171 0.035904 0.092964 0.152128 0.185220 0.000023 0.170167 0.103532 0.046763 0.010503 0.001208 0.000451 0.182204 ]
5
Num Evals 8400
GenUC: 2.247474e-03
GenUB: 1.252830e-03
Optimisation 3.189025e+02
Total Time: 3.189060e+02
2 Flipped
Graph 1:
1 0 1 0 1 1 1 
1 1 0 0 1 1 1 
0 0 1 1 1 0 1 
0 1 1 1 1 1 0 
0 0 1 1 1 0 1 
0 1 0 1 1 0 0 
0 1 1 1 0 1 1 
Graph 2:
1 1 1 0 1 0 1 
1 1 1 0 0 1 1 
1 0 1 1 1 0 0 
0 1 1 1 1 1 0 
1 0 1 1 1 0 0 
0 0 1 1 0 1 0 
1 1 0 1 1 1 0 
Solution: 39 54
Classic Expectation: 27.047619
Initial Expecation: 16.640625
Gbest: 33.000000
Expectation: 21.808386
Final Parameters:
Gammas:
[ 4.157453 2.969758 2.625665 3.978649 0.807123 5.317939 ]
Betas:
[ 1.805056 1.029865 2.774524 3.039639 1.993228 2.992377 ]
Aggregate results:
[ 33 35 31 27 29 25 23 21 39 37 19 17 0 ]
[ 0.043227 0.013970 0.101913 0.185971 0.175575 0.150561 0.083365 0.032645 0.000608 0.003658 0.003743 0.001386 0.203377 ]
5
Num Evals 8400
GenUC: 2.845319e-03
GenUB: 1.221675e-03
Optimisation 5.462463e+02
Total Time: 5.462504e+02
3 Add 7
Graph 1:
1 0 1 0 1 1 1 
1 1 0 0 1 1 1 
0 0 1 1 1 0 1 
0 1 1 1 1 1 0 
0 0 1 1 1 0 1 
0 1 0 1 1 0 0 
0 1 1 1 0 1 1 
Graph 2:
1 1 1 0 1 1 1 
1 1 0 0 1 1 1 
1 0 1 1 1 0 1 
0 1 1 1 1 1 0 
1 1 1 1 1 1 1 
0 1 0 1 1 0 0 
0 1 1 1 0 1 1 
Solution: 44 0
Classic Expectation: 28.000000
Initial Expecation: 17.226563
Gbest: 36.000000
Expectation: 23.025486
Final Parameters:
Gammas:
[ 0.272250 0.560518 6.026627 6.032241 3.578978 6.130802 ]
Betas:
[ 3.073586 1.936469 2.900814 2.581173 1.837147 1.423013 ]
Aggregate results:
[ 44 32 34 36 38 30 28 26 24 22 20 18 0 ]
[ 0.000026 0.124810 0.050855 0.012503 0.001821 0.193999 0.182299 0.129932 0.076224 0.023297 0.006576 0.000334 0.197323 ]
5
Num Evals 8400
GenUC: 2.840432e-03
GenUB: 1.156333e-03
Optimisation 5.509826e+02
Total Time: 5.509866e+02
4 Rem 7
Graph 1:
1 0 1 0 1 1 1 
1 1 0 0 1 1 1 
0 0 1 1 1 0 1 
0 1 1 1 1 1 0 
0 0 1 1 1 0 1 
0 1 0 1 1 0 0 
0 1 1 1 0 1 1 
Graph 2:
0 0 1 0 1 0 1 
1 1 0 0 1 1 0 
0 0 1 0 1 0 1 
0 1 1 1 1 1 0 
0 0 1 1 1 0 1 
0 0 0 1 0 0 0 
0 1 0 1 0 1 1 
Solution: 42 0
Classic Expectation: 25.190476
Initial Expecation: 15.498047
Gbest: 32.000000
Expectation: 19.744831
Final Parameters:
Gammas:
[ 0.176983 2.339009 5.076447 3.912081 3.147283 6.183309 ]
Betas:
[ 1.370120 1.120654 1.288229 1.732281 1.471847 1.820432 ]
Aggregate results:
[ 42 32 36 34 30 28 26 24 40 22 20 16 18 38 14 0 ]
[ 0.000017 0.022949 0.000533 0.007228 0.070094 0.127658 0.175557 0.172215 0.000063 0.122339 0.061329 0.004189 0.020047 0.000184 0.001032 0.214564 ]
5
Num Evals 8400
GenUC: 2.841297e-03
GenUB: 1.195977e-03
Optimisation 4.290825e+02
Total Time: 4.290866e+02
5 Add/Rem 7
Graph 1:
1 0 1 0 1 1 1 
1 1 0 0 1 1 1 
0 0 1 1 1 0 1 
0 1 1 1 1 1 0 
0 0 1 1 1 0 1 
0 1 0 1 1 0 0 
0 1 1 1 0 1 1 
Graph 2:
0 0 1 0 1 1 1 
1 1 1 0 1 1 1 
0 0 1 0 1 1 1 
0 0 1 1 0 1 0 
1 1 1 1 1 0 1 
0 1 1 1 1 1 0 
0 1 0 1 0 0 1 
Solution: 39 3
Classic Expectation: 27.047619
Initial Expecation: 16.640625
Gbest: 33.000000
Expectation: 25.067466
Final Parameters:
Gammas:
[ 0.552355 1.110834 0.045034 1.556203 4.742333 4.651297 ]
Betas:
[ 0.045232 1.702693 1.448676 1.097700 0.030582 1.207853 ]
Aggregate results:
[ 37 33 39 35 29 31 25 27 23 21 19 17 0 ]
[ 0.001220 0.035459 0.000115 0.008937 0.202104 0.095936 0.198621 0.224380 0.110492 0.041080 0.013207 0.001248 0.067203 ]
5
Num Evals 8400
GenUC: 2.842755e-03
GenUB: 1.173500e-03
Optimisation 3.162365e+02
Total Time: 3.162406e+02
