Clock Speed: 3.688547
Num threads: 4
Trotterisation: 5
Num Qubits: 7
Space Dimension: 128
Run-Type: 0
Num_samples: 15624
Optimiser Method: 0
1 Isomorphic
Graph 1:
0 0 0 0 0 
0 1 1 0 0 
1 0 1 1 0 
1 1 0 1 1 
0 1 0 0 0 
Graph 2:
0 0 0 0 0 
0 1 1 0 0 
1 0 1 1 0 
1 1 0 1 1 
0 1 0 0 0 
Solution: 25 0
Classic Expectation: 13.500000
Initial Expecation: 12.656250
Gbest: 25.000000
Expectation: 13.184690
Final Parameters:
Gammas:
[ 5.235988 3.141593 3.141593 2.908882 3.141593 ]
Betas:
[ 2.617994 1.570796 2.501639 1.570796 1.570796 ]
Aggregate results:
[ 25 17 15 13 9 19 11 7 21 0 ]
[ 0.000474 0.184359 0.241563 0.172954 0.081328 0.037308 0.196877 0.015745 0.021440 0.047953 ]
3
Num Evals 277
GenUC: 4.114152e-05
GenUB: 2.222357e-05
Optimisation 1.995249e-01
Total Time: 1.996101e-01
2 Flipped
Graph 1:
0 0 0 0 0 
0 1 1 0 0 
1 0 1 1 0 
1 1 0 1 1 
0 1 0 0 0 
Graph 2:
0 0 0 0 0 
0 0 1 1 0 
0 1 1 0 1 
1 1 0 1 1 
0 0 0 1 0 
Solution: 19 11
Classic Expectation: 13.000000
Initial Expecation: 12.187500
Gbest: 19.000000
Expectation: 12.187500
Final Parameters:
Gammas:
[ 1.047198 1.047198 3.141593 3.141593 3.141593 ]
Betas:
[ 1.570796 1.570796 1.570796 1.570796 1.570796 ]
Aggregate results:
[ 17 15 11 13 19 9 7 0 ]
[ 0.117187 0.203125 0.234375 0.250000 0.015625 0.101563 0.015625 0.062500 ]
3
Num Evals 25
GenUC: 4.402932e-05
GenUB: 2.722954e-06
Optimisation 1.696896e-02
Total Time: 1.701838e-02
3 Add 5
Graph 1:
0 0 0 0 0 
0 1 1 0 0 
1 0 1 1 0 
1 1 0 1 1 
0 1 0 0 0 
Graph 2:
1 0 1 0 0 
0 1 1 0 1 
1 0 1 1 0 
1 1 0 1 1 
1 1 0 0 1 
Solution: 20 0
Classic Expectation: 13.000000
Initial Expecation: 12.187500
Gbest: 20.000000
Expectation: 12.187500
Final Parameters:
Gammas:
[ 3.141593 5.235988 3.141593 3.141593 3.141593 ]
Betas:
[ 0.523599 1.570796 1.570796 1.570796 1.570796 ]
Aggregate results:
[ 20 16 12 14 10 18 8 0 ]
[ 0.007812 0.117187 0.335937 0.281250 0.117187 0.039062 0.039063 0.062500 ]
3
Num Evals 35
GenUC: 4.391960e-05
GenUB: 2.529239e-06
Optimisation 2.441201e-02
Total Time: 2.446028e-02
4 Rem 5
Graph 1:
0 0 0 0 0 
0 1 1 0 0 
1 0 1 1 0 
1 1 0 1 1 
0 1 0 0 0 
Graph 2:
0 0 0 0 0 
0 1 0 0 0 
1 0 0 1 0 
0 1 0 1 1 
0 0 0 0 0 
Solution: 21 0
Classic Expectation: 14.200000
Initial Expecation: 13.312500
Gbest: 21.000000
Expectation: 13.681140
Final Parameters:
Gammas:
[ 4.537856 3.141593 3.839724 3.141593 3.141593 ]
Betas:
[ 2.617994 0.872665 1.570796 1.570796 1.570796 ]
Aggregate results:
[ 21 15 17 11 13 19 9 0 ]
[ 0.016121 0.283195 0.176233 0.168292 0.234656 0.042936 0.042355 0.036212 ]
3
Num Evals 159
GenUC: 4.406099e-05
GenUB: 2.506364e-06
Optimisation 1.094217e-01
Total Time: 1.094700e-01
5 Add/Rem 5
Graph 1:
0 0 0 0 0 
0 1 1 0 0 
1 0 1 1 0 
1 1 0 1 1 
0 1 0 0 0 
Graph 2:
0 0 0 0 0 
0 1 1 1 0 
1 1 1 1 1 
1 0 1 0 0 
1 0 0 0 0 
Solution: 20 2
Classic Expectation: 12.700000
Initial Expecation: 11.906250
Gbest: 20.000000
Expectation: 11.906250
Final Parameters:
Gammas:
[ 3.141593 5.235988 3.141593 3.141593 3.141593 ]
Betas:
[ 0.523599 1.570796 1.570796 1.570796 1.570796 ]
Aggregate results:
[ 16 20 14 18 10 12 8 6 0 ]
[ 0.171875 0.015625 0.242187 0.031250 0.140625 0.203125 0.125000 0.007812 0.062500 ]
3
Num Evals 39
GenUC: 4.699989e-05
GenUB: 2.436573e-06
Optimisation 2.773435e-02
Total Time: 2.778567e-02
