Clock Speed: 3.688435
Num threads: 4
Trotterisation: 5
Num Qubits: 7
Space Dimension: 128
Run-Type: 0
Num_samples: 15624
Optimiser Method: 0
1 Isomorphic
Graph 1:
0 0 1 1 0 
0 0 0 1 1 
1 1 0 0 0 
1 0 0 1 1 
0 1 1 0 0 
Graph 2:
0 0 1 1 0 
0 0 0 1 1 
1 1 0 0 0 
1 0 0 1 1 
0 1 1 0 0 
Solution: 25 0
Classic Expectation: 13.400000
Initial Expecation: 12.562500
Gbest: 25.000000
Expectation: 12.562500
Final Parameters:
Gammas:
[ 1.047198 5.235988 1.047198 1.047198 3.141593 ]
Betas:
[ 1.570796 1.570796 1.570796 1.570796 1.570796 ]
Aggregate results:
[ 25 13 15 3 11 17 23 9 19 0 ]
[ 0.007812 0.148437 0.250000 0.015625 0.242187 0.156250 0.007812 0.093750 0.015625 0.062500 ]
3
Num Evals 45
GenUC: 4.116906e-05
GenUB: 1.464220e-05
Optimisation 3.096970e-02
Total Time: 3.104399e-02
2 Flipped
Graph 1:
0 0 1 1 0 
0 0 0 1 1 
1 1 0 0 0 
1 0 0 1 1 
0 1 1 0 0 
Graph 2:
0 1 1 0 0 
1 1 0 0 0 
0 0 0 1 1 
1 1 0 0 1 
0 0 1 1 0 
Solution: 21 14
Classic Expectation: 13.400000
Initial Expecation: 12.562500
Gbest: 21.000000
Expectation: 12.946861
Final Parameters:
Gammas:
[ 3.141593 3.141593 5.235988 3.141593 1.047198 ]
Betas:
[ 1.570796 1.570796 1.570796 2.617994 1.570796 ]
Aggregate results:
[ 11 9 13 7 17 15 21 19 0 ]
[ 0.183027 0.053488 0.262465 0.038977 0.119829 0.195013 0.007383 0.086840 0.052979 ]
3
Num Evals 63
GenUC: 4.421186e-05
GenUB: 2.778659e-06
Optimisation 4.365149e-02
Total Time: 4.370048e-02
3 Add 5
Graph 1:
0 0 1 1 0 
0 0 0 1 1 
1 1 0 0 0 
1 0 0 1 1 
0 1 1 0 0 
Graph 2:
0 0 1 1 0 
0 1 0 1 1 
1 1 0 0 1 
1 1 0 1 1 
1 1 1 1 0 
Solution: 20 0
Classic Expectation: 12.800000
Initial Expecation: 12.000000
Gbest: 20.000000
Expectation: 12.171929
Final Parameters:
Gammas:
[ 1.745329 3.839724 3.839724 3.141593 3.141593 ]
Betas:
[ 2.617994 1.570796 1.570796 1.570796 1.570796 ]
Aggregate results:
[ 20 14 16 12 6 10 8 18 0 ]
[ 0.010086 0.222669 0.197778 0.240505 0.004661 0.165431 0.059481 0.035789 0.063599 ]
3
Num Evals 121
GenUC: 4.395191e-05
GenUB: 2.560962e-06
Optimisation 8.594235e-02
Total Time: 8.599062e-02
4 Rem 5
Graph 1:
0 0 1 1 0 
0 0 0 1 1 
1 1 0 0 0 
1 0 0 1 1 
0 1 1 0 0 
Graph 2:
0 0 0 1 0 
0 0 0 0 1 
1 1 0 0 0 
1 0 0 1 1 
0 0 0 0 0 
Solution: 21 0
Classic Expectation: 13.400000
Initial Expecation: 12.562500
Gbest: 21.000000
Expectation: 12.562500
Final Parameters:
Gammas:
[ 5.235988 1.047198 3.141593 3.141593 3.141593 ]
Betas:
[ 1.570796 1.570796 1.570796 1.570796 1.570796 ]
Aggregate results:
[ 21 13 15 11 7 17 19 9 0 ]
[ 0.007812 0.328125 0.226562 0.179687 0.031250 0.093750 0.031250 0.039062 0.062500 ]
3
Num Evals 23
GenUC: 4.390080e-05
GenUB: 2.444722e-06
Optimisation 1.600573e-02
Total Time: 1.605363e-02
5 Add/Rem 5
Graph 1:
0 0 1 1 0 
0 0 0 1 1 
1 1 0 0 0 
1 0 0 1 1 
0 1 1 0 0 
Graph 2:
0 0 1 1 0 
0 1 1 1 1 
1 0 0 0 0 
1 1 0 1 0 
1 1 0 1 0 
Solution: 21 21
Classic Expectation: 12.800000
Initial Expecation: 12.000000
Gbest: 21.000000
Expectation: 12.480643
Final Parameters:
Gammas:
[ 5.235988 3.141593 3.141593 3.141593 2.443461 ]
Betas:
[ 1.570796 1.570796 1.570796 1.221730 1.570796 ]
Aggregate results:
[ 17 15 19 13 11 9 7 5 21 0 ]
[ 0.110943 0.214764 0.048367 0.223422 0.189704 0.131334 0.031594 0.003703 0.001965 0.044204 ]
3
Num Evals 227
GenUC: 4.675693e-05
GenUB: 2.377899e-06
Optimisation 1.553513e-01
Total Time: 1.554019e-01
