Clock Speed: 3.688520
Num threads: 4
Trotterisation: 2
Graph Size: 4
Num Qubits: 5
Space Dimension: 32
Run-Type: 0
Num_samples: 10
1 Isomorphic
Graph 1:
0 0 0 0 
0 1 0 0 
0 1 1 1 
0 1 1 0 
Graph 2:
0 0 0 0 
0 1 0 0 
0 1 1 1 
0 1 1 0 
Solution: 0 0
Gbest: 0.000000
Expectation: -6.908705
Final Parameters:
Gammas:
[ 5.005981 4.113569 ]
Betas:
[ 3.132710 2.541371 2.343497 ]
Aggregate results:
[ -1 5 7 3 9 1 11 15 ]
[ 0.105500 0.059149 0.482720 0.004220 0.134635 0.145203 0.014687 0.053885 ]
5
Num Evals 400
GenUC: 2.209954e-04
GenUB: 1.229076e-05
Optimisation 1.006630e-01
Total Time: 1.011846e-01
2 Flipped
Graph 1:
0 0 0 0 
0 1 0 0 
0 1 1 1 
0 1 1 0 
Graph 2:
0 0 0 0 
0 0 1 0 
1 1 1 0 
0 1 1 0 
Solution: -4 0
Gbest: -4.000000
Expectation: -7.623634
Final Parameters:
Gammas:
[ 5.253408 3.712801 ]
Betas:
[ 0.186447 2.407024 1.396412 ]
Aggregate results:
[ 3 5 9 7 11 15 ]
[ 0.316145 0.169597 0.090988 0.281206 0.022771 0.119293 ]
5
Num Evals 800
GenUC: 9.047297e-06
GenUB: 8.149429e-06
Optimisation 7.171186e-02
Total Time: 7.190821e-02
3 Add 4
Graph 1:
0 0 0 0 
0 1 0 0 
0 1 1 1 
0 1 1 0 
Graph 2:
1 0 0 0 
0 1 0 1 
0 1 1 1 
0 1 1 1 
Solution: -3 0
Gbest: -3.000000
Expectation: -8.007798
Final Parameters:
Gammas:
[ 5.635228 3.392829 ]
Betas:
[ 2.478931 0.832765 1.198183 ]
Aggregate results:
[ 2 6 4 8 10 15 ]
[ 0.129008 0.095853 0.224705 0.419054 0.009458 0.121923 ]
5
Num Evals 1200
GenUC: 8.771487e-06
GenUB: 8.267976e-06
Optimisation 7.474527e-02
Total Time: 7.496215e-02
4 Rem 4
Graph 1:
0 0 0 0 
0 1 0 0 
0 1 1 1 
0 1 1 0 
Graph 2:
0 0 0 0 
0 1 0 0 
0 1 0 1 
0 0 1 0 
Solution: -2 0
Gbest: -2.000000
Expectation: -6.950926
Final Parameters:
Gammas:
[ 4.770754 4.249909 ]
Betas:
[ 0.178603 0.820281 2.418352 ]
Aggregate results:
[ 1 5 7 3 9 15 ]
[ 0.199569 0.183419 0.326870 0.115348 0.070298 0.104497 ]
5
Num Evals 1600
GenUC: 8.875351e-06
GenUB: 8.095441e-06
Optimisation 6.402031e-02
Total Time: 6.420469e-02
5 Add/Rem 4
Graph 1:
0 0 0 0 
0 1 0 0 
0 1 1 1 
0 1 1 0 
Graph 2:
0 0 1 0 
1 1 1 0 
0 0 0 0 
0 1 0 1 
Solution: -4 18
Gbest: -4.000000
Expectation: -8.231437
Final Parameters:
Gammas:
[ 4.525313 4.220044 ]
Betas:
[ 0.968253 2.870808 1.833282 ]
Aggregate results:
[ 7 11 5 9 3 15 ]
[ 0.322259 0.014679 0.387573 0.007884 0.100728 0.166877 ]
5
Num Evals 2000
GenUC: 9.310199e-06
GenUB: 7.900613e-06
Optimisation 8.028919e-02
Total Time: 8.051298e-02
