Clock Speed: 3.689031
Num threads: 4
Trotterisation: 2
Graph Size: 4
Num Qubits: 5
Space Dimension: 32
Run-Type: 0
Num_samples: 10
1 Isomorphic
Graph 1:
0 0 1 0 
0 0 0 1 
0 1 0 0 
0 1 0 1 
Graph 2:
0 0 1 0 
0 0 0 1 
0 1 0 0 
0 1 0 1 
Solution: 0 0
Gbest: 0.000000
Expectation: -7.938284
Final Parameters:
Gammas:
[ 5.126800 3.690178 ]
Betas:
[ 2.639126 0.578383 2.034063 ]
Aggregate results:
[ -1 7 5 3 9 15 ]
[ 0.081087 0.231109 0.332693 0.075306 0.114141 0.165664 ]
5
Num Evals 400
GenUC: 1.459507e-04
GenUB: 1.202017e-05
Optimisation 8.374274e-02
Total Time: 8.413636e-02
2 Flipped
Graph 1:
0 0 1 0 
0 0 0 1 
0 1 0 0 
0 1 0 1 
Graph 2:
0 1 0 0 
1 0 0 0 
0 0 1 0 
1 0 1 0 
Solution: -4 6
Gbest: -4.000000
Expectation: -7.579319
Final Parameters:
Gammas:
[ 3.662040 1.863414 ]
Betas:
[ 2.973077 1.518310 2.582832 ]
Aggregate results:
[ 9 7 5 3 15 ]
[ 0.094904 0.299813 0.205782 0.282911 0.116590 ]
5
Num Evals 800
GenUC: 9.445706e-06
GenUB: 8.010946e-06
Optimisation 1.054108e-01
Total Time: 1.056711e-01
3 Add 4
Graph 1:
0 0 1 0 
0 0 0 1 
0 1 0 0 
0 1 0 1 
Graph 2:
1 0 1 0 
0 0 0 1 
0 1 0 0 
1 1 1 1 
Solution: -3 0
Gbest: -3.000000
Expectation: -7.438034
Final Parameters:
Gammas:
[ 4.659452 1.561917 ]
Betas:
[ 2.703163 0.610321 2.409286 ]
Aggregate results:
[ 2 8 6 10 4 15 ]
[ 0.160316 0.312725 0.377821 0.027224 0.068388 0.053526 ]
5
Num Evals 1200
GenUC: 1.072156e-05
GenUB: 8.236850e-06
Optimisation 8.298795e-02
Total Time: 8.322160e-02
4 Rem 4
Graph 1:
0 0 1 0 
0 0 0 1 
0 1 0 0 
0 1 0 1 
Graph 2:
0 0 0 0 
0 0 0 1 
0 1 0 0 
0 1 0 0 
Solution: -2 0
Gbest: -4.000000
Expectation: -6.014410
Final Parameters:
Gammas:
[ 3.889746 2.563781 ]
Betas:
[ 2.443051 1.142526 1.690189 ]
Aggregate results:
[ 1 7 5 3 15 ]
[ 0.054351 0.092843 0.412034 0.363465 0.077306 ]
5
Num Evals 1600
GenUC: 8.647679e-06
GenUB: 8.472183e-06
Optimisation 8.063480e-02
Total Time: 8.085868e-02
5 Add/Rem 4
Graph 1:
0 0 1 0 
0 0 0 1 
0 1 0 0 
0 1 0 1 
Graph 2:
1 0 0 0 
0 1 0 0 
0 0 0 0 
1 1 0 0 
Solution: -5 13
Gbest: -5.000000
Expectation: -6.826531
Final Parameters:
Gammas:
[ 3.360149 2.068294 ]
Betas:
[ 0.137504 2.230081 1.947383 ]
Aggregate results:
[ 6 8 4 15 ]
[ 0.535314 0.101687 0.331257 0.031741 ]
5
Num Evals 2000
GenUC: 8.502102e-06
GenUB: 8.263858e-06
Optimisation 7.427527e-02
Total Time: 7.447388e-02
