Clock Speed: 3.498795
Num threads: 16
Trotterisation: 3
Num Qubits: 5
Space Dimension: 32
Run-Type: 0
Num_samples: 16
Optimiser Method: 0
1 Isomorphic
Graph 1:
0 1 0 0 
0 0 1 1 
1 1 1 1 
0 0 0 0 
Graph 2:
0 1 0 0 
0 0 1 1 
1 1 1 1 
0 0 0 0 
Solution: 16 0
Classic Expectation: 8.500000
Initial Expecation: 6.375000
Gbest: 16.000000
Expectation: 6.375000
Final Parameters:
Gammas:
[ 3.141593 3.141593 3.141593 ]
Betas:
[ 1.919862 1.570796 1.570796 ]
Aggregate results:
[ 16 8 10 6 2 12 0 ]
[ 0.031250 0.187500 0.187500 0.218750 0.031250 0.093750 0.250000 ]
3
Num Evals 31
GenUC: 9.836163e-06
GenUB: 1.444155e-05
Optimisation 3.375756e-03
Total Time: 3.408428e-03
2 Flipped
Graph 1:
0 1 0 0 
0 0 1 1 
1 1 1 1 
0 0 0 0 
Graph 2:
0 0 1 0 
1 1 0 0 
1 1 1 1 
0 0 0 0 
Solution: 14 6
Classic Expectation: 8.000000
Initial Expecation: 6.000000
Gbest: 14.000000
Expectation: 6.701660
Final Parameters:
Gammas:
[ 1.047198 3.141593 3.141593 ]
Betas:
[ 1.570796 1.570796 0.523599 ]
Aggregate results:
[ 10 2 12 8 6 14 4 0 ]
[ 0.067139 0.012573 0.075806 0.320923 0.175781 0.089478 0.055176 0.203125 ]
3
Num Evals 31
GenUC: 1.066411e-05
GenUB: 2.226327e-06
Optimisation 3.277771e-03
Total Time: 3.292179e-03
3 Add 4
Graph 1:
0 1 0 0 
0 0 1 1 
1 1 1 1 
0 0 0 0 
Graph 2:
1 1 0 0 
0 1 1 1 
1 1 1 1 
0 1 0 0 
Solution: 13 0
Classic Expectation: 7.500000
Initial Expecation: 5.625000
Gbest: 13.000000
Expectation: 9.886346
Final Parameters:
Gammas:
[ 0.283258 0.134180 5.853633 ]
Betas:
[ 2.542578 1.515333 2.654625 ]
Aggregate results:
[ 13 7 9 5 1 11 0 ]
[ 0.219139 0.090032 0.447006 0.008526 0.008980 0.212058 0.014257 ]
3
Num Evals 9217
GenUC: 1.019379e-05
GenUB: 1.856592e-06
Optimisation 1.045715e+00
Total Time: 1.045729e+00
4 Rem 4
Graph 1:
0 1 0 0 
0 0 1 1 
1 1 1 1 
0 0 0 0 
Graph 2:
0 0 0 0 
0 0 0 0 
1 1 1 1 
0 0 0 0 
Solution: 13 0
Classic Expectation: 8.500000
Initial Expecation: 6.375000
Gbest: 13.000000
Expectation: 7.779053
Final Parameters:
Gammas:
[ 3.141593 5.235988 1.047198 ]
Betas:
[ 1.919862 0.523599 0.523599 ]
Aggregate results:
[ 13 5 9 7 0 ]
[ 0.199722 0.059921 0.253601 0.371521 0.115234 ]
3
Num Evals 61
GenUC: 1.051184e-05
GenUB: 3.126338e-04
Optimisation 5.786329e-03
Total Time: 6.111563e-03
5 Add/Rem 4
Graph 1:
0 1 0 0 
0 0 1 1 
1 1 1 1 
0 0 0 0 
Graph 2:
0 0 1 0 
0 0 0 1 
1 0 1 1 
0 1 0 1 
Solution: 10 0
Classic Expectation: 8.000000
Initial Expecation: 6.000000
Gbest: 10.000000
Expectation: 6.064453
Final Parameters:
Gammas:
[ 1.047198 3.141593 3.141593 ]
Betas:
[ 0.523599 1.570796 1.570796 ]
Aggregate results:
[ 10 8 6 0 ]
[ 0.267578 0.247070 0.235352 0.250000 ]
3
Num Evals 19
GenUC: 9.930693e-06
GenUB: 1.439825e-06
Optimisation 1.993797e-03
Total Time: 2.006650e-03
