Clock Speed: 3.688818
Num threads: 4
Trotterisation: 3
Num Qubits: 5
Space Dimension: 32
Run-Type: 0
Num_samples: 6399
Optimiser Method: 0
1 Isomorphic
Graph 1:
0 0 0 1 
0 0 1 1 
0 1 0 1 
1 0 1 0 
Graph 2:
0 0 0 1 
0 0 1 1 
0 1 0 1 
1 0 1 0 
Solution: 16 0
Classic Expectation: 10.166667
Initial Expecation: 7.625000
Gbest: 16.000000
Expectation: 8.320801
Final Parameters:
Gammas:
[ 5.235988 1.047198 3.141593 ]
Betas:
[ 0.523599 1.570796 1.570796 ]
Aggregate results:
[ 16 10 14 12 8 6 0 ]
[ 0.059448 0.292236 0.066162 0.140259 0.202637 0.036133 0.203125 ]
3
Num Evals 27
GenUC: 8.497445e-06
GenUB: 9.843090e-06
Optimisation 7.298983e-03
Total Time: 7.344464e-03
2 Flipped
Graph 1:
0 0 0 1 
0 0 1 1 
0 1 0 1 
1 0 1 0 
Graph 2:
1 0 0 0 
1 1 0 0 
1 0 1 0 
0 1 0 1 
Solution: 8 15
Classic Expectation: 5.500000
Initial Expecation: 4.125000
Gbest: 8.000000
Expectation: 4.125000
Final Parameters:
Gammas:
[ 3.141593 3.141593 3.141593 ]
Betas:
[ 1.919862 1.570796 1.570796 ]
Aggregate results:
[ 2 6 4 8 0 ]
[ 0.062500 0.437500 0.156250 0.093750 0.250000 ]
3
Num Evals 27
GenUC: 8.951058e-06
GenUB: 1.576846e-06
Optimisation 7.146374e-03
Total Time: 7.158871e-03
3 Add 4
Graph 1:
0 0 0 1 
0 0 1 1 
0 1 0 1 
1 0 1 0 
Graph 2:
1 0 1 1 
0 0 1 1 
0 1 1 1 
1 0 1 0 
Solution: 13 0
Classic Expectation: 8.333333
Initial Expecation: 6.250000
Gbest: 13.000000
Expectation: 6.654297
Final Parameters:
Gammas:
[ 1.047198 5.235988 3.141593 ]
Betas:
[ 0.523599 1.570796 1.570796 ]
Aggregate results:
[ 13 9 11 7 5 0 ]
[ 0.027344 0.349609 0.100586 0.224609 0.094727 0.203125 ]
3
Num Evals 19
GenUC: 9.301410e-06
GenUB: 1.451233e-06
Optimisation 4.712912e-03
Total Time: 4.725469e-03
4 Rem 4
Graph 1:
0 0 0 1 
0 0 1 1 
0 1 0 1 
1 0 1 0 
Graph 2:
0 0 0 0 
0 0 1 1 
0 0 0 1 
1 0 0 0 
Solution: 13 0
Classic Expectation: 9.666667
Initial Expecation: 7.250000
Gbest: 13.000000
Expectation: 8.287046
Final Parameters:
Gammas:
[ 5.235988 1.047198 3.141593 ]
Betas:
[ 0.523599 1.570796 2.617994 ]
Aggregate results:
[ 13 11 9 7 0 ]
[ 0.092735 0.165538 0.564774 0.025372 0.151581 ]
3
Num Evals 37
GenUC: 8.944015e-06
GenUB: 1.371431e-06
Optimisation 9.285285e-03
Total Time: 9.297230e-03
5 Add/Rem 4
Graph 1:
0 0 0 1 
0 0 1 1 
0 1 0 1 
1 0 1 0 
Graph 2:
0 1 0 1 
0 0 0 1 
0 0 1 1 
0 0 1 1 
Solution: 12 12
Classic Expectation: 7.833333
Initial Expecation: 5.875000
Gbest: 12.000000
Expectation: 6.274902
Final Parameters:
Gammas:
[ 5.235988 3.141593 1.047198 ]
Betas:
[ 2.617994 1.570796 1.570796 ]
Aggregate results:
[ 10 8 6 12 4 0 ]
[ 0.223145 0.287476 0.137207 0.052246 0.073364 0.226562 ]
3
Num Evals 25
GenUC: 8.689938e-06
GenUB: 1.206587e-06
Optimisation 6.401664e-03
Total Time: 6.413005e-03
