Clock Speed: 3.688722
Num threads: 4
Trotterisation: 3
Num Qubits: 5
Space Dimension: 32
Run-Type: 0
Num_samples: 6399
Optimiser Method: 0
1 Isomorphic
Graph 1:
0 0 0 1 
0 1 0 0 
1 1 1 1 
0 0 1 0 
Graph 2:
0 0 0 1 
0 1 0 0 
1 1 1 1 
0 0 1 0 
Solution: 16 0
Classic Expectation: 8.166667
Initial Expecation: 6.125000
Gbest: 16.000000
Expectation: 7.350107
Final Parameters:
Gammas:
[ 1.745329 3.839724 3.141593 ]
Betas:
[ 2.617994 1.570796 1.570796 ]
Aggregate results:
[ 16 8 6 10 12 0 ]
[ 0.011235 0.407380 0.196230 0.025756 0.206364 0.153035 ]
3
Num Evals 63
GenUC: 8.308445e-06
GenUB: 8.871837e-06
Optimisation 1.668168e-02
Total Time: 1.671679e-02
2 Flipped
Graph 1:
0 0 0 1 
0 1 0 0 
1 1 1 1 
0 0 1 0 
Graph 2:
1 0 0 0 
0 0 1 0 
1 1 1 1 
0 1 0 0 
Solution: 16 19
Classic Expectation: 8.166667
Initial Expecation: 6.125000
Gbest: 16.000000
Expectation: 6.834717
Final Parameters:
Gammas:
[ 5.235988 5.235988 1.047198 ]
Betas:
[ 0.523599 1.570796 1.570796 ]
Aggregate results:
[ 10 6 8 12 16 0 ]
[ 0.408203 0.125122 0.180786 0.004639 0.031250 0.250000 ]
3
Num Evals 35
GenUC: 9.089534e-06
GenUB: 1.701876e-06
Optimisation 9.030568e-03
Total Time: 9.042873e-03
3 Add 4
Graph 1:
0 0 0 1 
0 1 0 0 
1 1 1 1 
0 0 1 0 
Graph 2:
0 1 0 1 
0 1 1 0 
1 1 1 1 
1 1 1 0 
Solution: 12 0
Classic Expectation: 7.500000
Initial Expecation: 5.625000
Gbest: 12.000000
Expectation: 5.625000
Final Parameters:
Gammas:
[ 3.141593 3.141593 3.141593 ]
Betas:
[ 1.919862 1.570796 1.570796 ]
Aggregate results:
[ 12 8 4 10 6 0 ]
[ 0.031250 0.281250 0.062500 0.125000 0.250000 0.250000 ]
3
Num Evals 27
GenUC: 9.198091e-06
GenUB: 1.297507e-06
Optimisation 6.640734e-03
Total Time: 6.652623e-03
4 Rem 4
Graph 1:
0 0 0 1 
0 1 0 0 
1 1 1 1 
0 0 1 0 
Graph 2:
0 0 0 0 
0 0 0 0 
0 1 1 1 
0 0 0 0 
Solution: 12 0
Classic Expectation: 8.666667
Initial Expecation: 6.500000
Gbest: 12.000000
Expectation: 7.443359
Final Parameters:
Gammas:
[ 1.047198 3.141593 3.141593 ]
Betas:
[ 0.523599 1.570796 1.570796 ]
Aggregate results:
[ 12 8 6 0 ]
[ 0.187500 0.627930 0.028320 0.156250 ]
3
Num Evals 23
GenUC: 8.892384e-06
GenUB: 1.174223e-06
Optimisation 5.771470e-03
Total Time: 5.782854e-03
5 Add/Rem 4
Graph 1:
0 0 0 1 
0 1 0 0 
1 1 1 1 
0 0 1 0 
Graph 2:
1 0 0 0 
1 1 0 0 
0 0 1 1 
0 1 1 0 
Solution: 12 12
Classic Expectation: 8.333333
Initial Expecation: 6.250000
Gbest: 12.000000
Expectation: 6.756836
Final Parameters:
Gammas:
[ 1.047198 1.047198 3.141593 ]
Betas:
[ 2.617994 1.570796 1.570796 ]
Aggregate results:
[ 10 8 6 4 12 0 ]
[ 0.264038 0.378906 0.023315 0.007446 0.076294 0.250000 ]
3
Num Evals 19
GenUC: 8.827250e-06
GenUB: 1.145469e-06
Optimisation 4.759438e-03
Total Time: 4.770673e-03
