Clock Speed: 3.688581
Num threads: 4
Trotterisation: 6
Num Qubits: 7
Space Dimension: 128
Run-Type: 0
Num_samples: 5
Optimiser Method: 29
1 Isomorphic
Graph 1:
0 1 1 0 1 
1 0 0 0 1 
1 0 0 1 0 
0 0 1 0 1 
1 1 0 1 0 
Graph 2:
0 1 1 0 1 
1 0 0 0 1 
1 0 0 1 0 
0 0 1 0 1 
1 1 0 1 0 
Solution: 25 0
Classic Expectation: 15.400000
Initial Expecation: 14.437500
Gbest: 21.000000
Expectation: 18.957207
Final Parameters:
Gammas:
[ 2.848129 1.876534 3.349734 2.856479 3.267420 3.244455 ]
Betas:
[ 1.669009 1.560748 1.568890 1.112439 1.707172 1.618791 ]
Aggregate results:
[ 25 13 17 21 9 0 ]
[ 0.086858 0.044366 0.410526 0.426449 0.030514 0.001286 ]
5
Num Evals 6000
GenUC: 4.146179e-05
GenUB: 1.384818e-05
Optimisation 1.164333e+02
Total Time: 1.164334e+02
2 Flipped
Graph 1:
0 1 1 0 1 
1 0 0 0 1 
1 0 0 1 0 
0 0 1 0 1 
1 1 0 1 0 
Graph 2:
1 0 1 1 0 
1 0 0 0 1 
0 1 0 0 1 
1 0 1 0 0 
0 1 0 1 1 
Solution: 17 7
Classic Expectation: 13.000000
Initial Expecation: 12.187500
Gbest: 17.000000
Expectation: 14.084597
Final Parameters:
Gammas:
[ 4.196174 2.956738 3.795251 3.286205 4.243652 3.386367 ]
Betas:
[ 1.790778 1.471768 1.861748 1.439019 1.291971 2.467096 ]
Aggregate results:
[ 13 15 11 9 17 0 ]
[ 0.132765 0.374620 0.158703 0.058165 0.262948 0.012798 ]
5
Num Evals 6000
GenUC: 4.445114e-05
GenUB: 2.903082e-06
Optimisation 1.203863e+02
Total Time: 1.203864e+02
3 Add 5
Graph 1:
0 1 1 0 1 
1 0 0 0 1 
1 0 0 1 0 
0 0 1 0 1 
1 1 0 1 0 
Graph 2:
1 1 1 1 1 
1 1 1 1 1 
1 1 0 1 1 
1 1 1 0 1 
1 1 1 1 0 
Solution: 15 0
Classic Expectation: 15.000000
Initial Expecation: 14.062500
Gbest: 15.000000
Expectation: 15.000000
Final Parameters:
Gammas:
[ 3.926991 4.561200 3.141636 2.746344 0.000000 6.051629 ]
Betas:
[ 1.568169 1.462669 1.583120 1.145873 1.570796 1.583068 ]
Aggregate results:
[ 15 0 ]
[ 1.000000 0.000000 ]
4
Num Evals 1768
GenUC: 4.439363e-05
GenUB: 6.322582e-06
Optimisation 3.417162e+01
Total Time: 3.417168e+01
4 Rem 5
Graph 1:
0 1 1 0 1 
1 0 0 0 1 
1 0 0 1 0 
0 0 1 0 1 
1 1 0 1 0 
Graph 2:
0 0 0 0 0 
0 0 0 0 0 
0 0 0 0 0 
0 0 0 0 1 
0 0 0 1 0 
Solution: 15 0
Classic Expectation: 13.400000
Initial Expecation: 12.562500
Gbest: 15.000000
Expectation: 14.668223
Final Parameters:
Gammas:
[ 1.254427 4.903165 1.565677 4.600869 6.283185 4.241837 ]
Betas:
[ 1.411484 1.762377 2.322577 1.118375 1.053701 1.530252 ]
Aggregate results:
[ 15 11 0 ]
[ 0.930428 0.064709 0.004863 ]
5
Num Evals 6000
GenUC: 4.448225e-05
GenUB: 6.757426e-06
Optimisation 1.131644e+02
Total Time: 1.131644e+02
5 Add/Rem 5
Graph 1:
0 1 1 0 1 
1 0 0 0 1 
1 0 0 1 0 
0 0 1 0 1 
1 1 0 1 0 
Graph 2:
1 0 0 1 0 
0 1 1 0 0 
0 1 0 0 1 
1 0 0 0 1 
0 0 1 1 0 
Solution: 19 3
Classic Expectation: 12.600000
Initial Expecation: 11.812500
Gbest: 19.000000
Expectation: 15.249408
Final Parameters:
Gammas:
[ 3.765921 3.914042 4.086314 5.537436 4.885412 3.063161 ]
Betas:
[ 1.541972 1.552921 1.523930 3.141593 1.751594 1.648431 ]
Aggregate results:
[ 7 15 11 19 3 0 ]
[ 0.022176 0.449907 0.158563 0.345589 0.011727 0.012038 ]
5
Num Evals 6000
GenUC: 4.456969e-05
GenUB: 6.026818e-06
Optimisation 1.283080e+02
Total Time: 1.283080e+02
