Clock Speed: 3.689438
Num threads: 4
Trotterisation: 5
Graph Size: 8
Num Qubits: 16
Space Dimension: 65536
Run-Type: 0
Num_samples: 10
1 Isomorphic
Graph 1:
1 0 0 0 1 1 1 1 
1 1 1 0 1 1 1 0 
0 0 0 0 0 0 1 0 
0 0 1 0 1 1 0 1 
1 1 1 1 0 0 0 0 
0 0 1 0 1 0 0 0 
0 1 0 1 0 0 1 0 
0 1 1 0 0 0 0 1 
Graph 2:
1 0 0 0 1 1 1 1 
1 1 1 0 1 1 1 0 
0 0 0 0 0 0 1 0 
0 0 1 0 1 1 0 1 
1 1 1 1 0 0 0 0 
0 0 1 0 1 0 0 0 
0 1 0 1 0 0 1 0 
0 1 1 0 0 0 0 1 
Solution: 0 0
Gbest: -10.000000
Expectation: -35.944669
Final Parameters:
Gammas:
[ 5.180747 6.119744 1.077246 4.960060 3.524102 ]
Betas:
[ 3.047668 1.201951 1.930840 0.842661 1.598193 1.533680 ]
Aggregate results:
[ -1 9 19 15 13 25 21 23 17 35 33 27 29 31 37 7 39 11 41 43 45 63 ]
[ 0.000046 0.000241 0.005663 0.000850 0.000444 0.077151 0.017474 0.034957 0.002294 0.072781 0.130150 0.128901 0.160098 0.160502 0.037006 0.000040 0.013799 0.000125 0.003694 0.000452 0.000177 0.153156 ]
5
Num Evals 800
GenUC: 4.321584e-03
GenUB: 1.786254e-02
Optimisation 3.245991e+02
Total Time: 3.250220e+02
2 Flipped
Graph 1:
1 0 0 0 1 1 1 1 
1 1 1 0 1 1 1 0 
0 0 0 0 0 0 1 0 
0 0 1 0 1 1 0 1 
1 1 1 1 0 0 0 0 
0 0 1 0 1 0 0 0 
0 1 0 1 0 0 1 0 
0 1 1 0 0 0 0 1 
Graph 2:
1 1 1 1 0 0 0 1 
0 1 1 1 0 1 1 1 
0 1 0 0 0 0 0 0 
1 0 1 1 0 1 0 0 
0 0 0 0 1 1 1 1 
0 0 0 1 0 1 0 0 
0 1 0 0 1 0 1 0 
1 0 0 0 0 1 1 0 
Solution: -16 37449
Gbest: -22.000000
Expectation: -40.356058
Final Parameters:
Gammas:
[ 4.288346 0.067339 3.083004 1.966146 6.014077 ]
Betas:
[ 2.007888 0.839859 0.417625 0.993240 3.141089 1.563943 ]
Aggregate results:
[ 35 33 41 43 37 39 31 29 25 23 27 21 45 19 17 15 63 ]
[ 0.058855 0.106389 0.002102 0.000468 0.027421 0.009283 0.140396 0.141836 0.066998 0.032484 0.108147 0.013340 0.000035 0.003530 0.000906 0.000029 0.287780 ]
5
Num Evals 1600
GenUC: 2.614033e-03
GenUB: 1.733764e-02
Optimisation 2.928736e+02
Total Time: 2.932651e+02
3 Add 8
Graph 1:
1 0 0 0 1 1 1 1 
1 1 1 0 1 1 1 0 
0 0 0 0 0 0 1 0 
0 0 1 0 1 1 0 1 
1 1 1 1 0 0 0 0 
0 0 1 0 1 0 0 0 
0 1 0 1 0 0 1 0 
0 1 1 0 0 0 0 1 
Graph 2:
1 0 0 0 1 1 1 1 
1 1 1 1 1 1 1 0 
1 0 0 0 0 0 1 0 
0 0 1 1 1 1 0 1 
1 1 1 1 0 1 0 0 
0 1 1 1 1 0 1 0 
0 1 0 1 0 0 1 0 
0 1 1 0 0 1 0 1 
Solution: -8 0
Gbest: -24.000000
Expectation: -32.423993
Final Parameters:
Gammas:
[ 6.236228 4.801677 4.943506 1.592273 6.249043 ]
Betas:
[ 0.222618 2.152484 1.556094 0.068458 1.535244 1.503101 ]
Aggregate results:
[ 7 17 25 19 21 29 27 31 23 15 13 35 33 37 9 39 41 43 45 47 63 ]
[ 0.000003 0.002504 0.114061 0.009709 0.027727 0.178543 0.165596 0.137130 0.062209 0.000731 0.000247 0.063167 0.089994 0.045024 0.000012 0.026035 0.010262 0.003664 0.000796 0.000047 0.062539 ]
5
Num Evals 2400
GenUC: 2.873886e-03
GenUB: 1.735923e-02
Optimisation 2.347772e+02
Total Time: 2.351150e+02
4 Rem 8
Graph 1:
1 0 0 0 1 1 1 1 
1 1 1 0 1 1 1 0 
0 0 0 0 0 0 1 0 
0 0 1 0 1 1 0 1 
1 1 1 1 0 0 0 0 
0 0 1 0 1 0 0 0 
0 1 0 1 0 0 1 0 
0 1 1 0 0 0 0 1 
Graph 2:
1 0 0 0 1 0 1 1 
1 0 1 0 1 1 0 0 
0 0 0 0 0 0 1 0 
0 0 0 0 0 1 0 0 
1 1 0 1 0 0 0 0 
0 0 1 0 1 0 0 0 
0 1 0 1 0 0 1 0 
0 0 1 0 0 0 0 1 
Solution: -8 0
Gbest: -22.000000
Expectation: -34.728981
Final Parameters:
Gammas:
[ 5.021277 1.574435 2.601407 0.370301 1.967318 ]
Betas:
[ 0.034295 0.140313 0.492108 0.097359 0.961342 1.558489 ]
Aggregate results:
[ 7 15 23 19 21 17 25 27 13 9 29 31 33 35 37 39 41 43 45 63 ]
[ 0.000023 0.000286 0.066236 0.005617 0.026826 0.001358 0.144158 0.164735 0.000046 0.000010 0.185054 0.120441 0.069219 0.034255 0.015946 0.005336 0.001414 0.000152 0.000022 0.158864 ]
5
Num Evals 3200
GenUC: 3.036649e-03
GenUB: 1.710848e-02
Optimisation 1.877255e+02
Total Time: 1.879673e+02
5 Add/Rem 8
Graph 1:
1 0 0 0 1 1 1 1 
1 1 1 0 1 1 1 0 
0 0 0 0 0 0 1 0 
0 0 1 0 1 1 0 1 
1 1 1 1 0 0 0 0 
0 0 1 0 1 0 0 0 
0 1 0 1 0 0 1 0 
0 1 1 0 0 0 0 1 
Graph 2:
1 0 0 0 1 1 0 1 
1 0 1 0 1 0 1 0 
0 0 0 0 0 0 1 0 
0 1 0 1 1 1 0 1 
1 1 0 1 0 0 0 0 
0 1 1 0 1 0 0 0 
1 1 1 1 0 0 1 0 
0 1 1 0 0 1 1 1 
Solution: -12 0
Gbest: -22.000000
Expectation: -42.928364
Final Parameters:
Gammas:
[ 4.832842 0.917177 0.000098 1.282595 1.133364 ]
Betas:
[ 2.874222 2.087669 0.045912 1.498058 0.032865 3.138388 ]
Aggregate results:
[ 11 19 15 27 23 25 29 21 31 17 13 33 37 39 35 41 43 45 47 63 ]
[ 0.000014 0.002047 0.000146 0.094598 0.026047 0.045163 0.103673 0.009258 0.133803 0.000751 0.000040 0.095383 0.037685 0.018896 0.075114 0.006340 0.001905 0.000146 0.000003 0.348988 ]
5
Num Evals 4000
GenUC: 2.903654e-03
GenUB: 1.708929e-02
Optimisation 2.943103e+02
Total Time: 2.946892e+02
