Clock Speed: 3.498830
Num threads: 16
Trotterisation: 5
Num Qubits: 5
Space Dimension: 32
Run-Type: 0
Num_samples: 16
Optimiser Method: 28
1 Isomorphic
Graph 1:
0 0 1 0 
1 0 0 1 
1 1 0 1 
1 1 1 1 
Graph 2:
0 0 1 0 
1 0 0 1 
1 1 0 1 
1 1 1 1 
Solution: 16 0
Classic Expectation: 10.000000
Initial Expecation: 7.500000
Gbest: 16.000000
Expectation: 7.500000
Final Parameters:
Gammas:
[ 3.141593 3.141593 3.141593 3.141593 3.141593 ]
Betas:
[ 1.570796 1.570796 1.570796 1.570796 2.356194 ]
Aggregate results:
[ 16 10 12 8 0 ]
[ 0.031250 0.312500 0.156250 0.250000 0.250000 ]
3
Num Evals 11
GenUC: 1.076004e-05
GenUB: 1.469813e-05
Optimisation 3.478089e-03
Total Time: 3.511718e-03
2 Flipped
Graph 1:
0 0 1 0 
1 0 0 1 
1 1 0 1 
1 1 1 1 
Graph 2:
0 1 0 0 
1 0 0 1 
1 0 1 1 
1 1 1 1 
Solution: 14 2
Classic Expectation: 9.000000
Initial Expecation: 6.750000
Gbest: 14.000000
Expectation: 10.011348
Final Parameters:
Gammas:
[ 5.158266 2.736996 3.597317 3.443629 3.789961 ]
Betas:
[ 2.088812 0.690766 1.770921 2.025687 2.628651 ]
Aggregate results:
[ 12 10 14 8 6 0 ]
[ 0.096806 0.101813 0.241150 0.548577 0.011138 0.000516 ]
3
Num Evals 3148
GenUC: 1.034932e-05
GenUB: 1.854729e-06
Optimisation 5.987043e-01
Total Time: 5.987186e-01
3 Add 4
Graph 1:
0 0 1 0 
1 0 0 1 
1 1 0 1 
1 1 1 1 
Graph 2:
1 0 1 0 
1 0 1 1 
1 1 1 1 
1 1 1 1 
Solution: 13 0
Classic Expectation: 9.500000
Initial Expecation: 7.125000
Gbest: 13.000000
Expectation: 10.995583
Final Parameters:
Gammas:
[ 3.563459 3.626385 4.434836 3.875333 2.127813 ]
Betas:
[ 0.544519 2.109500 1.597911 1.639022 1.815626 ]
Aggregate results:
[ 13 11 9 7 0 ]
[ 0.349812 0.305348 0.341539 0.002193 0.001108 ]
3
Num Evals 6439
GenUC: 9.787735e-06
GenUB: 1.659151e-06
Optimisation 1.100568e+00
Total Time: 1.100581e+00
4 Rem 4
Graph 1:
0 0 1 0 
1 0 0 1 
1 1 0 1 
1 1 1 1 
Graph 2:
0 0 0 0 
1 0 0 0 
1 1 0 0 
1 1 1 0 
Solution: 12 0
Classic Expectation: 9.000000
Initial Expecation: 6.750000
Gbest: 12.000000
Expectation: 6.750000
Final Parameters:
Gammas:
[ 3.141593 3.141593 3.141593 3.141593 3.141593 ]
Betas:
[ 2.356194 2.356194 1.570796 1.570796 2.356194 ]
Aggregate results:
[ 12 10 8 6 0 ]
[ 0.093750 0.281250 0.281250 0.093750 0.250000 ]
3
Num Evals 11
GenUC: 9.957701e-06
GenUB: 1.758337e-06
Optimisation 1.999910e-03
Total Time: 2.013458e-03
5 Add/Rem 4
Graph 1:
0 0 1 0 
1 0 0 1 
1 1 0 1 
1 1 1 1 
Graph 2:
1 1 0 1 
0 0 1 1 
1 0 0 1 
1 1 1 1 
Solution: 13 2
Classic Expectation: 9.500000
Initial Expecation: 7.125000
Gbest: 13.000000
Expectation: 9.968008
Final Parameters:
Gammas:
[ 3.543362 3.408880 2.699634 2.899174 3.253833 ]
Betas:
[ 1.633468 2.563553 0.753712 1.029735 2.283375 ]
Aggregate results:
[ 9 13 7 11 0 ]
[ 0.350142 0.260556 0.164154 0.207311 0.017837 ]
3
Num Evals 4007
GenUC: 9.731390e-06
GenUB: 1.457054e-06
Optimisation 7.267092e-01
Total Time: 7.267217e-01
