Clock Speed: 3.688377
Num threads: 4
Trotterisation: 5
Num Qubits: 5
Space Dimension: 32
Run-Type: 0
Num_samples: 6399
Optimiser Method: 28
1 Isomorphic
Graph 1:
0 1 1 1 
0 0 0 1 
0 1 1 0 
1 0 1 1 
Graph 2:
0 1 1 1 
0 0 0 1 
0 1 1 0 
1 0 1 1 
Solution: 16 0
Classic Expectation: 8.166667
Initial Expecation: 6.125000
Gbest: 16.000000
Expectation: 10.745135
Final Parameters:
Gammas:
[ 2.989903 3.307354 3.074087 3.544064 4.574794 ]
Betas:
[ 2.205992 1.734881 1.958758 1.836941 1.510387 ]
Aggregate results:
[ 16 8 12 6 10 2 0 ]
[ 0.224607 0.323196 0.153940 0.038716 0.248479 0.000747 0.010315 ]
3
Num Evals 1752
GenUC: 8.341918e-06
GenUB: 7.924089e-06
Optimisation 9.064989e-01
Total Time: 9.065332e-01
2 Flipped
Graph 1:
0 1 1 1 
0 0 0 1 
0 1 1 0 
1 0 1 1 
Graph 2:
1 1 1 0 
1 0 0 0 
0 1 1 0 
1 1 0 1 
Solution: 12 21
Classic Expectation: 8.000000
Initial Expecation: 6.000000
Gbest: 12.000000
Expectation: 9.164539
Final Parameters:
Gammas:
[ 3.687691 2.365111 3.825726 3.465136 2.512415 ]
Betas:
[ 1.068258 1.599481 1.283557 1.852325 0.836439 ]
Aggregate results:
[ 10 8 6 12 0 ]
[ 0.501931 0.121458 0.152020 0.188454 0.036137 ]
3
Num Evals 2442
GenUC: 9.398813e-06
GenUB: 1.808050e-06
Optimisation 1.219181e+00
Total Time: 1.219194e+00
3 Add 4
Graph 1:
0 1 1 1 
0 0 0 1 
0 1 1 0 
1 0 1 1 
Graph 2:
0 1 1 1 
1 0 0 1 
0 1 1 1 
1 1 1 1 
Solution: 13 0
Classic Expectation: 8.666667
Initial Expecation: 6.500000
Gbest: 13.000000
Expectation: 9.650655
Final Parameters:
Gammas:
[ 4.034592 3.181623 3.655610 3.491156 2.952845 ]
Betas:
[ 1.609821 0.860638 2.222859 1.419824 2.127014 ]
Aggregate results:
[ 13 9 11 7 5 0 ]
[ 0.110976 0.319907 0.405439 0.117636 0.009106 0.036937 ]
3
Num Evals 4820
GenUC: 9.452804e-06
GenUB: 1.735283e-06
Optimisation 2.279433e+00
Total Time: 2.279446e+00
4 Rem 4
Graph 1:
0 1 1 1 
0 0 0 1 
0 1 1 0 
1 0 1 1 
Graph 2:
0 0 1 0 
0 0 0 1 
0 1 1 0 
0 0 1 1 
Solution: 13 0
Classic Expectation: 7.666667
Initial Expecation: 5.750000
Gbest: 13.000000
Expectation: 5.750000
Final Parameters:
Gammas:
[ 3.141593 3.141593 3.141593 3.141593 3.141593 ]
Betas:
[ 1.570796 1.570796 1.570796 2.356194 1.570796 ]
Aggregate results:
[ 13 7 5 11 9 3 0 ]
[ 0.031250 0.281250 0.093750 0.093750 0.187500 0.062500 0.250000 ]
3
Num Evals 11
GenUC: 9.194006e-06
GenUB: 1.452427e-06
Optimisation 4.523514e-03
Total Time: 4.536739e-03
5 Add/Rem 4
Graph 1:
0 1 1 1 
0 0 0 1 
0 1 1 0 
1 0 1 1 
Graph 2:
1 1 1 0 
1 1 0 0 
0 1 0 0 
0 0 1 1 
Solution: 13 3
Classic Expectation: 7.833333
Initial Expecation: 5.875000
Gbest: 13.000000
Expectation: 8.630900
Final Parameters:
Gammas:
[ 4.047380 2.720573 3.802585 1.428261 4.760183 ]
Betas:
[ 2.381197 1.045692 2.487850 2.055649 0.647425 ]
Aggregate results:
[ 9 5 7 13 11 0 ]
[ 0.510094 0.102686 0.117309 0.169677 0.045424 0.054811 ]
3
Num Evals 3402
GenUC: 8.552590e-06
GenUB: 1.039876e-06
Optimisation 1.541554e+00
Total Time: 1.541565e+00
