Clock Speed: 3.498915
Num threads: 16
Trotterisation: 5
Num Qubits: 19
Space Dimension: 524288
Run-Type: 0
Num_samples: 81
Optimiser Method: 0
1 Isomorphic
Graph 1:
0 1 1 0 0 0 1 0 1 
0 1 1 1 1 0 0 1 0 
0 1 0 1 1 0 0 0 1 
0 1 1 1 1 0 0 1 1 
0 1 1 0 1 0 0 1 0 
0 1 1 0 1 1 1 1 0 
0 0 1 1 1 0 1 0 0 
0 1 0 1 0 1 0 1 1 
1 1 0 1 1 1 1 0 1 
Graph 2:
0 1 1 0 0 0 1 0 1 
0 1 1 1 1 0 0 1 0 
0 1 0 1 1 0 0 0 1 
0 1 1 1 1 0 0 1 1 
0 1 1 0 1 0 0 1 0 
0 1 1 0 1 1 1 1 0 
0 0 1 1 1 0 1 0 0 
0 1 0 1 0 1 0 1 1 
1 1 0 1 1 1 1 0 1 
Solution: 81 0
Classic Expectation: 42.000000
Initial Expecation: 29.069824
Gbest: 53.000000
Expectation: 30.427992
Final Parameters:
Gammas:
[ 5.235988 3.141593 3.141593 3.141593 3.141593 ]
Betas:
[ 2.617994 1.570796 1.570796 1.570796 1.570796 ]
Aggregate results:
[ 81 63 61 57 69 55 59 49 65 47 67 51 53 45 43 73 71 41 37 39 35 31 33 29 25 27 23 21 0 ]
[ 0.000004 0.000101 0.000214 0.001372 0.000007 0.003243 0.000385 0.037482 0.000086 0.067375 0.000025 0.019334 0.008535 0.100519 0.115937 0.000003 0.000004 0.124301 0.070938 0.105617 0.040917 0.006409 0.018897 0.002115 0.000065 0.000457 0.000027 0.000000 0.275631 ]
3
Num Evals 55
GenUC: 1.785881e-01
GenUB: 1.325917e-01
Optimisation 2.569828e+02
Total Time: 2.572940e+02
2 Flipped
Graph 1:
0 1 1 0 0 0 1 0 1 
0 1 1 1 1 0 0 1 0 
0 1 0 1 1 0 0 0 1 
0 1 1 1 1 0 0 1 1 
0 1 1 0 1 0 0 1 0 
0 1 1 0 1 1 1 1 0 
0 0 1 1 1 0 1 0 0 
0 1 0 1 0 1 0 1 1 
1 1 0 1 1 1 1 0 1 
Graph 2:
1 0 1 0 0 0 1 1 0 
0 1 0 0 1 1 1 1 0 
1 0 0 0 1 1 0 1 0 
1 1 0 0 1 1 1 1 0 
0 1 0 0 1 0 1 1 0 
0 1 1 1 1 0 1 1 0 
0 0 1 0 1 1 1 0 0 
1 1 0 1 0 1 0 1 0 
1 0 1 1 1 1 0 1 1 
Solution: 59 32108
Classic Expectation: 41.500000
Initial Expecation: 28.723755
Gbest: 55.000000
Expectation: 30.064035
Final Parameters:
Gammas:
[ 1.047198 3.141593 1.047198 3.141593 3.141593 ]
Betas:
[ 1.570796 1.570796 1.570796 1.570796 0.523599 ]
Aggregate results:
[ 49 47 45 37 43 41 39 35 53 31 51 33 27 29 55 57 25 23 59 0 ]
[ 0.035509 0.062453 0.096590 0.078184 0.115931 0.117562 0.108370 0.047276 0.005125 0.010240 0.016200 0.025123 0.001017 0.003276 0.001357 0.000263 0.000205 0.000028 0.000017 0.275272 ]
3
Num Evals 45
GenUC: 2.219337e-01
GenUB: 1.316627e-01
Optimisation 2.112454e+02
Total Time: 2.115990e+02
3 Add 9
Graph 1:
0 1 1 0 0 0 1 0 1 
0 1 1 1 1 0 0 1 0 
0 1 0 1 1 0 0 0 1 
0 1 1 1 1 0 0 1 1 
0 1 1 0 1 0 0 1 0 
0 1 1 0 1 1 1 1 0 
0 0 1 1 1 0 1 0 0 
0 1 0 1 0 1 0 1 1 
1 1 0 1 1 1 1 0 1 
Graph 2:
0 1 1 0 0 0 1 0 1 
0 1 1 1 1 0 1 1 0 
0 1 1 1 1 0 0 1 1 
1 1 1 1 1 0 0 1 1 
0 1 1 0 1 0 0 1 0 
0 1 1 0 1 1 1 1 1 
0 0 1 1 1 0 1 1 0 
1 1 0 1 0 1 1 1 1 
1 1 0 1 1 1 1 0 1 
Solution: 73 0
Classic Expectation: 42.944444
Initial Expecation: 29.723511
Gbest: 51.000000
Expectation: 31.095731
Final Parameters:
Gammas:
[ 1.047198 3.141593 1.047198 3.141593 3.141593 ]
Betas:
[ 1.570796 1.570796 1.570796 1.570796 0.523599 ]
Aggregate results:
[ 73 63 55 53 59 65 49 57 45 43 51 47 41 61 39 37 35 33 67 31 29 27 25 0 ]
[ 0.000001 0.000027 0.003196 0.009244 0.000274 0.000010 0.049839 0.000939 0.119116 0.132917 0.024184 0.082736 0.117990 0.000107 0.092095 0.053836 0.024719 0.009733 0.000005 0.002796 0.000508 0.000067 0.000018 0.275642 ]
3
Num Evals 49
GenUC: 3.006896e-01
GenUB: 1.301460e-01
Optimisation 2.295674e+02
Total Time: 2.299982e+02
4 Rem 9
Graph 1:
0 1 1 0 0 0 1 0 1 
0 1 1 1 1 0 0 1 0 
0 1 0 1 1 0 0 0 1 
0 1 1 1 1 0 0 1 1 
0 1 1 0 1 0 0 1 0 
0 1 1 0 1 1 1 1 0 
0 0 1 1 1 0 1 0 0 
0 1 0 1 0 1 0 1 1 
1 1 0 1 1 1 1 0 1 
Graph 2:
0 1 0 0 0 0 1 0 0 
0 1 0 1 1 0 0 1 0 
0 1 0 1 1 0 0 0 1 
0 1 1 1 1 0 0 0 1 
0 0 1 0 1 0 0 1 0 
0 1 1 0 1 0 1 0 0 
0 0 1 0 1 0 1 0 0 
0 1 0 1 0 1 0 1 1 
1 1 0 1 0 1 1 0 1 
Solution: 72 0
Classic Expectation: 41.000000
Initial Expecation: 28.377686
Gbest: 52.000000
Expectation: 29.694821
Final Parameters:
Gammas:
[ 5.235988 3.141593 3.141593 3.141593 3.141593 ]
Betas:
[ 1.570796 1.570796 1.570796 1.570796 0.523599 ]
Aggregate results:
[ 72 60 54 50 64 48 52 56 42 46 58 44 40 38 36 62 34 32 30 66 28 22 26 24 68 0 ]
[ 0.000002 0.000095 0.002317 0.017754 0.000016 0.037143 0.006467 0.000629 0.123676 0.068417 0.000195 0.104909 0.124041 0.105158 0.067980 0.000026 0.038374 0.017993 0.006595 0.000001 0.001904 0.000010 0.000439 0.000079 0.000000 0.275778 ]
3
Num Evals 27
GenUC: 3.009308e-01
GenUB: 1.303155e-01
Optimisation 1.280014e+02
Total Time: 1.284326e+02
5 Add/Rem 9
Graph 1:
0 1 1 0 0 0 1 0 1 
0 1 1 1 1 0 0 1 0 
0 1 0 1 1 0 0 0 1 
0 1 1 1 1 0 0 1 1 
0 1 1 0 1 0 0 1 0 
0 1 1 0 1 1 1 1 0 
0 0 1 1 1 0 1 0 0 
0 1 0 1 0 1 0 1 1 
1 1 0 1 1 1 1 0 1 
Graph 2:
0 0 1 0 0 1 1 0 1 
1 1 0 1 0 1 0 1 1 
0 1 1 1 1 0 0 0 1 
0 1 1 0 1 0 0 1 1 
0 1 1 0 1 1 0 0 0 
0 1 1 0 1 1 1 1 0 
0 0 1 1 0 0 0 0 0 
0 1 0 1 1 1 0 1 1 
1 1 0 1 1 1 1 1 0 
Solution: 65 0
Classic Expectation: 41.000000
Initial Expecation: 28.377686
Gbest: 51.000000
Expectation: 38.120152
Final Parameters:
Gammas:
[ 3.138879 3.140156 3.143029 3.146860 3.141681 ]
Betas:
[ 1.456596 2.861478 1.226279 1.564332 0.517135 ]
Aggregate results:
[ 65 55 53 47 49 51 45 57 41 43 61 39 37 35 59 33 29 31 63 27 25 19 21 23 0 ]
[ 0.000004 0.001392 0.004902 0.070558 0.035548 0.014296 0.116201 0.000364 0.164772 0.153500 0.000020 0.147594 0.107378 0.063518 0.000063 0.029614 0.003047 0.011052 0.000004 0.000715 0.000166 0.000002 0.000022 0.000032 0.075236 ]
3
Num Evals 2251
GenUC: 3.006139e-01
GenUB: 1.311082e-01
Optimisation 1.046347e+04
Total Time: 1.046391e+04
