Clock Speed: 3.498659
Num threads: 16
Trotterisation: 2
Num Qubits: 13
Space Dimension: 8192
Run-Type: 0
Num_samples: 49
Optimiser Method: 33
1 Isomorphic
Graph 1:
1 0 0 0 1 0 0 
1 1 1 1 1 1 0 
0 1 0 1 0 1 1 
0 1 0 1 1 0 0 
0 1 0 0 0 1 0 
1 0 1 0 1 1 0 
1 0 0 1 1 1 1 
Graph 2:
1 0 0 0 1 0 0 
1 1 1 1 1 1 0 
0 1 0 1 0 1 1 
0 1 0 1 1 0 0 
0 1 0 0 0 1 0 
1 0 1 0 1 1 0 
1 0 0 1 1 1 1 
Solution: 49 0
Classic Expectation: 25.142857
Initial Expecation: 15.468750
Gbest: 31.000000
Expectation: 15.468750
Final Parameters:
Gammas:
[ 3.141593 3.141593 ]
Betas:
[ 1.570796 1.570796 ]
Aggregate results:
[ 49 39 35 27 29 37 31 33 41 23 25 21 19 43 17 15 0 ]
[ 0.000122 0.001099 0.004517 0.117676 0.069824 0.001953 0.032227 0.010376 0.000488 0.116821 0.139526 0.085693 0.026978 0.000244 0.006470 0.001221 0.384766 ]
4
Num Evals 3
GenUC: 2.242498e-03
GenUB: 1.273016e-03
Optimisation 5.644434e-02
Total Time: 5.997081e-02
2 Flipped
Graph 1:
1 0 0 0 1 0 0 
1 1 1 1 1 1 0 
0 1 0 1 0 1 1 
0 1 0 1 1 0 0 
0 1 0 0 0 1 0 
1 0 1 0 1 1 0 
1 0 0 1 1 1 1 
Graph 2:
0 0 1 0 0 0 1 
0 1 1 1 1 1 1 
1 1 0 1 0 1 0 
0 0 1 1 0 1 0 
0 1 0 0 0 1 0 
0 1 1 0 1 0 1 
1 1 1 1 0 0 1 
Solution: 35 84
Classic Expectation: 24.285714
Initial Expecation: 14.941406
Gbest: 31.000000
Expectation: 14.941406
Final Parameters:
Gammas:
[ 3.141593 3.141593 ]
Betas:
[ 1.570796 1.570796 ]
Aggregate results:
[ 29 27 23 25 19 21 33 31 35 17 15 13 0 ]
[ 0.057983 0.106934 0.133179 0.137817 0.043213 0.090820 0.006226 0.018066 0.001221 0.015625 0.004028 0.000122 0.384766 ]
4
Num Evals 3
GenUC: 5.313804e-03
GenUB: 1.443080e-03
Optimisation 5.224113e-02
Total Time: 5.900078e-02
3 Add 7
Graph 1:
1 0 0 0 1 0 0 
1 1 1 1 1 1 0 
0 1 0 1 0 1 1 
0 1 0 1 1 0 0 
0 1 0 0 0 1 0 
1 0 1 0 1 1 0 
1 0 0 1 1 1 1 
Graph 2:
1 0 0 0 1 1 0 
1 1 1 1 1 1 0 
0 1 0 1 1 1 1 
1 1 0 1 1 0 0 
1 1 1 0 0 1 0 
1 1 1 0 1 1 0 
1 1 0 1 1 1 1 
Solution: 42 0
Classic Expectation: 25.142857
Initial Expecation: 15.468750
Gbest: 36.000000
Expectation: 16.003687
Final Parameters:
Gammas:
[ 3.038429 3.141593 ]
Betas:
[ 1.544170 1.570796 ]
Aggregate results:
[ 42 32 38 28 26 34 30 36 24 22 20 18 16 14 0 ]
[ 0.000192 0.022678 0.001700 0.113388 0.142881 0.008165 0.061075 0.003072 0.139575 0.085181 0.033543 0.009656 0.001549 0.000135 0.377210 ]
3
Num Evals 21
GenUC: 5.463085e-03
GenUB: 1.504207e-03
Optimisation 3.622448e-01
Total Time: 3.692147e-01
4 Rem 7
Graph 1:
1 0 0 0 1 0 0 
1 1 1 1 1 1 0 
0 1 0 1 0 1 1 
0 1 0 1 1 0 0 
0 1 0 0 0 1 0 
1 0 1 0 1 1 0 
1 0 0 1 1 1 1 
Graph 2:
1 0 0 0 1 0 0 
1 1 1 1 1 0 0 
0 1 0 0 0 1 0 
0 1 0 1 1 0 0 
0 1 0 0 0 1 0 
1 0 1 0 1 0 0 
1 0 0 1 0 1 0 
Solution: 43 0
Classic Expectation: 24.285714
Initial Expecation: 14.941406
Gbest: 31.000000
Expectation: 18.627731
Final Parameters:
Gammas:
[ 3.054368 3.477087 ]
Betas:
[ 1.647957 1.886315 ]
Aggregate results:
[ 43 35 31 25 27 29 33 23 21 19 39 37 17 15 0 ]
[ 0.000206 0.002412 0.022359 0.177379 0.117316 0.060163 0.007044 0.176583 0.127117 0.059979 0.000177 0.000629 0.019067 0.002492 0.227078 ]
3
Num Evals 36
GenUC: 5.461666e-03
GenUB: 1.519845e-03
Optimisation 6.501860e-01
Total Time: 6.571701e-01
5 Add/Rem 7
Graph 1:
1 0 0 0 1 0 0 
1 1 1 1 1 1 0 
0 1 0 1 0 1 1 
0 1 0 1 1 0 0 
0 1 0 0 0 1 0 
1 0 1 0 1 1 0 
1 0 0 1 1 1 1 
Graph 2:
0 0 0 0 1 0 0 
1 1 0 1 1 1 0 
0 1 0 1 1 1 1 
0 1 0 0 0 0 0 
0 1 1 0 1 1 0 
0 0 1 1 0 1 0 
1 1 1 1 0 1 1 
Solution: 38 182
Classic Expectation: 24.714286
Initial Expecation: 15.205078
Gbest: 34.000000
Expectation: 15.205078
Final Parameters:
Gammas:
[ 3.141593 3.141593 ]
Betas:
[ 1.570796 1.570796 ]
Aggregate results:
[ 36 30 32 28 26 34 24 22 20 16 38 18 14 0 ]
[ 0.001343 0.042847 0.018921 0.088501 0.125122 0.006104 0.136719 0.102783 0.060791 0.006226 0.000366 0.024536 0.000977 0.384766 ]
4
Num Evals 29
GenUC: 5.461057e-03
GenUB: 1.518963e-03
Optimisation 5.069227e-01
Total Time: 5.139054e-01
