Clock Speed: 3.498773
Num threads: 16
Trotterisation: 2
Num Qubits: 13
Space Dimension: 8192
Run-Type: 0
Num_samples: 49
Optimiser Method: 33
1 Isomorphic
Graph 1:
0 1 0 1 1 1 1 
0 1 1 1 1 0 1 
1 0 0 1 0 0 0 
1 1 0 0 0 0 0 
1 1 1 0 1 0 1 
0 1 1 1 1 0 1 
0 1 0 1 1 1 0 
Graph 2:
0 1 0 1 1 1 1 
0 1 1 1 1 0 1 
1 0 0 1 0 0 0 
1 1 0 0 0 0 0 
1 1 1 0 1 0 1 
0 1 1 1 1 0 1 
0 1 0 1 1 1 0 
Solution: 49 0
Classic Expectation: 26.333333
Initial Expecation: 16.201172
Gbest: 35.000000
Expectation: 16.201172
Final Parameters:
Gammas:
[ 3.141593 3.141593 ]
Betas:
[ 1.570796 1.570796 ]
Aggregate results:
[ 49 43 39 37 41 33 31 35 25 27 29 23 21 13 15 17 19 0 ]
[ 0.000122 0.000244 0.000977 0.002075 0.000366 0.021362 0.050049 0.006226 0.135132 0.138794 0.105469 0.095215 0.044922 0.000122 0.000488 0.002930 0.010742 0.384766 ]
4
Num Evals 3
GenUC: 2.350228e-03
GenUB: 1.215714e-03
Optimisation 5.390538e-02
Total Time: 5.748037e-02
2 Flipped
Graph 1:
0 1 0 1 1 1 1 
0 1 1 1 1 0 1 
1 0 0 1 0 0 0 
1 1 0 0 0 0 0 
1 1 1 0 1 0 1 
0 1 1 1 1 0 1 
0 1 0 1 1 1 0 
Graph 2:
1 1 1 1 0 1 0 
1 0 1 1 1 1 0 
0 0 0 1 0 0 1 
0 0 0 0 0 1 1 
1 0 1 0 1 1 1 
1 0 1 1 1 1 0 
0 1 1 1 0 1 0 
Solution: 43 4985
Classic Expectation: 25.666667
Initial Expecation: 15.791016
Gbest: 33.000000
Expectation: 15.791016
Final Parameters:
Gammas:
[ 3.141593 3.141593 ]
Betas:
[ 1.570796 1.570796 ]
Aggregate results:
[ 27 29 25 23 21 19 33 31 17 35 37 15 39 13 43 0 ]
[ 0.132568 0.084106 0.144775 0.109131 0.056519 0.021606 0.015381 0.038452 0.004639 0.005371 0.001099 0.000854 0.000488 0.000122 0.000122 0.384766 ]
4
Num Evals 3
GenUC: 2.936695e-03
GenUB: 1.287150e-03
Optimisation 5.057209e-02
Total Time: 5.479821e-02
3 Add 7
Graph 1:
0 1 0 1 1 1 1 
0 1 1 1 1 0 1 
1 0 0 1 0 0 0 
1 1 0 0 0 0 0 
1 1 1 0 1 0 1 
0 1 1 1 1 0 1 
0 1 0 1 1 1 0 
Graph 2:
1 1 1 1 1 1 1 
0 1 1 1 1 0 1 
1 1 1 1 1 0 0 
1 1 0 0 0 0 0 
1 1 1 0 1 1 1 
0 1 1 1 1 0 1 
0 1 1 1 1 1 0 
Solution: 42 0
Classic Expectation: 26.666667
Initial Expecation: 16.406250
Gbest: 36.000000
Expectation: 19.009087
Final Parameters:
Gammas:
[ 3.205850 3.141593 ]
Betas:
[ 1.704556 1.570796 ]
Aggregate results:
[ 42 40 34 36 28 30 32 22 24 38 26 18 20 16 0 ]
[ 0.000352 0.000297 0.018707 0.008267 0.180017 0.132474 0.064189 0.034191 0.089838 0.001720 0.146759 0.000838 0.008742 0.000046 0.313564 ]
3
Num Evals 26
GenUC: 2.929373e-03
GenUB: 1.262788e-03
Optimisation 4.441577e-01
Total Time: 4.483517e-01
4 Rem 7
Graph 1:
0 1 0 1 1 1 1 
0 1 1 1 1 0 1 
1 0 0 1 0 0 0 
1 1 0 0 0 0 0 
1 1 1 0 1 0 1 
0 1 1 1 1 0 1 
0 1 0 1 1 1 0 
Graph 2:
0 0 0 1 0 1 1 
0 1 1 1 1 0 0 
1 0 0 1 0 0 0 
1 1 0 0 0 0 0 
1 1 1 0 1 0 1 
0 1 1 1 0 0 1 
0 1 0 0 0 0 0 
Solution: 42 0
Classic Expectation: 24.666667
Initial Expecation: 15.175781
Gbest: 30.000000
Expectation: 17.969491
Final Parameters:
Gammas:
[ 3.096228 2.359458 ]
Betas:
[ 1.559305 1.336286 ]
Aggregate results:
[ 42 38 34 32 36 28 30 24 26 22 20 16 18 14 12 0 ]
[ 0.000355 0.000445 0.005815 0.019936 0.000672 0.104994 0.049984 0.162313 0.162432 0.117963 0.071075 0.007619 0.020630 0.000570 0.000150 0.275047 ]
3
Num Evals 21
GenUC: 2.926091e-03
GenUB: 1.259111e-03
Optimisation 3.474454e-01
Total Time: 3.516325e-01
5 Add/Rem 7
Graph 1:
0 1 0 1 1 1 1 
0 1 1 1 1 0 1 
1 0 0 1 0 0 0 
1 1 0 0 0 0 0 
1 1 1 0 1 0 1 
0 1 1 1 1 0 1 
0 1 0 1 1 1 0 
Graph 2:
1 1 0 0 1 1 0 
0 1 1 1 1 0 1 
1 0 0 1 0 0 0 
0 1 0 0 0 0 1 
1 1 1 0 0 0 1 
1 0 1 1 1 1 0 
0 1 1 0 1 1 0 
Solution: 37 0
Classic Expectation: 25.190476
Initial Expecation: 15.498047
Gbest: 33.000000
Expectation: 18.559907
Final Parameters:
Gammas:
[ 2.957909 2.910676 ]
Betas:
[ 1.556161 1.426352 ]
Aggregate results:
[ 37 33 35 31 29 27 25 23 21 19 17 15 0 ]
[ 0.001260 0.034674 0.008399 0.083909 0.146838 0.161984 0.132775 0.068040 0.032165 0.011447 0.003461 0.000396 0.314652 ]
3
Num Evals 38
GenUC: 2.940812e-03
GenUB: 1.220314e-03
Optimisation 6.415938e-01
Total Time: 6.457567e-01
