Clock Speed: 3.498699
Num threads: 16
Trotterisation: 3
Num Qubits: 13
Space Dimension: 8192
Run-Type: 0
Num_samples: 49
Optimiser Method: 0
1 Isomorphic
Graph 1:
1 0 0 1 0 1 0 
1 1 0 0 1 0 1 
1 0 1 1 1 0 0 
1 0 0 1 0 1 0 
0 0 0 1 0 1 0 
1 0 1 0 0 1 1 
0 0 0 1 0 1 1 
Graph 2:
1 0 0 1 0 1 0 
1 1 0 0 1 0 1 
1 0 1 1 1 0 0 
1 0 0 1 0 1 0 
0 0 0 1 0 1 0 
1 0 1 0 0 1 1 
0 0 0 1 0 1 1 
Solution: 49 0
Classic Expectation: 27.047619
Initial Expecation: 16.640625
Gbest: 35.000000
Expectation: 22.567232
Final Parameters:
Gammas:
[ 2.255281 3.160053 3.089485 ]
Betas:
[ 1.706545 0.376358 2.301249 ]
Aggregate results:
[ 49 35 27 29 43 37 25 23 31 33 41 21 39 19 17 45 0 ]
[ 0.000018 0.020973 0.192756 0.132376 0.000134 0.006225 0.192046 0.110750 0.086127 0.043708 0.001141 0.038986 0.002683 0.004980 0.000517 0.000413 0.166164 ]
3
Num Evals 1381
GenUC: 2.400654e-03
GenUB: 1.250743e-03
Optimisation 3.570552e+01
Total Time: 3.570918e+01
2 Flipped
Graph 1:
1 0 0 1 0 1 0 
1 1 0 0 1 0 1 
1 0 1 1 1 0 0 
1 0 0 1 0 1 0 
0 0 0 1 0 1 0 
1 0 1 0 0 1 1 
0 0 0 1 0 1 1 
Graph 2:
0 1 0 1 0 0 1 
1 0 1 0 0 1 1 
0 0 1 1 1 0 1 
0 1 0 1 0 0 1 
0 1 0 1 0 0 0 
1 1 0 0 1 0 1 
1 1 0 1 0 0 0 
Solution: 41 4985
Classic Expectation: 23.428571
Initial Expecation: 14.414062
Gbest: 31.000000
Expectation: 21.423318
Final Parameters:
Gammas:
[ 2.956286 2.947667 3.153563 ]
Betas:
[ 1.745329 0.698132 2.288321 ]
Aggregate results:
[ 25 27 21 23 17 15 19 29 13 31 33 35 37 41 0 ]
[ 0.186902 0.174907 0.088806 0.148841 0.018569 0.006527 0.046953 0.110793 0.001303 0.043848 0.016431 0.005647 0.002374 0.000424 0.147675 ]
3
Num Evals 851
GenUC: 5.293413e-03
GenUB: 1.417879e-03
Optimisation 2.287767e+01
Total Time: 2.288438e+01
3 Add 7
Graph 1:
1 0 0 1 0 1 0 
1 1 0 0 1 0 1 
1 0 1 1 1 0 0 
1 0 0 1 0 1 0 
0 0 0 1 0 1 0 
1 0 1 0 0 1 1 
0 0 0 1 0 1 1 
Graph 2:
1 0 0 1 0 1 1 
1 1 1 0 1 1 1 
1 0 1 1 1 0 1 
1 0 1 1 0 1 0 
0 0 0 1 0 1 0 
1 0 1 1 0 1 1 
0 0 0 1 0 1 1 
Solution: 43 0
Classic Expectation: 25.904762
Initial Expecation: 15.937500
Gbest: 41.000000
Expectation: 21.787415
Final Parameters:
Gammas:
[ 2.180584 3.160266 3.088526 ]
Betas:
[ 1.706545 0.376358 2.301248 ]
Aggregate results:
[ 43 35 25 29 39 31 23 21 33 27 37 19 17 41 0 ]
[ 0.000131 0.011481 0.179678 0.113235 0.001120 0.067520 0.160024 0.075100 0.032930 0.168917 0.005330 0.015738 0.002770 0.000462 0.165564 ]
3
Num Evals 1149
GenUC: 5.288192e-03
GenUB: 1.347462e-03
Optimisation 2.974462e+01
Total Time: 2.975126e+01
4 Rem 7
Graph 1:
1 0 0 1 0 1 0 
1 1 0 0 1 0 1 
1 0 1 1 1 0 0 
1 0 0 1 0 1 0 
0 0 0 1 0 1 0 
1 0 1 0 0 1 1 
0 0 0 1 0 1 1 
Graph 2:
0 0 0 1 0 0 0 
1 1 0 0 1 0 1 
1 0 1 1 0 0 0 
1 0 0 0 0 1 0 
0 0 0 0 0 1 0 
0 0 1 0 0 1 1 
0 0 0 1 0 1 1 
Solution: 43 0
Classic Expectation: 26.380952
Initial Expecation: 16.230469
Gbest: 39.000000
Expectation: 22.148186
Final Parameters:
Gammas:
[ 2.146109 3.159592 3.088887 ]
Betas:
[ 1.706545 0.374924 2.314176 ]
Aggregate results:
[ 43 33 29 31 39 35 27 23 25 21 37 19 17 15 41 0 ]
[ 0.000090 0.033050 0.148035 0.069441 0.000760 0.009387 0.200662 0.132382 0.175505 0.049710 0.002767 0.011010 0.001096 0.000017 0.000612 0.165474 ]
3
Num Evals 1311
GenUC: 5.287065e-03
GenUB: 1.273078e-03
Optimisation 3.403576e+01
Total Time: 3.404233e+01
5 Add/Rem 7
Graph 1:
1 0 0 1 0 1 0 
1 1 0 0 1 0 1 
1 0 1 1 1 0 0 
1 0 0 1 0 1 0 
0 0 0 1 0 1 0 
1 0 1 0 0 1 1 
0 0 0 1 0 1 1 
Graph 2:
1 0 0 1 0 1 0 
1 0 0 0 1 1 1 
1 1 1 0 1 0 0 
1 0 0 1 0 0 0 
0 1 0 1 0 0 0 
0 1 1 1 0 1 1 
0 0 1 0 0 1 1 
Solution: 39 2568
Classic Expectation: 26.142857
Initial Expecation: 16.083984
Gbest: 33.000000
Expectation: 21.561751
Final Parameters:
Gammas:
[ 2.928697 3.085859 3.180360 ]
Betas:
[ 0.387848 0.642118 1.572960 ]
Aggregate results:
[ 37 25 31 27 29 23 21 35 19 33 17 39 15 0 ]
[ 0.000489 0.207176 0.064711 0.194546 0.125633 0.130717 0.059051 0.006075 0.010990 0.023486 0.000933 0.000069 0.000035 0.176089 ]
3
Num Evals 1113
GenUC: 5.284692e-03
GenUB: 1.240092e-03
Optimisation 2.555347e+01
Total Time: 2.556000e+01
