Clock Speed: 3.499525
Num threads: 16
Trotterisation: 3
Num Qubits: 13
Space Dimension: 8192
Run-Type: 0
Num_samples: 49
Optimiser Method: 0
1 Isomorphic
Graph 1:
1 1 0 1 0 0 1 
1 0 0 0 1 0 0 
0 1 0 1 1 0 0 
1 0 0 1 1 1 1 
1 1 0 0 1 1 1 
1 1 1 1 0 0 1 
1 1 0 0 0 1 1 
Graph 2:
1 1 0 1 0 0 1 
1 0 0 0 1 0 0 
0 1 0 1 1 0 0 
1 0 0 1 1 1 1 
1 1 0 0 1 1 1 
1 1 1 1 0 0 1 
1 1 0 0 0 1 1 
Solution: 49 0
Classic Expectation: 25.000000
Initial Expecation: 15.380859
Gbest: 35.000000
Expectation: 19.352997
Final Parameters:
Gammas:
[ 2.908882 3.374303 2.908882 ]
Betas:
[ 0.523599 0.523599 1.570796 ]
Aggregate results:
[ 49 41 35 33 39 31 25 27 29 23 21 37 15 19 17 43 0 ]
[ 0.000087 0.000252 0.007667 0.019441 0.000966 0.044450 0.167195 0.151446 0.078318 0.156851 0.087788 0.001284 0.001863 0.037834 0.011748 0.000644 0.232169 ]
3
Num Evals 103
GenUC: 2.264640e-03
GenUB: 1.220712e-03
Optimisation 2.314003e+00
Total Time: 2.317498e+00
2 Flipped
Graph 1:
1 1 0 1 0 0 1 
1 0 0 0 1 0 0 
0 1 0 1 1 0 0 
1 0 0 1 1 1 1 
1 1 0 0 1 1 1 
1 1 1 1 0 0 1 
1 1 0 0 0 1 1 
Graph 2:
1 0 0 1 0 1 1 
0 0 1 0 0 0 1 
0 0 1 1 0 1 0 
1 1 1 1 0 0 1 
1 1 1 0 0 1 1 
1 0 0 1 1 1 1 
1 1 0 0 0 1 1 
Solution: 39 4485
Classic Expectation: 25.000000
Initial Expecation: 15.380859
Gbest: 31.000000
Expectation: 20.480834
Final Parameters:
Gammas:
[ 2.934140 3.329715 3.102813 ]
Betas:
[ 0.387850 0.633493 1.590186 ]
Aggregate results:
[ 29 27 31 25 37 33 23 21 17 19 35 13 15 39 0 ]
[ 0.103188 0.162220 0.048254 0.181245 0.001607 0.018995 0.143667 0.092332 0.011235 0.038736 0.004631 0.000119 0.002817 0.000486 0.190468 ]
3
Num Evals 2029
GenUC: 2.825660e-03
GenUB: 1.189255e-03
Optimisation 4.348790e+01
Total Time: 4.349192e+01
3 Add 7
Graph 1:
1 1 0 1 0 0 1 
1 0 0 0 1 0 0 
0 1 0 1 1 0 0 
1 0 0 1 1 1 1 
1 1 0 0 1 1 1 
1 1 1 1 0 0 1 
1 1 0 0 0 1 1 
Graph 2:
1 1 0 1 1 0 1 
1 0 0 0 1 1 1 
0 1 1 1 1 0 0 
1 0 1 1 1 1 1 
1 1 0 0 1 1 1 
1 1 1 1 0 1 1 
1 1 0 0 1 1 1 
Solution: 42 0
Classic Expectation: 26.000000
Initial Expecation: 15.996094
Gbest: 34.000000
Expectation: 23.469689
Final Parameters:
Gammas:
[ 1.037461 5.237424 3.102808 ]
Betas:
[ 2.986452 1.202338 2.598601 ]
Aggregate results:
[ 42 36 34 32 38 30 28 26 24 22 20 18 16 0 ]
[ 0.000167 0.002228 0.013726 0.040293 0.000775 0.100798 0.196932 0.219834 0.186726 0.095300 0.031732 0.007037 0.000244 0.104208 ]
3
Num Evals 989
GenUC: 2.824199e-03
GenUB: 1.064782e-03
Optimisation 2.873767e+01
Total Time: 2.874156e+01
4 Rem 7
Graph 1:
1 1 0 1 0 0 1 
1 0 0 0 1 0 0 
0 1 0 1 1 0 0 
1 0 0 1 1 1 1 
1 1 0 0 1 1 1 
1 1 1 1 0 0 1 
1 1 0 0 0 1 1 
Graph 2:
1 1 0 1 0 0 0 
1 0 0 0 1 0 0 
0 0 0 1 1 0 0 
0 0 0 1 0 0 1 
1 1 0 0 1 0 1 
1 1 0 1 0 0 1 
1 1 0 0 0 1 1 
Solution: 42 0
Classic Expectation: 24.000000
Initial Expecation: 14.765625
Gbest: 30.000000
Expectation: 20.153752
Final Parameters:
Gammas:
[ 0.311239 0.103428 3.349659 ]
Betas:
[ 2.637387 1.435048 2.689101 ]
Aggregate results:
[ 42 38 32 30 34 28 36 24 26 22 20 16 18 14 12 10 0 ]
[ 0.000005 0.000095 0.018666 0.048546 0.005338 0.103543 0.002219 0.172496 0.163204 0.159640 0.091708 0.016908 0.044887 0.007011 0.002355 0.000134 0.163247 ]
3
Num Evals 883
GenUC: 2.819713e-03
GenUB: 1.218224e-03
Optimisation 2.512920e+01
Total Time: 2.513325e+01
5 Add/Rem 7
Graph 1:
1 1 0 1 0 0 1 
1 0 0 0 1 0 0 
0 1 0 1 1 0 0 
1 0 0 1 1 1 1 
1 1 0 0 1 1 1 
1 1 1 1 0 0 1 
1 1 0 0 0 1 1 
Graph 2:
1 1 0 1 0 0 1 
0 0 1 0 1 0 1 
1 1 0 1 1 0 0 
1 1 1 1 1 1 1 
1 1 1 0 1 1 0 
1 0 0 1 0 0 1 
1 0 1 0 0 1 0 
Solution: 38 3195
Classic Expectation: 25.142857
Initial Expecation: 15.468750
Gbest: 32.000000
Expectation: 21.818028
Final Parameters:
Gammas:
[ 5.469177 0.818796 3.342598 ]
Betas:
[ 3.025237 1.172171 2.667552 ]
Aggregate results:
[ 36 34 26 28 30 24 32 20 22 18 16 14 38 12 0 ]
[ 0.000659 0.005999 0.201913 0.146266 0.075345 0.183694 0.032360 0.060230 0.124455 0.028224 0.003951 0.001706 0.000061 0.000052 0.135088 ]
3
Num Evals 1357
GenUC: 2.818747e-03
GenUB: 1.210373e-03
Optimisation 3.984951e+01
Total Time: 3.985354e+01
