Clock Speed: 3.498773
Num threads: 16
Trotterisation: 3
Num Qubits: 13
Space Dimension: 8192
Run-Type: 0
Num_samples: 49
Optimiser Method: 0
1 Isomorphic
Graph 1:
0 0 0 0 0 1 1 
1 0 1 1 1 0 1 
1 1 0 0 1 1 1 
0 0 1 1 0 1 1 
1 1 0 1 0 1 0 
0 0 0 1 0 1 1 
0 0 1 0 0 0 0 
Graph 2:
0 0 0 0 0 1 1 
1 0 1 1 1 0 1 
1 1 0 0 1 1 1 
0 0 1 1 0 1 1 
1 1 0 1 0 1 0 
0 0 0 1 0 1 1 
0 0 1 0 0 0 0 
Solution: 49 0
Classic Expectation: 25.190476
Initial Expecation: 15.498047
Gbest: 33.000000
Expectation: 23.685726
Final Parameters:
Gammas:
[ 2.966933 2.969545 3.163138 ]
Betas:
[ 1.745328 0.685202 2.293323 ]
Aggregate results:
[ 49 37 33 31 25 29 27 41 19 23 17 39 35 21 43 15 0 ]
[ 0.000234 0.008971 0.052175 0.080570 0.164031 0.148241 0.206097 0.001863 0.022984 0.106411 0.008593 0.003606 0.016277 0.061800 0.000763 0.000735 0.116652 ]
3
Num Evals 889
GenUC: 2.221942e-03
GenUB: 1.254312e-03
Optimisation 2.422447e+01
Total Time: 2.422796e+01
2 Flipped
Graph 1:
0 0 0 0 0 1 1 
1 0 1 1 1 0 1 
1 1 0 0 1 1 1 
0 0 1 1 0 1 1 
1 1 0 1 0 1 0 
0 0 0 1 0 1 1 
0 0 1 0 0 0 0 
Graph 2:
1 1 0 0 0 0 0 
1 0 1 1 1 0 1 
1 1 1 0 0 1 1 
1 1 0 1 1 0 0 
0 1 0 1 0 1 1 
1 1 0 1 0 0 0 
0 0 0 0 1 0 0 
Solution: 37 4607
Classic Expectation: 24.714286
Initial Expecation: 15.205078
Gbest: 33.000000
Expectation: 21.503401
Final Parameters:
Gammas:
[ 3.453674 3.163973 3.339083 ]
Betas:
[ 1.745326 0.465420 2.327103 ]
Aggregate results:
[ 29 25 31 27 21 23 19 33 17 15 35 13 37 0 ]
[ 0.104834 0.196530 0.048777 0.163532 0.096711 0.152365 0.051917 0.020211 0.012425 0.003941 0.004127 0.000717 0.000263 0.143651 ]
3
Num Evals 695
GenUC: 5.398864e-03
GenUB: 1.538663e-03
Optimisation 1.833623e+01
Total Time: 1.834317e+01
3 Add 7
Graph 1:
0 0 0 0 0 1 1 
1 0 1 1 1 0 1 
1 1 0 0 1 1 1 
0 0 1 1 0 1 1 
1 1 0 1 0 1 0 
0 0 0 1 0 1 1 
0 0 1 0 0 0 0 
Graph 2:
0 0 0 0 0 1 1 
1 0 1 1 1 0 1 
1 1 0 0 1 1 1 
1 0 1 1 0 1 1 
1 1 0 1 0 1 0 
1 1 0 1 1 1 1 
0 0 1 0 0 1 1 
Solution: 43 0
Classic Expectation: 25.000000
Initial Expecation: 15.380859
Gbest: 35.000000
Expectation: 21.968299
Final Parameters:
Gammas:
[ 2.967469 2.924689 3.364679 ]
Betas:
[ 1.745326 0.620561 2.340031 ]
Aggregate results:
[ 43 35 33 31 25 29 27 21 23 19 37 17 15 13 0 ]
[ 0.000102 0.008281 0.028346 0.061065 0.177173 0.118554 0.191173 0.081749 0.132058 0.035631 0.003220 0.013424 0.001949 0.000690 0.146586 ]
3
Num Evals 761
GenUC: 5.396309e-03
GenUB: 1.493877e-03
Optimisation 2.065358e+01
Total Time: 2.066048e+01
4 Rem 7
Graph 1:
0 0 0 0 0 1 1 
1 0 1 1 1 0 1 
1 1 0 0 1 1 1 
0 0 1 1 0 1 1 
1 1 0 1 0 1 0 
0 0 0 1 0 1 1 
0 0 1 0 0 0 0 
Graph 2:
0 0 0 0 0 1 1 
0 0 0 1 1 0 1 
1 0 0 0 1 1 0 
0 0 1 1 0 1 1 
1 0 0 1 0 0 0 
0 0 0 1 0 1 1 
0 0 0 0 0 0 0 
Solution: 42 0
Classic Expectation: 24.857143
Initial Expecation: 15.292969
Gbest: 32.000000
Expectation: 21.744827
Final Parameters:
Gammas:
[ 0.353373 5.929812 3.343591 ]
Betas:
[ 2.986449 1.098908 2.727888 ]
Aggregate results:
[ 42 34 30 28 32 22 26 24 20 36 18 38 40 16 14 0 ]
[ 0.000229 0.005369 0.075762 0.144293 0.023946 0.138058 0.191846 0.176051 0.072355 0.001760 0.031294 0.000348 0.000009 0.007164 0.001489 0.130026 ]
3
Num Evals 845
GenUC: 5.404855e-03
GenUB: 1.522340e-03
Optimisation 2.679944e+01
Total Time: 2.680637e+01
5 Add/Rem 7
Graph 1:
0 0 0 0 0 1 1 
1 0 1 1 1 0 1 
1 1 0 0 1 1 1 
0 0 1 1 0 1 1 
1 1 0 1 0 1 0 
0 0 0 1 0 1 1 
0 0 1 0 0 0 0 
Graph 2:
0 0 0 1 0 1 1 
1 0 1 0 1 0 0 
0 1 1 0 1 1 0 
0 0 0 1 0 1 1 
1 1 0 1 0 1 0 
0 0 1 1 0 1 1 
1 0 0 0 0 1 1 
Solution: 37 0
Classic Expectation: 24.238095
Initial Expecation: 14.912109
Gbest: 35.000000
Expectation: 22.357178
Final Parameters:
Gammas:
[ 2.952988 2.969267 3.170765 ]
Betas:
[ 1.667759 0.659346 2.335725 ]
Aggregate results:
[ 37 35 21 25 27 23 33 19 31 29 17 11 15 13 0 ]
[ 0.000512 0.004156 0.083105 0.194290 0.182030 0.159114 0.019618 0.033479 0.061124 0.124240 0.011760 0.000097 0.001986 0.000293 0.124195 ]
3
Num Evals 1247
GenUC: 5.400666e-03
GenUB: 1.522976e-03
Optimisation 3.373339e+01
Total Time: 3.374031e+01
