Clock Speed: 3.689166
Num threads: 4
Trotterisation: 1
Graph Size: 3
Num Qubits: 3
Space Dimension: 8
Run-Type: 0
Num_samples: 10
1 Isomorphic
Graph 1:
1 1 0 
1 0 1 
1 0 1 
Graph 2:
1 1 0 
1 0 1 
1 0 1 
Solution: 0 0
Gbest: 0.000000
Expectation: -3.942549
Final Parameters:
Gammas:
[ 0.898699 ]
Betas:
[ 2.994815 0.525588 ]
Aggregate results:
[ -1 5 3 8 ]
[ 0.297274 0.349233 0.266857 0.086636 ]
3
Num Evals 148
GenUC: 1.412976e-04
GenUB: 7.817813e-06
Optimisation 1.276804e-02
Total Time: 1.305240e-02
2 Flipped
Graph 1:
1 1 0 
1 0 1 
1 0 1 
Graph 2:
0 1 1 
1 0 1 
1 0 1 
Solution: -2 0
Gbest: -2.000000
Expectation: -4.308036
Final Parameters:
Gammas:
[ 4.254383 ]
Betas:
[ 1.021619 0.685437 ]
Aggregate results:
[ 1 3 5 8 ]
[ 0.498973 0.211470 0.047268 0.242289 ]
3
Num Evals 265
GenUC: 6.483984e-06
GenUB: 5.604292e-06
Optimisation 8.709847e-03
Total Time: 8.804256e-03
3 Add 3
Graph 1:
1 1 0 
1 0 1 
1 0 1 
Graph 2:
1 1 1 
1 1 1 
1 0 1 
Solution: -2 0
Gbest: -2.000000
Expectation: -2.808037
Final Parameters:
Gammas:
[ 3.934962 ]
Betas:
[ 3.021007 2.555217 ]
Aggregate results:
[ 1 3 8 ]
[ 0.698593 0.260362 0.041045 ]
3
Num Evals 392
GenUC: 6.128335e-06
GenUB: 5.276233e-06
Optimisation 1.430441e-02
Total Time: 1.443736e-02
4 Rem 3
Graph 1:
1 1 0 
1 0 1 
1 0 1 
Graph 2:
1 0 0 
1 0 1 
1 0 1 
Solution: -1 0
Gbest: -1.000000
Expectation: -3.621797
Final Parameters:
Gammas:
[ 4.086447 ]
Betas:
[ 1.605635 0.686678 ]
Aggregate results:
[ 0 6 4 2 8 ]
[ 0.409604 0.112661 0.365254 0.069173 0.043309 ]
3
Num Evals 529
GenUC: 6.166461e-06
GenUB: 5.182985e-06
Optimisation 1.142581e-02
Total Time: 1.152541e-02
5 Add/Rem 3
Graph 1:
1 1 0 
1 0 1 
1 0 1 
Graph 2:
1 1 0 
0 1 0 
1 1 0 
Solution: -1 4
Gbest: -1.000000
Expectation: -5.500000
Final Parameters:
Gammas:
[ 4.712389 ]
Betas:
[ 2.356194 2.356194 ]
Aggregate results:
[ 4 2 0 6 8 ]
[ 0.375000 0.125000 0.125000 0.125000 0.250000 ]
3
Num Evals 533
GenUC: 6.351329e-06
GenUB: 5.171227e-06
Optimisation 4.057819e-04
Total Time: 5.308236e-04
