Clock Speed: 3.688907
Num threads: 4
Trotterisation: 1
Graph Size: 3
Num Qubits: 3
Space Dimension: 8
Run-Type: 0
Num_samples: 10
1 Isomorphic
Graph 1:
1 1 1 
0 1 1 
0 1 1 
Graph 2:
1 1 1 
0 1 1 
0 1 1 
Solution: 0 0
Gbest: 0.000000
Expectation: -3.115984
Final Parameters:
Gammas:
[ 3.464273 ]
Betas:
[ 1.033791 0.759133 ]
Aggregate results:
[ -1 3 8 ]
[ 0.359515 0.529676 0.110809 ]
3
Num Evals 122
GenUC: 1.155509e-04
GenUB: 7.910596e-06
Optimisation 9.507964e-03
Total Time: 9.736484e-03
2 Flipped
Graph 1:
1 1 1 
0 1 1 
0 1 1 
Graph 2:
1 1 1 
1 1 0 
1 1 0 
Solution: -2 2
Gbest: -2.000000
Expectation: -2.023064
Final Parameters:
Gammas:
[ 5.026992 ]
Betas:
[ 2.212611 2.211902 ]
Aggregate results:
[ 3 1 8 ]
[ 0.004281 0.993647 0.002072 ]
3
Num Evals 244
GenUC: 6.724556e-06
GenUB: 5.572627e-06
Optimisation 1.249051e-02
Total Time: 1.261354e-02
3 Add 3
Graph 1:
1 1 1 
0 1 1 
0 1 1 
Graph 2:
1 1 1 
1 1 1 
1 1 1 
Solution: -2 0
Gbest: -2.000000
Expectation: -2.000000
Final Parameters:
Gammas:
[ 4.297636 ]
Betas:
[ 0.750892 0.452279 ]
Aggregate results:
[ 1 8 ]
[ 1.000000 0.000000 ]
3
Num Evals 379
GenUC: 5.926471e-06
GenUB: 5.701731e-06
Optimisation 9.345944e-03
Total Time: 9.428336e-03
4 Rem 3
Graph 1:
1 1 1 
0 1 1 
0 1 1 
Graph 2:
0 0 1 
0 0 1 
0 1 1 
Solution: -3 0
Gbest: -3.000000
Expectation: -3.884182
Final Parameters:
Gammas:
[ 3.536922 ]
Betas:
[ 2.971811 2.645661 ]
Aggregate results:
[ 2 4 6 8 ]
[ 0.633694 0.309919 0.036990 0.019397 ]
3
Num Evals 510
GenUC: 6.057904e-06
GenUB: 5.428796e-06
Optimisation 1.527111e-02
Total Time: 1.540706e-02
5 Add/Rem 3
Graph 1:
1 1 1 
0 1 1 
0 1 1 
Graph 2:
0 1 1 
1 1 1 
1 0 0 
Solution: -3 1
Gbest: -3.000000
Expectation: -5.500000
Final Parameters:
Gammas:
[ 4.712389 ]
Betas:
[ 2.356194 1.570796 ]
Aggregate results:
[ 4 2 8 ]
[ 0.500000 0.250000 0.250000 ]
3
Num Evals 514
GenUC: 6.482180e-06
GenUB: 5.457026e-06
Optimisation 4.048952e-04
Total Time: 5.245093e-04
