Clock Speed: 3.689389
Num threads: 4
Trotterisation: 4
Graph Size: 4
Num Qubits: 5
Space Dimension: 32
Run-Type: 0
Num_samples: 10
1 Isomorphic
Graph 1:
1 0 1 0 
0 0 1 0 
0 0 0 0 
1 1 0 1 
Graph 2:
1 0 1 0 
0 0 1 0 
0 0 0 0 
1 1 0 1 
Solution: 0 0
Gbest: 0.000000
Expectation: -4.990382
Final Parameters:
Gammas:
[ 3.338313 2.328763 2.923077 3.524274 ]
Betas:
[ 1.030407 0.871351 1.369813 1.863739 1.789984 ]
Aggregate results:
[ -1 1 7 5 9 11 3 15 ]
[ 0.306631 0.254700 0.181722 0.066511 0.044690 0.003799 0.011292 0.130655 ]
5
Num Evals 401
GenUC: 1.229355e-04
GenUB: 1.222384e-05
Optimisation 1.290702e-01
Total Time: 1.295655e-01
2 Flipped
Graph 1:
1 0 1 0 
0 0 1 0 
0 0 0 0 
1 1 0 1 
Graph 2:
0 1 0 1 
0 1 0 0 
0 0 0 0 
1 0 1 1 
Solution: -4 2
Gbest: -4.000000
Expectation: -6.143857
Final Parameters:
Gammas:
[ 3.314078 2.607901 2.879882 3.518596 ]
Betas:
[ 1.741874 1.105004 1.623666 1.754331 1.578258 ]
Aggregate results:
[ 7 5 3 9 15 ]
[ 0.274768 0.293966 0.373018 0.040353 0.017894 ]
5
Num Evals 802
GenUC: 9.018579e-06
GenUB: 8.286675e-06
Optimisation 1.442485e-01
Total Time: 1.446113e-01
3 Add 4
Graph 1:
1 0 1 0 
0 0 1 0 
0 0 0 0 
1 1 0 1 
Graph 2:
1 0 1 1 
0 0 1 0 
0 1 0 0 
1 1 1 1 
Solution: -3 0
Gbest: -5.000000
Expectation: -5.824259
Final Parameters:
Gammas:
[ 3.093010 2.919958 3.368158 3.202635 ]
Betas:
[ 1.649082 1.176762 2.032950 1.328286 0.987681 ]
Aggregate results:
[ 2 4 6 8 10 15 ]
[ 0.276249 0.388741 0.149779 0.076542 0.084908 0.023780 ]
5
Num Evals 1203
GenUC: 1.079310e-05
GenUB: 7.931725e-06
Optimisation 1.284985e-01
Total Time: 1.288451e-01
4 Rem 4
Graph 1:
1 0 1 0 
0 0 1 0 
0 0 0 0 
1 1 0 1 
Graph 2:
0 0 1 0 
0 0 1 0 
0 0 0 0 
0 0 0 1 
Solution: -3 0
Gbest: -3.000000
Expectation: -5.867882
Final Parameters:
Gammas:
[ 2.241478 3.321424 3.703160 3.122071 ]
Betas:
[ 1.612528 1.051650 1.277685 1.559346 1.101371 ]
Aggregate results:
[ 2 6 8 4 15 ]
[ 0.248062 0.297642 0.029293 0.365772 0.059232 ]
5
Num Evals 1604
GenUC: 8.945703e-06
GenUB: 7.892377e-06
Optimisation 1.230094e-01
Total Time: 1.233357e-01
5 Add/Rem 4
Graph 1:
1 0 1 0 
0 0 1 0 
0 0 0 0 
1 1 0 1 
Graph 2:
0 1 1 1 
1 0 0 0 
0 0 0 0 
0 0 1 1 
Solution: -4 14
Gbest: -4.000000
Expectation: -6.378238
Final Parameters:
Gammas:
[ 3.331180 2.472967 3.670201 3.244615 ]
Betas:
[ 1.370381 1.153834 1.662175 0.850837 2.047398 ]
Aggregate results:
[ 7 5 9 3 11 15 ]
[ 0.135507 0.494429 0.049274 0.266059 0.026264 0.028466 ]
5
Num Evals 2005
GenUC: 8.944538e-06
GenUB: 7.888302e-06
Optimisation 1.264203e-01
Total Time: 1.267667e-01
