Clock Speed: 3.689023
Num threads: 4
Trotterisation: 4
Graph Size: 4
Num Qubits: 5
Space Dimension: 32
Run-Type: 0
Num_samples: 10
1 Isomorphic
Graph 1:
1 0 0 1 
0 1 0 1 
0 0 0 0 
1 1 0 1 
Graph 2:
1 0 0 1 
0 1 0 1 
0 0 0 0 
1 1 0 1 
Solution: 0 0
Gbest: 0.000000
Expectation: -2.431811
Final Parameters:
Gammas:
[ 3.310590 2.643555 2.883425 3.196611 ]
Betas:
[ 1.575957 0.948792 1.690294 2.160499 1.299408 ]
Aggregate results:
[ -1 5 9 3 15 ]
[ 0.619661 0.125672 0.070718 0.164383 0.019567 ]
5
Num Evals 401
GenUC: 2.514285e-04
GenUB: 1.430244e-05
Optimisation 1.397776e-01
Total Time: 1.404204e-01
2 Flipped
Graph 1:
1 0 0 1 
0 1 0 1 
0 0 0 0 
1 1 0 1 
Graph 2:
1 0 0 1 
1 0 1 0 
0 0 0 0 
1 0 1 1 
Solution: -4 2
Gbest: -4.000000
Expectation: -6.446895
Final Parameters:
Gammas:
[ 3.763983 2.361880 2.944090 2.483397 ]
Betas:
[ 0.033865 0.875479 0.805799 1.796395 1.339466 ]
Aggregate results:
[ 5 3 9 7 15 ]
[ 0.186301 0.328149 0.040706 0.438508 0.006335 ]
5
Num Evals 774
GenUC: 1.160055e-05
GenUB: 8.318457e-06
Optimisation 1.221936e-01
Total Time: 1.224881e-01
3 Add 4
Graph 1:
1 0 0 1 
0 1 0 1 
0 0 0 0 
1 1 0 1 
Graph 2:
1 0 1 1 
1 1 1 1 
1 0 0 0 
1 1 0 1 
Solution: -4 0
Gbest: -4.000000
Expectation: -5.947638
Final Parameters:
Gammas:
[ 3.325087 2.483465 3.416859 3.193005 ]
Betas:
[ 2.093494 1.211938 1.537634 0.810626 2.101693 ]
Aggregate results:
[ 3 9 11 7 5 15 ]
[ 0.303122 0.040979 0.006829 0.107364 0.528279 0.013427 ]
5
Num Evals 1175
GenUC: 1.094164e-05
GenUB: 8.206349e-06
Optimisation 1.299021e-01
Total Time: 1.302552e-01
4 Rem 4
Graph 1:
1 0 0 1 
0 1 0 1 
0 0 0 0 
1 1 0 1 
Graph 2:
1 0 0 1 
0 1 0 1 
0 0 0 0 
1 0 0 0 
Solution: -2 0
Gbest: -4.000000
Expectation: -7.575696
Final Parameters:
Gammas:
[ 1.963897 3.136021 3.055702 3.744988 ]
Betas:
[ 1.589677 3.141593 0.785398 1.770905 1.484716 ]
Aggregate results:
[ 1 5 7 9 3 15 ]
[ 0.071652 0.194297 0.460375 0.085090 0.107056 0.081530 ]
3
Num Evals 1387
GenUC: 9.178766e-06
GenUB: 8.290168e-06
Optimisation 7.363594e-02
Total Time: 7.401147e-02
5 Add/Rem 4
Graph 1:
1 0 0 1 
0 1 0 1 
0 0 0 0 
1 1 0 1 
Graph 2:
0 0 0 1 
0 1 1 0 
0 1 0 1 
0 1 0 1 
Solution: -4 6
Gbest: -4.000000
Expectation: -5.336448
Final Parameters:
Gammas:
[ 2.920421 3.563842 3.088164 2.819615 ]
Betas:
[ 1.876885 0.449446 2.548742 1.915731 1.650500 ]
Aggregate results:
[ 5 7 3 9 11 15 ]
[ 0.148221 0.195168 0.627093 0.007069 0.013118 0.009331 ]
5
Num Evals 1783
GenUC: 9.117066e-06
GenUB: 8.209259e-06
Optimisation 1.287044e-01
Total Time: 1.290601e-01
