Clock Speed: 3.689330
Num threads: 4
Trotterisation: 6
Num Qubits: 10
Space Dimension: 1024
Run-Type: 0
Num_samples: 32399
Optimiser Method: 20
1 Isomorphic
Graph 1:
0 1 0 0 1 0 
0 1 0 0 1 0 
0 1 1 1 0 1 
0 1 1 0 0 0 
0 1 0 0 1 0 
0 1 1 0 0 1 
Graph 2:
0 1 0 0 1 0 
0 1 0 0 1 0 
0 1 1 1 0 1 
0 1 1 0 0 0 
0 1 0 0 1 0 
0 1 1 0 0 1 
Solution: 36 0
Classic Expectation: 19.400000
Initial Expecation: 13.640625
Gbest: 36.000000
Expectation: 16.517846
Final Parameters:
Gammas:
[ 0.391246 5.962096 6.283185 0.440291 2.533572 4.687841 ]
Betas:
[ 0.663454 0.097365 1.312970 1.416695 1.455051 1.551427 ]
Aggregate results:
[ 36 28 26 34 30 22 24 32 20 16 18 14 10 12 0 ]
[ 0.002882 0.025094 0.108069 0.005807 0.014193 0.115056 0.117656 0.000111 0.104851 0.100360 0.129952 0.052422 0.002758 0.009708 0.211081 ]
5
Num Evals 7200
GenUC: 2.603779e-04
GenUB: 9.392999e-05
Optimisation 1.929162e+01
Total Time: 1.929199e+01
2 Flipped
Graph 1:
0 1 0 0 1 0 
0 1 0 0 1 0 
0 1 1 1 0 1 
0 1 1 0 0 0 
0 1 0 0 1 0 
0 1 1 0 0 1 
Graph 2:
0 1 0 0 1 0 
0 1 0 0 1 0 
1 0 1 1 1 0 
0 0 0 1 1 0 
0 1 0 0 1 0 
1 0 0 1 1 0 
Solution: 32 88
Classic Expectation: 19.400000
Initial Expecation: 13.640625
Gbest: 32.000000
Expectation: 16.897103
Final Parameters:
Gammas:
[ 6.201691 1.154329 1.709722 5.467047 1.063218 0.493400 ]
Betas:
[ 0.800894 1.676091 2.946745 1.748207 1.641684 0.227595 ]
Aggregate results:
[ 22 20 18 24 26 16 14 28 30 32 12 10 0 ]
[ 0.113571 0.148286 0.205204 0.112579 0.029800 0.136898 0.058136 0.022289 0.003978 0.003577 0.031653 0.002046 0.131983 ]
5
Num Evals 7200
GenUC: 2.814349e-04
GenUB: 5.080964e-05
Optimisation 2.299374e+01
Total Time: 2.299407e+01
3 Add 6
Graph 1:
0 1 0 0 1 0 
0 1 0 0 1 0 
0 1 1 1 0 1 
0 1 1 0 0 0 
0 1 0 0 1 0 
0 1 1 0 0 1 
Graph 2:
0 1 1 0 1 0 
0 1 0 1 1 0 
1 1 1 1 0 1 
1 1 1 0 1 0 
0 1 0 0 1 0 
0 1 1 0 1 1 
Solution: 30 0
Classic Expectation: 17.800000
Initial Expecation: 12.515625
Gbest: 30.000000
Expectation: 15.764174
Final Parameters:
Gammas:
[ 3.217671 5.892415 0.787145 0.570616 2.396902 2.819419 ]
Betas:
[ 2.288784 0.220531 3.079995 0.157757 1.137042 0.526074 ]
Aggregate results:
[ 30 22 20 28 24 18 26 16 12 14 10 8 0 ]
[ 0.002307 0.100645 0.188447 0.008085 0.043163 0.171426 0.016111 0.157857 0.057896 0.114535 0.011593 0.000637 0.127298 ]
5
Num Evals 7200
GenUC: 3.049072e-04
GenUB: 5.633768e-05
Optimisation 2.033285e+01
Total Time: 2.033322e+01
4 Rem 6
Graph 1:
0 1 0 0 1 0 
0 1 0 0 1 0 
0 1 1 1 0 1 
0 1 1 0 0 0 
0 1 0 0 1 0 
0 1 1 0 0 1 
Graph 2:
0 1 0 0 0 0 
0 1 0 0 1 0 
0 0 1 0 0 1 
0 1 1 0 0 0 
0 0 0 0 1 0 
0 1 1 0 0 1 
Solution: 32 0
Classic Expectation: 20.466667
Initial Expecation: 14.390625
Gbest: 32.000000
Expectation: 15.818984
Final Parameters:
Gammas:
[ 5.266262 5.325210 5.632864 4.221739 1.245522 1.844828 ]
Betas:
[ 1.621504 1.962000 2.587381 0.473796 0.041013 0.413537 ]
Aggregate results:
[ 32 26 24 30 22 28 18 20 16 14 0 ]
[ 0.001397 0.050639 0.108938 0.001381 0.176877 0.017505 0.137652 0.166532 0.083554 0.019649 0.235877 ]
5
Num Evals 7200
GenUC: 2.799408e-04
GenUB: 5.169993e-05
Optimisation 2.140082e+01
Total Time: 2.140116e+01
5 Add/Rem 6
Graph 1:
0 1 0 0 1 0 
0 1 0 0 1 0 
0 1 1 1 0 1 
0 1 1 0 0 0 
0 1 0 0 1 0 
0 1 1 0 0 1 
Graph 2:
0 0 0 0 1 0 
0 0 1 1 1 0 
1 1 1 1 0 0 
0 1 1 0 0 1 
0 1 0 1 1 0 
0 1 1 0 0 1 
Solution: 28 0
Classic Expectation: 18.266667
Initial Expecation: 12.843750
Gbest: 28.000000
Expectation: 15.433118
Final Parameters:
Gammas:
[ 0.885473 5.968108 2.145123 5.933643 0.571049 4.567135 ]
Betas:
[ 2.988823 3.136232 1.181480 1.854020 1.080202 1.771442 ]
Aggregate results:
[ 28 22 20 26 18 24 16 14 12 10 0 ]
[ 0.001025 0.089708 0.235806 0.003008 0.250643 0.028285 0.134350 0.072623 0.022114 0.001442 0.160996 ]
5
Num Evals 7200
GenUC: 3.109347e-04
GenUB: 4.896347e-05
Optimisation 2.651786e+01
Total Time: 2.651822e+01
