Clock Speed: 3.390052
Num threads: 4
Trotterisation: 6
Graph Size: 7
Num Qubits: 13
Space Dimension: 8192
Run-Type: 0
Num_samples: 10
1 Isomorphic
Graph 1:
0 0 1 0 0 1 0 
1 0 0 0 1 0 0 
0 1 1 0 1 1 1 
0 0 0 0 0 1 1 
1 1 1 0 1 1 0 
1 1 1 1 1 1 1 
1 0 1 1 0 1 0 
Graph 2:
0 0 1 0 0 1 0 
1 0 0 0 1 0 0 
0 1 1 0 1 1 1 
0 0 0 0 0 1 1 
1 1 1 0 1 1 0 
1 1 1 1 1 1 1 
1 0 1 1 0 1 0 
Solution: 0 0
Gbest: -12.000000
Expectation: -29.322829
Final Parameters:
Gammas:
[ 4.738757 4.764755 4.739729 4.779035 4.721016 3.068310 ]
Betas:
[ 1.451792 2.187772 1.635421 1.539501 1.649593 1.471354 2.218962 ]
Aggregate results:
[ -1 11 9 13 17 15 21 7 19 5 25 23 29 27 33 31 35 48 ]
[ 0.000176 0.003704 0.001071 0.008400 0.054101 0.032403 0.125341 0.000675 0.088340 0.000926 0.134740 0.139109 0.058675 0.102483 0.007491 0.025779 0.003185 0.213400 ]
5
Num Evals 700
GenUC: 1.455377e-03
GenUB: 2.075281e-03
Optimisation 1.589836e+01
Total Time: 1.592013e+01
2 Flipped
Graph 1:
0 0 1 0 0 1 0 
1 0 0 0 1 0 0 
0 1 1 0 1 1 1 
0 0 0 0 0 1 1 
1 1 1 0 1 1 0 
1 1 1 1 1 1 1 
1 0 1 1 0 1 0 
Graph 2:
0 1 0 0 1 0 0 
0 0 1 0 0 0 1 
1 1 1 0 1 1 0 
1 1 0 0 0 0 0 
0 1 1 0 1 1 1 
1 1 1 1 1 1 1 
0 1 0 1 1 0 1 
Solution: -12 61
Gbest: -18.000000
Expectation: -24.550869
Final Parameters:
Gammas:
[ 6.064084 3.124377 6.086821 3.120508 2.948873 6.024566 ]
Betas:
[ 1.336234 2.925186 2.794693 1.999844 1.930919 1.768262 1.549991 ]
Aggregate results:
[ 21 13 19 17 23 25 27 29 31 15 11 33 35 39 37 48 ]
[ 0.178640 0.019460 0.185676 0.148019 0.133524 0.084944 0.047439 0.018297 0.008527 0.061980 0.002580 0.002110 0.000940 0.000133 0.000459 0.107272 ]
5
Num Evals 1400
GenUC: 1.200614e-03
GenUB: 2.107674e-03
Optimisation 1.435751e+01
Total Time: 1.438107e+01
3 Add 7
Graph 1:
0 0 1 0 0 1 0 
1 0 0 0 1 0 0 
0 1 1 0 1 1 1 
0 0 0 0 0 1 1 
1 1 1 0 1 1 0 
1 1 1 1 1 1 1 
1 0 1 1 0 1 0 
Graph 2:
0 1 1 0 0 1 1 
1 0 0 0 1 0 0 
0 1 1 0 1 1 1 
0 0 0 0 1 1 1 
1 1 1 1 1 1 0 
1 1 1 1 1 1 1 
1 0 1 1 1 1 1 
Solution: -6 0
Gbest: -16.000000
Expectation: -25.899989
Final Parameters:
Gammas:
[ 6.108206 3.000869 6.074980 3.313867 2.963315 5.933967 ]
Betas:
[ 1.703199 2.751888 2.680721 1.605445 1.755078 1.682953 1.768288 ]
Aggregate results:
[ 5 15 17 13 19 11 21 9 23 25 27 31 29 33 35 48 ]
[ 0.003819 0.053047 0.090404 0.039828 0.115870 0.015701 0.153743 0.004905 0.145608 0.110448 0.067974 0.016343 0.036042 0.008185 0.000911 0.137171 ]
5
Num Evals 2100
GenUC: 1.180851e-03
GenUB: 1.795333e-03
Optimisation 1.431694e+01
Total Time: 1.434000e+01
4 Rem 7
Graph 1:
0 0 1 0 0 1 0 
1 0 0 0 1 0 0 
0 1 1 0 1 1 1 
0 0 0 0 0 1 1 
1 1 1 0 1 1 0 
1 1 1 1 1 1 1 
1 0 1 1 0 1 0 
Graph 2:
0 0 1 0 0 1 0 
1 0 0 0 0 0 0 
0 1 1 0 1 1 1 
0 0 0 0 0 1 0 
1 0 1 0 1 1 0 
0 1 1 0 1 0 1 
1 0 1 1 0 1 0 
Solution: -6 0
Gbest: -18.000000
Expectation: -27.291814
Final Parameters:
Gammas:
[ 5.024307 4.341030 4.272764 5.231040 2.710580 1.872978 ]
Betas:
[ 1.263831 3.125246 2.477616 1.807553 1.423133 1.542468 1.741397 ]
Aggregate results:
[ 5 15 19 13 17 21 11 23 25 29 27 31 33 7 35 9 48 ]
[ 0.000597 0.021351 0.112944 0.006121 0.054367 0.135413 0.001910 0.158530 0.156674 0.068671 0.112453 0.038271 0.010311 0.000482 0.000543 0.000282 0.121079 ]
5
Num Evals 2800
GenUC: 1.243084e-03
GenUB: 1.797044e-03
Optimisation 1.390235e+01
Total Time: 1.392492e+01
5 Add/Rem 7
Graph 1:
0 0 1 0 0 1 0 
1 0 0 0 1 0 0 
0 1 1 0 1 1 1 
0 0 0 0 0 1 1 
1 1 1 0 1 1 0 
1 1 1 1 1 1 1 
1 0 1 1 0 1 0 
Graph 2:
0 0 0 0 0 1 1 
1 0 0 0 1 0 1 
1 1 0 0 1 1 0 
0 1 1 1 0 1 1 
1 1 1 0 0 1 0 
1 1 1 0 1 0 1 
1 0 1 1 0 1 1 
Solution: -11 1687
Gbest: -15.000000
Expectation: -33.355469
Final Parameters:
Gammas:
[ 3.141593 3.141593 3.141593 3.141593 3.141593 3.141593 ]
Betas:
[ 1.570796 2.356194 1.570796 1.570796 1.570796 1.570796 1.570796 ]
Aggregate results:
[ 12 20 16 14 22 24 18 26 28 30 32 10 48 ]
[ 0.001099 0.110107 0.021729 0.004639 0.144165 0.140747 0.052002 0.094604 0.035034 0.010132 0.000854 0.000122 0.384766 ]
3
Num Evals 2814
GenUC: 1.261348e-03
GenUB: 1.739073e-03
Optimisation 2.691295e-01
Total Time: 2.898792e-01
