Clock Speed: 3.389925
Num threads: 4
Trotterisation: 6
Graph Size: 7
Num Qubits: 13
Space Dimension: 8192
Run-Type: 0
Num_samples: 10
1 Isomorphic
Graph 1:
1 0 0 0 1 0 1 
1 1 0 0 0 0 1 
0 1 1 0 0 1 1 
1 1 1 0 1 1 0 
1 1 1 0 1 1 1 
1 1 0 0 1 0 1 
1 1 0 1 0 1 1 
Graph 2:
1 0 0 0 1 0 1 
1 1 0 0 0 0 1 
0 1 1 0 0 1 1 
1 1 1 0 1 1 0 
1 1 1 0 1 1 1 
1 1 0 0 1 0 1 
1 1 0 1 0 1 1 
Solution: 0 0
Gbest: -20.000000
Expectation: -25.353810
Final Parameters:
Gammas:
[ 4.914213 4.351505 4.549032 5.116571 4.683773 4.981534 ]
Betas:
[ 2.077340 1.582846 1.518182 1.651603 2.045722 1.712870 1.590380 ]
Aggregate results:
[ -1 5 9 11 21 19 17 13 25 27 23 15 7 29 31 33 48 ]
[ 0.000237 0.000181 0.003362 0.005819 0.175161 0.165197 0.076235 0.008209 0.128434 0.091260 0.175202 0.030330 0.000357 0.032047 0.011040 0.003144 0.093786 ]
5
Num Evals 700
GenUC: 1.492338e-03
GenUB: 2.012488e-03
Optimisation 1.264736e+01
Total Time: 1.267031e+01
2 Flipped
Graph 1:
1 0 0 0 1 0 1 
1 1 0 0 0 0 1 
0 1 1 0 0 1 1 
1 1 1 0 1 1 0 
1 1 1 0 1 1 1 
1 1 0 0 1 0 1 
1 1 0 1 0 1 1 
Graph 2:
1 0 1 0 0 0 1 
1 0 0 0 0 1 1 
1 1 0 0 1 1 0 
0 1 1 0 1 1 1 
1 1 1 0 1 1 1 
1 0 1 0 0 1 1 
1 1 0 1 0 1 1 
Solution: -8 304
Gbest: -14.000000
Expectation: -21.510014
Final Parameters:
Gammas:
[ 3.140965 3.135140 2.969319 3.125253 3.075627 3.165927 ]
Betas:
[ 1.466107 1.579835 2.320780 1.555937 1.712583 1.516528 1.680731 ]
Aggregate results:
[ 13 15 11 17 19 21 23 27 25 29 31 9 33 7 48 ]
[ 0.052637 0.095621 0.018246 0.183846 0.238232 0.198643 0.101746 0.012360 0.031573 0.009205 0.003697 0.001765 0.000597 0.000020 0.051810 ]
5
Num Evals 1400
GenUC: 1.198970e-03
GenUB: 1.613138e-03
Optimisation 1.259413e+01
Total Time: 1.261455e+01
3 Add 7
Graph 1:
1 0 0 0 1 0 1 
1 1 0 0 0 0 1 
0 1 1 0 0 1 1 
1 1 1 0 1 1 0 
1 1 1 0 1 1 1 
1 1 0 0 1 0 1 
1 1 0 1 0 1 1 
Graph 2:
1 1 0 1 1 1 1 
1 1 0 1 0 0 1 
0 1 1 1 0 1 1 
1 1 1 0 1 1 0 
1 1 1 1 1 1 1 
1 1 0 0 1 1 1 
1 1 0 1 0 1 1 
Solution: -7 0
Gbest: -19.000000
Expectation: -32.095703
Final Parameters:
Gammas:
[ 3.141593 3.141593 3.141593 3.141593 3.141593 3.141593 ]
Betas:
[ 1.570796 2.356194 1.570796 1.570796 1.570796 1.570796 1.570796 ]
Aggregate results:
[ 6 10 16 14 18 20 22 24 26 28 12 30 48 ]
[ 0.000122 0.000732 0.055298 0.019287 0.111328 0.147339 0.143188 0.092407 0.033691 0.007690 0.003906 0.000244 0.384766 ]
3
Num Evals 1414
GenUC: 1.090424e-03
GenUB: 1.728596e-03
Optimisation 2.447294e-01
Total Time: 2.652169e-01
4 Rem 7
Graph 1:
1 0 0 0 1 0 1 
1 1 0 0 0 0 1 
0 1 1 0 0 1 1 
1 1 1 0 1 1 0 
1 1 1 0 1 1 1 
1 1 0 0 1 0 1 
1 1 0 1 0 1 1 
Graph 2:
1 0 0 0 1 0 1 
1 1 0 0 0 0 1 
0 0 1 0 0 0 1 
0 1 1 0 0 1 0 
0 1 1 0 1 1 1 
1 0 0 0 1 0 1 
1 1 0 1 0 0 1 
Solution: -7 0
Gbest: -21.000000
Expectation: -33.882812
Final Parameters:
Gammas:
[ 3.141593 3.141593 3.141593 3.141593 3.141593 3.141593 ]
Betas:
[ 1.570796 2.356194 1.570796 1.570796 1.570796 1.570796 1.570796 ]
Aggregate results:
[ 6 10 14 26 24 22 16 20 18 12 28 32 30 34 36 48 ]
[ 0.000122 0.000488 0.005127 0.106689 0.136597 0.133789 0.015259 0.082031 0.038940 0.002563 0.058228 0.008301 0.023560 0.002808 0.000732 0.384766 ]
3
Num Evals 1428
GenUC: 1.268651e-03
GenUB: 1.729742e-03
Optimisation 2.488455e-01
Total Time: 2.694874e-01
5 Add/Rem 7
Graph 1:
1 0 0 0 1 0 1 
1 1 0 0 0 0 1 
0 1 1 0 0 1 1 
1 1 1 0 1 1 0 
1 1 1 0 1 1 1 
1 1 0 0 1 0 1 
1 1 0 1 0 1 1 
Graph 2:
0 0 0 0 0 1 1 
1 1 0 0 0 0 1 
1 1 1 1 0 1 1 
1 1 1 1 1 1 0 
0 0 1 0 1 1 1 
1 1 0 0 1 1 1 
1 0 0 0 1 0 1 
Solution: -11 476
Gbest: -19.000000
Expectation: -33.033203
Final Parameters:
Gammas:
[ 3.141593 3.141593 3.141593 3.141593 3.141593 3.141593 ]
Betas:
[ 1.570796 2.356194 1.570796 1.570796 1.570796 1.570796 1.570796 ]
Aggregate results:
[ 12 14 18 20 24 22 26 30 28 16 32 10 48 ]
[ 0.002930 0.009277 0.067993 0.118408 0.121948 0.148682 0.069702 0.009277 0.035156 0.029297 0.001831 0.000732 0.384766 ]
3
Num Evals 1442
GenUC: 1.241716e-03
GenUB: 1.754663e-03
Optimisation 2.493707e-01
Total Time: 2.698926e-01
