Clock Speed: 3.688690
Num threads: 4
Trotterisation: 2
Graph Size: 8
Num Qubits: 16
Space Dimension: 65536
Run-Type: 0
Num_samples: 10
1 Isomorphic
Graph 1:
1 1 0 1 0 1 1 1 
0 0 1 0 0 1 1 1 
0 0 1 0 1 1 1 1 
1 1 1 1 1 0 0 0 
1 1 1 0 0 1 1 1 
0 0 0 0 0 0 0 0 
1 0 0 0 1 0 1 1 
0 1 1 1 1 1 1 1 
Graph 2:
1 1 0 1 0 1 1 1 
0 0 1 0 0 1 1 1 
0 0 1 0 1 1 1 1 
1 1 1 1 1 0 0 0 
1 1 1 0 0 1 1 1 
0 0 0 0 0 0 0 0 
1 0 0 0 1 0 1 1 
0 1 1 1 1 1 1 1 
Solution: 0 0
Gbest: -22.000000
Expectation: -42.624991
Final Parameters:
Gammas:
[ 3.141593 1.047198 ]
Betas:
[ 1.570796 0.523599 2.617994 ]
Aggregate results:
[ -1 11 7 21 23 19 17 15 25 9 13 27 29 33 31 35 37 39 41 43 45 63 ]
[ 0.000009 0.000203 0.000032 0.013408 0.028266 0.007653 0.002590 0.000983 0.053016 0.000114 0.000244 0.071528 0.114883 0.103856 0.131523 0.071824 0.037953 0.009992 0.003687 0.000394 0.000008 0.347832 ]
3
Num Evals 109
GenUC: 3.534556e-03
GenUB: 1.760189e-02
Optimisation 2.122731e+01
Total Time: 2.143510e+01
2 Flipped
Graph 1:
1 1 0 1 0 1 1 1 
0 0 1 0 0 1 1 1 
0 0 1 0 1 1 1 1 
1 1 1 1 1 0 0 0 
1 1 1 0 0 1 1 1 
0 0 0 0 0 0 0 0 
1 0 0 0 1 0 1 1 
0 1 1 1 1 1 1 1 
Graph 2:
1 1 1 0 1 0 1 1 
1 1 1 0 0 1 0 0 
1 1 1 1 0 1 0 0 
0 0 0 1 1 1 1 1 
1 1 1 0 0 1 1 1 
0 0 0 0 0 0 0 0 
1 1 0 1 0 0 0 1 
1 1 1 1 1 1 1 0 
Solution: -14 15118
Gbest: -32.000000
Expectation: -43.873047
Final Parameters:
Gammas:
[ 3.141593 3.141593 ]
Betas:
[ 2.617994 0.523599 1.570796 ]
Aggregate results:
[ 25 23 19 21 17 27 29 15 37 33 35 31 39 41 43 45 13 63 ]
[ 0.047546 0.027100 0.006134 0.014511 0.002090 0.076141 0.101608 0.000458 0.033218 0.104767 0.070236 0.115204 0.012299 0.003220 0.000534 0.000061 0.000107 0.384766 ]
3
Num Evals 142
GenUC: 2.418312e-03
GenUB: 1.708236e-02
Optimisation 6.336205e+00
Total Time: 6.540000e+00
3 Add 8
Graph 1:
1 1 0 1 0 1 1 1 
0 0 1 0 0 1 1 1 
0 0 1 0 1 1 1 1 
1 1 1 1 1 0 0 0 
1 1 1 0 0 1 1 1 
0 0 0 0 0 0 0 0 
1 0 0 0 1 0 1 1 
0 1 1 1 1 1 1 1 
Graph 2:
1 1 0 1 1 1 1 1 
1 0 1 0 0 1 1 1 
0 1 1 0 1 1 1 1 
1 1 1 1 1 0 0 0 
1 1 1 0 0 1 1 1 
0 0 1 0 0 0 0 0 
1 0 0 0 1 0 1 1 
1 1 1 1 1 1 1 1 
Solution: -5 0
Gbest: -25.000000
Expectation: -33.371862
Final Parameters:
Gammas:
[ 3.136804 3.143827 ]
Betas:
[ 1.570637 1.551484 2.365651 ]
Aggregate results:
[ 4 12 14 10 8 18 22 20 24 16 26 30 28 32 34 36 38 40 42 44 63 ]
[ 0.000001 0.000169 0.000385 0.000051 0.000001 0.004764 0.031526 0.013508 0.058146 0.002291 0.097450 0.178999 0.143044 0.169945 0.118633 0.068967 0.030815 0.010167 0.001777 0.000172 0.069190 ]
3
Num Evals 763
GenUC: 3.132519e-03
GenUB: 1.698243e-02
Optimisation 1.215137e+02
Total Time: 1.217480e+02
4 Rem 8
Graph 1:
1 1 0 1 0 1 1 1 
0 0 1 0 0 1 1 1 
0 0 1 0 1 1 1 1 
1 1 1 1 1 0 0 0 
1 1 1 0 0 1 1 1 
0 0 0 0 0 0 0 0 
1 0 0 0 1 0 1 1 
0 1 1 1 1 1 1 1 
Graph 2:
0 1 0 0 0 1 0 1 
0 0 0 0 0 1 1 1 
0 0 1 0 1 1 0 1 
1 1 0 1 1 0 0 0 
1 1 1 0 0 1 1 1 
0 0 0 0 0 0 0 0 
1 0 0 0 0 0 1 1 
0 1 1 1 1 0 1 1 
Solution: -8 0
Gbest: -30.000000
Expectation: -44.576172
Final Parameters:
Gammas:
[ 3.141593 3.141593 ]
Betas:
[ 1.570796 1.570796 1.919862 ]
Aggregate results:
[ 7 13 17 15 23 25 21 27 29 19 31 33 35 37 39 41 11 43 45 49 63 ]
[ 0.000015 0.000168 0.000793 0.000320 0.017471 0.034683 0.007126 0.063721 0.092682 0.002518 0.113403 0.110657 0.085159 0.052567 0.023849 0.008362 0.000015 0.001389 0.000320 0.000015 0.384766 ]
3
Num Evals 788
GenUC: 3.146842e-03
GenUB: 1.695957e-02
Optimisation 4.827647e+00
Total Time: 5.053719e+00
5 Add/Rem 8
Graph 1:
1 1 0 1 0 1 1 1 
0 0 1 0 0 1 1 1 
0 0 1 0 1 1 1 1 
1 1 1 1 1 0 0 0 
1 1 1 0 0 1 1 1 
0 0 0 0 0 0 0 0 
1 0 0 0 1 0 1 1 
0 1 1 1 1 1 1 1 
Graph 2:
1 1 1 0 0 1 1 0 
0 0 1 0 0 1 1 1 
0 0 0 0 1 0 1 0 
1 1 1 1 1 1 1 0 
1 1 1 1 0 1 1 1 
0 0 0 1 0 1 1 0 
1 0 0 0 1 0 1 0 
0 1 1 1 0 1 0 1 
Solution: -15 0
Gbest: -27.000000
Expectation: -33.846428
Final Parameters:
Gammas:
[ 3.141593 3.141593 ]
Betas:
[ 1.570796 1.570796 0.872665 ]
Aggregate results:
[ 14 22 24 18 26 32 28 20 30 34 36 38 42 40 16 44 63 ]
[ 0.000101 0.027573 0.061876 0.002210 0.107959 0.155060 0.151932 0.009489 0.170155 0.115083 0.069259 0.033839 0.002636 0.009616 0.000603 0.000272 0.082337 ]
3
Num Evals 887
GenUC: 3.076246e-03
GenUB: 1.721680e-02
Optimisation 1.927530e+01
Total Time: 1.947425e+01
