Clock Speed: 3.689237
Num threads: 4
Trotterisation: 2
Graph Size: 8
Num Qubits: 16
Space Dimension: 65536
Run-Type: 0
Num_samples: 10
1 Isomorphic
Graph 1:
1 0 1 1 0 0 0 1 
0 1 0 1 0 0 1 1 
0 1 0 1 1 0 1 0 
1 0 1 0 1 0 1 0 
0 0 0 1 1 0 0 0 
0 1 1 0 1 1 1 1 
0 1 1 1 1 1 0 1 
0 0 1 0 0 1 0 1 
Graph 2:
1 0 1 1 0 0 0 1 
0 1 0 1 0 0 1 1 
0 1 0 1 1 0 1 0 
1 0 1 0 1 0 1 0 
0 0 0 1 1 0 0 0 
0 1 1 0 1 1 1 1 
0 1 1 1 1 1 0 1 
0 0 1 0 0 1 0 1 
Solution: 0 0
Gbest: -22.000000
Expectation: -42.966561
Final Parameters:
Gammas:
[ 3.141593 1.047198 ]
Betas:
[ 2.617994 1.570796 2.617994 ]
Aggregate results:
[ -1 11 17 13 21 23 33 27 29 15 25 19 5 31 9 35 41 37 39 43 47 45 49 63 ]
[ 0.000004 0.000176 0.002239 0.000521 0.011680 0.028667 0.091948 0.075297 0.106600 0.000497 0.054265 0.004260 0.000052 0.120152 0.000031 0.071540 0.010078 0.048045 0.019695 0.003694 0.000391 0.000758 0.000055 0.349353 ]
3
Num Evals 53
GenUC: 3.679142e-03
GenUB: 1.753383e-02
Optimisation 1.039707e+01
Total Time: 1.065433e+01
2 Flipped
Graph 1:
1 0 1 1 0 0 0 1 
0 1 0 1 0 0 1 1 
0 1 0 1 1 0 1 0 
1 0 1 0 1 0 1 0 
0 0 0 1 1 0 0 0 
0 1 1 0 1 1 1 1 
0 1 1 1 1 1 0 1 
0 0 1 0 0 1 0 1 
Graph 2:
1 0 0 0 1 1 0 1 
1 1 0 0 1 0 1 0 
0 1 0 1 1 0 1 0 
0 1 0 1 0 1 0 1 
0 0 0 1 1 0 0 0 
1 1 1 1 0 1 1 0 
1 0 1 1 1 1 1 0 
1 0 1 0 0 1 0 0 
Solution: -16 37650
Gbest: -26.000000
Expectation: -42.874384
Final Parameters:
Gammas:
[ 3.141593 5.235988 ]
Betas:
[ 1.570796 0.523599 2.617994 ]
Aggregate results:
[ 25 27 29 33 21 31 23 19 35 37 39 41 43 45 17 15 63 ]
[ 0.048562 0.082755 0.132203 0.103779 0.005110 0.139371 0.021147 0.001179 0.071706 0.031397 0.009388 0.002615 0.000388 0.000041 0.000067 0.000043 0.350250 ]
3
Num Evals 162
GenUC: 2.451767e-03
GenUB: 2.211980e-02
Optimisation 2.096370e+01
Total Time: 2.117974e+01
3 Add 8
Graph 1:
1 0 1 1 0 0 0 1 
0 1 0 1 0 0 1 1 
0 1 0 1 1 0 1 0 
1 0 1 0 1 0 1 0 
0 0 0 1 1 0 0 0 
0 1 1 0 1 1 1 1 
0 1 1 1 1 1 0 1 
0 0 1 0 0 1 0 1 
Graph 2:
1 1 1 1 0 0 0 1 
1 1 0 1 1 0 1 1 
0 1 0 1 1 0 1 0 
1 0 1 0 1 0 1 0 
0 0 0 1 1 1 0 1 
1 1 1 0 1 1 1 1 
0 1 1 1 1 1 1 1 
0 0 1 0 0 1 0 1 
Solution: -7 0
Gbest: -25.000000
Expectation: -34.190022
Final Parameters:
Gammas:
[ 3.141593 3.141593 ]
Betas:
[ 1.570796 1.570796 0.872665 ]
Aggregate results:
[ 6 16 18 20 24 26 22 32 30 28 10 34 12 42 36 38 40 14 44 46 63 ]
[ 0.000004 0.000315 0.000702 0.004245 0.050565 0.096383 0.017997 0.170226 0.180266 0.155198 0.000004 0.124667 0.000007 0.003275 0.071459 0.031562 0.009795 0.000005 0.000799 0.000189 0.082337 ]
3
Num Evals 261
GenUC: 3.154215e-03
GenUB: 1.697290e-02
Optimisation 1.932943e+01
Total Time: 1.952128e+01
4 Rem 8
Graph 1:
1 0 1 1 0 0 0 1 
0 1 0 1 0 0 1 1 
0 1 0 1 1 0 1 0 
1 0 1 0 1 0 1 0 
0 0 0 1 1 0 0 0 
0 1 1 0 1 1 1 1 
0 1 1 1 1 1 0 1 
0 0 1 0 0 1 0 1 
Graph 2:
1 0 1 1 0 0 0 0 
0 1 0 1 0 0 1 1 
0 1 0 1 1 0 1 0 
0 0 1 0 1 0 1 0 
0 0 0 1 1 0 0 0 
0 1 0 0 1 1 0 1 
0 0 1 1 1 1 0 1 
0 0 1 0 0 1 0 1 
Solution: -5 0
Gbest: -25.000000
Expectation: -33.930671
Final Parameters:
Gammas:
[ 3.141593 3.141593 ]
Betas:
[ 1.570796 1.570796 0.872665 ]
Aggregate results:
[ 4 12 18 22 20 14 26 24 32 30 28 16 10 34 40 36 38 42 44 46 48 63 ]
[ 0.000004 0.000095 0.003636 0.030009 0.013180 0.000309 0.103752 0.064041 0.146754 0.167387 0.140123 0.001205 0.000086 0.116205 0.015748 0.071216 0.035321 0.006532 0.001577 0.000480 0.000003 0.082337 ]
3
Num Evals 360
GenUC: 2.971054e-03
GenUB: 1.723651e-02
Optimisation 1.913174e+01
Total Time: 1.932802e+01
5 Add/Rem 8
Graph 1:
1 0 1 1 0 0 0 1 
0 1 0 1 0 0 1 1 
0 1 0 1 1 0 1 0 
1 0 1 0 1 0 1 0 
0 0 0 1 1 0 0 0 
0 1 1 0 1 1 1 1 
0 1 1 1 1 1 0 1 
0 0 1 0 0 1 0 1 
Graph 2:
1 1 1 1 0 1 0 1 
1 1 0 1 0 0 1 1 
0 0 0 1 1 0 1 1 
1 0 0 1 0 0 1 0 
0 0 0 1 1 0 1 0 
0 1 1 0 1 1 1 1 
1 0 0 1 1 1 0 1 
0 0 0 0 0 0 0 0 
Solution: -15 0
Gbest: -25.000000
Expectation: -34.474406
Final Parameters:
Gammas:
[ 3.141593 3.141593 ]
Betas:
[ 1.570796 1.570796 0.872665 ]
Aggregate results:
[ 14 20 22 18 24 26 28 30 16 32 34 36 38 40 42 44 46 63 ]
[ 0.000004 0.004931 0.017560 0.000727 0.044632 0.091608 0.138460 0.174576 0.000064 0.171981 0.138420 0.077459 0.038071 0.015021 0.003747 0.000328 0.000072 0.082337 ]
3
Num Evals 461
GenUC: 3.137409e-03
GenUB: 1.722909e-02
Optimisation 2.018994e+01
Total Time: 2.042287e+01
