Clock Speed: 3.688716
Num threads: 4
Trotterisation: 4
Graph Size: 5
Num Qubits: 7
Space Dimension: 128
Run-Type: 0
Num_samples: 10
1 Isomorphic
Graph 1:
0 0 1 0 0 
1 1 0 0 1 
1 0 0 0 0 
0 1 1 1 1 
1 0 1 1 0 
Graph 2:
0 0 1 0 0 
1 1 0 0 1 
1 0 0 0 0 
0 1 1 1 1 
1 0 1 1 0 
Solution: 0 0
Gbest: -8.000000
Expectation: -12.750977
Final Parameters:
Gammas:
[ 3.141593 3.141593 3.141593 3.141593 ]
Betas:
[ 2.617994 0.523599 1.570796 1.570796 1.570796 ]
Aggregate results:
[ -1 13 11 7 3 9 15 17 19 5 24 ]
[ 0.026489 0.256104 0.286011 0.091553 0.028809 0.106445 0.110718 0.008301 0.002319 0.011963 0.071289 ]
3
Num Evals 47
GenUC: 1.410707e-04
GenUB: 3.067171e-05
Optimisation 2.565821e-02
Total Time: 2.641670e-02
2 Flipped
Graph 1:
0 0 1 0 0 
1 1 0 0 1 
1 0 0 0 0 
0 1 1 1 1 
1 0 1 1 0 
Graph 2:
0 0 1 0 0 
1 0 0 1 1 
0 0 0 0 1 
1 1 1 1 0 
0 1 1 0 1 
Solution: -6 34
Gbest: -8.000000
Expectation: -12.297301
Final Parameters:
Gammas:
[ 1.047198 1.047198 4.537856 5.235988 ]
Betas:
[ 2.617994 2.617994 2.967060 1.570796 1.570796 ]
Aggregate results:
[ 9 13 11 7 15 17 5 19 24 ]
[ 0.300570 0.207170 0.209800 0.077172 0.059315 0.049020 0.050446 0.008104 0.038404 ]
3
Num Evals 422
GenUC: 2.291892e-05
GenUB: 1.653889e-05
Optimisation 2.287939e-01
Total Time: 2.295154e-01
3 Add 5
Graph 1:
0 0 1 0 0 
1 1 0 0 1 
1 0 0 0 0 
0 1 1 1 1 
1 0 1 1 0 
Graph 2:
1 0 1 0 1 
1 1 0 0 1 
1 0 0 0 1 
1 1 1 1 1 
1 0 1 1 0 
Solution: -4 0
Gbest: -10.000000
Expectation: -12.770002
Final Parameters:
Gammas:
[ 1.047198 1.047198 3.141593 3.141593 ]
Betas:
[ 1.570796 2.617994 1.570796 1.570796 1.570796 ]
Aggregate results:
[ 3 11 9 5 13 7 17 15 19 24 ]
[ 0.019304 0.214265 0.221151 0.040828 0.252603 0.054655 0.032041 0.101297 0.020491 0.043365 ]
3
Num Evals 455
GenUC: 2.521358e-05
GenUB: 1.696788e-05
Optimisation 1.832105e-02
Total Time: 1.897176e-02
4 Rem 5
Graph 1:
0 0 1 0 0 
1 1 0 0 1 
1 0 0 0 0 
0 1 1 1 1 
1 0 1 1 0 
Graph 2:
0 0 1 0 0 
1 0 0 0 0 
1 0 0 0 0 
0 1 1 0 0 
1 0 1 1 0 
Solution: -4 0
Gbest: -10.000000
Expectation: -12.616211
Final Parameters:
Gammas:
[ 3.141593 1.047198 3.141593 5.235988 ]
Betas:
[ 1.570796 0.523599 1.570796 1.570796 1.570796 ]
Aggregate results:
[ 3 13 11 7 9 15 5 24 ]
[ 0.026489 0.251953 0.292480 0.077881 0.205200 0.056763 0.017944 0.071289 ]
3
Num Evals 504
GenUC: 2.136151e-05
GenUB: 1.692737e-05
Optimisation 2.661293e-02
Total Time: 2.717812e-02
5 Add/Rem 5
Graph 1:
0 0 1 0 0 
1 1 0 0 1 
1 0 0 0 0 
0 1 1 1 1 
1 0 1 1 0 
Graph 2:
0 0 1 0 0 
1 1 1 1 1 
0 1 0 0 0 
0 1 1 0 1 
1 0 1 0 0 
Solution: -6 0
Gbest: -8.000000
Expectation: -13.000000
Final Parameters:
Gammas:
[ 1.047198 3.141593 3.141593 3.141593 ]
Betas:
[ 2.617994 1.570796 1.570796 1.570796 1.570796 ]
Aggregate results:
[ 5 13 11 7 15 17 9 24 ]
[ 0.023437 0.265625 0.210937 0.070312 0.093750 0.031250 0.242187 0.062500 ]
3
Num Evals 527
GenUC: 2.157397e-05
GenUB: 1.750886e-05
Optimisation 1.284278e-02
Total Time: 1.348539e-02
