Clock Speed: 3.688745
Num threads: 4
Trotterisation: 4
Graph Size: 5
Num Qubits: 7
Space Dimension: 128
Run-Type: 0
Num_samples: 10
1 Isomorphic
Graph 1:
0 1 0 0 1 
0 0 1 0 1 
1 1 1 1 0 
0 1 0 1 0 
0 1 0 0 0 
Graph 2:
0 1 0 0 1 
0 0 1 0 1 
1 1 1 1 0 
0 1 0 1 0 
0 1 0 0 0 
Solution: 0 0
Gbest: -8.000000
Expectation: -12.428820
Final Parameters:
Gammas:
[ 5.235988 3.141593 3.141593 3.141593 ]
Betas:
[ 2.617994 0.523599 1.570796 1.570796 1.570796 ]
Aggregate results:
[ -1 7 11 13 9 5 17 15 3 24 ]
[ 0.018119 0.071426 0.346121 0.133802 0.165454 0.011137 0.007231 0.207921 0.015107 0.023682 ]
3
Num Evals 45
GenUC: 2.433609e-04
GenUB: 3.124270e-05
Optimisation 2.609607e-02
Total Time: 2.694342e-02
2 Flipped
Graph 1:
0 1 0 0 1 
0 0 1 0 1 
1 1 1 1 0 
0 1 0 1 0 
0 1 0 0 0 
Graph 2:
1 0 0 1 0 
1 0 1 0 0 
0 1 1 1 1 
0 1 0 1 0 
0 0 0 1 0 
Solution: -6 19
Gbest: -8.000000
Expectation: -13.008789
Final Parameters:
Gammas:
[ 3.141593 3.141593 5.235988 3.141593 ]
Betas:
[ 1.570796 0.523599 1.570796 1.570796 1.570796 ]
Aggregate results:
[ 9 11 13 7 15 5 19 17 24 ]
[ 0.189575 0.355347 0.180664 0.079224 0.088745 0.013428 0.005981 0.015747 0.071289 ]
3
Num Evals 76
GenUC: 2.383094e-05
GenUB: 1.721375e-05
Optimisation 1.880694e-02
Total Time: 1.935691e-02
3 Add 5
Graph 1:
0 1 0 0 1 
0 0 1 0 1 
1 1 1 1 0 
0 1 0 1 0 
0 1 0 0 0 
Graph 2:
0 1 0 0 1 
0 0 1 0 1 
1 1 1 1 1 
1 1 1 1 0 
0 1 0 1 1 
Solution: -5 0
Gbest: -9.000000
Expectation: -13.182962
Final Parameters:
Gammas:
[ 5.235988 1.047198 5.235988 3.141593 ]
Betas:
[ 1.570796 1.570796 2.617994 1.570796 1.570796 ]
Aggregate results:
[ 4 10 12 14 6 16 18 8 24 ]
[ 0.005228 0.195971 0.292930 0.269539 0.015952 0.042222 0.011554 0.129006 0.037598 ]
3
Num Evals 121
GenUC: 2.239671e-05
GenUB: 1.614512e-05
Optimisation 2.592563e-02
Total Time: 2.656692e-02
4 Rem 5
Graph 1:
0 1 0 0 1 
0 0 1 0 1 
1 1 1 1 0 
0 1 0 1 0 
0 1 0 0 0 
Graph 2:
0 0 0 0 0 
0 0 1 0 0 
1 1 1 0 0 
0 1 0 1 0 
0 0 0 0 0 
Solution: -5 0
Gbest: -9.000000
Expectation: -12.170624
Final Parameters:
Gammas:
[ 1.047198 5.235988 1.047198 5.235988 ]
Betas:
[ 1.570796 1.570796 2.617994 1.570796 1.570796 ]
Aggregate results:
[ 4 8 10 14 16 12 6 24 ]
[ 0.000368 0.129854 0.449217 0.109503 0.014603 0.225010 0.030186 0.041260 ]
3
Num Evals 180
GenUC: 2.028586e-05
GenUB: 1.729355e-05
Optimisation 3.287775e-02
Total Time: 3.348399e-02
5 Add/Rem 5
Graph 1:
0 1 0 0 1 
0 0 1 0 1 
1 1 1 1 0 
0 1 0 1 0 
0 1 0 0 0 
Graph 2:
1 0 1 0 0 
0 0 1 1 1 
1 1 1 0 1 
0 1 0 0 0 
0 1 0 1 0 
Solution: -3 88
Gbest: -11.000000
Expectation: -13.187500
Final Parameters:
Gammas:
[ 3.141593 3.141593 3.141593 3.141593 ]
Betas:
[ 2.617994 0.523599 1.570796 1.570796 1.570796 ]
Aggregate results:
[ 8 12 14 10 16 6 18 2 24 ]
[ 0.093750 0.250000 0.179687 0.289062 0.062500 0.039062 0.015625 0.007812 0.062500 ]
3
Num Evals 251
GenUC: 2.285972e-05
GenUB: 1.856877e-05
Optimisation 4.044388e-02
Total Time: 4.103342e-02
