Clock Speed: 3.688711
Num threads: 4
Trotterisation: 3
Graph Size: 3
Num Qubits: 3
Space Dimension: 8
Run-Type: 0
Num_samples: 10
1 Isomorphic
Graph 1:
1 0 1 
0 1 0 
1 0 0 
Graph 2:
1 0 1 
0 1 0 
1 0 0 
Solution: 0 0
Gbest: 0.000000
Expectation: -2.595641
Final Parameters:
Gammas:
[ 2.601135 1.183914 3.995067 ]
Betas:
[ 1.089169 2.288115 0.852866 2.200800 ]
Aggregate results:
[ -1 3 5 1 8 ]
[ 0.652732 0.031214 0.121131 0.001472 0.193450 ]
5
Num Evals 300
GenUC: 1.395257e-04
GenUB: 7.872441e-06
Optimisation 5.705944e-02
Total Time: 5.743552e-02
2 Flipped
Graph 1:
1 0 1 
0 1 0 
1 0 0 
Graph 2:
1 0 1 
0 1 0 
0 0 1 
Solution: -2 0
Gbest: -2.000000
Expectation: -2.902970
Final Parameters:
Gammas:
[ 5.730516 4.068345 0.322147 ]
Betas:
[ 0.415401 1.011328 0.941726 1.341752 ]
Aggregate results:
[ 1 3 8 ]
[ 0.799739 0.099772 0.100489 ]
5
Num Evals 600
GenUC: 6.684102e-06
GenUB: 5.657726e-06
Optimisation 5.567680e-02
Total Time: 5.585709e-02
3 Add 3
Graph 1:
1 0 1 
0 1 0 
1 0 0 
Graph 2:
1 0 1 
1 1 0 
1 1 0 
Solution: -2 0
Gbest: -2.000000
Expectation: -3.549486
Final Parameters:
Gammas:
[ 4.430715 2.152481 3.786249 ]
Betas:
[ 1.320350 0.011745 2.535675 3.111333 ]
Aggregate results:
[ 1 3 5 8 ]
[ 0.405873 0.438955 0.138210 0.016962 ]
5
Num Evals 900
GenUC: 6.355491e-06
GenUB: 5.232840e-06
Optimisation 6.897494e-02
Total Time: 6.919664e-02
4 Rem 3
Graph 1:
1 0 1 
0 1 0 
1 0 0 
Graph 2:
1 0 0 
0 1 0 
0 0 0 
Solution: -2 0
Gbest: -2.000000
Expectation: -2.256009
Final Parameters:
Gammas:
[ 2.433185 2.114256 3.772436 ]
Betas:
[ 1.055306 1.864849 1.301978 2.784629 ]
Aggregate results:
[ 1 3 8 ]
[ 0.923482 0.055923 0.020595 ]
5
Num Evals 1200
GenUC: 8.495088e-06
GenUB: 5.835522e-06
Optimisation 5.755413e-02
Total Time: 5.778117e-02
5 Add/Rem 3
Graph 1:
1 0 1 
0 1 0 
1 0 0 
Graph 2:
0 0 0 
1 0 0 
1 1 0 
Solution: -5 0
Gbest: -5.000000
Expectation: -5.001699
Final Parameters:
Gammas:
[ 5.933793 0.009851 2.627090 ]
Betas:
[ 2.711799 0.099076 2.023876 0.590867 ]
Aggregate results:
[ 4 8 ]
[ 0.999575 0.000425 ]
5
Num Evals 1500
GenUC: 6.866030e-06
GenUB: 5.613692e-06
Optimisation 5.655947e-02
Total Time: 5.675897e-02
