Clock Speed: 3.688762
Num threads: 4
Trotterisation: 3
Graph Size: 3
Num Qubits: 3
Space Dimension: 8
Run-Type: 0
Num_samples: 10
1 Isomorphic
Graph 1:
1 0 1 
0 0 1 
0 0 0 
Graph 2:
1 0 1 
0 0 1 
0 0 0 
Solution: 0 0
Gbest: 0.000000
Expectation: -1.978433
Final Parameters:
Gammas:
[ 3.104329 2.802449 6.199989 ]
Betas:
[ 2.751529 3.030144 2.307343 1.724616 ]
Aggregate results:
[ -1 1 5 3 8 ]
[ 0.391527 0.438128 0.100972 0.025603 0.043771 ]
5
Num Evals 300
GenUC: 1.433870e-04
GenUB: 8.249190e-06
Optimisation 5.837574e-02
Total Time: 5.878568e-02
2 Flipped
Graph 1:
1 0 1 
0 0 1 
0 0 0 
Graph 2:
1 0 1 
1 0 0 
0 0 0 
Solution: -2 0
Gbest: -2.000000
Expectation: -2.937411
Final Parameters:
Gammas:
[ 4.877402 0.568628 1.114305 ]
Betas:
[ 0.456660 1.015177 2.811641 2.378185 ]
Aggregate results:
[ 1 3 5 8 ]
[ 0.638436 0.296314 0.037322 0.027928 ]
5
Num Evals 600
GenUC: 6.651826e-06
GenUB: 5.363690e-06
Optimisation 5.822393e-02
Total Time: 5.843504e-02
3 Add 3
Graph 1:
1 0 1 
0 0 1 
0 0 0 
Graph 2:
1 1 1 
0 0 1 
1 0 0 
Solution: -2 0
Gbest: -2.000000
Expectation: -3.404497
Final Parameters:
Gammas:
[ 0.478012 1.466986 2.914042 ]
Betas:
[ 1.735128 2.419173 0.106406 2.841990 ]
Aggregate results:
[ 1 3 5 8 ]
[ 0.527818 0.318208 0.103245 0.050729 ]
5
Num Evals 900
GenUC: 6.427057e-06
GenUB: 5.305599e-06
Optimisation 6.993274e-02
Total Time: 7.015708e-02
4 Rem 3
Graph 1:
1 0 1 
0 0 1 
0 0 0 
Graph 2:
1 0 0 
0 0 1 
0 0 0 
Solution: -1 0
Gbest: -1.000000
Expectation: -2.439308
Final Parameters:
Gammas:
[ 0.276695 2.144136 4.282326 ]
Betas:
[ 1.786540 3.024660 0.150358 2.790375 ]
Aggregate results:
[ 0 2 4 8 ]
[ 0.529878 0.296885 0.135089 0.038147 ]
5
Num Evals 1200
GenUC: 8.733914e-06
GenUB: 5.604321e-06
Optimisation 5.827445e-02
Total Time: 5.850198e-02
5 Add/Rem 3
Graph 1:
1 0 1 
0 0 1 
0 0 0 
Graph 2:
0 1 0 
0 0 0 
0 0 1 
Solution: -1 2
Gbest: -1.000000
Expectation: -2.700375
Final Parameters:
Gammas:
[ 3.591148 4.996685 5.727091 ]
Betas:
[ 0.017637 1.999684 0.924680 0.048219 ]
Aggregate results:
[ 4 0 2 8 ]
[ 0.109894 0.308357 0.565532 0.016217 ]
5
Num Evals 1500
GenUC: 6.849586e-06
GenUB: 5.489885e-06
Optimisation 5.606818e-02
Total Time: 5.622858e-02
