Clock Speed: 3.688249
Num threads: 4
Trotterisation: 3
Num Qubits: 16
Space Dimension: 65536
Run-Type: 0
Num_samples: 102399
Optimiser Method: 28
1 Isomorphic
Graph 1:
0 1 1 1 1 0 0 0 
1 1 0 0 1 1 0 1 
1 0 1 0 0 0 1 0 
0 1 1 1 0 0 1 1 
0 1 1 1 1 0 0 0 
0 0 0 1 0 1 1 1 
0 0 1 0 1 1 1 1 
0 1 0 1 1 0 0 1 
Graph 2:
0 1 1 1 1 0 0 0 
1 1 0 0 1 1 0 1 
1 0 1 0 0 0 1 0 
0 1 1 1 0 0 1 1 
0 1 1 1 1 0 0 0 
0 0 0 1 0 1 1 1 
0 0 1 0 1 1 1 1 
0 1 0 1 1 0 0 1 
Solution: 64 0
Classic Expectation: 34.285714
Initial Expecation: 21.093750
Gbest: 64.000000
Expectation: 27.362182
Final Parameters:
Gammas:
[ 3.086736 4.010028 5.693190 ]
Betas:
[ 2.557248 1.480093 1.655210 ]
Aggregate results:
[ 64 50 52 46 54 40 42 44 36 48 34 38 30 32 28 24 26 22 20 0 ]
[ 0.000009 0.000305 0.000178 0.003567 0.000056 0.058979 0.026876 0.009385 0.141879 0.001173 0.155223 0.100400 0.090777 0.134467 0.047107 0.006109 0.018689 0.001300 0.000300 0.203221 ]
3
Num Evals 1273
GenUC: 1.700860e-02
GenUB: 5.829052e-03
Optimisation 4.067937e+02
Total Time: 4.068166e+02
2 Flipped
Graph 1:
0 1 1 1 1 0 0 0 
1 1 0 0 1 1 0 1 
1 0 1 0 0 0 1 0 
0 1 1 1 0 0 1 1 
0 1 1 1 1 0 0 0 
0 0 0 1 0 1 1 1 
0 0 1 0 1 1 1 1 
0 1 0 1 1 0 0 1 
Graph 2:
0 0 0 1 1 1 1 0 
1 0 1 1 0 0 1 1 
0 1 0 0 0 1 0 1 
1 1 0 0 1 1 1 0 
0 0 0 1 1 1 1 0 
1 1 1 0 1 0 0 0 
1 1 1 1 0 1 0 0 
1 0 0 1 1 0 1 0 
Solution: 46 1884
Classic Expectation: 29.571429
Initial Expecation: 18.193359
Gbest: 46.000000
Expectation: 21.415477
Final Parameters:
Gammas:
[ 3.608321 4.760694 5.398551 ]
Betas:
[ 2.773799 2.089041 2.019652 ]
Aggregate results:
[ 20 22 28 26 30 24 34 32 36 16 18 38 42 40 14 46 44 10 8 12 0 ]
[ 0.008063 0.022107 0.132298 0.091941 0.147955 0.052965 0.083360 0.126107 0.037984 0.000333 0.002525 0.013579 0.000810 0.002951 0.000081 0.000034 0.000102 0.000005 0.000002 0.000004 0.276794 ]
3
Num Evals 419
GenUC: 1.791266e-02
GenUB: 4.904619e-03
Optimisation 1.498464e+02
Total Time: 1.498692e+02
3 Add 8
Graph 1:
0 1 1 1 1 0 0 0 
1 1 0 0 1 1 0 1 
1 0 1 0 0 0 1 0 
0 1 1 1 0 0 1 1 
0 1 1 1 1 0 0 0 
0 0 0 1 0 1 1 1 
0 0 1 0 1 1 1 1 
0 1 0 1 1 0 0 1 
Graph 2:
0 1 1 1 1 0 0 0 
1 1 0 0 1 1 0 1 
1 0 1 0 1 0 1 1 
0 1 1 1 0 0 1 1 
0 1 1 1 1 0 1 0 
0 0 0 1 1 1 1 1 
0 0 1 0 1 1 1 1 
0 1 1 1 1 0 0 1 
Solution: 59 0
Classic Expectation: 34.107143
Initial Expecation: 20.983887
Gbest: 59.000000
Expectation: 28.305632
Final Parameters:
Gammas:
[ 4.282741 5.092111 5.867108 ]
Betas:
[ 3.120734 1.674887 2.156206 ]
Aggregate results:
[ 59 49 47 43 51 41 39 45 53 37 35 31 33 29 27 25 23 21 19 0 ]
[ 0.000003 0.000225 0.001211 0.013533 0.000158 0.037447 0.077806 0.004454 0.000057 0.125563 0.159160 0.128570 0.157396 0.074112 0.034781 0.012439 0.002911 0.000542 0.000029 0.169604 ]
3
Num Evals 567
GenUC: 1.786889e-02
GenUB: 5.269972e-03
Optimisation 2.033625e+02
Total Time: 2.033856e+02
4 Rem 8
Graph 1:
0 1 1 1 1 0 0 0 
1 1 0 0 1 1 0 1 
1 0 1 0 0 0 1 0 
0 1 1 1 0 0 1 1 
0 1 1 1 1 0 0 0 
0 0 0 1 0 1 1 1 
0 0 1 0 1 1 1 1 
0 1 0 1 1 0 0 1 
Graph 2:
0 1 0 1 0 0 0 0 
1 1 0 0 1 1 0 1 
1 0 1 0 0 0 1 0 
0 1 1 1 0 0 0 1 
0 1 1 1 1 0 0 0 
0 0 0 0 0 1 0 1 
0 0 0 0 1 1 1 1 
0 1 0 1 0 0 0 1 
Solution: 57 0
Classic Expectation: 34.535714
Initial Expecation: 21.247559
Gbest: 57.000000
Expectation: 30.343075
Final Parameters:
Gammas:
[ 4.658501 4.714140 6.055963 ]
Betas:
[ 3.119395 1.579122 2.311824 ]
Aggregate results:
[ 57 45 51 39 43 49 37 41 47 35 33 29 31 27 25 21 23 0 ]
[ 0.000006 0.004606 0.000103 0.092270 0.014248 0.000233 0.151406 0.043314 0.001105 0.180168 0.165705 0.065940 0.121693 0.027806 0.008411 0.000178 0.002352 0.120456 ]
3
Num Evals 752
GenUC: 1.789129e-02
GenUB: 5.059671e-03
Optimisation 2.702499e+02
Total Time: 2.702728e+02
5 Add/Rem 8
Graph 1:
0 1 1 1 1 0 0 0 
1 1 0 0 1 1 0 1 
1 0 1 0 0 0 1 0 
0 1 1 1 0 0 1 1 
0 1 1 1 1 0 0 0 
0 0 0 1 0 1 1 1 
0 0 1 0 1 1 1 1 
0 1 0 1 1 0 0 1 
Graph 2:
0 1 1 0 1 1 0 0 
1 1 0 0 0 1 0 0 
0 0 1 1 0 0 1 0 
0 1 1 1 0 0 0 1 
0 1 1 0 1 1 0 0 
0 0 1 1 0 1 1 1 
1 1 1 0 1 0 1 1 
0 0 0 1 1 1 0 1 
Solution: 51 761
Classic Expectation: 34.321429
Initial Expecation: 21.115723
Gbest: 51.000000
Expectation: 28.737212
Final Parameters:
Gammas:
[ 4.679456 4.522774 6.055099 ]
Betas:
[ 3.141593 1.636593 2.348598 ]
Aggregate results:
[ 49 45 41 39 43 37 35 33 47 31 27 29 51 25 23 21 0 ]
[ 0.000607 0.005619 0.043058 0.083317 0.017804 0.131497 0.165255 0.158263 0.001206 0.115245 0.031043 0.068384 0.000043 0.011175 0.002635 0.000457 0.164393 ]
3
Num Evals 581
GenUC: 1.791063e-02
GenUB: 4.988698e-03
Optimisation 2.115161e+02
Total Time: 2.115390e+02
