Clock Speed: 3.498847
Num threads: 16
Trotterisation: 1
Num Qubits: 13
Space Dimension: 8192
Run-Type: 0
Num_samples: 49
Optimiser Method: 0
1 Isomorphic
Graph 1:
0 1 1 0 0 1 0 
1 1 1 0 0 1 1 
1 0 0 1 0 0 0 
0 0 0 0 1 1 0 
0 1 1 1 0 1 0 
1 0 0 1 0 0 1 
0 0 0 0 0 1 1 
Graph 2:
0 1 1 0 0 1 0 
1 1 1 0 0 1 1 
1 0 0 1 0 0 0 
0 0 0 0 1 1 0 
0 1 1 1 0 1 0 
1 0 0 1 0 0 1 
0 0 0 0 0 1 1 
Solution: 49 0
Classic Expectation: 25.333333
Initial Expecation: 15.585938
Gbest: 49.000000
Expectation: 19.261145
Final Parameters:
Gammas:
[ 3.341210 ]
Betas:
[ 0.698132 ]
Aggregate results:
[ 49 37 33 29 35 41 31 25 39 27 21 19 23 43 17 15 0 ]
[ 0.000158 0.001646 0.016596 0.089317 0.007089 0.000384 0.051685 0.162924 0.000749 0.147626 0.082834 0.042396 0.140919 0.000144 0.016237 0.002131 0.237166 ]
3
Num Evals 377
GenUC: 2.201981e-03
GenUB: 1.315330e-03
Optimisation 2.807812e+00
Total Time: 2.811338e+00
2 Flipped
Graph 1:
0 1 1 0 0 1 0 
1 1 1 0 0 1 1 
1 0 0 1 0 0 0 
0 0 0 0 1 1 0 
0 1 1 1 0 1 0 
1 0 0 1 0 0 1 
0 0 0 0 0 1 1 
Graph 2:
0 1 0 0 1 1 0 
1 1 0 0 1 1 1 
0 0 0 1 0 0 1 
0 1 1 0 0 0 0 
0 1 0 1 1 1 0 
1 0 0 1 0 0 1 
1 1 0 0 0 0 0 
Solution: 37 103
Classic Expectation: 25.333333
Initial Expecation: 15.585938
Gbest: 33.000000
Expectation: 19.563065
Final Parameters:
Gammas:
[ 3.338239 ]
Betas:
[ 0.698133 ]
Aggregate results:
[ 33 27 25 31 21 29 23 17 35 37 19 15 13 0 ]
[ 0.018925 0.160671 0.177148 0.049200 0.075991 0.099851 0.142796 0.008038 0.002882 0.000071 0.031378 0.002250 0.000053 0.230748 ]
3
Num Evals 303
GenUC: 5.369751e-03
GenUB: 1.281372e-03
Optimisation 2.262794e+00
Total Time: 2.269449e+00
3 Add 7
Graph 1:
0 1 1 0 0 1 0 
1 1 1 0 0 1 1 
1 0 0 1 0 0 0 
0 0 0 0 1 1 0 
0 1 1 1 0 1 0 
1 0 0 1 0 0 1 
0 0 0 0 0 1 1 
Graph 2:
0 1 1 0 0 1 0 
1 1 1 0 1 1 1 
1 0 1 1 0 0 0 
0 0 1 0 1 1 0 
0 1 1 1 1 1 0 
1 1 0 1 0 0 1 
1 0 1 0 0 1 1 
Solution: 42 0
Classic Expectation: 24.000000
Initial Expecation: 14.765625
Gbest: 32.000000
Expectation: 18.957163
Final Parameters:
Gammas:
[ 0.079664 ]
Betas:
[ 0.698132 ]
Aggregate results:
[ 42 32 30 26 34 36 28 22 24 20 18 16 40 14 12 38 10 0 ]
[ 0.000251 0.018697 0.051852 0.137984 0.005141 0.001713 0.099114 0.141764 0.161071 0.094309 0.048849 0.021850 0.000209 0.004731 0.000891 0.000135 0.000353 0.211085 ]
3
Num Evals 363
GenUC: 5.373247e-03
GenUB: 1.447042e-03
Optimisation 2.649785e+00
Total Time: 2.656608e+00
4 Rem 7
Graph 1:
0 1 1 0 0 1 0 
1 1 1 0 0 1 1 
1 0 0 1 0 0 0 
0 0 0 0 1 1 0 
0 1 1 1 0 1 0 
1 0 0 1 0 0 1 
0 0 0 0 0 1 1 
Graph 2:
0 1 1 0 0 0 0 
0 0 0 0 0 0 1 
1 0 0 1 0 0 0 
0 0 0 0 1 1 0 
0 1 1 1 0 1 0 
0 0 0 1 0 0 1 
0 0 0 0 0 1 0 
Solution: 42 0
Classic Expectation: 26.666667
Initial Expecation: 16.406250
Gbest: 32.000000
Expectation: 20.652295
Final Parameters:
Gammas:
[ 6.208254 ]
Betas:
[ 2.327106 ]
Aggregate results:
[ 42 36 32 30 28 34 26 24 22 20 38 18 16 14 0 ]
[ 0.000204 0.005167 0.058162 0.117549 0.161283 0.017355 0.174349 0.131793 0.072998 0.026176 0.000578 0.005734 0.000664 0.000194 0.227795 ]
3
Num Evals 353
GenUC: 5.371102e-03
GenUB: 1.482524e-03
Optimisation 3.613292e+00
Total Time: 3.620148e+00
5 Add/Rem 7
Graph 1:
0 1 1 0 0 1 0 
1 1 1 0 0 1 1 
1 0 0 1 0 0 0 
0 0 0 0 1 1 0 
0 1 1 1 0 1 0 
1 0 0 1 0 0 1 
0 0 0 0 0 1 1 
Graph 2:
0 1 1 0 0 1 1 
0 0 0 0 0 1 1 
1 0 0 0 0 0 1 
0 0 0 0 1 1 1 
0 0 1 0 0 1 1 
0 0 0 1 1 0 1 
1 1 0 0 0 1 1 
Solution: 37 633
Classic Expectation: 25.666667
Initial Expecation: 15.791016
Gbest: 33.000000
Expectation: 20.066807
Final Parameters:
Gammas:
[ 3.336237 ]
Betas:
[ 0.698132 ]
Aggregate results:
[ 35 33 27 29 25 31 21 23 19 17 15 37 0 ]
[ 0.003586 0.023885 0.162905 0.121903 0.177201 0.060658 0.061889 0.133680 0.022638 0.004153 0.001286 0.000398 0.225818 ]
3
Num Evals 429
GenUC: 5.368914e-03
GenUB: 1.479763e-03
Optimisation 3.134301e+00
Total Time: 3.141152e+00
