Clock Speed: 3.498619
Num threads: 16
Trotterisation: 1
Num Qubits: 13
Space Dimension: 8192
Run-Type: 0
Num_samples: 49
Optimiser Method: 0
1 Isomorphic
Graph 1:
0 0 1 1 0 1 1 
1 1 1 1 0 0 1 
1 1 1 1 0 1 1 
1 0 0 0 0 1 0 
1 1 0 1 0 0 1 
0 1 0 0 0 0 1 
1 1 1 1 0 0 0 
Graph 2:
0 0 1 1 0 1 1 
1 1 1 1 0 0 1 
1 1 1 1 0 1 1 
1 0 0 0 0 1 0 
1 1 0 1 0 0 1 
0 1 0 0 0 0 1 
1 1 1 1 0 0 0 
Solution: 49 0
Classic Expectation: 25.904762
Initial Expecation: 15.937500
Gbest: 39.000000
Expectation: 20.536945
Final Parameters:
Gammas:
[ 3.097111 ]
Betas:
[ 0.698132 ]
Aggregate results:
[ 49 35 39 31 37 33 29 25 27 23 41 21 19 17 15 45 43 0 ]
[ 0.000080 0.013302 0.003608 0.069812 0.004452 0.028155 0.102133 0.159142 0.139601 0.151000 0.000576 0.082833 0.030509 0.006590 0.000972 0.000246 0.000131 0.206858 ]
3
Num Evals 499
GenUC: 2.262260e-03
GenUB: 1.196310e-03
Optimisation 3.516771e+00
Total Time: 3.520241e+00
2 Flipped
Graph 1:
0 0 1 1 0 1 1 
1 1 1 1 0 0 1 
1 1 1 1 0 1 1 
1 0 0 0 0 1 0 
1 1 0 1 0 0 1 
0 1 0 0 0 0 1 
1 1 1 1 0 0 0 
Graph 2:
1 1 0 1 1 0 0 
1 0 0 1 1 1 1 
1 1 0 1 1 1 1 
0 1 0 0 0 0 1 
1 0 0 1 0 1 1 
1 0 0 0 0 1 0 
0 0 0 1 1 1 1 
Solution: 37 693
Classic Expectation: 25.285714
Initial Expecation: 15.556641
Gbest: 31.000000
Expectation: 19.619435
Final Parameters:
Gammas:
[ 3.340760 ]
Betas:
[ 0.698132 ]
Aggregate results:
[ 21 25 23 27 17 19 29 33 31 35 37 0 ]
[ 0.087860 0.180061 0.160435 0.136455 0.002444 0.025902 0.094691 0.021910 0.047418 0.009474 0.002548 0.230803 ]
3
Num Evals 343
GenUC: 2.834965e-03
GenUB: 1.214859e-03
Optimisation 2.502547e+00
Total Time: 2.506598e+00
3 Add 7
Graph 1:
0 0 1 1 0 1 1 
1 1 1 1 0 0 1 
1 1 1 1 0 1 1 
1 0 0 0 0 1 0 
1 1 0 1 0 0 1 
0 1 0 0 0 0 1 
1 1 1 1 0 0 0 
Graph 2:
0 0 1 1 1 1 1 
1 1 1 1 0 1 1 
1 1 1 1 0 1 1 
1 0 0 1 0 1 0 
1 1 0 1 0 0 1 
0 1 1 1 0 0 1 
1 1 1 1 1 1 0 
Solution: 42 0
Classic Expectation: 26.619048
Initial Expecation: 16.376953
Gbest: 34.000000
Expectation: 21.206593
Final Parameters:
Gammas:
[ 6.211797 ]
Betas:
[ 2.443460 ]
Aggregate results:
[ 42 36 30 34 28 32 26 24 38 22 20 18 16 0 ]
[ 0.000125 0.003910 0.108981 0.015557 0.179013 0.048255 0.211887 0.147811 0.000496 0.061637 0.011957 0.001841 0.000124 0.208405 ]
3
Num Evals 275
GenUC: 2.832587e-03
GenUB: 1.218919e-03
Optimisation 2.802711e+00
Total Time: 2.806764e+00
4 Rem 7
Graph 1:
0 0 1 1 0 1 1 
1 1 1 1 0 0 1 
1 1 1 1 0 1 1 
1 0 0 0 0 1 0 
1 1 0 1 0 0 1 
0 1 0 0 0 0 1 
1 1 1 1 0 0 0 
Graph 2:
0 0 1 1 0 0 1 
1 1 1 1 0 0 1 
1 1 0 0 0 1 1 
1 0 0 0 0 1 0 
1 1 0 0 0 0 1 
0 1 0 0 0 0 1 
1 1 1 1 0 0 0 
Solution: 45 0
Classic Expectation: 25.761905
Initial Expecation: 15.849609
Gbest: 35.000000
Expectation: 20.465041
Final Parameters:
Gammas:
[ 3.097203 ]
Betas:
[ 0.698132 ]
Aggregate results:
[ 45 31 39 29 33 25 35 23 37 41 27 21 19 17 15 13 0 ]
[ 0.000085 0.067204 0.001074 0.109288 0.024982 0.163613 0.010945 0.137933 0.003479 0.000347 0.149825 0.079467 0.036564 0.007403 0.001054 0.000231 0.206507 ]
3
Num Evals 353
GenUC: 2.825275e-03
GenUB: 1.248790e-03
Optimisation 2.470147e+00
Total Time: 2.474223e+00
5 Add/Rem 7
Graph 1:
0 0 1 1 0 1 1 
1 1 1 1 0 0 1 
1 1 1 1 0 1 1 
1 0 0 0 0 1 0 
1 1 0 1 0 0 1 
0 1 0 0 0 0 1 
1 1 1 1 0 0 0 
Graph 2:
0 0 0 1 0 1 1 
0 1 0 1 1 0 1 
1 1 1 1 1 1 1 
1 1 0 0 1 1 0 
0 0 0 1 0 0 1 
0 1 0 0 0 0 1 
1 1 0 1 1 0 0 
Solution: 38 0
Classic Expectation: 25.714286
Initial Expecation: 15.820313
Gbest: 32.000000
Expectation: 19.557710
Final Parameters:
Gammas:
[ 0.157432 ]
Betas:
[ 2.327105 ]
Aggregate results:
[ 38 26 34 28 30 32 20 24 22 36 18 16 0 ]
[ 0.001157 0.142958 0.016788 0.121697 0.087559 0.045371 0.056582 0.152220 0.110786 0.002754 0.019187 0.004571 0.238369 ]
3
Num Evals 239
GenUC: 2.834252e-03
GenUB: 1.099222e-03
Optimisation 2.339430e+00
Total Time: 2.343365e+00
