Clock Speed: 3.689251
Num threads: 4
Trotterisation: 1
Graph Size: 3
Num Qubits: 3
Space Dimension: 8
Run-Type: 0
Num_samples: 10
1 Isomorphic
Graph 1:
1 0 0 
0 1 1 
0 0 1 
Graph 2:
1 0 0 
0 1 1 
0 0 1 
Solution: 0 0
Gbest: 0.000000
Expectation: -3.500000
Final Parameters:
Gammas:
[ 2.999379 ]
Betas:
[ 0.818749 1.570796 ]
Aggregate results:
[ -1 1 8 ]
[ 0.125000 0.625000 0.250000 ]
3
Num Evals 11
GenUC: 1.186874e-04
GenUB: 7.960480e-06
Optimisation 1.009521e-03
Total Time: 1.248547e-03
2 Flipped
Graph 1:
1 0 0 
0 1 1 
0 0 1 
Graph 2:
0 0 1 
1 1 0 
1 0 0 
Solution: -4 1
Gbest: -4.000000
Expectation: -6.000000
Final Parameters:
Gammas:
[ 2.752603 ]
Betas:
[ 0.812322 1.570796 ]
Aggregate results:
[ 5 3 8 ]
[ 0.375000 0.375000 0.250000 ]
3
Num Evals 22
GenUC: 6.401795e-06
GenUB: 5.388982e-06
Optimisation 9.430117e-04
Total Time: 1.042780e-03
3 Add 3
Graph 1:
1 0 0 
0 1 1 
0 0 1 
Graph 2:
1 0 1 
0 1 1 
1 0 1 
Solution: -2 0
Gbest: -2.000000
Expectation: -2.441902
Final Parameters:
Gammas:
[ 3.930839 ]
Betas:
[ 1.410017 2.452532 ]
Aggregate results:
[ 1 3 8 ]
[ 0.879287 0.080618 0.040095 ]
3
Num Evals 105
GenUC: 5.808542e-06
GenUB: 5.293870e-06
Optimisation 7.969646e-03
Total Time: 8.083678e-03
4 Rem 3
Graph 1:
1 0 0 
0 1 1 
0 0 1 
Graph 2:
0 0 0 
0 1 1 
0 0 0 
Solution: -2 0
Gbest: -4.000000
Expectation: -5.000000
Final Parameters:
Gammas:
[ 3.141593 ]
Betas:
[ 3.141593 1.570796 ]
Aggregate results:
[ 1 3 8 ]
[ 0.125000 0.625000 0.250000 ]
3
Num Evals 113
GenUC: 5.981070e-06
GenUB: 5.588983e-06
Optimisation 7.449450e-04
Total Time: 8.709497e-04
5 Add/Rem 3
Graph 1:
1 0 0 
0 1 1 
0 0 1 
Graph 2:
1 0 1 
1 0 1 
0 1 0 
Solution: -5 0
Gbest: -5.000000
Expectation: -5.334283
Final Parameters:
Gammas:
[ 3.597265 ]
Betas:
[ 0.251501 2.665659 ]
Aggregate results:
[ 4 6 8 ]
[ 0.869719 0.093421 0.036861 ]
3
Num Evals 170
GenUC: 5.632523e-06
GenUB: 5.125417e-06
Optimisation 4.640590e-03
Total Time: 4.743953e-03
