Clock Speed: 3.688648
Num threads: 4
Trotterisation: 2
Graph Size: 4
Num Qubits: 5
Space Dimension: 32
Run-Type: 0
Num_samples: 10
1 Isomorphic
Graph 1:
1 1 1 1 
0 0 1 1 
0 0 1 0 
0 0 0 1 
Graph 2:
1 1 1 1 
0 0 1 1 
0 0 1 0 
0 0 0 1 
Solution: 0 0
Gbest: -4.000000
Expectation: -5.695701
Final Parameters:
Gammas:
[ 3.317561 1.853925 ]
Betas:
[ 1.689694 1.172727 1.478366 ]
Aggregate results:
[ -1 3 7 5 11 15 ]
[ 0.235538 0.111654 0.447907 0.146936 0.035807 0.022158 ]
3
Num Evals 188
GenUC: 1.579873e-04
GenUB: 1.296448e-05
Optimisation 3.474629e-02
Total Time: 3.513071e-02
2 Flipped
Graph 1:
1 1 1 1 
0 0 1 1 
0 0 1 0 
0 0 0 1 
Graph 2:
1 1 1 1 
1 1 0 0 
0 1 0 0 
1 0 0 0 
Solution: -4 3
Gbest: -4.000000
Expectation: -7.172693
Final Parameters:
Gammas:
[ 2.361061 3.304871 ]
Betas:
[ 1.687539 0.917331 2.639181 ]
Aggregate results:
[ 7 3 9 5 15 ]
[ 0.306351 0.295867 0.062615 0.245040 0.090127 ]
3
Num Evals 366
GenUC: 9.252108e-06
GenUB: 8.228119e-06
Optimisation 3.533760e-02
Total Time: 3.555811e-02
3 Add 4
Graph 1:
1 1 1 1 
0 0 1 1 
0 0 1 0 
0 0 0 1 
Graph 2:
1 1 1 1 
0 0 1 1 
1 0 1 1 
0 1 1 1 
Solution: -4 0
Gbest: -4.000000
Expectation: -7.362895
Final Parameters:
Gammas:
[ 3.319296 2.390812 ]
Betas:
[ 1.658094 1.174189 1.454413 ]
Aggregate results:
[ 3 7 9 5 15 ]
[ 0.203388 0.527462 0.151786 0.106604 0.010760 ]
3
Num Evals 541
GenUC: 8.796109e-06
GenUB: 8.125440e-06
Optimisation 3.242173e-02
Total Time: 3.262659e-02
4 Rem 4
Graph 1:
1 1 1 1 
0 0 1 1 
0 0 1 0 
0 0 0 1 
Graph 2:
0 0 0 1 
0 0 0 1 
0 0 1 0 
0 0 0 1 
Solution: -4 0
Gbest: -4.000000
Expectation: -6.602035
Final Parameters:
Gammas:
[ 3.322261 2.359678 ]
Betas:
[ 1.571732 1.132668 1.553654 ]
Aggregate results:
[ 3 5 7 9 15 ]
[ 0.284623 0.232646 0.412436 0.059423 0.010872 ]
3
Num Evals 711
GenUC: 8.499715e-06
GenUB: 8.044997e-06
Optimisation 3.055707e-02
Total Time: 3.076148e-02
5 Add/Rem 4
Graph 1:
1 1 1 1 
0 0 1 1 
0 0 1 0 
0 0 0 1 
Graph 2:
1 1 0 1 
0 0 1 0 
0 1 1 1 
1 1 0 0 
Solution: -5 16
Gbest: -7.000000
Expectation: -8.410564
Final Parameters:
Gammas:
[ 3.370380 3.537293 ]
Betas:
[ 1.469852 1.997700 1.831162 ]
Aggregate results:
[ 6 10 8 4 15 ]
[ 0.523418 0.090508 0.299691 0.029845 0.056538 ]
3
Num Evals 945
GenUC: 8.608331e-06
GenUB: 8.211704e-06
Optimisation 6.172671e-02
Total Time: 6.196597e-02
