Clock Speed: 3.688698
Num threads: 4
Trotterisation: 2
Graph Size: 4
Num Qubits: 5
Space Dimension: 32
Run-Type: 0
Num_samples: 10
1 Isomorphic
Graph 1:
0 0 0 1 
1 1 1 1 
1 1 1 0 
1 0 0 1 
Graph 2:
0 0 0 1 
1 1 1 1 
1 1 1 0 
1 0 0 1 
Solution: 0 0
Gbest: 0.000000
Expectation: -5.607208
Final Parameters:
Gammas:
[ 3.344742 3.522987 ]
Betas:
[ 1.249981 1.184652 1.704253 ]
Aggregate results:
[ -1 7 9 1 5 3 15 ]
[ 0.145017 0.275508 0.097385 0.127327 0.095357 0.212334 0.047073 ]
3
Num Evals 245
GenUC: 1.368262e-04
GenUB: 1.182541e-05
Optimisation 4.597920e-02
Total Time: 4.634744e-02
2 Flipped
Graph 1:
0 0 0 1 
1 1 1 1 
1 1 1 0 
1 0 0 1 
Graph 2:
1 0 0 0 
1 1 1 1 
0 1 1 1 
1 0 0 1 
Solution: -2 21
Gbest: -4.000000
Expectation: -6.298927
Final Parameters:
Gammas:
[ 3.317973 3.904076 ]
Betas:
[ 1.577955 1.175465 1.688004 ]
Aggregate results:
[ 3 9 7 5 1 15 ]
[ 0.238579 0.031347 0.429550 0.176210 0.103681 0.020632 ]
3
Num Evals 407
GenUC: 9.194599e-06
GenUB: 8.404109e-06
Optimisation 2.937209e-02
Total Time: 2.958018e-02
3 Add 4
Graph 1:
0 0 0 1 
1 1 1 1 
1 1 1 0 
1 0 0 1 
Graph 2:
1 1 0 1 
1 1 1 1 
1 1 1 1 
1 1 0 1 
Solution: -4 0
Gbest: -6.000000
Expectation: -5.987279
Final Parameters:
Gammas:
[ 3.826483 3.278476 ]
Betas:
[ 0.000457 0.324466 2.523296 ]
Aggregate results:
[ 3 5 7 15 ]
[ 0.310586 0.592268 0.045376 0.051770 ]
5
Num Evals 712
GenUC: 7.702853e-06
GenUB: 7.996859e-06
Optimisation 4.674998e-02
Total Time: 4.690685e-02
4 Rem 4
Graph 1:
0 0 0 1 
1 1 1 1 
1 1 1 0 
1 0 0 1 
Graph 2:
0 0 0 0 
1 1 0 1 
0 1 1 0 
1 0 0 1 
Solution: -3 0
Gbest: -3.000000
Expectation: -7.889362
Final Parameters:
Gammas:
[ 3.400049 3.919727 ]
Betas:
[ 1.736119 2.245754 1.474143 ]
Aggregate results:
[ 2 8 10 4 6 15 ]
[ 0.079408 0.428172 0.084934 0.260080 0.088398 0.059008 ]
3
Num Evals 902
GenUC: 8.765026e-06
GenUB: 7.725146e-06
Optimisation 5.102202e-02
Total Time: 5.125294e-02
5 Add/Rem 4
Graph 1:
0 0 0 1 
1 1 1 1 
1 1 1 0 
1 0 0 1 
Graph 2:
1 0 1 1 
0 0 0 1 
1 0 1 1 
1 0 0 1 
Solution: -5 1
Gbest: -5.000000
Expectation: -7.727729
Final Parameters:
Gammas:
[ 2.864931 3.428238 ]
Betas:
[ 1.632110 1.740075 0.720940 ]
Aggregate results:
[ 6 4 8 15 ]
[ 0.145743 0.340742 0.458916 0.054598 ]
3
Num Evals 1078
GenUC: 1.100794e-05
GenUB: 8.445786e-06
Optimisation 3.398139e-02
Total Time: 3.419662e-02
