Clock Speed: 3.688898
Num threads: 4
Trotterisation: 2
Graph Size: 4
Num Qubits: 5
Space Dimension: 32
Run-Type: 0
Num_samples: 10
1 Isomorphic
Graph 1:
1 0 1 1 
0 1 0 1 
0 1 1 1 
0 0 1 0 
Graph 2:
1 0 1 1 
0 1 0 1 
0 1 1 1 
0 0 1 0 
Solution: 0 0
Gbest: -4.000000
Expectation: -5.378174
Final Parameters:
Gammas:
[ 3.348915 1.631840 ]
Betas:
[ 2.017233 0.966721 1.678780 ]
Aggregate results:
[ -1 3 5 9 7 13 15 ]
[ 0.191647 0.246082 0.278085 0.071638 0.172952 0.004099 0.035497 ]
3
Num Evals 238
GenUC: 2.383727e-04
GenUB: 1.205661e-05
Optimisation 4.570046e-02
Total Time: 4.617166e-02
2 Flipped
Graph 1:
1 0 1 1 
0 1 0 1 
0 1 1 1 
0 0 1 0 
Graph 2:
1 1 0 1 
1 0 1 0 
1 1 1 0 
0 1 0 0 
Solution: -2 16
Gbest: -2.000000
Expectation: -6.930848
Final Parameters:
Gammas:
[ 3.322624 3.629296 ]
Betas:
[ 0.375544 1.175740 1.586903 ]
Aggregate results:
[ 9 7 5 13 3 1 15 ]
[ 0.160042 0.287455 0.353142 0.007665 0.068810 0.102628 0.020258 ]
3
Num Evals 430
GenUC: 9.728043e-06
GenUB: 8.255651e-06
Optimisation 3.193849e-02
Total Time: 3.211876e-02
3 Add 4
Graph 1:
1 0 1 1 
0 1 0 1 
0 1 1 1 
0 0 1 0 
Graph 2:
1 1 1 1 
0 1 0 1 
0 1 1 1 
1 1 1 1 
Solution: -4 0
Gbest: -4.000000
Expectation: -7.400885
Final Parameters:
Gammas:
[ 3.913231 3.263327 ]
Betas:
[ 1.313846 0.679298 2.145839 ]
Aggregate results:
[ 3 7 5 9 15 ]
[ 0.209742 0.183586 0.436688 0.041109 0.128876 ]
3
Num Evals 615
GenUC: 8.241565e-06
GenUB: 7.745693e-06
Optimisation 3.245235e-02
Total Time: 3.280212e-02
4 Rem 4
Graph 1:
1 0 1 1 
0 1 0 1 
0 1 1 1 
0 0 1 0 
Graph 2:
1 0 1 1 
0 0 0 0 
0 1 1 1 
0 0 0 0 
Solution: -3 0
Gbest: -3.000000
Expectation: -8.095750
Final Parameters:
Gammas:
[ 2.936138 2.053328 ]
Betas:
[ 1.248097 1.414834 2.084531 ]
Aggregate results:
[ 2 6 4 10 8 12 15 ]
[ 0.071836 0.391503 0.187340 0.070354 0.147117 0.001511 0.130340 ]
3
Num Evals 781
GenUC: 8.709292e-06
GenUB: 8.070812e-06
Optimisation 3.138173e-02
Total Time: 3.159934e-02
5 Add/Rem 4
Graph 1:
1 0 1 1 
0 1 0 1 
0 1 1 1 
0 0 1 0 
Graph 2:
1 0 0 0 
0 0 1 1 
1 1 1 1 
1 1 1 0 
Solution: -5 1
Gbest: -5.000000
Expectation: -7.765396
Final Parameters:
Gammas:
[ 3.236111 3.098307 ]
Betas:
[ 0.139462 1.407205 2.310077 ]
Aggregate results:
[ 6 4 8 10 15 ]
[ 0.428683 0.143294 0.340903 0.082782 0.004339 ]
3
Num Evals 1014
GenUC: 8.129457e-06
GenUB: 7.897092e-06
Optimisation 5.758843e-02
Total Time: 5.779197e-02
