Clock Speed: 3.688840
Num threads: 4
Trotterisation: 5
Graph Size: 3
Num Qubits: 3
Space Dimension: 8
Run-Type: 0
Num_samples: 10
1 Isomorphic
Graph 1:
1 1 0 
0 1 1 
0 1 1 
Graph 2:
1 1 0 
0 1 1 
0 1 1 
Solution: 0 0
Gbest: 0.000000
Expectation: -0.627477
Final Parameters:
Gammas:
[ 2.529190 2.695820 3.093301 3.408372 1.263348 ]
Betas:
[ 2.599221 1.707045 1.389385 0.619146 0.446133 1.447109 ]
Aggregate results:
[ -1 5 3 1 8 ]
[ 0.783531 0.030261 0.002072 0.174229 0.009907 ]
5
Num Evals 297
GenUC: 1.375832e-04
GenUB: 7.925846e-06
Optimisation 8.241985e-02
Total Time: 8.287085e-02
2 Flipped
Graph 1:
1 1 0 
0 1 1 
0 1 1 
Graph 2:
0 1 1 
1 1 0 
1 1 0 
Solution: -4 1
Gbest: -4.000000
Expectation: -4.052002
Final Parameters:
Gammas:
[ 4.383386 2.802200 4.336177 3.261391 3.984196 ]
Betas:
[ 1.674222 0.932527 1.447289 1.381718 1.930725 1.356366 ]
Aggregate results:
[ 5 3 8 ]
[ 0.025202 0.974479 0.000320 ]
5
Num Evals 598
GenUC: 7.066119e-06
GenUB: 6.036222e-06
Optimisation 9.803471e-02
Total Time: 9.833431e-02
3 Add 3
Graph 1:
1 1 0 
0 1 1 
0 1 1 
Graph 2:
1 1 0 
1 1 1 
1 1 1 
Solution: -2 0
Gbest: -2.000000
Expectation: -2.161820
Final Parameters:
Gammas:
[ 3.060885 3.483541 3.543776 3.000204 2.689095 ]
Betas:
[ 1.718161 1.594316 1.992179 1.135370 0.918152 1.953533 ]
Aggregate results:
[ 1 3 8 ]
[ 0.925505 0.071929 0.002566 ]
5
Num Evals 899
GenUC: 8.346600e-06
GenUB: 5.335547e-06
Optimisation 8.809150e-02
Total Time: 8.840244e-02
4 Rem 3
Graph 1:
1 1 0 
0 1 1 
0 1 1 
Graph 2:
1 0 0 
0 0 1 
0 0 1 
Solution: -3 0
Gbest: -3.000000
Expectation: -3.022035
Final Parameters:
Gammas:
[ 3.588826 3.013353 2.698555 2.813056 4.042844 ]
Betas:
[ 1.665037 1.744471 2.064439 2.229454 1.853153 1.237006 ]
Aggregate results:
[ 2 4 8 ]
[ 0.991613 0.007072 0.001315 ]
5
Num Evals 1200
GenUC: 6.919407e-06
GenUB: 5.637761e-06
Optimisation 9.301127e-02
Total Time: 9.333057e-02
5 Add/Rem 3
Graph 1:
1 1 0 
0 1 1 
0 1 1 
Graph 2:
0 1 0 
1 0 1 
1 1 1 
Solution: -4 0
Gbest: -4.000000
Expectation: -4.119496
Final Parameters:
Gammas:
[ 2.873356 3.173539 2.488056 3.394521 3.099288 ]
Betas:
[ 0.000366 1.771470 0.536823 1.559397 0.336948 1.986472 ]
Aggregate results:
[ 3 5 8 ]
[ 0.953300 0.038001 0.008699 ]
5
Num Evals 1465
GenUC: 6.353715e-06
GenUB: 5.496346e-06
Optimisation 7.018561e-02
Total Time: 7.043988e-02
