Clock Speed: 3.688930
Num threads: 4
Trotterisation: 5
Graph Size: 3
Num Qubits: 3
Space Dimension: 8
Run-Type: 0
Num_samples: 10
1 Isomorphic
Graph 1:
0 1 0 
1 0 1 
0 1 1 
Graph 2:
0 1 0 
1 0 1 
0 1 1 
Solution: 0 0
Gbest: 0.000000
Expectation: -1.212305
Final Parameters:
Gammas:
[ 3.616571 3.243325 3.250992 3.122844 2.046262 ]
Betas:
[ 2.757183 1.807267 3.141408 1.470965 0.848860 1.829942 ]
Aggregate results:
[ -1 3 5 1 8 ]
[ 0.612809 0.007501 0.081534 0.284330 0.013826 ]
5
Num Evals 269
GenUC: 1.330346e-04
GenUB: 7.927010e-06
Optimisation 8.166495e-02
Total Time: 8.215001e-02
2 Flipped
Graph 1:
0 1 0 
1 0 1 
0 1 1 
Graph 2:
0 1 0 
1 0 1 
1 1 0 
Solution: -2 0
Gbest: -2.000000
Expectation: -2.078836
Final Parameters:
Gammas:
[ 3.507454 2.892859 3.356234 3.794105 3.058427 ]
Betas:
[ 1.664408 1.599168 0.553058 1.465198 1.160955 1.284395 ]
Aggregate results:
[ 1 3 8 ]
[ 0.961725 0.037817 0.000457 ]
5
Num Evals 570
GenUC: 6.487506e-06
GenUB: 5.368987e-06
Optimisation 9.435536e-02
Total Time: 9.465329e-02
3 Add 3
Graph 1:
0 1 0 
1 0 1 
0 1 1 
Graph 2:
1 1 1 
1 1 1 
0 1 1 
Solution: -3 0
Gbest: -3.000000
Expectation: -3.214594
Final Parameters:
Gammas:
[ 3.321096 2.883339 2.609621 2.290322 3.717087 ]
Betas:
[ 0.811611 2.109582 2.091038 1.490700 1.598507 1.832909 ]
Aggregate results:
[ 2 4 8 ]
[ 0.901762 0.093708 0.004530 ]
5
Num Evals 871
GenUC: 8.401199e-06
GenUB: 5.547976e-06
Optimisation 9.127325e-02
Total Time: 9.158999e-02
4 Rem 3
Graph 1:
0 1 0 
1 0 1 
0 1 1 
Graph 2:
0 0 0 
1 0 0 
0 1 1 
Solution: -2 0
Gbest: -2.000000
Expectation: -2.807365
Final Parameters:
Gammas:
[ 2.915228 3.086781 3.531954 3.356751 2.870924 ]
Betas:
[ 1.600613 1.883612 3.141560 1.285337 2.502083 1.680243 ]
Aggregate results:
[ 1 3 5 8 ]
[ 0.632090 0.335076 0.030876 0.001959 ]
5
Num Evals 1109
GenUC: 6.907067e-06
GenUB: 5.094334e-06
Optimisation 7.569824e-02
Total Time: 7.603246e-02
5 Add/Rem 3
Graph 1:
0 1 0 
1 0 1 
0 1 1 
Graph 2:
1 0 0 
1 1 0 
1 1 1 
Solution: -5 0
Gbest: -5.000000
Expectation: -5.000000
Final Parameters:
Gammas:
[ 3.266807 3.534282 3.561217 3.145635 3.137448 ]
Betas:
[ 1.574848 1.374431 1.445820 1.561110 1.441049 1.441057 ]
Aggregate results:
[ 4 8 ]
[ 1.000000 0.000000 ]
3
Num Evals 1317
GenUC: 6.392424e-06
GenUB: 5.547976e-06
Optimisation 6.112623e-02
Total Time: 6.143316e-02
