Clock Speed: 3.389693
Num threads: 4
Trotterisation: 5
Graph Size: 7
Num Qubits: 13
Space Dimension: 8192
Run-Type: 0
Num_samples: 10
1 Isomorphic
Graph 1:
0 1 1 0 0 1 0 
0 1 1 0 1 1 1 
1 0 0 0 0 1 1 
0 0 1 0 1 1 0 
1 0 1 1 1 1 0 
0 1 1 1 0 1 1 
0 0 0 0 1 1 0 
Graph 2:
0 1 1 0 0 1 0 
0 1 1 0 1 1 1 
1 0 0 0 0 1 1 
0 0 1 0 1 1 0 
1 0 1 1 1 1 0 
0 1 1 1 0 1 1 
0 0 0 0 1 1 0 
Solution: 0 0
Gbest: -16.000000
Expectation: -29.855742
Final Parameters:
Gammas:
[ 2.737478 2.950549 2.211478 3.245356 2.875790 ]
Betas:
[ 1.504787 1.096047 1.854905 1.643832 1.432122 1.522150 ]
Aggregate results:
[ -1 13 11 9 17 15 19 23 7 21 27 25 29 31 35 33 48 ]
[ 0.002176 0.025899 0.013047 0.006993 0.092753 0.071404 0.111476 0.094015 0.005632 0.106238 0.049632 0.069676 0.030321 0.011405 0.000853 0.002376 0.306104 ]
5
Num Evals 701
GenUC: 1.497990e-03
GenUB: 2.246623e-03
Optimisation 1.043837e+01
Total Time: 1.045734e+01
2 Flipped
Graph 1:
0 1 1 0 0 1 0 
0 1 1 0 1 1 1 
1 0 0 0 0 1 1 
0 0 1 0 1 1 0 
1 0 1 1 1 1 0 
0 1 1 1 0 1 1 
0 0 0 0 1 1 0 
Graph 2:
0 1 0 0 1 1 0 
1 1 1 0 1 1 0 
1 1 0 0 0 0 1 
0 1 1 0 1 0 0 
0 1 1 1 1 0 1 
1 1 0 1 1 1 0 
0 1 1 0 0 0 0 
Solution: -6 4536
Gbest: -18.000000
Expectation: -23.452110
Final Parameters:
Gammas:
[ 3.047484 3.238383 3.232391 2.936070 1.815549 ]
Betas:
[ 1.591829 1.502133 2.586886 1.208353 1.674493 1.612917 ]
Aggregate results:
[ 19 17 23 21 25 27 29 31 15 13 9 11 33 35 5 48 ]
[ 0.195969 0.137358 0.147190 0.192552 0.085634 0.033809 0.013087 0.007596 0.068647 0.027496 0.001947 0.008083 0.003434 0.000922 0.000104 0.076172 ]
5
Num Evals 1401
GenUC: 1.156011e-03
GenUB: 1.740024e-03
Optimisation 1.101442e+01
Total Time: 1.103318e+01
3 Add 7
Graph 1:
0 1 1 0 0 1 0 
0 1 1 0 1 1 1 
1 0 0 0 0 1 1 
0 0 1 0 1 1 0 
1 0 1 1 1 1 0 
0 1 1 1 0 1 1 
0 0 0 0 1 1 0 
Graph 2:
0 1 1 0 0 1 0 
0 1 1 0 1 1 1 
1 0 0 1 1 1 1 
0 0 1 1 1 1 1 
1 0 1 1 1 1 0 
0 1 1 1 1 1 1 
0 0 0 1 1 1 0 
Solution: -6 0
Gbest: -18.000000
Expectation: -24.701260
Final Parameters:
Gammas:
[ 3.122637 3.077386 3.434383 3.153560 2.654242 ]
Betas:
[ 3.123154 2.242143 2.242061 1.451169 1.430623 1.583074 ]
Aggregate results:
[ 5 19 15 17 23 11 9 13 21 25 27 29 31 33 35 48 ]
[ 0.000126 0.115087 0.027624 0.077883 0.200633 0.000974 0.000299 0.004423 0.182356 0.167548 0.105033 0.052057 0.021426 0.004162 0.000989 0.039381 ]
5
Num Evals 2071
GenUC: 1.221713e-03
GenUB: 1.777235e-03
Optimisation 1.034870e+01
Total Time: 1.036841e+01
4 Rem 7
Graph 1:
0 1 1 0 0 1 0 
0 1 1 0 1 1 1 
1 0 0 0 0 1 1 
0 0 1 0 1 1 0 
1 0 1 1 1 1 0 
0 1 1 1 0 1 1 
0 0 0 0 1 1 0 
Graph 2:
0 1 1 0 0 1 0 
0 1 0 0 0 0 0 
1 0 0 0 0 0 1 
0 0 1 0 1 1 0 
1 0 1 1 1 1 0 
0 1 1 0 0 0 1 
0 0 0 0 1 1 0 
Solution: -7 0
Gbest: -15.000000
Expectation: -23.590939
Final Parameters:
Gammas:
[ 3.166317 3.150297 3.054285 3.099805 3.124581 ]
Betas:
[ 0.000112 3.127873 2.394305 0.509958 1.351977 1.410199 ]
Aggregate results:
[ 6 16 18 14 20 24 12 22 26 28 30 32 34 36 48 ]
[ 0.001145 0.045036 0.096202 0.013569 0.183609 0.212795 0.005966 0.236061 0.122507 0.051280 0.012495 0.001538 0.000091 0.000030 0.017676 ]
5
Num Evals 2626
GenUC: 1.255050e-03
GenUB: 1.794915e-03
Optimisation 8.065902e+00
Total Time: 8.082909e+00
5 Add/Rem 7
Graph 1:
0 1 1 0 0 1 0 
0 1 1 0 1 1 1 
1 0 0 0 0 1 1 
0 0 1 0 1 1 0 
1 0 1 1 1 1 0 
0 1 1 1 0 1 1 
0 0 0 0 1 1 0 
Graph 2:
0 0 0 0 0 1 0 
0 1 0 0 1 1 1 
1 1 0 0 0 1 1 
0 1 0 0 1 1 0 
1 1 1 1 1 1 1 
0 1 1 1 0 0 1 
0 0 0 1 0 1 1 
Solution: -12 0
Gbest: -18.000000
Expectation: -27.713274
Final Parameters:
Gammas:
[ 2.769471 3.054306 2.987484 2.983857 3.885503 ]
Betas:
[ 0.185313 1.343043 2.038783 0.255962 1.743015 1.543862 ]
Aggregate results:
[ 11 19 15 13 21 23 17 25 27 31 29 33 35 48 ]
[ 0.011253 0.123563 0.060276 0.027033 0.160779 0.139048 0.084215 0.093165 0.056309 0.007100 0.022570 0.002887 0.000444 0.211359 ]
5
Num Evals 3305
GenUC: 1.236749e-03
GenUB: 1.785027e-03
Optimisation 9.652093e+00
Total Time: 9.668414e+00
