Clock Speed: 3.688845
Num threads: 4
Trotterisation: 5
Num Qubits: 10
Space Dimension: 1024
Run-Type: 0
Num_samples: 6
Optimiser Method: 29
1 Isomorphic
Graph 1:
0 1 1 1 0 0 
1 0 1 1 1 1 
1 1 0 0 1 1 
1 1 0 0 1 1 
0 1 1 1 0 1 
0 1 1 1 1 0 
Graph 2:
0 1 1 1 0 0 
1 0 1 1 1 1 
1 1 0 0 1 1 
1 1 0 0 1 1 
0 1 1 1 0 1 
0 1 1 1 1 0 
Solution: 36 0
Classic Expectation: 26.400000
Initial Expecation: 18.562500
Gbest: 28.000000
Expectation: 24.307490
Final Parameters:
Gammas:
[ 3.079423 3.747708 3.578564 3.383653 2.901956 ]
Betas:
[ 0.928778 1.827316 0.966224 0.900025 1.334049 ]
Aggregate results:
[ 36 28 24 32 0 ]
[ 0.001055 0.501040 0.302399 0.093214 0.102293 ]
5
Num Evals 6000
GenUC: 2.599658e-04
GenUB: 8.667894e-05
Optimisation 1.203817e+02
Total Time: 1.203821e+02
2 Flipped
Graph 1:
0 1 1 1 0 0 
1 0 1 1 1 1 
1 1 0 0 1 1 
1 1 0 0 1 1 
0 1 1 1 0 1 
0 1 1 1 1 0 
Graph 2:
0 0 1 1 1 0 
1 1 1 1 0 1 
1 1 0 0 1 1 
1 1 0 0 1 1 
1 0 1 1 1 0 
0 1 1 1 1 0 
Solution: 30 80
Classic Expectation: 23.200000
Initial Expecation: 16.312500
Gbest: 28.000000
Expectation: 22.058590
Final Parameters:
Gammas:
[ 6.215600 4.902945 3.110155 3.235440 2.988369 ]
Betas:
[ 2.523587 2.644665 0.448551 1.802842 1.690559 ]
Aggregate results:
[ 28 24 20 22 26 30 0 ]
[ 0.180988 0.221097 0.115797 0.266353 0.117210 0.015381 0.083174 ]
5
Num Evals 6000
GenUC: 2.808743e-04
GenUB: 6.695119e-05
Optimisation 1.475047e+02
Total Time: 1.475051e+02
3 Add 6
Graph 1:
0 1 1 1 0 0 
1 0 1 1 1 1 
1 1 0 0 1 1 
1 1 0 0 1 1 
0 1 1 1 0 1 
0 1 1 1 1 0 
Graph 2:
1 1 1 1 1 1 
1 1 1 1 1 1 
1 1 1 1 1 1 
1 1 1 0 1 1 
1 1 1 1 0 1 
1 1 1 1 1 0 
Solution: 27 0
Classic Expectation: 27.000000
Initial Expecation: 18.984375
Gbest: 27.000000
Expectation: 26.895217
Final Parameters:
Gammas:
[ 5.448110 5.677064 3.361813 2.032723 6.217961 ]
Betas:
[ 2.123973 1.128869 2.249763 2.109026 1.713362 ]
Aggregate results:
[ 27 0 ]
[ 0.996119 0.003881 ]
5
Num Evals 6000
GenUC: 2.809400e-04
GenUB: 7.224389e-05
Optimisation 1.502159e+02
Total Time: 1.502162e+02
4 Rem 6
Graph 1:
0 1 1 1 0 0 
1 0 1 1 1 1 
1 1 0 0 1 1 
1 1 0 0 1 1 
0 1 1 1 0 1 
0 1 1 1 1 0 
Graph 2:
0 0 0 0 0 0 
0 0 1 0 0 0 
0 1 0 0 1 0 
0 0 0 0 1 1 
0 0 1 1 0 1 
0 0 0 1 1 0 
Solution: 22 0
Classic Expectation: 18.000000
Initial Expecation: 12.656250
Gbest: 22.000000
Expectation: 17.946556
Final Parameters:
Gammas:
[ 6.283185 1.655273 3.208538 3.002190 3.091645 ]
Betas:
[ 1.019725 2.531308 0.403260 3.059907 0.526413 ]
Aggregate results:
[ 22 18 14 10 0 ]
[ 0.312513 0.478638 0.163707 0.016391 0.028752 ]
5
Num Evals 6000
GenUC: 2.817698e-04
GenUB: 7.031789e-05
Optimisation 1.324310e+02
Total Time: 1.324314e+02
5 Add/Rem 6
Graph 1:
0 1 1 1 0 0 
1 0 1 1 1 1 
1 1 0 0 1 1 
1 1 0 0 1 1 
0 1 1 1 0 1 
0 1 1 1 1 0 
Graph 2:
0 0 0 0 1 1 
0 1 0 1 0 0 
0 0 1 1 1 1 
0 1 1 0 1 1 
1 0 1 1 0 1 
1 0 1 1 1 0 
Solution: 28 76
Classic Expectation: 20.800000
Initial Expecation: 14.625000
Gbest: 28.000000
Expectation: 21.828381
Final Parameters:
Gammas:
[ 4.661279 1.846273 3.241073 3.290508 3.659832 ]
Betas:
[ 2.454636 2.890612 0.384068 1.738958 1.553703 ]
Aggregate results:
[ 16 20 24 28 0 ]
[ 0.062972 0.295052 0.488019 0.114548 0.039409 ]
5
Num Evals 6000
GenUC: 2.808379e-04
GenUB: 6.204934e-05
Optimisation 1.496571e+02
Total Time: 1.496575e+02
