Clock Speed: 3.688783
Num threads: 4
Trotterisation: 1
Graph Size: 3
Num Qubits: 3
Space Dimension: 8
Run-Type: 0
Num_samples: 10
1 Isomorphic
Graph 1:
0 1 1 
1 1 0 
0 1 0 
Graph 2:
0 1 1 
1 1 0 
0 1 0 
Solution: 0 0
Gbest: 0.000000
Expectation: -2.273448
Final Parameters:
Gammas:
[ 0.334829 ]
Betas:
[ 2.675353 2.647899 ]
Aggregate results:
[ -1 5 3 8 ]
[ 0.509439 0.138698 0.345102 0.006761 ]
5
Num Evals 300
GenUC: 1.359032e-04
GenUB: 7.783819e-06
Optimisation 2.618295e-02
Total Time: 2.647030e-02
2 Flipped
Graph 1:
0 1 1 
1 1 0 
0 1 0 
Graph 2:
1 1 0 
0 1 1 
0 1 0 
Solution: -2 5
Gbest: -2.000000
Expectation: -3.997061
Final Parameters:
Gammas:
[ 5.950530 ]
Betas:
[ 1.219632 0.541399 ]
Aggregate results:
[ 3 5 1 8 ]
[ 0.514697 0.207205 0.258263 0.019835 ]
5
Num Evals 600
GenUC: 6.421178e-06
GenUB: 5.454669e-06
Optimisation 2.561679e-02
Total Time: 2.570826e-02
3 Add 3
Graph 1:
0 1 1 
1 1 0 
0 1 0 
Graph 2:
1 1 1 
1 1 1 
1 1 0 
Solution: -3 0
Gbest: -3.000000
Expectation: -3.234639
Final Parameters:
Gammas:
[ 5.982037 ]
Betas:
[ 1.290565 0.523773 ]
Aggregate results:
[ 2 4 8 ]
[ 0.900769 0.090186 0.009044 ]
5
Num Evals 900
GenUC: 6.308517e-06
GenUB: 5.298003e-06
Optimisation 2.661715e-02
Total Time: 2.671112e-02
4 Rem 3
Graph 1:
0 1 1 
1 1 0 
0 1 0 
Graph 2:
0 1 1 
0 1 0 
0 1 0 
Solution: -1 0
Gbest: -1.000000
Expectation: -3.129141
Final Parameters:
Gammas:
[ 2.807228 ]
Betas:
[ 1.512278 0.433976 ]
Aggregate results:
[ 0 6 4 2 8 ]
[ 0.374090 0.037007 0.326887 0.249429 0.012587 ]
5
Num Evals 1200
GenUC: 6.114278e-06
GenUB: 5.245180e-06
Optimisation 2.782580e-02
Total Time: 2.792080e-02
5 Add/Rem 3
Graph 1:
0 1 1 
1 1 0 
0 1 0 
Graph 2:
1 0 0 
1 0 0 
1 1 1 
Solution: -2 2
Gbest: -2.000000
Expectation: -4.011868
Final Parameters:
Gammas:
[ 4.688792 ]
Betas:
[ 2.286533 2.554880 ]
Aggregate results:
[ 5 3 1 8 ]
[ 0.127392 0.440956 0.343025 0.088627 ]
5
Num Evals 1500
GenUC: 6.147136e-06
GenUB: 5.410664e-06
Optimisation 2.708225e-02
Total Time: 2.720649e-02
