Clock Speed: 3.689385
Num threads: 4
Trotterisation: 3
Num Qubits: 5
Space Dimension: 32
Run-Type: 0
Num_samples: 6399
Optimiser Method: 28
1 Isomorphic
Graph 1:
0 1 1 0 
1 1 1 1 
1 0 1 0 
1 1 1 1 
Graph 2:
0 1 1 0 
1 1 1 1 
1 0 1 0 
1 1 1 1 
Solution: 16 0
Classic Expectation: 10.000000
Initial Expecation: 7.500000
Gbest: 16.000000
Expectation: 11.421243
Final Parameters:
Gammas:
[ 2.976859 3.454717 4.719201 ]
Betas:
[ 2.541458 1.900951 1.481641 ]
Aggregate results:
[ 16 10 12 14 8 0 ]
[ 0.153330 0.335774 0.258122 0.101716 0.136092 0.014966 ]
3
Num Evals 325
GenUC: 8.330724e-06
GenUB: 1.046387e-05
Optimisation 1.412999e-01
Total Time: 1.413346e-01
2 Flipped
Graph 1:
0 1 1 0 
1 1 1 1 
1 0 1 0 
1 1 1 1 
Graph 2:
0 1 1 0 
1 1 1 1 
0 1 0 1 
1 1 1 1 
Solution: 12 0
Classic Expectation: 10.000000
Initial Expecation: 7.500000
Gbest: 12.000000
Expectation: 11.343412
Final Parameters:
Gammas:
[ 2.942738 3.631186 4.369478 ]
Betas:
[ 2.272652 1.964118 1.728663 ]
Aggregate results:
[ 12 10 8 0 ]
[ 0.775897 0.153186 0.062598 0.008319 ]
3
Num Evals 737
GenUC: 9.299594e-06
GenUB: 1.741730e-06
Optimisation 2.136426e-01
Total Time: 2.136557e-01
3 Add 4
Graph 1:
0 1 1 0 
1 1 1 1 
1 0 1 0 
1 1 1 1 
Graph 2:
1 1 1 0 
1 1 1 1 
1 1 1 0 
1 1 1 1 
Solution: 14 0
Classic Expectation: 11.000000
Initial Expecation: 8.250000
Gbest: 14.000000
Expectation: 10.942226
Final Parameters:
Gammas:
[ 3.905145 0.000000 6.266761 ]
Betas:
[ 2.856586 2.291933 1.740803 ]
Aggregate results:
[ 14 10 12 0 ]
[ 0.165811 0.442194 0.349911 0.042084 ]
3
Num Evals 656
GenUC: 9.398180e-06
GenUB: 1.311579e-06
Optimisation 2.058152e-01
Total Time: 2.058276e-01
4 Rem 4
Graph 1:
0 1 1 0 
1 1 1 1 
1 0 1 0 
1 1 1 1 
Graph 2:
0 1 1 0 
1 0 1 0 
1 0 0 0 
1 1 1 0 
Solution: 12 0
Classic Expectation: 8.000000
Initial Expecation: 6.000000
Gbest: 12.000000
Expectation: 6.000000
Final Parameters:
Gammas:
[ 3.141593 3.141593 3.141593 ]
Betas:
[ 2.356194 1.570796 1.570796 ]
Aggregate results:
[ 12 6 10 8 0 ]
[ 0.031250 0.281250 0.218750 0.218750 0.250000 ]
3
Num Evals 7
GenUC: 8.701605e-06
GenUB: 1.582699e-06
Optimisation 1.837869e-03
Total Time: 1.849884e-03
5 Add/Rem 4
Graph 1:
0 1 1 0 
1 1 1 1 
1 0 1 0 
1 1 1 1 
Graph 2:
0 1 1 1 
1 0 0 1 
1 1 0 0 
1 1 0 1 
Solution: 12 7
Classic Expectation: 9.000000
Initial Expecation: 6.750000
Gbest: 12.000000
Expectation: 9.261824
Final Parameters:
Gammas:
[ 2.950182 3.521283 4.720349 ]
Betas:
[ 2.560181 1.809658 1.616680 ]
Aggregate results:
[ 10 12 8 6 0 ]
[ 0.550977 0.085964 0.327808 0.016338 0.018914 ]
3
Num Evals 667
GenUC: 8.886462e-06
GenUB: 1.070977e-06
Optimisation 1.916818e-01
Total Time: 1.916930e-01
