Clock Speed: 3.688824
Num threads: 4
Trotterisation: 6
Num Qubits: 16
Space Dimension: 65536
Run-Type: 0
Num_samples: 102399
Optimiser Method: 28
1 Isomorphic
Graph 1:
0 0 0 0 1 1 1 0 
1 0 0 0 0 0 1 0 
1 0 1 0 1 1 1 1 
0 1 0 1 0 1 1 1 
0 0 1 1 1 0 0 0 
1 0 1 0 0 0 0 1 
1 0 0 0 1 1 1 0 
1 0 1 1 1 0 0 1 
Graph 2:
0 0 0 0 1 1 1 0 
1 0 0 0 0 0 1 0 
1 0 1 0 1 1 1 1 
0 1 0 1 0 1 1 1 
0 0 1 1 1 0 0 0 
1 0 1 0 0 0 0 1 
1 0 0 0 1 1 1 0 
1 0 1 1 1 0 0 1 
Solution: 64 0
Classic Expectation: 32.392857
Initial Expecation: 19.929199
Gbest: 56.000000
Expectation: 24.590165
Final Parameters:
Gammas:
[ 4.930594 4.881902 3.619444 3.434102 3.446657 2.806443 ]
Betas:
[ 1.564855 1.583028 1.601093 1.882260 0.154312 2.333578 ]
Aggregate results:
[ 64 52 50 44 42 48 40 46 36 34 38 32 30 56 28 26 24 54 22 20 18 14 0 ]
[ 0.000003 0.000108 0.000180 0.002870 0.009656 0.000241 0.023573 0.001187 0.099409 0.151295 0.045816 0.139300 0.117487 0.000033 0.097750 0.049216 0.018519 0.000018 0.004635 0.001048 0.000091 0.000002 0.237563 ]
3
Num Evals 4467
GenUC: 1.693041e-02
GenUB: 5.203251e-03
Optimisation 2.548485e+03
Total Time: 2.548508e+03
2 Flipped
Graph 1:
0 0 0 0 1 1 1 0 
1 0 0 0 0 0 1 0 
1 0 1 0 1 1 1 1 
0 1 0 1 0 1 1 1 
0 0 1 1 1 0 0 0 
1 0 1 0 0 0 0 1 
1 0 0 0 1 1 1 0 
1 0 1 1 1 0 0 1 
Graph 2:
0 1 1 1 0 0 0 0 
0 1 0 0 0 0 0 1 
1 1 1 1 0 1 0 1 
1 1 1 0 1 0 1 0 
0 0 0 1 1 1 0 0 
1 0 0 0 0 1 0 1 
0 1 1 1 0 0 0 1 
1 0 0 1 1 1 0 1 
Solution: 48 8965
Classic Expectation: 32.392857
Initial Expecation: 19.929199
Gbest: 48.000000
Expectation: 24.406186
Final Parameters:
Gammas:
[ 4.397108 4.287287 4.210595 3.992197 3.625767 3.981259 ]
Betas:
[ 1.577037 1.683806 1.396547 1.880195 0.898374 1.449080 ]
Aggregate results:
[ 30 34 32 28 26 36 38 40 24 42 44 22 46 20 48 18 16 0 ]
[ 0.130350 0.141275 0.155871 0.085075 0.038801 0.096884 0.054485 0.022413 0.015194 0.007084 0.001876 0.003906 0.000239 0.000642 0.000033 0.000143 0.000002 0.245724 ]
3
Num Evals 3004
GenUC: 1.791248e-02
GenUB: 4.906525e-03
Optimisation 1.657315e+03
Total Time: 1.657338e+03
3 Add 8
Graph 1:
0 0 0 0 1 1 1 0 
1 0 0 0 0 0 1 0 
1 0 1 0 1 1 1 1 
0 1 0 1 0 1 1 1 
0 0 1 1 1 0 0 0 
1 0 1 0 0 0 0 1 
1 0 0 0 1 1 1 0 
1 0 1 1 1 0 0 1 
Graph 2:
0 0 0 0 1 1 1 0 
1 0 0 0 0 0 1 0 
1 1 1 1 1 1 1 1 
0 1 1 1 0 1 1 1 
0 1 1 1 1 1 0 0 
1 0 1 0 1 0 0 1 
1 0 1 0 1 1 1 0 
1 0 1 1 1 0 0 1 
Solution: 57 0
Classic Expectation: 31.892857
Initial Expecation: 19.621582
Gbest: 57.000000
Expectation: 24.377421
Final Parameters:
Gammas:
[ 4.649957 3.386140 4.237695 3.267405 3.351469 1.924574 ]
Betas:
[ 1.865907 2.467130 1.742263 1.378998 1.640500 1.475429 ]
Aggregate results:
[ 57 47 49 45 39 41 35 43 37 33 31 51 29 27 25 23 21 19 17 0 ]
[ 0.000016 0.000340 0.000041 0.000656 0.027378 0.011066 0.106639 0.002542 0.063177 0.145818 0.146458 0.000046 0.122961 0.080984 0.040391 0.016415 0.005392 0.001073 0.000020 0.228585 ]
3
Num Evals 8941
GenUC: 1.859379e-02
GenUB: 4.953357e-03
Optimisation 5.468057e+03
Total Time: 5.468080e+03
4 Rem 8
Graph 1:
0 0 0 0 1 1 1 0 
1 0 0 0 0 0 1 0 
1 0 1 0 1 1 1 1 
0 1 0 1 0 1 1 1 
0 0 1 1 1 0 0 0 
1 0 1 0 0 0 0 1 
1 0 0 0 1 1 1 0 
1 0 1 1 1 0 0 1 
Graph 2:
0 0 0 0 0 1 0 0 
1 0 0 0 0 0 1 0 
1 0 1 0 1 1 1 1 
0 1 0 1 0 1 1 1 
0 0 1 1 1 0 0 0 
1 0 1 0 0 0 0 1 
0 0 0 0 1 0 0 0 
0 0 1 1 1 0 0 0 
Solution: 57 0
Classic Expectation: 32.250000
Initial Expecation: 19.841309
Gbest: 53.000000
Expectation: 30.062281
Final Parameters:
Gammas:
[ 4.920768 3.765718 4.330865 4.385389 5.035880 5.766872 ]
Betas:
[ 3.141593 1.714108 1.467030 1.656316 1.532612 2.380613 ]
Aggregate results:
[ 57 49 45 39 41 43 47 35 31 33 37 29 27 25 23 21 19 51 17 15 53 0 ]
[ 0.000002 0.000130 0.001102 0.040738 0.015908 0.005021 0.000474 0.154850 0.178842 0.183101 0.095479 0.133077 0.075732 0.031625 0.009819 0.002563 0.000394 0.000004 0.000166 0.000030 0.000055 0.070890 ]
3
Num Evals 5341
GenUC: 1.879253e-02
GenUB: 4.914309e-03
Optimisation 3.476741e+03
Total Time: 3.476764e+03
5 Add/Rem 8
Graph 1:
0 0 0 0 1 1 1 0 
1 0 0 0 0 0 1 0 
1 0 1 0 1 1 1 1 
0 1 0 1 0 1 1 1 
0 0 1 1 1 0 0 0 
1 0 1 0 0 0 0 1 
1 0 0 0 1 1 1 0 
1 0 1 1 1 0 0 1 
Graph 2:
0 0 0 1 1 1 1 0 
1 0 0 0 0 1 0 0 
1 0 1 0 0 1 1 0 
1 1 0 0 0 1 1 1 
0 0 1 1 0 1 0 1 
1 0 1 0 0 0 0 1 
0 1 0 0 0 1 1 0 
1 0 1 1 1 0 1 1 
Solution: 50 0
Classic Expectation: 31.750000
Initial Expecation: 19.533691
Gbest: 50.000000
Expectation: 25.699826
Final Parameters:
Gammas:
[ 3.500039 5.870056 5.176835 4.353623 5.650349 6.109206 ]
Betas:
[ 3.141593 1.455530 2.305333 1.982414 1.650495 1.441631 ]
Aggregate results:
[ 50 40 44 42 38 36 34 32 30 48 28 26 46 24 22 20 18 16 14 0 ]
[ 0.000013 0.016744 0.001727 0.005745 0.040138 0.082718 0.137911 0.165710 0.150505 0.000037 0.111513 0.062836 0.000218 0.028659 0.008780 0.002324 0.000343 0.000039 0.000003 0.184038 ]
3
Num Evals 4435
GenUC: 1.900261e-02
GenUB: 5.595415e-03
Optimisation 2.916385e+03
Total Time: 2.916410e+03
