Clock Speed: 3.689289
Num threads: 4
Trotterisation: 2
Graph Size: 8
Num Qubits: 16
Space Dimension: 65536
Run-Type: 0
Num_samples: 10
1 Isomorphic
Graph 1:
0 1 1 0 0 1 0 0 
1 1 0 1 0 1 0 1 
0 1 1 1 1 1 1 0 
1 1 0 0 0 0 0 0 
0 1 1 1 1 1 1 0 
1 0 1 0 0 0 0 0 
1 0 0 1 1 1 1 1 
1 0 1 1 0 1 0 1 
Graph 2:
0 1 1 0 0 1 0 0 
1 1 0 1 0 1 0 1 
0 1 1 1 1 1 1 0 
1 1 0 0 0 0 0 0 
0 1 1 1 1 1 1 0 
1 0 1 0 0 0 0 0 
1 0 0 1 1 1 1 1 
1 0 1 1 0 1 0 1 
Solution: 0 0
Gbest: -30.000000
Expectation: -34.855280
Final Parameters:
Gammas:
[ 3.187547 3.961838 ]
Betas:
[ 3.075132 2.496108 0.310060 ]
Aggregate results:
[ -1 17 21 15 25 23 27 19 11 29 31 7 33 35 37 39 13 5 41 43 47 9 45 49 63 ]
[ 0.000082 0.004687 0.024314 0.001596 0.083212 0.047608 0.109377 0.009803 0.000426 0.135121 0.146538 0.000082 0.126985 0.090266 0.060006 0.030334 0.000624 0.000045 0.012040 0.005555 0.000348 0.000137 0.001735 0.000111 0.108969 ]
5
Num Evals 800
GenUC: 3.525788e-03
GenUB: 1.745206e-02
Optimisation 1.523619e+02
Total Time: 1.525912e+02
2 Flipped
Graph 1:
0 1 1 0 0 1 0 0 
1 1 0 1 0 1 0 1 
0 1 1 1 1 1 1 0 
1 1 0 0 0 0 0 0 
0 1 1 1 1 1 1 0 
1 0 1 0 0 0 0 0 
1 0 0 1 1 1 1 1 
1 0 1 1 0 1 0 1 
Graph 2:
0 0 1 0 0 1 1 0 
1 0 1 0 1 0 1 1 
0 1 1 1 1 1 1 0 
0 0 0 0 0 0 1 1 
0 1 1 1 1 1 1 0 
0 0 0 0 0 1 0 1 
1 1 1 1 1 0 0 1 
1 0 1 0 1 1 0 1 
Solution: -18 273
Gbest: -26.000000
Expectation: -34.245878
Final Parameters:
Gammas:
[ 6.071831 3.002403 ]
Betas:
[ 1.663834 0.451918 2.857545 ]
Aggregate results:
[ 21 29 31 27 35 33 25 37 23 39 41 17 19 43 45 63 ]
[ 0.018087 0.160941 0.109141 0.177791 0.065975 0.079328 0.126451 0.048123 0.057796 0.023802 0.007370 0.001038 0.004954 0.001558 0.000217 0.117428 ]
5
Num Evals 1600
GenUC: 2.623505e-03
GenUB: 1.688538e-02
Optimisation 1.555627e+02
Total Time: 1.557742e+02
3 Add 8
Graph 1:
0 1 1 0 0 1 0 0 
1 1 0 1 0 1 0 1 
0 1 1 1 1 1 1 0 
1 1 0 0 0 0 0 0 
0 1 1 1 1 1 1 0 
1 0 1 0 0 0 0 0 
1 0 0 1 1 1 1 1 
1 0 1 1 0 1 0 1 
Graph 2:
0 1 1 1 1 1 0 0 
1 1 0 1 0 1 0 1 
0 1 1 1 1 1 1 0 
1 1 0 1 0 0 0 0 
0 1 1 1 1 1 1 1 
1 0 1 0 0 0 1 0 
1 1 0 1 1 1 1 1 
1 0 1 1 0 1 0 1 
Solution: -6 0
Gbest: -26.000000
Expectation: -35.435004
Final Parameters:
Gammas:
[ 6.216114 3.238866 ]
Betas:
[ 2.621324 0.488100 2.952284 ]
Aggregate results:
[ 5 19 25 21 23 29 27 11 15 31 17 33 35 9 13 37 39 43 41 45 47 63 ]
[ 0.000206 0.018009 0.102747 0.036005 0.064412 0.140436 0.131377 0.000550 0.002521 0.118837 0.006410 0.094290 0.062484 0.000324 0.000955 0.033922 0.013443 0.001941 0.005545 0.000339 0.000055 0.165191 ]
5
Num Evals 2400
GenUC: 2.858073e-03
GenUB: 1.681751e-02
Optimisation 1.503903e+02
Total Time: 1.506567e+02
4 Rem 8
Graph 1:
0 1 1 0 0 1 0 0 
1 1 0 1 0 1 0 1 
0 1 1 1 1 1 1 0 
1 1 0 0 0 0 0 0 
0 1 1 1 1 1 1 0 
1 0 1 0 0 0 0 0 
1 0 0 1 1 1 1 1 
1 0 1 1 0 1 0 1 
Graph 2:
0 1 0 0 0 1 0 0 
1 1 0 1 0 1 0 1 
0 1 0 1 1 1 1 0 
1 1 0 0 0 0 0 0 
0 0 1 1 0 1 1 0 
1 0 1 0 0 0 0 0 
0 0 0 1 1 0 1 0 
0 0 1 1 0 1 0 1 
Solution: -8 0
Gbest: -26.000000
Expectation: -37.684409
Final Parameters:
Gammas:
[ 3.103676 2.540415 ]
Betas:
[ 0.426759 2.637241 1.624558 ]
Aggregate results:
[ 7 17 23 25 19 27 31 21 29 35 33 13 37 39 41 43 15 9 45 47 63 ]
[ 0.000042 0.000806 0.024558 0.053792 0.002710 0.095796 0.153057 0.009772 0.137678 0.103948 0.139551 0.000136 0.059208 0.028382 0.011858 0.003529 0.000315 0.000035 0.000870 0.000248 0.173708 ]
5
Num Evals 3200
GenUC: 2.887580e-03
GenUB: 1.690033e-02
Optimisation 1.526728e+02
Total Time: 1.528788e+02
5 Add/Rem 8
Graph 1:
0 1 1 0 0 1 0 0 
1 1 0 1 0 1 0 1 
0 1 1 1 1 1 1 0 
1 1 0 0 0 0 0 0 
0 1 1 1 1 1 1 0 
1 0 1 0 0 0 0 0 
1 0 0 1 1 1 1 1 
1 0 1 1 0 1 0 1 
Graph 2:
0 1 1 1 0 1 0 0 
1 1 0 1 0 0 0 1 
0 0 1 0 1 0 0 1 
1 1 0 1 0 1 1 0 
0 1 1 1 1 1 1 0 
1 1 1 0 1 0 0 0 
1 0 0 1 1 1 0 1 
1 0 1 0 0 1 0 1 
Solution: -14 0
Gbest: -26.000000
Expectation: -33.514134
Final Parameters:
Gammas:
[ 5.700343 0.616166 ]
Betas:
[ 1.742904 0.008284 2.627522 ]
Aggregate results:
[ 13 25 27 21 23 19 15 33 29 31 35 17 37 39 41 43 45 63 ]
[ 0.000039 0.073892 0.130898 0.010630 0.031296 0.002494 0.000112 0.155165 0.174321 0.185261 0.097796 0.000565 0.048683 0.019252 0.005656 0.001101 0.000088 0.062753 ]
5
Num Evals 4000
GenUC: 2.883594e-03
GenUB: 1.634844e-02
Optimisation 1.519298e+02
Total Time: 1.521131e+02
