Clock Speed: 3.498562
Num threads: 16
Trotterisation: 6
Num Qubits: 10
Space Dimension: 1024
Run-Type: 0
Num_samples: 36
Optimiser Method: 33
1 Isomorphic
Graph 1:
1 1 1 1 1 1 
0 0 1 1 0 1 
1 1 1 1 1 1 
0 0 0 1 0 0 
1 0 0 0 0 1 
1 1 0 0 1 0 
Graph 2:
1 1 1 1 1 1 
0 0 1 1 0 1 
1 1 1 1 1 1 
0 0 0 1 0 0 
1 0 0 0 0 1 
1 1 0 0 1 0 
Solution: 36 0
Classic Expectation: 18.600000
Initial Expecation: 13.078125
Gbest: 26.000000
Expectation: 13.078125
Final Parameters:
Gammas:
[ 3.141593 3.141593 3.141593 3.141593 3.141593 3.141593 ]
Betas:
[ 1.570796 1.570796 1.570796 1.570796 1.570796 1.570796 ]
Aggregate results:
[ 36 32 26 24 22 20 18 28 16 30 14 12 10 0 ]
[ 0.000977 0.001953 0.038086 0.040039 0.071289 0.145508 0.127930 0.009766 0.127930 0.002930 0.105469 0.025391 0.005859 0.296875 ]
4
Num Evals 3
GenUC: 3.191251e-04
GenUB: 1.520589e-04
Optimisation 9.947361e-02
Total Time: 9.995621e-02
2 Flipped
Graph 1:
1 1 1 1 1 1 
0 0 1 1 0 1 
1 1 1 1 1 1 
0 0 0 1 0 0 
1 0 0 0 0 1 
1 1 0 0 1 0 
Graph 2:
1 1 1 1 1 1 
1 0 1 1 0 0 
1 1 1 1 1 1 
0 0 1 0 0 0 
1 0 0 0 0 1 
0 1 0 0 1 1 
Solution: 30 0
Classic Expectation: 18.600000
Initial Expecation: 13.078125
Gbest: 26.000000
Expectation: 13.472610
Final Parameters:
Gammas:
[ 3.572959 3.141593 3.572959 3.141593 4.080611 2.952255 ]
Betas:
[ 1.570796 1.570796 1.570796 1.570796 1.879239 1.570796 ]
Aggregate results:
[ 30 28 22 24 26 20 16 18 14 12 10 0 ]
[ 0.001296 0.007835 0.105120 0.048779 0.023895 0.144153 0.167012 0.104656 0.072420 0.047164 0.009083 0.268587 ]
3
Num Evals 26
GenUC: 3.649355e-04
GenUB: 1.356257e-04
Optimisation 1.566671e-01
Total Time: 1.571701e-01
3 Add 6
Graph 1:
1 1 1 1 1 1 
0 0 1 1 0 1 
1 1 1 1 1 1 
0 0 0 1 0 0 
1 0 0 0 0 1 
1 1 0 0 1 0 
Graph 2:
1 1 1 1 1 1 
0 0 1 1 0 1 
1 1 1 1 1 1 
1 0 0 1 1 0 
1 1 1 1 0 1 
1 1 1 0 1 0 
Solution: 30 0
Classic Expectation: 19.800000
Initial Expecation: 13.921875
Gbest: 24.000000
Expectation: 13.921875
Final Parameters:
Gammas:
[ 3.141593 3.141593 3.141593 3.141593 3.141593 3.141593 ]
Betas:
[ 1.570796 1.570796 1.570796 1.570796 1.570796 1.570796 ]
Aggregate results:
[ 30 28 22 20 26 24 18 16 14 0 ]
[ 0.001953 0.006836 0.125977 0.188477 0.024414 0.067383 0.159180 0.104492 0.024414 0.296875 ]
4
Num Evals 3
GenUC: 3.634677e-04
GenUB: 1.328364e-04
Optimisation 1.764018e-02
Total Time: 1.813895e-02
4 Rem 6
Graph 1:
1 1 1 1 1 1 
0 0 1 1 0 1 
1 1 1 1 1 1 
0 0 0 1 0 0 
1 0 0 0 0 1 
1 1 0 0 1 0 
Graph 2:
0 1 1 1 1 1 
0 0 0 1 0 1 
1 1 0 1 0 1 
0 0 0 0 0 0 
1 0 0 0 0 1 
1 1 0 0 1 0 
Solution: 31 0
Classic Expectation: 18.200000
Initial Expecation: 12.796875
Gbest: 25.000000
Expectation: 13.217396
Final Parameters:
Gammas:
[ 3.165746 3.165746 5.429754 5.429754 5.429754 5.429754 ]
Betas:
[ 2.575951 2.575951 2.410468 2.410468 2.410468 2.410464 ]
Aggregate results:
[ 31 27 23 21 19 17 25 15 13 11 9 0 ]
[ 0.000563 0.004609 0.057066 0.141070 0.143593 0.136118 0.031275 0.141595 0.050932 0.012101 0.006359 0.274720 ]
3
Num Evals 33
GenUC: 3.656284e-04
GenUB: 1.277863e-04
Optimisation 2.461726e-01
Total Time: 2.466683e-01
5 Add/Rem 6
Graph 1:
1 1 1 1 1 1 
0 0 1 1 0 1 
1 1 1 1 1 1 
0 0 0 1 0 0 
1 0 0 0 0 1 
1 1 0 0 1 0 
Graph 2:
1 1 0 1 1 1 
1 0 1 1 1 1 
1 1 0 0 1 1 
0 0 0 1 0 0 
1 0 0 1 0 0 
0 1 1 1 1 0 
Solution: 30 99
Classic Expectation: 18.800000
Initial Expecation: 13.218750
Gbest: 26.000000
Expectation: 13.218750
Final Parameters:
Gammas:
[ 3.141593 3.141593 3.141593 3.141593 3.141593 3.141593 ]
Betas:
[ 1.570796 1.570796 1.570796 1.570796 1.570796 1.570796 ]
Aggregate results:
[ 26 24 22 20 18 16 28 14 30 12 10 0 ]
[ 0.027344 0.055664 0.077148 0.145508 0.157227 0.139648 0.006836 0.068359 0.002930 0.019531 0.002930 0.296875 ]
4
Num Evals 3
GenUC: 3.637434e-04
GenUB: 1.211581e-04
Optimisation 1.763548e-02
Total Time: 1.812259e-02
