Clock Speed: 3.689379
Num threads: 4
Trotterisation: 5
Num Qubits: 7
Space Dimension: 128
Run-Type: 0
Num_samples: 15624
Optimiser Method: 20
1 Isomorphic
Graph 1:
0 1 0 1 1 
0 0 0 1 1 
0 0 0 1 1 
1 1 1 1 1 
1 0 0 0 1 
Graph 2:
0 1 0 1 1 
0 0 0 1 1 
0 0 0 1 1 
1 1 1 1 1 
1 0 0 0 1 
Solution: 25 0
Classic Expectation: 13.000000
Initial Expecation: 12.187500
Gbest: 25.000000
Expectation: 14.018754
Final Parameters:
Gammas:
[ 5.240320 3.179365 0.926495 3.917895 1.810829 ]
Betas:
[ 2.913611 2.269650 0.522146 1.244260 2.566142 ]
Aggregate results:
[ 25 19 15 11 13 23 17 9 21 0 ]
[ 0.043386 0.007136 0.288345 0.172389 0.237185 0.010367 0.062247 0.099923 0.061797 0.017226 ]
5
Num Evals 5000
GenUC: 4.131516e-05
GenUB: 1.470681e-05
Optimisation 4.045922e+00
Total Time: 4.045999e+00
2 Flipped
Graph 1:
0 1 0 1 1 
0 0 0 1 1 
0 0 0 1 1 
1 1 1 1 1 
1 0 0 0 1 
Graph 2:
1 1 0 1 0 
1 1 0 0 0 
1 1 0 0 0 
1 1 1 1 1 
1 0 0 0 1 
Solution: 17 11
Classic Expectation: 12.200000
Initial Expecation: 11.437500
Gbest: 17.000000
Expectation: 12.880456
Final Parameters:
Gammas:
[ 2.254505 2.759761 5.207063 6.004162 5.318223 ]
Betas:
[ 1.142946 2.372700 1.387523 3.098452 1.015198 ]
Aggregate results:
[ 15 9 11 13 7 17 0 ]
[ 0.228683 0.106610 0.128899 0.400305 0.029545 0.097768 0.008190 ]
5
Num Evals 5000
GenUC: 4.500872e-05
GenUB: 3.158930e-06
Optimisation 3.789809e+00
Total Time: 3.789859e+00
3 Add 5
Graph 1:
0 1 0 1 1 
0 0 0 1 1 
0 0 0 1 1 
1 1 1 1 1 
1 0 0 0 1 
Graph 2:
0 1 0 1 1 
0 0 0 1 1 
1 0 0 1 1 
1 1 1 1 1 
1 1 1 1 1 
Solution: 21 0
Classic Expectation: 13.800000
Initial Expecation: 12.937500
Gbest: 21.000000
Expectation: 14.812726
Final Parameters:
Gammas:
[ 4.513433 4.080366 4.514828 4.695846 1.158109 ]
Betas:
[ 0.506323 2.741925 1.883458 0.948681 3.041477 ]
Aggregate results:
[ 21 13 15 19 11 17 9 0 ]
[ 0.057021 0.179089 0.194763 0.121554 0.181854 0.231893 0.012621 0.021205 ]
5
Num Evals 5000
GenUC: 4.467368e-05
GenUB: 2.754619e-06
Optimisation 3.893272e+00
Total Time: 3.893322e+00
4 Rem 5
Graph 1:
0 1 0 1 1 
0 0 0 1 1 
0 0 0 1 1 
1 1 1 1 1 
1 0 0 0 1 
Graph 2:
0 0 0 0 1 
0 0 0 1 1 
0 0 0 1 1 
1 1 1 1 0 
0 0 0 0 0 
Solution: 20 0
Classic Expectation: 12.400000
Initial Expecation: 11.625000
Gbest: 20.000000
Expectation: 13.147066
Final Parameters:
Gammas:
[ 4.926721 2.703075 3.464314 2.919214 3.060335 ]
Betas:
[ 1.126726 1.569840 1.282996 1.308512 1.302944 ]
Aggregate results:
[ 20 16 12 8 10 14 0 ]
[ 0.106408 0.112424 0.323821 0.054744 0.150232 0.242428 0.009942 ]
5
Num Evals 5000
GenUC: 4.783436e-05
GenUB: 2.737041e-06
Optimisation 3.313809e+00
Total Time: 3.313862e+00
5 Add/Rem 5
Graph 1:
0 1 0 1 1 
0 0 0 1 1 
0 0 0 1 1 
1 1 1 1 1 
1 0 0 0 1 
Graph 2:
0 1 0 1 0 
0 0 1 1 0 
1 0 1 0 1 
1 1 0 1 1 
1 0 0 0 1 
Solution: 18 0
Classic Expectation: 12.400000
Initial Expecation: 11.625000
Gbest: 18.000000
Expectation: 13.472598
Final Parameters:
Gammas:
[ 0.586343 3.224901 1.249832 3.039571 0.500135 ]
Betas:
[ 2.727566 2.284359 3.074916 0.027173 1.536766 ]
Aggregate results:
[ 18 14 12 16 10 8 0 ]
[ 0.032919 0.504447 0.191988 0.149745 0.109334 0.003084 0.008482 ]
5
Num Evals 5000
GenUC: 4.791364e-05
GenUB: 2.660730e-06
Optimisation 3.811428e+00
Total Time: 3.811481e+00
