Clock Speed: 3.688884
Num threads: 4
Trotterisation: 5
Num Qubits: 7
Space Dimension: 128
Run-Type: 0
Num_samples: 15624
Optimiser Method: 20
1 Isomorphic
Graph 1:
1 0 0 0 0 
1 1 0 1 0 
0 1 0 1 0 
1 1 1 1 0 
1 0 0 0 0 
Graph 2:
1 0 0 0 0 
1 1 0 1 0 
0 1 0 1 0 
1 1 1 1 0 
1 0 0 0 0 
Solution: 25 0
Classic Expectation: 13.000000
Initial Expecation: 12.187500
Gbest: 25.000000
Expectation: 14.255470
Final Parameters:
Gammas:
[ 5.443462 1.343705 5.898848 6.283185 2.809351 ]
Betas:
[ 2.938314 1.975055 2.846016 2.248754 2.829973 ]
Aggregate results:
[ 25 15 19 13 17 9 11 23 7 0 ]
[ 0.060042 0.184711 0.021808 0.263572 0.186453 0.099985 0.097301 0.039456 0.013656 0.033015 ]
5
Num Evals 5000
GenUC: 4.112429e-05
GenUB: 1.350074e-05
Optimisation 4.874970e+00
Total Time: 4.875052e+00
2 Flipped
Graph 1:
1 0 0 0 0 
1 1 0 1 0 
0 1 0 1 0 
1 1 1 1 0 
1 0 0 0 0 
Graph 2:
0 0 0 0 1 
0 1 0 1 1 
0 1 0 1 0 
0 1 1 1 1 
0 0 0 0 1 
Solution: 25 105
Classic Expectation: 13.000000
Initial Expecation: 12.187500
Gbest: 25.000000
Expectation: 14.330355
Final Parameters:
Gammas:
[ 2.400602 6.283185 5.981090 3.725114 0.467219 ]
Betas:
[ 0.329632 0.125818 2.844731 2.315229 0.523273 ]
Aggregate results:
[ 17 11 13 7 9 15 25 19 23 0 ]
[ 0.197480 0.097337 0.203061 0.022855 0.081204 0.216969 0.053404 0.089644 0.003435 0.034611 ]
5
Num Evals 5000
GenUC: 4.509365e-05
GenUB: 2.882502e-06
Optimisation 2.867305e+00
Total Time: 2.867356e+00
3 Add 5
Graph 1:
1 0 0 0 0 
1 1 0 1 0 
0 1 0 1 0 
1 1 1 1 0 
1 0 0 0 0 
Graph 2:
1 1 1 0 0 
1 1 0 1 0 
0 1 1 1 1 
1 1 1 1 1 
1 0 0 0 0 
Solution: 20 0
Classic Expectation: 12.400000
Initial Expecation: 11.625000
Gbest: 20.000000
Expectation: 14.594143
Final Parameters:
Gammas:
[ 6.136702 5.918468 3.985503 3.175900 2.253654 ]
Betas:
[ 2.829475 1.678815 2.761857 0.357668 1.252347 ]
Aggregate results:
[ 20 12 16 10 14 8 18 6 0 ]
[ 0.055638 0.135491 0.299054 0.027749 0.430914 0.004899 0.039956 0.000327 0.005973 ]
5
Num Evals 5000
GenUC: 4.475150e-05
GenUB: 2.723478e-06
Optimisation 3.645701e+00
Total Time: 3.645752e+00
4 Rem 5
Graph 1:
1 0 0 0 0 
1 1 0 1 0 
0 1 0 1 0 
1 1 1 1 0 
1 0 0 0 0 
Graph 2:
1 0 0 0 0 
0 0 0 1 0 
0 1 0 1 0 
1 0 0 1 0 
1 0 0 0 0 
Solution: 21 0
Classic Expectation: 13.400000
Initial Expecation: 12.562500
Gbest: 21.000000
Expectation: 14.868871
Final Parameters:
Gammas:
[ 5.966482 5.378385 3.597881 2.540801 5.687600 ]
Betas:
[ 1.301116 1.106610 3.041224 0.543544 0.039723 ]
Aggregate results:
[ 21 15 11 13 19 17 9 7 0 ]
[ 0.081698 0.437853 0.082262 0.163927 0.008055 0.188905 0.015635 0.006336 0.015330 ]
5
Num Evals 5000
GenUC: 4.799437e-05
GenUB: 2.688903e-06
Optimisation 2.954540e+00
Total Time: 2.954594e+00
5 Add/Rem 5
Graph 1:
1 0 0 0 0 
1 1 0 1 0 
0 1 0 1 0 
1 1 1 1 0 
1 0 0 0 0 
Graph 2:
0 0 0 0 0 
1 0 1 1 1 
1 0 1 1 0 
0 1 1 1 1 
1 0 0 0 0 
Solution: 20 6
Classic Expectation: 12.400000
Initial Expecation: 11.625000
Gbest: 20.000000
Expectation: 13.361782
Final Parameters:
Gammas:
[ 0.673841 4.999835 2.408992 2.080893 5.525467 ]
Betas:
[ 2.230774 0.270791 1.774060 0.676356 1.727824 ]
Aggregate results:
[ 16 8 18 14 10 20 12 6 0 ]
[ 0.202577 0.021519 0.079247 0.278470 0.110165 0.004075 0.281274 0.010819 0.011853 ]
5
Num Evals 5000
GenUC: 4.815403e-05
GenUB: 2.732326e-06
Optimisation 3.153161e+00
Total Time: 3.153215e+00
