Clock Speed: 3.689290
Num threads: 4
Trotterisation: 5
Num Qubits: 7
Space Dimension: 128
Run-Type: 0
Num_samples: 15624
Optimiser Method: 20
1 Isomorphic
Graph 1:
1 1 0 1 0 
0 1 0 1 1 
1 0 0 0 0 
1 0 1 1 0 
0 0 1 1 1 
Graph 2:
1 1 0 1 0 
0 1 0 1 1 
1 0 0 0 0 
1 0 1 1 0 
0 0 1 1 1 
Solution: 25 0
Classic Expectation: 13.500000
Initial Expecation: 12.656250
Gbest: 25.000000
Expectation: 14.328262
Final Parameters:
Gammas:
[ 2.151425 2.468735 5.358467 6.026688 1.400804 ]
Betas:
[ 1.237206 2.450172 0.666930 1.983219 3.132662 ]
Aggregate results:
[ 25 19 17 13 11 5 9 15 0 ]
[ 0.004454 0.114242 0.207938 0.352462 0.080566 0.006167 0.065976 0.161234 0.006960 ]
5
Num Evals 5000
GenUC: 4.153705e-05
GenUB: 1.361000e-05
Optimisation 3.679726e+00
Total Time: 3.679808e+00
2 Flipped
Graph 1:
1 1 0 1 0 
0 1 0 1 1 
1 0 0 0 0 
1 0 1 1 0 
0 0 1 1 1 
Graph 2:
0 1 0 1 1 
1 1 0 1 0 
0 0 0 0 1 
0 1 1 0 1 
1 1 1 0 0 
Solution: 17 84
Classic Expectation: 11.400000
Initial Expecation: 10.687500
Gbest: 17.000000
Expectation: 13.877852
Final Parameters:
Gammas:
[ 6.209985 2.755955 0.686080 4.176693 5.204008 ]
Betas:
[ 2.718200 2.994512 1.713904 1.592554 3.091241 ]
Aggregate results:
[ 11 15 5 9 13 7 17 0 ]
[ 0.084477 0.538572 0.000024 0.022118 0.304544 0.007514 0.038774 0.003976 ]
5
Num Evals 5000
GenUC: 4.516490e-05
GenUB: 2.848508e-06
Optimisation 4.300249e+00
Total Time: 4.300300e+00
3 Add 5
Graph 1:
1 1 0 1 0 
0 1 0 1 1 
1 0 0 0 0 
1 0 1 1 0 
0 0 1 1 1 
Graph 2:
1 1 1 1 1 
0 1 0 1 1 
1 0 0 1 0 
1 1 1 1 0 
0 1 1 1 1 
Solution: 20 0
Classic Expectation: 13.000000
Initial Expecation: 12.187500
Gbest: 20.000000
Expectation: 14.783129
Final Parameters:
Gammas:
[ 2.200216 3.622908 0.867829 5.403423 4.680206 ]
Betas:
[ 2.315524 0.803324 0.238732 0.730872 1.529906 ]
Aggregate results:
[ 20 16 12 10 14 8 18 0 ]
[ 0.026726 0.433528 0.091658 0.065944 0.256390 0.010644 0.104346 0.010765 ]
5
Num Evals 5000
GenUC: 4.508032e-05
GenUB: 2.799206e-06
Optimisation 2.788978e+00
Total Time: 2.789029e+00
4 Rem 5
Graph 1:
1 1 0 1 0 
0 1 0 1 1 
1 0 0 0 0 
1 0 1 1 0 
0 0 1 1 1 
Graph 2:
0 1 0 1 0 
0 1 0 1 1 
0 0 0 0 0 
1 0 1 0 0 
0 0 1 1 0 
Solution: 21 0
Classic Expectation: 11.800000
Initial Expecation: 11.062500
Gbest: 21.000000
Expectation: 12.237027
Final Parameters:
Gammas:
[ 1.806486 0.022317 6.045504 4.570520 1.225369 ]
Betas:
[ 1.053655 0.214742 0.503446 1.046681 2.040604 ]
Aggregate results:
[ 21 15 13 11 9 3 7 17 5 0 ]
[ 0.009254 0.246585 0.303217 0.232712 0.137967 0.003780 0.036341 0.018508 0.004038 0.007597 ]
5
Num Evals 5000
GenUC: 4.837313e-05
GenUB: 2.718240e-06
Optimisation 2.734281e+00
Total Time: 2.734336e+00
5 Add/Rem 5
Graph 1:
1 1 0 1 0 
0 1 0 1 1 
1 0 0 0 0 
1 0 1 1 0 
0 0 1 1 1 
Graph 2:
1 0 0 1 1 
1 1 0 1 1 
0 1 0 0 0 
1 1 1 1 0 
0 0 1 1 0 
Solution: 22 24
Classic Expectation: 12.700000
Initial Expecation: 11.906250
Gbest: 22.000000
Expectation: 14.395930
Final Parameters:
Gammas:
[ 3.260749 6.110056 4.949083 3.077314 6.220242 ]
Betas:
[ 1.312261 1.267914 1.997361 0.448925 2.305603 ]
Aggregate results:
[ 18 14 10 8 12 16 22 6 4 20 0 ]
[ 0.128925 0.297617 0.069646 0.018495 0.135056 0.250558 0.035884 0.009619 0.002852 0.028803 0.022546 ]
5
Num Evals 5000
GenUC: 4.797464e-05
GenUB: 2.714689e-06
Optimisation 3.295968e+00
Total Time: 3.296022e+00
