Clock Speed: 3.688939
Num threads: 4
Trotterisation: 5
Num Qubits: 7
Space Dimension: 128
Run-Type: 0
Num_samples: 15624
Optimiser Method: 20
1 Isomorphic
Graph 1:
1 1 1 0 0 
1 0 1 1 0 
0 0 0 1 1 
0 1 0 0 0 
1 1 0 1 0 
Graph 2:
1 1 1 0 0 
1 0 1 1 0 
0 0 0 1 1 
0 1 0 0 0 
1 1 0 1 0 
Solution: 25 0
Classic Expectation: 13.500000
Initial Expecation: 12.656250
Gbest: 25.000000
Expectation: 13.958044
Final Parameters:
Gammas:
[ 0.522628 6.164775 3.825036 1.850153 1.124102 ]
Betas:
[ 2.856907 1.076032 0.961522 2.778180 0.853262 ]
Aggregate results:
[ 25 19 15 13 11 17 9 7 0 ]
[ 0.018960 0.019120 0.354605 0.270007 0.116944 0.152260 0.041051 0.006765 0.020289 ]
5
Num Evals 5000
GenUC: 4.112773e-05
GenUB: 1.403474e-05
Optimisation 4.223084e+00
Total Time: 4.223158e+00
2 Flipped
Graph 1:
1 1 1 0 0 
1 0 1 1 0 
0 0 0 1 1 
0 1 0 0 0 
1 1 0 1 0 
Graph 2:
0 0 1 1 1 
0 1 1 0 1 
1 1 0 0 0 
0 0 0 1 0 
0 1 0 1 1 
Solution: 17 30
Classic Expectation: 12.100000
Initial Expecation: 11.343750
Gbest: 17.000000
Expectation: 12.377984
Final Parameters:
Gammas:
[ 4.923711 1.379699 3.774846 2.065227 5.221195 ]
Betas:
[ 1.654308 0.318901 0.453799 1.982097 1.433970 ]
Aggregate results:
[ 9 11 13 15 7 17 0 ]
[ 0.135012 0.261139 0.292648 0.207713 0.008166 0.077238 0.018083 ]
5
Num Evals 5000
GenUC: 4.516105e-05
GenUB: 2.985820e-06
Optimisation 4.569520e+00
Total Time: 4.569570e+00
3 Add 5
Graph 1:
1 1 1 0 0 
1 0 1 1 0 
0 0 0 1 1 
0 1 0 0 0 
1 1 0 1 0 
Graph 2:
1 1 1 0 1 
1 0 1 1 0 
0 1 0 1 1 
0 1 0 0 1 
1 1 1 1 0 
Solution: 21 0
Classic Expectation: 13.900000
Initial Expecation: 13.031250
Gbest: 21.000000
Expectation: 14.907859
Final Parameters:
Gammas:
[ 3.438018 2.050537 1.974941 0.351263 4.745212 ]
Betas:
[ 1.288955 0.417943 1.311127 1.969587 2.848386 ]
Aggregate results:
[ 21 17 13 15 19 11 9 0 ]
[ 0.007822 0.329156 0.250831 0.292397 0.032162 0.079679 0.001515 0.006438 ]
5
Num Evals 5000
GenUC: 4.537229e-05
GenUB: 2.857880e-06
Optimisation 4.938600e+00
Total Time: 4.938651e+00
4 Rem 5
Graph 1:
1 1 1 0 0 
1 0 1 1 0 
0 0 0 1 1 
0 1 0 0 0 
1 1 0 1 0 
Graph 2:
1 0 1 0 0 
1 0 0 1 0 
0 0 0 1 1 
0 0 0 0 0 
0 1 0 0 0 
Solution: 20 0
Classic Expectation: 13.000000
Initial Expecation: 12.187500
Gbest: 20.000000
Expectation: 14.441986
Final Parameters:
Gammas:
[ 0.034487 0.510851 3.729614 0.190820 2.028195 ]
Betas:
[ 1.208850 0.298156 0.191848 3.101915 0.061847 ]
Aggregate results:
[ 20 18 14 16 10 12 8 0 ]
[ 0.043238 0.084551 0.318985 0.355516 0.068071 0.086191 0.023283 0.020165 ]
5
Num Evals 5000
GenUC: 4.806876e-05
GenUB: 2.909510e-06
Optimisation 2.978187e+00
Total Time: 2.978240e+00
5 Add/Rem 5
Graph 1:
1 1 1 0 0 
1 0 1 1 0 
0 0 0 1 1 
0 1 0 0 0 
1 1 0 1 0 
Graph 2:
1 1 0 0 0 
1 0 1 0 0 
1 0 0 1 0 
0 1 1 1 1 
0 1 0 0 0 
Solution: 18 1
Classic Expectation: 12.700000
Initial Expecation: 11.906250
Gbest: 18.000000
Expectation: 13.250274
Final Parameters:
Gammas:
[ 2.034469 2.591167 5.243342 1.637673 2.788453 ]
Betas:
[ 1.183913 2.800228 3.072915 2.534581 2.723839 ]
Aggregate results:
[ 16 18 14 12 10 8 6 0 ]
[ 0.262756 0.031047 0.253491 0.270911 0.155493 0.016022 0.000738 0.009543 ]
5
Num Evals 5000
GenUC: 4.785694e-05
GenUB: 2.723536e-06
Optimisation 5.281433e+00
Total Time: 5.281486e+00
