Clock Speed: 3.688732
Num threads: 4
Trotterisation: 2
Num Qubits: 16
Space Dimension: 65536
Run-Type: 0
Num_samples: 102399
Optimiser Method: 28
1 Isomorphic
Graph 1:
0 1 1 1 1 0 1 0 
1 0 0 1 1 0 0 0 
1 1 1 0 1 1 1 0 
0 0 0 1 0 0 0 0 
1 0 0 0 1 0 1 0 
0 1 0 1 0 1 0 1 
0 0 1 1 0 1 0 0 
1 1 0 0 1 1 1 1 
Graph 2:
0 1 1 1 1 0 1 0 
1 0 0 1 1 0 0 0 
1 1 1 0 1 1 1 0 
0 0 0 1 0 0 0 0 
1 0 0 0 1 0 1 0 
0 1 0 1 0 1 0 1 
0 0 1 1 0 1 0 0 
1 1 0 0 1 1 1 1 
Solution: 64 0
Classic Expectation: 32.392857
Initial Expecation: 19.929199
Gbest: 58.000000
Expectation: 25.213482
Final Parameters:
Gammas:
[ 4.565912 4.991886 ]
Betas:
[ 3.141593 2.526195 ]
Aggregate results:
[ 64 42 50 44 52 48 36 46 38 40 34 32 30 26 28 24 22 58 54 20 56 18 16 14 0 ]
[ 0.000008 0.010532 0.000512 0.004370 0.000192 0.001322 0.093213 0.001867 0.055206 0.026425 0.131257 0.152683 0.132906 0.052378 0.087583 0.021893 0.007298 0.000012 0.000019 0.001921 0.000011 0.000283 0.000024 0.000049 0.218034 ]
3
Num Evals 395
GenUC: 1.693829e-02
GenUB: 5.260413e-03
Optimisation 1.061559e+02
Total Time: 1.061782e+02
2 Flipped
Graph 1:
0 1 1 1 1 0 1 0 
1 0 0 1 1 0 0 0 
1 1 1 0 1 1 1 0 
0 0 0 1 0 0 0 0 
1 0 0 0 1 0 1 0 
0 1 0 1 0 1 0 1 
0 0 1 1 0 1 0 0 
1 1 0 0 1 1 1 1 
Graph 2:
0 1 0 1 1 1 1 0 
0 0 0 1 1 0 0 1 
0 1 1 1 0 1 1 1 
0 0 0 0 1 0 0 0 
0 1 0 1 0 0 0 1 
1 0 1 0 1 0 1 0 
0 0 1 0 1 1 0 0 
1 1 1 1 0 0 1 1 
Solution: 46 390
Classic Expectation: 31.428571
Initial Expecation: 19.335937
Gbest: 46.000000
Expectation: 25.666524
Final Parameters:
Gammas:
[ 5.024062 3.083831 ]
Betas:
[ 1.865920 2.507841 ]
Aggregate results:
[ 34 32 36 42 40 38 30 28 24 26 22 18 20 44 46 16 0 ]
[ 0.129671 0.157899 0.084095 0.004887 0.016547 0.043735 0.151671 0.115291 0.032619 0.065681 0.010482 0.000620 0.002960 0.001458 0.000281 0.000095 0.182006 ]
3
Num Evals 466
GenUC: 1.875716e-02
GenUB: 5.147052e-03
Optimisation 1.066032e+02
Total Time: 1.066271e+02
3 Add 8
Graph 1:
0 1 1 1 1 0 1 0 
1 0 0 1 1 0 0 0 
1 1 1 0 1 1 1 0 
0 0 0 1 0 0 0 0 
1 0 0 0 1 0 1 0 
0 1 0 1 0 1 0 1 
0 0 1 1 0 1 0 0 
1 1 0 0 1 1 1 1 
Graph 2:
0 1 1 1 1 0 1 0 
1 0 1 1 1 0 1 1 
1 1 1 0 1 1 1 1 
0 0 0 1 0 1 0 1 
1 0 0 0 1 0 1 0 
0 1 0 1 0 1 0 1 
0 0 1 1 0 1 0 0 
1 1 0 1 1 1 1 1 
Solution: 57 0
Classic Expectation: 31.892857
Initial Expecation: 19.621582
Gbest: 57.000000
Expectation: 23.404666
Final Parameters:
Gammas:
[ 3.485427 2.596417 ]
Betas:
[ 1.776220 2.120078 ]
Aggregate results:
[ 57 39 43 41 49 33 35 45 37 47 31 29 27 25 23 21 51 19 53 17 15 0 ]
[ 0.000007 0.035842 0.004923 0.013082 0.000090 0.130750 0.104358 0.001624 0.069867 0.000452 0.134286 0.108908 0.072152 0.035452 0.014654 0.004442 0.000023 0.001016 0.000004 0.000040 0.000000 0.268028 ]
3
Num Evals 292
GenUC: 1.869508e-02
GenUB: 5.108082e-03
Optimisation 6.359912e+01
Total Time: 6.362292e+01
4 Rem 8
Graph 1:
0 1 1 1 1 0 1 0 
1 0 0 1 1 0 0 0 
1 1 1 0 1 1 1 0 
0 0 0 1 0 0 0 0 
1 0 0 0 1 0 1 0 
0 1 0 1 0 1 0 1 
0 0 1 1 0 1 0 0 
1 1 0 0 1 1 1 1 
Graph 2:
0 1 0 1 1 0 0 0 
1 0 0 1 0 0 0 0 
1 0 0 0 0 1 1 0 
0 0 0 1 0 0 0 0 
1 0 0 0 1 0 0 0 
0 1 0 1 0 1 0 1 
0 0 1 1 0 1 0 0 
1 1 0 0 1 1 0 1 
Solution: 56 0
Classic Expectation: 32.642857
Initial Expecation: 20.083008
Gbest: 56.000000
Expectation: 26.365956
Final Parameters:
Gammas:
[ 5.768805 3.278426 ]
Betas:
[ 1.824519 2.468505 ]
Aggregate results:
[ 56 40 46 44 34 42 36 38 48 32 30 28 50 24 26 52 22 20 18 0 ]
[ 0.000034 0.026819 0.001255 0.003847 0.148314 0.009289 0.108124 0.061443 0.000219 0.165620 0.139792 0.087403 0.000028 0.013624 0.040642 0.000101 0.002451 0.000364 0.000072 0.190560 ]
3
Num Evals 317
GenUC: 1.870946e-02
GenUB: 4.942109e-03
Optimisation 7.357348e+01
Total Time: 7.359713e+01
5 Add/Rem 8
Graph 1:
0 1 1 1 1 0 1 0 
1 0 0 1 1 0 0 0 
1 1 1 0 1 1 1 0 
0 0 0 1 0 0 0 0 
1 0 0 0 1 0 1 0 
0 1 0 1 0 1 0 1 
0 0 1 1 0 1 0 0 
1 1 0 0 1 1 1 1 
Graph 2:
1 0 1 1 1 0 1 0 
1 0 1 1 1 0 0 0 
1 0 1 0 0 1 1 0 
0 0 0 1 1 1 1 0 
1 0 0 1 0 0 0 0 
1 1 0 1 0 0 0 1 
0 0 1 1 0 1 0 1 
1 1 0 0 1 0 1 1 
Solution: 49 0
Classic Expectation: 32.000000
Initial Expecation: 19.687500
Gbest: 49.000000
Expectation: 23.802618
Final Parameters:
Gammas:
[ 3.486925 2.600950 ]
Betas:
[ 1.745132 2.180874 ]
Aggregate results:
[ 49 31 41 35 37 39 29 33 43 21 25 23 27 47 19 45 17 0 ]
[ 0.000051 0.149397 0.011059 0.113973 0.067005 0.030481 0.111913 0.143672 0.003610 0.002932 0.030988 0.010710 0.066472 0.000206 0.000604 0.000393 0.000022 0.256513 ]
3
Num Evals 230
GenUC: 1.934103e-02
GenUB: 5.354923e-03
Optimisation 4.868760e+01
Total Time: 4.871230e+01
