Clock Speed: 3.498630
Num threads: 16
Trotterisation: 4
Num Qubits: 13
Space Dimension: 8192
Run-Type: 0
Num_samples: 49
Optimiser Method: 25
1 Isomorphic
Graph 1:
1 0 1 0 1 1 1 
1 0 1 0 1 0 0 
0 0 0 0 0 0 0 
0 1 1 0 1 0 1 
1 1 0 1 0 1 0 
1 0 0 1 1 1 1 
0 0 0 1 0 0 1 
Graph 2:
1 0 1 0 1 1 1 
1 0 1 0 1 0 0 
0 0 0 0 0 0 0 
0 1 1 0 1 0 1 
1 1 0 1 0 1 0 
1 0 0 1 1 1 1 
0 0 0 1 0 0 1 
Solution: 49 0
Classic Expectation: 24.619048
Initial Expecation: 15.146484
Gbest: 31.000000
Expectation: 23.714289
Final Parameters:
Gammas:
[ 3.060494 3.220514 3.062712 3.240858 ]
Betas:
[ 1.715452 2.050294 1.871426 1.648408 ]
Aggregate results:
[ 49 39 35 31 33 29 27 25 37 23 19 21 41 17 15 13 43 0 ]
[ 0.000045 0.002184 0.009122 0.050106 0.024452 0.106491 0.170026 0.196373 0.002485 0.178515 0.067042 0.115352 0.000271 0.023143 0.003091 0.000766 0.000100 0.050435 ]
3
Num Evals 102028
GenUC: 2.300167e-03
GenUB: 1.240916e-03
Optimisation 3.940254e+03
Total Time: 3.940258e+03
2 Flipped
Graph 1:
1 0 1 0 1 1 1 
1 0 1 0 1 0 0 
0 0 0 0 0 0 0 
0 1 1 0 1 0 1 
1 1 0 1 0 1 0 
1 0 0 1 1 1 1 
0 0 0 1 0 0 1 
Graph 2:
1 1 1 0 1 0 1 
0 0 1 0 1 0 1 
0 0 0 0 0 0 0 
1 0 1 0 1 1 0 
0 1 0 1 0 1 1 
1 1 1 1 0 0 1 
1 0 0 1 0 0 0 
Solution: 37 2817
Classic Expectation: 24.809524
Initial Expecation: 15.263672
Gbest: 35.000000
Expectation: 25.497468
Final Parameters:
Gammas:
[ 3.138610 3.194678 2.957511 3.158708 ]
Betas:
[ 2.873890 0.728250 1.792717 1.179474 ]
Aggregate results:
[ 33 31 29 25 27 21 19 23 17 35 15 37 13 0 ]
[ 0.059346 0.127325 0.188399 0.168690 0.221248 0.031186 0.013721 0.095033 0.004546 0.019542 0.003424 0.000376 0.000738 0.066427 ]
3
Num Evals 79451
GenUC: 2.852780e-03
GenUB: 1.032312e-03
Optimisation 2.873861e+03
Total Time: 2.873865e+03
3 Add 7
Graph 1:
1 0 1 0 1 1 1 
1 0 1 0 1 0 0 
0 0 0 0 0 0 0 
0 1 1 0 1 0 1 
1 1 0 1 0 1 0 
1 0 0 1 1 1 1 
0 0 0 1 0 0 1 
Graph 2:
1 0 1 0 1 1 1 
1 1 1 0 1 1 0 
0 0 0 0 0 0 0 
0 1 1 1 1 0 1 
1 1 0 1 0 1 0 
1 0 0 1 1 1 1 
0 0 0 1 1 1 1 
Solution: 44 0
Classic Expectation: 24.190476
Initial Expecation: 14.882813
Gbest: 36.000000
Expectation: 22.605871
Final Parameters:
Gammas:
[ 0.055459 2.069802 3.087792 1.832386 ]
Betas:
[ 2.656064 1.789353 1.209554 1.226300 ]
Aggregate results:
[ 44 38 36 32 34 28 26 30 22 20 16 18 24 14 40 0 ]
[ 0.000043 0.000305 0.004547 0.020921 0.007544 0.107442 0.196155 0.052088 0.171772 0.111196 0.009012 0.048763 0.198943 0.002028 0.000095 0.069145 ]
3
Num Evals 117127
GenUC: 2.863235e-03
GenUB: 9.971196e-04
Optimisation 4.354049e+03
Total Time: 4.354052e+03
4 Rem 7
Graph 1:
1 0 1 0 1 1 1 
1 0 1 0 1 0 0 
0 0 0 0 0 0 0 
0 1 1 0 1 0 1 
1 1 0 1 0 1 0 
1 0 0 1 1 1 1 
0 0 0 1 0 0 1 
Graph 2:
1 0 0 0 1 1 0 
1 0 1 0 0 0 0 
0 0 0 0 0 0 0 
0 1 1 0 1 0 1 
0 0 0 1 0 1 0 
1 0 0 0 1 0 1 
0 0 0 1 0 0 1 
Solution: 42 0
Classic Expectation: 25.047619
Initial Expecation: 15.410156
Gbest: 36.000000
Expectation: 18.914077
Final Parameters:
Gammas:
[ 2.829076 2.215796 2.107253 2.758184 ]
Betas:
[ 1.371607 1.175775 1.516075 1.613928 ]
Aggregate results:
[ 42 32 38 36 34 30 28 26 24 20 22 18 16 14 12 40 0 ]
[ 0.000478 0.033245 0.000443 0.001869 0.007675 0.065872 0.123930 0.163406 0.157059 0.060312 0.103383 0.024767 0.005265 0.000495 0.000144 0.000039 0.251618 ]
3
Num Evals 206142
GenUC: 2.848078e-03
GenUB: 9.868983e-04
Optimisation 6.930498e+03
Total Time: 6.930502e+03
5 Add/Rem 7
Graph 1:
1 0 1 0 1 1 1 
1 0 1 0 1 0 0 
0 0 0 0 0 0 0 
0 1 1 0 1 0 1 
1 1 0 1 0 1 0 
1 0 0 1 1 1 1 
0 0 0 1 0 0 1 
Graph 2:
1 0 0 1 1 1 1 
1 1 0 0 1 0 0 
0 0 0 0 0 0 1 
0 1 1 0 0 0 1 
1 1 1 1 0 1 0 
0 0 1 1 1 1 0 
1 0 0 0 0 1 0 
Solution: 37 99
Classic Expectation: 24.619048
Initial Expecation: 15.146484
Gbest: 33.000000
Expectation: 23.614135
Final Parameters:
Gammas:
[ 3.046790 3.229339 3.051610 3.187969 ]
Betas:
[ 1.264976 2.311966 1.482995 2.058064 ]
Aggregate results:
[ 35 33 29 25 31 27 23 19 21 37 17 15 13 11 0 ]
[ 0.006068 0.018622 0.110077 0.191469 0.058353 0.163568 0.197527 0.058406 0.112290 0.001951 0.025146 0.003818 0.000630 0.000631 0.051444 ]
3
Num Evals 357292
GenUC: 2.847684e-03
GenUB: 1.034652e-03
Optimisation 1.365790e+04
Total Time: 1.365791e+04
