Clock Speed: 3.689381
Num threads: 4
Trotterisation: 2
Num Qubits: 10
Space Dimension: 1024
Run-Type: 0
Num_samples: 32399
Optimiser Method: 29
1 Isomorphic
Graph 1:
0 1 0 1 1 1 
1 0 0 0 0 1 
0 0 0 1 0 1 
0 0 1 0 0 1 
0 1 0 0 1 0 
1 1 0 0 1 0 
Graph 2:
0 1 0 1 1 1 
1 0 0 0 0 1 
0 0 0 1 0 1 
0 0 1 0 0 1 
0 1 0 0 1 0 
1 1 0 0 1 0 
Solution: 36 0
Classic Expectation: 19.400000
Initial Expecation: 13.640625
Gbest: 36.000000
Expectation: 18.247448
Final Parameters:
Gammas:
[ 3.218272 2.941263 ]
Betas:
[ 2.165498 1.212794 ]
Aggregate results:
[ 36 24 22 34 20 18 12 26 14 28 16 30 0 ]
[ 0.001605 0.059509 0.165040 0.001297 0.260910 0.216665 0.008154 0.043993 0.039355 0.013699 0.091210 0.011092 0.087472 ]
3
Num Evals 1101
GenUC: 2.614721e-04
GenUB: 8.851587e-05
Optimisation 1.324458e+00
Total Time: 1.324828e+00
2 Flipped
Graph 1:
0 1 0 1 1 1 
1 0 0 0 0 1 
0 0 0 1 0 1 
0 0 1 0 0 1 
0 1 0 0 1 0 
1 1 0 0 1 0 
Graph 2:
1 1 1 0 1 0 
1 0 0 0 0 1 
1 0 1 0 0 0 
1 0 0 1 0 0 
0 1 0 0 1 0 
0 1 0 0 1 1 
Solution: 26 633
Classic Expectation: 17.000000
Initial Expecation: 11.953125
Gbest: 26.000000
Expectation: 14.472771
Final Parameters:
Gammas:
[ 3.342764 2.652690 ]
Betas:
[ 3.059364 0.477993 ]
Aggregate results:
[ 22 18 24 20 14 16 12 10 6 8 26 0 ]
[ 0.057274 0.234355 0.005693 0.132256 0.106562 0.242593 0.038886 0.018400 0.001258 0.013682 0.002753 0.146286 ]
3
Num Evals 361
GenUC: 2.795726e-04
GenUB: 5.098694e-05
Optimisation 4.143641e-01
Total Time: 4.146967e-01
3 Add 6
Graph 1:
0 1 0 1 1 1 
1 0 0 0 0 1 
0 0 0 1 0 1 
0 0 1 0 0 1 
0 1 0 0 1 0 
1 1 0 0 1 0 
Graph 2:
1 1 0 1 1 1 
1 1 1 0 0 1 
1 0 0 1 1 1 
0 0 1 0 0 1 
1 1 0 0 1 0 
1 1 0 0 1 0 
Solution: 30 0
Classic Expectation: 17.800000
Initial Expecation: 12.515625
Gbest: 30.000000
Expectation: 16.724444
Final Parameters:
Gammas:
[ 3.244931 2.975410 ]
Betas:
[ 2.068198 1.279722 ]
Aggregate results:
[ 30 22 20 18 28 16 12 14 26 24 10 8 0 ]
[ 0.002060 0.110487 0.214642 0.223360 0.004362 0.192663 0.020442 0.070392 0.015455 0.044123 0.001758 0.000589 0.099666 ]
3
Num Evals 586
GenUC: 2.796858e-04
GenUB: 5.180441e-05
Optimisation 6.990054e-01
Total Time: 6.993390e-01
4 Rem 6
Graph 1:
0 1 0 1 1 1 
1 0 0 0 0 1 
0 0 0 1 0 1 
0 0 1 0 0 1 
0 1 0 0 1 0 
1 1 0 0 1 0 
Graph 2:
0 1 0 0 0 0 
1 0 0 0 0 1 
0 0 0 0 0 1 
0 0 1 0 0 1 
0 1 0 0 1 0 
1 1 0 0 0 0 
Solution: 31 0
Classic Expectation: 19.733333
Initial Expecation: 13.875000
Gbest: 31.000000
Expectation: 17.355007
Final Parameters:
Gammas:
[ 3.460133 2.563780 ]
Betas:
[ 3.055469 0.627130 ]
Aggregate results:
[ 31 21 23 19 17 15 11 13 25 29 27 0 ]
[ 0.003239 0.232431 0.131290 0.250836 0.143564 0.049425 0.000378 0.011714 0.032314 0.002312 0.013878 0.128620 ]
3
Num Evals 1605
GenUC: 2.793038e-04
GenUB: 5.164125e-05
Optimisation 2.038620e+00
Total Time: 2.038953e+00
5 Add/Rem 6
Graph 1:
0 1 0 1 1 1 
1 0 0 0 0 1 
0 0 0 1 0 1 
0 0 1 0 0 1 
0 1 0 0 1 0 
1 1 0 0 1 0 
Graph 2:
0 1 0 0 0 1 
1 0 0 0 0 1 
0 1 1 1 1 0 
0 0 0 1 0 1 
0 1 0 0 1 1 
0 1 1 0 1 0 
Solution: 27 204
Classic Expectation: 18.133333
Initial Expecation: 12.750000
Gbest: 27.000000
Expectation: 17.047237
Final Parameters:
Gammas:
[ 3.234596 3.202404 ]
Betas:
[ 0.869876 1.836886 ]
Aggregate results:
[ 25 21 19 15 23 17 13 11 27 9 0 ]
[ 0.035428 0.157745 0.215589 0.150964 0.066993 0.233197 0.047773 0.011645 0.007894 0.002305 0.070466 ]
3
Num Evals 474
GenUC: 2.794041e-04
GenUB: 6.608339e-05
Optimisation 5.306637e-01
Total Time: 5.310117e-01
