Clock Speed: 3.688612
Num threads: 4
Trotterisation: 2
Num Qubits: 10
Space Dimension: 1024
Run-Type: 0
Num_samples: 32399
Optimiser Method: 29
1 Isomorphic
Graph 1:
0 1 1 0 1 1 
0 0 0 0 0 0 
0 0 0 1 1 1 
1 0 1 1 1 0 
1 0 1 1 0 0 
1 0 1 1 0 1 
Graph 2:
0 1 1 0 1 1 
0 0 0 0 0 0 
0 0 0 1 1 1 
1 0 1 1 1 0 
1 0 1 1 0 0 
1 0 1 1 0 1 
Solution: 36 0
Classic Expectation: 18.400000
Initial Expecation: 12.937500
Gbest: 36.000000
Expectation: 13.654918
Final Parameters:
Gammas:
[ 3.141593 1.570796 ]
Betas:
[ 1.759223 2.568389 ]
Aggregate results:
[ 36 32 30 28 26 22 24 20 18 16 12 14 0 ]
[ 0.000480 0.000791 0.001011 0.011135 0.055020 0.049082 0.045885 0.117698 0.156683 0.202402 0.015089 0.076065 0.268660 ]
3
Num Evals 97
GenUC: 2.603931e-04
GenUB: 9.423861e-05
Optimisation 1.129433e-01
Total Time: 1.133140e-01
2 Flipped
Graph 1:
0 1 1 0 1 1 
0 0 0 0 0 0 
0 0 0 1 1 1 
1 0 1 1 1 0 
1 0 1 1 0 0 
1 0 1 1 0 1 
Graph 2:
1 1 0 1 1 0 
0 0 0 0 0 0 
1 1 1 0 0 0 
0 1 1 1 0 1 
0 0 1 1 0 1 
1 0 1 1 0 1 
Solution: 26 6
Classic Expectation: 17.600000
Initial Expecation: 12.375000
Gbest: 26.000000
Expectation: 16.160994
Final Parameters:
Gammas:
[ 3.551045 2.738598 ]
Betas:
[ 0.648647 2.889154 ]
Aggregate results:
[ 20 16 22 26 24 18 12 14 10 0 ]
[ 0.224442 0.142784 0.134323 0.005828 0.086070 0.167569 0.019108 0.069201 0.000092 0.150582 ]
3
Num Evals 286
GenUC: 2.795469e-04
GenUB: 4.942060e-05
Optimisation 3.094444e-01
Total Time: 3.097751e-01
3 Add 6
Graph 1:
0 1 1 0 1 1 
0 0 0 0 0 0 
0 0 0 1 1 1 
1 0 1 1 1 0 
1 0 1 1 0 0 
1 0 1 1 0 1 
Graph 2:
0 1 1 1 1 1 
1 1 0 0 0 0 
1 0 0 1 1 1 
1 0 1 1 1 0 
1 1 1 1 0 0 
1 1 1 1 0 1 
Solution: 30 0
Classic Expectation: 18.400000
Initial Expecation: 12.937500
Gbest: 30.000000
Expectation: 16.808380
Final Parameters:
Gammas:
[ 6.089783 3.243565 ]
Betas:
[ 3.141593 2.765565 ]
Aggregate results:
[ 30 26 24 20 22 18 16 14 12 10 28 0 ]
[ 0.001957 0.019661 0.091302 0.187251 0.145088 0.200305 0.146563 0.056500 0.021896 0.005745 0.001736 0.121998 ]
3
Num Evals 325
GenUC: 2.803509e-04
GenUB: 5.150505e-05
Optimisation 4.873887e-01
Total Time: 4.877221e-01
4 Rem 6
Graph 1:
0 1 1 0 1 1 
0 0 0 0 0 0 
0 0 0 1 1 1 
1 0 1 1 1 0 
1 0 1 1 0 0 
1 0 1 1 0 1 
Graph 2:
0 1 0 0 0 1 
0 0 0 0 0 0 
0 0 0 1 1 1 
1 0 1 1 1 0 
1 0 0 1 0 0 
0 0 1 1 0 0 
Solution: 31 0
Classic Expectation: 18.466667
Initial Expecation: 12.984375
Gbest: 31.000000
Expectation: 16.922122
Final Parameters:
Gammas:
[ 3.397217 4.268553 ]
Betas:
[ 1.858864 1.607266 ]
Aggregate results:
[ 31 29 27 23 25 21 19 17 13 15 11 9 0 ]
[ 0.003896 0.003362 0.017633 0.154547 0.093344 0.181657 0.183311 0.112701 0.028036 0.046019 0.005758 0.000874 0.168863 ]
3
Num Evals 324
GenUC: 2.801402e-04
GenUB: 5.150153e-05
Optimisation 3.748615e-01
Total Time: 3.751953e-01
5 Add/Rem 6
Graph 1:
0 1 1 0 1 1 
0 0 0 0 0 0 
0 0 0 1 1 1 
1 0 1 1 1 0 
1 0 1 1 0 0 
1 0 1 1 0 1 
Graph 2:
0 1 1 0 1 1 
0 0 1 0 1 0 
0 1 0 0 1 1 
0 0 0 1 0 1 
1 0 0 1 1 0 
1 0 1 1 0 0 
Solution: 29 1
Classic Expectation: 18.333333
Initial Expecation: 12.890625
Gbest: 29.000000
Expectation: 16.845592
Final Parameters:
Gammas:
[ 3.154082 6.187650 ]
Betas:
[ 2.897153 0.522841 ]
Aggregate results:
[ 25 29 21 23 19 15 17 13 11 27 9 0 ]
[ 0.021729 0.001247 0.175178 0.091064 0.216995 0.141777 0.196027 0.047312 0.017501 0.002809 0.003061 0.085299 ]
3
Num Evals 821
GenUC: 2.803409e-04
GenUB: 4.994756e-05
Optimisation 9.129108e-01
Total Time: 9.132429e-01
