Clock Speed: 3.688215
Num threads: 4
Trotterisation: 2
Num Qubits: 10
Space Dimension: 1024
Run-Type: 0
Num_samples: 32399
Optimiser Method: 29
1 Isomorphic
Graph 1:
0 1 0 0 1 0 
1 0 0 1 1 0 
0 1 1 0 0 1 
0 0 1 1 0 1 
0 1 0 0 1 0 
0 0 0 0 0 1 
Graph 2:
0 1 0 0 1 0 
1 0 0 1 1 0 
0 1 1 0 0 1 
0 0 1 1 0 1 
0 1 0 0 1 0 
0 0 0 0 0 1 
Solution: 36 0
Classic Expectation: 20.000000
Initial Expecation: 14.062500
Gbest: 36.000000
Expectation: 17.793331
Final Parameters:
Gammas:
[ 3.230738 0.377696 ]
Betas:
[ 0.370497 3.141593 ]
Aggregate results:
[ 36 26 28 24 30 20 22 32 18 16 14 12 0 ]
[ 0.002618 0.035903 0.018421 0.096884 0.003262 0.212431 0.165771 0.006583 0.205188 0.113414 0.013463 0.002004 0.124060 ]
3
Num Evals 544
GenUC: 2.618355e-04
GenUB: 8.876732e-05
Optimisation 6.945981e-01
Total Time: 6.949692e-01
2 Flipped
Graph 1:
0 1 0 0 1 0 
1 0 0 1 1 0 
0 1 1 0 0 1 
0 0 1 1 0 1 
0 1 0 0 1 0 
0 0 0 0 0 1 
Graph 2:
0 1 0 0 1 0 
0 1 1 0 0 1 
1 0 0 1 1 0 
1 0 1 1 0 0 
0 1 0 0 1 0 
1 0 0 0 0 0 
Solution: 28 26
Classic Expectation: 19.333333
Initial Expecation: 13.593750
Gbest: 28.000000
Expectation: 17.747027
Final Parameters:
Gammas:
[ 2.842040 3.033593 ]
Betas:
[ 0.271681 2.692859 ]
Aggregate results:
[ 20 14 18 22 16 24 26 28 12 0 ]
[ 0.243277 0.013316 0.108088 0.270836 0.035356 0.137185 0.025355 0.002945 0.015939 0.147704 ]
3
Num Evals 619
GenUC: 2.969287e-04
GenUB: 5.051872e-05
Optimisation 6.254204e-01
Total Time: 6.257700e-01
3 Add 6
Graph 1:
0 1 0 0 1 0 
1 0 0 1 1 0 
0 1 1 0 0 1 
0 0 1 1 0 1 
0 1 0 0 1 0 
0 0 0 0 0 1 
Graph 2:
1 1 0 0 1 0 
1 0 1 1 1 0 
1 1 1 0 0 1 
0 1 1 1 1 1 
0 1 0 0 1 0 
0 0 0 1 0 1 
Solution: 30 0
Classic Expectation: 18.666667
Initial Expecation: 13.125000
Gbest: 30.000000
Expectation: 17.832644
Final Parameters:
Gammas:
[ 3.230089 3.288293 ]
Betas:
[ 2.112618 1.286070 ]
Aggregate results:
[ 30 22 24 18 20 28 26 16 14 12 10 0 ]
[ 0.001541 0.167436 0.080823 0.209211 0.193809 0.008217 0.032027 0.160021 0.057199 0.008042 0.000069 0.081605 ]
3
Num Evals 537
GenUC: 2.971101e-04
GenUB: 5.099579e-05
Optimisation 6.096523e-01
Total Time: 6.100028e-01
4 Rem 6
Graph 1:
0 1 0 0 1 0 
1 0 0 1 1 0 
0 1 1 0 0 1 
0 0 1 1 0 1 
0 1 0 0 1 0 
0 0 0 0 0 1 
Graph 2:
0 1 0 0 1 0 
0 0 0 0 1 0 
0 1 0 0 0 1 
0 0 1 0 0 1 
0 1 0 0 1 0 
0 0 0 0 0 1 
Solution: 32 0
Classic Expectation: 20.000000
Initial Expecation: 14.062500
Gbest: 32.000000
Expectation: 17.982569
Final Parameters:
Gammas:
[ 3.229046 0.810444 ]
Betas:
[ 2.259538 1.312533 ]
Aggregate results:
[ 32 22 24 20 26 28 18 16 14 0 ]
[ 0.000830 0.183843 0.071099 0.269075 0.013360 0.010676 0.238630 0.097184 0.023357 0.091945 ]
3
Num Evals 369
GenUC: 2.965585e-04
GenUB: 5.155680e-05
Optimisation 4.299498e-01
Total Time: 4.303002e-01
5 Add/Rem 6
Graph 1:
0 1 0 0 1 0 
1 0 0 1 1 0 
0 1 1 0 0 1 
0 0 1 1 0 1 
0 1 0 0 1 0 
0 0 0 0 0 1 
Graph 2:
1 1 0 0 0 0 
1 0 0 1 0 1 
0 1 0 0 1 1 
0 1 1 1 0 1 
0 0 0 0 0 0 
0 0 0 0 1 1 
Solution: 28 4
Classic Expectation: 19.333333
Initial Expecation: 13.593750
Gbest: 28.000000
Expectation: 16.665378
Final Parameters:
Gammas:
[ 3.546989 2.570002 ]
Betas:
[ 2.246411 1.256094 ]
Aggregate results:
[ 26 24 20 28 22 18 16 14 12 0 ]
[ 0.040258 0.107649 0.178597 0.010608 0.182883 0.176891 0.078069 0.035431 0.017795 0.171819 ]
3
Num Evals 872
GenUC: 2.966283e-04
GenUB: 4.968542e-05
Optimisation 9.865066e-01
Total Time: 9.868546e-01
