Clock Speed: 3.498795
Num threads: 16
Trotterisation: 4
Num Qubits: 13
Space Dimension: 8192
Run-Type: 0
Num_samples: 49
Optimiser Method: 20
1 Isomorphic
Graph 1:
0 0 0 1 0 1 0 
1 1 1 0 1 1 0 
1 1 1 1 1 0 1 
0 1 0 0 0 0 1 
1 1 1 1 0 1 0 
0 0 1 1 0 1 0 
0 0 0 1 1 0 1 
Graph 2:
0 0 0 1 0 1 0 
1 1 1 0 1 1 0 
1 1 1 1 1 0 1 
0 1 0 0 0 0 1 
1 1 1 1 0 1 0 
0 0 1 1 0 1 0 
0 0 0 1 1 0 1 
Solution: 49 0
Classic Expectation: 24.619048
Initial Expecation: 15.146484
Gbest: 31.000000
Expectation: 19.228551
Final Parameters:
Gammas:
[ 5.371752 2.981367 5.994790 0.665258 ]
Betas:
[ 1.333787 2.532061 2.608884 2.700670 ]
Aggregate results:
[ 49 35 31 33 29 27 25 21 37 23 17 39 41 19 13 15 11 0 ]
[ 0.000007 0.005941 0.036096 0.015562 0.074505 0.144606 0.170014 0.094292 0.001780 0.140085 0.023434 0.001114 0.000979 0.064748 0.000830 0.005010 0.000576 0.220422 ]
5
Num Evals 5600
GenUC: 2.264449e-03
GenUB: 1.269903e-03
Optimisation 2.467067e+02
Total Time: 2.467102e+02
2 Flipped
Graph 1:
0 0 0 1 0 1 0 
1 1 1 0 1 1 0 
1 1 1 1 1 0 1 
0 1 0 0 0 0 1 
1 1 1 1 0 1 0 
0 0 1 1 0 1 0 
0 0 0 1 1 0 1 
Graph 2:
0 1 0 1 0 0 0 
0 1 1 0 1 1 1 
1 0 1 1 1 1 1 
1 0 0 0 0 1 0 
0 1 0 1 1 1 1 
0 1 0 1 1 0 0 
1 0 1 1 0 0 0 
Solution: 39 4516
Classic Expectation: 24.523810
Initial Expecation: 15.087891
Gbest: 31.000000
Expectation: 19.587508
Final Parameters:
Gammas:
[ 6.209958 1.427778 0.564646 2.223702 ]
Betas:
[ 2.550586 1.384880 0.407523 1.357010 ]
Aggregate results:
[ 27 33 29 31 25 21 23 17 19 35 15 13 11 39 37 0 ]
[ 0.140727 0.012071 0.075318 0.045837 0.162408 0.116938 0.166063 0.013340 0.053467 0.003544 0.003313 0.000418 0.000043 0.000271 0.000437 0.205806 ]
5
Num Evals 5600
GenUC: 2.836746e-03
GenUB: 1.262850e-03
Optimisation 1.858691e+02
Total Time: 1.858732e+02
3 Add 7
Graph 1:
0 0 0 1 0 1 0 
1 1 1 0 1 1 0 
1 1 1 1 1 0 1 
0 1 0 0 0 0 1 
1 1 1 1 0 1 0 
0 0 1 1 0 1 0 
0 0 0 1 1 0 1 
Graph 2:
0 1 0 1 1 1 0 
1 1 1 0 1 1 1 
1 1 1 1 1 1 1 
0 1 0 1 0 1 1 
1 1 1 1 1 1 0 
0 0 1 1 0 1 0 
0 0 0 1 1 0 1 
Solution: 42 0
Classic Expectation: 25.142857
Initial Expecation: 15.468750
Gbest: 32.000000
Expectation: 20.843911
Final Parameters:
Gammas:
[ 2.097432 6.133968 6.086300 6.109596 ]
Betas:
[ 2.874021 2.834753 1.194962 0.424506 ]
Aggregate results:
[ 42 34 30 28 26 32 24 22 20 36 40 18 38 16 12 14 0 ]
[ 0.000041 0.009987 0.065603 0.141269 0.202115 0.024929 0.186060 0.113955 0.047344 0.004069 0.000021 0.021334 0.000250 0.003533 0.000043 0.000652 0.178796 ]
5
Num Evals 5600
GenUC: 2.829945e-03
GenUB: 1.189210e-03
Optimisation 2.120321e+02
Total Time: 2.120361e+02
4 Rem 7
Graph 1:
0 0 0 1 0 1 0 
1 1 1 0 1 1 0 
1 1 1 1 1 0 1 
0 1 0 0 0 0 1 
1 1 1 1 0 1 0 
0 0 1 1 0 1 0 
0 0 0 1 1 0 1 
Graph 2:
0 0 0 0 0 1 0 
0 0 0 0 0 1 0 
1 1 1 1 1 0 1 
0 1 0 0 0 0 1 
0 1 1 1 0 1 0 
0 0 0 1 0 1 0 
0 0 0 1 1 0 1 
Solution: 42 0
Classic Expectation: 24.190476
Initial Expecation: 14.882813
Gbest: 30.000000
Expectation: 19.690566
Final Parameters:
Gammas:
[ 3.071813 1.574807 0.773500 2.387633 ]
Betas:
[ 0.545001 0.876670 1.195654 3.099731 ]
Aggregate results:
[ 42 30 28 32 24 26 20 22 18 34 16 36 40 14 12 0 ]
[ 0.000629 0.043253 0.101419 0.014645 0.172710 0.160514 0.108526 0.152120 0.046674 0.004031 0.011183 0.000610 0.000272 0.002388 0.000018 0.181007 ]
5
Num Evals 5600
GenUC: 2.834676e-03
GenUB: 1.064030e-03
Optimisation 1.842556e+02
Total Time: 1.842595e+02
5 Add/Rem 7
Graph 1:
0 0 0 1 0 1 0 
1 1 1 0 1 1 0 
1 1 1 1 1 0 1 
0 1 0 0 0 0 1 
1 1 1 1 0 1 0 
0 0 1 1 0 1 0 
0 0 0 1 1 0 1 
Graph 2:
0 1 0 1 0 1 0 
1 1 0 0 1 1 0 
1 1 1 1 1 1 1 
1 0 0 1 0 0 1 
1 1 0 0 0 1 0 
1 0 1 0 0 1 1 
0 1 0 0 0 0 1 
Solution: 37 21
Classic Expectation: 24.714286
Initial Expecation: 15.205078
Gbest: 33.000000
Expectation: 23.013436
Final Parameters:
Gammas:
[ 6.217924 5.969998 4.462919 0.579010 ]
Betas:
[ 2.503560 1.431195 1.577422 0.096236 ]
Aggregate results:
[ 35 25 27 23 29 31 37 21 19 33 17 15 13 0 ]
[ 0.008564 0.124857 0.205942 0.052730 0.215051 0.123888 0.000846 0.035851 0.024802 0.034988 0.015467 0.004200 0.000465 0.152347 ]
5
Num Evals 5600
GenUC: 2.828120e-03
GenUB: 9.981981e-04
Optimisation 1.777827e+02
Total Time: 1.777866e+02
