Clock Speed: 3.688534
Num threads: 4
Trotterisation: 6
Graph Size: 5
Num Qubits: 7
Space Dimension: 128
Run-Type: 0
Num_samples: 10
1 Isomorphic
Graph 1:
1 0 0 0 1 
1 1 1 1 1 
0 0 1 1 0 
0 0 0 0 0 
0 1 1 0 0 
Graph 2:
1 0 0 0 1 
1 1 1 1 1 
0 0 1 1 0 
0 0 0 0 0 
0 1 1 0 0 
Solution: 0 0
Gbest: -8.000000
Expectation: -11.632120
Final Parameters:
Gammas:
[ 3.667744 4.098559 5.064462 3.061931 6.052127 2.307269 ]
Betas:
[ 1.792860 1.153807 1.856102 0.032361 1.781287 0.562952 0.714464 ]
Aggregate results:
[ -1 7 9 5 15 11 13 17 3 19 24 ]
[ 0.003862 0.233622 0.106248 0.067052 0.067848 0.227707 0.203523 0.038892 0.014615 0.008666 0.027966 ]
5
Num Evals 500
GenUC: 4.994376e-02
GenUB: 3.061711e-05
Optimisation 4.573136e-01
Total Time: 5.080066e-01
2 Flipped
Graph 1:
1 0 0 0 1 
1 1 1 1 1 
0 0 1 1 0 
0 0 0 0 0 
0 1 1 0 0 
Graph 2:
1 0 0 0 1 
1 1 1 1 1 
0 1 1 0 0 
0 0 0 0 0 
0 0 1 1 0 
Solution: -4 0
Gbest: -6.000000
Expectation: -11.822785
Final Parameters:
Gammas:
[ 4.622304 4.173281 6.241340 0.506017 0.642471 1.468808 ]
Betas:
[ 2.128083 0.590399 0.025234 1.288568 0.150963 2.818381 2.503603 ]
Aggregate results:
[ 3 9 11 7 13 5 15 17 19 24 ]
[ 0.015273 0.158098 0.324907 0.126626 0.125603 0.077906 0.078066 0.075782 0.002729 0.015009 ]
5
Num Evals 1000
GenUC: 2.364139e-05
GenUB: 1.779594e-05
Optimisation 4.650482e-01
Total Time: 4.658956e-01
3 Add 5
Graph 1:
1 0 0 0 1 
1 1 1 1 1 
0 0 1 1 0 
0 0 0 0 0 
0 1 1 0 0 
Graph 2:
1 0 0 0 1 
1 1 1 1 1 
1 0 1 1 0 
0 0 1 0 1 
0 1 1 0 0 
Solution: -3 0
Gbest: -5.000000
Expectation: -12.384754
Final Parameters:
Gammas:
[ 3.208836 3.191909 4.230091 1.348837 1.029681 1.463298 ]
Betas:
[ 2.234965 0.701469 0.315891 1.647902 1.118477 1.533060 2.390685 ]
Aggregate results:
[ 2 10 12 6 8 14 18 16 4 24 ]
[ 0.010057 0.125570 0.327067 0.088785 0.172378 0.160152 0.020419 0.044572 0.013721 0.037278 ]
5
Num Evals 1500
GenUC: 2.479390e-05
GenUB: 1.851178e-05
Optimisation 4.679659e-01
Total Time: 4.687811e-01
4 Rem 5
Graph 1:
1 0 0 0 1 
1 1 1 1 1 
0 0 1 1 0 
0 0 0 0 0 
0 1 1 0 0 
Graph 2:
1 0 0 0 1 
1 0 1 0 0 
0 0 1 1 0 
0 0 0 0 0 
0 0 1 0 0 
Solution: -4 0
Gbest: -6.000000
Expectation: -11.481916
Final Parameters:
Gammas:
[ 0.397292 0.605735 0.150177 5.651769 2.110715 2.351696 ]
Betas:
[ 0.466970 2.350601 1.480745 2.417486 2.052195 2.908484 2.777767 ]
Aggregate results:
[ 3 7 11 9 15 13 5 24 ]
[ 0.009269 0.069545 0.338772 0.351890 0.028418 0.147473 0.030569 0.024063 ]
5
Num Evals 2000
GenUC: 2.443534e-05
GenUB: 1.745310e-05
Optimisation 4.557357e-01
Total Time: 4.566852e-01
5 Add/Rem 5
Graph 1:
1 0 0 0 1 
1 1 1 1 1 
0 0 1 1 0 
0 0 0 0 0 
0 1 1 0 0 
Graph 2:
0 0 0 1 1 
1 1 1 0 0 
0 0 0 1 0 
1 0 1 0 0 
1 1 1 0 1 
Solution: -5 101
Gbest: -7.000000
Expectation: -12.147725
Final Parameters:
Gammas:
[ 2.035177 1.247534 0.648804 4.964344 3.531919 1.274461 ]
Betas:
[ 2.317856 3.074552 1.067328 0.635894 1.053424 2.362734 1.590950 ]
Aggregate results:
[ 8 10 12 14 16 18 6 4 24 ]
[ 0.238496 0.189624 0.335564 0.116230 0.039825 0.006824 0.046139 0.000125 0.027174 ]
5
Num Evals 2500
GenUC: 2.422463e-05
GenUB: 1.732819e-05
Optimisation 5.080388e-01
Total Time: 5.090146e-01
