Clock Speed: 3.688371
Num threads: 4
Trotterisation: 4
Num Qubits: 7
Space Dimension: 128
Run-Type: 0
Num_samples: 15624
Optimiser Method: 29
1 Isomorphic
Graph 1:
0 0 0 1 0 
0 1 0 1 0 
1 1 0 0 0 
0 0 0 1 1 
0 1 1 0 1 
Graph 2:
0 0 0 1 0 
0 1 0 1 0 
1 1 0 0 0 
0 0 0 1 1 
0 1 1 0 1 
Solution: 25 0
Classic Expectation: 13.500000
Initial Expecation: 12.656250
Gbest: 25.000000
Expectation: 14.280294
Final Parameters:
Gammas:
[ 4.662199 3.082414 3.237715 3.272507 ]
Betas:
[ 2.664140 1.279562 1.185387 2.206195 ]
Aggregate results:
[ 25 15 11 13 17 9 19 21 7 0 ]
[ 0.041153 0.245246 0.176070 0.184180 0.103846 0.079544 0.104069 0.033484 0.011417 0.020992 ]
3
Num Evals 931
GenUC: 4.121882e-05
GenUB: 1.444772e-05
Optimisation 6.547202e-01
Total Time: 6.547965e-01
2 Flipped
Graph 1:
0 0 0 1 0 
0 1 0 1 0 
1 1 0 0 0 
0 0 0 1 1 
0 1 1 0 1 
Graph 2:
0 1 0 0 0 
0 1 0 1 0 
0 0 0 1 1 
1 1 0 0 0 
1 0 1 1 0 
Solution: 19 16
Classic Expectation: 12.500000
Initial Expecation: 11.718750
Gbest: 19.000000
Expectation: 13.420046
Final Parameters:
Gammas:
[ 3.959073 3.746297 3.760449 3.341086 ]
Betas:
[ 1.454910 0.800748 1.653367 1.277395 ]
Aggregate results:
[ 11 15 13 9 17 19 7 0 ]
[ 0.169491 0.142253 0.320542 0.059060 0.262141 0.003139 0.029603 0.013770 ]
3
Num Evals 1008
GenUC: 4.709186e-05
GenUB: 3.450550e-06
Optimisation 5.067628e-01
Total Time: 5.068167e-01
3 Add 5
Graph 1:
0 0 0 1 0 
0 1 0 1 0 
1 1 0 0 0 
0 0 0 1 1 
0 1 1 0 1 
Graph 2:
1 0 0 1 1 
1 1 0 1 0 
1 1 0 0 1 
0 1 0 1 1 
0 1 1 0 1 
Solution: 20 0
Classic Expectation: 12.500000
Initial Expecation: 11.718750
Gbest: 20.000000
Expectation: 13.265118
Final Parameters:
Gammas:
[ 5.036677 3.819936 4.386487 5.009048 ]
Betas:
[ 2.069760 2.457867 1.669247 1.980243 ]
Aggregate results:
[ 20 14 10 12 8 16 18 6 4 0 ]
[ 0.027894 0.251600 0.130428 0.221862 0.041705 0.196767 0.095351 0.000814 0.003773 0.029805 ]
3
Num Evals 759
GenUC: 4.703726e-05
GenUB: 2.584420e-06
Optimisation 4.774767e-01
Total Time: 4.775282e-01
4 Rem 5
Graph 1:
0 0 0 1 0 
0 1 0 1 0 
1 1 0 0 0 
0 0 0 1 1 
0 1 1 0 1 
Graph 2:
0 0 0 1 0 
0 1 0 0 0 
1 0 0 0 0 
0 0 0 1 0 
0 0 0 0 1 
Solution: 20 0
Classic Expectation: 15.000000
Initial Expecation: 14.062500
Gbest: 20.000000
Expectation: 16.159079
Final Parameters:
Gammas:
[ 4.881712 4.466294 3.621870 3.504940 ]
Betas:
[ 3.073801 1.780933 1.874584 1.479152 ]
Aggregate results:
[ 20 18 14 16 12 0 ]
[ 0.047490 0.351553 0.110143 0.424780 0.045237 0.020797 ]
5
Num Evals 4000
GenUC: 4.633481e-05
GenUB: 2.389017e-06
Optimisation 2.537493e+00
Total Time: 2.537544e+00
5 Add/Rem 5
Graph 1:
0 0 0 1 0 
0 1 0 1 0 
1 1 0 0 0 
0 0 0 1 1 
0 1 1 0 1 
Graph 2:
0 0 0 1 1 
0 1 0 1 0 
0 1 1 0 0 
1 0 0 0 1 
0 1 0 0 1 
Solution: 21 66
Classic Expectation: 13.500000
Initial Expecation: 12.656250
Gbest: 21.000000
Expectation: 13.794837
Final Parameters:
Gammas:
[ 4.137936 2.402831 3.102836 4.076544 ]
Betas:
[ 2.209960 1.898114 1.670858 1.441615 ]
Aggregate results:
[ 19 13 15 17 11 9 21 0 ]
[ 0.047940 0.336249 0.212982 0.183468 0.135507 0.051191 0.011798 0.020865 ]
3
Num Evals 971
GenUC: 4.650210e-05
GenUB: 2.551533e-06
Optimisation 5.691187e-01
Total Time: 5.691699e-01
