Clock Speed: 3.687001
Num threads: 4
Trotterisation: 4
Num Qubits: 7
Space Dimension: 128
Run-Type: 0
Num_samples: 15624
Optimiser Method: 29
1 Isomorphic
Graph 1:
1 0 1 1 0 
1 0 0 1 0 
1 1 1 1 1 
0 0 1 1 0 
0 0 1 1 1 
Graph 2:
1 0 1 1 0 
1 0 0 1 0 
1 1 1 1 1 
0 0 1 1 0 
0 0 1 1 1 
Solution: 25 0
Classic Expectation: 13.500000
Initial Expecation: 12.656250
Gbest: 25.000000
Expectation: 14.259238
Final Parameters:
Gammas:
[ 4.194027 2.631104 3.427626 3.740488 ]
Betas:
[ 1.730785 1.042109 1.146011 1.724057 ]
Aggregate results:
[ 25 19 17 15 13 9 11 21 23 0 ]
[ 0.025262 0.104911 0.022875 0.263253 0.335362 0.037149 0.150378 0.015850 0.026767 0.018192 ]
3
Num Evals 1104
GenUC: 4.115439e-05
GenUB: 1.458701e-05
Optimisation 5.763293e-01
Total Time: 5.764032e-01
2 Flipped
Graph 1:
1 0 1 1 0 
1 0 0 1 0 
1 1 1 1 1 
0 0 1 1 0 
0 0 1 1 1 
Graph 2:
0 1 1 0 1 
0 1 0 0 1 
1 1 1 1 1 
0 1 1 0 0 
1 1 1 0 0 
Solution: 19 20
Classic Expectation: 12.500000
Initial Expecation: 11.718750
Gbest: 19.000000
Expectation: 13.528192
Final Parameters:
Gammas:
[ 4.154240 2.882369 2.714675 2.898912 ]
Betas:
[ 1.284666 1.950862 0.940805 2.567455 ]
Aggregate results:
[ 11 15 7 9 13 17 19 0 ]
[ 0.161894 0.201988 0.016153 0.065860 0.342357 0.114579 0.084908 0.012261 ]
3
Num Evals 2752
GenUC: 4.455395e-05
GenUB: 3.082096e-06
Optimisation 1.584248e+00
Total Time: 1.584299e+00
3 Add 5
Graph 1:
1 0 1 1 0 
1 0 0 1 0 
1 1 1 1 1 
0 0 1 1 0 
0 0 1 1 1 
Graph 2:
1 1 1 1 0 
1 0 0 1 0 
1 1 1 1 1 
0 1 1 1 0 
1 0 1 1 1 
Solution: 22 0
Classic Expectation: 13.800000
Initial Expecation: 12.937500
Gbest: 22.000000
Expectation: 14.834874
Final Parameters:
Gammas:
[ 3.428021 3.759135 5.795516 3.990762 ]
Betas:
[ 2.780834 1.333294 1.471485 1.456910 ]
Aggregate results:
[ 22 16 14 10 12 8 18 20 0 ]
[ 0.037906 0.254454 0.362188 0.048043 0.140189 0.000280 0.137085 0.011329 0.008526 ]
3
Num Evals 830
GenUC: 4.448765e-05
GenUB: 2.776913e-06
Optimisation 4.832474e-01
Total Time: 4.832969e-01
4 Rem 5
Graph 1:
1 0 1 1 0 
1 0 0 1 0 
1 1 1 1 1 
0 0 1 1 0 
0 0 1 1 1 
Graph 2:
1 0 1 1 0 
1 0 0 1 0 
1 1 0 0 1 
0 0 1 0 0 
0 0 0 1 1 
Solution: 21 0
Classic Expectation: 12.100000
Initial Expecation: 11.343750
Gbest: 21.000000
Expectation: 12.537983
Final Parameters:
Gammas:
[ 4.742343 2.397445 3.410342 5.548113 ]
Betas:
[ 0.803937 1.860579 0.803619 1.952320 ]
Aggregate results:
[ 21 15 13 11 9 17 7 19 0 ]
[ 0.065825 0.132372 0.269275 0.307150 0.139969 0.045028 0.008244 0.010945 0.021192 ]
3
Num Evals 1166
GenUC: 4.398759e-05
GenUB: 2.802699e-06
Optimisation 5.909846e-01
Total Time: 5.910333e-01
5 Add/Rem 5
Graph 1:
1 0 1 1 0 
1 0 0 1 0 
1 1 1 1 1 
0 0 1 1 0 
0 0 1 1 1 
Graph 2:
1 0 1 0 0 
1 0 0 1 0 
1 0 0 1 1 
0 1 1 1 1 
0 1 1 0 0 
Solution: 17 0
Classic Expectation: 12.300000
Initial Expecation: 11.531250
Gbest: 17.000000
Expectation: 13.090344
Final Parameters:
Gammas:
[ 5.666692 4.372760 3.442449 2.664896 ]
Betas:
[ 2.688966 1.756889 1.496638 1.871523 ]
Aggregate results:
[ 17 15 13 11 9 7 0 ]
[ 0.150330 0.206188 0.329381 0.231882 0.067204 0.000632 0.014383 ]
5
Num Evals 4000
GenUC: 4.399352e-05
GenUB: 3.183610e-06
Optimisation 2.431382e+00
Total Time: 2.431431e+00
