Clock Speed: 3.688907
Num threads: 4
Trotterisation: 4
Num Qubits: 7
Space Dimension: 128
Run-Type: 0
Num_samples: 5
Optimiser Method: 29
1 Isomorphic
Graph 1:
0 1 1 1 1 
1 0 0 1 0 
1 0 0 0 1 
1 1 0 0 1 
1 0 1 1 0 
Graph 2:
0 1 1 1 1 
1 0 0 1 0 
1 0 0 0 1 
1 1 0 0 1 
1 0 1 1 0 
Solution: 25 0
Classic Expectation: 16.600000
Initial Expecation: 15.562500
Gbest: 21.000000
Expectation: 17.137662
Final Parameters:
Gammas:
[ 4.502698 3.327440 3.230322 1.751800 ]
Betas:
[ 1.465289 2.256878 2.302818 0.957920 ]
Aggregate results:
[ 25 17 21 13 0 ]
[ 0.002774 0.586748 0.234654 0.166605 0.009219 ]
5
Num Evals 4000
GenUC: 4.099181e-05
GenUB: 1.370150e-05
Optimisation 2.321093e+00
Total Time: 2.321177e+00
2 Flipped
Graph 1:
0 1 1 1 1 
1 0 0 1 0 
1 0 0 0 1 
1 1 0 0 1 
1 0 1 1 0 
Graph 2:
1 1 1 1 0 
0 1 0 0 1 
1 0 0 0 1 
1 0 0 1 1 
0 1 1 0 1 
Solution: 15 3
Classic Expectation: 11.000000
Initial Expecation: 10.312500
Gbest: 15.000000
Expectation: 12.769577
Final Parameters:
Gammas:
[ 6.126902 3.468047 3.193100 3.188505 ]
Betas:
[ 1.245335 0.293471 1.108584 1.949819 ]
Aggregate results:
[ 13 15 9 11 5 7 0 ]
[ 0.498154 0.276682 0.047214 0.136684 0.007077 0.025645 0.008545 ]
5
Num Evals 4000
GenUC: 4.495005e-05
GenUB: 3.164809e-06
Optimisation 1.931072e+00
Total Time: 1.931123e+00
3 Add 5
Graph 1:
0 1 1 1 1 
1 0 0 1 0 
1 0 0 0 1 
1 1 0 0 1 
1 0 1 1 0 
Graph 2:
1 1 1 1 1 
1 1 1 1 1 
1 1 0 1 1 
1 1 1 0 1 
1 1 1 1 0 
Solution: 17 0
Classic Expectation: 17.000000
Initial Expecation: 15.937500
Gbest: 17.000000
Expectation: 17.000000
Final Parameters:
Gammas:
[ 3.876126 3.788617 4.713272 4.708496 ]
Betas:
[ 2.041523 1.033151 1.409728 2.034684 ]
Aggregate results:
[ 17 0 ]
[ 1.000000 0.000000 ]
4
Num Evals 676
GenUC: 4.498701e-05
GenUB: 6.143644e-06
Optimisation 4.015500e-01
Total Time: 4.016040e-01
4 Rem 5
Graph 1:
0 1 1 1 1 
1 0 0 1 0 
1 0 0 0 1 
1 1 0 0 1 
1 0 1 1 0 
Graph 2:
0 0 0 0 0 
0 0 0 0 0 
0 0 0 0 1 
0 0 0 0 1 
0 0 1 1 0 
Solution: 15 0
Classic Expectation: 12.600000
Initial Expecation: 11.812500
Gbest: 15.000000
Expectation: 14.403552
Final Parameters:
Gammas:
[ 1.111600 6.097145 2.548225 0.866118 ]
Betas:
[ 3.010813 0.045916 1.736945 1.513199 ]
Aggregate results:
[ 15 11 7 0 ]
[ 0.864575 0.127316 0.004923 0.003187 ]
5
Num Evals 4000
GenUC: 4.424230e-05
GenUB: 7.402385e-06
Optimisation 2.109628e+00
Total Time: 2.109683e+00
5 Add/Rem 5
Graph 1:
0 1 1 1 1 
1 0 0 1 0 
1 0 0 0 1 
1 1 0 0 1 
1 0 1 1 0 
Graph 2:
0 0 0 0 0 
0 1 1 1 1 
0 1 0 1 1 
0 1 1 0 1 
0 1 1 1 0 
Solution: 18 24
Classic Expectation: 14.800000
Initial Expecation: 13.875000
Gbest: 18.000000
Expectation: 16.056924
Final Parameters:
Gammas:
[ 5.514396 5.857523 3.096391 0.747979 ]
Betas:
[ 2.213027 2.465992 0.517321 1.957918 ]
Aggregate results:
[ 10 18 14 0 ]
[ 0.119850 0.659790 0.213015 0.007345 ]
5
Num Evals 4000
GenUC: 4.424463e-05
GenUB: 5.851907e-06
Optimisation 2.345493e+00
Total Time: 2.345546e+00
