Clock Speed: 3.688120
Num threads: 4
Trotterisation: 4
Num Qubits: 7
Space Dimension: 128
Run-Type: 0
Num_samples: 15624
Optimiser Method: 29
1 Isomorphic
Graph 1:
0 0 1 0 1 
1 0 1 0 0 
0 0 0 0 0 
0 0 1 0 1 
1 1 0 1 0 
Graph 2:
0 0 1 0 1 
1 0 1 0 0 
0 0 0 0 0 
0 0 1 0 1 
1 1 0 1 0 
Solution: 25 0
Classic Expectation: 15.100000
Initial Expecation: 14.156250
Gbest: 25.000000
Expectation: 15.616205
Final Parameters:
Gammas:
[ 4.375217 2.728488 3.392151 3.328772 ]
Betas:
[ 1.929409 2.366317 1.613621 1.784204 ]
Aggregate results:
[ 25 17 15 13 11 21 19 23 0 ]
[ 0.005757 0.310723 0.406103 0.105942 0.051964 0.052136 0.010607 0.037096 0.019672 ]
3
Num Evals 1010
GenUC: 4.168763e-05
GenUB: 1.601299e-05
Optimisation 6.621942e-01
Total Time: 6.622731e-01
2 Flipped
Graph 1:
0 0 1 0 1 
1 0 1 0 0 
0 0 0 0 0 
0 0 1 0 1 
1 1 0 1 0 
Graph 2:
1 0 1 0 0 
0 0 1 0 1 
0 0 0 0 0 
1 0 1 0 0 
0 1 0 1 1 
Solution: 21 14
Classic Expectation: 13.300000
Initial Expecation: 12.468750
Gbest: 21.000000
Expectation: 13.812806
Final Parameters:
Gammas:
[ 4.452917 3.183018 5.345898 2.546646 ]
Betas:
[ 0.844257 0.954145 1.690666 1.324851 ]
Aggregate results:
[ 17 15 9 11 13 21 19 0 ]
[ 0.096007 0.306913 0.042310 0.137880 0.342110 0.022909 0.039526 0.012345 ]
3
Num Evals 802
GenUC: 4.754891e-05
GenUB: 2.890127e-06
Optimisation 4.445938e-01
Total Time: 4.446469e-01
3 Add 5
Graph 1:
0 0 1 0 1 
1 0 1 0 0 
0 0 0 0 0 
0 0 1 0 1 
1 1 0 1 0 
Graph 2:
1 1 1 0 1 
1 0 1 0 0 
0 0 0 0 1 
1 0 1 0 1 
1 1 1 1 0 
Solution: 20 0
Classic Expectation: 13.700000
Initial Expecation: 12.843750
Gbest: 20.000000
Expectation: 15.682473
Final Parameters:
Gammas:
[ 6.147610 3.503829 2.829605 2.708790 ]
Betas:
[ 1.293513 1.611610 1.520284 1.412037 ]
Aggregate results:
[ 20 16 14 12 10 18 0 ]
[ 0.027689 0.430134 0.228842 0.059493 0.008201 0.235935 0.009706 ]
3
Num Evals 1128
GenUC: 4.626141e-05
GenUB: 2.680055e-06
Optimisation 7.081533e-01
Total Time: 7.082043e-01
4 Rem 5
Graph 1:
0 0 1 0 1 
1 0 1 0 0 
0 0 0 0 0 
0 0 1 0 1 
1 1 0 1 0 
Graph 2:
0 0 1 0 0 
1 0 1 0 0 
0 0 0 0 0 
0 0 0 0 0 
1 1 0 0 0 
Solution: 21 0
Classic Expectation: 15.500000
Initial Expecation: 14.531250
Gbest: 19.000000
Expectation: 15.755136
Final Parameters:
Gammas:
[ 4.110623 2.089643 4.249216 3.632422 ]
Betas:
[ 1.953125 2.060991 2.155610 1.069069 ]
Aggregate results:
[ 21 17 15 13 11 19 0 ]
[ 0.000054 0.444310 0.361195 0.106484 0.011026 0.067223 0.009709 ]
3
Num Evals 1931
GenUC: 4.634826e-05
GenUB: 2.688903e-06
Optimisation 1.352204e+00
Total Time: 1.352255e+00
5 Add/Rem 5
Graph 1:
0 0 1 0 1 
1 0 1 0 0 
0 0 0 0 0 
0 0 1 0 1 
1 1 0 1 0 
Graph 2:
0 0 0 0 1 
1 0 0 0 0 
1 1 0 1 0 
1 0 1 0 0 
1 0 0 0 0 
Solution: 20 5
Classic Expectation: 15.200000
Initial Expecation: 14.250000
Gbest: 20.000000
Expectation: 15.740829
Final Parameters:
Gammas:
[ 5.010208 4.572736 3.236026 3.372401 ]
Betas:
[ 0.968506 1.446262 2.322678 1.030558 ]
Aggregate results:
[ 16 12 14 18 20 10 0 ]
[ 0.391690 0.107481 0.173467 0.264588 0.042531 0.014226 0.006016 ]
3
Num Evals 905
GenUC: 4.652963e-05
GenUB: 2.583838e-06
Optimisation 5.280228e-01
Total Time: 5.280745e-01
