Clock Speed: 3.688900
Num threads: 4
Trotterisation: 5
Graph Size: 3
Num Qubits: 3
Space Dimension: 8
Run-Type: 0
Num_samples: 10
1 Isomorphic
Graph 1:
1 0 0 
1 0 1 
0 0 1 
Graph 2:
1 0 0 
1 0 1 
0 0 1 
Solution: 0 0
Gbest: 0.000000
Expectation: -0.150992
Final Parameters:
Gammas:
[ 3.311000 3.063863 1.608185 3.395897 3.092576 ]
Betas:
[ 0.000000 1.532020 0.908816 1.873628 1.225237 1.174382 ]
Aggregate results:
[ -1 5 8 ]
[ 0.977321 0.017707 0.004972 ]
5
Num Evals 300
GenUC: 1.211433e-04
GenUB: 7.719267e-06
Optimisation 7.813161e-02
Total Time: 7.853452e-02
2 Flipped
Graph 1:
1 0 0 
1 0 1 
0 0 1 
Graph 2:
0 0 1 
1 0 1 
1 0 0 
Solution: -4 0
Gbest: -4.000000
Expectation: -4.148404
Final Parameters:
Gammas:
[ 4.098381 3.141224 3.535927 3.219810 2.641029 ]
Betas:
[ 1.554497 1.371796 0.288805 1.127893 1.785731 2.074481 ]
Aggregate results:
[ 3 5 8 ]
[ 0.930147 0.066954 0.002899 ]
5
Num Evals 600
GenUC: 6.731600e-06
GenUB: 5.523325e-06
Optimisation 1.008679e-01
Total Time: 1.011630e-01
3 Add 3
Graph 1:
1 0 0 
1 0 1 
0 0 1 
Graph 2:
1 1 0 
1 1 1 
0 1 1 
Solution: -3 0
Gbest: -3.000000
Expectation: -3.160983
Final Parameters:
Gammas:
[ 2.206222 2.870661 3.921733 3.656667 3.041475 ]
Betas:
[ 0.573256 1.127560 1.661250 1.137119 1.414581 1.035566 ]
Aggregate results:
[ 2 4 8 ]
[ 0.935129 0.057060 0.007810 ]
5
Num Evals 900
GenUC: 8.458621e-06
GenUB: 5.668844e-06
Optimisation 8.479902e-02
Total Time: 8.509013e-02
4 Rem 3
Graph 1:
1 0 0 
1 0 1 
0 0 1 
Graph 2:
0 0 0 
0 0 0 
0 0 1 
Solution: -3 0
Gbest: -3.000000
Expectation: -3.000000
Final Parameters:
Gammas:
[ 3.283945 2.804771 3.200660 3.260536 3.247237 ]
Betas:
[ 0.245772 1.596202 1.739669 1.616685 1.851541 1.885180 ]
Aggregate results:
[ 2 4 8 ]
[ 1.000000 0.000000 0.000000 ]
3
Num Evals 1152
GenUC: 6.844872e-06
GenUB: 5.651149e-06
Optimisation 7.470439e-02
Total Time: 7.500236e-02
5 Add/Rem 3
Graph 1:
1 0 0 
1 0 1 
0 0 1 
Graph 2:
0 1 0 
1 0 0 
0 1 1 
Solution: -4 0
Gbest: -4.000000
Expectation: -4.000000
Final Parameters:
Gammas:
[ 2.798567 3.361800 2.531934 2.243526 2.767072 ]
Betas:
[ 0.116403 1.530721 2.537500 1.580472 1.853496 1.585964 ]
Aggregate results:
[ 3 5 8 ]
[ 1.000000 0.000000 0.000000 ]
3
Num Evals 1304
GenUC: 6.222283e-06
GenUB: 5.273847e-06
Optimisation 4.512020e-02
Total Time: 4.542796e-02
