Clock Speed: 3.688977
Num threads: 4
Trotterisation: 2
Graph Size: 6
Num Qubits: 10
Space Dimension: 1024
Run-Type: 0
Num_samples: 10
1 Isomorphic
Graph 1:
0 0 0 0 0 0 
0 0 0 0 0 1 
0 0 0 0 1 1 
0 0 0 0 1 1 
0 1 0 0 1 0 
1 1 0 1 1 0 
Graph 2:
0 0 0 0 0 0 
0 0 0 0 0 1 
0 0 0 0 1 1 
0 0 0 0 1 1 
0 1 0 0 1 0 
1 1 0 1 1 0 
Solution: 0 0
Gbest: -12.000000
Expectation: -15.489898
Final Parameters:
Gammas:
[ 0.381937 5.479393 ]
Betas:
[ 2.177269 2.597944 3.075974 ]
Aggregate results:
[ -1 3 7 5 1 9 11 13 15 17 19 21 35 ]
[ 0.010207 0.022378 0.066703 0.047374 0.010137 0.064982 0.158267 0.175764 0.162892 0.141157 0.031379 0.009822 0.098938 ]
5
Num Evals 600
GenUC: 2.767614e-04
GenUB: 1.952788e-04
Optimisation 8.939724e-01
Total Time: 8.960252e-01
2 Flipped
Graph 1:
0 0 0 0 0 0 
0 0 0 0 0 1 
0 0 0 0 1 1 
0 0 0 0 1 1 
0 1 0 0 1 0 
1 1 0 1 1 0 
Graph 2:
0 0 0 0 0 0 
1 0 0 0 0 0 
1 1 0 0 0 0 
1 1 0 0 0 0 
0 1 0 0 1 0 
0 1 1 0 1 1 
Solution: -10 39
Gbest: -14.000000
Expectation: -20.363127
Final Parameters:
Gammas:
[ 0.839458 0.325581 ]
Betas:
[ 3.141593 0.583568 0.000000 ]
Aggregate results:
[ 13 15 11 9 17 19 21 35 ]
[ 0.250086 0.207294 0.099025 0.018150 0.132374 0.043193 0.004770 0.245108 ]
5
Num Evals 1200
GenUC: 1.196183e-04
GenUB: 1.551267e-04
Optimisation 5.387723e-01
Total Time: 5.399470e-01
3 Add 6
Graph 1:
0 0 0 0 0 0 
0 0 0 0 0 1 
0 0 0 0 1 1 
0 0 0 0 1 1 
0 1 0 0 1 0 
1 1 0 1 1 0 
Graph 2:
0 0 1 1 0 0 
0 0 0 0 0 1 
1 0 0 0 1 1 
0 1 1 0 1 1 
0 1 0 0 1 1 
1 1 0 1 1 0 
Solution: -6 0
Gbest: -16.000000
Expectation: -18.649183
Final Parameters:
Gammas:
[ 0.284231 6.224583 ]
Betas:
[ 1.935925 2.626517 0.949554 ]
Aggregate results:
[ 5 9 13 11 7 15 17 21 19 23 35 ]
[ 0.001000 0.013727 0.138540 0.066275 0.001002 0.175764 0.252595 0.072910 0.189619 0.015062 0.073506 ]
5
Num Evals 1800
GenUC: 1.321426e-04
GenUB: 1.676956e-04
Optimisation 7.810781e-01
Total Time: 7.826918e-01
4 Rem 6
Graph 1:
0 0 0 0 0 0 
0 0 0 0 0 1 
0 0 0 0 1 1 
0 0 0 0 1 1 
0 1 0 0 1 0 
1 1 0 1 1 0 
Graph 2:
0 0 0 0 0 0 
0 0 0 0 0 0 
0 0 0 0 0 0 
0 0 0 0 0 1 
0 1 0 0 1 0 
1 1 0 1 0 0 
Solution: -5 0
Gbest: -9.000000
Expectation: -13.566730
Final Parameters:
Gammas:
[ 2.934444 4.364794 ]
Betas:
[ 2.153200 2.004943 1.497399 ]
Aggregate results:
[ 4 6 8 10 12 14 16 35 ]
[ 0.004385 0.046946 0.112736 0.221362 0.265170 0.236719 0.067788 0.044894 ]
5
Num Evals 2400
GenUC: 9.627736e-05
GenUB: 1.732730e-04
Optimisation 7.546656e-01
Total Time: 7.562508e-01
5 Add/Rem 6
Graph 1:
0 0 0 0 0 0 
0 0 0 0 0 1 
0 0 0 0 1 1 
0 0 0 0 1 1 
0 1 0 0 1 0 
1 1 0 1 1 0 
Graph 2:
0 0 0 1 0 1 
0 1 0 0 0 0 
0 0 1 0 1 1 
0 1 0 0 1 1 
1 1 0 0 1 0 
0 0 0 0 1 0 
Solution: -8 1
Gbest: -12.000000
Expectation: -16.792969
Final Parameters:
Gammas:
[ 6.023048 5.921065 ]
Betas:
[ 2.129771 2.567340 0.179632 ]
Aggregate results:
[ 9 7 11 13 15 17 19 21 23 35 ]
[ 0.045192 0.007767 0.162985 0.221605 0.271363 0.137769 0.056540 0.014636 0.000916 0.081228 ]
5
Num Evals 3000
GenUC: 1.296104e-04
GenUB: 1.672731e-04
Optimisation 7.093868e-01
Total Time: 7.108609e-01
