Clock Speed: 3.688972
Num threads: 4
Trotterisation: 2
Graph Size: 3
Num Qubits: 3
Space Dimension: 8
Run-Type: 0
Num_samples: 10
1 Isomorphic
Graph 1:
0 0 1 
0 0 1 
0 1 1 
Graph 2:
0 0 1 
0 0 1 
0 1 1 
Solution: 0 0
Gbest: 0.000000
Expectation: -2.144624
Final Parameters:
Gammas:
[ 0.273037 1.380157 ]
Betas:
[ 2.161250 0.629017 1.708359 ]
Aggregate results:
[ -1 1 5 3 7 8 ]
[ 0.467020 0.289355 0.106727 0.046867 0.072198 0.017834 ]
5
Num Evals 300
GenUC: 1.268979e-04
GenUB: 8.304371e-06
Optimisation 4.193912e-02
Total Time: 4.224175e-02
2 Flipped
Graph 1:
0 0 1 
0 0 1 
0 1 1 
Graph 2:
1 0 0 
1 0 0 
1 1 0 
Solution: -2 4
Gbest: -2.000000
Expectation: -3.158689
Final Parameters:
Gammas:
[ 5.859780 5.743372 ]
Betas:
[ 0.040266 0.540936 0.381349 ]
Aggregate results:
[ 5 3 1 8 ]
[ 0.036629 0.276912 0.620980 0.065478 ]
5
Num Evals 600
GenUC: 6.555580e-06
GenUB: 5.519250e-06
Optimisation 4.217304e-02
Total Time: 4.228099e-02
3 Add 3
Graph 1:
0 0 1 
0 0 1 
0 1 1 
Graph 2:
1 0 1 
1 1 1 
0 1 1 
Solution: -3 0
Gbest: -3.000000
Expectation: -3.533587
Final Parameters:
Gammas:
[ 3.399270 0.572970 ]
Betas:
[ 1.414022 2.248537 2.656043 ]
Aggregate results:
[ 2 4 6 8 ]
[ 0.762374 0.220080 0.005924 0.011622 ]
5
Num Evals 900
GenUC: 6.138347e-06
GenUB: 5.464652e-06
Optimisation 4.312282e-02
Total Time: 4.330024e-02
4 Rem 3
Graph 1:
0 0 1 
0 0 1 
0 1 1 
Graph 2:
0 0 0 
0 0 0 
0 0 1 
Solution: -3 0
Gbest: -3.000000
Expectation: -3.373705
Final Parameters:
Gammas:
[ 1.187923 4.735352 ]
Betas:
[ 2.336862 0.820063 2.435061 ]
Aggregate results:
[ 2 4 8 ]
[ 0.894516 0.064800 0.040684 ]
5
Num Evals 1200
GenUC: 6.190501e-06
GenUB: 5.510985e-06
Optimisation 5.475431e-02
Total Time: 5.492542e-02
5 Add/Rem 3
Graph 1:
0 0 1 
0 0 1 
0 1 1 
Graph 2:
0 1 1 
1 0 0 
0 0 1 
Solution: -4 0
Gbest: -4.000000
Expectation: -4.194363
Final Parameters:
Gammas:
[ 6.005265 6.238760 ]
Betas:
[ 0.874567 2.730875 1.002019 ]
Aggregate results:
[ 3 5 8 ]
[ 0.934661 0.044110 0.021228 ]
5
Num Evals 1500
GenUC: 8.652336e-06
GenUB: 5.620765e-06
Optimisation 4.350864e-02
Total Time: 4.366936e-02
