Clock Speed: 3.689253
Num threads: 4
Trotterisation: 2
Graph Size: 3
Num Qubits: 3
Space Dimension: 8
Run-Type: 0
Num_samples: 10
1 Isomorphic
Graph 1:
0 1 1 
0 0 0 
1 0 0 
Graph 2:
0 1 1 
0 0 0 
1 0 0 
Solution: 0 0
Gbest: 0.000000
Expectation: -2.257584
Final Parameters:
Gammas:
[ 6.062810 4.095063 ]
Betas:
[ 1.767332 1.859059 1.178190 ]
Aggregate results:
[ -1 5 3 1 8 ]
[ 0.462358 0.018959 0.216697 0.205834 0.096153 ]
5
Num Evals 300
GenUC: 1.366881e-04
GenUB: 7.946364e-06
Optimisation 4.180114e-02
Total Time: 4.211649e-02
2 Flipped
Graph 1:
0 1 1 
0 0 0 
1 0 0 
Graph 2:
1 1 0 
0 0 0 
0 0 1 
Solution: -4 0
Gbest: -4.000000
Expectation: -4.405016
Final Parameters:
Gammas:
[ 5.699830 4.776782 ]
Betas:
[ 0.608788 0.064485 2.567944 ]
Aggregate results:
[ 3 5 8 ]
[ 0.836312 0.137807 0.025880 ]
5
Num Evals 600
GenUC: 6.907096e-06
GenUB: 5.443493e-06
Optimisation 4.087598e-02
Total Time: 4.101361e-02
3 Add 3
Graph 1:
0 1 1 
0 0 0 
1 0 0 
Graph 2:
0 1 1 
0 1 0 
1 1 1 
Solution: -3 0
Gbest: -3.000000
Expectation: -4.070606
Final Parameters:
Gammas:
[ 3.405726 5.117111 ]
Betas:
[ 2.303212 2.749059 3.033782 ]
Aggregate results:
[ 2 6 4 8 ]
[ 0.556558 0.022347 0.386338 0.034756 ]
5
Num Evals 900
GenUC: 6.246293e-06
GenUB: 5.374866e-06
Optimisation 4.259008e-02
Total Time: 4.278726e-02
4 Rem 3
Graph 1:
0 1 1 
0 0 0 
1 0 0 
Graph 2:
0 1 0 
0 0 0 
0 0 0 
Solution: -2 0
Gbest: -2.000000
Expectation: -2.364432
Final Parameters:
Gammas:
[ 6.085934 2.433975 ]
Betas:
[ 2.203893 0.555571 0.286620 ]
Aggregate results:
[ 1 3 8 ]
[ 0.905706 0.059126 0.035169 ]
5
Num Evals 1200
GenUC: 6.147136e-06
GenUB: 5.351962e-06
Optimisation 5.352741e-02
Total Time: 5.366890e-02
5 Add/Rem 3
Graph 1:
0 1 1 
0 0 0 
1 0 0 
Graph 2:
1 0 1 
1 0 1 
0 0 0 
Solution: -3 1
Gbest: -3.000000
Expectation: -3.330057
Final Parameters:
Gammas:
[ 5.979724 4.052863 ]
Betas:
[ 0.787857 0.361608 2.939519 ]
Aggregate results:
[ 4 2 8 ]
[ 0.082666 0.889880 0.027454 ]
5
Num Evals 1500
GenUC: 8.637668e-06
GenUB: 5.568494e-06
Optimisation 4.491917e-02
Total Time: 4.507554e-02
