Clock Speed: 3.498813
Num threads: 16
Trotterisation: 4
Num Qubits: 10
Space Dimension: 1024
Run-Type: 0
Num_samples: 36
Optimiser Method: 29
1 Isomorphic
Graph 1:
0 0 1 1 0 1 
0 1 1 1 0 0 
0 0 0 0 1 1 
0 1 1 1 1 1 
1 1 0 1 0 0 
1 1 0 1 0 0 
Graph 2:
0 0 1 1 0 1 
0 1 1 1 0 0 
0 0 0 0 1 1 
0 1 1 1 1 1 
1 1 0 1 0 0 
1 1 0 1 0 0 
Solution: 36 0
Classic Expectation: 18.600000
Initial Expecation: 13.078125
Gbest: 26.000000
Expectation: 15.508203
Final Parameters:
Gammas:
[ 4.410691 3.319920 3.072277 4.112665 ]
Betas:
[ 2.304428 2.886199 1.140251 2.395774 ]
Aggregate results:
[ 36 34 20 22 26 24 16 18 14 30 28 12 10 8 0 ]
[ 0.000588 0.000042 0.184927 0.097703 0.025706 0.057143 0.130941 0.223147 0.075930 0.000340 0.009408 0.010182 0.001341 0.001734 0.180868 ]
3
Num Evals 3666
GenUC: 2.864390e-04
GenUB: 1.706951e-04
Optimisation 1.712724e+01
Total Time: 1.712771e+01
2 Flipped
Graph 1:
0 0 1 1 0 1 
0 1 1 1 0 0 
0 0 0 0 1 1 
0 1 1 1 1 1 
1 1 0 1 0 0 
1 1 0 1 0 0 
Graph 2:
1 0 1 1 0 0 
0 0 1 1 1 0 
1 1 0 0 0 0 
1 1 1 1 1 0 
0 0 1 0 1 1 
0 0 1 0 1 1 
Solution: 26 472
Classic Expectation: 17.666667
Initial Expecation: 12.421875
Gbest: 22.000000
Expectation: 16.615581
Final Parameters:
Gammas:
[ 5.072649 6.283185 4.261042 3.329179 ]
Betas:
[ 2.039660 1.114138 1.111314 1.775035 ]
Aggregate results:
[ 14 18 20 16 22 12 10 24 8 26 0 ]
[ 0.081589 0.284255 0.211838 0.180808 0.118585 0.013706 0.003155 0.014347 0.000497 0.002841 0.088379 ]
3
Num Evals 915
GenUC: 3.577177e-04
GenUB: 1.434539e-04
Optimisation 3.522956e+00
Total Time: 3.523460e+00
3 Add 6
Graph 1:
0 0 1 1 0 1 
0 1 1 1 0 0 
0 0 0 0 1 1 
0 1 1 1 1 1 
1 1 0 1 0 0 
1 1 0 1 0 0 
Graph 2:
0 1 1 1 0 1 
0 1 1 1 0 0 
0 0 1 0 1 1 
1 1 1 1 1 1 
1 1 0 1 0 1 
1 1 0 1 1 0 
Solution: 31 0
Classic Expectation: 18.800000
Initial Expecation: 13.218750
Gbest: 25.000000
Expectation: 16.558311
Final Parameters:
Gammas:
[ 4.700597 5.176309 3.385911 2.991546 ]
Betas:
[ 2.929511 0.868606 1.738684 1.656748 ]
Aggregate results:
[ 31 29 21 23 19 15 17 25 27 13 11 0 ]
[ 0.000766 0.000171 0.240865 0.156413 0.190248 0.070078 0.098151 0.040234 0.008947 0.019843 0.003100 0.171183 ]
3
Num Evals 3121
GenUC: 3.588577e-04
GenUB: 1.350986e-04
Optimisation 1.289700e+01
Total Time: 1.289750e+01
4 Rem 6
Graph 1:
0 0 1 1 0 1 
0 1 1 1 0 0 
0 0 0 0 1 1 
0 1 1 1 1 1 
1 1 0 1 0 0 
1 1 0 1 0 0 
Graph 2:
0 0 1 1 0 0 
0 1 1 1 0 0 
0 0 0 0 0 1 
0 0 1 1 1 1 
1 1 0 0 0 0 
0 1 0 1 0 0 
Solution: 31 0
Classic Expectation: 17.933333
Initial Expecation: 12.609375
Gbest: 25.000000
Expectation: 17.387689
Final Parameters:
Gammas:
[ 6.203993 6.157948 2.003839 0.221498 ]
Betas:
[ 1.014828 1.873560 1.546226 1.530421 ]
Aggregate results:
[ 31 17 19 21 25 23 15 13 11 27 29 9 0 ]
[ 0.002461 0.184873 0.215412 0.172307 0.045264 0.108229 0.110377 0.044752 0.012317 0.014217 0.002217 0.001706 0.085868 ]
3
Num Evals 2994
GenUC: 3.581923e-04
GenUB: 1.285332e-04
Optimisation 1.135923e+01
Total Time: 1.135972e+01
5 Add/Rem 6
Graph 1:
0 0 1 1 0 1 
0 1 1 1 0 0 
0 0 0 0 1 1 
0 1 1 1 1 1 
1 1 0 1 0 0 
1 1 0 1 0 0 
Graph 2:
0 0 1 1 1 0 
0 0 1 1 0 0 
0 1 1 0 1 0 
0 1 1 1 1 0 
1 0 1 1 0 0 
1 0 0 1 1 0 
Solution: 27 1
Classic Expectation: 18.466667
Initial Expecation: 12.984375
Gbest: 25.000000
Expectation: 17.810097
Final Parameters:
Gammas:
[ 6.035212 3.411290 3.391052 6.166194 ]
Betas:
[ 2.240734 1.434159 1.627707 1.684017 ]
Aggregate results:
[ 25 27 17 19 15 21 23 13 11 0 ]
[ 0.036242 0.004024 0.134246 0.205908 0.053752 0.239342 0.179897 0.039190 0.011037 0.096362 ]
5
Num Evals 4800
GenUC: 3.585350e-04
GenUB: 1.140442e-04
Optimisation 1.990732e+01
Total Time: 1.990779e+01
