Clock Speed: 3.689140
Num threads: 4
Trotterisation: 4
Num Qubits: 10
Space Dimension: 1024
Run-Type: 0
Num_samples: 32399
Optimiser Method: 29
1 Isomorphic
Graph 1:
0 1 1 1 0 0 
1 0 1 0 1 0 
1 0 0 1 1 0 
0 0 1 0 1 1 
1 1 1 1 1 1 
0 0 0 0 1 0 
Graph 2:
0 1 1 1 0 0 
1 0 1 0 1 0 
1 0 0 1 1 0 
0 0 1 0 1 1 
1 1 1 1 1 1 
0 0 0 0 1 0 
Solution: 36 0
Classic Expectation: 19.933333
Initial Expecation: 14.015625
Gbest: 36.000000
Expectation: 20.076327
Final Parameters:
Gammas:
[ 4.837787 4.610864 3.070191 3.155964 ]
Betas:
[ 3.064956 0.792599 1.770968 1.153138 ]
Aggregate results:
[ 36 22 24 20 28 30 18 16 26 14 12 10 0 ]
[ 0.002826 0.237888 0.121922 0.231121 0.030037 0.012915 0.160106 0.068172 0.060522 0.024574 0.005921 0.000270 0.043726 ]
3
Num Evals 1621
GenUC: 2.587936e-04
GenUB: 2.400769e-04
Optimisation 3.867890e+00
Total Time: 3.868409e+00
2 Flipped
Graph 1:
0 1 1 1 0 0 
1 0 1 0 1 0 
1 0 0 1 1 0 
0 0 1 0 1 1 
1 1 1 1 1 1 
0 0 0 0 1 0 
Graph 2:
0 0 1 1 1 0 
0 1 0 1 0 1 
0 1 1 0 0 1 
1 1 0 1 0 0 
1 1 1 1 1 1 
0 1 0 0 0 0 
Solution: 26 62
Classic Expectation: 17.333333
Initial Expecation: 12.187500
Gbest: 26.000000
Expectation: 16.170384
Final Parameters:
Gammas:
[ 6.283185 5.885404 3.225101 4.322929 ]
Betas:
[ 0.363813 2.605929 1.909895 1.508697 ]
Aggregate results:
[ 14 10 16 12 20 18 22 24 26 0 ]
[ 0.055356 0.009449 0.083116 0.028931 0.261041 0.177269 0.152351 0.049578 0.025793 0.157115 ]
3
Num Evals 1692
GenUC: 2.991161e-04
GenUB: 5.152376e-05
Optimisation 4.298503e+00
Total Time: 4.298856e+00
3 Add 6
Graph 1:
0 1 1 1 0 0 
1 0 1 0 1 0 
1 0 0 1 1 0 
0 0 1 0 1 1 
1 1 1 1 1 1 
0 0 0 0 1 0 
Graph 2:
0 1 1 1 0 0 
1 1 1 1 1 1 
1 0 0 1 1 0 
0 0 1 0 1 1 
1 1 1 1 1 1 
0 0 1 1 1 1 
Solution: 30 0
Classic Expectation: 19.400000
Initial Expecation: 13.640625
Gbest: 30.000000
Expectation: 18.181459
Final Parameters:
Gammas:
[ 2.747277 5.606409 4.023495 2.981444 ]
Betas:
[ 2.804469 2.972405 1.460703 1.767831 ]
Aggregate results:
[ 30 24 22 20 26 18 16 14 12 0 ]
[ 0.005352 0.118563 0.345081 0.121230 0.091575 0.050596 0.089273 0.029299 0.002398 0.146633 ]
3
Num Evals 1128
GenUC: 2.805718e-04
GenUB: 5.138293e-05
Optimisation 3.377660e+00
Total Time: 3.377994e+00
4 Rem 6
Graph 1:
0 1 1 1 0 0 
1 0 1 0 1 0 
1 0 0 1 1 0 
0 0 1 0 1 1 
1 1 1 1 1 1 
0 0 0 0 1 0 
Graph 2:
0 1 1 1 0 0 
1 0 0 0 1 0 
0 0 0 0 1 0 
0 0 1 0 0 1 
1 0 1 1 1 1 
0 0 0 0 1 0 
Solution: 31 0
Classic Expectation: 18.933333
Initial Expecation: 13.312500
Gbest: 31.000000
Expectation: 19.199824
Final Parameters:
Gammas:
[ 6.218762 6.197341 4.705591 4.830631 ]
Betas:
[ 1.146428 2.469797 3.141593 2.485816 ]
Aggregate results:
[ 31 19 21 17 25 29 27 23 15 13 11 0 ]
[ 0.001895 0.265641 0.210727 0.169385 0.066670 0.006533 0.023277 0.131789 0.069011 0.016362 0.002308 0.036402 ]
3
Num Evals 2164
GenUC: 2.816094e-04
GenUB: 5.103729e-05
Optimisation 6.429210e+00
Total Time: 6.429545e+00
5 Add/Rem 6
Graph 1:
0 1 1 1 0 0 
1 0 1 0 1 0 
1 0 0 1 1 0 
0 0 1 0 1 1 
1 1 1 1 1 1 
0 0 0 0 1 0 
Graph 2:
0 0 0 1 0 0 
1 1 1 0 0 0 
1 1 0 0 1 0 
1 0 1 1 1 1 
1 1 1 1 1 1 
0 0 0 0 1 1 
Solution: 29 144
Classic Expectation: 17.533333
Initial Expecation: 12.328125
Gbest: 27.000000
Expectation: 15.950312
Final Parameters:
Gammas:
[ 6.283185 5.898957 6.133793 6.217789 ]
Betas:
[ 0.005078 2.899333 2.655821 0.533873 ]
Aggregate results:
[ 27 17 21 23 15 19 13 25 11 29 9 0 ]
[ 0.004188 0.144228 0.191844 0.093388 0.059767 0.250016 0.043241 0.022375 0.033499 0.000038 0.007865 0.149550 ]
3
Num Evals 2437
GenUC: 2.806675e-04
GenUB: 4.902799e-05
Optimisation 4.802931e+00
Total Time: 4.803263e+00
