Clock Speed: 3.498795
Num threads: 16
Trotterisation: 4
Num Qubits: 10
Space Dimension: 1024
Run-Type: 0
Num_samples: 36
Optimiser Method: 29
1 Isomorphic
Graph 1:
0 0 1 0 0 0 
0 1 1 1 0 0 
0 1 1 1 1 1 
1 0 0 0 1 0 
1 1 1 0 0 1 
0 0 0 1 0 0 
Graph 2:
0 0 1 0 0 0 
0 1 1 1 0 0 
0 1 1 1 1 1 
1 0 0 0 1 0 
1 1 1 0 0 1 
0 0 0 1 0 0 
Solution: 36 0
Classic Expectation: 18.400000
Initial Expecation: 12.937500
Gbest: 24.000000
Expectation: 15.002494
Final Parameters:
Gammas:
[ 6.283185 4.698604 4.765068 5.204991 ]
Betas:
[ 0.326698 2.713703 1.058463 1.789030 ]
Aggregate results:
[ 36 24 28 26 20 18 14 30 22 16 12 32 10 8 0 ]
[ 0.000083 0.038305 0.005574 0.020057 0.138294 0.235745 0.096945 0.000670 0.129441 0.105594 0.033162 0.000299 0.004048 0.003852 0.187931 ]
3
Num Evals 2021
GenUC: 3.290023e-04
GenUB: 1.408206e-04
Optimisation 7.510653e+00
Total Time: 7.511133e+00
2 Flipped
Graph 1:
0 0 1 0 0 0 
0 1 1 1 0 0 
0 1 1 1 1 1 
1 0 0 0 1 0 
1 1 1 0 0 1 
0 0 0 1 0 0 
Graph 2:
0 0 0 1 0 0 
0 0 1 1 1 0 
1 1 1 1 1 0 
0 1 0 0 0 1 
1 0 0 1 1 1 
0 0 1 0 0 0 
Solution: 30 713
Classic Expectation: 18.400000
Initial Expecation: 12.937500
Gbest: 26.000000
Expectation: 15.225497
Final Parameters:
Gammas:
[ 3.947811 2.951801 4.108034 2.153460 ]
Betas:
[ 2.734452 0.591377 2.090563 1.410458 ]
Aggregate results:
[ 20 22 24 18 26 16 14 12 28 8 10 30 0 ]
[ 0.167450 0.102048 0.060209 0.179436 0.017712 0.181520 0.067299 0.028692 0.005609 0.005613 0.009780 0.000183 0.174449 ]
3
Num Evals 2837
GenUC: 3.638975e-04
GenUB: 1.299214e-04
Optimisation 1.138128e+01
Total Time: 1.138178e+01
3 Add 6
Graph 1:
0 0 1 0 0 0 
0 1 1 1 0 0 
0 1 1 1 1 1 
1 0 0 0 1 0 
1 1 1 0 0 1 
0 0 0 1 0 0 
Graph 2:
0 0 1 0 0 0 
0 1 1 1 0 0 
1 1 1 1 1 1 
1 1 1 0 1 0 
1 1 1 0 0 1 
1 1 0 1 0 0 
Solution: 31 0
Classic Expectation: 18.066667
Initial Expecation: 12.703125
Gbest: 23.000000
Expectation: 17.207551
Final Parameters:
Gammas:
[ 4.719080 4.604326 1.627540 1.395457 ]
Betas:
[ 0.000431 2.422211 3.065524 1.200200 ]
Aggregate results:
[ 31 23 27 29 21 19 17 15 25 13 11 9 0 ]
[ 0.000717 0.098147 0.008123 0.001448 0.170237 0.231726 0.173212 0.137441 0.021811 0.070603 0.019109 0.001037 0.066389 ]
3
Num Evals 1802
GenUC: 3.632233e-04
GenUB: 1.283344e-04
Optimisation 6.965715e+00
Total Time: 6.966209e+00
4 Rem 6
Graph 1:
0 0 1 0 0 0 
0 1 1 1 0 0 
0 1 1 1 1 1 
1 0 0 0 1 0 
1 1 1 0 0 1 
0 0 0 1 0 0 
Graph 2:
0 0 1 0 0 0 
0 1 1 0 0 0 
0 1 1 1 0 1 
0 0 0 0 0 0 
1 1 1 0 0 0 
0 0 0 1 0 0 
Solution: 31 0
Classic Expectation: 18.733333
Initial Expecation: 13.171875
Gbest: 27.000000
Expectation: 16.724742
Final Parameters:
Gammas:
[ 6.283185 6.194612 4.225065 4.080979 ]
Betas:
[ 0.373374 2.843337 1.510986 1.652573 ]
Aggregate results:
[ 31 23 25 27 29 17 19 21 15 13 11 0 ]
[ 0.002660 0.087991 0.047384 0.018565 0.003373 0.146610 0.215132 0.213546 0.083201 0.038317 0.002212 0.141009 ]
3
Num Evals 1024
GenUC: 3.644433e-04
GenUB: 1.277714e-04
Optimisation 3.931597e+00
Total Time: 3.932091e+00
5 Add/Rem 6
Graph 1:
0 0 1 0 0 0 
0 1 1 1 0 0 
0 1 1 1 1 1 
1 0 0 0 1 0 
1 1 1 0 0 1 
0 0 0 1 0 0 
Graph 2:
1 0 1 1 0 0 
0 0 1 1 0 1 
1 1 0 1 1 1 
1 0 0 0 0 1 
0 0 0 0 0 1 
1 0 0 1 0 0 
Solution: 26 4
Classic Expectation: 18.666667
Initial Expecation: 13.125000
Gbest: 24.000000
Expectation: 17.219910
Final Parameters:
Gammas:
[ 5.741608 3.926536 3.502417 2.858264 ]
Betas:
[ 3.141593 2.473168 1.750880 1.549799 ]
Aggregate results:
[ 24 20 22 26 18 16 14 12 10 0 ]
[ 0.149524 0.233585 0.184736 0.010709 0.147089 0.082127 0.033643 0.010351 0.006018 0.142219 ]
3
Num Evals 2095
GenUC: 3.654324e-04
GenUB: 1.204549e-04
Optimisation 9.811826e+00
Total Time: 9.812314e+00
