Clock Speed: 3.688899
Num threads: 4
Trotterisation: 4
Num Qubits: 10
Space Dimension: 1024
Run-Type: 0
Num_samples: 32399
Optimiser Method: 29
1 Isomorphic
Graph 1:
1 1 0 1 0 0 
1 0 0 0 0 1 
0 1 0 0 1 0 
1 1 0 0 0 1 
1 0 0 0 1 1 
1 0 1 0 0 1 
Graph 2:
1 1 0 1 0 0 
1 0 0 0 0 1 
0 1 0 0 1 0 
1 1 0 0 0 1 
1 0 0 0 1 1 
1 0 1 0 0 1 
Solution: 36 0
Classic Expectation: 18.266667
Initial Expecation: 12.843750
Gbest: 36.000000
Expectation: 18.704449
Final Parameters:
Gammas:
[ 3.218515 4.927819 2.799981 4.539993 ]
Betas:
[ 2.213066 1.472144 1.561752 1.384634 ]
Aggregate results:
[ 36 26 28 20 22 24 14 18 16 32 30 12 10 8 0 ]
[ 0.000406 0.033634 0.015683 0.266001 0.248451 0.108166 0.040298 0.116263 0.052719 0.002581 0.000528 0.026978 0.005989 0.001481 0.080823 ]
3
Num Evals 1497
GenUC: 2.600998e-04
GenUB: 8.832687e-05
Optimisation 5.408582e+00
Total Time: 5.408957e+00
2 Flipped
Graph 1:
1 1 0 1 0 0 
1 0 0 0 0 1 
0 1 0 0 1 0 
1 1 0 0 0 1 
1 0 0 0 1 1 
1 0 1 0 0 1 
Graph 2:
0 0 1 0 1 1 
1 0 0 0 0 1 
0 1 0 0 1 0 
1 0 0 0 1 1 
1 1 0 0 0 1 
1 0 0 1 0 1 
Solution: 30 713
Classic Expectation: 18.000000
Initial Expecation: 12.656250
Gbest: 30.000000
Expectation: 17.063547
Final Parameters:
Gammas:
[ 3.472895 6.015053 3.211084 1.513940 ]
Betas:
[ 0.000000 2.420535 2.790743 1.410304 ]
Aggregate results:
[ 24 18 26 22 20 14 16 10 12 28 8 30 0 ]
[ 0.033702 0.229903 0.019036 0.127898 0.199467 0.096857 0.163421 0.010297 0.040133 0.006222 0.001689 0.002514 0.068863 ]
3
Num Evals 2949
GenUC: 2.793880e-04
GenUB: 5.057728e-05
Optimisation 1.696417e+01
Total Time: 1.696450e+01
3 Add 6
Graph 1:
1 1 0 1 0 0 
1 0 0 0 0 1 
0 1 0 0 1 0 
1 1 0 0 0 1 
1 0 0 0 1 1 
1 0 1 0 0 1 
Graph 2:
1 1 1 1 0 0 
1 1 0 0 0 1 
0 1 0 0 1 0 
1 1 0 1 0 1 
1 1 0 0 1 1 
1 0 1 0 0 1 
Solution: 32 0
Classic Expectation: 18.000000
Initial Expecation: 12.656250
Gbest: 32.000000
Expectation: 15.006193
Final Parameters:
Gammas:
[ 4.451551 5.732322 3.132619 3.887589 ]
Betas:
[ 2.287833 1.634246 1.314891 2.491240 ]
Aggregate results:
[ 32 22 28 20 18 24 16 14 26 12 10 8 0 ]
[ 0.000708 0.069410 0.004325 0.194157 0.231500 0.035739 0.132391 0.109097 0.008944 0.042910 0.003417 0.000036 0.167366 ]
3
Num Evals 2761
GenUC: 2.817055e-04
GenUB: 5.132431e-05
Optimisation 9.073460e+00
Total Time: 9.073796e+00
4 Rem 6
Graph 1:
1 1 0 1 0 0 
1 0 0 0 0 1 
0 1 0 0 1 0 
1 1 0 0 0 1 
1 0 0 0 1 1 
1 0 1 0 0 1 
Graph 2:
0 1 0 1 0 0 
1 0 0 0 0 0 
0 0 0 0 1 0 
1 1 0 0 0 1 
1 0 0 0 1 0 
1 0 1 0 0 1 
Solution: 32 0
Classic Expectation: 18.666667
Initial Expecation: 13.125000
Gbest: 32.000000
Expectation: 15.146335
Final Parameters:
Gammas:
[ 5.569244 3.141411 2.768922 5.133160 ]
Betas:
[ 3.141593 2.813708 1.227509 1.697829 ]
Aggregate results:
[ 32 26 24 20 22 18 16 30 14 12 0 ]
[ 0.000776 0.010270 0.070453 0.166492 0.160730 0.205407 0.096395 0.001210 0.060658 0.014378 0.213231 ]
3
Num Evals 626
GenUC: 2.797589e-04
GenUB: 5.294755e-05
Optimisation 6.776132e+00
Total Time: 6.776468e+00
5 Add/Rem 6
Graph 1:
1 1 0 1 0 0 
1 0 0 0 0 1 
0 1 0 0 1 0 
1 1 0 0 0 1 
1 0 0 0 1 1 
1 0 1 0 0 1 
Graph 2:
0 0 0 0 0 0 
1 0 0 0 1 1 
0 1 0 0 1 0 
1 0 1 0 0 1 
1 0 0 1 1 1 
1 0 1 0 1 0 
Solution: 27 0
Classic Expectation: 18.133333
Initial Expecation: 12.750000
Gbest: 27.000000
Expectation: 16.344901
Final Parameters:
Gammas:
[ 6.201368 5.286956 2.625639 4.472034 ]
Betas:
[ 2.476164 0.078031 1.489502 1.612163 ]
Aggregate results:
[ 27 21 23 19 25 17 15 11 13 9 0 ]
[ 0.008285 0.153303 0.086503 0.226173 0.015669 0.218602 0.119947 0.011903 0.043516 0.001244 0.114856 ]
3
Num Evals 927
GenUC: 2.793986e-04
GenUB: 4.965009e-05
Optimisation 1.915320e+00
Total Time: 1.915652e+00
