Clock Speed: 3.689357
Num threads: 4
Trotterisation: 4
Num Qubits: 10
Space Dimension: 1024
Run-Type: 0
Num_samples: 32399
Optimiser Method: 29
1 Isomorphic
Graph 1:
0 1 1 1 1 0 
0 0 1 1 1 0 
0 0 0 1 1 1 
0 1 1 0 1 1 
1 0 1 1 0 1 
0 1 0 1 1 1 
Graph 2:
0 1 1 1 1 0 
0 0 1 1 1 0 
0 0 0 1 1 1 
0 1 1 0 1 1 
1 0 1 1 0 1 
0 1 0 1 1 1 
Solution: 36 0
Classic Expectation: 21.733333
Initial Expecation: 15.281250
Gbest: 36.000000
Expectation: 21.461588
Final Parameters:
Gammas:
[ 4.899765 4.474864 3.194287 3.117207 ]
Betas:
[ 3.141593 2.273344 1.431664 2.030120 ]
Aggregate results:
[ 36 24 32 28 22 30 26 20 18 16 0 ]
[ 0.002530 0.218120 0.008076 0.029416 0.234249 0.008531 0.085703 0.211608 0.154076 0.025644 0.022046 ]
3
Num Evals 1278
GenUC: 2.603712e-04
GenUB: 9.053678e-05
Optimisation 3.356683e+00
Total Time: 3.357052e+00
2 Flipped
Graph 1:
0 1 1 1 1 0 
0 0 1 1 1 0 
0 0 0 1 1 1 
0 1 1 0 1 1 
1 0 1 1 0 1 
0 1 0 1 1 1 
Graph 2:
0 1 1 1 1 0 
0 1 1 1 0 0 
1 1 1 0 0 0 
1 1 0 1 1 0 
1 0 1 1 0 1 
1 1 1 0 1 0 
Solution: 28 631
Classic Expectation: 19.600000
Initial Expecation: 13.781250
Gbest: 28.000000
Expectation: 16.785595
Final Parameters:
Gammas:
[ 5.577088 5.515747 3.249742 3.661652 ]
Betas:
[ 2.027876 1.388776 1.934829 0.919972 ]
Aggregate results:
[ 20 16 18 22 14 24 26 28 0 ]
[ 0.208655 0.086955 0.157985 0.180068 0.018981 0.148788 0.021993 0.000268 0.176306 ]
3
Num Evals 4397
GenUC: 2.813682e-04
GenUB: 5.071511e-05
Optimisation 9.565985e+00
Total Time: 9.566320e+00
3 Add 6
Graph 1:
0 1 1 1 1 0 
0 0 1 1 1 0 
0 0 0 1 1 1 
0 1 1 0 1 1 
1 0 1 1 0 1 
0 1 0 1 1 1 
Graph 2:
1 1 1 1 1 1 
1 0 1 1 1 0 
0 0 0 1 1 1 
0 1 1 0 1 1 
1 0 1 1 0 1 
1 1 0 1 1 1 
Solution: 32 0
Classic Expectation: 22.266667
Initial Expecation: 15.656250
Gbest: 32.000000
Expectation: 16.924021
Final Parameters:
Gammas:
[ 4.518798 4.785266 3.336106 0.640926 ]
Betas:
[ 1.983002 1.777395 1.634864 1.970085 ]
Aggregate results:
[ 32 24 28 22 26 20 18 0 ]
[ 0.001050 0.184036 0.017021 0.241367 0.060376 0.208967 0.052098 0.235085 ]
3
Num Evals 1761
GenUC: 2.809604e-04
GenUB: 5.163235e-05
Optimisation 4.165007e+00
Total Time: 4.165342e+00
4 Rem 6
Graph 1:
0 1 1 1 1 0 
0 0 1 1 1 0 
0 0 0 1 1 1 
0 1 1 0 1 1 
1 0 1 1 0 1 
0 1 0 1 1 1 
Graph 2:
0 0 1 1 1 0 
0 0 1 1 0 0 
0 0 0 1 0 1 
0 1 1 0 1 1 
1 0 1 0 0 1 
0 1 0 1 1 1 
Solution: 32 0
Classic Expectation: 20.133333
Initial Expecation: 14.156250
Gbest: 32.000000
Expectation: 16.780583
Final Parameters:
Gammas:
[ 4.595311 2.775600 2.740352 3.084763 ]
Betas:
[ 1.864110 2.766615 2.270624 0.696510 ]
Aggregate results:
[ 32 22 28 20 24 26 18 30 16 14 12 0 ]
[ 0.001176 0.227860 0.009579 0.227885 0.113615 0.031830 0.135276 0.000218 0.041746 0.016392 0.000902 0.193520 ]
3
Num Evals 2136
GenUC: 2.805578e-04
GenUB: 5.080958e-05
Optimisation 5.119991e+00
Total Time: 5.120324e+00
5 Add/Rem 6
Graph 1:
0 1 1 1 1 0 
0 0 1 1 1 0 
0 0 0 1 1 1 
0 1 1 0 1 1 
1 0 1 1 0 1 
0 1 0 1 1 1 
Graph 2:
1 1 0 1 1 0 
0 0 1 1 0 1 
1 1 0 1 0 1 
0 1 0 0 1 0 
1 0 1 1 0 1 
1 1 0 1 0 1 
Solution: 27 248
Classic Expectation: 20.266667
Initial Expecation: 14.250000
Gbest: 27.000000
Expectation: 18.613680
Final Parameters:
Gammas:
[ 5.167811 3.812949 3.384281 0.247365 ]
Betas:
[ 0.133432 2.628661 1.816075 1.596896 ]
Aggregate results:
[ 25 19 21 17 23 15 27 13 0 ]
[ 0.196705 0.109010 0.135223 0.069883 0.252647 0.029310 0.047314 0.005321 0.154588 ]
3
Num Evals 1345
GenUC: 2.809586e-04
GenUB: 4.895875e-05
Optimisation 2.798306e+00
Total Time: 2.798638e+00
