Clock Speed: 3.687772
Num threads: 4
Trotterisation: 4
Num Qubits: 10
Space Dimension: 1024
Run-Type: 0
Num_samples: 32399
Optimiser Method: 29
1 Isomorphic
Graph 1:
1 1 0 1 0 1 
1 0 1 1 0 0 
0 1 0 0 0 0 
1 0 0 1 1 1 
1 0 1 0 1 1 
1 1 1 1 0 1 
Graph 2:
1 1 0 1 0 1 
1 0 1 1 0 0 
0 1 0 0 0 0 
1 0 0 1 1 1 
1 0 1 0 1 1 
1 1 1 1 0 1 
Solution: 36 0
Classic Expectation: 18.600000
Initial Expecation: 13.078125
Gbest: 36.000000
Expectation: 19.545438
Final Parameters:
Gammas:
[ 3.243707 6.177379 3.431363 3.063042 ]
Betas:
[ 2.039970 1.351370 1.825801 1.490168 ]
Aggregate results:
[ 36 28 26 22 16 20 18 14 24 10 12 30 32 0 ]
[ 0.004871 0.032147 0.108893 0.195685 0.035529 0.190648 0.137996 0.009257 0.164592 0.000344 0.001437 0.005776 0.006079 0.106745 ]
5
Num Evals 4800
GenUC: 2.604525e-04
GenUB: 9.453914e-05
Optimisation 1.762233e+01
Total Time: 1.762271e+01
2 Flipped
Graph 1:
1 1 0 1 0 1 
1 0 1 1 0 0 
0 1 0 0 0 0 
1 0 0 1 1 1 
1 0 1 0 1 1 
1 1 1 1 0 1 
Graph 2:
1 0 1 0 1 1 
0 0 1 1 0 1 
0 0 0 0 1 0 
1 1 1 0 0 1 
1 1 0 1 0 1 
1 0 1 1 1 1 
Solution: 28 678
Classic Expectation: 18.200000
Initial Expecation: 12.796875
Gbest: 28.000000
Expectation: 14.423751
Final Parameters:
Gammas:
[ 3.869146 3.888606 3.061161 4.512899 ]
Betas:
[ 2.274028 1.280892 1.712085 1.280844 ]
Aggregate results:
[ 18 20 22 16 24 10 14 26 12 28 0 ]
[ 0.163337 0.165425 0.132897 0.148766 0.056407 0.000641 0.069989 0.007923 0.021886 0.002235 0.230496 ]
3
Num Evals 1033
GenUC: 2.801486e-04
GenUB: 5.084660e-05
Optimisation 5.335436e+00
Total Time: 5.335770e+00
3 Add 6
Graph 1:
1 1 0 1 0 1 
1 0 1 1 0 0 
0 1 0 0 0 0 
1 0 0 1 1 1 
1 0 1 0 1 1 
1 1 1 1 0 1 
Graph 2:
1 1 0 1 0 1 
1 0 1 1 1 1 
0 1 1 1 0 0 
1 1 0 1 1 1 
1 0 1 0 1 1 
1 1 1 1 0 1 
Solution: 31 0
Classic Expectation: 19.466667
Initial Expecation: 13.687500
Gbest: 31.000000
Expectation: 19.941056
Final Parameters:
Gammas:
[ 6.200719 5.863676 3.196640 3.241771 ]
Betas:
[ 2.421916 2.769041 1.266658 2.036369 ]
Aggregate results:
[ 31 23 25 21 15 19 17 13 27 29 0 ]
[ 0.004427 0.268918 0.078429 0.306598 0.040894 0.169144 0.047602 0.011343 0.011832 0.004004 0.056809 ]
3
Num Evals 3245
GenUC: 2.796673e-04
GenUB: 5.172339e-05
Optimisation 1.035062e+01
Total Time: 1.035095e+01
4 Rem 6
Graph 1:
1 1 0 1 0 1 
1 0 1 1 0 0 
0 1 0 0 0 0 
1 0 0 1 1 1 
1 0 1 0 1 1 
1 1 1 1 0 1 
Graph 2:
0 1 0 1 0 1 
0 0 1 1 0 0 
0 1 0 0 0 0 
0 0 0 0 1 1 
1 0 1 0 0 1 
1 1 1 1 0 1 
Solution: 31 0
Classic Expectation: 17.333333
Initial Expecation: 12.187500
Gbest: 31.000000
Expectation: 15.968150
Final Parameters:
Gammas:
[ 6.283185 2.740730 3.561902 6.032783 ]
Betas:
[ 0.654434 2.977970 2.395016 1.290500 ]
Aggregate results:
[ 31 23 21 15 19 17 13 11 25 9 7 27 29 0 ]
[ 0.000766 0.046010 0.110550 0.180899 0.194352 0.262543 0.078171 0.028231 0.009498 0.004200 0.001618 0.000247 0.002594 0.080322 ]
3
Num Evals 1605
GenUC: 2.798704e-04
GenUB: 5.109370e-05
Optimisation 8.539818e+00
Total Time: 8.540152e+00
5 Add/Rem 6
Graph 1:
1 1 0 1 0 1 
1 0 1 1 0 0 
0 1 0 0 0 0 
1 0 0 1 1 1 
1 0 1 0 1 1 
1 1 1 1 0 1 
Graph 2:
0 0 0 1 0 1 
1 0 1 0 0 0 
0 1 0 1 1 1 
1 0 1 1 1 0 
1 1 1 0 1 1 
1 0 1 1 1 1 
Solution: 29 268
Classic Expectation: 18.533333
Initial Expecation: 13.031250
Gbest: 29.000000
Expectation: 17.000248
Final Parameters:
Gammas:
[ 6.283185 4.419641 1.807671 4.755720 ]
Betas:
[ 1.342604 0.084621 0.941032 1.814027 ]
Aggregate results:
[ 25 23 21 27 17 19 15 13 11 29 0 ]
[ 0.050722 0.078456 0.141552 0.008037 0.239091 0.225125 0.113849 0.044639 0.005418 0.001674 0.091437 ]
3
Num Evals 2631
GenUC: 2.828668e-04
GenUB: 4.992587e-05
Optimisation 8.082864e+00
Total Time: 8.083199e+00
