Clock Speed: 3.688446
Num threads: 4
Trotterisation: 5
Num Qubits: 3
Space Dimension: 8
Run-Type: 0
Num_samples: 3
Optimiser Method: 29
1 Isomorphic
Graph 1:
0 1 1 
1 0 0 
1 0 0 
Graph 2:
0 1 1 
1 0 0 
1 0 0 
Solution: 9 0
Classic Expectation: 6.333333
Initial Expecation: 4.750000
Gbest: 9.000000
Expectation: 7.000000
Final Parameters:
Gammas:
[ 3.557325 3.170490 2.787930 3.197397 5.138273 ]
Betas:
[ 1.679898 0.927403 1.535878 1.599546 1.326967 ]
Aggregate results:
[ 9 5 0 ]
[ 0.500000 0.500000 0.000000 ]
4
Num Evals 992
GenUC: 2.775749e-06
GenUB: 7.638882e-06
Optimisation 2.769993e-01
Total Time: 2.770388e-01
2 Flipped
Graph 1:
0 1 1 
1 0 0 
1 0 0 
Graph 2:
1 1 0 
0 0 1 
0 0 1 
Solution: 5 2
Classic Expectation: 3.666667
Initial Expecation: 2.750000
Gbest: 5.000000
Expectation: 4.000000
Final Parameters:
Gammas:
[ 5.336881 2.175499 2.927569 3.747297 4.523119 ]
Betas:
[ 1.313692 0.882341 1.712941 1.657697 0.814284 ]
Aggregate results:
[ 3 5 0 ]
[ 0.500000 0.500000 0.000000 ]
4
Num Evals 1321
GenUC: 2.916611e-06
GenUB: 9.336509e-07
Optimisation 3.524780e-01
Total Time: 3.524845e-01
3 Add 3
Graph 1:
0 1 1 
1 0 0 
1 0 0 
Graph 2:
1 1 1 
1 1 1 
1 1 0 
Solution: 5 0
Classic Expectation: 5.000000
Initial Expecation: 3.750000
Gbest: 5.000000
Expectation: 5.000000
Final Parameters:
Gammas:
[ 3.941256 3.896757 3.141593 3.946559 4.222790 ]
Betas:
[ 1.877559 1.132224 0.974961 0.788493 1.963495 ]
Aggregate results:
[ 5 0 ]
[ 1.000000 0.000000 ]
4
Num Evals 727
GenUC: 2.578017e-06
GenUB: 7.447088e-07
Optimisation 1.989739e-01
Total Time: 1.989790e-01
4 Rem 3
Graph 1:
0 1 1 
1 0 0 
1 0 0 
Graph 2:
0 0 0 
0 0 0 
0 0 0 
Solution: 5 0
Classic Expectation: 5.000000
Initial Expecation: 3.750000
Gbest: 5.000000
Expectation: 5.000000
Final Parameters:
Gammas:
[ 3.941256 3.896757 3.141593 3.946559 4.222790 ]
Betas:
[ 1.877559 1.132224 0.974961 0.788493 1.963495 ]
Aggregate results:
[ 5 0 ]
[ 1.000000 0.000000 ]
4
Num Evals 727
GenUC: 2.423069e-06
GenUB: 6.420305e-07
Optimisation 1.945711e-01
Total Time: 1.945757e-01
5 Add/Rem 3
Graph 1:
0 1 1 
1 0 0 
1 0 0 
Graph 2:
1 0 0 
0 1 1 
0 1 0 
Solution: 5 2
Classic Expectation: 3.666667
Initial Expecation: 2.750000
Gbest: 5.000000
Expectation: 5.000000
Final Parameters:
Gammas:
[ 3.658148 3.099836 3.553050 3.370411 5.858103 ]
Betas:
[ 1.343402 1.396572 1.361698 1.571769 0.933348 ]
Aggregate results:
[ 1 5 0 ]
[ 0.000000 1.000000 0.000000 ]
4
Num Evals 1905
GenUC: 2.178364e-06
GenUB: 5.410984e-07
Optimisation 5.131808e-01
Total Time: 5.131850e-01
