Clock Speed: 3.689407
Num threads: 4
Trotterisation: 5
Num Qubits: 3
Space Dimension: 8
Run-Type: 0
Num_samples: 2024
Optimiser Method: 29
1 Isomorphic
Graph 1:
1 0 1 
1 0 1 
0 0 0 
Graph 2:
1 0 1 
1 0 1 
0 0 0 
Solution: 9 0
Classic Expectation: 4.666667
Initial Expecation: 3.500000
Gbest: 9.000000
Expectation: 6.876302
Final Parameters:
Gammas:
[ 5.702355 1.866866 2.816502 3.378820 2.081256 ]
Betas:
[ 1.069658 0.867458 2.624227 1.714172 1.970963 ]
Aggregate results:
[ 9 3 5 0 ]
[ 0.491568 0.030400 0.472198 0.005834 ]
3
Num Evals 5614
GenUC: 2.756395e-06
GenUB: 7.357768e-06
Optimisation 1.738528e+00
Total Time: 1.738555e+00
2 Flipped
Graph 1:
1 0 1 
1 0 1 
0 0 0 
Graph 2:
1 0 1 
1 0 1 
0 0 0 
Solution: 9 0
Classic Expectation: 4.666667
Initial Expecation: 3.500000
Gbest: 9.000000
Expectation: 6.876302
Final Parameters:
Gammas:
[ 5.702355 1.866866 2.816502 3.378820 2.081256 ]
Betas:
[ 1.069658 0.867458 2.624227 1.714172 1.970963 ]
Aggregate results:
[ 9 3 5 0 ]
[ 0.491568 0.030400 0.472198 0.005834 ]
3
Num Evals 5614
GenUC: 2.825051e-06
GenUB: 1.092121e-06
Optimisation 1.739798e+00
Total Time: 1.739804e+00
3 Add 3
Graph 1:
1 0 1 
1 0 1 
0 0 0 
Graph 2:
1 0 1 
1 1 1 
1 0 1 
Solution: 6 0
Classic Expectation: 4.000000
Initial Expecation: 3.000000
Gbest: 6.000000
Expectation: 5.788175
Final Parameters:
Gammas:
[ 4.404274 0.951685 2.705696 2.731725 2.564139 ]
Betas:
[ 1.635216 1.354972 0.528967 1.868526 1.966061 ]
Aggregate results:
[ 6 2 4 0 ]
[ 0.897404 0.000517 0.100679 0.001400 ]
3
Num Evals 27825
GenUC: 3.121386e-06
GenUB: 9.184005e-07
Optimisation 8.129530e+00
Total Time: 8.129536e+00
4 Rem 3
Graph 1:
1 0 1 
1 0 1 
0 0 0 
Graph 2:
1 0 0 
0 0 0 
0 0 0 
Solution: 6 0
Classic Expectation: 4.666667
Initial Expecation: 3.500000
Gbest: 6.000000
Expectation: 5.000000
Final Parameters:
Gammas:
[ 5.017190 1.873563 3.370051 2.883858 3.229387 ]
Betas:
[ 1.962781 2.328736 1.661310 1.555457 0.808939 ]
Aggregate results:
[ 6 4 0 ]
[ 0.500000 0.500000 0.000000 ]
3
Num Evals 803
GenUC: 3.073859e-06
GenUB: 9.360083e-07
Optimisation 2.403244e-01
Total Time: 2.403306e-01
5 Add/Rem 3
Graph 1:
1 0 1 
1 0 1 
0 0 0 
Graph 2:
0 0 1 
0 1 0 
1 0 0 
Solution: 6 2
Classic Expectation: 4.666667
Initial Expecation: 3.500000
Gbest: 6.000000
Expectation: 5.000000
Final Parameters:
Gammas:
[ 3.410062 4.136628 3.148582 2.046125 3.407237 ]
Betas:
[ 2.421393 2.265553 0.575438 0.710591 0.783752 ]
Aggregate results:
[ 4 6 0 ]
[ 0.500000 0.500000 0.000000 ]
3
Num Evals 829
GenUC: 2.311572e-06
GenUB: 6.026821e-07
Optimisation 2.338301e-01
Total Time: 2.338345e-01
