Clock Speed: 3.689397
Num threads: 4
Trotterisation: 2
Graph Size: 3
Num Qubits: 3
Space Dimension: 8
Run-Type: 0
Num_samples: 10
1 Isomorphic
Graph 1:
0 0 1 
1 1 1 
0 1 1 
Graph 2:
0 0 1 
1 1 1 
0 1 1 
Solution: 0 0
Gbest: 0.000000
Expectation: -2.616167
Final Parameters:
Gammas:
[ 2.329285 2.849119 ]
Betas:
[ 2.298584 2.114020 0.846622 ]
Aggregate results:
[ -1 5 3 8 ]
[ 0.615968 0.079599 0.120265 0.184168 ]
5
Num Evals 300
GenUC: 1.402470e-04
GenUB: 7.794981e-06
Optimisation 4.321299e-02
Total Time: 4.353357e-02
2 Flipped
Graph 1:
0 0 1 
1 1 1 
0 1 1 
Graph 2:
1 0 0 
1 1 1 
1 1 0 
Solution: -2 5
Gbest: -2.000000
Expectation: -3.842904
Final Parameters:
Gammas:
[ 4.622670 3.112035 ]
Betas:
[ 2.297764 2.378480 1.007080 ]
Aggregate results:
[ 3 5 1 8 ]
[ 0.520850 0.060202 0.338891 0.080056 ]
5
Num Evals 600
GenUC: 6.738672e-06
GenUB: 5.415932e-06
Optimisation 4.472454e-02
Total Time: 4.489508e-02
3 Add 3
Graph 1:
0 0 1 
1 1 1 
0 1 1 
Graph 2:
1 1 1 
1 1 1 
0 1 1 
Solution: -2 0
Gbest: -2.000000
Expectation: -3.613281
Final Parameters:
Gammas:
[ 2.841256 4.780345 ]
Betas:
[ 2.511825 1.188252 1.436768 ]
Aggregate results:
[ 1 3 8 ]
[ 0.211310 0.781511 0.007180 ]
5
Num Evals 900
GenUC: 6.387752e-06
GenUB: 5.383656e-06
Optimisation 4.229491e-02
Total Time: 4.245745e-02
4 Rem 3
Graph 1:
0 0 1 
1 1 1 
0 1 1 
Graph 2:
0 0 0 
1 0 1 
0 1 0 
Solution: -3 0
Gbest: -3.000000
Expectation: -4.792426
Final Parameters:
Gammas:
[ 4.294144 4.604539 ]
Betas:
[ 1.695420 1.623629 1.165179 ]
Aggregate results:
[ 2 6 4 8 ]
[ 0.200891 0.058931 0.721092 0.019087 ]
5
Num Evals 1200
GenUC: 6.243383e-06
GenUB: 5.265712e-06
Optimisation 5.328851e-02
Total Time: 5.344779e-02
5 Add/Rem 3
Graph 1:
0 0 1 
1 1 1 
0 1 1 
Graph 2:
0 1 1 
0 1 1 
1 1 0 
Solution: -2 3
Gbest: -2.000000
Expectation: -2.394320
Final Parameters:
Gammas:
[ 2.513406 3.852807 ]
Betas:
[ 2.405247 1.020307 2.653698 ]
Aggregate results:
[ 3 1 5 8 ]
[ 0.100074 0.859436 0.029752 0.010737 ]
5
Num Evals 1500
GenUC: 8.454008e-06
GenUB: 5.332011e-06
Optimisation 4.552278e-02
Total Time: 4.569795e-02
