Clock Speed: 3.689208
Num threads: 4
Trotterisation: 1
Num Qubits: 10
Space Dimension: 1024
Run-Type: 0
Num_samples: 6
Optimiser Method: 29
1 Isomorphic
Graph 1:
0 1 0 0 1 0 
1 0 1 1 0 0 
0 1 0 1 0 0 
0 1 1 0 0 0 
1 0 0 0 0 0 
0 0 0 0 0 0 
Graph 2:
0 1 0 0 1 0 
1 0 1 1 0 0 
0 1 0 1 0 0 
0 1 1 0 0 0 
1 0 0 0 0 0 
0 0 0 0 0 0 
Solution: 36 0
Classic Expectation: 22.666667
Initial Expecation: 15.937500
Gbest: 32.000000
Expectation: 19.244557
Final Parameters:
Gammas:
[ 4.354552 ]
Betas:
[ 2.867530 ]
Aggregate results:
[ 36 32 24 28 20 16 0 ]
[ 0.001415 0.047717 0.290468 0.238435 0.152372 0.060740 0.208854 ]
4
Num Evals 179
GenUC: 2.602848e-04
GenUB: 9.040077e-05
Optimisation 1.531460e+00
Total Time: 1.531836e+00
2 Flipped
Graph 1:
0 1 0 0 1 0 
1 0 1 1 0 0 
0 1 0 1 0 0 
0 1 1 0 0 0 
1 0 0 0 0 0 
0 0 0 0 0 0 
Graph 2:
0 1 0 0 1 0 
0 0 1 1 0 1 
0 0 1 0 1 0 
0 0 0 1 1 0 
0 0 0 0 0 1 
0 0 0 0 0 0 
Solution: 24 0
Classic Expectation: 21.333333
Initial Expecation: 15.000000
Gbest: 24.000000
Expectation: 16.354496
Final Parameters:
Gammas:
[ 3.922301 ]
Betas:
[ 2.621362 ]
Aggregate results:
[ 24 22 20 18 0 ]
[ 0.184131 0.264463 0.175764 0.144549 0.231093 ]
4
Num Evals 199
GenUC: 2.791458e-04
GenUB: 7.092769e-05
Optimisation 1.256241e+00
Total Time: 1.256593e+00
3 Add 6
Graph 1:
0 1 0 0 1 0 
1 0 1 1 0 0 
0 1 0 1 0 0 
0 1 1 0 0 0 
1 0 0 0 0 0 
0 0 0 0 0 0 
Graph 2:
1 1 1 1 1 1 
1 1 1 1 1 0 
1 1 0 1 0 1 
1 1 1 1 0 0 
1 1 0 0 0 0 
1 0 1 0 0 0 
Solution: 23 0
Classic Expectation: 16.333333
Initial Expecation: 11.484375
Gbest: 19.000000
Expectation: 14.430941
Final Parameters:
Gammas:
[ 1.566332 ]
Betas:
[ 2.581711 ]
Aggregate results:
[ 23 19 15 11 7 0 ]
[ 0.065015 0.308432 0.362840 0.134831 0.021377 0.107504 ]
4
Num Evals 213
GenUC: 2.789134e-04
GenUB: 6.533453e-05
Optimisation 9.926520e-01
Total Time: 9.929983e-01
4 Rem 6
Graph 1:
0 1 0 0 1 0 
1 0 1 1 0 0 
0 1 0 1 0 0 
0 1 1 0 0 0 
1 0 0 0 0 0 
0 0 0 0 0 0 
Graph 2:
0 0 0 0 0 0 
0 0 0 0 0 0 
0 0 0 1 0 0 
0 0 1 0 0 0 
0 0 0 0 0 0 
0 0 0 0 0 0 
Solution: 28 0
Classic Expectation: 25.333333
Initial Expecation: 17.812500
Gbest: 28.000000
Expectation: 21.919829
Final Parameters:
Gammas:
[ 2.831336 ]
Betas:
[ 2.504108 ]
Aggregate results:
[ 28 24 0 ]
[ 0.302976 0.559854 0.137170 ]
4
Num Evals 238
GenUC: 2.795882e-04
GenUB: 7.089131e-05
Optimisation 1.675402e+00
Total Time: 1.675755e+00
5 Add/Rem 6
Graph 1:
0 1 0 0 1 0 
1 0 1 1 0 0 
0 1 0 1 0 0 
0 1 1 0 0 0 
1 0 0 0 0 0 
0 0 0 0 0 0 
Graph 2:
0 0 1 1 0 1 
0 1 0 0 1 0 
1 0 1 1 0 1 
1 0 1 1 0 0 
0 1 0 0 0 0 
1 0 1 0 0 0 
Solution: 27 120
Classic Expectation: 19.000000
Initial Expecation: 13.359375
Gbest: 23.000000
Expectation: 16.904645
Final Parameters:
Gammas:
[ 1.572762 ]
Betas:
[ 2.608640 ]
Aggregate results:
[ 15 19 11 23 27 0 ]
[ 0.246972 0.365240 0.034782 0.188310 0.057288 0.107408 ]
4
Num Evals 243
GenUC: 2.791874e-04
GenUB: 6.183932e-05
Optimisation 1.743748e+00
Total Time: 1.744092e+00
