Clock Speed: 3.688046
Num threads: 4
Trotterisation: 5
Graph Size: 4
Num Qubits: 5
Space Dimension: 32
Run-Type: 0
Num_samples: 10
1 Isomorphic
Graph 1:
0 1 1 1 
1 0 0 1 
1 1 0 0 
1 0 1 0 
Graph 2:
0 1 1 1 
1 0 0 1 
1 1 0 0 
1 0 1 0 
Solution: 0 0
Gbest: 0.000000
Expectation: -5.134844
Final Parameters:
Gammas:
[ 0.186874 0.589374 5.073566 3.041892 3.389423 ]
Betas:
[ 2.154686 2.554925 3.053018 2.968802 1.502655 2.016485 ]
Aggregate results:
[ -1 3 5 15 ]
[ 0.179160 0.467742 0.238569 0.114529 ]
5
Num Evals 400
GenUC: 1.476749e-04
GenUB: 1.182006e-05
Optimisation 1.799709e-01
Total Time: 1.806435e-01
2 Flipped
Graph 1:
0 1 1 1 
1 0 0 1 
1 1 0 0 
1 0 1 0 
Graph 2:
1 1 1 0 
1 0 0 1 
0 0 1 1 
0 1 0 1 
Solution: -6 4
Gbest: -6.000000
Expectation: -8.431296
Final Parameters:
Gammas:
[ 2.758890 3.179387 1.604676 5.494513 5.922471 ]
Betas:
[ 1.890750 3.082348 1.271834 0.122383 1.916417 2.138231 ]
Aggregate results:
[ 9 7 5 15 ]
[ 0.290519 0.234494 0.394964 0.080023 ]
5
Num Evals 800
GenUC: 1.153836e-05
GenUB: 8.817820e-06
Optimisation 1.626346e-01
Total Time: 1.630725e-01
3 Add 4
Graph 1:
0 1 1 1 
1 0 0 1 
1 1 0 0 
1 0 1 0 
Graph 2:
0 1 1 1 
1 1 1 1 
1 1 1 0 
1 1 1 0 
Solution: -4 0
Gbest: -4.000000
Expectation: -5.260849
Final Parameters:
Gammas:
[ 4.070066 3.772816 0.215887 5.830995 4.870236 ]
Betas:
[ 0.356480 0.146338 3.121203 0.548791 3.133903 3.088144 ]
Aggregate results:
[ 3 5 15 ]
[ 0.601538 0.352070 0.046392 ]
5
Num Evals 1200
GenUC: 9.081297e-06
GenUB: 8.313102e-06
Optimisation 1.578518e-01
Total Time: 1.582789e-01
4 Rem 4
Graph 1:
0 1 1 1 
1 0 0 1 
1 1 0 0 
1 0 1 0 
Graph 2:
0 1 1 0 
1 0 0 1 
0 1 0 0 
0 0 1 0 
Solution: -3 0
Gbest: -5.000000
Expectation: -6.246185
Final Parameters:
Gammas:
[ 4.709106 2.556050 1.737941 3.576031 3.860000 ]
Betas:
[ 0.652212 1.561761 1.716488 1.636081 2.294102 1.069447 ]
Aggregate results:
[ 2 4 6 8 15 ]
[ 0.151350 0.514940 0.101860 0.172169 0.059681 ]
5
Num Evals 1600
GenUC: 8.904637e-06
GenUB: 8.300209e-06
Optimisation 1.702172e-01
Total Time: 1.706276e-01
5 Add/Rem 4
Graph 1:
0 1 1 1 
1 0 0 1 
1 1 0 0 
1 0 1 0 
Graph 2:
1 0 0 1 
1 0 1 0 
1 1 1 0 
1 1 1 0 
Solution: -5 1
Gbest: -5.000000
Expectation: -7.291607
Final Parameters:
Gammas:
[ 3.605887 0.774244 3.319769 5.926552 6.186823 ]
Betas:
[ 2.156429 0.927969 0.037788 1.358691 2.094775 1.426322 ]
Aggregate results:
[ 6 4 8 15 ]
[ 0.250843 0.488398 0.154061 0.106698 ]
5
Num Evals 2000
GenUC: 1.052138e-05
GenUB: 8.392351e-06
Optimisation 1.572743e-01
Total Time: 1.576522e-01
