Clock Speed: 3.688707
Num threads: 4
Trotterisation: 3
Num Qubits: 7
Space Dimension: 128
Run-Type: 0
Num_samples: 15624
Optimiser Method: 28
1 Isomorphic
Graph 1:
1 1 1 1 0 
0 0 1 0 0 
1 1 1 1 1 
1 1 1 0 1 
1 1 1 1 0 
Graph 2:
1 1 1 1 0 
0 0 1 0 0 
1 1 1 1 1 
1 1 1 0 1 
1 1 1 1 0 
Solution: 25 0
Classic Expectation: 16.200000
Initial Expecation: 15.187500
Gbest: 25.000000
Expectation: 16.632678
Final Parameters:
Gammas:
[ 4.553113 4.327421 3.255031 ]
Betas:
[ 1.262625 1.951425 1.802238 ]
Aggregate results:
[ 25 23 21 19 17 15 13 0 ]
[ 0.024612 0.002380 0.092345 0.166998 0.258223 0.334576 0.110924 0.009943 ]
3
Num Evals 408
GenUC: 4.095663e-05
GenUB: 1.351665e-05
Optimisation 1.709146e-01
Total Time: 1.709896e-01
2 Flipped
Graph 1:
1 1 1 1 0 
0 0 1 0 0 
1 1 1 1 1 
1 1 1 0 1 
1 1 1 1 0 
Graph 2:
0 1 1 1 1 
0 0 1 0 0 
1 1 1 1 1 
1 0 1 1 1 
0 1 1 1 1 
Solution: 23 105
Classic Expectation: 15.400000
Initial Expecation: 14.437500
Gbest: 23.000000
Expectation: 17.935518
Final Parameters:
Gammas:
[ 3.413384 3.510024 2.263112 ]
Betas:
[ 0.386359 1.794597 1.634797 ]
Aggregate results:
[ 19 17 11 13 15 21 23 0 ]
[ 0.318508 0.307829 0.005126 0.033388 0.120814 0.160622 0.042394 0.011318 ]
3
Num Evals 512
GenUC: 4.442133e-05
GenUB: 2.648991e-06
Optimisation 1.891535e-01
Total Time: 1.892024e-01
3 Add 5
Graph 1:
1 1 1 1 0 
0 0 1 0 0 
1 1 1 1 1 
1 1 1 0 1 
1 1 1 1 0 
Graph 2:
1 1 1 1 1 
0 1 1 0 1 
1 1 1 1 1 
1 1 1 0 1 
1 1 1 1 0 
Solution: 22 0
Classic Expectation: 17.200000
Initial Expecation: 16.125000
Gbest: 22.000000
Expectation: 17.553715
Final Parameters:
Gammas:
[ 3.892525 3.891589 3.612340 ]
Betas:
[ 1.904597 1.820606 0.744561 ]
Aggregate results:
[ 22 18 20 16 14 0 ]
[ 0.065552 0.302589 0.256261 0.332984 0.015143 0.027471 ]
3
Num Evals 515
GenUC: 4.415197e-05
GenUB: 2.541597e-06
Optimisation 2.039349e-01
Total Time: 2.039831e-01
4 Rem 5
Graph 1:
1 1 1 1 0 
0 0 1 0 0 
1 1 1 1 1 
1 1 1 0 1 
1 1 1 1 0 
Graph 2:
1 1 0 1 0 
0 0 1 0 0 
1 0 1 1 1 
0 1 1 0 1 
1 0 1 0 0 
Solution: 20 0
Classic Expectation: 13.200000
Initial Expecation: 12.375000
Gbest: 20.000000
Expectation: 14.615063
Final Parameters:
Gammas:
[ 5.852623 3.296417 3.416772 ]
Betas:
[ 2.490523 1.967072 1.592027 ]
Aggregate results:
[ 20 18 16 14 12 10 8 0 ]
[ 0.036073 0.126371 0.340818 0.320970 0.081305 0.058495 0.013958 0.022011 ]
3
Num Evals 518
GenUC: 4.311385e-05
GenUB: 2.397235e-06
Optimisation 2.417622e-01
Total Time: 2.418093e-01
5 Add/Rem 5
Graph 1:
1 1 1 1 0 
0 0 1 0 0 
1 1 1 1 1 
1 1 1 0 1 
1 1 1 1 0 
Graph 2:
1 0 1 1 1 
0 1 1 0 0 
1 1 1 1 1 
1 1 1 1 0 
1 0 0 1 1 
Solution: 19 80
Classic Expectation: 13.800000
Initial Expecation: 12.937500
Gbest: 19.000000
Expectation: 13.870301
Final Parameters:
Gammas:
[ 4.456822 3.021889 4.254061 ]
Betas:
[ 2.085904 1.714218 2.265551 ]
Aggregate results:
[ 17 15 11 13 19 0 ]
[ 0.139364 0.383805 0.102475 0.335236 0.013617 0.025502 ]
3
Num Evals 722
GenUC: 4.296891e-05
GenUB: 2.423058e-06
Optimisation 3.388106e-01
Total Time: 3.388575e-01
