Clock Speed: 3.498875
Num threads: 16
Trotterisation: 5
Num Qubits: 16
Space Dimension: 65536
Run-Type: 0
Num_samples: 64
Optimiser Method: 29
1 Isomorphic
Graph 1:
1 0 1 0 0 0 1 1 
1 1 0 1 0 1 0 0 
0 0 0 1 1 1 0 1 
0 1 1 0 0 1 1 1 
1 0 0 0 0 0 1 0 
1 1 0 0 1 0 0 1 
1 0 1 1 1 1 0 0 
1 0 0 1 0 0 0 1 
Graph 2:
1 0 1 0 0 0 1 1 
1 1 0 1 0 1 0 0 
0 0 0 1 1 1 0 1 
0 1 1 0 0 1 1 1 
1 0 0 0 0 0 1 0 
1 1 0 0 1 0 0 1 
1 0 1 1 1 1 0 0 
1 0 0 1 0 0 0 1 
Solution: 64 0
Classic Expectation: 32.250000
Initial Expecation: 19.841309
Gbest: 46.000000
Expectation: 30.362986
Final Parameters:
Gammas:
[ 3.291942 3.318495 3.182910 3.246239 0.945763 ]
Betas:
[ 0.232533 2.069390 2.278803 2.551019 1.622584 ]
Aggregate results:
[ 64 50 46 44 48 52 40 38 34 36 42 32 28 30 24 26 18 56 20 22 58 16 0 ]
[ 0.000012 0.000275 0.002415 0.007416 0.001412 0.000227 0.040656 0.081642 0.169418 0.129852 0.018933 0.169848 0.090420 0.140272 0.018066 0.041896 0.000212 0.000012 0.002163 0.005620 0.000049 0.000045 0.079141 ]
5
Num Evals 8000
GenUC: 1.828995e-02
GenUB: 1.318473e-02
Optimisation 3.946888e+03
Total Time: 3.946920e+03
2 Flipped
Graph 1:
1 0 1 0 0 0 1 1 
1 1 0 1 0 1 0 0 
0 0 0 1 1 1 0 1 
0 1 1 0 0 1 1 1 
1 0 0 0 0 0 1 0 
1 1 0 0 1 0 0 1 
1 0 1 1 1 1 0 0 
1 0 0 1 0 0 0 1 
Graph 2:
1 1 0 0 0 1 0 1 
0 0 1 0 1 0 1 1 
1 0 1 1 1 0 0 0 
1 1 1 0 0 1 1 0 
0 1 0 0 0 0 0 1 
1 0 0 1 0 0 1 1 
0 0 1 1 1 1 0 1 
1 0 0 0 1 0 0 1 
Solution: 50 39185
Classic Expectation: 32.250000
Initial Expecation: 19.841309
Gbest: 44.000000
Expectation: 30.066402
Final Parameters:
Gammas:
[ 3.292672 3.993239 3.092068 2.442362 2.917876 ]
Betas:
[ 0.597009 1.822196 1.400009 2.471883 2.149100 ]
Aggregate results:
[ 34 30 36 32 38 26 28 22 24 40 20 42 44 46 48 16 18 14 50 0 ]
[ 0.160464 0.138862 0.121001 0.169245 0.076496 0.057156 0.095501 0.009051 0.024369 0.040444 0.002753 0.018270 0.006660 0.001413 0.000172 0.000332 0.000459 0.000024 0.000033 0.077295 ]
3
Num Evals 5527
GenUC: 2.313497e-02
GenUB: 1.348288e-02
Optimisation 2.739706e+03
Total Time: 2.739742e+03
3 Add 8
Graph 1:
1 0 1 0 0 0 1 1 
1 1 0 1 0 1 0 0 
0 0 0 1 1 1 0 1 
0 1 1 0 0 1 1 1 
1 0 0 0 0 0 1 0 
1 1 0 0 1 0 0 1 
1 0 1 1 1 1 0 0 
1 0 0 1 0 0 0 1 
Graph 2:
1 0 1 0 1 0 1 1 
1 1 0 1 0 1 0 0 
0 1 1 1 1 1 0 1 
0 1 1 0 0 1 1 1 
1 0 0 0 0 0 1 0 
1 1 0 1 1 1 1 1 
1 0 1 1 1 1 0 0 
1 1 0 1 0 0 1 1 
Solution: 56 0
Classic Expectation: 31.750000
Initial Expecation: 19.533691
Gbest: 40.000000
Expectation: 28.551991
Final Parameters:
Gammas:
[ 3.835031 2.272419 3.082916 3.261956 0.779820 ]
Betas:
[ 0.144995 2.376361 1.020294 2.856110 2.047609 ]
Aggregate results:
[ 56 44 42 46 38 40 48 36 34 30 32 26 28 24 22 18 20 16 50 52 0 ]
[ 0.000044 0.000991 0.006321 0.000252 0.051701 0.020101 0.000118 0.103848 0.157596 0.159738 0.177701 0.062416 0.114361 0.029529 0.010985 0.000918 0.003887 0.000513 0.000015 0.000011 0.098952 ]
3
Num Evals 4289
GenUC: 2.318689e-02
GenUB: 1.383571e-02
Optimisation 2.096509e+03
Total Time: 2.096546e+03
4 Rem 8
Graph 1:
1 0 1 0 0 0 1 1 
1 1 0 1 0 1 0 0 
0 0 0 1 1 1 0 1 
0 1 1 0 0 1 1 1 
1 0 0 0 0 0 1 0 
1 1 0 0 1 0 0 1 
1 0 1 1 1 1 0 0 
1 0 0 1 0 0 0 1 
Graph 2:
1 0 1 0 0 0 1 1 
1 0 0 1 0 1 0 0 
0 0 0 1 1 1 0 1 
0 1 1 0 0 1 0 0 
1 0 0 0 0 0 0 0 
1 1 0 0 1 0 0 1 
1 0 0 0 1 1 0 0 
1 0 0 0 0 0 0 1 
Solution: 57 0
Classic Expectation: 32.500000
Initial Expecation: 19.995117
Gbest: 41.000000
Expectation: 28.272274
Final Parameters:
Gammas:
[ 3.311366 3.434177 3.328460 3.261705 2.833568 ]
Betas:
[ 1.512600 1.710219 1.635741 1.469408 2.469304 ]
Aggregate results:
[ 57 47 45 43 41 39 49 51 37 35 33 31 29 27 25 23 21 53 19 17 0 ]
[ 0.000031 0.000620 0.001696 0.005906 0.018599 0.044805 0.000109 0.000031 0.094150 0.142462 0.172686 0.161492 0.115425 0.067558 0.029871 0.010316 0.002445 0.000051 0.000521 0.000010 0.131214 ]
3
Num Evals 7885
GenUC: 2.316838e-02
GenUB: 1.385129e-02
Optimisation 4.008442e+03
Total Time: 4.008479e+03
5 Add/Rem 8
Graph 1:
1 0 1 0 0 0 1 1 
1 1 0 1 0 1 0 0 
0 0 0 1 1 1 0 1 
0 1 1 0 0 1 1 1 
1 0 0 0 0 0 1 0 
1 1 0 0 1 0 0 1 
1 0 1 1 1 1 0 0 
1 0 0 1 0 0 0 1 
Graph 2:
1 0 1 0 0 0 1 1 
1 1 0 1 0 0 0 1 
1 0 0 1 0 1 0 1 
0 1 1 0 1 0 1 1 
1 0 0 0 0 0 1 1 
1 1 0 0 0 0 0 1 
0 1 0 1 1 1 0 0 
1 1 0 1 0 0 0 1 
Solution: 52 0
Classic Expectation: 32.250000
Initial Expecation: 19.841309
Gbest: 44.000000
Expectation: 31.567298
Final Parameters:
Gammas:
[ 3.266712 3.099896 2.908777 2.892917 6.060082 ]
Betas:
[ 0.921770 2.566229 0.224758 2.186998 3.005040 ]
Aggregate results:
[ 52 42 40 44 50 46 36 38 34 30 26 32 28 22 24 20 48 18 16 0 ]
[ 0.000040 0.043103 0.085044 0.018404 0.000290 0.004973 0.160757 0.134536 0.154788 0.081176 0.031197 0.118588 0.053609 0.006923 0.015640 0.001543 0.000556 0.000530 0.000047 0.088258 ]
3
Num Evals 2973
GenUC: 2.317061e-02
GenUB: 1.334108e-02
Optimisation 1.475604e+03
Total Time: 1.475640e+03
