Clock Speed: 3.689351
Num threads: 4
Trotterisation: 1
Graph Size: 5
Num Qubits: 7
Space Dimension: 128
Run-Type: 0
Num_samples: 10
1 Isomorphic
Graph 1:
1 0 1 0 0 
0 1 1 1 0 
1 1 0 1 0 
0 0 1 1 0 
1 0 1 0 1 
Graph 2:
1 0 1 0 0 
0 1 1 1 0 
1 1 0 1 0 
0 0 1 1 0 
1 0 1 0 1 
Solution: 0 0
Gbest: -4.000000
Expectation: -7.538279
Final Parameters:
Gammas:
[ 3.430396 ]
Betas:
[ 0.803797 2.791186 ]
Aggregate results:
[ -1 3 11 9 1 5 13 15 24 ]
[ 0.040710 0.245762 0.177996 0.044319 0.059785 0.300395 0.078562 0.039721 0.012750 ]
5
Num Evals 500
GenUC: 1.432709e-04
GenUB: 3.287708e-05
Optimisation 1.020164e-01
Total Time: 1.024466e-01
2 Flipped
Graph 1:
1 0 1 0 0 
0 1 1 1 0 
1 1 0 1 0 
0 0 1 1 0 
1 0 1 0 1 
Graph 2:
0 0 1 0 1 
0 1 1 1 0 
0 1 0 1 1 
0 1 1 0 0 
1 0 1 0 1 
Solution: -4 106
Gbest: -4.000000
Expectation: -10.229099
Final Parameters:
Gammas:
[ 3.455217 ]
Betas:
[ 1.038625 2.845882 ]
Aggregate results:
[ 5 9 13 11 15 17 3 7 24 ]
[ 0.194439 0.254896 0.120797 0.198250 0.053083 0.012100 0.056094 0.094510 0.015830 ]
5
Num Evals 1000
GenUC: 2.247360e-05
GenUB: 1.867086e-05
Optimisation 1.270767e-01
Total Time: 1.273647e-01
3 Add 5
Graph 1:
1 0 1 0 0 
0 1 1 1 0 
1 1 0 1 0 
0 0 1 1 0 
1 0 1 0 1 
Graph 2:
1 0 1 1 1 
1 1 1 1 0 
1 1 0 1 1 
0 1 1 1 0 
1 0 1 0 1 
Solution: -5 0
Gbest: -5.000000
Expectation: -10.733144
Final Parameters:
Gammas:
[ 0.465224 ]
Betas:
[ 2.411412 2.772301 ]
Aggregate results:
[ 4 6 10 12 8 14 16 24 ]
[ 0.186732 0.180935 0.112341 0.167265 0.150599 0.104753 0.029792 0.067584 ]
5
Num Evals 1500
GenUC: 2.333740e-05
GenUB: 1.774545e-05
Optimisation 1.475569e-01
Total Time: 1.479495e-01
4 Rem 5
Graph 1:
1 0 1 0 0 
0 1 1 1 0 
1 1 0 1 0 
0 0 1 1 0 
1 0 1 0 1 
Graph 2:
0 0 1 0 0 
0 1 1 1 0 
1 0 0 0 0 
0 0 1 0 0 
1 0 1 0 1 
Solution: -4 0
Gbest: -6.000000
Expectation: -9.963884
Final Parameters:
Gammas:
[ 3.466803 ]
Betas:
[ 3.140423 2.835953 ]
Aggregate results:
[ 3 7 13 11 9 5 15 17 24 ]
[ 0.053874 0.344189 0.083985 0.137820 0.194861 0.098187 0.029927 0.040033 0.017123 ]
5
Num Evals 2000
GenUC: 2.150002e-05
GenUB: 1.724018e-05
Optimisation 9.348823e-02
Total Time: 9.383256e-02
5 Add/Rem 5
Graph 1:
1 0 1 0 0 
0 1 1 1 0 
1 1 0 1 0 
0 0 1 1 0 
1 0 1 0 1 
Graph 2:
0 1 1 0 0 
0 1 1 1 0 
0 1 0 1 0 
0 1 0 0 1 
1 1 1 0 0 
Solution: -9 0
Gbest: -9.000000
Expectation: -12.207391
Final Parameters:
Gammas:
[ 5.700127 ]
Betas:
[ 1.135279 0.274698 ]
Aggregate results:
[ 8 10 12 14 16 18 24 ]
[ 0.128180 0.473650 0.226394 0.085670 0.057532 0.012825 0.015749 ]
5
Num Evals 2500
GenUC: 2.371887e-05
GenUB: 1.734518e-05
Optimisation 7.888259e-02
Total Time: 7.908130e-02
