Clock Speed: 3.689292
Num threads: 4
Trotterisation: 1
Graph Size: 6
Num Qubits: 10
Space Dimension: 1024
Run-Type: 0
Num_samples: 10
1 Isomorphic
Graph 1:
0 1 1 1 1 1 
1 1 1 0 0 1 
1 0 0 0 1 0 
1 0 1 0 1 0 
1 0 0 0 0 0 
0 1 1 1 0 0 
Graph 2:
0 1 1 1 1 1 
1 1 1 0 0 1 
1 0 0 0 1 0 
1 0 1 0 1 0 
1 0 0 0 0 0 
0 1 1 1 0 0 
Solution: 0 0
Gbest: -16.000000
Expectation: -21.271044
Final Parameters:
Gammas:
[ 4.791360 ]
Betas:
[ 1.664749 2.665432 ]
Aggregate results:
[ -1 13 15 9 11 17 3 5 19 21 7 23 35 ]
[ 0.000059 0.143970 0.174555 0.014915 0.054433 0.208812 0.000833 0.004260 0.120475 0.029138 0.003158 0.003096 0.242295 ]
5
Num Evals 600
GenUC: 2.581108e-04
GenUB: 1.957762e-04
Optimisation 5.570860e-01
Total Time: 5.584726e-01
2 Flipped
Graph 1:
0 1 1 1 1 1 
1 1 1 0 0 1 
1 0 0 0 1 0 
1 0 1 0 1 0 
1 0 0 0 0 0 
0 1 1 1 0 0 
Graph 2:
1 1 1 1 1 0 
1 0 0 1 1 1 
0 1 0 0 0 1 
0 1 0 1 0 1 
0 0 0 0 0 1 
0 0 1 1 1 0 
Solution: -8 633
Gbest: -10.000000
Expectation: -22.168081
Final Parameters:
Gammas:
[ 4.580814 ]
Betas:
[ 1.400667 2.792908 ]
Aggregate results:
[ 19 13 21 11 17 15 9 23 7 35 ]
[ 0.169820 0.093577 0.034815 0.077265 0.145985 0.188238 0.006366 0.010772 0.000967 0.272196 ]
3
Num Evals 726
GenUC: 1.363501e-04
GenUB: 1.442665e-04
Optimisation 1.257130e-01
Total Time: 1.269109e-01
3 Add 6
Graph 1:
0 1 1 1 1 1 
1 1 1 0 0 1 
1 0 0 0 1 0 
1 0 1 0 1 0 
1 0 0 0 0 0 
0 1 1 1 0 0 
Graph 2:
0 1 1 1 1 1 
1 1 1 0 0 1 
1 1 1 0 1 0 
1 1 1 0 1 0 
1 1 0 0 0 1 
0 1 1 1 1 0 
Solution: -6 0
Gbest: -14.000000
Expectation: -22.218750
Final Parameters:
Gammas:
[ 4.712389 ]
Betas:
[ 1.570774 1.570796 ]
Aggregate results:
[ 5 13 17 9 15 11 19 7 21 35 ]
[ 0.000977 0.137695 0.175781 0.005859 0.232422 0.045898 0.083008 0.001953 0.019531 0.296875 ]
3
Num Evals 779
GenUC: 1.217349e-04
GenUB: 1.681109e-04
Optimisation 4.280441e-02
Total Time: 4.387998e-02
4 Rem 6
Graph 1:
0 1 1 1 1 1 
1 1 1 0 0 1 
1 0 0 0 1 0 
1 0 1 0 1 0 
1 0 0 0 0 0 
0 1 1 1 0 0 
Graph 2:
0 1 1 0 1 1 
1 1 0 0 0 0 
1 0 0 0 1 0 
1 0 0 0 1 0 
1 0 0 0 0 0 
0 1 0 1 0 0 
Solution: -5 0
Gbest: -15.000000
Expectation: -22.383635
Final Parameters:
Gammas:
[ 3.055528 ]
Betas:
[ 1.566726 1.671713 ]
Aggregate results:
[ 4 16 14 8 10 18 20 22 12 6 24 35 ]
[ 0.002377 0.196007 0.139548 0.012875 0.021828 0.175504 0.092232 0.014945 0.060014 0.001315 0.001358 0.281998 ]
5
Num Evals 1379
GenUC: 1.210964e-04
GenUB: 1.617197e-04
Optimisation 4.684978e-01
Total Time: 4.695804e-01
5 Add/Rem 6
Graph 1:
0 1 1 1 1 1 
1 1 1 0 0 1 
1 0 0 0 1 0 
1 0 1 0 1 0 
1 0 0 0 0 0 
0 1 1 1 0 0 
Graph 2:
0 1 0 1 1 0 
0 1 0 1 0 1 
1 1 0 0 1 1 
1 0 1 0 0 0 
1 1 0 1 0 0 
0 1 1 1 0 0 
Solution: -10 0
Gbest: -14.000000
Expectation: -21.097248
Final Parameters:
Gammas:
[ 4.077567 ]
Betas:
[ 1.357740 0.703225 ]
Aggregate results:
[ 9 17 19 13 11 15 21 23 35 ]
[ 0.023188 0.229638 0.074680 0.133225 0.065950 0.208262 0.016037 0.005666 0.243354 ]
5
Num Evals 1979
GenUC: 1.304576e-04
GenUB: 1.687964e-04
Optimisation 3.780813e-01
Total Time: 3.790061e-01
