Clock Speed: 3.498784
Num threads: 16
Trotterisation: 2
Num Qubits: 16
Space Dimension: 65536
Run-Type: 0
Num_samples: 64
Optimiser Method: 34
1 Isomorphic
Graph 1:
0 0 0 1 1 0 1 1 
1 1 0 0 0 1 1 1 
0 0 0 0 0 0 0 1 
0 1 0 1 1 0 0 0 
0 1 1 0 1 0 0 1 
1 1 1 0 0 0 1 1 
1 0 0 1 0 0 1 0 
1 1 0 1 0 1 1 0 
Graph 2:
0 0 0 1 1 0 1 1 
1 1 0 0 0 1 1 1 
0 0 0 0 0 0 0 1 
0 1 0 1 1 0 0 0 
0 1 1 0 1 0 0 1 
1 1 1 0 0 0 1 1 
1 0 0 1 0 0 1 0 
1 1 0 1 0 1 1 0 
Solution: 64 0
Classic Expectation: 32.142857
Initial Expecation: 19.775391
Gbest: 42.000000
Expectation: 27.284336
Final Parameters:
Gammas:
[ 3.265329 3.013374 ]
Betas:
[ 0.568827 2.240935 ]
Aggregate results:
[ 64 52 50 46 54 42 36 40 38 30 44 48 34 32 28 26 24 20 22 56 16 18 58 0 ]
[ 0.000005 0.000105 0.000395 0.002858 0.000034 0.016844 0.108646 0.038384 0.067454 0.127993 0.007467 0.000858 0.145652 0.150297 0.085987 0.049407 0.021912 0.002197 0.007626 0.000000 0.000064 0.000331 0.000002 0.165480 ]
3
Num Evals 177
GenUC: 1.894182e-02
GenUB: 1.338361e-02
Optimisation 3.054502e+01
Total Time: 3.057736e+01
2 Flipped
Graph 1:
0 0 0 1 1 0 1 1 
1 1 0 0 0 1 1 1 
0 0 0 0 0 0 0 1 
0 1 0 1 1 0 0 0 
0 1 1 0 1 0 0 1 
1 1 1 0 0 0 1 1 
1 0 0 1 0 0 1 0 
1 1 0 1 0 1 1 0 
Graph 2:
1 1 0 1 1 0 0 0 
1 1 1 0 0 0 1 1 
1 0 0 0 0 0 0 0 
0 0 0 1 1 0 1 0 
1 0 0 1 0 1 1 0 
1 1 0 0 0 1 1 1 
0 1 0 0 1 0 0 1 
0 1 1 0 1 0 1 1 
Solution: 48 21034
Classic Expectation: 32.214286
Initial Expecation: 19.819336
Gbest: 42.000000
Expectation: 26.562929
Final Parameters:
Gammas:
[ 3.271683 3.392299 ]
Betas:
[ 0.597135 2.168438 ]
Aggregate results:
[ 32 36 34 40 42 30 38 26 28 24 22 20 18 44 46 48 0 ]
[ 0.169239 0.107952 0.153392 0.024886 0.007954 0.136117 0.061710 0.043989 0.090236 0.016044 0.005028 0.000938 0.000113 0.001963 0.000263 0.000050 0.180125 ]
3
Num Evals 250
GenUC: 2.334566e-02
GenUB: 1.434805e-02
Optimisation 4.302731e+01
Total Time: 4.306501e+01
3 Add 8
Graph 1:
0 0 0 1 1 0 1 1 
1 1 0 0 0 1 1 1 
0 0 0 0 0 0 0 1 
0 1 0 1 1 0 0 0 
0 1 1 0 1 0 0 1 
1 1 1 0 0 0 1 1 
1 0 0 1 0 0 1 0 
1 1 0 1 0 1 1 0 
Graph 2:
0 0 1 1 1 0 1 1 
1 1 1 1 1 1 1 1 
1 0 0 0 1 0 0 1 
0 1 0 1 1 0 0 0 
0 1 1 0 1 0 0 1 
1 1 1 0 1 0 1 1 
1 0 0 1 0 0 1 0 
1 1 0 1 0 1 1 0 
Solution: 57 0
Classic Expectation: 31.642857
Initial Expecation: 19.467773
Gbest: 41.000000
Expectation: 25.587196
Final Parameters:
Gammas:
[ 3.295899 3.361517 ]
Betas:
[ 2.528738 1.067504 ]
Aggregate results:
[ 57 45 43 39 47 37 35 41 33 31 27 29 25 23 51 19 21 49 17 15 0 ]
[ 0.000021 0.001220 0.004018 0.033890 0.000332 0.068142 0.111477 0.013929 0.146773 0.153873 0.084646 0.122615 0.040823 0.017311 0.000040 0.001325 0.005730 0.000006 0.000302 0.000026 0.193500 ]
3
Num Evals 243
GenUC: 2.333869e-02
GenUB: 1.351261e-02
Optimisation 4.941801e+01
Total Time: 4.945486e+01
4 Rem 8
Graph 1:
0 0 0 1 1 0 1 1 
1 1 0 0 0 1 1 1 
0 0 0 0 0 0 0 1 
0 1 0 1 1 0 0 0 
0 1 1 0 1 0 0 1 
1 1 1 0 0 0 1 1 
1 0 0 1 0 0 1 0 
1 1 0 1 0 1 1 0 
Graph 2:
0 0 0 1 1 0 0 1 
0 1 0 0 0 1 1 0 
0 0 0 0 0 0 0 1 
0 1 0 1 1 0 0 0 
0 1 1 0 1 0 0 1 
0 1 0 0 0 0 1 1 
1 0 0 1 0 0 1 0 
1 1 0 1 0 0 0 0 
Solution: 57 0
Classic Expectation: 32.642857
Initial Expecation: 20.083008
Gbest: 41.000000
Expectation: 28.188819
Final Parameters:
Gammas:
[ 3.282418 3.372206 ]
Betas:
[ 1.605981 2.317468 ]
Aggregate results:
[ 57 49 47 41 37 39 35 33 43 45 31 29 27 25 23 51 21 19 0 ]
[ 0.000031 0.000095 0.000589 0.021704 0.090642 0.046523 0.145004 0.172318 0.008362 0.001844 0.162237 0.116165 0.062953 0.024308 0.006850 0.000034 0.001211 0.000118 0.139012 ]
3
Num Evals 327
GenUC: 2.336484e-02
GenUB: 1.346715e-02
Optimisation 6.898580e+01
Total Time: 6.902263e+01
5 Add/Rem 8
Graph 1:
0 0 0 1 1 0 1 1 
1 1 0 0 0 1 1 1 
0 0 0 0 0 0 0 1 
0 1 0 1 1 0 0 0 
0 1 1 0 1 0 0 1 
1 1 1 0 0 0 1 1 
1 0 0 1 0 0 1 0 
1 1 0 1 0 1 1 0 
Graph 2:
0 0 0 1 1 0 1 1 
1 1 0 0 0 1 1 1 
0 0 0 0 0 0 1 1 
0 1 0 0 1 1 0 0 
0 1 1 1 1 0 0 1 
1 1 0 0 1 1 1 1 
1 0 0 1 0 1 0 0 
1 0 0 1 1 1 0 0 
Solution: 52 0
Classic Expectation: 31.928571
Initial Expecation: 19.643555
Gbest: 42.000000
Expectation: 26.646090
Final Parameters:
Gammas:
[ 3.265549 3.388559 ]
Betas:
[ 0.514234 2.247127 ]
Aggregate results:
[ 52 50 46 44 42 40 38 34 36 32 30 28 26 24 22 20 18 48 0 ]
[ 0.000011 0.000014 0.001032 0.002744 0.009605 0.027687 0.061822 0.145630 0.102511 0.163717 0.136301 0.093005 0.051098 0.021398 0.007012 0.001665 0.000256 0.000173 0.174320 ]
3
Num Evals 278
GenUC: 2.333897e-02
GenUB: 1.386647e-02
Optimisation 4.726614e+01
Total Time: 4.730334e+01
