Clock Speed: 3.689136
Num threads: 4
Trotterisation: 6
Num Qubits: 3
Space Dimension: 8
Run-Type: 0
Num_samples: 2024
Optimiser Method: 29
1 Isomorphic
Graph 1:
1 1 0 
0 1 1 
1 1 1 
Graph 2:
1 1 0 
0 1 1 
1 1 1 
Solution: 9 0
Classic Expectation: 6.333333
Initial Expecation: 4.750000
Gbest: 9.000000
Expectation: 7.998666
Final Parameters:
Gammas:
[ 4.463849 1.135269 3.855707 3.184482 6.115856 6.002801 ]
Betas:
[ 1.774491 1.666017 1.540449 0.481958 1.670428 1.819002 ]
Aggregate results:
[ 9 5 7 0 ]
[ 0.499801 0.000449 0.499744 0.000005 ]
5
Num Evals 3600
GenUC: 2.574408e-06
GenUB: 7.525028e-06
Optimisation 1.269939e+00
Total Time: 1.269969e+00
2 Flipped
Graph 1:
1 1 0 
0 1 1 
1 1 1 
Graph 2:
0 1 1 
1 1 0 
1 1 1 
Solution: 7 2
Classic Expectation: 5.666667
Initial Expecation: 4.250000
Gbest: 7.000000
Expectation: 6.997640
Final Parameters:
Gammas:
[ 4.996679 1.235510 3.018970 3.018166 5.260571 5.229933 ]
Betas:
[ 1.270038 1.886222 1.542921 0.809764 1.488356 2.008456 ]
Aggregate results:
[ 5 7 0 ]
[ 0.001130 0.998855 0.000014 ]
5
Num Evals 3600
GenUC: 2.627843e-06
GenUB: 9.600772e-07
Optimisation 1.297983e+00
Total Time: 1.297989e+00
3 Add 3
Graph 1:
1 1 0 
0 1 1 
1 1 1 
Graph 2:
1 1 1 
0 1 1 
1 1 1 
Solution: 8 0
Classic Expectation: 6.666667
Initial Expecation: 5.000000
Gbest: 8.000000
Expectation: 7.000000
Final Parameters:
Gammas:
[ 3.708906 2.748903 2.896341 3.291391 2.276991 3.138255 ]
Betas:
[ 1.508256 2.184288 1.560645 0.716900 1.567085 1.063546 ]
Aggregate results:
[ 8 6 0 ]
[ 0.500000 0.500000 0.000000 ]
3
Num Evals 667
GenUC: 2.768065e-06
GenUB: 7.664203e-07
Optimisation 2.401327e-01
Total Time: 2.401382e-01
4 Rem 3
Graph 1:
1 1 0 
0 1 1 
1 1 1 
Graph 2:
1 0 0 
0 0 1 
1 1 1 
Solution: 7 0
Classic Expectation: 5.000000
Initial Expecation: 3.750000
Gbest: 7.000000
Expectation: 5.998770
Final Parameters:
Gammas:
[ 4.973504 2.174179 3.529592 4.046444 2.247822 5.777844 ]
Betas:
[ 1.619346 1.566086 2.405201 2.350668 2.102407 1.413330 ]
Aggregate results:
[ 7 5 3 0 ]
[ 0.499724 0.499949 0.000319 0.000008 ]
5
Num Evals 3600
GenUC: 2.895482e-06
GenUB: 1.018750e-06
Optimisation 1.550429e+00
Total Time: 1.550435e+00
5 Add/Rem 3
Graph 1:
1 1 0 
0 1 1 
1 1 1 
Graph 2:
0 1 1 
0 1 0 
1 1 1 
Solution: 6 0
Classic Expectation: 5.333333
Initial Expecation: 4.000000
Gbest: 6.000000
Expectation: 4.555903
Final Parameters:
Gammas:
[ 2.135301 2.086214 3.141593 3.141593 0.000000 2.929352 ]
Betas:
[ 1.586687 1.570796 1.570796 1.146975 1.570796 1.570796 ]
Aggregate results:
[ 6 4 0 ]
[ 0.738010 0.031961 0.230029 ]
3
Num Evals 282
GenUC: 2.914225e-06
GenUB: 8.479692e-07
Optimisation 1.027086e-01
Total Time: 1.027143e-01
