Clock Speed: 3.689386
Num threads: 4
Trotterisation: 6
Num Qubits: 3
Space Dimension: 8
Run-Type: 0
Num_samples: 2024
Optimiser Method: 29
1 Isomorphic
Graph 1:
0 1 0 
0 1 1 
0 0 1 
Graph 2:
0 1 0 
0 1 1 
0 0 1 
Solution: 9 0
Classic Expectation: 5.000000
Initial Expecation: 3.750000
Gbest: 9.000000
Expectation: 6.807915
Final Parameters:
Gammas:
[ 3.090500 3.448871 2.962747 2.998969 4.570148 3.882496 ]
Betas:
[ 1.319150 1.294424 1.696509 0.850393 1.251177 1.966793 ]
Aggregate results:
[ 9 5 3 0 ]
[ 0.498709 0.411594 0.087189 0.002508 ]
5
Num Evals 3600
GenUC: 2.737623e-06
GenUB: 8.213974e-06
Optimisation 1.274133e+00
Total Time: 1.274165e+00
2 Flipped
Graph 1:
0 1 0 
0 1 1 
0 0 1 
Graph 2:
0 1 0 
1 1 0 
1 0 0 
Solution: 7 4
Classic Expectation: 4.333333
Initial Expecation: 3.250000
Gbest: 7.000000
Expectation: 5.990832
Final Parameters:
Gammas:
[ 1.825478 3.559837 3.896446 3.388386 0.522178 3.517852 ]
Betas:
[ 1.670674 2.914153 2.179661 2.344907 1.156682 1.510543 ]
Aggregate results:
[ 5 3 7 0 ]
[ 0.498867 0.002783 0.498307 0.000043 ]
5
Num Evals 3600
GenUC: 2.898974e-06
GenUB: 1.245295e-06
Optimisation 1.449074e+00
Total Time: 1.449080e+00
3 Add 3
Graph 1:
0 1 0 
0 1 1 
0 0 1 
Graph 2:
0 1 0 
1 1 1 
1 0 1 
Solution: 7 0
Classic Expectation: 4.333333
Initial Expecation: 3.250000
Gbest: 7.000000
Expectation: 5.992142
Final Parameters:
Gammas:
[ 4.755607 1.686698 3.425977 3.402104 2.212081 3.385942 ]
Betas:
[ 1.441753 3.141593 1.742291 3.002377 1.624334 2.259458 ]
Aggregate results:
[ 7 3 5 0 ]
[ 0.499245 0.000323 0.499291 0.001140 ]
5
Num Evals 3600
GenUC: 3.194204e-06
GenUB: 9.013456e-07
Optimisation 1.530128e+00
Total Time: 1.530135e+00
4 Rem 3
Graph 1:
0 1 0 
0 1 1 
0 0 1 
Graph 2:
0 0 0 
0 1 0 
0 0 1 
Solution: 7 0
Classic Expectation: 5.666667
Initial Expecation: 4.250000
Gbest: 7.000000
Expectation: 6.000000
Final Parameters:
Gammas:
[ 5.270025 2.187265 3.051583 3.349592 4.359884 3.045491 ]
Betas:
[ 1.887120 0.900114 1.150465 2.131327 2.114211 2.010583 ]
Aggregate results:
[ 7 5 0 ]
[ 0.500000 0.500000 0.000000 ]
3
Num Evals 1122
GenUC: 3.057998e-06
GenUB: 1.063338e-06
Optimisation 4.294284e-01
Total Time: 4.294347e-01
5 Add/Rem 3
Graph 1:
0 1 0 
0 1 1 
0 0 1 
Graph 2:
1 1 1 
0 0 0 
0 0 1 
Solution: 7 2
Classic Expectation: 5.000000
Initial Expecation: 3.750000
Gbest: 7.000000
Expectation: 5.999999
Final Parameters:
Gammas:
[ 4.861750 1.598395 3.589155 4.012749 2.326377 5.078609 ]
Betas:
[ 1.422768 2.220664 2.445244 2.631783 1.939671 1.040851 ]
Aggregate results:
[ 5 7 3 0 ]
[ 0.500000 0.500000 0.000000 0.000000 ]
3
Num Evals 1741
GenUC: 2.639019e-06
GenUB: 8.374336e-07
Optimisation 6.947766e-01
Total Time: 6.947825e-01
