Clock Speed: 3.689373
Num threads: 4
Trotterisation: 6
Num Qubits: 3
Space Dimension: 8
Run-Type: 0
Num_samples: 2024
Optimiser Method: 29
1 Isomorphic
Graph 1:
1 0 0 
1 0 1 
1 1 0 
Graph 2:
1 0 0 
1 0 1 
1 1 0 
Solution: 9 0
Classic Expectation: 5.000000
Initial Expecation: 3.750000
Gbest: 9.000000
Expectation: 6.000000
Final Parameters:
Gammas:
[ 3.436299 2.477144 3.880648 3.141066 3.632388 3.137124 ]
Betas:
[ 1.544890 2.671945 1.572837 0.879937 1.511559 1.923415 ]
Aggregate results:
[ 9 3 0 ]
[ 0.500000 0.500000 0.000000 ]
3
Num Evals 774
GenUC: 2.840301e-06
GenUB: 8.340110e-06
Optimisation 3.605705e-01
Total Time: 3.606084e-01
2 Flipped
Graph 1:
1 0 0 
1 0 1 
1 1 0 
Graph 2:
0 0 1 
1 0 1 
0 1 1 
Solution: 7 4
Classic Expectation: 5.000000
Initial Expecation: 3.750000
Gbest: 7.000000
Expectation: 6.000000
Final Parameters:
Gammas:
[ 2.616307 3.765961 3.297765 3.083433 3.032550 3.126565 ]
Betas:
[ 2.041416 0.482317 1.859523 0.607329 1.224772 2.427398 ]
Aggregate results:
[ 5 3 7 0 ]
[ 0.500000 0.000000 0.500000 0.000000 ]
3
Num Evals 1055
GenUC: 2.891931e-06
GenUB: 1.158449e-06
Optimisation 4.233955e-01
Total Time: 4.234024e-01
3 Add 3
Graph 1:
1 0 0 
1 0 1 
1 1 0 
Graph 2:
1 0 1 
1 1 1 
1 1 1 
Solution: 6 0
Classic Expectation: 4.666667
Initial Expecation: 3.500000
Gbest: 6.000000
Expectation: 5.000000
Final Parameters:
Gammas:
[ 3.594171 4.127923 3.141594 3.132082 4.193376 3.141593 ]
Betas:
[ 1.572512 1.596314 1.764671 0.737676 1.514187 1.935147 ]
Aggregate results:
[ 6 4 0 ]
[ 0.500000 0.500000 0.000000 ]
3
Num Evals 653
GenUC: 3.222318e-06
GenUB: 9.307405e-07
Optimisation 2.707591e-01
Total Time: 2.707663e-01
4 Rem 3
Graph 1:
1 0 0 
1 0 1 
1 1 0 
Graph 2:
1 0 0 
1 0 0 
0 1 0 
Solution: 7 0
Classic Expectation: 4.333333
Initial Expecation: 3.250000
Gbest: 7.000000
Expectation: 5.000000
Final Parameters:
Gammas:
[ 3.046543 3.281667 3.833356 1.771560 6.248127 5.245970 ]
Betas:
[ 1.690376 2.833696 2.800721 2.072501 1.869231 1.612325 ]
Aggregate results:
[ 7 3 0 ]
[ 0.500000 0.500000 0.000000 ]
3
Num Evals 924
GenUC: 2.884306e-06
GenUB: 1.025794e-06
Optimisation 3.788458e-01
Total Time: 3.788527e-01
5 Add/Rem 3
Graph 1:
1 0 0 
1 0 1 
1 1 0 
Graph 2:
0 0 1 
0 1 1 
1 0 1 
Solution: 5 2
Classic Expectation: 4.333333
Initial Expecation: 3.250000
Gbest: 5.000000
Expectation: 5.000000
Final Parameters:
Gammas:
[ 4.339374 2.176742 3.116350 2.756406 4.712681 3.136003 ]
Betas:
[ 1.529762 1.828352 1.828495 0.852822 1.431254 2.251795 ]
Aggregate results:
[ 3 5 0 ]
[ 0.000000 1.000000 0.000000 ]
3
Num Evals 1149
GenUC: 2.544548e-06
GenUB: 8.807983e-07
Optimisation 4.213679e-01
Total Time: 4.213742e-01
