Clock Speed: 3.688964
Num threads: 4
Trotterisation: 2
Graph Size: 3
Num Qubits: 3
Space Dimension: 8
Run-Type: 0
Num_samples: 10
1 Isomorphic
Graph 1:
0 1 0 
0 1 0 
1 1 1 
Graph 2:
0 1 0 
0 1 0 
1 1 1 
Solution: 0 0
Gbest: 0.000000
Expectation: -2.441955
Final Parameters:
Gammas:
[ 3.108463 5.070376 ]
Betas:
[ 2.090169 1.281459 2.457520 ]
Aggregate results:
[ -1 3 5 8 ]
[ 0.613202 0.056938 0.251513 0.078347 ]
5
Num Evals 300
GenUC: 1.419486e-04
GenUB: 7.858325e-06
Optimisation 4.627930e-02
Total Time: 4.661885e-02
2 Flipped
Graph 1:
0 1 0 
0 1 0 
1 1 1 
Graph 2:
0 1 0 
0 1 0 
1 1 1 
Solution: 0 0
Gbest: 0.000000
Expectation: -2.441955
Final Parameters:
Gammas:
[ 3.108463 5.070376 ]
Betas:
[ 2.090169 1.281459 2.457520 ]
Aggregate results:
[ -1 3 5 8 ]
[ 0.613202 0.056938 0.251513 0.078347 ]
5
Num Evals 600
GenUC: 6.513321e-06
GenUB: 5.351962e-06
Optimisation 4.603159e-02
Total Time: 4.620044e-02
3 Add 3
Graph 1:
0 1 0 
0 1 0 
1 1 1 
Graph 2:
0 1 1 
1 1 1 
1 1 1 
Solution: -3 0
Gbest: -3.000000
Expectation: -5.500000
Final Parameters:
Gammas:
[ 4.712389 4.712389 ]
Betas:
[ 2.356194 1.570796 1.570796 ]
Aggregate results:
[ 2 4 8 ]
[ 0.250000 0.500000 0.250000 ]
3
Num Evals 606
GenUC: 6.644172e-06
GenUB: 5.216454e-06
Optimisation 8.908559e-04
Total Time: 1.057987e-03
4 Rem 3
Graph 1:
0 1 0 
0 1 0 
1 1 1 
Graph 2:
0 0 0 
0 0 0 
1 0 1 
Solution: -3 0
Gbest: -3.000000
Expectation: -3.256652
Final Parameters:
Gammas:
[ 3.614433 1.785519 ]
Betas:
[ 0.986383 2.361169 0.098269 ]
Aggregate results:
[ 2 4 6 8 ]
[ 0.925923 0.046225 0.001456 0.026396 ]
5
Num Evals 906
GenUC: 5.985203e-06
GenUB: 5.249865e-06
Optimisation 3.880673e-02
Total Time: 3.894591e-02
5 Add/Rem 3
Graph 1:
0 1 0 
0 1 0 
1 1 1 
Graph 2:
1 1 1 
0 0 1 
0 0 1 
Solution: 0 4
Gbest: 0.000000
Expectation: -1.995228
Final Parameters:
Gammas:
[ 3.716571 3.759570 ]
Betas:
[ 2.500001 1.589516 0.691746 ]
Aggregate results:
[ 5 3 -1 8 ]
[ 0.003321 0.487357 0.506447 0.002875 ]
5
Num Evals 1206
GenUC: 6.302609e-06
GenUB: 5.579670e-06
Optimisation 5.601062e-02
Total Time: 5.617594e-02
