Clock Speed: 3.688933
Num threads: 4
Trotterisation: 2
Num Qubits: 7
Space Dimension: 128
Run-Type: 0
Num_samples: 15624
Optimiser Method: 20
1 Isomorphic
Graph 1:
1 1 1 0 0 
0 1 1 0 1 
1 0 1 1 0 
1 0 0 1 0 
1 0 1 0 1 
Graph 2:
1 1 1 0 0 
0 1 1 0 1 
1 0 1 1 0 
1 0 0 1 0 
1 0 1 0 1 
Solution: 25 0
Classic Expectation: 15.100000
Initial Expecation: 14.156250
Gbest: 25.000000
Expectation: 16.175410
Final Parameters:
Gammas:
[ 0.209565 2.826061 ]
Betas:
[ 2.798832 0.532129 ]
Aggregate results:
[ 25 19 17 15 11 7 13 21 23 9 0 ]
[ 0.018026 0.134949 0.162408 0.402452 0.032430 0.023205 0.055211 0.125443 0.014218 0.018310 0.013348 ]
5
Num Evals 2000
GenUC: 4.109222e-05
GenUB: 1.656526e-05
Optimisation 5.473856e-01
Total Time: 5.474625e-01
2 Flipped
Graph 1:
1 1 1 0 0 
0 1 1 0 1 
1 0 1 1 0 
1 0 0 1 0 
1 0 1 0 1 
Graph 2:
0 0 1 1 1 
1 0 1 1 0 
0 1 1 0 1 
0 1 0 0 1 
1 0 1 0 1 
Solution: 15 9
Classic Expectation: 11.800000
Initial Expecation: 11.062500
Gbest: 15.000000
Expectation: 12.467829
Final Parameters:
Gammas:
[ 3.021024 2.670585 ]
Betas:
[ 0.004898 2.883475 ]
Aggregate results:
[ 9 11 7 13 15 0 ]
[ 0.094405 0.160080 0.026663 0.346265 0.344615 0.027973 ]
5
Num Evals 2000
GenUC: 4.469423e-05
GenUB: 2.818007e-06
Optimisation 4.402009e-01
Total Time: 4.402504e-01
3 Add 5
Graph 1:
1 1 1 0 0 
0 1 1 0 1 
1 0 1 1 0 
1 0 0 1 0 
1 0 1 0 1 
Graph 2:
1 1 1 0 1 
0 1 1 0 1 
1 0 1 1 0 
1 0 1 1 1 
1 1 1 1 1 
Solution: 20 0
Classic Expectation: 14.600000
Initial Expecation: 13.687500
Gbest: 20.000000
Expectation: 14.436925
Final Parameters:
Gammas:
[ 4.242375 3.177653 ]
Betas:
[ 0.580781 2.017345 ]
Aggregate results:
[ 20 16 18 12 14 10 8 0 ]
[ 0.014724 0.329990 0.101382 0.158525 0.354881 0.015773 0.001170 0.023554 ]
5
Num Evals 2000
GenUC: 4.518841e-05
GenUB: 2.593850e-06
Optimisation 4.874572e-01
Total Time: 4.875070e-01
4 Rem 5
Graph 1:
1 1 1 0 0 
0 1 1 0 1 
1 0 1 1 0 
1 0 0 1 0 
1 0 1 0 1 
Graph 2:
0 1 1 0 0 
0 1 1 0 1 
0 0 0 0 0 
1 0 0 1 0 
1 0 1 0 0 
Solution: 20 0
Classic Expectation: 12.300000
Initial Expecation: 11.531250
Gbest: 20.000000
Expectation: 13.325936
Final Parameters:
Gammas:
[ 6.120917 4.322878 ]
Betas:
[ 2.893451 0.060566 ]
Aggregate results:
[ 20 16 14 12 8 10 6 18 0 ]
[ 0.021802 0.129111 0.362495 0.275673 0.017686 0.107158 0.001503 0.067724 0.016849 ]
5
Num Evals 2000
GenUC: 4.379055e-05
GenUB: 2.581510e-06
Optimisation 4.830924e-01
Total Time: 4.831410e-01
5 Add/Rem 5
Graph 1:
1 1 1 0 0 
0 1 1 0 1 
1 0 1 1 0 
1 0 0 1 0 
1 0 1 0 1 
Graph 2:
1 0 1 0 1 
1 1 0 0 0 
1 0 1 1 0 
1 1 1 1 0 
1 0 0 1 1 
Solution: 20 8
Classic Expectation: 15.000000
Initial Expecation: 14.062500
Gbest: 20.000000
Expectation: 16.162157
Final Parameters:
Gammas:
[ 2.631069 1.178158 ]
Betas:
[ 2.801207 3.141593 ]
Aggregate results:
[ 16 14 18 20 12 10 0 ]
[ 0.332815 0.126496 0.268780 0.161602 0.057296 0.030852 0.022158 ]
5
Num Evals 2000
GenUC: 4.407926e-05
GenUB: 2.538029e-06
Optimisation 7.825857e-01
Total Time: 7.826344e-01
