Clock Speed: 3.688538
Num threads: 4
Trotterisation: 2
Num Qubits: 7
Space Dimension: 128
Run-Type: 0
Num_samples: 15624
Optimiser Method: 20
1 Isomorphic
Graph 1:
1 1 1 0 0 
0 1 1 1 1 
1 1 0 1 1 
1 1 0 1 1 
1 0 1 1 1 
Graph 2:
1 1 1 0 0 
0 1 1 1 1 
1 1 0 1 1 
1 1 0 1 1 
1 0 1 1 1 
Solution: 25 0
Classic Expectation: 15.900000
Initial Expecation: 14.906250
Gbest: 25.000000
Expectation: 15.891964
Final Parameters:
Gammas:
[ 4.544369 3.079428 ]
Betas:
[ 2.484358 2.897654 ]
Aggregate results:
[ 25 21 19 17 15 13 23 0 ]
[ 0.011742 0.032907 0.116838 0.279427 0.287960 0.179102 0.056063 0.035960 ]
5
Num Evals 2000
GenUC: 4.118844e-05
GenUB: 1.402077e-05
Optimisation 7.323505e-01
Total Time: 7.324268e-01
2 Flipped
Graph 1:
1 1 1 0 0 
0 1 1 1 1 
1 1 0 1 1 
1 1 0 1 1 
1 0 1 1 1 
Graph 2:
0 0 1 1 1 
1 1 1 1 0 
1 1 0 1 1 
1 1 0 1 1 
1 1 1 0 1 
Solution: 23 105
Classic Expectation: 15.800000
Initial Expecation: 14.812500
Gbest: 23.000000
Expectation: 15.519038
Final Parameters:
Gammas:
[ 4.684659 5.415410 ]
Betas:
[ 2.010937 0.246614 ]
Aggregate results:
[ 17 15 13 19 21 23 0 ]
[ 0.180696 0.285006 0.231348 0.212935 0.019374 0.030956 0.039686 ]
5
Num Evals 2000
GenUC: 4.476873e-05
GenUB: 3.042223e-06
Optimisation 4.392034e-01
Total Time: 4.392532e-01
3 Add 5
Graph 1:
1 1 1 0 0 
0 1 1 1 1 
1 1 0 1 1 
1 1 0 1 1 
1 0 1 1 1 
Graph 2:
1 1 1 1 0 
1 1 1 1 1 
1 1 1 1 1 
1 1 0 1 1 
1 1 1 1 1 
Solution: 21 0
Classic Expectation: 18.000000
Initial Expecation: 16.875000
Gbest: 21.000000
Expectation: 17.843115
Final Parameters:
Gammas:
[ 3.103735 1.100097 ]
Betas:
[ 0.575106 0.786876 ]
Aggregate results:
[ 21 19 17 0 ]
[ 0.110848 0.347026 0.524812 0.017314 ]
5
Num Evals 2000
GenUC: 4.488905e-05
GenUB: 2.593850e-06
Optimisation 3.753598e-01
Total Time: 3.754092e-01
4 Rem 5
Graph 1:
1 1 1 0 0 
0 1 1 1 1 
1 1 0 1 1 
1 1 0 1 1 
1 0 1 1 1 
Graph 2:
1 1 1 0 0 
0 1 1 1 1 
0 1 0 1 1 
1 0 0 1 1 
0 0 1 1 1 
Solution: 22 0
Classic Expectation: 14.400000
Initial Expecation: 13.500000
Gbest: 22.000000
Expectation: 15.346832
Final Parameters:
Gammas:
[ 6.237459 3.267733 ]
Betas:
[ 1.273733 0.243443 ]
Aggregate results:
[ 22 20 16 14 18 12 10 0 ]
[ 0.022971 0.070214 0.324366 0.259466 0.152774 0.136462 0.022734 0.011013 ]
5
Num Evals 2000
GenUC: 4.366727e-05
GenUB: 2.427783e-06
Optimisation 3.800055e-01
Total Time: 3.800539e-01
5 Add/Rem 5
Graph 1:
1 1 1 0 0 
0 1 1 1 1 
1 1 0 1 1 
1 1 0 1 1 
1 0 1 1 1 
Graph 2:
1 1 1 1 0 
1 1 1 0 0 
1 1 1 1 0 
1 1 1 1 1 
0 0 1 0 1 
Solution: 20 113
Classic Expectation: 15.500000
Initial Expecation: 14.531250
Gbest: 20.000000
Expectation: 15.077286
Final Parameters:
Gammas:
[ 1.327673 0.832076 ]
Betas:
[ 1.741747 0.298742 ]
Aggregate results:
[ 16 14 12 18 20 0 ]
[ 0.514461 0.242711 0.026247 0.156330 0.015954 0.044299 ]
5
Num Evals 2000
GenUC: 4.383101e-05
GenUB: 2.478249e-06
Optimisation 4.415588e-01
Total Time: 4.416069e-01
