Clock Speed: 3.689350
Num threads: 4
Trotterisation: 6
Graph Size: 4
Num Qubits: 5
Space Dimension: 32
Run-Type: 0
Num_samples: 10
1 Isomorphic
Graph 1:
0 0 0 1 
0 1 0 0 
0 1 1 1 
0 1 0 1 
Graph 2:
0 0 0 1 
0 1 0 0 
0 1 1 1 
0 1 0 1 
Solution: 0 0
Gbest: 0.000000
Expectation: -4.497328
Final Parameters:
Gammas:
[ 2.610008 0.210377 5.622301 1.326757 4.426796 1.278060 ]
Betas:
[ 0.884252 1.531623 0.500204 2.703385 0.355816 0.869811 0.283870 ]
Aggregate results:
[ -1 7 5 3 9 15 ]
[ 0.395414 0.106497 0.181246 0.187550 0.043501 0.085791 ]
5
Num Evals 400
GenUC: 1.003747e-03
GenUB: 1.369615e-05
Optimisation 2.012234e-01
Total Time: 2.026928e-01
2 Flipped
Graph 1:
0 0 0 1 
0 1 0 0 
0 1 1 1 
0 1 0 1 
Graph 2:
1 0 0 0 
0 0 1 0 
1 1 1 0 
1 0 1 0 
Solution: -2 10
Gbest: -2.000000
Expectation: -6.462602
Final Parameters:
Gammas:
[ 3.432557 0.426083 4.680783 4.982035 4.722720 5.519069 ]
Betas:
[ 1.138815 2.733211 2.427875 1.775167 0.515870 1.445836 0.605080 ]
Aggregate results:
[ 9 5 7 11 3 1 15 ]
[ 0.069747 0.427219 0.275211 0.003453 0.121102 0.084143 0.019125 ]
5
Num Evals 800
GenUC: 9.207969e-04
GenUB: 8.786679e-06
Optimisation 2.488999e-01
Total Time: 2.503135e-01
3 Add 4
Graph 1:
0 0 0 1 
0 1 0 0 
0 1 1 1 
0 1 0 1 
Graph 2:
0 0 0 1 
1 1 1 0 
0 1 1 1 
1 1 0 1 
Solution: -3 0
Gbest: -3.000000
Expectation: -7.353211
Final Parameters:
Gammas:
[ 5.208693 1.058613 3.489871 2.688512 3.627878 3.683010 ]
Betas:
[ 2.987988 0.286632 2.057966 1.934523 1.723565 2.924412 2.755428 ]
Aggregate results:
[ 2 8 6 10 4 15 ]
[ 0.133223 0.174062 0.474011 0.058952 0.103236 0.056516 ]
5
Num Evals 1200
GenUC: 1.044860e-05
GenUB: 8.317234e-06
Optimisation 3.181648e-01
Total Time: 3.187542e-01
4 Rem 4
Graph 1:
0 0 0 1 
0 1 0 0 
0 1 1 1 
0 1 0 1 
Graph 2:
0 0 0 1 
0 0 0 0 
0 1 1 0 
0 1 0 0 
Solution: -3 0
Gbest: -5.000000
Expectation: -7.156638
Final Parameters:
Gammas:
[ 1.734942 3.073593 4.422293 5.015931 0.372279 6.281509 ]
Betas:
[ 3.082445 2.933102 2.472356 2.102696 1.564124 1.462533 1.271876 ]
Aggregate results:
[ 2 8 10 6 4 15 ]
[ 0.067577 0.141419 0.042813 0.574318 0.144728 0.029145 ]
5
Num Evals 1600
GenUC: 3.108737e-04
GenUB: 8.842442e-06
Optimisation 3.038764e-01
Total Time: 3.048959e-01
5 Add/Rem 4
Graph 1:
0 0 0 1 
0 1 0 0 
0 1 1 1 
0 1 0 1 
Graph 2:
0 0 1 0 
0 0 1 1 
0 0 1 1 
0 1 1 1 
Solution: -3 8
Gbest: -5.000000
Expectation: -7.556843
Final Parameters:
Gammas:
[ 4.379119 2.944452 0.418421 5.891753 2.454437 2.249560 ]
Betas:
[ 2.399342 0.060729 0.217451 3.091699 2.168798 2.212657 2.102253 ]
Aggregate results:
[ 6 8 4 2 10 12 15 ]
[ 0.193596 0.118248 0.488117 0.012354 0.063875 0.007935 0.115876 ]
5
Num Evals 2000
GenUC: 1.136406e-05
GenUB: 8.814852e-06
Optimisation 2.075319e-01
Total Time: 2.080509e-01
