Clock Speed: 3.677958
Num threads: 4
Trotterisation: 1
Num Qubits: 10
Space Dimension: 1024
Run-Type: 0
Num_samples: 32399
Optimiser Method: 29
1 Isomorphic
Graph 1:
1 1 1 0 1 0 
1 1 1 0 0 0 
1 1 0 0 0 1 
0 1 0 1 1 0 
0 1 1 1 1 1 
0 1 1 1 1 0 
Graph 2:
1 1 1 0 1 0 
1 1 1 0 0 0 
1 1 0 0 0 1 
0 1 0 1 1 0 
0 1 1 1 1 1 
0 1 1 1 1 0 
Solution: 36 0
Classic Expectation: 18.933333
Initial Expecation: 13.312500
Gbest: 36.000000
Expectation: 14.303893
Final Parameters:
Gammas:
[ 4.002436 ]
Betas:
[ 2.608909 ]
Aggregate results:
[ 36 28 30 26 24 22 20 18 16 14 12 0 ]
[ 0.000087 0.001409 0.001421 0.012702 0.043684 0.133916 0.171069 0.178523 0.131198 0.072678 0.011868 0.241445 ]
3
Num Evals 128
GenUC: 4.152670e-04
GenUB: 1.126977e-04
Optimisation 1.338786e+00
Total Time: 1.339338e+00
2 Flipped
Graph 1:
1 1 1 0 1 0 
1 1 1 0 0 0 
1 1 0 0 0 1 
0 1 0 1 1 0 
0 1 1 1 1 1 
0 1 1 1 1 0 
Graph 2:
0 1 0 1 1 1 
0 0 0 1 1 1 
1 0 0 0 1 1 
0 1 1 0 1 0 
1 1 1 1 1 0 
0 1 1 1 1 0 
Solution: 26 73
Classic Expectation: 18.533333
Initial Expecation: 13.031250
Gbest: 26.000000
Expectation: 16.289686
Final Parameters:
Gammas:
[ 5.866104 ]
Betas:
[ 2.821570 ]
Aggregate results:
[ 20 16 18 22 12 14 24 26 10 0 ]
[ 0.223563 0.072434 0.123534 0.218396 0.011613 0.048767 0.090188 0.024040 0.001952 0.185513 ]
3
Num Evals 116
GenUC: 2.804936e-04
GenUB: 5.275448e-05
Optimisation 4.738876e-01
Total Time: 4.742235e-01
3 Add 6
Graph 1:
1 1 1 0 1 0 
1 1 1 0 0 0 
1 1 0 0 0 1 
0 1 0 1 1 0 
0 1 1 1 1 1 
0 1 1 1 1 0 
Graph 2:
1 1 1 0 1 1 
1 1 1 0 0 0 
1 1 0 0 0 1 
1 1 0 1 1 1 
0 1 1 1 1 1 
1 1 1 1 1 1 
Solution: 31 0
Classic Expectation: 20.066667
Initial Expecation: 14.109375
Gbest: 31.000000
Expectation: 17.236147
Final Parameters:
Gammas:
[ 3.530386 ]
Betas:
[ 2.633686 ]
Aggregate results:
[ 31 29 27 25 23 21 19 17 15 13 0 ]
[ 0.000808 0.001660 0.012296 0.040472 0.155253 0.241959 0.220361 0.122158 0.050737 0.010971 0.143326 ]
3
Num Evals 143
GenUC: 2.796973e-04
GenUB: 6.121024e-05
Optimisation 5.338711e-01
Total Time: 5.342149e-01
4 Rem 6
Graph 1:
1 1 1 0 1 0 
1 1 1 0 0 0 
1 1 0 0 0 1 
0 1 0 1 1 0 
0 1 1 1 1 1 
0 1 1 1 1 0 
Graph 2:
1 1 0 0 0 0 
1 1 0 0 0 0 
1 1 0 0 0 0 
0 1 0 1 1 0 
0 0 0 1 1 1 
0 1 1 1 1 0 
Solution: 30 0
Classic Expectation: 17.733333
Initial Expecation: 12.468750
Gbest: 30.000000
Expectation: 14.896986
Final Parameters:
Gammas:
[ 5.856084 ]
Betas:
[ 2.870983 ]
Aggregate results:
[ 30 26 28 24 20 22 18 16 14 12 10 8 0 ]
[ 0.001183 0.020844 0.002630 0.052234 0.219428 0.161409 0.125622 0.077262 0.061837 0.041247 0.018817 0.000811 0.216675 ]
3
Num Evals 112
GenUC: 2.800013e-04
GenUB: 5.997840e-05
Optimisation 3.116461e-01
Total Time: 3.119887e-01
5 Add/Rem 6
Graph 1:
1 1 1 0 1 0 
1 1 1 0 0 0 
1 1 0 0 0 1 
0 1 0 1 1 0 
0 1 1 1 1 1 
0 1 1 1 1 0 
Graph 2:
1 1 1 1 1 1 
1 1 1 1 1 0 
0 0 0 1 0 1 
0 1 0 0 0 0 
0 0 1 1 1 1 
0 1 1 1 1 1 
Solution: 27 49
Classic Expectation: 19.133333
Initial Expecation: 13.453125
Gbest: 27.000000
Expectation: 17.211978
Final Parameters:
Gammas:
[ 3.220241 ]
Betas:
[ 2.608154 ]
Aggregate results:
[ 25 23 21 19 17 15 27 13 11 0 ]
[ 0.025494 0.103343 0.221215 0.245285 0.206677 0.078498 0.003074 0.007469 0.001887 0.107059 ]
3
Num Evals 158
GenUC: 2.808152e-04
GenUB: 5.018996e-05
Optimisation 2.704824e+00
Total Time: 2.705158e+00
