Clock Speed: 3.689424
Num threads: 4
Trotterisation: 1
Num Qubits: 10
Space Dimension: 1024
Run-Type: 0
Num_samples: 32399
Optimiser Method: 29
1 Isomorphic
Graph 1:
0 1 1 1 0 1 
0 0 0 0 0 0 
0 1 0 1 0 0 
0 0 0 1 1 1 
1 0 1 0 1 1 
1 0 0 1 0 1 
Graph 2:
0 1 1 1 0 1 
0 0 0 0 0 0 
0 1 0 1 0 0 
0 0 0 1 1 1 
1 0 1 0 1 1 
1 0 0 1 0 1 
Solution: 36 0
Classic Expectation: 18.266667
Initial Expecation: 12.843750
Gbest: 36.000000
Expectation: 16.515833
Final Parameters:
Gammas:
[ 6.190249 ]
Betas:
[ 2.613462 ]
Aggregate results:
[ 36 28 24 26 22 20 18 30 16 14 10 12 0 ]
[ 0.001843 0.007685 0.054379 0.014320 0.118052 0.159677 0.217429 0.003902 0.184661 0.113760 0.001103 0.014763 0.108425 ]
3
Num Evals 153
GenUC: 2.606856e-04
GenUB: 9.170803e-05
Optimisation 1.413390e-01
Total Time: 1.417142e-01
2 Flipped
Graph 1:
0 1 1 1 0 1 
0 0 0 0 0 0 
0 1 0 1 0 0 
0 0 0 1 1 1 
1 0 1 0 1 1 
1 0 0 1 0 1 
Graph 2:
1 0 1 1 1 0 
0 0 0 0 0 0 
0 0 1 0 1 0 
1 1 1 0 0 0 
1 1 0 1 0 1 
1 0 1 0 0 1 
Solution: 30 520
Classic Expectation: 18.266667
Initial Expecation: 12.843750
Gbest: 30.000000
Expectation: 16.800927
Final Parameters:
Gammas:
[ 3.054874 ]
Betas:
[ 2.538603 ]
Aggregate results:
[ 16 20 22 24 18 28 14 12 10 26 30 0 ]
[ 0.182469 0.188334 0.122328 0.052073 0.189794 0.011381 0.072746 0.037712 0.002589 0.032163 0.003523 0.104888 ]
3
Num Evals 145
GenUC: 2.798857e-04
GenUB: 5.026266e-05
Optimisation 1.226397e-01
Total Time: 1.229719e-01
3 Add 6
Graph 1:
0 1 1 1 0 1 
0 0 0 0 0 0 
0 1 0 1 0 0 
0 0 0 1 1 1 
1 0 1 0 1 1 
1 0 0 1 0 1 
Graph 2:
0 1 1 1 0 1 
0 1 0 0 1 0 
0 1 1 1 1 0 
1 0 0 1 1 1 
1 0 1 1 1 1 
1 0 0 1 0 1 
Solution: 30 0
Classic Expectation: 17.733333
Initial Expecation: 12.468750
Gbest: 30.000000
Expectation: 16.010337
Final Parameters:
Gammas:
[ 6.189781 ]
Betas:
[ 2.570950 ]
Aggregate results:
[ 30 24 26 22 20 18 16 14 12 10 0 ]
[ 0.002226 0.031892 0.003668 0.099833 0.188363 0.213832 0.207815 0.105640 0.037562 0.001548 0.107621 ]
3
Num Evals 142
GenUC: 2.796527e-04
GenUB: 5.396438e-05
Optimisation 1.191866e-01
Total Time: 1.195224e-01
4 Rem 6
Graph 1:
0 1 1 1 0 1 
0 0 0 0 0 0 
0 1 0 1 0 0 
0 0 0 1 1 1 
1 0 1 0 1 1 
1 0 0 1 0 1 
Graph 2:
0 1 1 1 0 0 
0 0 0 0 0 0 
0 0 0 0 0 0 
0 0 0 0 1 1 
1 0 0 0 1 1 
1 0 0 1 0 0 
Solution: 30 0
Classic Expectation: 18.800000
Initial Expecation: 13.218750
Gbest: 30.000000
Expectation: 16.417594
Final Parameters:
Gammas:
[ 5.873067 ]
Betas:
[ 2.836886 ]
Aggregate results:
[ 30 26 22 24 20 18 16 14 12 0 ]
[ 0.005493 0.066588 0.177748 0.117533 0.182294 0.124249 0.084628 0.034549 0.005848 0.201070 ]
3
Num Evals 136
GenUC: 2.804356e-04
GenUB: 5.089055e-05
Optimisation 1.103550e-01
Total Time: 1.106886e-01
5 Add/Rem 6
Graph 1:
0 1 1 1 0 1 
0 0 0 0 0 0 
0 1 0 1 0 0 
0 0 0 1 1 1 
1 0 1 0 1 1 
1 0 0 1 0 1 
Graph 2:
0 1 1 1 0 1 
0 1 0 0 0 0 
0 1 0 0 0 0 
0 1 0 1 0 1 
1 0 1 0 1 0 
0 1 1 0 1 1 
Solution: 28 5
Classic Expectation: 18.400000
Initial Expecation: 12.937500
Gbest: 28.000000
Expectation: 13.897392
Final Parameters:
Gammas:
[ 4.228529 ]
Betas:
[ 2.698394 ]
Aggregate results:
[ 26 22 20 28 24 18 16 14 12 10 0 ]
[ 0.017107 0.100019 0.160991 0.001905 0.036050 0.206775 0.124880 0.080769 0.021891 0.000037 0.249577 ]
3
Num Evals 114
GenUC: 2.805547e-04
GenUB: 5.070161e-05
Optimisation 1.194805e-01
Total Time: 1.198137e-01
