Clock Speed: 3.498556
Num threads: 16
Trotterisation: 1
Num Qubits: 10
Space Dimension: 1024
Run-Type: 0
Num_samples: 36
Optimiser Method: 29
1 Isomorphic
Graph 1:
0 0 1 0 1 0 
1 0 0 0 1 0 
0 0 0 0 0 0 
0 0 1 0 1 0 
1 0 0 0 0 0 
0 0 1 1 0 1 
Graph 2:
0 0 1 0 1 0 
1 0 0 0 1 0 
0 0 0 0 0 0 
0 0 1 0 1 0 
1 0 0 0 0 0 
0 0 1 1 0 1 
Solution: 36 0
Classic Expectation: 21.733333
Initial Expecation: 15.281250
Gbest: 30.000000
Expectation: 18.238693
Final Parameters:
Gammas:
[ 2.774644 ]
Betas:
[ 2.490466 ]
Aggregate results:
[ 36 22 24 30 18 26 16 20 28 32 0 ]
[ 0.002475 0.237464 0.127279 0.008966 0.097132 0.079951 0.023356 0.230058 0.021130 0.006504 0.165686 ]
3
Num Evals 133
GenUC: 3.247024e-04
GenUB: 1.809122e-04
Optimisation 2.746405e-01
Total Time: 2.751563e-01
2 Flipped
Graph 1:
0 0 1 0 1 0 
1 0 0 0 1 0 
0 0 0 0 0 0 
0 0 1 0 1 0 
1 0 0 0 0 0 
0 0 1 1 0 1 
Graph 2:
0 1 0 1 0 0 
0 1 0 0 0 1 
0 0 0 0 0 0 
0 1 0 1 0 0 
0 0 0 0 0 1 
1 0 1 1 0 0 
Solution: 28 124
Classic Expectation: 21.466667
Initial Expecation: 15.093750
Gbest: 28.000000
Expectation: 18.591853
Final Parameters:
Gammas:
[ 2.784282 ]
Betas:
[ 2.856671 ]
Aggregate results:
[ 20 24 22 18 16 26 28 0 ]
[ 0.141559 0.280247 0.245655 0.064779 0.011068 0.084925 0.002827 0.168939 ]
3
Num Evals 144
GenUC: 3.581168e-04
GenUB: 1.314045e-04
Optimisation 1.906318e-01
Total Time: 1.911234e-01
3 Add 6
Graph 1:
0 0 1 0 1 0 
1 0 0 0 1 0 
0 0 0 0 0 0 
0 0 1 0 1 0 
1 0 0 0 0 0 
0 0 1 1 0 1 
Graph 2:
0 0 1 0 1 0 
1 0 0 0 1 1 
0 0 1 1 0 0 
0 0 1 0 1 1 
1 1 0 0 0 0 
0 0 1 1 1 1 
Solution: 30 0
Classic Expectation: 19.066667
Initial Expecation: 13.406250
Gbest: 26.000000
Expectation: 16.931486
Final Parameters:
Gammas:
[ 6.200323 ]
Betas:
[ 2.523743 ]
Aggregate results:
[ 30 20 18 28 26 16 22 24 14 12 0 ]
[ 0.001182 0.235388 0.245083 0.001256 0.013854 0.131157 0.139303 0.050943 0.064998 0.007133 0.109702 ]
3
Num Evals 123
GenUC: 3.579953e-04
GenUB: 1.262687e-04
Optimisation 1.602653e-01
Total Time: 1.607516e-01
4 Rem 6
Graph 1:
0 0 1 0 1 0 
1 0 0 0 1 0 
0 0 0 0 0 0 
0 0 1 0 1 0 
1 0 0 0 0 0 
0 0 1 1 0 1 
Graph 2:
0 0 1 0 0 0 
1 0 0 0 0 0 
0 0 0 0 0 0 
0 0 1 0 0 0 
1 0 0 0 0 0 
0 0 0 1 0 0 
Solution: 31 0
Classic Expectation: 24.000000
Initial Expecation: 16.875000
Gbest: 29.000000
Expectation: 18.384039
Final Parameters:
Gammas:
[ 4.151027 ]
Betas:
[ 0.443535 ]
Aggregate results:
[ 31 27 25 29 23 21 0 ]
[ 0.000604 0.137424 0.228811 0.023454 0.228740 0.142541 0.238424 ]
3
Num Evals 120
GenUC: 3.581811e-04
GenUB: 1.223241e-04
Optimisation 7.282221e-02
Total Time: 7.330473e-02
5 Add/Rem 6
Graph 1:
0 0 1 0 1 0 
1 0 0 0 1 0 
0 0 0 0 0 0 
0 0 1 0 1 0 
1 0 0 0 0 0 
0 0 1 1 0 1 
Graph 2:
1 0 1 1 1 0 
0 0 1 0 0 0 
0 0 0 0 0 0 
0 0 1 0 1 0 
0 0 0 1 0 0 
0 1 0 0 0 0 
Solution: 31 225
Classic Expectation: 22.133333
Initial Expecation: 15.562500
Gbest: 29.000000
Expectation: 19.850970
Final Parameters:
Gammas:
[ 3.212544 ]
Betas:
[ 2.634571 ]
Aggregate results:
[ 25 23 21 27 19 17 29 31 0 ]
[ 0.161009 0.225436 0.250602 0.056032 0.142707 0.039035 0.013675 0.003019 0.108484 ]
3
Num Evals 166
GenUC: 3.580214e-04
GenUB: 1.110327e-04
Optimisation 2.147557e-01
Total Time: 2.152267e-01
