Clock Speed: 3.689066
Num threads: 4
Trotterisation: 5
Graph Size: 3
Num Qubits: 3
Space Dimension: 8
Run-Type: 0
Num_samples: 10
1 Isomorphic
Graph 1:
1 0 0 
0 1 0 
0 1 1 
Graph 2:
1 0 0 
0 1 0 
0 1 1 
Solution: 0 0
Gbest: 0.000000
Expectation: -1.406862
Final Parameters:
Gammas:
[ 4.188731 3.042226 5.293429 6.150479 3.302620 ]
Betas:
[ 0.141477 0.664005 0.588023 2.735432 0.964694 0.048187 ]
Aggregate results:
[ -1 1 8 ]
[ 0.451798 0.503851 0.044351 ]
5
Num Evals 300
GenUC: 1.251489e-04
GenUB: 7.848954e-06
Optimisation 1.386363e-01
Total Time: 1.390301e-01
2 Flipped
Graph 1:
1 0 0 
0 1 0 
0 1 1 
Graph 2:
0 0 1 
0 1 0 
1 1 0 
Solution: -4 0
Gbest: -4.000000
Expectation: -4.273893
Final Parameters:
Gammas:
[ 2.835049 5.070330 4.174573 3.454282 3.248581 ]
Betas:
[ 1.190500 2.681039 0.040377 3.133729 2.232937 0.858733 ]
Aggregate results:
[ 3 5 8 ]
[ 0.911499 0.056205 0.032297 ]
5
Num Evals 600
GenUC: 6.909948e-06
GenUB: 5.580834e-06
Optimisation 1.003487e-01
Total Time: 1.006595e-01
3 Add 3
Graph 1:
1 0 0 
0 1 0 
0 1 1 
Graph 2:
1 1 1 
0 1 0 
0 1 1 
Solution: -2 0
Gbest: -2.000000
Expectation: -2.635920
Final Parameters:
Gammas:
[ 4.884218 0.381060 6.151509 3.987297 5.886506 ]
Betas:
[ 0.663465 0.856714 3.084541 1.718182 1.194834 2.422066 ]
Aggregate results:
[ 1 3 8 ]
[ 0.823722 0.119605 0.056673 ]
5
Num Evals 900
GenUC: 8.577248e-06
GenUB: 5.447539e-06
Optimisation 8.781080e-02
Total Time: 8.813285e-02
4 Rem 3
Graph 1:
1 0 0 
0 1 0 
0 1 1 
Graph 2:
0 0 0 
0 1 0 
0 0 1 
Solution: -2 0
Gbest: -2.000000
Expectation: -2.014500
Final Parameters:
Gammas:
[ 4.443413 3.974221 2.104354 5.661470 1.613189 ]
Betas:
[ 3.077985 0.887680 0.808886 2.606749 1.580268 2.422829 ]
Aggregate results:
[ 1 8 ]
[ 0.997929 0.002071 ]
5
Num Evals 1200
GenUC: 6.390037e-06
GenUB: 5.383044e-06
Optimisation 1.378618e-01
Total Time: 1.381932e-01
5 Add/Rem 3
Graph 1:
1 0 0 
0 1 0 
0 1 1 
Graph 2:
0 0 1 
0 0 1 
1 1 1 
Solution: -5 0
Gbest: -5.000000
Expectation: -5.086695
Final Parameters:
Gammas:
[ 2.460298 4.846675 3.464045 5.103362 4.177132 ]
Betas:
[ 0.497533 0.743161 1.325008 2.971776 0.759494 1.386747 ]
Aggregate results:
[ 4 6 8 ]
[ 0.960813 0.035026 0.004161 ]
5
Num Evals 1500
GenUC: 5.808426e-06
GenUB: 5.483394e-06
Optimisation 8.744700e-02
Total Time: 8.773992e-02
