Clock Speed: 3.689036
Num threads: 4
Trotterisation: 6
Graph Size: 3
Num Qubits: 3
Space Dimension: 8
Run-Type: 0
Num_samples: 10
1 Isomorphic
Graph 1:
1 0 0 
0 1 0 
0 0 0 
Graph 2:
1 0 0 
0 1 0 
0 0 0 
Solution: 0 0
Gbest: 0.000000
Expectation: -0.195135
Final Parameters:
Gammas:
[ 3.852240 4.914859 0.321897 1.432922 0.990368 4.659606 ]
Betas:
[ 1.828849 1.416611 0.960176 0.767007 1.953675 1.754570 2.003356 ]
Aggregate results:
[ -1 1 8 ]
[ 0.957175 0.027184 0.015641 ]
5
Num Evals 300
GenUC: 1.321188e-04
GenUB: 7.610652e-06
Optimisation 1.054074e-01
Total Time: 1.059250e-01
2 Flipped
Graph 1:
1 0 0 
0 1 0 
0 0 0 
Graph 2:
0 0 1 
0 1 0 
0 0 0 
Solution: -2 0
Gbest: -2.000000
Expectation: -2.075179
Final Parameters:
Gammas:
[ 5.381691 0.568396 0.247090 0.215073 5.319310 5.973927 ]
Betas:
[ 1.659428 2.210617 2.878259 2.365944 3.034295 1.779920 2.158541 ]
Aggregate results:
[ 1 3 8 ]
[ 0.980763 0.011896 0.007341 ]
5
Num Evals 600
GenUC: 6.587827e-06
GenUB: 5.390728e-06
Optimisation 1.568060e-01
Total Time: 1.572396e-01
3 Add 3
Graph 1:
1 0 0 
0 1 0 
0 0 0 
Graph 2:
1 0 1 
0 1 0 
1 0 0 
Solution: -2 0
Gbest: -2.000000
Expectation: -2.176383
Final Parameters:
Gammas:
[ 4.238789 2.765390 2.830217 0.121753 0.573732 2.269775 ]
Betas:
[ 0.924587 2.565484 3.120854 2.189047 2.614519 2.071166 2.889636 ]
Aggregate results:
[ 1 3 8 ]
[ 0.928496 0.064829 0.006675 ]
5
Num Evals 900
GenUC: 8.219853e-06
GenUB: 5.703419e-06
Optimisation 1.032548e-01
Total Time: 1.036848e-01
4 Rem 3
Graph 1:
1 0 0 
0 1 0 
0 0 0 
Graph 2:
0 0 0 
0 0 0 
0 0 0 
Solution: -2 0
Gbest: -2.000000
Expectation: -2.007636
Final Parameters:
Gammas:
[ 0.565752 4.741500 3.351189 5.463929 0.485127 5.770655 ]
Betas:
[ 2.240926 1.237767 1.736746 0.796922 0.656248 1.688289 2.112429 ]
Aggregate results:
[ 1 8 ]
[ 0.998909 0.001091 ]
5
Num Evals 1200
GenUC: 6.630085e-06
GenUB: 5.493988e-06
Optimisation 1.036372e-01
Total Time: 1.039967e-01
5 Add/Rem 3
Graph 1:
1 0 0 
0 1 0 
0 0 0 
Graph 2:
0 0 1 
0 0 0 
0 0 1 
Solution: -2 2
Gbest: -2.000000
Expectation: -2.090665
Final Parameters:
Gammas:
[ 4.332886 1.581185 4.893099 3.685911 2.638218 4.118136 ]
Betas:
[ 1.255840 2.101011 1.865335 2.906978 2.246244 2.031088 0.474586 ]
Aggregate results:
[ 3 1 8 ]
[ 0.000567 0.986643 0.012790 ]
5
Num Evals 1500
GenUC: 6.231014e-06
GenUB: 5.154870e-06
Optimisation 1.626666e-01
Total Time: 1.630574e-01
