Clock Speed: 3.689390
Num threads: 4
Trotterisation: 3
Graph Size: 5
Num Qubits: 7
Space Dimension: 128
Run-Type: 0
Num_samples: 10
1 Isomorphic
Graph 1:
0 1 1 1 0 
1 1 1 0 1 
1 0 1 0 0 
0 1 0 0 1 
0 1 0 1 1 
Graph 2:
0 1 1 1 0 
1 1 1 0 1 
1 0 1 0 0 
0 1 0 0 1 
0 1 0 1 1 
Solution: 0 0
Gbest: -6.000000
Expectation: -10.266706
Final Parameters:
Gammas:
[ 3.166264 3.451811 3.137126 ]
Betas:
[ 1.149026 1.154653 1.409428 1.456862 ]
Aggregate results:
[ -1 11 7 5 13 9 15 17 24 ]
[ 0.018648 0.280364 0.256613 0.133203 0.060344 0.175754 0.025415 0.028604 0.021053 ]
5
Num Evals 500
GenUC: 1.853606e-04
GenUB: 2.953040e-05
Optimisation 2.055730e-01
Total Time: 2.062230e-01
2 Flipped
Graph 1:
0 1 1 1 0 
1 1 1 0 1 
1 0 1 0 0 
0 1 0 0 1 
0 1 0 1 1 
Graph 2:
0 1 1 1 0 
1 0 1 1 1 
0 0 1 0 1 
1 0 0 1 0 
1 1 0 1 0 
Solution: -6 78
Gbest: -8.000000
Expectation: -10.650574
Final Parameters:
Gammas:
[ 3.269186 3.463651 3.391627 ]
Betas:
[ 1.531530 1.303286 1.402906 1.504955 ]
Aggregate results:
[ 9 15 13 11 7 17 5 19 24 ]
[ 0.270217 0.028191 0.092118 0.268757 0.265421 0.005256 0.050195 0.006533 0.013313 ]
3
Num Evals 973
GenUC: 2.279288e-05
GenUB: 1.686873e-05
Optimisation 2.002002e-01
Total Time: 2.006544e-01
3 Add 5
Graph 1:
0 1 1 1 0 
1 1 1 0 1 
1 0 1 0 0 
0 1 0 0 1 
0 1 0 1 1 
Graph 2:
0 1 1 1 0 
1 1 1 1 1 
1 0 1 1 0 
0 1 1 0 1 
1 1 0 1 1 
Solution: -4 0
Gbest: -8.000000
Expectation: -10.796531
Final Parameters:
Gammas:
[ 3.195559 6.164936 5.207429 ]
Betas:
[ 2.614748 1.104180 1.777190 1.610079 ]
Aggregate results:
[ 3 11 9 7 13 15 5 17 24 ]
[ 0.059325 0.261526 0.271229 0.159854 0.176477 0.025981 0.030417 0.002697 0.012495 ]
5
Num Evals 1473
GenUC: 2.180171e-05
GenUB: 1.880061e-05
Optimisation 2.301009e-01
Total Time: 2.306079e-01
4 Rem 5
Graph 1:
0 1 1 1 0 
1 1 1 0 1 
1 0 1 0 0 
0 1 0 0 1 
0 1 0 1 1 
Graph 2:
0 1 0 1 0 
1 1 0 0 1 
0 0 1 0 0 
0 1 0 0 1 
0 1 0 1 1 
Solution: -3 0
Gbest: -9.000000
Expectation: -11.564687
Final Parameters:
Gammas:
[ 3.335289 3.658709 3.303863 ]
Betas:
[ 1.897663 1.960117 1.454448 1.443154 ]
Aggregate results:
[ 2 12 14 8 10 16 6 18 24 ]
[ 0.007864 0.112362 0.091542 0.319696 0.332067 0.048521 0.040738 0.018835 0.028375 ]
3
Num Evals 1877
GenUC: 2.141087e-05
GenUB: 1.682824e-05
Optimisation 1.888158e-01
Total Time: 1.893189e-01
5 Add/Rem 5
Graph 1:
0 1 1 1 0 
1 1 1 0 1 
1 0 1 0 0 
0 1 0 0 1 
0 1 0 1 1 
Graph 2:
0 0 1 1 0 
1 1 1 1 0 
0 0 1 0 0 
1 0 0 1 1 
0 0 1 1 1 
Solution: -7 8
Gbest: -9.000000
Expectation: -11.027782
Final Parameters:
Gammas:
[ 3.226215 2.997493 3.554099 ]
Betas:
[ 1.821775 1.751511 1.799942 1.524386 ]
Aggregate results:
[ 8 12 10 6 14 16 24 ]
[ 0.353872 0.176822 0.346331 0.029340 0.070541 0.013278 0.009815 ]
5
Num Evals 2377
GenUC: 2.275298e-05
GenUB: 1.643799e-05
Optimisation 2.408256e-01
Total Time: 2.414358e-01
