Clock Speed: 3.688884
Num threads: 4
Trotterisation: 3
Graph Size: 5
Num Qubits: 7
Space Dimension: 128
Run-Type: 0
Num_samples: 10
1 Isomorphic
Graph 1:
0 0 0 1 0 
1 1 1 1 1 
1 1 0 0 0 
1 1 0 0 1 
1 1 1 0 0 
Graph 2:
0 0 0 1 0 
1 1 1 1 1 
1 1 0 0 0 
1 1 0 0 1 
1 1 1 0 0 
Solution: 0 0
Gbest: -4.000000
Expectation: -8.451683
Final Parameters:
Gammas:
[ 3.166731 3.427618 3.121399 ]
Betas:
[ 1.256802 2.053347 1.414045 1.448972 ]
Aggregate results:
[ -1 7 11 9 15 5 13 3 24 ]
[ 0.037178 0.216888 0.144890 0.296571 0.018179 0.127630 0.018488 0.133700 0.006477 ]
5
Num Evals 500
GenUC: 1.587257e-04
GenUB: 3.051263e-05
Optimisation 2.814403e-01
Total Time: 2.820902e-01
2 Flipped
Graph 1:
0 0 0 1 0 
1 1 1 1 1 
1 1 0 0 0 
1 1 0 0 1 
1 1 1 0 0 
Graph 2:
0 1 0 0 0 
1 1 1 1 1 
0 0 0 1 1 
1 0 0 1 1 
0 0 1 1 1 
Solution: -6 67
Gbest: -8.000000
Expectation: -12.371098
Final Parameters:
Gammas:
[ 3.724752 4.257231 2.049682 ]
Betas:
[ 0.504836 0.057590 1.258201 1.936828 ]
Aggregate results:
[ 11 17 13 15 9 7 19 5 24 ]
[ 0.320200 0.017935 0.265961 0.042393 0.151173 0.112283 0.013468 0.041574 0.035013 ]
3
Num Evals 913
GenUC: 2.453040e-05
GenUB: 1.842610e-05
Optimisation 1.913154e-01
Total Time: 1.916963e-01
3 Add 5
Graph 1:
0 0 0 1 0 
1 1 1 1 1 
1 1 0 0 0 
1 1 0 0 1 
1 1 1 0 0 
Graph 2:
0 1 1 1 0 
1 1 1 1 1 
1 1 1 0 1 
1 1 0 0 1 
1 1 1 0 1 
Solution: -5 0
Gbest: -7.000000
Expectation: -11.097128
Final Parameters:
Gammas:
[ 3.303824 3.468577 3.867972 ]
Betas:
[ 1.717442 1.537540 1.763058 1.043360 ]
Aggregate results:
[ 4 8 12 10 14 6 24 ]
[ 0.037508 0.268593 0.219143 0.289144 0.056686 0.089479 0.039446 ]
5
Num Evals 1413
GenUC: 2.126466e-05
GenUB: 2.024707e-05
Optimisation 2.320083e-01
Total Time: 2.324794e-01
4 Rem 5
Graph 1:
0 0 0 1 0 
1 1 1 1 1 
1 1 0 0 0 
1 1 0 0 1 
1 1 1 0 0 
Graph 2:
0 0 0 1 0 
1 0 1 1 1 
0 1 0 0 0 
1 1 0 0 0 
0 0 1 0 0 
Solution: -5 0
Gbest: -7.000000
Expectation: -10.792427
Final Parameters:
Gammas:
[ 2.652375 3.047506 5.573243 ]
Betas:
[ 3.139024 2.300862 2.204972 0.920130 ]
Aggregate results:
[ 4 10 12 14 16 8 6 24 ]
[ 0.019713 0.380034 0.232473 0.030971 0.000019 0.213895 0.109498 0.013396 ]
5
Num Evals 1913
GenUC: 2.298295e-05
GenUB: 1.774071e-05
Optimisation 3.059318e-01
Total Time: 3.064880e-01
5 Add/Rem 5
Graph 1:
0 0 0 1 0 
1 1 1 1 1 
1 1 0 0 0 
1 1 0 0 1 
1 1 1 0 0 
Graph 2:
0 1 0 1 0 
1 1 1 0 1 
0 0 0 0 0 
1 1 1 0 1 
1 0 1 1 1 
Solution: -6 33
Gbest: -6.000000
Expectation: -9.978396
Final Parameters:
Gammas:
[ 3.266747 3.445201 3.173522 ]
Betas:
[ 1.938451 1.925710 1.516012 1.431135 ]
Aggregate results:
[ 7 13 9 11 15 17 5 24 ]
[ 0.403582 0.025115 0.329783 0.164429 0.013343 0.021836 0.027746 0.014165 ]
3
Num Evals 2400
GenUC: 2.215081e-05
GenUB: 1.736748e-05
Optimisation 2.757313e-01
Total Time: 2.762283e-01
