Clock Speed: 3.689315
Num threads: 4
Trotterisation: 4
Graph Size: 6
Num Qubits: 10
Space Dimension: 1024
Run-Type: 0
Num_samples: 10
1 Isomorphic
Graph 1:
0 0 0 1 1 1 
1 1 1 0 1 0 
1 0 1 0 1 0 
1 0 1 0 1 0 
0 1 0 0 1 1 
1 0 1 1 0 1 
Graph 2:
0 0 0 1 1 1 
1 1 1 0 1 0 
1 0 1 0 1 0 
1 0 1 0 1 0 
0 1 0 0 1 1 
1 0 1 1 0 1 
Solution: 0 0
Gbest: -8.000000
Expectation: -19.022997
Final Parameters:
Gammas:
[ 5.825045 3.555827 5.168639 3.476069 ]
Betas:
[ 1.336977 3.056132 2.102010 1.300660 0.345461 ]
Aggregate results:
[ -1 17 15 7 11 13 19 21 23 25 9 5 35 ]
[ 0.003964 0.202117 0.164046 0.021625 0.077266 0.106368 0.156849 0.098817 0.063051 0.003327 0.014806 0.001582 0.086184 ]
5
Num Evals 600
GenUC: 2.879979e-04
GenUB: 1.934167e-04
Optimisation 1.238502e+00
Total Time: 1.241116e+00
2 Flipped
Graph 1:
0 0 0 1 1 1 
1 1 1 0 1 0 
1 0 1 0 1 0 
1 0 1 0 1 0 
0 1 0 0 1 1 
1 0 1 1 0 1 
Graph 2:
1 1 1 0 0 0 
0 1 0 1 1 1 
0 1 0 1 0 1 
0 1 0 1 0 1 
1 1 0 0 1 0 
1 0 1 1 0 1 
Solution: -6 34
Gbest: -12.000000
Expectation: -19.539296
Final Parameters:
Gammas:
[ 3.043346 2.259014 2.979151 2.366028 ]
Betas:
[ 0.352713 1.081440 1.209190 2.576027 1.503087 ]
Aggregate results:
[ 23 13 17 15 19 21 25 9 11 5 7 35 ]
[ 0.029748 0.134852 0.219707 0.196762 0.142254 0.076558 0.007244 0.011503 0.053951 0.000322 0.007969 0.119130 ]
5
Num Evals 1200
GenUC: 1.334511e-04
GenUB: 1.518614e-04
Optimisation 1.102567e+00
Total Time: 1.104674e+00
3 Add 6
Graph 1:
0 0 0 1 1 1 
1 1 1 0 1 0 
1 0 1 0 1 0 
1 0 1 0 1 0 
0 1 0 0 1 1 
1 0 1 1 0 1 
Graph 2:
1 0 1 1 1 1 
1 1 1 0 1 0 
1 0 1 1 1 0 
1 0 1 1 1 0 
0 1 0 1 1 1 
1 0 1 1 0 1 
Solution: -5 0
Gbest: -9.000000
Expectation: -15.410099
Final Parameters:
Gammas:
[ 3.187335 3.118055 2.900542 3.138789 ]
Betas:
[ 1.482738 1.443987 2.306886 1.668465 1.663167 ]
Aggregate results:
[ 4 18 14 12 6 8 10 16 20 22 24 35 ]
[ 0.013963 0.069898 0.257399 0.220064 0.031427 0.051821 0.076255 0.207206 0.011457 0.010092 0.004100 0.046321 ]
5
Num Evals 1800
GenUC: 1.190525e-04
GenUB: 1.680646e-04
Optimisation 1.230492e+00
Total Time: 1.232788e+00
4 Rem 6
Graph 1:
0 0 0 1 1 1 
1 1 1 0 1 0 
1 0 1 0 1 0 
1 0 1 0 1 0 
0 1 0 0 1 1 
1 0 1 1 0 1 
Graph 2:
0 0 0 1 1 1 
1 0 1 0 1 0 
1 0 0 0 1 0 
1 0 0 0 1 0 
0 1 0 0 0 1 
1 0 1 0 0 1 
Solution: -5 0
Gbest: -9.000000
Expectation: -17.505202
Final Parameters:
Gammas:
[ 3.218614 3.115952 2.896271 3.156225 ]
Betas:
[ 1.834071 1.590136 2.078702 1.549459 1.752901 ]
Aggregate results:
[ 4 20 18 10 16 12 8 14 22 26 24 35 ]
[ 0.006507 0.051579 0.164571 0.096573 0.251894 0.091282 0.020347 0.212903 0.017755 0.006110 0.010525 0.069955 ]
5
Num Evals 2400
GenUC: 1.306906e-04
GenUB: 1.655811e-04
Optimisation 1.241894e+00
Total Time: 1.244235e+00
5 Add/Rem 6
Graph 1:
0 0 0 1 1 1 
1 1 1 0 1 0 
1 0 1 0 1 0 
1 0 1 0 1 0 
0 1 0 0 1 1 
1 0 1 1 0 1 
Graph 2:
1 0 0 1 1 1 
1 0 1 1 1 1 
1 0 0 0 1 0 
1 0 1 0 0 0 
0 1 0 0 0 1 
0 0 1 1 1 0 
Solution: -10 0
Gbest: -12.000000
Expectation: -22.123064
Final Parameters:
Gammas:
[ 4.274940 2.972203 3.052848 2.673318 ]
Betas:
[ 1.311984 1.973189 1.929681 1.784229 1.406251 ]
Aggregate results:
[ 9 17 19 13 11 15 21 23 25 35 ]
[ 0.006841 0.190817 0.148214 0.085099 0.050612 0.146696 0.104842 0.026965 0.008080 0.231835 ]
5
Num Evals 3000
GenUC: 1.294313e-04
GenUB: 1.705774e-04
Optimisation 1.229452e+00
Total Time: 1.231797e+00
