Clock Speed: 3.688601
Num threads: 4
Trotterisation: 2
Graph Size: 6
Num Qubits: 10
Space Dimension: 1024
Run-Type: 0
Num_samples: 10
1 Isomorphic
Graph 1:
1 1 0 1 1 1 
0 1 1 1 0 0 
1 0 1 0 1 1 
1 1 0 1 0 0 
1 1 0 1 0 0 
0 0 1 1 1 1 
Graph 2:
1 1 0 1 1 1 
0 1 1 1 0 0 
1 0 1 0 1 1 
1 1 0 1 0 0 
1 1 0 1 0 0 
0 0 1 1 1 1 
Solution: 0 0
Gbest: -12.000000
Expectation: -21.095034
Final Parameters:
Gammas:
[ 4.180121 2.960431 ]
Betas:
[ 1.651656 1.687396 1.998285 ]
Aggregate results:
[ -1 9 11 17 13 15 5 19 21 7 25 23 35 ]
[ 0.004057 0.023044 0.060695 0.191866 0.130874 0.213788 0.001797 0.084990 0.022427 0.007172 0.000196 0.013667 0.245427 ]
3
Num Evals 201
GenUC: 3.013247e-04
GenUB: 1.921798e-04
Optimisation 2.701871e-01
Total Time: 2.719840e-01
2 Flipped
Graph 1:
1 1 0 1 1 1 
0 1 1 1 0 0 
1 0 1 0 1 1 
1 1 0 1 0 0 
1 1 0 1 0 0 
0 0 1 1 1 1 
Graph 2:
1 1 1 0 1 1 
0 0 1 1 1 0 
1 1 0 1 0 1 
0 0 1 0 1 1 
0 0 1 0 1 1 
1 1 1 1 0 0 
Solution: -10 35
Gbest: -10.000000
Expectation: -22.701392
Final Parameters:
Gammas:
[ 4.769385 3.570606 ]
Betas:
[ 1.579579 1.419192 2.034811 ]
Aggregate results:
[ 23 27 21 17 19 15 25 13 11 9 35 ]
[ 0.015622 0.002616 0.096089 0.192343 0.143252 0.188532 0.003886 0.060932 0.027244 0.007189 0.262296 ]
3
Num Evals 408
GenUC: 1.265260e-04
GenUB: 1.510570e-04
Optimisation 2.510187e-01
Total Time: 2.525083e-01
3 Add 6
Graph 1:
1 1 0 1 1 1 
0 1 1 1 0 0 
1 0 1 0 1 1 
1 1 0 1 0 0 
1 1 0 1 0 0 
0 0 1 1 1 1 
Graph 2:
1 1 1 1 1 1 
0 1 1 1 0 1 
1 1 1 1 1 1 
1 1 0 1 0 0 
1 1 0 1 1 0 
1 0 1 1 1 1 
Solution: -6 0
Gbest: -12.000000
Expectation: -20.180568
Final Parameters:
Gammas:
[ 4.636144 3.050213 ]
Betas:
[ 1.535337 1.774790 1.870037 ]
Aggregate results:
[ 5 9 13 15 11 17 19 21 7 35 ]
[ 0.002831 0.030345 0.229517 0.232190 0.106889 0.117203 0.032763 0.003361 0.000216 0.244682 ]
3
Num Evals 591
GenUC: 1.136155e-04
GenUB: 1.611154e-04
Optimisation 2.378366e-01
Total Time: 2.393532e-01
4 Rem 6
Graph 1:
1 1 0 1 1 1 
0 1 1 1 0 0 
1 0 1 0 1 1 
1 1 0 1 0 0 
1 1 0 1 0 0 
0 0 1 1 1 1 
Graph 2:
1 0 0 0 0 1 
0 1 1 1 0 0 
1 0 1 0 1 1 
1 1 0 1 0 0 
1 1 0 0 0 0 
0 0 1 1 1 0 
Solution: -5 0
Gbest: -13.000000
Expectation: -17.826177
Final Parameters:
Gammas:
[ 3.151867 3.177522 ]
Betas:
[ 1.312383 1.140554 2.314060 ]
Aggregate results:
[ 4 10 14 20 18 16 12 22 24 28 8 26 6 35 ]
[ 0.001319 0.029615 0.178204 0.148299 0.186174 0.262466 0.089186 0.057717 0.013711 0.000420 0.008316 0.003233 0.002241 0.019100 ]
3
Num Evals 916
GenUC: 1.346361e-04
GenUB: 1.733798e-04
Optimisation 3.885359e-01
Total Time: 3.900410e-01
5 Add/Rem 6
Graph 1:
1 1 0 1 1 1 
0 1 1 1 0 0 
1 0 1 0 1 1 
1 1 0 1 0 0 
1 1 0 1 0 0 
0 0 1 1 1 1 
Graph 2:
0 1 0 1 1 0 
1 1 1 1 1 1 
0 0 1 0 1 0 
1 1 0 1 0 0 
1 1 0 1 1 0 
1 0 1 1 1 0 
Solution: -10 0
Gbest: -12.000000
Expectation: -21.562501
Final Parameters:
Gammas:
[ 4.166809 3.195161 ]
Betas:
[ 1.693129 1.194543 2.426827 ]
Aggregate results:
[ 9 15 17 13 19 11 21 23 35 ]
[ 0.011331 0.257702 0.192878 0.090987 0.106581 0.048794 0.038314 0.008551 0.244863 ]
3
Num Evals 1085
GenUC: 1.262924e-04
GenUB: 1.621635e-04
Optimisation 2.133916e-01
Total Time: 2.149006e-01
