Clock Speed: 3.689318
Num threads: 4
Trotterisation: 2
Graph Size: 6
Num Qubits: 10
Space Dimension: 1024
Run-Type: 0
Num_samples: 10
1 Isomorphic
Graph 1:
0 1 1 1 0 1 
0 0 0 0 1 1 
0 1 1 0 1 0 
1 1 0 1 0 0 
0 0 1 1 1 1 
1 0 0 0 1 1 
Graph 2:
0 1 1 1 0 1 
0 0 0 0 1 1 
0 1 1 0 1 0 
1 1 0 1 0 0 
0 0 1 1 1 1 
1 0 0 0 1 1 
Solution: 0 0
Gbest: -18.000000
Expectation: -22.290386
Final Parameters:
Gammas:
[ 4.433764 3.316324 ]
Betas:
[ 1.856404 1.795002 1.765748 ]
Aggregate results:
[ -1 11 17 9 15 13 19 3 25 21 23 5 7 35 ]
[ 0.001265 0.014768 0.147101 0.010954 0.167828 0.125365 0.145559 0.002870 0.004589 0.077407 0.031527 0.006656 0.004787 0.259323 ]
3
Num Evals 133
GenUC: 3.888934e-04
GenUB: 1.980390e-04
Optimisation 1.910939e-01
Total Time: 1.969793e-01
2 Flipped
Graph 1:
0 1 1 1 0 1 
0 0 0 0 1 1 
0 1 1 0 1 0 
1 1 0 1 0 0 
0 0 1 1 1 1 
1 0 0 0 1 1 
Graph 2:
1 0 1 1 1 0 
1 1 0 0 0 0 
0 1 0 1 1 0 
0 0 1 0 1 1 
1 1 1 1 0 0 
1 1 0 0 0 1 
Solution: -10 126
Gbest: -14.000000
Expectation: -21.953272
Final Parameters:
Gammas:
[ 4.445502 3.020856 ]
Betas:
[ 1.733340 1.970710 1.776781 ]
Aggregate results:
[ 21 23 19 17 13 15 11 9 25 29 27 35 ]
[ 0.077194 0.026535 0.129449 0.194068 0.089508 0.172320 0.053547 0.006657 0.015794 0.001736 0.005128 0.228063 ]
3
Num Evals 296
GenUC: 1.316170e-04
GenUB: 1.441259e-04
Optimisation 2.418133e-01
Total Time: 2.436065e-01
3 Add 6
Graph 1:
0 1 1 1 0 1 
0 0 0 0 1 1 
0 1 1 0 1 0 
1 1 0 1 0 0 
0 0 1 1 1 1 
1 0 0 0 1 1 
Graph 2:
0 1 1 1 0 1 
0 1 1 0 1 1 
0 1 1 1 1 0 
1 1 0 1 1 0 
1 0 1 1 1 1 
1 0 0 0 1 1 
Solution: -5 0
Gbest: -11.000000
Expectation: -17.870811
Final Parameters:
Gammas:
[ 3.153197 3.187681 ]
Betas:
[ 1.263742 1.088518 2.322188 ]
Aggregate results:
[ 4 14 18 10 16 12 6 20 22 24 8 35 ]
[ 0.000947 0.173869 0.238891 0.030665 0.235912 0.074663 0.002210 0.147651 0.057368 0.008760 0.011119 0.017944 ]
3
Num Evals 590
GenUC: 1.289744e-04
GenUB: 1.669365e-04
Optimisation 3.794620e-01
Total Time: 3.809065e-01
4 Rem 6
Graph 1:
0 1 1 1 0 1 
0 0 0 0 1 1 
0 1 1 0 1 0 
1 1 0 1 0 0 
0 0 1 1 1 1 
1 0 0 0 1 1 
Graph 2:
0 0 1 1 0 1 
0 0 0 0 1 1 
0 1 1 0 1 0 
1 1 0 1 0 0 
0 0 0 1 0 0 
0 0 0 0 0 1 
Solution: -6 0
Gbest: -16.000000
Expectation: -22.622271
Final Parameters:
Gammas:
[ 3.908078 2.942393 ]
Betas:
[ 1.973195 1.481083 1.186713 ]
Aggregate results:
[ 5 13 17 21 19 15 9 25 11 23 7 35 ]
[ 0.003887 0.097571 0.168178 0.102357 0.150071 0.159623 0.002665 0.007357 0.024329 0.023172 0.001998 0.258792 ]
3
Num Evals 803
GenUC: 1.295279e-04
GenUB: 1.730584e-04
Optimisation 2.477301e-01
Total Time: 2.492968e-01
5 Add/Rem 6
Graph 1:
0 1 1 1 0 1 
0 0 0 0 1 1 
0 1 1 0 1 0 
1 1 0 1 0 0 
0 0 1 1 1 1 
1 0 0 0 1 1 
Graph 2:
1 1 1 0 0 1 
1 0 0 0 1 0 
1 0 1 1 0 0 
1 1 1 1 0 0 
0 0 1 1 0 0 
1 0 0 0 1 1 
Solution: -7 349
Gbest: -15.000000
Expectation: -18.314486
Final Parameters:
Gammas:
[ 3.100201 3.082072 ]
Betas:
[ 1.354818 1.512614 2.679217 ]
Aggregate results:
[ 10 14 18 22 12 16 26 20 24 8 6 35 ]
[ 0.026595 0.137277 0.226382 0.048551 0.088777 0.256838 0.003057 0.145482 0.005558 0.009605 0.007107 0.044769 ]
3
Num Evals 1029
GenUC: 1.333622e-04
GenUB: 1.583588e-04
Optimisation 2.935273e-01
Total Time: 2.951194e-01
