Clock Speed: 3.498790
Num threads: 16
Trotterisation: 2
Num Qubits: 10
Space Dimension: 1024
Run-Type: 0
Num_samples: 36
Optimiser Method: 33
1 Isomorphic
Graph 1:
0 1 0 1 1 1 
0 1 1 0 1 1 
0 0 1 1 1 0 
1 1 0 1 1 0 
1 1 1 0 1 0 
0 0 1 0 1 1 
Graph 2:
0 1 0 1 1 1 
0 1 1 0 1 1 
0 0 1 1 1 0 
1 1 0 1 1 0 
1 1 1 0 1 0 
0 0 1 0 1 1 
Solution: 36 0
Classic Expectation: 19.600000
Initial Expecation: 13.781250
Gbest: 28.000000
Expectation: 13.781250
Final Parameters:
Gammas:
[ 3.141593 3.141593 ]
Betas:
[ 1.570796 1.570796 ]
Aggregate results:
[ 36 26 28 22 12 24 20 18 30 16 14 0 ]
[ 0.000977 0.013672 0.008789 0.121094 0.003906 0.068359 0.181641 0.166016 0.001953 0.099609 0.037109 0.296875 ]
4
Num Evals 3
GenUC: 2.920488e-04
GenUB: 1.725731e-04
Optimisation 6.674019e-02
Total Time: 6.721629e-02
2 Flipped
Graph 1:
0 1 0 1 1 1 
0 1 1 0 1 1 
0 0 1 1 1 0 
1 1 0 1 1 0 
1 1 1 0 1 0 
0 0 1 0 1 1 
Graph 2:
1 1 1 0 1 0 
1 1 0 1 1 0 
0 1 1 1 0 0 
0 1 1 0 1 1 
0 1 0 1 1 1 
1 1 0 1 0 0 
Solution: 30 376
Classic Expectation: 19.066667
Initial Expecation: 13.406250
Gbest: 24.000000
Expectation: 13.406250
Final Parameters:
Gammas:
[ 3.141593 3.141593 ]
Betas:
[ 1.570796 1.570796 ]
Aggregate results:
[ 12 16 20 24 18 22 14 26 30 28 0 ]
[ 0.010742 0.132812 0.150391 0.052734 0.181641 0.119141 0.039062 0.013672 0.001953 0.000977 0.296875 ]
4
Num Evals 3
GenUC: 3.642156e-04
GenUB: 1.270161e-04
Optimisation 9.239497e-03
Total Time: 9.732972e-03
3 Add 6
Graph 1:
0 1 0 1 1 1 
0 1 1 0 1 1 
0 0 1 1 1 0 
1 1 0 1 1 0 
1 1 1 0 1 0 
0 0 1 0 1 1 
Graph 2:
0 1 0 1 1 1 
0 1 1 0 1 1 
0 1 1 1 1 1 
1 1 0 1 1 0 
1 1 1 0 1 0 
1 1 1 1 1 1 
Solution: 31 0
Classic Expectation: 20.266667
Initial Expecation: 14.250000
Gbest: 27.000000
Expectation: 14.250000
Final Parameters:
Gammas:
[ 3.141593 3.141593 ]
Betas:
[ 1.570796 1.570796 ]
Aggregate results:
[ 31 27 25 23 21 17 19 29 15 13 0 ]
[ 0.000977 0.011719 0.039063 0.111328 0.203125 0.111328 0.203125 0.000977 0.020508 0.000977 0.296875 ]
4
Num Evals 3
GenUC: 3.638417e-04
GenUB: 1.240140e-04
Optimisation 6.153260e-03
Total Time: 6.643069e-03
4 Rem 6
Graph 1:
0 1 0 1 1 1 
0 1 1 0 1 1 
0 0 1 1 1 0 
1 1 0 1 1 0 
1 1 1 0 1 0 
0 0 1 0 1 1 
Graph 2:
0 1 0 1 0 1 
0 1 1 0 1 1 
0 0 1 1 0 0 
1 0 0 1 0 0 
1 1 0 0 1 0 
0 0 1 0 1 0 
Solution: 30 0
Classic Expectation: 18.266667
Initial Expecation: 12.843750
Gbest: 24.000000
Expectation: 12.938650
Final Parameters:
Gammas:
[ 3.238873 3.151172 ]
Betas:
[ 1.573199 1.573199 ]
Aggregate results:
[ 30 24 26 22 20 14 18 16 12 10 0 ]
[ 0.001042 0.027425 0.007137 0.092388 0.167700 0.069561 0.180238 0.136248 0.017840 0.006488 0.293932 ]
3
Num Evals 26
GenUC: 3.670743e-04
GenUB: 1.215674e-04
Optimisation 5.281040e-02
Total Time: 5.330086e-02
5 Add/Rem 6
Graph 1:
0 1 0 1 1 1 
0 1 1 0 1 1 
0 0 1 1 1 0 
1 1 0 1 1 0 
1 1 1 0 1 0 
0 0 1 0 1 1 
Graph 2:
0 0 0 1 0 1 
0 1 1 1 1 1 
1 0 1 0 1 1 
1 0 0 1 1 1 
1 1 1 0 1 0 
0 0 1 1 0 1 
Solution: 28 501
Classic Expectation: 19.600000
Initial Expecation: 13.781250
Gbest: 24.000000
Expectation: 13.781250
Final Parameters:
Gammas:
[ 3.155472 3.141593 ]
Betas:
[ 1.570796 1.570796 ]
Aggregate results:
[ 26 22 24 20 18 16 14 12 28 0 ]
[ 0.011719 0.162109 0.051758 0.196289 0.154297 0.090820 0.031250 0.003906 0.000977 0.296875 ]
3
Num Evals 35
GenUC: 3.649425e-04
GenUB: 1.141760e-04
Optimisation 7.128626e-02
Total Time: 7.176720e-02
