Clock Speed: 3.498619
Num threads: 24
Trotterisation: 1
Graph Size: 4
Num Qubits: 5
Space Dimension: 32
Run-Type: 0
Num_samples: 1
1 Isomorphic
Graph 1:
1 1 1 1 
1 0 0 0 
0 1 0 1 
1 1 0 1 
Graph 2:
1 1 1 1 
1 0 0 0 
0 1 0 1 
1 1 0 1 
Solution: 0 0
Expectation: -7.702276
Final Parameters:
Gammas:
[ 5.710852 ]
Betas:
[ 3.062133 2.349785 ]
Aggregate results:
[ 0 8 6 12 4 16 ]
[ 0.116215 0.515719 0.104094 0.031313 0.095528 0.137131 ]
3
Num Evals 130
GenUC: 1.301875e-01
GenUB: 1.327018e-04
Optimisation 1.389223e-01
Total Time: 2.696099e-01
2 Flipped
Graph 1:
1 1 1 1 
1 0 0 0 
0 1 0 1 
1 1 0 1 
Graph 2:
1 1 1 1 
0 0 0 1 
1 0 1 0 
1 0 1 1 
Solution: -2 3
Expectation: -8.568185
Final Parameters:
Gammas:
[ 3.695005 ]
Betas:
[ 1.208698 0.651813 ]
Aggregate results:
[ 8 10 6 2 12 4 16 ]
[ 0.423048 0.094444 0.117656 0.108441 0.051549 0.048320 0.156542 ]
3
Num Evals 277
GenUC: 2.285652e-05
GenUB: 1.878385e-05
Optimisation 2.984615e-02
Total Time: 3.011070e-02
3 Add 4
Graph 1:
1 1 1 1 
1 0 0 0 
0 1 0 1 
1 1 0 1 
Graph 2:
1 1 1 1 
1 0 0 0 
1 1 1 1 
1 1 1 1 
Solution: -3 0
Expectation: -7.338402
Final Parameters:
Gammas:
[ 4.639343 ]
Betas:
[ 2.377734 2.475023 ]
Aggregate results:
[ 3 9 5 7 16 ]
[ 0.075267 0.257852 0.357296 0.216434 0.093151 ]
3
Num Evals 400
GenUC: 2.059480e-05
GenUB: 1.831353e-05
Optimisation 3.815046e-02
Total Time: 3.852088e-02
4 Rem 4
Graph 1:
1 1 1 1 
1 0 0 0 
0 1 0 1 
1 1 0 1 
Graph 2:
0 1 0 1 
1 0 0 0 
0 1 0 0 
1 1 0 0 
Solution: -4 0
Expectation: -9.311138
Final Parameters:
Gammas:
[ 4.707622 ]
Betas:
[ 2.401392 2.368491 ]
Aggregate results:
[ 4 8 10 6 16 ]
[ 0.007750 0.383937 0.172124 0.249162 0.187027 ]
3
Num Evals 513
GenUC: 2.178131e-05
GenUB: 1.812587e-05
Optimisation 3.519107e-02
Total Time: 3.556232e-02
5 Add/Rem 4
Graph 1:
1 1 1 1 
1 0 0 0 
0 1 0 1 
1 1 0 1 
Graph 2:
0 0 1 0 
1 1 0 1 
1 1 0 1 
1 1 0 1 
Solution: -4 1
Expectation: -6.712301
Final Parameters:
Gammas:
[ 2.958033 ]
Betas:
[ 1.410378 0.368293 ]
Aggregate results:
[ 6 4 10 8 16 ]
[ 0.319757 0.272630 0.119591 0.262627 0.025394 ]
3
Num Evals 648
GenUC: 2.111401e-05
GenUB: 2.058595e-05
Optimisation 2.714509e-02
Total Time: 2.739895e-02
