Clock Speed: 3.498784
Num threads: 24
Trotterisation: 1
Graph Size: 4
Num Qubits: 5
Space Dimension: 32
Run-Type: 0
Num_samples: 1
1 Isomorphic
Graph 1:
0 1 1 0 
0 1 1 1 
0 1 0 0 
0 0 0 1 
Graph 2:
0 1 1 0 
0 1 1 1 
0 1 0 0 
0 0 0 1 
Solution: 0 0
Expectation: -8.297423
Final Parameters:
Gammas:
[ 5.674603 ]
Betas:
[ 3.139529 2.701665 ]
Aggregate results:
[ 0 8 4 10 6 16 ]
[ 0.074528 0.243393 0.137125 0.460175 0.015643 0.069135 ]
3
Num Evals 142
GenUC: 2.525869e-02
GenUB: 4.387237e-04
Optimisation 2.420231e-01
Total Time: 2.681044e-01
2 Flipped
Graph 1:
0 1 1 0 
0 1 1 1 
0 1 0 0 
0 0 0 1 
Graph 2:
0 1 1 0 
1 1 1 0 
0 0 1 0 
1 0 0 0 
Solution: -2 6
Expectation: -8.877009
Final Parameters:
Gammas:
[ 3.764536 ]
Betas:
[ 1.319158 0.720192 ]
Aggregate results:
[ 6 8 10 2 4 12 16 ]
[ 0.174865 0.214382 0.256088 0.048659 0.107080 0.039143 0.159783 ]
3
Num Evals 284
GenUC: 2.179109e-05
GenUB: 1.820130e-05
Optimisation 3.046680e-02
Total Time: 3.073666e-02
3 Add 4
Graph 1:
0 1 1 0 
0 1 1 1 
0 1 0 0 
0 0 0 1 
Graph 2:
1 1 1 0 
1 1 1 1 
1 1 1 0 
0 0 0 1 
Solution: -4 0
Expectation: -9.117332
Final Parameters:
Gammas:
[ 4.919812 ]
Betas:
[ 2.040059 2.471678 ]
Aggregate results:
[ 4 6 8 10 12 16 ]
[ 0.061803 0.277631 0.253953 0.198375 0.035709 0.172528 ]
3
Num Evals 422
GenUC: 2.102368e-05
GenUB: 1.782272e-05
Optimisation 4.118975e-02
Total Time: 4.155150e-02
4 Rem 4
Graph 1:
0 1 1 0 
0 1 1 1 
0 1 0 0 
0 0 0 1 
Graph 2:
0 1 0 0 
0 0 1 1 
0 0 0 0 
0 0 0 1 
Solution: -3 0
Expectation: -7.033909
Final Parameters:
Gammas:
[ 3.695039 ]
Betas:
[ 2.152821 2.743334 ]
Aggregate results:
[ 3 7 5 9 11 16 ]
[ 0.113615 0.235609 0.422327 0.100347 0.004117 0.123985 ]
3
Num Evals 553
GenUC: 2.103578e-05
GenUB: 1.777010e-05
Optimisation 4.125497e-02
Total Time: 4.162771e-02
5 Add/Rem 4
Graph 1:
0 1 1 0 
0 1 1 1 
0 1 0 0 
0 0 0 1 
Graph 2:
0 1 1 1 
0 0 0 0 
0 0 1 0 
0 1 0 1 
Solution: -3 8
Expectation: -6.932628
Final Parameters:
Gammas:
[ 3.628756 ]
Betas:
[ 1.568235 2.594069 ]
Aggregate results:
[ 7 5 9 3 11 16 ]
[ 0.299223 0.337769 0.089780 0.145181 0.028619 0.099428 ]
3
Num Evals 683
GenUC: 2.068467e-05
GenUB: 2.072938e-05
Optimisation 3.749270e-02
Total Time: 3.784291e-02
