Clock Speed: 3.498898
Num threads: 24
Trotterisation: 1
Graph Size: 4
Num Qubits: 5
Space Dimension: 32
Run-Type: 0
Num_samples: 1
Optimiser Method: 28
1 Isomorphic
Graph 1:
1 0 0 0 
0 1 1 1 
1 0 1 0 
1 0 0 0 
Graph 2:
1 0 0 0 
0 1 1 1 
1 0 1 0 
1 0 0 0 
Solution: 0 0
Expectation: -9.125000
Final Parameters:
Gammas:
[ 4.712389 ]
Betas:
[ 1.570796 ]
Aggregate results:
[ 0 8 6 10 2 16 ]
[ 0.031250 0.406250 0.250000 0.031250 0.031250 0.250000 ]
3
Num Evals 4
GenUC: 2.394769e-02
GenUB: 8.481671e-04
Optimisation 1.594984e-02
Total Time: 4.437642e-02
2 Flipped
Graph 1:
1 0 0 0 
0 1 1 1 
1 0 1 0 
1 0 0 0 
Graph 2:
0 0 0 1 
1 1 1 0 
0 1 0 1 
0 0 0 1 
Solution: -2 6
Expectation: -7.881718
Final Parameters:
Gammas:
[ 5.680638 ]
Betas:
[ 2.679663 ]
Aggregate results:
[ 10 8 6 2 16 ]
[ 0.391516 0.233962 0.039416 0.250238 0.084868 ]
3
Num Evals 81
GenUC: 7.257462e-04
GenUB: 7.280484e-04
Optimisation 1.148015e-01
Total Time: 1.171991e-01
3 Add 4
Graph 1:
1 0 0 0 
0 1 1 1 
1 0 1 0 
1 0 0 0 
Graph 2:
1 1 0 0 
0 1 1 1 
1 1 1 1 
1 0 1 0 
Solution: -4 0
Expectation: -7.811628
Final Parameters:
Gammas:
[ 5.624906 ]
Betas:
[ 2.453605 ]
Aggregate results:
[ 4 10 6 8 12 16 ]
[ 0.057228 0.141768 0.347534 0.394059 0.005803 0.053607 ]
3
Num Evals 84
GenUC: 1.390576e-04
GenUB: 1.357156e-04
Optimisation 7.436673e-02
Total Time: 7.554954e-02
4 Rem 4
Graph 1:
1 0 0 0 
0 1 1 1 
1 0 1 0 
1 0 0 0 
Graph 2:
1 0 0 0 
0 1 0 0 
0 0 1 0 
1 0 0 0 
Solution: -3 0
Expectation: -4.982113
Final Parameters:
Gammas:
[ 3.618131 ]
Betas:
[ 2.634048 ]
Aggregate results:
[ 3 5 7 16 ]
[ 0.329506 0.479490 0.162214 0.028791 ]
3
Num Evals 93
GenUC: 1.381612e-04
GenUB: 1.361212e-04
Optimisation 1.817303e-02
Total Time: 1.864299e-02
5 Add/Rem 4
Graph 1:
1 0 0 0 
0 1 1 1 
1 0 1 0 
1 0 0 0 
Graph 2:
1 1 0 0 
0 0 1 0 
0 0 1 0 
1 1 1 0 
Solution: -4 2
Expectation: -8.555960
Final Parameters:
Gammas:
[ 4.153708 ]
Betas:
[ 2.200869 ]
Aggregate results:
[ 6 8 4 10 12 16 ]
[ 0.163108 0.188897 0.242419 0.223108 0.013525 0.168942 ]
3
Num Evals 71
GenUC: 2.138549e-05
GenUB: 2.110191e-05
Optimisation 1.145341e-02
Total Time: 1.167798e-02
