Clock Speed: 3.498795
Num threads: 24
Trotterisation: 1
Graph Size: 4
Num Qubits: 5
Space Dimension: 32
Run-Type: 0
Num_samples: 1
1 Isomorphic
Graph 1:
1 0 1 1 
0 0 0 0 
0 0 0 1 
1 0 0 0 
Graph 2:
1 0 1 1 
0 0 0 0 
0 0 0 1 
1 0 0 0 
Solution: 0 0
Expectation: -7.113145
Final Parameters:
Gammas:
[ 5.729452 ]
Betas:
[ 3.138227 2.532314 ]
Aggregate results:
[ 0 8 4 6 10 16 ]
[ 0.096307 0.319936 0.172347 0.147074 0.207925 0.056411 ]
3
Num Evals 136
GenUC: 3.708423e-02
GenUB: 4.832847e-04
Optimisation 1.505235e-01
Total Time: 1.884796e-01
2 Flipped
Graph 1:
1 0 1 1 
0 0 0 0 
0 0 0 1 
1 0 0 0 
Graph 2:
1 1 0 1 
0 0 0 0 
1 0 0 0 
0 0 0 1 
Solution: -4 3
Expectation: -6.972425
Final Parameters:
Gammas:
[ 5.723711 ]
Betas:
[ 2.824687 2.425090 ]
Aggregate results:
[ 6 10 4 8 16 ]
[ 0.194708 0.128406 0.367777 0.237091 0.072017 ]
3
Num Evals 271
GenUC: 2.264744e-05
GenUB: 1.896545e-05
Optimisation 4.329558e-02
Total Time: 4.367671e-02
3 Add 4
Graph 1:
1 0 1 1 
0 0 0 0 
0 0 0 1 
1 0 0 0 
Graph 2:
1 1 1 1 
0 0 0 0 
0 0 1 1 
1 0 0 1 
Solution: -3 0
Expectation: -8.831302
Final Parameters:
Gammas:
[ 4.455081 ]
Betas:
[ 2.679469 2.609887 ]
Aggregate results:
[ 3 11 9 5 7 13 16 ]
[ 0.005466 0.096018 0.156239 0.172806 0.398004 0.013662 0.157806 ]
3
Num Evals 402
GenUC: 2.081972e-05
GenUB: 1.797220e-05
Optimisation 4.153794e-02
Total Time: 4.192673e-02
4 Rem 4
Graph 1:
1 0 1 1 
0 0 0 0 
0 0 0 1 
1 0 0 0 
Graph 2:
1 0 0 0 
0 0 0 0 
0 0 0 0 
1 0 0 0 
Solution: -3 0
Expectation: -6.562707
Final Parameters:
Gammas:
[ 4.821504 ]
Betas:
[ 2.049049 2.496490 ]
Aggregate results:
[ 3 7 5 16 ]
[ 0.039450 0.344557 0.529403 0.086590 ]
3
Num Evals 535
GenUC: 2.010213e-05
GenUB: 1.851097e-05
Optimisation 4.002037e-02
Total Time: 4.037761e-02
5 Add/Rem 4
Graph 1:
1 0 1 1 
0 0 0 0 
0 0 0 1 
1 0 0 0 
Graph 2:
1 0 0 1 
1 0 0 0 
0 1 0 1 
0 1 0 0 
Solution: -3 12
Expectation: -7.727111
Final Parameters:
Gammas:
[ 5.633210 ]
Betas:
[ 2.674187 2.341135 ]
Aggregate results:
[ 5 7 9 3 16 ]
[ 0.280769 0.248515 0.396177 0.013427 0.061112 ]
3
Num Evals 668
GenUC: 2.105627e-05
GenUB: 2.134312e-05
Optimisation 4.117994e-02
Total Time: 4.155326e-02
