Clock Speed: 3.498824
Num threads: 24
Trotterisation: 2
Graph Size: 4
Num Qubits: 5
Space Dimension: 32
Run-Type: 0
Num_samples: 1
Optimiser Method: 28
1 Isomorphic
Graph 1:
1 1 0 0 
0 0 1 1 
1 1 0 1 
1 1 0 1 
Graph 2:
1 1 0 0 
0 0 1 1 
1 1 0 1 
1 1 0 1 
Solution: 0 0
Expectation: -6.038326
Final Parameters:
Gammas:
[ 6.093785 5.347483 ]
Betas:
[ 1.955481 1.531883 ]
Aggregate results:
[ 0 8 6 10 12 4 16 ]
[ 0.141096 0.344735 0.267605 0.052430 0.007820 0.160362 0.025952 ]
5
Num Evals 200
GenUC: 2.504925e-02
GenUB: 2.353420e-04
Optimisation 1.206146e-01
Total Time: 1.462242e-01
2 Flipped
Graph 1:
1 1 0 0 
0 0 1 1 
1 1 0 1 
1 1 0 1 
Graph 2:
0 0 1 1 
1 1 0 0 
1 0 1 1 
1 0 1 1 
Solution: -4 1
Expectation: -7.074544
Final Parameters:
Gammas:
[ 3.349040 3.200259 ]
Betas:
[ 2.091223 0.726494 ]
Aggregate results:
[ 12 4 6 8 10 16 ]
[ 0.026847 0.162897 0.282733 0.477317 0.036239 0.013967 ]
5
Num Evals 200
GenUC: 2.174964e-05
GenUB: 1.840107e-05
Optimisation 5.129415e-02
Total Time: 5.160415e-02
3 Add 4
Graph 1:
1 1 0 0 
0 0 1 1 
1 1 0 1 
1 1 0 1 
Graph 2:
1 1 0 0 
1 1 1 1 
1 1 0 1 
1 1 0 1 
Solution: -2 0
Expectation: -6.990177
Final Parameters:
Gammas:
[ 4.424533 4.181346 ]
Betas:
[ 2.119409 0.756883 ]
Aggregate results:
[ 2 6 8 10 4 16 ]
[ 0.022030 0.432210 0.216243 0.077528 0.182017 0.069973 ]
5
Num Evals 200
GenUC: 2.048630e-05
GenUB: 1.748977e-05
Optimisation 5.158441e-02
Total Time: 5.189601e-02
4 Rem 4
Graph 1:
1 1 0 0 
0 0 1 1 
1 1 0 1 
1 1 0 1 
Graph 2:
0 1 0 0 
0 0 0 1 
0 1 0 1 
1 1 0 0 
Solution: -4 0
Expectation: -7.577640
Final Parameters:
Gammas:
[ 4.359327 4.699442 ]
Betas:
[ 2.674865 2.326844 ]
Aggregate results:
[ 4 8 10 6 12 16 ]
[ 0.253002 0.392970 0.079653 0.170811 0.014137 0.089427 ]
3
Num Evals 168
GenUC: 2.064975e-05
GenUB: 2.372870e-05
Optimisation 5.520555e-02
Total Time: 5.560264e-02
5 Add/Rem 4
Graph 1:
1 1 0 0 
0 0 1 1 
1 1 0 1 
1 1 0 1 
Graph 2:
0 1 0 1 
1 1 1 0 
1 1 0 1 
1 0 0 0 
Solution: -5 1
Expectation: -8.167924
Final Parameters:
Gammas:
[ 3.870291 3.078552 ]
Betas:
[ 1.482307 2.581453 ]
Aggregate results:
[ 7 5 9 11 16 ]
[ 0.528198 0.128498 0.223151 0.020553 0.099601 ]
5
Num Evals 200
GenUC: 2.034148e-05
GenUB: 1.777895e-05
Optimisation 5.687787e-02
Total Time: 5.723594e-02
