Clock Speed: 3.498630
Num threads: 24
Trotterisation: 2
Graph Size: 4
Num Qubits: 5
Space Dimension: 32
Run-Type: 0
Num_samples: 1
1 Isomorphic
Graph 1:
1 0 1 1 
0 0 0 0 
0 0 0 1 
1 0 0 0 
Graph 2:
1 0 1 1 
0 0 0 0 
0 0 0 1 
1 0 0 0 
Solution: 0 0
Expectation: -6.906904
Final Parameters:
Gammas:
[ 4.961829 4.498193 ]
Betas:
[ 1.853122 1.494018 2.395362 ]
Aggregate results:
[ 0 8 4 6 10 16 ]
[ 0.001330 0.177618 0.275729 0.398220 0.059988 0.087115 ]
3
Num Evals 305
GenUC: 3.062761e-03
GenUB: 1.325333e-04
Optimisation 1.995192e-01
Total Time: 2.031710e-01
2 Flipped
Graph 1:
1 0 1 1 
0 0 0 0 
0 0 0 1 
1 0 0 0 
Graph 2:
1 1 0 1 
0 0 0 0 
1 0 0 0 
0 0 0 1 
Solution: -4 3
Expectation: -6.814315
Final Parameters:
Gammas:
[ 3.706338 2.525589 ]
Betas:
[ 2.612099 2.362409 1.433099 ]
Aggregate results:
[ 6 10 4 8 16 ]
[ 0.163265 0.129323 0.420646 0.216168 0.070598 ]
3
Num Evals 622
GenUC: 2.160016e-05
GenUB: 1.826556e-05
Optimisation 1.381254e-01
Total Time: 1.386242e-01
3 Add 4
Graph 1:
1 0 1 1 
0 0 0 0 
0 0 0 1 
1 0 0 0 
Graph 2:
1 1 1 1 
0 0 0 0 
0 0 1 1 
1 0 0 1 
Solution: -3 0
Expectation: -8.230389
Final Parameters:
Gammas:
[ 4.144203 4.166329 ]
Betas:
[ 1.721895 1.918004 0.884771 ]
Aggregate results:
[ 3 11 9 5 7 13 16 ]
[ 0.070341 0.065499 0.147042 0.107712 0.478587 0.002090 0.128728 ]
3
Num Evals 915
GenUC: 2.105022e-05
GenUB: 1.799501e-05
Optimisation 1.103669e-01
Total Time: 1.107998e-01
4 Rem 4
Graph 1:
1 0 1 1 
0 0 0 0 
0 0 0 1 
1 0 0 0 
Graph 2:
1 0 0 0 
0 0 0 0 
0 0 0 0 
1 0 0 0 
Solution: -3 0
Expectation: -5.470984
Final Parameters:
Gammas:
[ 5.520924 4.531628 ]
Betas:
[ 1.433864 1.954394 1.547135 ]
Aggregate results:
[ 3 7 5 16 ]
[ 0.118212 0.130927 0.710356 0.040505 ]
3
Num Evals 1173
GenUC: 2.015149e-05
GenUB: 2.244022e-05
Optimisation 9.988705e-02
Total Time: 1.003345e-01
5 Add/Rem 4
Graph 1:
1 0 1 1 
0 0 0 0 
0 0 0 1 
1 0 0 0 
Graph 2:
1 0 0 1 
1 0 0 0 
0 1 0 1 
0 1 0 0 
Solution: -3 12
Expectation: -7.704019
Final Parameters:
Gammas:
[ 5.638940 4.369034 ]
Betas:
[ 1.591178 0.794310 1.498165 ]
Aggregate results:
[ 5 7 9 3 16 ]
[ 0.253007 0.274868 0.406896 0.014679 0.050551 ]
3
Num Evals 1535
GenUC: 2.063625e-05
GenUB: 1.747906e-05
Optimisation 1.284624e-01
Total Time: 1.288724e-01
