Clock Speed: 3.498801
Num threads: 24
Trotterisation: 2
Graph Size: 4
Num Qubits: 5
Space Dimension: 32
Run-Type: 0
Num_samples: 1
1 Isomorphic
Graph 1:
1 0 1 0 
0 1 0 0 
0 0 0 1 
1 0 0 1 
Graph 2:
1 0 1 0 
0 1 0 0 
0 0 0 1 
1 0 0 1 
Solution: 0 0
Expectation: -4.989230
Final Parameters:
Gammas:
[ 4.390203 3.669093 ]
Betas:
[ 1.274068 0.796688 0.400773 ]
Aggregate results:
[ 0 4 8 6 2 16 ]
[ 0.359474 0.025367 0.162240 0.225365 0.100229 0.127325 ]
5
Num Evals 400
GenUC: 3.252695e-03
GenUB: 5.087722e-04
Optimisation 2.055491e-01
Total Time: 2.096465e-01
2 Flipped
Graph 1:
1 0 1 0 
0 1 0 0 
0 0 0 1 
1 0 0 1 
Graph 2:
0 1 0 1 
0 0 1 0 
1 0 0 0 
1 0 0 1 
Solution: -4 8
Expectation: -8.455566
Final Parameters:
Gammas:
[ 4.584742 4.187347 ]
Betas:
[ 1.969728 1.516461 2.442591 ]
Aggregate results:
[ 8 10 6 4 12 16 ]
[ 0.283622 0.274677 0.144220 0.174055 0.024132 0.099293 ]
3
Num Evals 654
GenUC: 2.357643e-05
GenUB: 1.858873e-05
Optimisation 1.098040e-01
Total Time: 1.103094e-01
3 Add 4
Graph 1:
1 0 1 0 
0 1 0 0 
0 0 0 1 
1 0 0 1 
Graph 2:
1 0 1 1 
0 1 0 0 
0 1 0 1 
1 1 0 1 
Solution: -3 0
Expectation: -7.608892
Final Parameters:
Gammas:
[ 5.356144 2.840132 ]
Betas:
[ 2.580733 2.046670 1.905549 ]
Aggregate results:
[ 3 5 9 7 11 16 ]
[ 0.041596 0.246932 0.165118 0.423846 0.032735 0.089774 ]
3
Num Evals 940
GenUC: 2.264371e-05
GenUB: 2.181763e-05
Optimisation 1.298155e-01
Total Time: 1.303338e-01
4 Rem 4
Graph 1:
1 0 1 0 
0 1 0 0 
0 0 0 1 
1 0 0 1 
Graph 2:
1 0 1 0 
0 0 0 0 
0 0 0 0 
0 0 0 0 
Solution: -4 0
Expectation: -6.400723
Final Parameters:
Gammas:
[ 4.893925 4.780283 ]
Betas:
[ 2.404803 2.098458 1.362515 ]
Aggregate results:
[ 4 6 8 16 ]
[ 0.341174 0.468361 0.102697 0.087768 ]
3
Num Evals 1189
GenUC: 2.102321e-05
GenUB: 2.159690e-05
Optimisation 1.074167e-01
Total Time: 1.079121e-01
5 Add/Rem 4
Graph 1:
1 0 1 0 
0 1 0 0 
0 0 0 1 
1 0 0 1 
Graph 2:
0 0 0 0 
0 0 0 1 
0 0 1 1 
1 1 0 1 
Solution: -4 3
Expectation: -7.790147
Final Parameters:
Gammas:
[ 3.861688 1.731506 ]
Betas:
[ 0.437550 1.042279 2.163036 ]
Aggregate results:
[ 6 4 8 10 16 ]
[ 0.384810 0.134128 0.257566 0.115281 0.108214 ]
3
Num Evals 1514
GenUC: 2.140971e-05
GenUB: 1.791446e-05
Optimisation 1.215966e-01
Total Time: 1.220102e-01
