Clock Speed: 3.498835
Num threads: 24
Trotterisation: 2
Graph Size: 4
Num Qubits: 5
Space Dimension: 32
Run-Type: 1
Num_samples: 1
1 Isomorphic
Graph 1:
0 0 0 1 
0 0 0 0 
1 1 1 0 
0 1 0 1 
Graph 2:
0 0 0 1 
0 0 0 0 
1 1 1 0 
0 1 0 1 
Solution: 0 0
Expectation: -7.982498
Final Parameters:
Gammas:
[ 3.965866 2.892011 ]
Betas:
[ 1.192571 0.690292 1.380558 ]
Aggregate results:
[ 0 4 10 8 6 12 16 ]
[ 0.111592 0.098579 0.098652 0.380176 0.139735 0.004604 0.166663 ]
3
Num Evals 292
GenUC: 7.217679e-02
GenUB: 2.290448e-05
Optimisation 9.864961e-02
Total Time: 1.712199e-01
