Clock Speed: 3.498888
Num threads: 24
Trotterisation: 2
Graph Size: 4
Num Qubits: 5
Space Dimension: 32
Run-Type: 1
Num_samples: 1
1 Isomorphic
Graph 1:
0 0 1 1 
0 0 0 0 
1 1 1 1 
0 0 1 1 
Graph 2:
0 0 1 1 
0 0 0 0 
1 1 1 1 
0 0 1 1 
Solution: 0 0
Expectation: -6.850938
Final Parameters:
Gammas:
[ 4.400750 2.814465 ]
Betas:
[ 1.519241 1.310965 0.929944 ]
Aggregate results:
[ 0 4 10 12 6 8 16 ]
[ 0.171657 0.161531 0.175004 0.090161 0.192856 0.140618 0.068173 ]
3
Num Evals 258
GenUC: 4.475415e-03
GenUB: 4.856162e-04
Optimisation 2.709043e-01
Total Time: 2.762647e-01
