Clock Speed: 3.498807
Num threads: 24
Trotterisation: 4
Graph Size: 4
Num Qubits: 5
Space Dimension: 32
Run-Type: 1
Num_samples: 1
1 Isomorphic
Graph 1:
0 1 1 0 
1 1 1 0 
0 0 1 1 
0 1 1 0 
Graph 2:
0 1 1 0 
1 1 1 0 
0 0 1 1 
0 1 1 0 
Solution: 0 0
Expectation: -5.409183
Final Parameters:
Gammas:
[ 3.322933 3.312562 2.950677 4.303287 ]
Betas:
[ 0.357019 0.029170 0.214133 0.940051 1.786502 ]
Aggregate results:
[ 0 4 10 6 8 2 16 ]
[ 0.197585 0.188481 0.181429 0.112903 0.177268 0.109424 0.032910 ]
5
Num Evals 400
GenUC: 4.364825e-03
GenUB: 2.369327e-04
Optimisation 2.695448e-01
Total Time: 2.746221e-01
