Clock Speed: 3.498904
Num threads: 24
Trotterisation: 5
Graph Size: 4
Num Qubits: 5
Space Dimension: 32
Run-Type: 0
Num_samples: 1
Optimiser Method: 28
1 Isomorphic
Graph 1:
0 1 1 1 
0 1 1 1 
0 1 1 1 
1 1 0 1 
Graph 2:
0 1 1 1 
0 1 1 1 
0 1 1 1 
1 1 0 1 
Solution: 0 0
Expectation: -5.561487
Final Parameters:
Gammas:
[ 4.567627 4.507485 4.087997 3.173899 4.006428 ]
Betas:
[ 1.535623 1.847641 1.583289 1.407821 2.114142 ]
Aggregate results:
[ 0 6 8 2 4 16 ]
[ 0.171977 0.225920 0.304083 0.019449 0.226894 0.051677 ]
5
Num Evals 200
GenUC: 2.532287e-02
GenUB: 4.191054e-04
Optimisation 3.199136e-01
Total Time: 3.464104e-01
2 Flipped
Graph 1:
0 1 1 1 
0 1 1 1 
0 1 1 1 
1 1 0 1 
Graph 2:
1 1 1 0 
1 1 1 0 
1 1 1 0 
1 0 1 1 
Solution: -4 6
Expectation: -6.224676
Final Parameters:
Gammas:
[ 4.475929 3.775031 3.512220 3.070286 3.073024 ]
Betas:
[ 1.559947 2.034988 1.613493 1.893624 0.371440 ]
Aggregate results:
[ 8 6 4 16 ]
[ 0.187841 0.261922 0.471114 0.079122 ]
5
Num Evals 200
GenUC: 2.092542e-05
GenUB: 2.391823e-05
Optimisation 1.298640e-01
Total Time: 1.305912e-01
3 Add 4
Graph 1:
0 1 1 1 
0 1 1 1 
0 1 1 1 
1 1 0 1 
Graph 2:
1 1 1 1 
1 1 1 1 
1 1 1 1 
1 1 0 1 
Solution: -3 0
Expectation: -4.797429
Final Parameters:
Gammas:
[ 4.714042 3.047816 3.296393 3.296754 3.065719 ]
Betas:
[ 2.361331 1.568673 1.411978 2.052841 1.486892 ]
Aggregate results:
[ 3 5 16 ]
[ 0.451435 0.484902 0.063663 ]
5
Num Evals 200
GenUC: 1.964252e-05
GenUB: 1.681224e-05
Optimisation 1.437616e-01
Total Time: 1.445897e-01
4 Rem 4
Graph 1:
0 1 1 1 
0 1 1 1 
0 1 1 1 
1 1 0 1 
Graph 2:
0 1 1 1 
0 1 1 0 
0 1 1 0 
0 1 0 1 
Solution: -3 0
Expectation: -7.504533
Final Parameters:
Gammas:
[ 4.721377 3.289348 3.213147 3.341549 3.156688 ]
Betas:
[ 2.197855 2.204245 1.522800 2.185837 1.723543 ]
Aggregate results:
[ 3 9 11 5 7 16 ]
[ 0.291335 0.187173 0.046975 0.065124 0.271851 0.137542 ]
5
Num Evals 200
GenUC: 2.125371e-05
GenUB: 1.743389e-05
Optimisation 1.428544e-01
Total Time: 1.436285e-01
5 Add/Rem 4
Graph 1:
0 1 1 1 
0 1 1 1 
0 1 1 1 
1 1 0 1 
Graph 2:
1 1 1 1 
0 0 1 1 
1 0 1 1 
1 0 0 1 
Solution: -3 1
Expectation: -6.665114
Final Parameters:
Gammas:
[ 4.862757 3.287910 3.203689 3.520437 2.076110 ]
Betas:
[ 2.539368 1.659777 1.701915 2.274664 1.811772 ]
Aggregate results:
[ 5 3 7 9 16 ]
[ 0.447261 0.121071 0.233815 0.105252 0.092602 ]
5
Num Evals 200
GenUC: 2.110936e-05
GenUB: 1.681596e-05
Optimisation 1.493029e-01
Total Time: 1.500726e-01
