Clock Speed: 3.498721
Num threads: 24
Trotterisation: 5
Graph Size: 4
Num Qubits: 5
Space Dimension: 32
Run-Type: 1
Num_samples: 1
1 Isomorphic
Graph 1:
1 0 1 1 
0 0 1 1 
1 1 0 1 
1 0 1 0 
Graph 2:
1 0 1 1 
0 0 1 1 
1 1 0 1 
1 0 1 0 
Solution: 0 0
Expectation: -4.313901
Final Parameters:
Gammas:
[ 4.250270 4.098163 3.557691 3.437573 3.577126 ]
Betas:
[ 1.581817 1.687792 1.165699 1.474757 2.124982 0.836395 ]
Aggregate results:
[ 0 4 8 6 2 16 ]
[ 0.311449 0.212595 0.155491 0.276310 0.010339 0.033816 ]
5
Num Evals 400
GenUC: 3.755856e-03
GenUB: 6.268150e-04
Optimisation 4.748543e-01
Total Time: 4.800471e-01
