Clock Speed: 3.498539
Num threads: 24
Trotterisation: 6
Graph Size: 4
Num Qubits: 5
Space Dimension: 32
Run-Type: 1
Num_samples: 1
1 Isomorphic
Graph 1:
1 0 1 0 
1 1 0 0 
1 1 0 0 
1 0 1 1 
Graph 2:
1 0 1 0 
1 1 0 0 
1 1 0 0 
1 0 1 1 
Solution: 0 0
Expectation: -5.966643
Final Parameters:
Gammas:
[ 4.704332 3.481660 2.691182 4.555312 4.870354 3.330431 ]
Betas:
[ 2.410482 2.287581 1.911258 1.302536 1.962080 1.694201 1.784621 ]
Aggregate results:
[ 0 6 8 10 4 14 16 ]
[ 0.168234 0.262179 0.212815 0.086816 0.207187 0.005084 0.057685 ]
5
Num Evals 400
GenUC: 3.016062e-03
GenUB: 1.397491e-04
Optimisation 4.744863e-01
Total Time: 4.786920e-01
