Clock Speed: 3.688499
Num threads: 4
Trotterisation: 5
Num Qubits: 7
Space Dimension: 128
Run-Type: 0
Num_samples: 5
Optimiser Method: 0
1 Isomorphic
Graph 1:
0 0 0 0 1 
0 0 1 1 1 
0 1 0 0 1 
0 1 0 0 1 
1 1 1 1 0 
Graph 2:
0 0 0 0 1 
0 0 1 1 1 
0 1 0 0 1 
0 1 0 0 1 
1 1 1 1 0 
Solution: 25 0
Classic Expectation: 15.400000
Initial Expecation: 14.437500
Gbest: 25.000000
Expectation: 17.977648
Final Parameters:
Gammas:
[ 2.835621 3.180378 5.300630 3.154521 3.257948 ]
Betas:
[ 1.396263 1.512619 1.488187 0.349066 1.447977 ]
Aggregate results:
[ 25 17 21 13 9 0 ]
[ 0.063652 0.226947 0.485228 0.163645 0.023453 0.037075 ]
5
Num Evals 5000
GenUC: 4.081370e-05
GenUB: 1.413014e-05
Optimisation 3.448923e+00
Total Time: 3.449005e+00
2 Flipped
Graph 1:
0 0 0 0 1 
0 0 1 1 1 
0 1 0 0 1 
0 1 0 0 1 
1 1 1 1 0 
Graph 2:
1 0 0 0 0 
1 1 1 0 0 
1 0 0 1 0 
1 0 0 1 0 
0 1 1 1 1 
Solution: 13 19
Classic Expectation: 10.600000
Initial Expecation: 9.937500
Gbest: 13.000000
Expectation: 11.407426
Final Parameters:
Gammas:
[ 1.042889 3.160266 2.533001 3.139199 0.620562 ]
Betas:
[ 1.455851 1.590189 1.564333 0.349065 1.512620 ]
Aggregate results:
[ 9 11 13 0 ]
[ 0.050316 0.669512 0.276150 0.004022 ]
5
Num Evals 5000
GenUC: 4.456408e-05
GenUB: 3.170629e-06
Optimisation 3.301553e+00
Total Time: 3.301604e+00
3 Add 5
Graph 1:
0 0 0 0 1 
0 0 1 1 1 
0 1 0 0 1 
0 1 0 0 1 
1 1 1 1 0 
Graph 2:
0 1 1 1 1 
1 1 1 1 1 
1 1 0 0 1 
1 1 0 0 1 
1 1 1 1 1 
Solution: 17 0
Classic Expectation: 14.600000
Initial Expecation: 13.687500
Gbest: 17.000000
Expectation: 15.979929
Final Parameters:
Gammas:
[ 0.973937 4.576641 5.251895 3.137283 1.008412 ]
Betas:
[ 1.538475 1.861685 1.607427 2.624458 1.650164 ]
Aggregate results:
[ 17 13 0 ]
[ 0.776109 0.214314 0.009577 ]
5
Num Evals 5000
GenUC: 4.430761e-05
GenUB: 2.937100e-06
Optimisation 3.504548e+00
Total Time: 3.504598e+00
4 Rem 5
Graph 1:
0 0 0 0 1 
0 0 1 1 1 
0 1 0 0 1 
0 1 0 0 1 
1 1 1 1 0 
Graph 2:
0 0 0 0 0 
0 0 0 0 0 
0 0 0 0 0 
0 0 0 0 1 
0 0 0 1 0 
Solution: 15 0
Classic Expectation: 13.400000
Initial Expecation: 12.562500
Gbest: 15.000000
Expectation: 14.480528
Final Parameters:
Gammas:
[ 1.266980 5.216165 3.335518 3.102808 3.180378 ]
Betas:
[ 1.512619 0.569327 1.745329 2.714957 1.409192 ]
Aggregate results:
[ 15 11 0 ]
[ 0.900541 0.088401 0.011058 ]
5
Num Evals 5000
GenUC: 4.426768e-05
GenUB: 2.841989e-06
Optimisation 3.401946e+00
Total Time: 3.401996e+00
5 Add/Rem 5
Graph 1:
0 0 0 0 1 
0 0 1 1 1 
0 1 0 0 1 
0 1 0 0 1 
1 1 1 1 0 
Graph 2:
1 1 1 1 0 
1 1 0 0 0 
1 0 0 0 0 
1 0 0 0 1 
0 0 0 1 1 
Solution: 18 39
Classic Expectation: 11.600000
Initial Expecation: 10.875000
Gbest: 14.000000
Expectation: 12.212327
Final Parameters:
Gammas:
[ 3.141593 5.235988 5.235988 5.235988 5.235988 ]
Betas:
[ 0.523599 0.523599 0.523599 1.454441 1.221730 ]
Aggregate results:
[ 6 10 14 18 0 ]
[ 0.060250 0.407024 0.379315 0.137233 0.016179 ]
5
Num Evals 5000
GenUC: 4.661264e-05
GenUB: 2.879533e-06
Optimisation 3.381966e+00
Total Time: 3.382019e+00
