Clock Speed: 3.688923
Num threads: 4
Trotterisation: 4
Num Qubits: 3
Space Dimension: 8
Run-Type: 0
Num_samples: 3
Optimiser Method: 0
1 Isomorphic
Graph 1:
0 1 0 
1 0 0 
0 0 0 
Graph 2:
0 1 0 
1 0 0 
0 0 0 
Solution: 9 0
Classic Expectation: 6.333333
Initial Expecation: 4.750000
Gbest: 9.000000
Expectation: 6.982081
Final Parameters:
Gammas:
[ 5.235988 5.235988 3.141593 5.934119 ]
Betas:
[ 2.617994 1.570796 1.919862 1.570796 ]
Aggregate results:
[ 9 5 0 ]
[ 0.498009 0.500000 0.001991 ]
5
Num Evals 2400
GenUC: 2.528715e-06
GenUB: 7.930561e-06
Optimisation 8.025239e-01
Total Time: 8.025628e-01
2 Flipped
Graph 1:
0 1 0 
1 0 0 
0 0 0 
Graph 2:
0 1 0 
0 0 1 
0 0 0 
Solution: 7 0
Classic Expectation: 6.333333
Initial Expecation: 4.750000
Gbest: 7.000000
Expectation: 6.861329
Final Parameters:
Gammas:
[ 5.265675 3.130101 5.248437 5.197681 ]
Betas:
[ 2.391987 1.525786 0.387612 2.030472 ]
Aggregate results:
[ 7 5 0 ]
[ 0.949053 0.043592 0.007355 ]
5
Num Evals 2400
GenUC: 2.367306e-06
GenUB: 1.075095e-06
Optimisation 6.898181e-01
Total Time: 6.898241e-01
3 Add 3
Graph 1:
0 1 0 
1 0 0 
0 0 0 
Graph 2:
1 1 1 
1 1 0 
1 0 0 
Solution: 5 0
Classic Expectation: 3.666667
Initial Expecation: 2.750000
Gbest: 5.000000
Expectation: 4.880153
Final Parameters:
Gammas:
[ 1.150624 1.021341 1.047198 6.037546 ]
Betas:
[ 2.669707 2.682636 1.182945 1.454441 ]
Aggregate results:
[ 5 1 0 ]
[ 0.971723 0.021538 0.006739 ]
5
Num Evals 2400
GenUC: 2.439483e-06
GenUB: 1.059787e-06
Optimisation 6.662804e-01
Total Time: 6.662863e-01
4 Rem 3
Graph 1:
0 1 0 
1 0 0 
0 0 0 
Graph 2:
0 0 0 
0 0 0 
0 0 0 
Solution: 7 0
Classic Expectation: 7.000000
Initial Expecation: 5.250000
Gbest: 7.000000
Expectation: 7.000000
Final Parameters:
Gammas:
[ 3.141557 5.235988 3.143496 1.021341 ]
Betas:
[ 1.919839 1.584209 2.617509 1.222703 ]
Aggregate results:
[ 7 0 ]
[ 1.000000 0.000000 ]
5
Num Evals 2400
GenUC: 2.475863e-06
GenUB: 8.573988e-07
Optimisation 7.113185e-01
Total Time: 7.113242e-01
5 Add/Rem 3
Graph 1:
0 1 0 
1 0 0 
0 0 0 
Graph 2:
1 0 1 
0 1 0 
1 0 0 
Solution: 7 1
Classic Expectation: 4.333333
Initial Expecation: 3.250000
Gbest: 7.000000
Expectation: 6.999989
Final Parameters:
Gammas:
[ 1.047198 5.235988 5.235988 1.047198 ]
Betas:
[ 1.570796 0.614097 1.570796 1.261952 ]
Aggregate results:
[ 3 7 0 ]
[ 0.000002 0.999998 0.000001 ]
5
Num Evals 2400
GenUC: 2.262241e-06
GenUB: 9.136857e-07
Optimisation 6.699884e-01
Total Time: 6.699937e-01
