Clock Speed: 3.689262
Num threads: 4
Trotterisation: 4
Num Qubits: 3
Space Dimension: 8
Run-Type: 0
Num_samples: 3
Optimiser Method: 0
1 Isomorphic
Graph 1:
0 1 0 
1 0 1 
0 1 0 
Graph 2:
0 1 0 
1 0 1 
0 1 0 
Solution: 9 0
Classic Expectation: 6.333333
Initial Expecation: 4.750000
Gbest: 9.000000
Expectation: 8.312159
Final Parameters:
Gammas:
[ 1.121416 3.413088 3.257948 3.154521 ]
Betas:
[ 0.581776 1.590189 2.016825 1.590189 ]
Aggregate results:
[ 9 5 0 ]
[ 0.877277 0.083333 0.039390 ]
5
Num Evals 2400
GenUC: 2.506385e-06
GenUB: 6.727525e-06
Optimisation 2.135120e+01
Total Time: 2.135124e+01
2 Flipped
Graph 1:
0 1 0 
1 0 1 
0 1 0 
Graph 2:
0 1 0 
1 0 1 
0 1 0 
Solution: 9 0
Classic Expectation: 6.333333
Initial Expecation: 4.750000
Gbest: 9.000000
Expectation: 8.312159
Final Parameters:
Gammas:
[ 1.121416 3.413088 3.257948 3.154521 ]
Betas:
[ 0.581776 1.590189 2.016825 1.590189 ]
Aggregate results:
[ 9 5 0 ]
[ 0.877277 0.083333 0.039390 ]
5
Num Evals 2400
GenUC: 2.348526e-06
GenUB: 1.126726e-06
Optimisation 2.050203e+01
Total Time: 2.050203e+01
3 Add 3
Graph 1:
0 1 0 
1 0 1 
0 1 0 
Graph 2:
1 1 1 
1 1 1 
1 1 0 
Solution: 5 0
Classic Expectation: 5.000000
Initial Expecation: 3.750000
Gbest: 5.000000
Expectation: 5.000000
Final Parameters:
Gammas:
[ 3.141593 1.047198 5.235030 1.047198 ]
Betas:
[ 0.518651 0.575827 1.613891 1.221890 ]
Aggregate results:
[ 5 0 ]
[ 1.000000 0.000000 ]
5
Num Evals 2400
GenUC: 2.406625e-06
GenUB: 1.067456e-06
Optimisation 1.944814e+01
Total Time: 1.944815e+01
4 Rem 3
Graph 1:
0 1 0 
1 0 1 
0 1 0 
Graph 2:
0 0 0 
0 0 0 
0 0 0 
Solution: 5 0
Classic Expectation: 5.000000
Initial Expecation: 3.750000
Gbest: 5.000000
Expectation: 5.000000
Final Parameters:
Gammas:
[ 3.141593 1.047198 5.235030 1.047198 ]
Betas:
[ 0.518651 0.575827 1.613891 1.221890 ]
Aggregate results:
[ 5 0 ]
[ 1.000000 0.000000 ]
5
Num Evals 2400
GenUC: 2.837362e-06
GenUB: 9.588985e-07
Optimisation 1.822657e+01
Total Time: 1.822657e+01
5 Add/Rem 3
Graph 1:
0 1 0 
1 0 1 
0 1 0 
Graph 2:
1 0 1 
0 1 0 
1 0 0 
Solution: 5 1
Classic Expectation: 3.666667
Initial Expecation: 2.750000
Gbest: 5.000000
Expectation: 4.896723
Final Parameters:
Gammas:
[ 1.073054 5.235988 4.899850 2.555507 ]
Betas:
[ 1.557868 2.109478 0.579622 1.325157 ]
Aggregate results:
[ 1 5 0 ]
[ 0.018081 0.975728 0.006190 ]
5
Num Evals 2400
GenUC: 2.647233e-06
GenUB: 1.032837e-06
Optimisation 2.122727e+01
Total Time: 2.122728e+01
