Clock Speed: 3.688884
Num threads: 4
Trotterisation: 4
Num Qubits: 3
Space Dimension: 8
Run-Type: 0
Num_samples: 3
Optimiser Method: 0
1 Isomorphic
Graph 1:
0 1 1 
1 0 0 
1 0 0 
Graph 2:
0 1 1 
1 0 0 
1 0 0 
Solution: 9 0
Classic Expectation: 6.333333
Initial Expecation: 4.750000
Gbest: 5.000000
Expectation: 6.982081
Final Parameters:
Gammas:
[ 1.047198 3.141593 5.235988 3.141593 ]
Betas:
[ 0.523599 1.570796 1.221730 1.570796 ]
Aggregate results:
[ 9 5 0 ]
[ 0.498009 0.500000 0.001991 ]
5
Num Evals 2400
GenUC: 2.630797e-06
GenUB: 7.155315e-06
Optimisation 2.077354e+01
Total Time: 2.077358e+01
2 Flipped
Graph 1:
0 1 1 
1 0 0 
1 0 0 
Graph 2:
1 1 0 
0 0 1 
0 0 1 
Solution: 5 2
Classic Expectation: 3.666667
Initial Expecation: 2.750000
Gbest: 5.000000
Expectation: 3.999874
Final Parameters:
Gammas:
[ 1.047670 3.168643 2.439157 4.539819 ]
Betas:
[ 1.318696 1.206650 2.521028 1.216706 ]
Aggregate results:
[ 3 5 0 ]
[ 0.500043 0.499949 0.000008 ]
5
Num Evals 2400
GenUC: 2.669527e-06
GenUB: 1.131426e-06
Optimisation 2.335037e+01
Total Time: 2.335037e+01
3 Add 3
Graph 1:
0 1 1 
1 0 0 
1 0 0 
Graph 2:
1 1 1 
1 1 1 
1 1 0 
Solution: 5 0
Classic Expectation: 5.000000
Initial Expecation: 3.750000
Gbest: 5.000000
Expectation: 5.000000
Final Parameters:
Gammas:
[ 3.141593 1.047198 5.235030 1.047198 ]
Betas:
[ 0.518651 0.575827 1.613891 1.221890 ]
Aggregate results:
[ 5 0 ]
[ 1.000000 0.000000 ]
5
Num Evals 2400
GenUC: 2.556269e-06
GenUB: 9.858923e-07
Optimisation 2.009600e+01
Total Time: 2.009601e+01
4 Rem 3
Graph 1:
0 1 1 
1 0 0 
1 0 0 
Graph 2:
0 0 0 
0 0 0 
0 0 0 
Solution: 5 0
Classic Expectation: 5.000000
Initial Expecation: 3.750000
Gbest: 5.000000
Expectation: 5.000000
Final Parameters:
Gammas:
[ 3.141593 1.047198 5.235030 1.047198 ]
Betas:
[ 0.518651 0.575827 1.613891 1.221890 ]
Aggregate results:
[ 5 0 ]
[ 1.000000 0.000000 ]
5
Num Evals 2400
GenUC: 2.787478e-06
GenUB: 9.577197e-07
Optimisation 2.026953e+01
Total Time: 2.026953e+01
5 Add/Rem 3
Graph 1:
0 1 1 
1 0 0 
1 0 0 
Graph 2:
0 0 0 
0 1 1 
0 1 0 
Solution: 6 2
Classic Expectation: 4.666667
Initial Expecation: 3.500000
Gbest: 6.000000
Expectation: 5.988761
Final Parameters:
Gammas:
[ 1.037143 4.421501 1.008424 3.167928 ]
Betas:
[ 1.047197 1.047198 1.577260 1.344549 ]
Aggregate results:
[ 2 6 0 ]
[ 0.002048 0.997444 0.000508 ]
5
Num Evals 2400
GenUC: 2.924804e-06
GenUB: 9.905852e-07
Optimisation 2.072538e+01
Total Time: 2.072539e+01
