Clock Speed: 3.688874
Num threads: 4
Trotterisation: 4
Num Qubits: 3
Space Dimension: 8
Run-Type: 0
Num_samples: 3
Optimiser Method: 29
1 Isomorphic
Graph 1:
0 0 0 
0 0 1 
0 1 0 
Graph 2:
0 0 0 
0 0 1 
0 1 0 
Solution: 9 0
Classic Expectation: 6.333333
Initial Expecation: 4.750000
Gbest: 9.000000
Expectation: 7.000000
Final Parameters:
Gammas:
[ 4.469839 4.383275 2.774271 3.035402 ]
Betas:
[ 0.966026 2.055963 1.747114 1.117976 ]
Aggregate results:
[ 9 5 0 ]
[ 0.500000 0.500000 0.000000 ]
4
Num Evals 847
GenUC: 2.533370e-06
GenUB: 6.392993e-06
Optimisation 6.547731e+00
Total Time: 6.547770e+00
2 Flipped
Graph 1:
0 0 0 
0 0 1 
0 1 0 
Graph 2:
0 0 0 
1 0 0 
0 1 0 
Solution: 7 0
Classic Expectation: 6.333333
Initial Expecation: 4.750000
Gbest: 7.000000
Expectation: 7.000000
Final Parameters:
Gammas:
[ 2.906579 3.072595 3.161992 3.954455 ]
Betas:
[ 3.089345 2.544470 1.412097 1.082652 ]
Aggregate results:
[ 7 5 0 ]
[ 1.000000 0.000000 0.000000 ]
4
Num Evals 1209
GenUC: 2.738177e-06
GenUB: 9.987962e-07
Optimisation 1.159137e+01
Total Time: 1.159138e+01
3 Add 3
Graph 1:
0 0 0 
0 0 1 
0 1 0 
Graph 2:
1 1 1 
1 0 1 
1 1 0 
Solution: 4 0
Classic Expectation: 4.000000
Initial Expecation: 3.000000
Gbest: 4.000000
Expectation: 4.000000
Final Parameters:
Gammas:
[ 3.141593 3.337942 2.734788 3.141627 ]
Betas:
[ 1.929624 0.757137 1.196699 1.551397 ]
Aggregate results:
[ 4 0 ]
[ 1.000000 0.000000 ]
4
Num Evals 1082
GenUC: 2.816814e-06
GenUB: 9.530213e-07
Optimisation 8.484671e+00
Total Time: 8.484678e+00
4 Rem 3
Graph 1:
0 0 0 
0 0 1 
0 1 0 
Graph 2:
0 0 0 
0 0 0 
0 0 0 
Solution: 7 0
Classic Expectation: 7.000000
Initial Expecation: 5.250000
Gbest: 7.000000
Expectation: 7.000000
Final Parameters:
Gammas:
[ 3.350214 2.976241 3.016145 3.092506 ]
Betas:
[ 0.820136 1.546938 1.683907 1.758004 ]
Aggregate results:
[ 7 0 ]
[ 1.000000 0.000000 ]
4
Num Evals 611
GenUC: 2.718813e-06
GenUB: 8.468051e-07
Optimisation 4.645997e+00
Total Time: 4.646003e+00
5 Add/Rem 3
Graph 1:
0 0 0 
0 0 1 
0 1 0 
Graph 2:
0 1 1 
1 0 0 
1 0 0 
Solution: 7 2
Classic Expectation: 5.666667
Initial Expecation: 4.250000
Gbest: 7.000000
Expectation: 7.000000
Final Parameters:
Gammas:
[ 2.935578 0.521865 1.563492 4.714874 ]
Betas:
[ 2.667685 1.298291 1.181120 1.128068 ]
Aggregate results:
[ 3 7 0 ]
[ 0.000000 1.000000 0.000000 ]
4
Num Evals 1140
GenUC: 2.684776e-06
GenUB: 1.137874e-06
Optimisation 1.011283e+01
Total Time: 1.011283e+01
