Clock Speed: 3.689363
Num threads: 4
Trotterisation: 2
Graph Size: 7
Num Qubits: 13
Space Dimension: 8192
Run-Type: 0
Num_samples: 10
1 Isomorphic
Graph 1:
0 0 1 1 0 0 1 
0 0 1 0 0 1 1 
1 1 1 0 0 1 1 
0 0 0 0 0 0 0 
0 0 0 1 1 1 0 
1 0 0 1 0 1 0 
0 0 0 0 0 0 1 
Graph 2:
0 0 1 1 0 0 1 
0 0 1 0 0 1 1 
1 1 1 0 0 1 1 
0 0 0 0 0 0 0 
0 0 0 1 1 1 0 
1 0 0 1 0 1 0 
0 0 0 0 0 0 1 
Solution: 0 0
Gbest: -20.000000
Expectation: -30.310398
Final Parameters:
Gammas:
[ 4.603114 3.148773 ]
Betas:
[ 1.545925 2.182073 2.120340 ]
Aggregate results:
[ -1 5 11 17 19 15 13 9 21 23 25 7 27 29 31 48 ]
[ 0.000369 0.000243 0.002826 0.073699 0.134594 0.026728 0.011409 0.001228 0.156463 0.149670 0.093980 0.000940 0.033267 0.007776 0.001571 0.305237 ]
5
Num Evals 700
GenUC: 1.431738e-03
GenUB: 2.034572e-03
Optimisation 5.927350e+00
Total Time: 5.939204e+00
2 Flipped
Graph 1:
0 0 1 1 0 0 1 
0 0 1 0 0 1 1 
1 1 1 0 0 1 1 
0 0 0 0 0 0 0 
0 0 0 1 1 1 0 
1 0 0 1 0 1 0 
0 0 0 0 0 0 1 
Graph 2:
1 0 0 1 1 0 0 
1 1 0 0 1 0 0 
1 1 0 0 1 1 1 
0 0 0 0 0 0 0 
0 1 1 1 0 0 0 
0 1 0 1 0 0 1 
1 0 0 0 0 0 0 
Solution: -10 2446
Gbest: -18.000000
Expectation: -30.637622
Final Parameters:
Gammas:
[ 4.912510 3.158141 ]
Betas:
[ 1.698779 2.135621 2.148195 ]
Aggregate results:
[ 21 23 19 25 29 27 31 15 17 13 11 33 9 48 ]
[ 0.154918 0.164730 0.115325 0.112721 0.020643 0.058594 0.004466 0.016885 0.050272 0.006847 0.001270 0.000850 0.000275 0.292205 ]
5
Num Evals 1400
GenUC: 1.170430e-03
GenUB: 1.780178e-03
Optimisation 6.031087e+00
Total Time: 6.042551e+00
3 Add 7
Graph 1:
0 0 1 1 0 0 1 
0 0 1 0 0 1 1 
1 1 1 0 0 1 1 
0 0 0 0 0 0 0 
0 0 0 1 1 1 0 
1 0 0 1 0 1 0 
0 0 0 0 0 0 1 
Graph 2:
0 0 1 1 0 0 1 
0 0 1 0 1 1 1 
1 1 1 0 0 1 1 
1 0 0 0 1 0 0 
0 0 0 1 1 1 1 
1 1 1 1 0 1 0 
0 0 0 0 1 0 1 
Solution: -7 0
Gbest: -19.000000
Expectation: -32.144239
Final Parameters:
Gammas:
[ 1.117209 4.052653 ]
Betas:
[ 0.890531 2.818130 0.609438 ]
Aggregate results:
[ 6 10 16 12 20 22 24 18 14 26 28 30 32 36 34 48 ]
[ 0.000029 0.000208 0.016159 0.000509 0.099160 0.130559 0.167168 0.048036 0.007015 0.113127 0.068076 0.028121 0.004882 0.000610 0.000473 0.315866 ]
5
Num Evals 2100
GenUC: 1.294957e-03
GenUB: 1.732675e-03
Optimisation 4.960646e+00
Total Time: 4.970340e+00
4 Rem 7
Graph 1:
0 0 1 1 0 0 1 
0 0 1 0 0 1 1 
1 1 1 0 0 1 1 
0 0 0 0 0 0 0 
0 0 0 1 1 1 0 
1 0 0 1 0 1 0 
0 0 0 0 0 0 1 
Graph 2:
0 0 1 1 0 0 0 
0 0 0 0 0 1 1 
0 1 1 0 0 1 0 
0 0 0 0 0 0 0 
0 0 0 0 0 1 0 
1 0 0 0 0 1 0 
0 0 0 0 0 0 1 
Solution: -7 0
Gbest: -15.000000
Expectation: -20.448431
Final Parameters:
Gammas:
[ 3.116523 3.098797 ]
Betas:
[ 1.394206 2.623511 0.868840 ]
Aggregate results:
[ 6 12 16 10 18 14 20 22 24 26 48 ]
[ 0.000419 0.014223 0.151670 0.006263 0.257418 0.060682 0.264753 0.160723 0.055513 0.010027 0.018309 ]
5
Num Evals 2800
GenUC: 1.089359e-03
GenUB: 1.736753e-03
Optimisation 5.288019e+00
Total Time: 5.298448e+00
5 Add/Rem 7
Graph 1:
0 0 1 1 0 0 1 
0 0 1 0 0 1 1 
1 1 1 0 0 1 1 
0 0 0 0 0 0 0 
0 0 0 1 1 1 0 
1 0 0 1 0 1 0 
0 0 0 0 0 0 1 
Graph 2:
0 0 1 1 1 0 1 
0 0 1 0 0 0 1 
1 0 1 1 1 1 1 
0 1 0 0 0 1 0 
0 0 0 1 1 1 1 
0 0 0 0 0 0 0 
0 0 0 0 0 0 0 
Solution: -8 524
Gbest: -20.000000
Expectation: -30.823445
Final Parameters:
Gammas:
[ 4.647998 3.146665 ]
Betas:
[ 1.528374 2.222870 2.193723 ]
Aggregate results:
[ 11 13 19 17 25 21 15 23 27 7 29 31 33 35 48 ]
[ 0.002219 0.009626 0.099652 0.059401 0.117466 0.139717 0.023385 0.159802 0.060063 0.000039 0.022387 0.005363 0.000302 0.000110 0.300469 ]
5
Num Evals 3500
GenUC: 1.076048e-03
GenUB: 1.689160e-03
Optimisation 6.001986e+00
Total Time: 6.013284e+00
