Clock Speed: 3.389621
Num threads: 4
Trotterisation: 2
Graph Size: 7
Num Qubits: 13
Space Dimension: 8192
Run-Type: 0
Num_samples: 10
1 Isomorphic
Graph 1:
0 1 0 0 1 0 1 
1 0 1 1 1 0 1 
0 0 0 1 1 1 1 
1 0 0 1 0 0 0 
0 1 1 0 1 1 1 
1 1 0 0 1 0 1 
1 0 0 0 1 0 1 
Graph 2:
0 1 0 0 1 0 1 
1 0 1 1 1 0 1 
0 0 0 1 1 1 1 
1 0 0 1 0 0 0 
0 1 1 0 1 1 1 
1 1 0 0 1 0 1 
1 0 0 0 1 0 1 
Solution: 0 0
Gbest: -22.000000
Expectation: -31.644556
Final Parameters:
Gammas:
[ 4.671791 3.160448 ]
Betas:
[ 1.579510 2.185416 2.216583 ]
Aggregate results:
[ -1 9 15 13 17 23 19 21 25 27 11 29 5 33 7 31 35 48 ]
[ 0.000054 0.000900 0.016710 0.007070 0.032191 0.160486 0.069800 0.103566 0.142259 0.092582 0.001770 0.051487 0.000177 0.004993 0.000089 0.019405 0.000945 0.295516 ]
5
Num Evals 700
GenUC: 1.382536e-03
GenUB: 2.024099e-03
Optimisation 6.170186e+00
Total Time: 6.182289e+00
2 Flipped
Graph 1:
0 1 0 0 1 0 1 
1 0 1 1 1 0 1 
0 0 0 1 1 1 1 
1 0 0 1 0 0 0 
0 1 1 0 1 1 1 
1 1 0 0 1 0 1 
1 0 0 0 1 0 1 
Graph 2:
1 0 1 0 0 1 0 
1 0 1 1 1 0 1 
1 1 1 1 0 0 0 
0 0 0 1 0 0 1 
1 1 1 0 1 1 0 
1 0 1 0 0 1 1 
1 0 1 0 0 0 1 
Solution: -12 1707
Gbest: -20.000000
Expectation: -32.216102
Final Parameters:
Gammas:
[ 4.696889 3.147026 ]
Betas:
[ 1.586708 2.210752 2.269964 ]
Aggregate results:
[ 21 25 17 19 23 27 29 31 15 33 35 13 37 11 39 48 ]
[ 0.113549 0.145521 0.027194 0.058218 0.147833 0.099653 0.057481 0.025720 0.008104 0.008657 0.001645 0.002454 0.000591 0.000223 0.000281 0.302876 ]
5
Num Evals 1400
GenUC: 1.133504e-03
GenUB: 1.767952e-03
Optimisation 6.119231e+00
Total Time: 6.130363e+00
3 Add 7
Graph 1:
0 1 0 0 1 0 1 
1 0 1 1 1 0 1 
0 0 0 1 1 1 1 
1 0 0 1 0 0 0 
0 1 1 0 1 1 1 
1 1 0 0 1 0 1 
1 0 0 0 1 0 1 
Graph 2:
0 1 0 0 1 0 1 
1 0 1 1 1 0 1 
1 0 1 1 1 1 1 
1 1 0 1 0 0 0 
0 1 1 1 1 1 1 
1 1 1 0 1 0 1 
1 1 0 0 1 0 1 
Solution: -6 0
Gbest: -18.000000
Expectation: -31.434607
Final Parameters:
Gammas:
[ 4.886271 3.143970 ]
Betas:
[ 1.744458 2.214961 2.244861 ]
Aggregate results:
[ 5 11 17 13 19 21 23 15 25 27 29 31 9 33 48 ]
[ 0.000086 0.001458 0.037077 0.003281 0.075917 0.140908 0.161749 0.012557 0.130662 0.087004 0.039307 0.009604 0.000356 0.001532 0.298501 ]
5
Num Evals 2100
GenUC: 1.197807e-03
GenUB: 1.784205e-03
Optimisation 6.268083e+00
Total Time: 6.279487e+00
4 Rem 7
Graph 1:
0 1 0 0 1 0 1 
1 0 1 1 1 0 1 
0 0 0 1 1 1 1 
1 0 0 1 0 0 0 
0 1 1 0 1 1 1 
1 1 0 0 1 0 1 
1 0 0 0 1 0 1 
Graph 2:
0 1 0 0 0 0 1 
1 0 1 0 1 0 1 
0 0 0 0 1 1 1 
1 0 0 1 0 0 0 
0 0 1 0 1 1 0 
0 0 0 0 1 0 1 
1 0 0 0 1 0 1 
Solution: -7 0
Gbest: -23.000000
Expectation: -25.767838
Final Parameters:
Gammas:
[ 5.127548 4.244480 ]
Betas:
[ 0.733784 3.121289 0.583591 ]
Aggregate results:
[ 6 12 18 14 16 22 24 20 26 30 28 8 10 32 34 36 38 48 ]
[ 0.000457 0.002521 0.059826 0.009494 0.027905 0.179763 0.211047 0.115072 0.179630 0.046565 0.103318 0.000340 0.000621 0.012723 0.003386 0.000375 0.000161 0.046796 ]
5
Num Evals 2800
GenUC: 1.266015e-03
GenUB: 1.763526e-03
Optimisation 5.014984e+00
Total Time: 5.025407e+00
5 Add/Rem 7
Graph 1:
0 1 0 0 1 0 1 
1 0 1 1 1 0 1 
0 0 0 1 1 1 1 
1 0 0 1 0 0 0 
0 1 1 0 1 1 1 
1 1 0 0 1 0 1 
1 0 0 0 1 0 1 
Graph 2:
1 1 0 0 0 0 1 
1 0 1 1 1 0 1 
1 0 0 1 1 1 1 
1 0 1 1 0 0 0 
1 0 0 1 0 1 1 
0 1 1 0 1 0 1 
1 0 0 0 1 0 0 
Solution: -12 0
Gbest: -22.000000
Expectation: -31.321304
Final Parameters:
Gammas:
[ 4.761288 3.149587 ]
Betas:
[ 1.408891 2.157613 2.199089 ]
Aggregate results:
[ 11 17 15 23 25 19 21 27 29 31 13 33 35 37 48 ]
[ 0.000805 0.035710 0.016601 0.151315 0.129467 0.089864 0.132285 0.085601 0.044291 0.012577 0.004572 0.002242 0.000525 0.000209 0.293937 ]
5
Num Evals 3500
GenUC: 1.231126e-03
GenUB: 1.752491e-03
Optimisation 6.081267e+00
Total Time: 6.092498e+00
