Clock Speed: 3.688664
Num threads: 4
Trotterisation: 1
Num Qubits: 7
Space Dimension: 128
Run-Type: 0
Num_samples: 15624
Optimiser Method: 20
1 Isomorphic
Graph 1:
0 1 0 0 1 
0 0 1 1 1 
1 0 1 1 1 
1 1 0 0 0 
1 1 1 0 1 
Graph 2:
0 1 0 0 1 
0 0 1 1 1 
1 0 1 1 1 
1 1 0 0 0 
1 1 1 0 1 
Solution: 25 0
Classic Expectation: 13.500000
Initial Expecation: 12.656250
Gbest: 25.000000
Expectation: 15.310487
Final Parameters:
Gammas:
[ 3.453703 ]
Betas:
[ 0.282573 ]
Aggregate results:
[ 25 19 15 11 13 9 17 7 0 ]
[ 0.033469 0.085573 0.299690 0.041468 0.218480 0.016159 0.283484 0.013069 0.008608 ]
5
Num Evals 1000
GenUC: 4.169834e-05
GenUB: 1.338404e-05
Optimisation 9.963762e-02
Total Time: 9.971973e-02
2 Flipped
Graph 1:
0 1 0 0 1 
0 0 1 1 1 
1 0 1 1 1 
1 1 0 0 0 
1 1 1 0 1 
Graph 2:
1 0 0 1 0 
1 1 1 0 0 
1 1 1 0 1 
0 0 0 1 1 
1 0 1 1 1 
Solution: 17 14
Classic Expectation: 12.000000
Initial Expecation: 11.250000
Gbest: 17.000000
Expectation: 13.100738
Final Parameters:
Gammas:
[ 3.508951 ]
Betas:
[ 0.168761 ]
Aggregate results:
[ 9 11 15 13 17 7 5 0 ]
[ 0.017253 0.150757 0.253456 0.431688 0.104014 0.011023 0.005589 0.026220 ]
5
Num Evals 1000
GenUC: 4.399760e-05
GenUB: 2.691231e-06
Optimisation 9.220143e-02
Total Time: 9.224993e-02
3 Add 5
Graph 1:
0 1 0 0 1 
0 0 1 1 1 
1 0 1 1 1 
1 1 0 0 0 
1 1 1 0 1 
Graph 2:
0 1 0 1 1 
0 1 1 1 1 
1 0 1 1 1 
1 1 1 0 0 
1 1 1 1 1 
Solution: 21 0
Classic Expectation: 14.200000
Initial Expecation: 13.312500
Gbest: 21.000000
Expectation: 15.814207
Final Parameters:
Gammas:
[ 3.447704 ]
Betas:
[ 0.285598 ]
Aggregate results:
[ 21 19 15 13 17 11 9 0 ]
[ 0.056654 0.072617 0.347518 0.123938 0.351503 0.038680 0.002194 0.006896 ]
5
Num Evals 1000
GenUC: 4.450692e-05
GenUB: 2.674176e-06
Optimisation 1.158147e-01
Total Time: 1.158639e-01
4 Rem 5
Graph 1:
0 1 0 0 1 
0 0 1 1 1 
1 0 1 1 1 
1 1 0 0 0 
1 1 1 0 1 
Graph 2:
0 1 0 0 0 
0 0 1 1 0 
1 0 1 0 1 
1 1 0 0 0 
0 1 1 0 1 
Solution: 21 0
Classic Expectation: 12.300000
Initial Expecation: 11.531250
Gbest: 21.000000
Expectation: 13.954745
Final Parameters:
Gammas:
[ 2.799158 ]
Betas:
[ 2.904190 ]
Aggregate results:
[ 21 17 13 15 19 11 9 7 0 ]
[ 0.029311 0.197263 0.268112 0.301708 0.016080 0.122746 0.018654 0.021578 0.024547 ]
5
Num Evals 1000
GenUC: 4.305335e-05
GenUB: 2.521032e-06
Optimisation 1.338061e-01
Total Time: 1.338533e-01
5 Add/Rem 5
Graph 1:
0 1 0 0 1 
0 0 1 1 1 
1 0 1 1 1 
1 1 0 0 0 
1 1 1 0 1 
Graph 2:
0 1 1 0 1 
1 1 1 1 1 
0 0 1 1 0 
1 1 0 0 1 
0 1 0 0 0 
Solution: 18 21
Classic Expectation: 13.200000
Initial Expecation: 12.375000
Gbest: 18.000000
Expectation: 14.123618
Final Parameters:
Gammas:
[ 0.124193 ]
Betas:
[ 0.255445 ]
Aggregate results:
[ 16 14 12 10 8 18 6 0 ]
[ 0.201411 0.374179 0.192011 0.067267 0.008465 0.145000 0.001336 0.010331 ]
5
Num Evals 1000
GenUC: 4.339020e-05
GenUB: 2.862012e-06
Optimisation 1.561252e-01
Total Time: 1.561734e-01
