Clock Speed: 3.689002
Num threads: 4
Trotterisation: 1
Num Qubits: 7
Space Dimension: 128
Run-Type: 0
Num_samples: 15624
Optimiser Method: 20
1 Isomorphic
Graph 1:
1 0 0 0 1 
1 1 1 1 0 
1 1 0 0 1 
0 1 0 0 0 
1 0 1 0 0 
Graph 2:
1 0 0 0 1 
1 1 1 1 0 
1 1 0 0 1 
0 1 0 0 0 
1 0 1 0 0 
Solution: 25 0
Classic Expectation: 12.600000
Initial Expecation: 11.812500
Gbest: 25.000000
Expectation: 14.420658
Final Parameters:
Gammas:
[ 0.159415 ]
Betas:
[ 0.246737 ]
Aggregate results:
[ 25 13 19 15 17 11 7 9 5 0 ]
[ 0.029804 0.259716 0.098099 0.263407 0.156140 0.139889 0.010166 0.023258 0.002125 0.017396 ]
5
Num Evals 1000
GenUC: 4.104292e-05
GenUB: 1.391041e-05
Optimisation 7.656887e-02
Total Time: 7.664404e-02
2 Flipped
Graph 1:
1 0 0 0 1 
1 1 1 1 0 
1 1 0 0 1 
0 1 0 0 0 
1 0 1 0 0 
Graph 2:
1 0 0 0 1 
0 1 1 1 1 
1 0 0 1 1 
0 0 0 1 0 
0 0 1 0 1 
Solution: 17 0
Classic Expectation: 12.200000
Initial Expecation: 11.437500
Gbest: 17.000000
Expectation: 12.158882
Final Parameters:
Gammas:
[ 1.018777 ]
Betas:
[ 0.345344 ]
Aggregate results:
[ 17 13 11 9 15 7 5 0 ]
[ 0.044789 0.349672 0.245794 0.076455 0.221781 0.010550 0.011868 0.039091 ]
5
Num Evals 1000
GenUC: 4.414847e-05
GenUB: 2.923654e-06
Optimisation 8.098301e-02
Total Time: 8.103223e-02
3 Add 5
Graph 1:
1 0 0 0 1 
1 1 1 1 0 
1 1 0 0 1 
0 1 0 0 0 
1 0 1 0 0 
Graph 2:
1 0 1 0 1 
1 1 1 1 0 
1 1 0 0 1 
0 1 1 0 1 
1 0 1 0 1 
Solution: 21 0
Classic Expectation: 12.400000
Initial Expecation: 11.625000
Gbest: 21.000000
Expectation: 13.775440
Final Parameters:
Gammas:
[ 6.130015 ]
Betas:
[ 2.903955 ]
Aggregate results:
[ 21 11 17 13 15 7 9 19 0 ]
[ 0.027946 0.131493 0.154411 0.263063 0.312350 0.012363 0.062036 0.019328 0.017010 ]
5
Num Evals 1000
GenUC: 4.444306e-05
GenUB: 2.729998e-06
Optimisation 1.484089e-01
Total Time: 1.484577e-01
4 Rem 5
Graph 1:
1 0 0 0 1 
1 1 1 1 0 
1 1 0 0 1 
0 1 0 0 0 
1 0 1 0 0 
Graph 2:
1 0 0 0 0 
1 1 1 0 0 
1 1 0 0 0 
0 1 0 0 0 
0 0 1 0 0 
Solution: 21 0
Classic Expectation: 12.600000
Initial Expecation: 11.812500
Gbest: 21.000000
Expectation: 13.795550
Final Parameters:
Gammas:
[ 3.528679 ]
Betas:
[ 0.264710 ]
Aggregate results:
[ 21 17 15 19 13 11 9 7 0 ]
[ 0.028958 0.083155 0.361841 0.032550 0.317251 0.110694 0.035048 0.010058 0.020445 ]
5
Num Evals 1000
GenUC: 4.357629e-05
GenUB: 2.774002e-06
Optimisation 1.263685e-01
Total Time: 1.264165e-01
5 Add/Rem 5
Graph 1:
1 0 0 0 1 
1 1 1 1 0 
1 1 0 0 1 
0 1 0 0 0 
1 0 1 0 0 
Graph 2:
0 0 0 0 1 
1 1 0 1 0 
0 1 0 1 1 
1 0 0 0 1 
1 0 1 1 1 
Solution: 18 2
Classic Expectation: 12.600000
Initial Expecation: 11.812500
Gbest: 18.000000
Expectation: 12.781651
Final Parameters:
Gammas:
[ 3.545250 ]
Betas:
[ 2.438920 ]
Aggregate results:
[ 16 10 18 14 12 8 6 0 ]
[ 0.149383 0.182576 0.090530 0.243620 0.248947 0.063775 0.004664 0.016505 ]
5
Num Evals 1000
GenUC: 4.349765e-05
GenUB: 2.555666e-06
Optimisation 1.136383e-01
Total Time: 1.136859e-01
