Clock Speed: 3.688875
Num threads: 4
Trotterisation: 1
Num Qubits: 7
Space Dimension: 128
Run-Type: 0
Num_samples: 15624
Optimiser Method: 20
1 Isomorphic
Graph 1:
0 0 1 1 1 
1 0 0 0 1 
0 0 1 0 0 
0 0 1 1 0 
1 1 0 1 1 
Graph 2:
0 0 1 1 1 
1 0 0 0 1 
0 0 1 0 0 
0 0 1 1 0 
1 1 0 1 1 
Solution: 25 0
Classic Expectation: 12.700000
Initial Expecation: 11.906250
Gbest: 25.000000
Expectation: 14.635686
Final Parameters:
Gammas:
[ 2.819295 ]
Betas:
[ 2.844147 ]
Aggregate results:
[ 25 15 21 17 13 11 19 9 7 0 ]
[ 0.031753 0.217526 0.024716 0.175284 0.331690 0.065737 0.088277 0.028028 0.016498 0.020489 ]
5
Num Evals 1000
GenUC: 4.143437e-05
GenUB: 1.438870e-05
Optimisation 1.220723e-01
Total Time: 1.221489e-01
2 Flipped
Graph 1:
0 0 1 1 1 
1 0 0 0 1 
0 0 1 0 0 
0 0 1 1 0 
1 1 0 1 1 
Graph 2:
1 1 1 0 0 
1 0 0 0 1 
0 0 1 0 0 
0 1 1 0 0 
1 1 0 1 1 
Solution: 21 38
Classic Expectation: 12.700000
Initial Expecation: 11.906250
Gbest: 21.000000
Expectation: 14.556325
Final Parameters:
Gammas:
[ 2.829315 ]
Betas:
[ 2.875193 ]
Aggregate results:
[ 19 11 15 13 9 7 17 21 0 ]
[ 0.087828 0.071639 0.307921 0.272667 0.035266 0.007741 0.183870 0.020891 0.012177 ]
5
Num Evals 1000
GenUC: 4.401762e-05
GenUB: 2.680696e-06
Optimisation 8.528408e-02
Total Time: 8.533227e-02
3 Add 5
Graph 1:
0 0 1 1 1 
1 0 0 0 1 
0 0 1 0 0 
0 0 1 1 0 
1 1 0 1 1 
Graph 2:
1 0 1 1 1 
1 1 0 0 1 
0 0 1 0 0 
0 0 1 1 1 
1 1 1 1 1 
Solution: 21 0
Classic Expectation: 12.900000
Initial Expecation: 12.093750
Gbest: 21.000000
Expectation: 13.901203
Final Parameters:
Gammas:
[ 6.153074 ]
Betas:
[ 2.899906 ]
Aggregate results:
[ 21 15 19 13 11 9 17 7 0 ]
[ 0.023076 0.273011 0.032963 0.316874 0.141000 0.044787 0.153354 0.002096 0.012838 ]
5
Num Evals 1000
GenUC: 4.426175e-05
GenUB: 2.446526e-06
Optimisation 9.079122e-02
Total Time: 9.083925e-02
4 Rem 5
Graph 1:
0 0 1 1 1 
1 0 0 0 1 
0 0 1 0 0 
0 0 1 1 0 
1 1 0 1 1 
Graph 2:
0 0 1 0 1 
1 0 0 0 1 
0 0 1 0 0 
0 0 0 0 0 
0 1 0 1 0 
Solution: 20 0
Classic Expectation: 12.600000
Initial Expecation: 11.812500
Gbest: 20.000000
Expectation: 13.778118
Final Parameters:
Gammas:
[ 3.288138 ]
Betas:
[ 0.234288 ]
Aggregate results:
[ 20 14 18 16 10 12 6 8 0 ]
[ 0.020867 0.286633 0.112265 0.215797 0.107780 0.221369 0.001353 0.016508 0.017429 ]
5
Num Evals 1000
GenUC: 1.906098e-04
GenUB: 2.524001e-06
Optimisation 7.684494e-02
Total Time: 7.703950e-02
5 Add/Rem 5
Graph 1:
0 0 1 1 1 
1 0 0 0 1 
0 0 1 0 0 
0 0 1 1 0 
1 1 0 1 1 
Graph 2:
1 1 1 0 1 
1 0 0 0 0 
0 1 1 0 1 
0 0 1 1 0 
1 1 0 0 0 
Solution: 19 45
Classic Expectation: 12.700000
Initial Expecation: 11.906250
Gbest: 19.000000
Expectation: 13.416169
Final Parameters:
Gammas:
[ 0.139163 ]
Betas:
[ 0.170251 ]
Aggregate results:
[ 17 11 15 13 9 7 19 0 ]
[ 0.090217 0.143275 0.311760 0.347811 0.047851 0.004968 0.033846 0.020272 ]
5
Num Evals 1000
GenUC: 4.307687e-05
GenUB: 2.445362e-06
Optimisation 7.456591e-02
Total Time: 7.461263e-02
