Clock Speed: 3.689250
Num threads: 4
Trotterisation: 6
Graph Size: 8
Num Qubits: 16
Space Dimension: 65536
Run-Type: 0
Num_samples: 10
1 Isomorphic
Graph 1:
0 0 0 0 0 1 0 1 
0 0 0 0 0 1 1 0 
1 0 0 0 1 0 0 0 
0 1 0 1 0 1 1 1 
0 0 1 0 0 1 1 0 
1 1 0 0 1 0 0 0 
0 1 0 0 1 1 0 1 
0 0 1 1 0 1 0 0 
Graph 2:
0 0 0 0 0 1 0 1 
0 0 0 0 0 1 1 0 
1 0 0 0 1 0 0 0 
0 1 0 1 0 1 1 1 
0 0 1 0 0 1 1 0 
1 1 0 0 1 0 0 0 
0 1 0 0 1 1 0 1 
0 0 1 1 0 1 0 0 
Solution: 0 0
Gbest: -26.000000
Expectation: -42.378906
Final Parameters:
Gammas:
[ 3.141593 3.141593 3.141593 3.141593 3.141593 3.141593 ]
Betas:
[ 3.138497 1.538573 1.570796 1.570796 1.603020 1.612482 1.603020 ]
Aggregate results:
[ -1 9 19 17 13 23 21 15 11 25 5 27 29 7 31 33 35 37 39 41 63 ]
[ 0.000015 0.000061 0.012512 0.004639 0.000381 0.056534 0.029861 0.001724 0.000198 0.086212 0.000015 0.118469 0.116135 0.000031 0.092865 0.056351 0.027939 0.009003 0.002090 0.000198 0.384766 ]
3
Num Evals 28
GenUC: 3.610538e-03
GenUB: 1.746041e-02
Optimisation 1.274281e+01
Total Time: 1.325494e+01
2 Flipped
Graph 1:
0 0 0 0 0 1 0 1 
0 0 0 0 0 1 1 0 
1 0 0 0 1 0 0 0 
0 1 0 1 0 1 1 1 
0 0 1 0 0 1 1 0 
1 1 0 0 1 0 0 0 
0 1 0 0 1 1 0 1 
0 0 1 1 0 1 0 0 
Graph 2:
1 0 1 0 0 0 0 0 
0 1 1 0 0 0 0 0 
0 0 0 1 0 0 0 1 
1 1 1 0 1 0 1 0 
0 1 1 0 0 1 0 0 
0 0 0 1 0 0 1 1 
1 0 1 1 0 0 1 0 
0 0 1 0 1 1 0 0 
Solution: -14 27449
Gbest: -24.000000
Expectation: -27.195838
Final Parameters:
Gammas:
[ 3.167486 3.143057 3.180772 3.142193 3.343513 3.352898 ]
Betas:
[ 2.730010 1.315427 1.297116 1.517708 1.442694 1.481963 1.549692 ]
Aggregate results:
[ 35 33 31 37 29 27 23 25 21 17 19 39 41 15 43 13 63 ]
[ 0.004888 0.011829 0.055877 0.003975 0.144429 0.224728 0.171762 0.237617 0.085684 0.008049 0.031140 0.001964 0.000760 0.001994 0.000333 0.000297 0.014672 ]
5
Num Evals 828
GenUC: 2.788134e-03
GenUB: 1.738000e-02
Optimisation 3.750010e+02
Total Time: 3.754837e+02
3 Add 8
Graph 1:
0 0 0 0 0 1 0 1 
0 0 0 0 0 1 1 0 
1 0 0 0 1 0 0 0 
0 1 0 1 0 1 1 1 
0 0 1 0 0 1 1 0 
1 1 0 0 1 0 0 0 
0 1 0 0 1 1 0 1 
0 0 1 1 0 1 0 0 
Graph 2:
0 0 0 1 0 1 0 1 
1 0 0 0 0 1 1 1 
1 0 0 0 1 1 0 0 
0 1 0 1 0 1 1 1 
0 0 1 1 0 1 1 0 
1 1 0 0 1 0 0 1 
0 1 0 0 1 1 0 1 
0 0 1 1 1 1 0 1 
Solution: -8 0
Gbest: -24.000000
Expectation: -43.609375
Final Parameters:
Gammas:
[ 3.141593 3.141593 3.141593 3.141593 3.141593 3.141593 ]
Betas:
[ 2.327340 1.912759 1.570796 1.570796 1.460582 1.681010 1.460582 ]
Aggregate results:
[ 7 15 25 21 23 19 27 17 29 31 13 33 35 39 37 41 43 45 11 63 ]
[ 0.000015 0.000290 0.055435 0.010986 0.025803 0.003052 0.092361 0.000931 0.123795 0.122681 0.000031 0.094254 0.053055 0.006912 0.023651 0.001663 0.000259 0.000046 0.000015 0.384766 ]
3
Num Evals 857
GenUC: 2.961526e-03
GenUB: 1.740095e-02
Optimisation 1.324080e+01
Total Time: 1.374101e+01
4 Rem 8
Graph 1:
0 0 0 0 0 1 0 1 
0 0 0 0 0 1 1 0 
1 0 0 0 1 0 0 0 
0 1 0 1 0 1 1 1 
0 0 1 0 0 1 1 0 
1 1 0 0 1 0 0 0 
0 1 0 0 1 1 0 1 
0 0 1 1 0 1 0 0 
Graph 2:
0 0 0 0 0 1 0 1 
0 0 0 0 0 1 1 0 
1 0 0 0 0 0 0 0 
0 1 0 1 0 1 1 0 
0 0 1 0 0 1 1 0 
0 0 0 0 1 0 0 0 
0 1 0 0 0 0 0 1 
0 0 1 1 0 0 0 0 
Solution: -7 0
Gbest: -23.000000
Expectation: -28.979582
Final Parameters:
Gammas:
[ 3.157949 3.109359 3.117632 3.129337 3.129308 3.149645 ]
Betas:
[ 1.568365 1.648402 1.573151 1.459516 1.565788 1.725016 0.909895 ]
Aggregate results:
[ 6 16 22 20 24 18 14 26 10 30 28 12 32 34 36 38 63 ]
[ 0.000007 0.002961 0.086445 0.038767 0.161406 0.012122 0.000815 0.220205 0.000011 0.142566 0.206090 0.000120 0.064460 0.020912 0.003951 0.000233 0.038928 ]
5
Num Evals 1657
GenUC: 3.036896e-03
GenUB: 1.700301e-02
Optimisation 3.524690e+02
Total Time: 3.529286e+02
5 Add/Rem 8
Graph 1:
0 0 0 0 0 1 0 1 
0 0 0 0 0 1 1 0 
1 0 0 0 1 0 0 0 
0 1 0 1 0 1 1 1 
0 0 1 0 0 1 1 0 
1 1 0 0 1 0 0 0 
0 1 0 0 1 1 0 1 
0 0 1 1 0 1 0 0 
Graph 2:
0 0 0 0 0 0 0 1 
0 0 0 0 0 1 1 0 
0 0 0 1 1 1 0 0 
0 1 0 0 0 1 1 1 
0 0 1 1 0 1 1 0 
0 0 0 0 1 0 0 0 
0 1 1 1 1 0 0 0 
0 1 1 1 0 1 0 0 
Solution: -13 0
Gbest: -23.000000
Expectation: -28.026722
Final Parameters:
Gammas:
[ 3.175827 3.175640 3.157002 3.175152 3.186767 2.974458 ]
Betas:
[ 1.484550 1.572875 0.516112 1.520207 1.750539 1.459487 1.509765 ]
Aggregate results:
[ 12 20 24 22 18 26 16 28 30 32 34 36 14 38 40 42 63 ]
[ 0.000008 0.050859 0.182840 0.115641 0.014255 0.219294 0.002155 0.192227 0.120907 0.054162 0.017981 0.004145 0.000225 0.000579 0.000055 0.000010 0.024657 ]
5
Num Evals 2457
GenUC: 3.045250e-03
GenUB: 1.683276e-02
Optimisation 3.448068e+02
Total Time: 3.452392e+02
