Clock Speed: 3.689388
Num threads: 4
Trotterisation: 4
Num Qubits: 3
Space Dimension: 8
Run-Type: 0
Num_samples: 2024
Optimiser Method: 28
1 Isomorphic
Graph 1:
1 0 1 
0 1 0 
0 1 1 
Graph 2:
1 0 1 
0 1 0 
0 1 1 
Solution: 9 0
Classic Expectation: 6.333333
Initial Expecation: 4.750000
Gbest: 9.000000
Expectation: 4.750000
Final Parameters:
Gammas:
[ 3.141593 3.141593 3.141593 3.141593 ]
Betas:
[ 2.356194 1.570796 1.570796 1.570796 ]
Aggregate results:
[ 9 5 7 0 ]
[ 0.125000 0.375000 0.250000 0.250000 ]
3
Num Evals 9
GenUC: 2.787481e-06
GenUB: 7.713992e-06
Optimisation 1.028269e-02
Total Time: 1.031370e-02
2 Flipped
Graph 1:
1 0 1 
0 1 0 
0 1 1 
Graph 2:
1 0 1 
0 1 0 
1 1 0 
Solution: 7 0
Classic Expectation: 5.000000
Initial Expecation: 3.750000
Gbest: 7.000000
Expectation: 3.750000
Final Parameters:
Gammas:
[ 3.141593 3.141593 3.141593 3.141593 ]
Betas:
[ 2.356194 1.570796 2.356194 1.570796 ]
Aggregate results:
[ 7 3 5 0 ]
[ 0.125000 0.125000 0.500000 0.250000 ]
3
Num Evals 9
GenUC: 2.467656e-06
GenUB: 9.043179e-07
Optimisation 2.848680e-03
Total Time: 2.853595e-03
3 Add 3
Graph 1:
1 0 1 
0 1 0 
0 1 1 
Graph 2:
1 1 1 
0 1 0 
1 1 1 
Solution: 7 0
Classic Expectation: 5.666667
Initial Expecation: 4.250000
Gbest: 7.000000
Expectation: 6.766298
Final Parameters:
Gammas:
[ 3.130574 2.888409 3.785447 4.174942 ]
Betas:
[ 1.971828 2.024462 1.928719 1.856309 ]
Aggregate results:
[ 7 5 0 ]
[ 0.885524 0.113525 0.000950 ]
3
Num Evals 648
GenUC: 2.879031e-06
GenUB: 6.971641e-07
Optimisation 1.839815e-01
Total Time: 1.839871e-01
4 Rem 3
Graph 1:
1 0 1 
0 1 0 
0 1 1 
Graph 2:
0 0 0 
0 0 0 
0 1 1 
Solution: 6 0
Classic Expectation: 4.666667
Initial Expecation: 3.500000
Gbest: 6.000000
Expectation: 6.000000
Final Parameters:
Gammas:
[ 3.926993 5.497814 5.796131 3.141632 ]
Betas:
[ 1.570816 2.356220 1.119464 2.022109 ]
Aggregate results:
[ 6 4 0 ]
[ 1.000000 0.000000 0.000000 ]
3
Num Evals 474
GenUC: 4.551519e-06
GenUB: 1.293978e-06
Optimisation 1.244300e-01
Total Time: 1.244380e-01
5 Add/Rem 3
Graph 1:
1 0 1 
0 1 0 
0 1 1 
Graph 2:
0 0 1 
0 0 1 
1 0 1 
Solution: 6 2
Classic Expectation: 4.000000
Initial Expecation: 3.000000
Gbest: 6.000000
Expectation: 3.000000
Final Parameters:
Gammas:
[ 3.141593 4.712389 4.712389 3.141593 ]
Betas:
[ 2.356194 1.570796 1.570796 1.570796 ]
Aggregate results:
[ 4 6 2 0 ]
[ 0.500000 0.125000 0.125000 0.250000 ]
3
Num Evals 9
GenUC: 2.571524e-06
GenUB: 7.200506e-07
Optimisation 2.473555e-03
Total Time: 2.478286e-03
