Clock Speed: 3.498892
Num threads: 16
Trotterisation: 6
Num Qubits: 7
Space Dimension: 128
Run-Type: 0
Num_samples: 25
Optimiser Method: 33
1 Isomorphic
Graph 1:
0 1 0 0 0 
1 0 1 0 0 
1 0 1 0 1 
1 0 1 1 1 
1 1 0 0 1 
Graph 2:
0 1 0 0 0 
1 0 1 0 0 
1 0 1 0 1 
1 0 1 1 1 
1 1 0 0 1 
Solution: 25 0
Classic Expectation: 12.600000
Initial Expecation: 11.812500
Gbest: 19.000000
Expectation: 11.812500
Final Parameters:
Gammas:
[ 3.141593 3.141593 3.141593 3.141593 3.141593 3.141593 ]
Betas:
[ 1.570796 1.570796 1.570796 1.570796 1.570796 1.570796 ]
Aggregate results:
[ 25 17 21 19 13 15 11 9 7 3 5 0 ]
[ 0.007812 0.078125 0.007812 0.039062 0.210937 0.171875 0.218750 0.148437 0.031250 0.007812 0.015625 0.062500 ]
4
Num Evals 3
GenUC: 4.678685e-05
GenUB: 2.118899e-05
Optimisation 1.940876e-03
Total Time: 2.018897e-03
2 Flipped
Graph 1:
0 1 0 0 0 
1 0 1 0 0 
1 0 1 0 1 
1 0 1 1 1 
1 1 0 0 1 
Graph 2:
0 0 0 1 0 
0 0 1 0 1 
1 0 1 0 1 
1 1 1 0 1 
1 0 0 1 1 
Solution: 21 14
Classic Expectation: 12.400000
Initial Expecation: 11.625000
Gbest: 15.000000
Expectation: 11.625000
Final Parameters:
Gammas:
[ 3.141593 3.141593 3.141593 3.141593 3.141593 3.141593 ]
Betas:
[ 1.570796 1.570796 1.570796 1.570796 1.570796 1.570796 ]
Aggregate results:
[ 17 15 13 11 19 21 9 7 0 ]
[ 0.062500 0.132812 0.320312 0.242187 0.007812 0.007812 0.140625 0.023437 0.062500 ]
4
Num Evals 3
GenUC: 5.159155e-05
GenUB: 8.328352e-06
Optimisation 1.763714e-03
Total Time: 1.825644e-03
3 Add 5
Graph 1:
0 1 0 0 0 
1 0 1 0 0 
1 0 1 0 1 
1 0 1 1 1 
1 1 0 0 1 
Graph 2:
0 1 0 1 0 
1 0 1 1 1 
1 0 1 0 1 
1 1 1 1 1 
1 1 0 0 1 
Solution: 21 0
Classic Expectation: 12.600000
Initial Expecation: 11.812500
Gbest: 17.000000
Expectation: 11.812500
Final Parameters:
Gammas:
[ 3.141593 3.141593 3.141593 3.141593 3.141593 3.141593 ]
Betas:
[ 1.570796 1.570796 1.570796 1.570796 1.570796 1.570796 ]
Aggregate results:
[ 21 15 19 17 13 11 9 7 0 ]
[ 0.007812 0.156250 0.007812 0.093750 0.281250 0.234375 0.117188 0.039062 0.062500 ]
4
Num Evals 3
GenUC: 5.236128e-05
GenUB: 6.521121e-06
Optimisation 1.738120e-03
Total Time: 1.798590e-03
4 Rem 5
Graph 1:
0 1 0 0 0 
1 0 1 0 0 
1 0 1 0 1 
1 0 1 1 1 
1 1 0 0 1 
Graph 2:
0 1 0 0 0 
1 0 0 0 0 
1 0 1 0 0 
0 0 1 1 1 
1 1 0 0 1 
Solution: 22 0
Classic Expectation: 12.600000
Initial Expecation: 11.812500
Gbest: 20.000000
Expectation: 11.812500
Final Parameters:
Gammas:
[ 3.141593 3.141593 3.141593 3.141593 3.141593 3.141593 ]
Betas:
[ 1.570796 1.570796 1.570796 1.570796 1.570796 1.570796 ]
Aggregate results:
[ 22 16 20 18 14 12 10 8 6 0 ]
[ 0.007812 0.125000 0.031250 0.023437 0.210937 0.257812 0.156250 0.117187 0.007812 0.062500 ]
4
Num Evals 3
GenUC: 5.181367e-05
GenUB: 7.209368e-06
Optimisation 1.745833e-03
Total Time: 1.807651e-03
5 Add/Rem 5
Graph 1:
0 1 0 0 0 
1 0 1 0 0 
1 0 1 0 1 
1 0 1 1 1 
1 1 0 0 1 
Graph 2:
1 1 1 0 0 
0 0 0 0 0 
1 1 1 0 1 
1 1 0 1 1 
0 1 0 0 1 
Solution: 21 35
Classic Expectation: 12.800000
Initial Expecation: 12.000000
Gbest: 19.000000
Expectation: 12.000000
Final Parameters:
Gammas:
[ 3.141593 3.141593 3.141593 3.141593 3.141593 3.141593 ]
Betas:
[ 1.570796 1.570796 1.570796 1.570796 1.570796 1.570796 ]
Aggregate results:
[ 17 13 15 11 9 19 21 7 5 0 ]
[ 0.148437 0.195312 0.132812 0.218750 0.140625 0.039062 0.007812 0.046875 0.007813 0.062500 ]
4
Num Evals 3
GenUC: 5.191658e-05
GenUB: 7.695053e-06
Optimisation 1.745727e-03
Total Time: 1.806878e-03
