Clock Speed: 3.688214
Num threads: 4
Trotterisation: 3
Graph Size: 7
Num Qubits: 13
Space Dimension: 8192
Run-Type: 0
Num_samples: 10
1 Isomorphic
Graph 1:
1 1 1 0 1 0 0 
0 1 0 1 1 0 1 
0 0 1 0 1 0 0 
0 0 0 1 0 1 1 
0 1 1 0 0 0 1 
0 0 1 0 0 1 0 
0 1 0 0 0 1 1 
Graph 2:
1 1 1 0 1 0 0 
0 1 0 1 1 0 1 
0 0 1 0 1 0 0 
0 0 0 1 0 1 1 
0 1 1 0 0 0 1 
0 0 1 0 0 1 0 
0 1 0 0 0 1 1 
Solution: 0 0
Gbest: -16.000000
Expectation: -23.766849
Final Parameters:
Gammas:
[ 3.094358 2.650196 3.143751 ]
Betas:
[ 1.570096 2.077579 1.118523 1.062293 ]
Aggregate results:
[ -1 11 13 7 15 17 21 19 23 9 27 25 5 29 48 ]
[ 0.000141 0.006377 0.027409 0.000621 0.066082 0.133398 0.204818 0.210380 0.160281 0.003864 0.013061 0.068512 0.000282 0.002025 0.102750 ]
3
Num Evals 282
GenUC: 1.442060e-03
GenUB: 1.887032e-03
Optimisation 2.713634e+00
Total Time: 2.726329e+00
2 Flipped
Graph 1:
1 1 1 0 1 0 0 
0 1 0 1 1 0 1 
0 0 1 0 1 0 0 
0 0 0 1 0 1 1 
0 1 1 0 0 0 1 
0 0 1 0 0 1 0 
0 1 0 0 0 1 1 
Graph 2:
0 0 1 0 1 1 1 
1 0 1 1 0 1 0 
0 0 1 0 1 0 0 
1 1 0 1 0 0 0 
1 0 0 0 1 1 0 
0 1 0 0 1 0 0 
1 1 0 0 0 1 0 
Solution: -12 1876
Gbest: -16.000000
Expectation: -22.471835
Final Parameters:
Gammas:
[ 3.219602 2.953540 3.079596 ]
Betas:
[ 1.431405 0.515021 1.760931 1.505159 ]
Aggregate results:
[ 25 21 23 27 31 19 29 17 15 33 35 13 11 48 ]
[ 0.075040 0.272286 0.171625 0.016701 0.004384 0.231131 0.005532 0.130183 0.042131 0.001613 0.000390 0.011132 0.002213 0.035639 ]
3
Num Evals 719
GenUC: 1.132168e-03
GenUB: 1.573242e-03
Optimisation 4.081236e+00
Total Time: 4.092749e+00
3 Add 7
Graph 1:
1 1 1 0 1 0 0 
0 1 0 1 1 0 1 
0 0 1 0 1 0 0 
0 0 0 1 0 1 1 
0 1 1 0 0 0 1 
0 0 1 0 0 1 0 
0 1 0 0 0 1 1 
Graph 2:
1 1 1 0 1 1 1 
0 1 0 1 1 1 1 
1 0 1 0 1 0 0 
0 0 0 1 0 1 1 
0 1 1 0 0 0 1 
0 0 1 0 0 1 1 
1 1 1 0 0 1 1 
Solution: -7 0
Gbest: -17.000000
Expectation: -22.039301
Final Parameters:
Gammas:
[ 3.100263 3.056130 3.165704 ]
Betas:
[ 1.736371 0.558157 2.108186 1.148430 ]
Aggregate results:
[ 6 14 12 18 22 24 20 16 26 28 30 32 34 10 48 ]
[ 0.001034 0.022912 0.009209 0.185242 0.233130 0.146138 0.230722 0.082073 0.056751 0.014183 0.001573 0.000207 0.000007 0.000799 0.016021 ]
3
Num Evals 1255
GenUC: 1.174754e-03
GenUB: 1.720994e-03
Optimisation 4.844827e+00
Total Time: 4.859213e+00
4 Rem 7
Graph 1:
1 1 1 0 1 0 0 
0 1 0 1 1 0 1 
0 0 1 0 1 0 0 
0 0 0 1 0 1 1 
0 1 1 0 0 0 1 
0 0 1 0 0 1 0 
0 1 0 0 0 1 1 
Graph 2:
1 1 0 0 0 0 0 
0 1 0 1 1 0 1 
0 0 1 0 1 0 0 
0 0 0 1 0 1 0 
0 1 1 0 0 0 1 
0 0 1 0 0 1 0 
0 1 0 0 0 0 0 
Solution: -5 0
Gbest: -13.000000
Expectation: -19.164813
Final Parameters:
Gammas:
[ 3.099461 2.868592 3.450563 ]
Betas:
[ 2.496411 0.541496 1.729362 1.550743 ]
Aggregate results:
[ 4 14 16 12 10 20 18 22 24 26 28 8 48 ]
[ 0.000530 0.162791 0.241963 0.052585 0.011813 0.143723 0.276424 0.041094 0.016839 0.010016 0.002229 0.003442 0.036549 ]
3
Num Evals 1813
GenUC: 1.141765e-03
GenUB: 1.675518e-03
Optimisation 5.301501e+00
Total Time: 5.314212e+00
5 Add/Rem 7
Graph 1:
1 1 1 0 1 0 0 
0 1 0 1 1 0 1 
0 0 1 0 1 0 0 
0 0 0 1 0 1 1 
0 1 1 0 0 0 1 
0 0 1 0 0 1 0 
0 1 0 0 0 1 1 
Graph 2:
1 1 0 0 1 0 0 
1 1 1 1 1 0 1 
0 1 0 0 1 1 0 
0 0 0 1 0 0 1 
0 0 1 0 0 1 0 
0 0 1 1 0 1 0 
0 1 0 1 0 1 1 
Solution: -10 3940
Gbest: -16.000000
Expectation: -23.801270
Final Parameters:
Gammas:
[ 3.079435 3.838640 1.499355 ]
Betas:
[ 1.601093 1.097872 0.030209 1.605274 ]
Aggregate results:
[ 11 15 21 19 17 25 23 27 29 13 33 31 9 48 ]
[ 0.002068 0.037267 0.225277 0.170219 0.094765 0.127634 0.202030 0.053688 0.016157 0.013384 0.000245 0.002019 0.000223 0.055026 ]
3
Num Evals 2240
GenUC: 1.166211e-03
GenUB: 1.694254e-03
Optimisation 3.344220e+00
Total Time: 3.354363e+00
