Clock Speed: 3.390054
Num threads: 4
Trotterisation: 3
Graph Size: 7
Num Qubits: 13
Space Dimension: 8192
Run-Type: 0
Num_samples: 10
1 Isomorphic
Graph 1:
0 1 0 1 1 1 1 
0 0 1 1 1 1 1 
1 1 1 1 1 0 1 
0 0 0 0 0 0 0 
0 0 1 1 1 0 0 
1 1 0 1 0 0 0 
0 1 1 1 1 1 0 
Graph 2:
0 1 0 1 1 1 1 
0 0 1 1 1 1 1 
1 1 1 1 1 0 1 
0 0 0 0 0 0 0 
0 0 1 1 1 0 0 
1 1 0 1 0 0 0 
0 1 1 1 1 1 0 
Solution: 0 0
Gbest: -20.000000
Expectation: -24.126849
Final Parameters:
Gammas:
[ 3.115985 3.077266 3.316071 ]
Betas:
[ 0.031208 2.142491 2.224277 1.586642 ]
Aggregate results:
[ -1 5 11 13 21 19 15 23 31 25 9 29 17 7 27 33 1 48 ]
[ 0.000151 0.000131 0.008082 0.029360 0.180878 0.096591 0.046774 0.164454 0.014923 0.174160 0.005115 0.048714 0.085433 0.000787 0.100405 0.000725 0.000198 0.043120 ]
5
Num Evals 644
GenUC: 1.366928e-03
GenUB: 2.062796e-03
Optimisation 6.348512e+00
Total Time: 6.361041e+00
2 Flipped
Graph 1:
0 1 0 1 1 1 1 
0 0 1 1 1 1 1 
1 1 1 1 1 0 1 
0 0 0 0 0 0 0 
0 0 1 1 1 0 0 
1 1 0 1 0 0 0 
0 1 1 1 1 1 0 
Graph 2:
1 1 1 1 0 1 0 
1 1 1 1 1 0 0 
1 0 1 1 1 1 1 
0 0 0 0 0 0 0 
0 0 1 1 1 0 0 
0 0 0 1 0 1 1 
0 1 1 1 1 1 0 
Solution: -10 2606
Gbest: -22.000000
Expectation: -33.086228
Final Parameters:
Gammas:
[ 2.435146 1.578177 1.643628 ]
Betas:
[ 0.018298 0.000000 2.101835 1.599585 ]
Aggregate results:
[ 13 15 17 25 21 23 27 29 19 31 11 33 35 9 48 ]
[ 0.007667 0.016762 0.034815 0.154333 0.072802 0.116896 0.102119 0.062546 0.050420 0.030051 0.002788 0.009335 0.001382 0.000210 0.337873 ]
3
Num Evals 809
GenUC: 1.095433e-03
GenUB: 1.593495e-03
Optimisation 1.156624e+00
Total Time: 1.165330e+00
3 Add 7
Graph 1:
0 1 0 1 1 1 1 
0 0 1 1 1 1 1 
1 1 1 1 1 0 1 
0 0 0 0 0 0 0 
0 0 1 1 1 0 0 
1 1 0 1 0 0 0 
0 1 1 1 1 1 0 
Graph 2:
0 1 0 1 1 1 1 
0 0 1 1 1 1 1 
1 1 1 1 1 0 1 
0 1 0 1 0 1 0 
1 0 1 1 1 1 0 
1 1 0 1 1 0 0 
0 1 1 1 1 1 0 
Solution: -6 0
Gbest: -20.000000
Expectation: -24.988952
Final Parameters:
Gammas:
[ 3.192414 2.720726 3.137214 ]
Betas:
[ 1.669536 1.106809 1.974065 2.035248 ]
Aggregate results:
[ 5 11 17 15 21 25 13 23 27 19 9 29 31 7 48 ]
[ 0.000489 0.002495 0.080654 0.042508 0.200058 0.143853 0.008836 0.198723 0.074563 0.141808 0.000420 0.014720 0.001782 0.000063 0.089029 ]
3
Num Evals 1108
GenUC: 1.103837e-03
GenUB: 1.622268e-03
Optimisation 3.192902e+00
Total Time: 3.206030e+00
4 Rem 7
Graph 1:
0 1 0 1 1 1 1 
0 0 1 1 1 1 1 
1 1 1 1 1 0 1 
0 0 0 0 0 0 0 
0 0 1 1 1 0 0 
1 1 0 1 0 0 0 
0 1 1 1 1 1 0 
Graph 2:
0 0 0 1 1 0 1 
0 0 1 1 1 1 1 
0 1 1 1 1 0 1 
0 0 0 0 0 0 0 
0 0 1 1 1 0 0 
0 1 0 1 0 0 0 
0 0 1 0 1 0 0 
Solution: -7 0
Gbest: -17.000000
Expectation: -23.294577
Final Parameters:
Gammas:
[ 3.089922 3.184830 3.199258 ]
Betas:
[ 0.803331 0.351375 0.000004 2.993687 ]
Aggregate results:
[ 6 8 18 14 12 20 22 24 26 16 34 28 30 32 10 36 48 ]
[ 0.000917 0.002433 0.158473 0.049068 0.014515 0.192024 0.188743 0.147302 0.070886 0.081779 0.000299 0.022866 0.004415 0.000804 0.001961 0.000041 0.063473 ]
3
Num Evals 1509
GenUC: 1.160318e-03
GenUB: 1.590611e-03
Optimisation 3.153452e+00
Total Time: 3.162954e+00
5 Add/Rem 7
Graph 1:
0 1 0 1 1 1 1 
0 0 1 1 1 1 1 
1 1 1 1 1 0 1 
0 0 0 0 0 0 0 
0 0 1 1 1 0 0 
1 1 0 1 0 0 0 
0 1 1 1 1 1 0 
Graph 2:
0 1 1 1 1 1 1 
0 0 1 1 1 0 1 
1 1 1 1 0 1 1 
0 1 1 0 0 0 0 
1 0 1 1 0 1 0 
0 1 0 0 0 1 0 
0 1 1 1 0 1 0 
Solution: -11 208
Gbest: -13.000000
Expectation: -21.611495
Final Parameters:
Gammas:
[ 3.105972 3.056126 3.166410 ]
Betas:
[ 1.642702 0.427467 2.513460 0.755377 ]
Aggregate results:
[ 12 16 20 18 22 26 24 28 14 30 10 32 34 48 ]
[ 0.014175 0.119633 0.203290 0.185297 0.189329 0.061092 0.125624 0.022626 0.053680 0.005347 0.003431 0.000778 0.000050 0.015650 ]
3
Num Evals 1851
GenUC: 1.193665e-03
GenUB: 1.943381e-03
Optimisation 3.224089e+00
Total Time: 3.236248e+00
