Clock Speed: 3.689416
Num threads: 4
Trotterisation: 2
Num Qubits: 5
Space Dimension: 32
Run-Type: 0
Num_samples: 6399
Optimiser Method: 29
1 Isomorphic
Graph 1:
1 0 1 1 
0 0 0 1 
1 0 1 1 
1 0 1 1 
Graph 2:
1 0 1 1 
0 0 0 1 
1 0 1 1 
1 0 1 1 
Solution: 16 0
Classic Expectation: 8.666667
Initial Expecation: 6.500000
Gbest: 16.000000
Expectation: 6.500000
Final Parameters:
Gammas:
[ 3.141593 3.141593 ]
Betas:
[ 0.687223 2.184389 ]
Aggregate results:
[ 16 14 8 6 4 0 ]
[ 0.062500 0.125000 0.250000 0.250000 0.062500 0.250000 ]
3
Num Evals 40
GenUC: 8.674047e-06
GenUB: 8.086616e-06
Optimisation 6.616249e-03
Total Time: 6.653074e-03
2 Flipped
Graph 1:
1 0 1 1 
0 0 0 1 
1 0 1 1 
1 0 1 1 
Graph 2:
1 1 0 1 
1 0 0 0 
1 1 0 1 
1 1 0 1 
Solution: 12 2
Classic Expectation: 8.333333
Initial Expecation: 6.250000
Gbest: 12.000000
Expectation: 8.873754
Final Parameters:
Gammas:
[ 3.141593 3.337942 ]
Betas:
[ 2.134723 0.442943 ]
Aggregate results:
[ 8 12 6 4 10 0 ]
[ 0.287511 0.402971 0.094658 0.027536 0.105993 0.081332 ]
3
Num Evals 84
GenUC: 9.074283e-06
GenUB: 1.606764e-06
Optimisation 1.276677e-02
Total Time: 1.277895e-02
3 Add 4
Graph 1:
1 0 1 1 
0 0 0 1 
1 0 1 1 
1 0 1 1 
Graph 2:
1 0 1 1 
0 1 0 1 
1 1 1 1 
1 1 1 1 
Solution: 13 0
Classic Expectation: 9.500000
Initial Expecation: 7.125000
Gbest: 13.000000
Expectation: 7.125000
Final Parameters:
Gammas:
[ 0.000000 0.000000 ]
Betas:
[ 1.963495 1.963495 ]
Aggregate results:
[ 13 11 9 7 0 ]
[ 0.062500 0.250000 0.250000 0.187500 0.250000 ]
3
Num Evals 26
GenUC: 9.178737e-06
GenUB: 1.247623e-06
Optimisation 4.947119e-03
Total Time: 4.958952e-03
4 Rem 4
Graph 1:
1 0 1 1 
0 0 0 1 
1 0 1 1 
1 0 1 1 
Graph 2:
0 0 0 1 
0 0 0 1 
1 0 0 1 
1 0 1 1 
Solution: 13 0
Classic Expectation: 7.500000
Initial Expecation: 5.625000
Gbest: 13.000000
Expectation: 5.625000
Final Parameters:
Gammas:
[ 3.141593 3.141593 ]
Betas:
[ 3.141593 2.601631 ]
Aggregate results:
[ 13 11 9 7 3 1 0 ]
[ 0.062500 0.125000 0.187500 0.187500 0.125000 0.062500 0.250000 ]
3
Num Evals 30
GenUC: 8.410570e-06
GenUB: 1.295761e-06
Optimisation 5.868965e-03
Total Time: 5.879977e-03
5 Add/Rem 4
Graph 1:
1 0 1 1 
0 0 0 1 
1 0 1 1 
1 0 1 1 
Graph 2:
1 0 1 1 
1 0 1 0 
1 1 0 0 
1 0 0 1 
Solution: 11 1
Classic Expectation: 8.166667
Initial Expecation: 6.125000
Gbest: 11.000000
Expectation: 8.067578
Final Parameters:
Gammas:
[ 3.291246 3.511187 ]
Betas:
[ 0.467020 1.775790 ]
Aggregate results:
[ 9 11 7 5 3 0 ]
[ 0.501426 0.242319 0.001512 0.122685 0.088409 0.043649 ]
3
Num Evals 471
GenUC: 8.613628e-06
GenUB: 1.099164e-06
Optimisation 6.492079e-02
Total Time: 6.493179e-02
