Clock Speed: 3.689247
Num threads: 4
Trotterisation: 2
Num Qubits: 5
Space Dimension: 32
Run-Type: 0
Num_samples: 6399
Optimiser Method: 29
1 Isomorphic
Graph 1:
0 0 0 0 
0 0 1 1 
1 1 0 0 
0 0 0 0 
Graph 2:
0 0 0 0 
0 0 1 1 
1 1 0 0 
0 0 0 0 
Solution: 16 0
Classic Expectation: 10.666667
Initial Expecation: 8.000000
Gbest: 16.000000
Expectation: 8.000000
Final Parameters:
Gammas:
[ 3.141593 3.141593 ]
Betas:
[ 0.785398 2.159845 ]
Aggregate results:
[ 16 12 10 8 0 ]
[ 0.062500 0.187500 0.375000 0.125000 0.250000 ]
3
Num Evals 26
GenUC: 8.528528e-06
GenUB: 8.837786e-06
Optimisation 4.462691e-03
Total Time: 4.507490e-03
2 Flipped
Graph 1:
0 0 0 0 
0 0 1 1 
1 1 0 0 
0 0 0 0 
Graph 2:
0 0 0 0 
1 1 0 0 
0 0 1 1 
0 0 0 0 
Solution: 12 2
Classic Expectation: 9.333333
Initial Expecation: 7.000000
Gbest: 12.000000
Expectation: 9.177150
Final Parameters:
Gammas:
[ 2.526874 3.926991 ]
Betas:
[ 3.141593 0.605881 ]
Aggregate results:
[ 8 12 10 0 ]
[ 0.411382 0.112362 0.453776 0.022481 ]
3
Num Evals 258
GenUC: 9.056123e-06
GenUB: 1.648441e-06
Optimisation 4.304692e-02
Total Time: 4.305963e-02
3 Add 4
Graph 1:
0 0 0 0 
0 0 1 1 
1 1 0 0 
0 0 0 0 
Graph 2:
0 0 0 1 
0 0 1 1 
1 1 1 0 
0 1 1 0 
Solution: 12 0
Classic Expectation: 8.666667
Initial Expecation: 6.500000
Gbest: 12.000000
Expectation: 6.500000
Final Parameters:
Gammas:
[ 3.141593 3.141593 ]
Betas:
[ 0.687223 1.914408 ]
Aggregate results:
[ 12 10 8 6 0 ]
[ 0.062500 0.250000 0.312500 0.125000 0.250000 ]
3
Num Evals 32
GenUC: 9.435171e-06
GenUB: 1.305132e-06
Optimisation 5.225981e-03
Total Time: 5.238448e-03
4 Rem 4
Graph 1:
0 0 0 0 
0 0 1 1 
1 1 0 0 
0 0 0 0 
Graph 2:
0 0 0 0 
0 0 0 1 
0 0 0 0 
0 0 0 0 
Solution: 13 0
Classic Expectation: 11.666667
Initial Expecation: 8.750000
Gbest: 13.000000
Expectation: 11.845849
Final Parameters:
Gammas:
[ 3.333749 2.986884 ]
Betas:
[ 0.872917 1.210504 ]
Aggregate results:
[ 13 11 0 ]
[ 0.443252 0.553052 0.003696 ]
3
Num Evals 1094
GenUC: 8.509145e-06
GenUB: 1.361477e-06
Optimisation 1.558260e-01
Total Time: 1.558374e-01
5 Add/Rem 4
Graph 1:
0 0 0 0 
0 0 1 1 
1 1 0 0 
0 0 0 0 
Graph 2:
1 0 0 0 
0 0 0 0 
0 0 0 0 
1 1 0 0 
Solution: 13 1
Classic Expectation: 10.333333
Initial Expecation: 7.750000
Gbest: 13.000000
Expectation: 10.382710
Final Parameters:
Gammas:
[ 4.687568 6.245888 ]
Betas:
[ 1.123316 1.225519 ]
Aggregate results:
[ 9 13 11 0 ]
[ 0.464617 0.160102 0.374530 0.000751 ]
5
Num Evals 1600
GenUC: 8.507399e-06
GenUB: 1.190114e-06
Optimisation 2.360075e-01
Total Time: 2.360190e-01
