Clock Speed: 3.689018
Num threads: 4
Trotterisation: 2
Num Qubits: 5
Space Dimension: 32
Run-Type: 0
Num_samples: 6399
Optimiser Method: 29
1 Isomorphic
Graph 1:
1 1 0 0 
1 1 0 1 
1 1 1 1 
1 1 1 0 
Graph 2:
1 1 0 0 
1 1 0 1 
1 1 1 1 
1 1 1 0 
Solution: 16 0
Classic Expectation: 10.000000
Initial Expecation: 7.500000
Gbest: 16.000000
Expectation: 10.501554
Final Parameters:
Gammas:
[ 3.403369 2.536173 ]
Betas:
[ 2.163606 1.909511 ]
Aggregate results:
[ 16 12 10 14 8 0 ]
[ 0.154153 0.068092 0.282315 0.098573 0.376854 0.020013 ]
3
Num Evals 528
GenUC: 8.733885e-06
GenUB: 9.619456e-06
Optimisation 1.010926e-01
Total Time: 1.011316e-01
2 Flipped
Graph 1:
1 1 0 0 
1 1 0 1 
1 1 1 1 
1 1 1 0 
Graph 2:
0 0 1 1 
1 0 1 1 
1 1 1 1 
0 1 1 1 
Solution: 12 3
Classic Expectation: 10.000000
Initial Expecation: 7.500000
Gbest: 12.000000
Expectation: 10.373652
Final Parameters:
Gammas:
[ 2.797311 3.283815 ]
Betas:
[ 2.356361 2.023489 ]
Aggregate results:
[ 8 10 12 0 ]
[ 0.061356 0.593300 0.329150 0.016194 ]
5
Num Evals 1600
GenUC: 9.002106e-06
GenUB: 1.701235e-06
Optimisation 3.241270e-01
Total Time: 3.241395e-01
3 Add 4
Graph 1:
1 1 0 0 
1 1 0 1 
1 1 1 1 
1 1 1 0 
Graph 2:
1 1 0 1 
1 1 1 1 
1 1 1 1 
1 1 1 0 
Solution: 14 0
Classic Expectation: 11.000000
Initial Expecation: 8.250000
Gbest: 14.000000
Expectation: 11.243493
Final Parameters:
Gammas:
[ 6.060013 3.620203 ]
Betas:
[ 0.851114 1.199727 ]
Aggregate results:
[ 14 12 10 0 ]
[ 0.121178 0.407744 0.465407 0.005671 ]
3
Num Evals 468
GenUC: 9.442854e-06
GenUB: 3.238150e-06
Optimisation 6.742426e-02
Total Time: 6.743889e-02
4 Rem 4
Graph 1:
1 1 0 0 
1 1 0 1 
1 1 1 1 
1 1 1 0 
Graph 2:
1 1 0 0 
0 1 0 1 
1 0 0 1 
1 0 1 0 
Solution: 12 0
Classic Expectation: 8.000000
Initial Expecation: 6.000000
Gbest: 12.000000
Expectation: 8.903663
Final Parameters:
Gammas:
[ 2.863221 5.552628 ]
Betas:
[ 2.634376 2.816271 ]
Aggregate results:
[ 12 10 6 8 4 0 ]
[ 0.206519 0.217788 0.039181 0.495781 0.011552 0.029177 ]
3
Num Evals 895
GenUC: 8.650590e-06
GenUB: 1.516368e-06
Optimisation 2.009266e-01
Total Time: 2.009385e-01
5 Add/Rem 4
Graph 1:
1 1 0 0 
1 1 0 1 
1 1 1 1 
1 1 1 0 
Graph 2:
1 0 1 1 
1 1 1 0 
1 1 1 1 
1 1 0 0 
Solution: 12 2
Classic Expectation: 10.000000
Initial Expecation: 7.500000
Gbest: 12.000000
Expectation: 7.500000
Final Parameters:
Gammas:
[ 3.141593 3.141593 ]
Betas:
[ 1.963495 1.963495 ]
Aggregate results:
[ 10 12 8 0 ]
[ 0.375000 0.187500 0.187500 0.250000 ]
3
Num Evals 25
GenUC: 8.817238e-06
GenUB: 1.312175e-06
Optimisation 4.350254e-03
Total Time: 4.362225e-03
