Clock Speed: 3.688838
Num threads: 4
Trotterisation: 2
Num Qubits: 5
Space Dimension: 32
Run-Type: 0
Num_samples: 6399
Optimiser Method: 29
1 Isomorphic
Graph 1:
0 1 0 0 
0 0 1 1 
1 1 1 1 
0 1 1 0 
Graph 2:
0 1 0 0 
0 0 1 1 
1 1 1 1 
0 1 1 0 
Solution: 16 0
Classic Expectation: 9.166667
Initial Expecation: 6.875000
Gbest: 16.000000
Expectation: 11.130790
Final Parameters:
Gammas:
[ 2.955101 3.492042 ]
Betas:
[ 2.565927 0.283976 ]
Aggregate results:
[ 16 12 10 14 8 6 0 ]
[ 0.181468 0.199870 0.274113 0.093803 0.192341 0.039297 0.019110 ]
3
Num Evals 615
GenUC: 8.530216e-06
GenUB: 8.196919e-06
Optimisation 1.797972e-01
Total Time: 1.798319e-01
2 Flipped
Graph 1:
0 1 0 0 
0 0 1 1 
1 1 1 1 
0 1 1 0 
Graph 2:
0 0 1 0 
1 1 0 0 
1 1 1 1 
0 1 1 0 
Solution: 12 2
Classic Expectation: 8.333333
Initial Expecation: 6.250000
Gbest: 12.000000
Expectation: 6.250000
Final Parameters:
Gammas:
[ 3.141593 3.141593 ]
Betas:
[ 0.785398 1.963495 ]
Aggregate results:
[ 10 6 12 8 0 ]
[ 0.218750 0.281250 0.093750 0.156250 0.250000 ]
3
Num Evals 31
GenUC: 9.808980e-06
GenUB: 1.906068e-06
Optimisation 4.936865e-03
Total Time: 4.950618e-03
3 Add 4
Graph 1:
0 1 0 0 
0 0 1 1 
1 1 1 1 
0 1 1 0 
Graph 2:
1 1 1 1 
0 0 1 1 
1 1 1 1 
1 1 1 0 
Solution: 12 0
Classic Expectation: 9.666667
Initial Expecation: 7.250000
Gbest: 12.000000
Expectation: 9.719389
Final Parameters:
Gammas:
[ 2.839892 3.349373 ]
Betas:
[ 1.654334 2.345641 ]
Aggregate results:
[ 12 10 8 0 ]
[ 0.197603 0.494809 0.300008 0.007580 ]
3
Num Evals 659
GenUC: 9.867072e-06
GenUB: 1.420733e-06
Optimisation 1.418609e-01
Total Time: 1.418738e-01
4 Rem 4
Graph 1:
0 1 0 0 
0 0 1 1 
1 1 1 1 
0 1 1 0 
Graph 2:
0 0 0 0 
0 0 0 1 
0 1 1 1 
0 1 0 0 
Solution: 12 0
Classic Expectation: 7.833333
Initial Expecation: 5.875000
Gbest: 12.000000
Expectation: 5.875000
Final Parameters:
Gammas:
[ 3.141593 3.141593 ]
Betas:
[ 0.785398 1.963495 ]
Aggregate results:
[ 12 10 8 6 4 0 ]
[ 0.062500 0.187500 0.187500 0.250000 0.062500 0.250000 ]
3
Num Evals 35
GenUC: 9.394134e-06
GenUB: 1.709443e-06
Optimisation 5.490732e-03
Total Time: 5.504008e-03
5 Add/Rem 4
Graph 1:
0 1 0 0 
0 0 1 1 
1 1 1 1 
0 1 1 0 
Graph 2:
0 0 0 1 
1 1 0 0 
1 1 1 0 
1 1 1 0 
Solution: 12 6
Classic Expectation: 8.333333
Initial Expecation: 6.250000
Gbest: 12.000000
Expectation: 8.774890
Final Parameters:
Gammas:
[ 2.903144 2.669399 ]
Betas:
[ 0.984065 1.776972 ]
Aggregate results:
[ 8 6 10 12 0 ]
[ 0.532844 0.054084 0.338762 0.066668 0.007642 ]
3
Num Evals 641
GenUC: 9.031966e-06
GenUB: 1.159555e-06
Optimisation 1.175261e-01
Total Time: 1.175377e-01
