Clock Speed: 3.688631
Num threads: 4
Trotterisation: 2
Num Qubits: 5
Space Dimension: 32
Run-Type: 0
Num_samples: 6399
Optimiser Method: 29
1 Isomorphic
Graph 1:
1 1 1 0 
0 0 0 1 
0 1 1 0 
1 1 0 1 
Graph 2:
1 1 1 0 
0 0 0 1 
0 1 1 0 
1 1 0 1 
Solution: 16 0
Classic Expectation: 8.500000
Initial Expecation: 6.375000
Gbest: 16.000000
Expectation: 8.685722
Final Parameters:
Gammas:
[ 3.869595 0.708342 ]
Betas:
[ 2.605469 2.137107 ]
Aggregate results:
[ 16 10 8 6 12 0 ]
[ 0.042671 0.319191 0.275722 0.119225 0.157497 0.085695 ]
3
Num Evals 321
GenUC: 8.567818e-06
GenUB: 8.843665e-06
Optimisation 6.648392e-02
Total Time: 6.651697e-02
2 Flipped
Graph 1:
1 1 1 0 
0 0 0 1 
0 1 1 0 
1 1 0 1 
Graph 2:
0 1 1 1 
1 0 0 0 
0 1 1 0 
1 0 1 1 
Solution: 12 12
Classic Expectation: 8.000000
Initial Expecation: 6.000000
Gbest: 12.000000
Expectation: 6.000000
Final Parameters:
Gammas:
[ 3.141593 3.141593 ]
Betas:
[ 1.570796 1.963495 ]
Aggregate results:
[ 10 8 6 12 2 0 ]
[ 0.156250 0.312500 0.187500 0.062500 0.031250 0.250000 ]
3
Num Evals 32
GenUC: 9.057228e-06
GenUB: 1.660781e-06
Optimisation 5.672184e-03
Total Time: 5.684560e-03
3 Add 4
Graph 1:
1 1 1 0 
0 0 0 1 
0 1 1 0 
1 1 0 1 
Graph 2:
1 1 1 0 
0 0 0 1 
1 1 1 1 
1 1 1 1 
Solution: 13 0
Classic Expectation: 8.500000
Initial Expecation: 6.375000
Gbest: 13.000000
Expectation: 9.064389
Final Parameters:
Gammas:
[ 3.339881 1.568595 ]
Betas:
[ 2.236358 0.000000 ]
Aggregate results:
[ 13 9 5 7 11 0 ]
[ 0.111765 0.498067 0.032286 0.195313 0.145474 0.017095 ]
3
Num Evals 519
GenUC: 9.252108e-06
GenUB: 1.173699e-06
Optimisation 6.621284e-02
Total Time: 6.622461e-02
4 Rem 4
Graph 1:
1 1 1 0 
0 0 0 1 
0 1 1 0 
1 1 0 1 
Graph 2:
0 1 0 0 
0 0 0 1 
0 1 0 0 
1 1 0 0 
Solution: 12 0
Classic Expectation: 7.000000
Initial Expecation: 5.250000
Gbest: 12.000000
Expectation: 5.518188
Final Parameters:
Gammas:
[ 3.141593 3.534292 ]
Betas:
[ 1.059136 2.201418 ]
Aggregate results:
[ 12 8 6 4 10 0 ]
[ 0.121250 0.300262 0.196623 0.054864 0.026190 0.300811 ]
3
Num Evals 86
GenUC: 8.478644e-06
GenUB: 1.297507e-06
Optimisation 1.435906e-02
Total Time: 1.437024e-02
5 Add/Rem 4
Graph 1:
1 1 1 0 
0 0 0 1 
0 1 1 0 
1 1 0 1 
Graph 2:
1 0 0 1 
0 0 0 1 
1 0 0 1 
1 1 1 1 
Solution: 10 4
Classic Expectation: 8.000000
Initial Expecation: 6.000000
Gbest: 10.000000
Expectation: 8.856354
Final Parameters:
Gammas:
[ 4.831413 4.627007 ]
Betas:
[ 1.629645 2.332843 ]
Aggregate results:
[ 8 6 10 0 ]
[ 0.276968 0.143359 0.578046 0.001628 ]
3
Num Evals 1308
GenUC: 8.493313e-06
GenUB: 1.093897e-06
Optimisation 2.398373e-01
Total Time: 2.398482e-01
