Clock Speed: 3.688767
Num threads: 4
Trotterisation: 2
Num Qubits: 5
Space Dimension: 32
Run-Type: 0
Num_samples: 6399
Optimiser Method: 29
1 Isomorphic
Graph 1:
1 0 1 0 
0 1 1 1 
1 1 0 0 
0 0 0 0 
Graph 2:
1 0 1 0 
0 1 1 1 
1 1 0 0 
0 0 0 0 
Solution: 16 0
Classic Expectation: 8.166667
Initial Expecation: 6.125000
Gbest: 16.000000
Expectation: 9.557893
Final Parameters:
Gammas:
[ 3.356023 3.525075 ]
Betas:
[ 2.093780 1.367427 ]
Aggregate results:
[ 16 10 8 6 14 4 0 ]
[ 0.143907 0.138042 0.449393 0.132400 0.102753 0.011718 0.021787 ]
3
Num Evals 421
GenUC: 8.266768e-06
GenUB: 9.093666e-06
Optimisation 7.258969e-02
Total Time: 7.262485e-02
2 Flipped
Graph 1:
1 0 1 0 
0 1 1 1 
1 1 0 0 
0 0 0 0 
Graph 2:
0 1 0 1 
1 1 1 0 
0 0 1 1 
0 0 0 0 
Solution: 12 2
Classic Expectation: 8.166667
Initial Expecation: 6.125000
Gbest: 12.000000
Expectation: 6.125000
Final Parameters:
Gammas:
[ 3.141593 3.141593 ]
Betas:
[ 0.785398 1.963495 ]
Aggregate results:
[ 6 8 12 4 10 0 ]
[ 0.281250 0.156250 0.125000 0.031250 0.156250 0.250000 ]
3
Num Evals 33
GenUC: 9.172305e-06
GenUB: 1.711829e-06
Optimisation 5.089726e-03
Total Time: 5.102228e-03
3 Add 4
Graph 1:
1 0 1 0 
0 1 1 1 
1 1 0 0 
0 0 0 0 
Graph 2:
1 0 1 1 
1 1 1 1 
1 1 0 1 
0 0 0 0 
Solution: 13 0
Classic Expectation: 7.666667
Initial Expecation: 5.750000
Gbest: 13.000000
Expectation: 8.370354
Final Parameters:
Gammas:
[ 6.032206 3.963341 ]
Betas:
[ 2.781633 0.230524 ]
Aggregate results:
[ 13 9 7 5 0 ]
[ 0.203560 0.362703 0.319858 0.044148 0.069730 ]
3
Num Evals 491
GenUC: 9.350071e-06
GenUB: 1.257053e-06
Optimisation 7.686870e-02
Total Time: 7.688074e-02
4 Rem 4
Graph 1:
1 0 1 0 
0 1 1 1 
1 1 0 0 
0 0 0 0 
Graph 2:
0 0 1 0 
0 0 1 1 
0 1 0 0 
0 0 0 0 
Solution: 13 0
Classic Expectation: 8.333333
Initial Expecation: 6.250000
Gbest: 13.000000
Expectation: 6.250000
Final Parameters:
Gammas:
[ 3.141593 3.141593 ]
Betas:
[ 3.141593 2.159845 ]
Aggregate results:
[ 13 9 7 11 5 0 ]
[ 0.031250 0.281250 0.281250 0.093750 0.062500 0.250000 ]
3
Num Evals 30
GenUC: 8.675852e-06
GenUB: 1.473585e-06
Optimisation 5.511247e-03
Total Time: 5.522916e-03
5 Add/Rem 4
Graph 1:
1 0 1 0 
0 1 1 1 
1 1 0 0 
0 0 0 0 
Graph 2:
1 0 1 0 
0 0 0 1 
1 1 1 0 
0 0 1 1 
Solution: 11 0
Classic Expectation: 8.166667
Initial Expecation: 6.125000
Gbest: 11.000000
Expectation: 6.125000
Final Parameters:
Gammas:
[ 3.141593 3.141593 ]
Betas:
[ 3.092505 2.208932 ]
Aggregate results:
[ 11 5 7 9 3 0 ]
[ 0.156250 0.062500 0.250000 0.250000 0.031250 0.250000 ]
3
Num Evals 34
GenUC: 8.425792e-06
GenUB: 1.135515e-06
Optimisation 6.428740e-03
Total Time: 6.439572e-03
