Clock Speed: 3.498761
Num threads: 16
Trotterisation: 1
Num Qubits: 5
Space Dimension: 32
Run-Type: 0
Num_samples: 16
Optimiser Method: 12
1 Isomorphic
Graph 1:
1 0 1 0 
1 0 0 0 
1 1 0 0 
1 1 1 1 
Graph 2:
1 0 1 0 
1 0 0 0 
1 1 0 0 
1 1 1 1 
Solution: 16 0
Classic Expectation: 8.166667
Initial Expecation: 6.125000
Gbest: 16.000000
Expectation: 8.930339
Final Parameters:
Gammas:
[ 2.857776 ]
Betas:
[ 2.578608 ]
Aggregate results:
[ 16 10 12 8 6 0 ]
[ 0.162186 0.081547 0.120442 0.247001 0.349762 0.039061 ]
3
Num Evals 80
GenUC: 2.667960e-05
GenUB: 3.595604e-05
Optimisation 4.000773e-03
Total Time: 4.082376e-03
2 Flipped
Graph 1:
1 0 1 0 
1 0 0 0 
1 1 0 0 
1 1 1 1 
Graph 2:
0 1 0 1 
0 0 0 1 
0 0 1 1 
1 1 1 1 
Solution: 12 20
Classic Expectation: 8.166667
Initial Expecation: 6.125000
Gbest: 12.000000
Expectation: 8.324771
Final Parameters:
Gammas:
[ 3.316224 ]
Betas:
[ 0.629583 ]
Aggregate results:
[ 6 8 4 10 12 0 ]
[ 0.140044 0.410122 0.034550 0.322632 0.069918 0.022735 ]
3
Num Evals 99
GenUC: 9.500422e-06
GenUB: 1.447741e-06
Optimisation 2.579260e-03
Total Time: 2.595508e-03
3 Add 4
Graph 1:
1 0 1 0 
1 0 0 0 
1 1 0 0 
1 1 1 1 
Graph 2:
1 1 1 0 
1 0 0 1 
1 1 0 1 
1 1 1 1 
Solution: 13 0
Classic Expectation: 8.666667
Initial Expecation: 6.500000
Gbest: 11.000000
Expectation: 8.059336
Final Parameters:
Gammas:
[ 2.960078 ]
Betas:
[ 0.869149 ]
Aggregate results:
[ 13 9 11 7 5 0 ]
[ 0.017412 0.407125 0.099159 0.391044 0.068161 0.017099 ]
3
Num Evals 64
GenUC: 9.209383e-06
GenUB: 1.270324e-06
Optimisation 1.810060e-03
Total Time: 1.822937e-03
4 Rem 4
Graph 1:
1 0 1 0 
1 0 0 0 
1 1 0 0 
1 1 1 1 
Graph 2:
1 0 1 0 
0 0 0 0 
1 0 0 0 
1 1 0 1 
Solution: 13 0
Classic Expectation: 7.666667
Initial Expecation: 5.750000
Gbest: 11.000000
Expectation: 7.189550
Final Parameters:
Gammas:
[ 3.366456 ]
Betas:
[ 2.288440 ]
Aggregate results:
[ 13 9 11 7 5 0 ]
[ 0.019444 0.193837 0.076944 0.434797 0.260457 0.014521 ]
3
Num Evals 83
GenUC: 9.204727e-06
GenUB: 1.148321e-06
Optimisation 3.669996e-03
Total Time: 3.681503e-03
5 Add/Rem 4
Graph 1:
1 0 1 0 
1 0 0 0 
1 1 0 0 
1 1 1 1 
Graph 2:
1 1 0 0 
1 1 1 0 
0 1 0 1 
1 1 1 0 
Solution: 11 2
Classic Expectation: 8.333333
Initial Expecation: 6.250000
Gbest: 11.000000
Expectation: 7.747555
Final Parameters:
Gammas:
[ 3.385754 ]
Betas:
[ 2.299758 ]
Aggregate results:
[ 9 11 7 5 0 ]
[ 0.334792 0.143693 0.294919 0.217875 0.008721 ]
3
Num Evals 87
GenUC: 9.606127e-06
GenUB: 1.290813e-06
Optimisation 3.861591e-03
Total Time: 3.873606e-03
