Clock Speed: 3.689201
Num threads: 4
Trotterisation: 5
Graph Size: 7
Num Qubits: 13
Space Dimension: 8192
Run-Type: 0
Num_samples: 10
1 Isomorphic
Graph 1:
0 1 0 1 1 1 0 
1 0 0 0 0 1 0 
1 0 0 0 1 1 1 
1 0 1 0 1 0 1 
1 0 1 1 0 1 1 
1 1 1 1 0 1 1 
0 1 0 0 1 0 0 
Graph 2:
0 1 0 1 1 1 0 
1 0 0 0 0 1 0 
1 0 0 0 1 1 1 
1 0 1 0 1 0 1 
1 0 1 1 0 1 1 
1 1 1 1 0 1 1 
0 1 0 0 1 0 0 
Solution: 0 0
Gbest: -16.000000
Expectation: -25.749225
Final Parameters:
Gammas:
[ 6.230595 5.379298 3.116220 0.189323 0.009543 ]
Betas:
[ 0.095731 1.200388 2.232167 2.099290 2.019139 1.623380 ]
Aggregate results:
[ -1 11 15 9 17 13 5 19 21 23 7 25 27 29 31 33 48 ]
[ 0.000011 0.003357 0.041676 0.001488 0.112181 0.011564 0.000272 0.173531 0.206581 0.170219 0.000843 0.090437 0.024295 0.013965 0.002206 0.000362 0.147012 ]
5
Num Evals 700
GenUC: 1.463403e-03
GenUB: 2.060905e-03
Optimisation 1.022006e+01
Total Time: 1.023790e+01
2 Flipped
Graph 1:
0 1 0 1 1 1 0 
1 0 0 0 0 1 0 
1 0 0 0 1 1 1 
1 0 1 0 1 0 1 
1 0 1 1 0 1 1 
1 1 1 1 0 1 1 
0 1 0 0 1 0 0 
Graph 2:
0 1 1 1 0 1 0 
0 1 0 0 0 0 1 
1 1 1 0 0 0 1 
1 0 1 0 1 0 1 
1 1 0 1 1 0 1 
1 1 0 1 1 1 1 
0 0 1 0 0 1 0 
Solution: -12 243
Gbest: -22.000000
Expectation: -30.120344
Final Parameters:
Gammas:
[ 4.975185 4.653466 3.098523 1.576664 3.308555 ]
Betas:
[ 0.062898 0.772671 1.535182 1.580553 2.305021 1.659006 ]
Aggregate results:
[ 19 23 17 21 25 27 29 15 13 11 31 33 48 ]
[ 0.071593 0.186967 0.028758 0.131045 0.171025 0.109079 0.050763 0.006012 0.001456 0.000072 0.013375 0.002099 0.227757 ]
5
Num Evals 1400
GenUC: 1.234491e-03
GenUB: 1.951096e-03
Optimisation 9.503430e+00
Total Time: 9.519849e+00
3 Add 7
Graph 1:
0 1 0 1 1 1 0 
1 0 0 0 0 1 0 
1 0 0 0 1 1 1 
1 0 1 0 1 0 1 
1 0 1 1 0 1 1 
1 1 1 1 0 1 1 
0 1 0 0 1 0 0 
Graph 2:
0 1 0 1 1 1 1 
1 1 0 1 0 1 0 
1 0 0 1 1 1 1 
1 0 1 1 1 0 1 
1 0 1 1 1 1 1 
1 1 1 1 0 1 1 
0 1 0 0 1 0 0 
Solution: -6 0
Gbest: -22.000000
Expectation: -25.122061
Final Parameters:
Gammas:
[ 4.713204 6.281768 4.719531 3.142194 3.084998 ]
Betas:
[ 0.534659 2.157020 0.985397 1.630420 2.444732 1.427150 ]
Aggregate results:
[ 5 15 19 17 11 9 21 13 23 25 27 29 31 33 48 ]
[ 0.000052 0.011198 0.134514 0.053168 0.000662 0.000114 0.223957 0.000768 0.240159 0.156126 0.069524 0.031148 0.010526 0.001915 0.066168 ]
5
Num Evals 2100
GenUC: 1.179625e-03
GenUB: 1.784728e-03
Optimisation 1.032359e+01
Total Time: 1.034104e+01
4 Rem 7
Graph 1:
0 1 0 1 1 1 0 
1 0 0 0 0 1 0 
1 0 0 0 1 1 1 
1 0 1 0 1 0 1 
1 0 1 1 0 1 1 
1 1 1 1 0 1 1 
0 1 0 0 1 0 0 
Graph 2:
0 1 0 1 1 1 0 
1 0 0 0 0 0 0 
0 0 0 0 1 1 1 
0 0 0 0 1 0 1 
1 0 1 1 0 1 1 
1 1 1 1 0 1 0 
0 0 0 0 0 0 0 
Solution: -7 0
Gbest: -13.000000
Expectation: -23.057631
Final Parameters:
Gammas:
[ 3.116052 3.130787 3.162197 3.339383 0.100166 ]
Betas:
[ 0.002313 0.214150 1.867592 1.883809 1.893617 1.616718 ]
Aggregate results:
[ 6 12 18 14 16 10 20 22 24 26 28 30 32 36 34 48 ]
[ 0.000266 0.009640 0.149382 0.031183 0.078844 0.001564 0.201982 0.196521 0.140491 0.095041 0.039554 0.019213 0.005492 0.000294 0.000289 0.030246 ]
5
Num Evals 2800
GenUC: 1.197486e-03
GenUB: 1.797648e-03
Optimisation 8.942990e+00
Total Time: 8.958762e+00
5 Add/Rem 7
Graph 1:
0 1 0 1 1 1 0 
1 0 0 0 0 1 0 
1 0 0 0 1 1 1 
1 0 1 0 1 0 1 
1 0 1 1 0 1 1 
1 1 1 1 0 1 1 
0 1 0 0 1 0 0 
Graph 2:
0 0 0 1 1 0 1 
1 0 1 0 0 1 0 
1 0 0 0 0 0 1 
0 1 1 0 1 1 1 
1 0 1 1 0 1 1 
1 1 1 1 1 1 1 
0 0 0 0 1 0 0 
Solution: -9 6
Gbest: -17.000000
Expectation: -22.817561
Final Parameters:
Gammas:
[ 3.137727 3.120599 3.159883 3.336583 0.388021 ]
Betas:
[ 0.356191 0.146076 1.927362 1.764590 2.016905 1.527300 ]
Aggregate results:
[ 10 16 14 8 18 12 20 22 24 26 28 30 34 32 48 ]
[ 0.001336 0.102331 0.039163 0.000387 0.179677 0.007612 0.232153 0.191362 0.118702 0.053378 0.014394 0.003268 0.000009 0.000003 0.056226 ]
5
Num Evals 3500
GenUC: 1.177831e-03
GenUB: 1.735906e-03
Optimisation 9.072342e+00
Total Time: 9.088353e+00
