Clock Speed: 3.389644
Num threads: 4
Trotterisation: 5
Graph Size: 7
Num Qubits: 13
Space Dimension: 8192
Run-Type: 0
Num_samples: 10
1 Isomorphic
Graph 1:
0 1 0 1 1 0 0 
0 1 0 1 1 0 0 
1 1 0 0 0 1 0 
1 0 0 0 1 1 1 
0 1 0 1 1 0 0 
0 1 1 1 0 0 0 
0 1 1 1 0 0 0 
Graph 2:
0 1 0 1 1 0 0 
0 1 0 1 1 0 0 
1 1 0 0 0 1 0 
1 0 0 0 1 1 1 
0 1 0 1 1 0 0 
0 1 1 1 0 0 0 
0 1 1 1 0 0 0 
Solution: 0 0
Gbest: -14.000000
Expectation: -28.681178
Final Parameters:
Gammas:
[ 4.722921 4.772401 4.720003 3.098500 3.099367 ]
Betas:
[ 0.066259 1.590840 1.545273 0.932044 2.333674 2.450618 ]
Aggregate results:
[ -1 11 19 15 13 17 23 21 25 7 27 9 29 31 3 33 35 1 5 48 ]
[ 0.000148 0.004941 0.098376 0.015824 0.008496 0.052274 0.175080 0.143023 0.141869 0.000515 0.091729 0.003038 0.043735 0.019465 0.000473 0.002664 0.000185 0.000247 0.000725 0.197193 ]
5
Num Evals 700
GenUC: 1.442722e-03
GenUB: 2.074833e-03
Optimisation 1.025620e+01
Total Time: 1.027373e+01
2 Flipped
Graph 1:
0 1 0 1 1 0 0 
0 1 0 1 1 0 0 
1 1 0 0 0 1 0 
1 0 0 0 1 1 1 
0 1 0 1 1 0 0 
0 1 1 1 0 0 0 
0 1 1 1 0 0 0 
Graph 2:
0 0 1 1 0 1 0 
0 0 1 1 0 1 0 
0 1 0 0 0 1 1 
1 1 1 0 0 0 1 
0 0 1 1 0 1 0 
0 0 0 1 1 1 0 
0 0 0 1 1 1 0 
Solution: -4 4536
Gbest: -16.000000
Expectation: -27.960395
Final Parameters:
Gammas:
[ 4.693865 3.117567 4.675043 3.189454 3.231352 ]
Betas:
[ 0.140284 2.291561 0.889435 2.290841 1.400829 1.431087 ]
Aggregate results:
[ 25 27 23 19 21 29 33 31 17 15 13 11 9 5 7 3 48 ]
[ 0.142387 0.086835 0.184361 0.095096 0.180151 0.037420 0.004498 0.011110 0.047449 0.016853 0.011819 0.004574 0.002385 0.000052 0.000523 0.000362 0.174124 ]
5
Num Evals 1400
GenUC: 1.115613e-03
GenUB: 1.764074e-03
Optimisation 9.964649e+00
Total Time: 9.981450e+00
3 Add 7
Graph 1:
0 1 0 1 1 0 0 
0 1 0 1 1 0 0 
1 1 0 0 0 1 0 
1 0 0 0 1 1 1 
0 1 0 1 1 0 0 
0 1 1 1 0 0 0 
0 1 1 1 0 0 0 
Graph 2:
0 1 0 1 1 1 0 
0 1 0 1 1 0 0 
1 1 0 0 0 1 0 
1 0 0 0 1 1 1 
0 1 1 1 1 1 0 
1 1 1 1 0 0 0 
0 1 1 1 0 0 0 
Solution: -4 0
Gbest: -20.000000
Expectation: -22.524052
Final Parameters:
Gammas:
[ 3.250310 2.979977 3.107621 2.968029 4.388986 ]
Betas:
[ 0.031599 0.019602 3.135798 2.575959 1.727159 1.551388 ]
Aggregate results:
[ 3 13 21 17 15 23 19 11 27 25 29 9 31 7 35 33 5 48 ]
[ 0.000869 0.028736 0.233402 0.128461 0.051717 0.162649 0.212295 0.011147 0.020464 0.067853 0.009720 0.008740 0.006031 0.001479 0.000432 0.003615 0.001538 0.050852 ]
5
Num Evals 2100
GenUC: 1.297008e-03
GenUB: 1.744563e-03
Optimisation 9.440099e+00
Total Time: 9.456402e+00
4 Rem 7
Graph 1:
0 1 0 1 1 0 0 
0 1 0 1 1 0 0 
1 1 0 0 0 1 0 
1 0 0 0 1 1 1 
0 1 0 1 1 0 0 
0 1 1 1 0 0 0 
0 1 1 1 0 0 0 
Graph 2:
0 1 0 0 1 0 0 
0 1 0 1 1 0 0 
1 1 0 0 0 1 0 
0 0 0 0 1 1 0 
0 0 0 1 1 0 0 
0 1 1 1 0 0 0 
0 1 1 1 0 0 0 
Solution: -4 0
Gbest: -16.000000
Expectation: -27.220916
Final Parameters:
Gammas:
[ 4.296985 2.967244 2.237975 3.304020 0.391529 ]
Betas:
[ 0.032484 1.680796 1.563493 1.579379 2.584957 1.530469 ]
Aggregate results:
[ 3 11 19 17 13 15 21 23 25 27 29 31 7 33 35 5 9 48 ]
[ 0.001050 0.002500 0.112203 0.062214 0.008862 0.022587 0.173420 0.185368 0.152246 0.079732 0.033350 0.012097 0.000458 0.001873 0.000385 0.000111 0.000328 0.151217 ]
5
Num Evals 2800
GenUC: 1.223678e-03
GenUB: 1.952115e-03
Optimisation 9.961856e+00
Total Time: 9.979117e+00
5 Add/Rem 7
Graph 1:
0 1 0 1 1 0 0 
0 1 0 1 1 0 0 
1 1 0 0 0 1 0 
1 0 0 0 1 1 1 
0 1 0 1 1 0 0 
0 1 1 1 0 0 0 
0 1 1 1 0 0 0 
Graph 2:
0 0 1 1 1 0 0 
0 1 0 1 0 0 1 
1 0 0 0 1 1 0 
0 0 0 0 1 1 1 
0 1 0 1 0 0 0 
1 1 1 1 1 0 1 
0 1 0 0 1 0 0 
Solution: -12 650
Gbest: -14.000000
Expectation: -23.661611
Final Parameters:
Gammas:
[ 4.682403 4.694149 3.096829 3.138660 1.742900 ]
Betas:
[ 0.000000 3.117017 0.844160 1.927191 1.971567 1.622925 ]
Aggregate results:
[ 13 19 23 17 25 27 21 29 15 31 33 11 35 48 ]
[ 0.007142 0.157538 0.223575 0.060932 0.167950 0.078455 0.221471 0.035369 0.020233 0.009125 0.001065 0.001030 0.000193 0.015922 ]
5
Num Evals 3500
GenUC: 1.222050e-03
GenUB: 1.767394e-03
Optimisation 1.030841e+01
Total Time: 1.032533e+01
