Clock Speed: 3.689287
Num threads: 4
Trotterisation: 5
Graph Size: 4
Num Qubits: 5
Space Dimension: 32
Run-Type: 0
Num_samples: 10
1 Isomorphic
Graph 1:
0 0 1 0 
1 1 0 0 
0 0 1 1 
0 1 0 0 
Graph 2:
0 0 1 0 
1 1 0 0 
0 0 1 1 
0 1 0 0 
Solution: 0 0
Gbest: 0.000000
Expectation: -4.667767
Final Parameters:
Gammas:
[ 5.358469 4.955789 0.100479 5.432732 4.617196 ]
Betas:
[ 3.027986 1.344368 2.874044 1.953848 1.741235 2.227486 ]
Aggregate results:
[ -1 7 3 11 15 ]
[ 0.396356 0.322322 0.200514 0.001447 0.079360 ]
5
Num Evals 400
GenUC: 1.275923e-04
GenUB: 1.169270e-05
Optimisation 2.211642e-01
Total Time: 2.219451e-01
2 Flipped
Graph 1:
0 0 1 0 
1 1 0 0 
0 0 1 1 
0 1 0 0 
Graph 2:
0 1 0 0 
0 0 1 1 
1 1 0 0 
0 0 1 0 
Solution: -4 3
Gbest: -4.000000
Expectation: -7.132236
Final Parameters:
Gammas:
[ 2.113814 5.415137 5.211427 5.212331 4.197774 ]
Betas:
[ 2.030699 1.480116 1.943400 1.392029 1.677562 1.602545 ]
Aggregate results:
[ 11 7 3 15 ]
[ 0.061469 0.428397 0.432892 0.077241 ]
5
Num Evals 800
GenUC: 7.632453e-05
GenUB: 9.222131e-06
Optimisation 2.300484e-01
Total Time: 2.305621e-01
3 Add 4
Graph 1:
0 0 1 0 
1 1 0 0 
0 0 1 1 
0 1 0 0 
Graph 2:
1 0 1 0 
1 1 0 1 
1 0 1 1 
0 1 0 0 
Solution: -3 0
Gbest: -5.000000
Expectation: -6.725858
Final Parameters:
Gammas:
[ 3.942828 1.254161 0.892927 0.430374 5.489078 ]
Betas:
[ 0.900507 3.059798 3.121989 0.340009 3.126687 0.046117 ]
Aggregate results:
[ 2 8 6 4 10 15 ]
[ 0.168118 0.195144 0.299719 0.262156 0.028282 0.046580 ]
5
Num Evals 1200
GenUC: 1.151316e-05
GenUB: 8.609466e-06
Optimisation 1.906301e-01
Total Time: 1.910761e-01
4 Rem 4
Graph 1:
0 0 1 0 
1 1 0 0 
0 0 1 1 
0 1 0 0 
Graph 2:
0 0 1 0 
1 0 0 0 
0 0 0 1 
0 0 0 0 
Solution: -3 0
Gbest: -3.000000
Expectation: -6.505405
Final Parameters:
Gammas:
[ 1.494350 5.884901 4.191816 4.192557 6.086111 ]
Betas:
[ 1.795121 0.572802 0.879100 0.230510 1.742876 0.815706 ]
Aggregate results:
[ 2 6 8 15 ]
[ 0.395971 0.318537 0.211448 0.074044 ]
5
Num Evals 1600
GenUC: 1.072913e-05
GenUB: 8.426985e-06
Optimisation 1.412492e-01
Total Time: 1.416017e-01
5 Add/Rem 4
Graph 1:
0 0 1 0 
1 1 0 0 
0 0 1 1 
0 1 0 0 
Graph 2:
0 0 1 1 
0 1 0 0 
0 0 0 1 
1 0 0 1 
Solution: -4 8
Gbest: -6.000000
Expectation: -7.090264
Final Parameters:
Gammas:
[ 0.652905 5.162757 2.625744 0.510755 4.528605 ]
Betas:
[ 0.419536 1.323409 1.930979 2.936632 0.150067 0.611373 ]
Aggregate results:
[ 5 7 9 3 15 ]
[ 0.508615 0.202074 0.090006 0.138913 0.060392 ]
5
Num Evals 2000
GenUC: 1.112523e-05
GenUB: 8.283212e-06
Optimisation 1.454780e-01
Total Time: 1.458570e-01
