Clock Speed: 3.687834
Num threads: 4
Trotterisation: 5
Graph Size: 4
Num Qubits: 5
Space Dimension: 32
Run-Type: 0
Num_samples: 10
1 Isomorphic
Graph 1:
0 1 0 1 
0 0 1 1 
1 1 1 0 
1 0 0 0 
Graph 2:
0 1 0 1 
0 0 1 1 
1 1 1 0 
1 0 0 0 
Solution: 0 0
Gbest: 0.000000
Expectation: -4.845885
Final Parameters:
Gammas:
[ 2.969552 0.238257 3.006237 6.186087 3.457430 ]
Betas:
[ 2.726668 1.408057 0.168893 2.827674 2.221884 3.009502 ]
Aggregate results:
[ -1 5 7 9 3 15 ]
[ 0.174960 0.336500 0.115707 0.027499 0.324926 0.020408 ]
5
Num Evals 400
GenUC: 1.744769e-04
GenUB: 1.230009e-05
Optimisation 2.335063e-01
Total Time: 2.341679e-01
2 Flipped
Graph 1:
0 1 0 1 
0 0 1 1 
1 1 1 0 
1 0 0 0 
Graph 2:
1 0 1 0 
1 1 0 0 
0 1 1 1 
0 0 0 1 
Solution: -6 3
Gbest: -6.000000
Expectation: -8.331035
Final Parameters:
Gammas:
[ 6.049363 3.319976 3.364526 3.217741 5.032176 ]
Betas:
[ 0.881582 3.141278 1.507693 1.588642 2.773572 1.763038 ]
Aggregate results:
[ 11 7 9 5 15 ]
[ 0.039794 0.400054 0.244420 0.284284 0.031448 ]
5
Num Evals 800
GenUC: 1.088518e-05
GenUB: 8.519622e-06
Optimisation 1.724564e-01
Total Time: 1.729296e-01
3 Add 4
Graph 1:
0 1 0 1 
0 0 1 1 
1 1 1 0 
1 0 0 0 
Graph 2:
0 1 0 1 
0 0 1 1 
1 1 1 0 
1 1 1 0 
Solution: -2 0
Gbest: -2.000000
Expectation: -4.749663
Final Parameters:
Gammas:
[ 2.920934 0.000813 4.736737 1.100582 5.202396 ]
Betas:
[ 2.558492 2.148882 1.485917 3.066285 0.296686 0.048737 ]
Aggregate results:
[ 1 5 7 9 3 15 ]
[ 0.289230 0.292300 0.087033 0.010269 0.293352 0.027815 ]
5
Num Evals 1200
GenUC: 9.492040e-06
GenUB: 7.912284e-06
Optimisation 1.554631e-01
Total Time: 1.558713e-01
4 Rem 4
Graph 1:
0 1 0 1 
0 0 1 1 
1 1 1 0 
1 0 0 0 
Graph 2:
0 1 0 0 
0 0 1 1 
1 1 0 0 
0 0 0 0 
Solution: -3 0
Gbest: -3.000000
Expectation: -6.490627
Final Parameters:
Gammas:
[ 1.691934 2.076605 5.923287 4.412528 2.607308 ]
Betas:
[ 2.684407 0.445130 2.976960 0.968526 0.649552 0.200226 ]
Aggregate results:
[ 2 6 8 4 15 ]
[ 0.018173 0.314409 0.139115 0.497240 0.031063 ]
5
Num Evals 1600
GenUC: 9.219744e-06
GenUB: 7.990981e-06
Optimisation 1.641240e-01
Total Time: 1.645160e-01
5 Add/Rem 4
Graph 1:
0 1 0 1 
0 0 1 1 
1 1 1 0 
1 0 0 0 
Graph 2:
0 1 1 0 
0 0 1 0 
0 1 0 1 
1 1 0 1 
Solution: -4 10
Gbest: -4.000000
Expectation: -6.493029
Final Parameters:
Gammas:
[ 1.300272 2.247619 4.741294 6.041942 5.844330 ]
Betas:
[ 1.268695 1.438408 2.984070 1.371684 0.323353 0.754419 ]
Aggregate results:
[ 7 9 5 11 3 15 ]
[ 0.223256 0.024741 0.316786 0.010628 0.363509 0.061080 ]
5
Num Evals 2000
GenUC: 1.113280e-05
GenUB: 8.668634e-06
Optimisation 1.490877e-01
Total Time: 1.494905e-01
