Clock Speed: 3.689028
Num threads: 4
Trotterisation: 5
Graph Size: 4
Num Qubits: 5
Space Dimension: 32
Run-Type: 0
Num_samples: 10
1 Isomorphic
Graph 1:
0 0 1 1 
1 0 1 1 
1 0 1 1 
1 0 0 0 
Graph 2:
0 0 1 1 
1 0 1 1 
1 0 1 1 
1 0 0 0 
Solution: 0 0
Gbest: -2.000000
Expectation: -5.406229
Final Parameters:
Gammas:
[ 4.826883 6.140052 0.928364 5.424004 6.139412 ]
Betas:
[ 1.428074 1.845698 1.057357 2.454941 1.783029 1.331273 ]
Aggregate results:
[ -1 5 7 3 9 1 15 ]
[ 0.204070 0.101876 0.217683 0.224258 0.055830 0.110169 0.086115 ]
5
Num Evals 400
GenUC: 1.549218e-04
GenUB: 1.254247e-05
Optimisation 1.777776e-01
Total Time: 1.783786e-01
2 Flipped
Graph 1:
0 0 1 1 
1 0 1 1 
1 0 1 1 
1 0 0 0 
Graph 2:
1 1 0 0 
1 1 0 1 
1 1 0 1 
0 0 0 1 
Solution: -4 3
Gbest: -4.000000
Expectation: -6.327616
Final Parameters:
Gammas:
[ 4.973890 5.820073 2.429994 0.223941 5.828305 ]
Betas:
[ 0.322530 0.910410 1.465749 1.567689 1.158267 1.023948 ]
Aggregate results:
[ 9 7 3 5 15 ]
[ 0.138279 0.078852 0.537594 0.176077 0.069198 ]
5
Num Evals 800
GenUC: 1.207541e-05
GenUB: 8.693431e-06
Optimisation 1.356132e-01
Total Time: 1.359825e-01
3 Add 4
Graph 1:
0 0 1 1 
1 0 1 1 
1 0 1 1 
1 0 0 0 
Graph 2:
1 1 1 1 
1 0 1 1 
1 0 1 1 
1 1 1 0 
Solution: -4 0
Gbest: -4.000000
Expectation: -5.309213
Final Parameters:
Gammas:
[ 0.505052 2.239148 3.738454 1.827737 5.655218 ]
Betas:
[ 2.492764 2.329654 0.153634 2.289520 1.388999 0.131406 ]
Aggregate results:
[ 3 5 7 15 ]
[ 0.589860 0.275419 0.107285 0.027436 ]
5
Num Evals 1200
GenUC: 1.565948e-04
GenUB: 8.418807e-06
Optimisation 1.507275e-01
Total Time: 1.512677e-01
4 Rem 4
Graph 1:
0 0 1 1 
1 0 1 1 
1 0 1 1 
1 0 0 0 
Graph 2:
0 0 0 1 
0 0 0 1 
1 0 1 1 
0 0 0 0 
Solution: -4 0
Gbest: -4.000000
Expectation: -6.020393
Final Parameters:
Gammas:
[ 0.138703 3.195218 0.356442 6.249169 3.014619 ]
Betas:
[ 1.173089 1.032059 1.749682 2.848200 0.715209 2.536199 ]
Aggregate results:
[ 3 5 7 13 11 9 15 ]
[ 0.292411 0.507423 0.157650 0.001003 0.005704 0.018402 0.017406 ]
5
Num Evals 1600
GenUC: 9.215088e-06
GenUB: 8.194591e-06
Optimisation 1.682439e-01
Total Time: 1.686713e-01
5 Add/Rem 4
Graph 1:
0 0 1 1 
1 0 1 1 
1 0 1 1 
1 0 0 0 
Graph 2:
0 0 0 1 
1 1 1 1 
0 0 1 0 
0 0 1 1 
Solution: -5 11
Gbest: -5.000000
Expectation: -8.108011
Final Parameters:
Gammas:
[ 1.473251 4.272646 2.676571 2.403095 5.460980 ]
Betas:
[ 1.924745 1.527401 2.261695 2.952180 1.997182 0.370944 ]
Aggregate results:
[ 6 8 10 4 12 15 ]
[ 0.471436 0.222671 0.061271 0.147911 0.052332 0.044380 ]
5
Num Evals 2000
GenUC: 8.977484e-06
GenUB: 8.011470e-06
Optimisation 1.845951e-01
Total Time: 1.850525e-01
