Clock Speed: 3.688989
Num threads: 4
Trotterisation: 2
Graph Size: 5
Num Qubits: 7
Space Dimension: 128
Run-Type: 0
Num_samples: 10
1 Isomorphic
Graph 1:
1 1 1 0 0 
1 0 1 1 0 
0 0 1 0 0 
0 1 0 1 1 
0 0 0 1 0 
Graph 2:
1 1 1 0 0 
1 0 1 1 0 
0 0 1 0 0 
0 1 0 1 1 
0 0 0 1 0 
Solution: 0 0
Gbest: -4.000000
Expectation: -9.983636
Final Parameters:
Gammas:
[ 2.833909 3.236395 ]
Betas:
[ 2.619267 1.224667 2.138819 ]
Aggregate results:
[ -1 5 9 3 7 11 13 15 17 19 24 ]
[ 0.040005 0.093291 0.202644 0.042690 0.180212 0.331602 0.059004 0.013210 0.021317 0.003196 0.012829 ]
3
Num Evals 268
GenUC: 1.617527e-04
GenUB: 3.268175e-05
Optimisation 9.698615e-02
Total Time: 9.756981e-02
2 Flipped
Graph 1:
1 1 1 0 0 
1 0 1 1 0 
0 0 1 0 0 
0 1 0 1 1 
0 0 0 1 0 
Graph 2:
0 0 1 1 1 
0 1 1 0 1 
0 0 1 0 0 
1 1 0 1 0 
0 1 0 0 0 
Solution: -6 14
Gbest: -8.000000
Expectation: -11.226408
Final Parameters:
Gammas:
[ 3.378916 3.351775 ]
Betas:
[ 1.363267 1.518042 0.621540 ]
Aggregate results:
[ 11 7 9 15 13 5 17 24 ]
[ 0.229531 0.179581 0.299025 0.053645 0.132170 0.065428 0.010232 0.030388 ]
3
Num Evals 525
GenUC: 2.257811e-05
GenUB: 1.823490e-05
Optimisation 7.418032e-02
Total Time: 7.458686e-02
3 Add 5
Graph 1:
1 1 1 0 0 
1 0 1 1 0 
0 0 1 0 0 
0 1 0 1 1 
0 0 0 1 0 
Graph 2:
1 1 1 0 0 
1 1 1 1 1 
0 0 1 0 0 
0 1 1 1 1 
0 1 0 1 1 
Solution: -5 0
Gbest: -9.000000
Expectation: -13.000000
Final Parameters:
Gammas:
[ 3.141593 3.141593 ]
Betas:
[ 2.356194 1.570796 1.570796 ]
Aggregate results:
[ 4 8 12 10 14 16 6 18 24 ]
[ 0.015625 0.140625 0.257812 0.250000 0.179687 0.054687 0.031250 0.007812 0.062500 ]
3
Num Evals 531
GenUC: 2.110807e-05
GenUB: 1.673552e-05
Optimisation 2.016463e-03
Total Time: 2.409467e-03
4 Rem 5
Graph 1:
1 1 1 0 0 
1 0 1 1 0 
0 0 1 0 0 
0 1 0 1 1 
0 0 0 1 0 
Graph 2:
1 1 0 0 0 
0 0 1 1 0 
0 0 1 0 0 
0 0 0 1 0 
0 0 0 1 0 
Solution: -4 0
Gbest: -8.000000
Expectation: -10.988420
Final Parameters:
Gammas:
[ 3.873365 3.040465 ]
Betas:
[ 1.553097 1.536620 1.337472 ]
Aggregate results:
[ 3 7 9 5 11 13 15 24 ]
[ 0.009237 0.209088 0.340813 0.027644 0.207752 0.142740 0.039418 0.023308 ]
3
Num Evals 808
GenUC: 1.997606e-05
GenUB: 1.704009e-05
Optimisation 8.974313e-02
Total Time: 9.010048e-02
5 Add/Rem 5
Graph 1:
1 1 1 0 0 
1 0 1 1 0 
0 0 1 0 0 
0 1 0 1 1 
0 0 0 1 0 
Graph 2:
1 0 0 0 1 
1 0 1 1 1 
1 0 1 0 0 
1 1 0 1 0 
0 0 0 1 0 
Solution: -5 5
Gbest: -9.000000
Expectation: -13.000000
Final Parameters:
Gammas:
[ 3.141593 3.141593 ]
Betas:
[ 2.356194 1.570796 1.570796 ]
Aggregate results:
[ 6 10 12 14 4 8 16 18 24 ]
[ 0.023437 0.289062 0.273437 0.148437 0.007812 0.132812 0.054687 0.007812 0.062500 ]
3
Num Evals 814
GenUC: 2.208634e-05
GenUB: 1.655654e-05
Optimisation 2.005461e-03
Total Time: 2.402046e-03
