Clock Speed: 3.498807
Num threads: 16
Trotterisation: 4
Num Qubits: 13
Space Dimension: 8192
Run-Type: 0
Num_samples: 49
Optimiser Method: 20
1 Isomorphic
Graph 1:
0 0 1 0 1 0 1 
1 0 0 1 0 1 1 
0 0 1 0 0 1 1 
0 1 1 1 0 0 1 
0 1 0 1 0 0 0 
1 0 0 1 0 1 0 
0 0 0 1 0 1 1 
Graph 2:
0 0 1 0 1 0 1 
1 0 0 1 0 1 1 
0 0 1 0 0 1 1 
0 1 1 1 0 0 1 
0 1 0 1 0 0 0 
1 0 0 1 0 1 0 
0 0 0 1 0 1 1 
Solution: 49 0
Classic Expectation: 25.000000
Initial Expecation: 15.380859
Gbest: 35.000000
Expectation: 18.696244
Final Parameters:
Gammas:
[ 2.832623 2.059430 2.436303 6.163802 ]
Betas:
[ 2.621308 1.062493 3.000662 3.084039 ]
Aggregate results:
[ 49 41 35 33 37 27 29 25 23 21 19 31 43 39 17 15 13 11 0 ]
[ 0.000088 0.000234 0.005271 0.018385 0.003276 0.147608 0.085712 0.148232 0.133726 0.092149 0.048050 0.038231 0.000039 0.000513 0.018064 0.008298 0.002261 0.000140 0.249725 ]
5
Num Evals 5600
GenUC: 2.382515e-03
GenUB: 1.225888e-03
Optimisation 2.572183e+02
Total Time: 2.572219e+02
2 Flipped
Graph 1:
0 0 1 0 1 0 1 
1 0 0 1 0 1 1 
0 0 1 0 0 1 1 
0 1 1 1 0 0 1 
0 1 0 1 0 0 0 
1 0 0 1 0 1 0 
0 0 0 1 0 1 1 
Graph 2:
1 0 1 0 1 0 0 
1 1 0 1 0 0 1 
1 1 0 0 1 0 0 
1 0 0 1 1 1 0 
0 0 0 1 0 1 0 
0 1 0 1 0 0 1 
1 1 0 1 0 0 0 
Solution: 37 1929
Classic Expectation: 24.714286
Initial Expecation: 15.205078
Gbest: 33.000000
Expectation: 18.777561
Final Parameters:
Gammas:
[ 0.304894 1.983673 1.572552 2.194390 ]
Betas:
[ 1.745770 0.911964 0.067554 1.081860 ]
Aggregate results:
[ 23 29 25 31 13 19 21 27 17 33 15 9 35 11 37 0 ]
[ 0.130584 0.097078 0.161096 0.046618 0.001574 0.047703 0.088764 0.137176 0.018078 0.012925 0.006270 0.000117 0.003425 0.000392 0.001042 0.247159 ]
5
Num Evals 5600
GenUC: 5.358698e-03
GenUB: 1.528094e-03
Optimisation 1.510371e+02
Total Time: 1.510440e+02
3 Add 7
Graph 1:
0 0 1 0 1 0 1 
1 0 0 1 0 1 1 
0 0 1 0 0 1 1 
0 1 1 1 0 0 1 
0 1 0 1 0 0 0 
1 0 0 1 0 1 0 
0 0 0 1 0 1 1 
Graph 2:
0 1 1 0 1 0 1 
1 1 0 1 0 1 1 
1 0 1 0 1 1 1 
0 1 1 1 0 0 1 
0 1 1 1 0 0 0 
1 0 0 1 0 1 0 
0 1 0 1 0 1 1 
Solution: 43 0
Classic Expectation: 24.428571
Initial Expecation: 15.029297
Gbest: 37.000000
Expectation: 20.458353
Final Parameters:
Gammas:
[ 0.315926 4.014173 2.952842 2.546732 ]
Betas:
[ 2.680578 1.856164 2.433284 0.015020 ]
Aggregate results:
[ 43 35 31 29 23 25 27 21 17 33 19 37 41 39 15 13 0 ]
[ 0.000137 0.002773 0.035973 0.079166 0.168670 0.172321 0.142386 0.124553 0.021962 0.017052 0.064261 0.000994 0.000030 0.000154 0.005286 0.001278 0.163004 ]
5
Num Evals 5600
GenUC: 5.359033e-03
GenUB: 1.418584e-03
Optimisation 2.038109e+02
Total Time: 2.038177e+02
4 Rem 7
Graph 1:
0 0 1 0 1 0 1 
1 0 0 1 0 1 1 
0 0 1 0 0 1 1 
0 1 1 1 0 0 1 
0 1 0 1 0 0 0 
1 0 0 1 0 1 0 
0 0 0 1 0 1 1 
Graph 2:
0 0 0 0 1 0 0 
0 0 0 1 0 1 1 
0 0 1 0 0 1 0 
0 1 0 1 0 0 1 
0 0 0 1 0 0 0 
1 0 0 1 0 0 0 
0 0 0 1 0 1 1 
Solution: 42 0
Classic Expectation: 25.714286
Initial Expecation: 15.820313
Gbest: 36.000000
Expectation: 22.352564
Final Parameters:
Gammas:
[ 0.581583 5.457784 1.979186 2.968977 ]
Betas:
[ 3.006351 2.783796 1.207388 0.401472 ]
Aggregate results:
[ 42 36 32 30 34 28 24 26 22 20 38 14 16 18 0 ]
[ 0.000044 0.003710 0.034659 0.086459 0.014184 0.164484 0.191418 0.199288 0.108787 0.044321 0.000576 0.000467 0.002775 0.016579 0.132249 ]
5
Num Evals 5600
GenUC: 5.361989e-03
GenUB: 1.373762e-03
Optimisation 2.162198e+02
Total Time: 2.162265e+02
5 Add/Rem 7
Graph 1:
0 0 1 0 1 0 1 
1 0 0 1 0 1 1 
0 0 1 0 0 1 1 
0 1 1 1 0 0 1 
0 1 0 1 0 0 0 
1 0 0 1 0 1 0 
0 0 0 1 0 1 1 
Graph 2:
0 0 0 0 1 0 1 
1 0 0 1 1 1 0 
0 0 1 0 0 0 1 
1 1 0 1 0 0 1 
1 1 0 1 1 0 1 
0 0 0 0 1 0 0 
0 0 1 1 0 1 1 
Solution: 35 0
Classic Expectation: 25.000000
Initial Expecation: 15.380859
Gbest: 33.000000
Expectation: 19.702578
Final Parameters:
Gammas:
[ 3.333869 5.409041 0.277289 2.700382 ]
Betas:
[ 2.729909 0.175519 1.895345 2.154614 ]
Aggregate results:
[ 35 29 33 31 25 27 23 21 17 19 15 13 0 ]
[ 0.002611 0.092763 0.013550 0.041737 0.178487 0.144641 0.151627 0.101875 0.013519 0.047181 0.003547 0.000485 0.207976 ]
5
Num Evals 5600
GenUC: 5.368333e-03
GenUB: 1.325835e-03
Optimisation 2.062017e+02
Total Time: 2.062084e+02
