Clock Speed: 3.689094
Num threads: 4
Trotterisation: 1
Graph Size: 4
Num Qubits: 5
Space Dimension: 32
Run-Type: 0
Num_samples: 10
1 Isomorphic
Graph 1:
1 0 0 1 
0 0 1 0 
0 0 1 1 
1 0 1 0 
Graph 2:
1 0 0 1 
0 0 1 0 
0 0 1 1 
1 0 1 0 
Solution: 0 0
Gbest: 0.000000
Expectation: -6.365443
Final Parameters:
Gammas:
[ 0.236749 ]
Betas:
[ 1.207363 2.626180 ]
Aggregate results:
[ -1 7 1 9 5 11 15 ]
[ 0.140736 0.492709 0.127592 0.081732 0.113263 0.007949 0.036019 ]
5
Num Evals 400
GenUC: 1.396800e-04
GenUB: 1.205897e-05
Optimisation 4.362853e-02
Total Time: 4.394627e-02
2 Flipped
Graph 1:
1 0 0 1 
0 0 1 0 
0 0 1 1 
1 0 1 0 
Graph 2:
1 0 0 1 
0 1 0 0 
1 1 0 0 
0 1 0 1 
Solution: -4 3
Gbest: -4.000000
Expectation: -7.352945
Final Parameters:
Gammas:
[ 0.230681 ]
Betas:
[ 1.793832 2.707641 ]
Aggregate results:
[ 9 3 7 5 15 ]
[ 0.163992 0.234636 0.293916 0.249614 0.057842 ]
5
Num Evals 800
GenUC: 9.474519e-06
GenUB: 8.199888e-06
Optimisation 4.067890e-02
Total Time: 4.084924e-02
3 Add 4
Graph 1:
1 0 0 1 
0 0 1 0 
0 0 1 1 
1 0 1 0 
Graph 2:
1 0 1 1 
0 0 1 1 
0 1 1 1 
1 1 1 0 
Solution: -4 0
Gbest: -4.000000
Expectation: -7.466016
Final Parameters:
Gammas:
[ 3.358664 ]
Betas:
[ 1.764154 2.714437 ]
Aggregate results:
[ 3 5 7 9 11 15 ]
[ 0.131876 0.341070 0.348682 0.073521 0.077547 0.027304 ]
5
Num Evals 1200
GenUC: 8.909992e-06
GenUB: 8.135947e-06
Optimisation 5.181062e-02
Total Time: 5.198075e-02
4 Rem 4
Graph 1:
1 0 0 1 
0 0 1 0 
0 0 1 1 
1 0 1 0 
Graph 2:
0 0 0 0 
0 0 1 0 
0 0 1 0 
0 0 1 0 
Solution: -4 0
Gbest: -4.000000
Expectation: -6.992553
Final Parameters:
Gammas:
[ 3.020993 ]
Betas:
[ 0.239455 0.403706 ]
Aggregate results:
[ 3 5 9 7 15 ]
[ 0.133583 0.482760 0.163195 0.199710 0.020752 ]
5
Num Evals 1600
GenUC: 8.522649e-06
GenUB: 7.893570e-06
Optimisation 5.206704e-02
Total Time: 5.216748e-02
5 Add/Rem 4
Graph 1:
1 0 0 1 
0 0 1 0 
0 0 1 1 
1 0 1 0 
Graph 2:
0 0 1 1 
0 1 1 0 
0 0 0 0 
0 0 1 0 
Solution: -4 10
Gbest: -6.000000
Expectation: -7.563759
Final Parameters:
Gammas:
[ 3.387714 ]
Betas:
[ 0.204458 2.723292 ]
Aggregate results:
[ 5 7 3 11 9 15 ]
[ 0.397083 0.439484 0.074307 0.005726 0.005826 0.077575 ]
5
Num Evals 2000
GenUC: 1.120393e-05
GenUB: 8.757983e-06
Optimisation 4.128098e-02
Total Time: 4.142891e-02
