Clock Speed: 3.688731
Num threads: 4
Trotterisation: 4
Num Qubits: 5
Space Dimension: 32
Run-Type: 0
Num_samples: 4
Optimiser Method: 0
1 Isomorphic
Graph 1:
0 0 1 0 
0 0 1 0 
1 1 0 1 
0 0 1 0 
Graph 2:
0 0 1 0 
0 0 1 0 
1 1 0 1 
0 0 1 0 
Solution: 16 0
Classic Expectation: 10.000000
Initial Expecation: 7.500000
Gbest: 16.000000
Expectation: 13.633143
Final Parameters:
Gammas:
[ 3.821789 0.958289 3.137277 1.085977 ]
Betas:
[ 2.430530 1.516925 0.390774 1.616054 ]
Aggregate results:
[ 16 8 0 ]
[ 0.740346 0.223452 0.036203 ]
5
Num Evals 3200
GenUC: 8.461066e-06
GenUB: 9.969226e-06
Optimisation 1.058632e+00
Total Time: 1.058679e+00
2 Flipped
Graph 1:
0 0 1 0 
0 0 1 0 
1 1 0 1 
0 0 1 0 
Graph 2:
0 1 0 0 
0 1 0 0 
1 0 1 1 
0 1 0 0 
Solution: 8 0
Classic Expectation: 8.000000
Initial Expecation: 6.000000
Gbest: 8.000000
Expectation: 8.000000
Final Parameters:
Gammas:
[ 3.836851 1.046240 3.141593 3.141912 ]
Betas:
[ 2.709379 1.569998 1.570294 0.523601 ]
Aggregate results:
[ 8 0 ]
[ 1.000000 0.000000 ]
5
Num Evals 3200
GenUC: 9.477430e-06
GenUB: 1.895532e-06
Optimisation 1.074089e+00
Total Time: 1.074103e+00
3 Add 4
Graph 1:
0 0 1 0 
0 0 1 0 
1 1 0 1 
0 0 1 0 
Graph 2:
1 1 1 1 
1 0 1 0 
1 1 1 1 
1 0 1 0 
Solution: 10 0
Classic Expectation: 8.000000
Initial Expecation: 6.000000
Gbest: 10.000000
Expectation: 8.964536
Final Parameters:
Gammas:
[ 1.792733 3.257948 3.180378 3.143029 ]
Betas:
[ 1.978040 1.512619 1.440794 0.522102 ]
Aggregate results:
[ 10 6 0 ]
[ 0.771841 0.207687 0.020472 ]
5
Num Evals 3200
GenUC: 9.273819e-06
GenUB: 1.684763e-06
Optimisation 1.037083e+00
Total Time: 1.037097e+00
4 Rem 4
Graph 1:
0 0 1 0 
0 0 1 0 
1 1 0 1 
0 0 1 0 
Graph 2:
0 0 0 0 
0 0 0 0 
0 0 0 0 
0 0 0 0 
Solution: 10 0
Classic Expectation: 10.000000
Initial Expecation: 7.500000
Gbest: 10.000000
Expectation: 10.000000
Final Parameters:
Gammas:
[ 1.047198 1.745329 5.235988 1.047198 ]
Betas:
[ 0.481826 1.519136 1.570814 1.932631 ]
Aggregate results:
[ 10 0 ]
[ 1.000000 0.000000 ]
5
Num Evals 3200
GenUC: 9.281444e-06
GenUB: 1.583307e-06
Optimisation 1.016585e+00
Total Time: 1.016598e+00
5 Add/Rem 4
Graph 1:
0 0 1 0 
0 0 1 0 
1 1 0 1 
0 0 1 0 
Graph 2:
1 1 0 1 
1 0 0 0 
0 0 1 0 
1 0 0 0 
Solution: 12 8
Classic Expectation: 8.000000
Initial Expecation: 6.000000
Gbest: 12.000000
Expectation: 9.255803
Final Parameters:
Gammas:
[ 5.223059 1.060126 5.972904 5.352343 ]
Betas:
[ 0.271496 1.900470 1.047198 1.512619 ]
Aggregate results:
[ 4 8 12 0 ]
[ 0.098073 0.342807 0.510088 0.049032 ]
5
Num Evals 3200
GenUC: 9.318406e-06
GenUB: 1.531618e-06
Optimisation 1.040794e+00
Total Time: 1.040807e+00
