Clock Speed: 3.689411
Num threads: 4
Trotterisation: 4
Num Qubits: 5
Space Dimension: 32
Run-Type: 0
Num_samples: 4
Optimiser Method: 0
1 Isomorphic
Graph 1:
0 1 1 1 
1 0 0 0 
1 0 0 1 
1 0 1 0 
Graph 2:
0 1 1 1 
1 0 0 0 
1 0 0 1 
1 0 1 0 
Solution: 16 0
Classic Expectation: 10.666667
Initial Expecation: 8.000000
Gbest: 16.000000
Expectation: 12.325682
Final Parameters:
Gammas:
[ 4.535781 5.233066 3.206235 2.878716 ]
Betas:
[ 0.986865 1.538475 1.584443 1.745329 ]
Aggregate results:
[ 16 12 8 0 ]
[ 0.252125 0.605660 0.127970 0.014245 ]
5
Num Evals 3200
GenUC: 8.676434e-06
GenUB: 9.909330e-06
Optimisation 1.044994e+00
Total Time: 1.045039e+00
2 Flipped
Graph 1:
0 1 1 1 
1 0 0 0 
1 0 0 1 
1 0 1 0 
Graph 2:
1 1 1 0 
0 0 0 1 
1 0 0 1 
0 1 0 1 
Solution: 10 2
Classic Expectation: 8.000000
Initial Expecation: 6.000000
Gbest: 10.000000
Expectation: 9.491490
Final Parameters:
Gammas:
[ 3.801418 5.215877 0.931321 6.205136 ]
Betas:
[ 1.603357 0.504446 0.206614 1.732161 ]
Aggregate results:
[ 8 10 6 0 ]
[ 0.084787 0.848551 0.054615 0.012048 ]
5
Num Evals 3200
GenUC: 9.318406e-06
GenUB: 1.909561e-06
Optimisation 1.034487e+00
Total Time: 1.034501e+00
3 Add 4
Graph 1:
0 1 1 1 
1 0 0 0 
1 0 0 1 
1 0 1 0 
Graph 2:
1 1 1 1 
1 1 1 1 
1 1 0 1 
1 1 1 0 
Solution: 10 0
Classic Expectation: 10.000000
Initial Expecation: 7.500000
Gbest: 10.000000
Expectation: 10.000000
Final Parameters:
Gammas:
[ 1.047198 1.745329 5.235988 1.047198 ]
Betas:
[ 0.481826 1.519136 1.570814 1.932631 ]
Aggregate results:
[ 10 0 ]
[ 1.000000 0.000000 ]
5
Num Evals 3200
GenUC: 9.738025e-06
GenUB: 1.742330e-06
Optimisation 1.007433e+00
Total Time: 1.007447e+00
4 Rem 4
Graph 1:
0 1 1 1 
1 0 0 0 
1 0 0 1 
1 0 1 0 
Graph 2:
0 0 0 0 
0 0 0 0 
0 0 0 1 
0 0 1 0 
Solution: 10 0
Classic Expectation: 8.666667
Initial Expecation: 6.500000
Gbest: 10.000000
Expectation: 9.738781
Final Parameters:
Gammas:
[ 1.758258 2.404676 2.660370 2.430533 ]
Betas:
[ 0.491278 1.772622 1.512619 1.396263 ]
Aggregate results:
[ 10 6 0 ]
[ 0.935651 0.063712 0.000637 ]
5
Num Evals 3200
GenUC: 9.510259e-06
GenUB: 1.558685e-06
Optimisation 1.025030e+00
Total Time: 1.025044e+00
5 Add/Rem 4
Graph 1:
0 1 1 1 
1 0 0 0 
1 0 0 1 
1 0 1 0 
Graph 2:
0 0 0 0 
0 1 1 1 
0 1 0 1 
0 1 1 0 
Solution: 13 6
Classic Expectation: 9.000000
Initial Expecation: 6.750000
Gbest: 13.000000
Expectation: 10.659274
Final Parameters:
Gammas:
[ 5.128251 1.027510 3.180378 5.326486 ]
Betas:
[ 0.659347 2.792527 1.745329 1.279908 ]
Aggregate results:
[ 5 13 9 0 ]
[ 0.090494 0.575476 0.302846 0.031184 ]
5
Num Evals 3200
GenUC: 9.658223e-06
GenUB: 1.489941e-06
Optimisation 1.066066e+00
Total Time: 1.066080e+00
