Clock Speed: 3.688963
Num threads: 4
Trotterisation: 4
Graph Size: 6
Num Qubits: 10
Space Dimension: 1024
Run-Type: 0
Num_samples: 10
1 Isomorphic
Graph 1:
1 1 1 1 1 0 
1 0 0 1 1 1 
1 1 1 1 1 1 
1 1 1 1 1 1 
0 1 1 1 1 0 
1 1 0 0 0 1 
Graph 2:
1 1 1 1 1 0 
1 0 0 1 1 1 
1 1 1 1 1 1 
1 1 1 1 1 1 
0 1 1 1 1 0 
1 1 0 0 0 1 
Solution: 0 0
Gbest: -10.000000
Expectation: -16.518588
Final Parameters:
Gammas:
[ 4.013999 2.728814 3.371989 3.850915 ]
Betas:
[ 0.000000 1.060482 2.024115 1.128537 1.778245 ]
Aggregate results:
[ -1 7 9 5 1 11 13 3 15 35 ]
[ 0.002588 0.051291 0.216999 0.013324 0.001754 0.275878 0.158863 0.004320 0.079824 0.195159 ]
5
Num Evals 600
GenUC: 2.637968e-04
GenUB: 1.975392e-04
Optimisation 1.042031e+00
Total Time: 1.044095e+00
2 Flipped
Graph 1:
1 1 1 1 1 0 
1 0 0 1 1 1 
1 1 1 1 1 1 
1 1 1 1 1 1 
0 1 1 1 1 0 
1 1 0 0 0 1 
Graph 2:
0 1 1 1 1 1 
1 1 1 0 0 1 
1 1 1 1 1 1 
1 1 1 1 1 1 
0 1 1 1 1 0 
1 0 0 0 1 1 
Solution: -4 32
Gbest: -10.000000
Expectation: -19.406250
Final Parameters:
Gammas:
[ 3.141593 3.141593 3.141593 3.141593 ]
Betas:
[ 1.129010 2.110758 0.895845 2.123029 1.472622 ]
Aggregate results:
[ 7 11 5 9 13 3 15 35 ]
[ 0.044922 0.212891 0.008789 0.125000 0.229492 0.001953 0.080078 0.296875 ]
3
Num Evals 665
GenUC: 1.071731e-04
GenUB: 1.472724e-04
Optimisation 1.338324e-01
Total Time: 1.362422e-01
3 Add 6
Graph 1:
1 1 1 1 1 0 
1 0 0 1 1 1 
1 1 1 1 1 1 
1 1 1 1 1 1 
0 1 1 1 1 0 
1 1 0 0 0 1 
Graph 2:
1 1 1 1 1 1 
1 0 1 1 1 1 
1 1 1 1 1 1 
1 1 1 1 1 1 
0 1 1 1 1 1 
1 1 0 0 0 1 
Solution: -3 0
Gbest: -5.000000
Expectation: -10.356560
Final Parameters:
Gammas:
[ 3.158202 3.096725 3.116774 3.319716 ]
Betas:
[ 1.985701 1.359343 2.586376 1.388194 1.143945 ]
Aggregate results:
[ 2 6 8 10 4 12 35 ]
[ 0.008993 0.142083 0.332680 0.343269 0.018154 0.134756 0.020064 ]
5
Num Evals 1265
GenUC: 9.034260e-05
GenUB: 1.643617e-04
Optimisation 1.233437e+00
Total Time: 1.235710e+00
4 Rem 6
Graph 1:
1 1 1 1 1 0 
1 0 0 1 1 1 
1 1 1 1 1 1 
1 1 1 1 1 1 
0 1 1 1 1 0 
1 1 0 0 0 1 
Graph 2:
1 1 1 1 1 0 
1 0 0 1 0 1 
0 1 0 1 1 0 
1 1 1 0 1 1 
0 1 1 1 0 0 
1 1 0 0 0 1 
Solution: -6 0
Gbest: -10.000000
Expectation: -16.807905
Final Parameters:
Gammas:
[ 2.990799 3.271415 3.082593 3.562231 ]
Betas:
[ 3.141593 1.931238 2.169898 0.327720 1.407752 ]
Aggregate results:
[ 5 13 9 11 15 7 17 19 21 35 ]
[ 0.007162 0.258122 0.046218 0.102135 0.250298 0.007589 0.160343 0.083558 0.014579 0.069997 ]
5
Num Evals 1865
GenUC: 1.197726e-04
GenUB: 1.663341e-04
Optimisation 1.260816e+00
Total Time: 1.263400e+00
5 Add/Rem 6
Graph 1:
1 1 1 1 1 0 
1 0 0 1 1 1 
1 1 1 1 1 1 
1 1 1 1 1 1 
0 1 1 1 1 0 
1 1 0 0 0 1 
Graph 2:
1 1 1 1 1 0 
1 0 1 1 1 0 
1 1 1 0 1 1 
1 1 1 0 0 1 
1 0 1 0 1 1 
1 1 0 0 0 1 
Solution: -7 41
Gbest: -9.000000
Expectation: -12.969122
Final Parameters:
Gammas:
[ 3.336617 3.235073 2.913386 1.805811 ]
Betas:
[ 2.150969 1.208238 1.476885 1.762052 1.586929 ]
Aggregate results:
[ 8 14 12 10 6 16 18 35 ]
[ 0.123798 0.141562 0.324586 0.313934 0.017408 0.043654 0.003968 0.031091 ]
5
Num Evals 2465
GenUC: 1.249649e-04
GenUB: 1.661656e-04
Optimisation 1.181291e+00
Total Time: 1.183574e+00
