Clock Speed: 3.498647
Num threads: 16
Trotterisation: 4
Num Qubits: 13
Space Dimension: 8192
Run-Type: 0
Num_samples: 49
Optimiser Method: 29
1 Isomorphic
Graph 1:
0 1 0 1 0 1 0 
0 1 0 1 0 1 1 
1 0 0 0 0 0 1 
0 0 0 1 1 1 1 
1 0 0 1 0 1 1 
0 1 0 1 0 0 1 
1 1 1 0 0 1 1 
Graph 2:
0 1 0 1 0 1 0 
0 1 0 1 0 1 1 
1 0 0 0 0 0 1 
0 0 0 1 1 1 1 
1 0 0 1 0 1 1 
0 1 0 1 0 0 1 
1 1 1 0 0 1 1 
Solution: 49 0
Classic Expectation: 24.619048
Initial Expecation: 15.146484
Gbest: 31.000000
Expectation: 22.943955
Final Parameters:
Gammas:
[ 3.139414 3.222022 3.194735 3.225904 ]
Betas:
[ 1.315554 1.663121 2.582677 1.276366 ]
Aggregate results:
[ 49 37 29 33 39 35 25 41 27 31 19 21 23 17 15 43 11 13 0 ]
[ 0.000213 0.001694 0.111135 0.019500 0.000709 0.009469 0.184759 0.000573 0.157425 0.040657 0.073353 0.126110 0.164658 0.028622 0.010174 0.000058 0.000403 0.001287 0.069199 ]
3
Num Evals 1934
GenUC: 2.247485e-03
GenUB: 1.181144e-03
Optimisation 7.128872e+01
Total Time: 7.129216e+01
2 Flipped
Graph 1:
0 1 0 1 0 1 0 
0 1 0 1 0 1 1 
1 0 0 0 0 0 1 
0 0 0 1 1 1 1 
1 0 0 1 0 1 1 
0 1 0 1 0 0 1 
1 1 1 0 0 1 1 
Graph 2:
0 1 0 1 0 1 0 
1 1 0 1 0 1 0 
1 0 0 0 0 0 1 
1 1 1 1 0 0 0 
1 1 0 1 0 0 1 
1 0 0 1 0 1 0 
1 1 0 0 1 1 1 
Solution: 41 4486
Classic Expectation: 24.428571
Initial Expecation: 15.029297
Gbest: 35.000000
Expectation: 24.387420
Final Parameters:
Gammas:
[ 3.090905 3.182554 3.285286 3.230140 ]
Betas:
[ 2.656000 0.924708 0.946819 2.344873 ]
Aggregate results:
[ 33 27 31 25 23 29 21 17 19 35 15 37 39 13 41 0 ]
[ 0.055072 0.201991 0.097237 0.172837 0.099308 0.166575 0.050639 0.008858 0.021070 0.015420 0.003688 0.007982 0.002433 0.000501 0.001467 0.094921 ]
3
Num Evals 2459
GenUC: 2.804959e-03
GenUB: 1.249312e-03
Optimisation 9.038365e+01
Total Time: 9.038770e+01
3 Add 7
Graph 1:
0 1 0 1 0 1 0 
0 1 0 1 0 1 1 
1 0 0 0 0 0 1 
0 0 0 1 1 1 1 
1 0 0 1 0 1 1 
0 1 0 1 0 0 1 
1 1 1 0 0 1 1 
Graph 2:
1 1 0 1 0 1 0 
0 1 0 1 0 1 1 
1 1 0 0 0 0 1 
0 0 1 1 1 1 1 
1 0 0 1 0 1 1 
0 1 1 1 0 0 1 
1 1 1 1 1 1 1 
Solution: 43 0
Classic Expectation: 24.714286
Initial Expecation: 15.205078
Gbest: 37.000000
Expectation: 24.026823
Final Parameters:
Gammas:
[ 3.081995 3.402670 3.336494 3.285644 ]
Betas:
[ 2.489698 1.150679 2.168919 1.159074 ]
Aggregate results:
[ 43 35 33 27 29 31 25 37 23 19 17 21 39 15 13 0 ]
[ 0.000487 0.012047 0.043120 0.196692 0.180557 0.085619 0.167357 0.003977 0.112501 0.028874 0.014527 0.054126 0.000838 0.004810 0.000359 0.094111 ]
3
Num Evals 4595
GenUC: 2.822779e-03
GenUB: 1.195076e-03
Optimisation 1.709558e+02
Total Time: 1.709599e+02
4 Rem 7
Graph 1:
0 1 0 1 0 1 0 
0 1 0 1 0 1 1 
1 0 0 0 0 0 1 
0 0 0 1 1 1 1 
1 0 0 1 0 1 1 
0 1 0 1 0 0 1 
1 1 1 0 0 1 1 
Graph 2:
0 1 0 0 0 1 0 
0 1 0 0 0 1 1 
1 0 0 0 0 0 1 
0 0 0 1 1 0 1 
1 0 0 1 0 0 1 
0 1 0 0 0 0 1 
1 1 1 0 0 1 0 
Solution: 43 0
Classic Expectation: 24.523810
Initial Expecation: 15.087891
Gbest: 35.000000
Expectation: 22.886100
Final Parameters:
Gammas:
[ 3.331288 3.389691 3.342033 2.735762 ]
Betas:
[ 2.554269 1.171640 1.711351 1.660117 ]
Aggregate results:
[ 43 35 33 27 29 39 31 25 23 21 37 19 17 41 15 13 0 ]
[ 0.000158 0.003239 0.031832 0.196894 0.131135 0.000060 0.070256 0.174535 0.141280 0.084745 0.000514 0.040117 0.010803 0.000350 0.002454 0.000590 0.111039 ]
3
Num Evals 1230
GenUC: 2.817851e-03
GenUB: 1.200681e-03
Optimisation 4.670877e+01
Total Time: 4.671279e+01
5 Add/Rem 7
Graph 1:
0 1 0 1 0 1 0 
0 1 0 1 0 1 1 
1 0 0 0 0 0 1 
0 0 0 1 1 1 1 
1 0 0 1 0 1 1 
0 1 0 1 0 0 1 
1 1 1 0 0 1 1 
Graph 2:
0 1 0 1 1 1 0 
1 1 0 1 0 1 0 
1 0 0 1 0 0 1 
0 0 0 0 1 0 1 
1 0 0 1 0 0 1 
1 0 1 1 1 0 1 
1 1 1 0 0 1 0 
Solution: 39 4532
Classic Expectation: 25.000000
Initial Expecation: 15.380859
Gbest: 33.000000
Expectation: 23.168424
Final Parameters:
Gammas:
[ 3.299533 3.221976 3.203714 3.530560 ]
Betas:
[ 1.780264 2.306310 0.835086 1.951424 ]
Aggregate results:
[ 37 31 35 27 29 33 23 21 25 17 19 15 39 0 ]
[ 0.002371 0.054744 0.007888 0.168818 0.112655 0.017193 0.174588 0.096540 0.221137 0.014456 0.044262 0.002968 0.000324 0.082059 ]
5
Num Evals 5600
GenUC: 2.809305e-03
GenUB: 1.094609e-03
Optimisation 2.079655e+02
Total Time: 2.079694e+02
