Clock Speed: 3.498801
Num threads: 16
Trotterisation: 4
Num Qubits: 13
Space Dimension: 8192
Run-Type: 0
Num_samples: 49
Optimiser Method: 29
1 Isomorphic
Graph 1:
0 0 1 0 1 0 0 
0 1 1 1 1 1 0 
0 0 1 0 0 0 0 
1 0 1 0 1 1 1 
1 0 1 1 0 1 0 
1 1 0 0 1 1 1 
0 1 0 1 0 1 1 
Graph 2:
0 0 1 0 1 0 0 
0 1 1 1 1 1 0 
0 0 1 0 0 0 0 
1 0 1 0 1 1 1 
1 0 1 1 0 1 0 
1 1 0 0 1 1 1 
0 1 0 1 0 1 1 
Solution: 49 0
Classic Expectation: 24.619048
Initial Expecation: 15.146484
Gbest: 33.000000
Expectation: 22.754095
Final Parameters:
Gammas:
[ 3.073876 3.715959 3.311116 2.755212 ]
Betas:
[ 1.727025 2.023566 1.050299 2.281718 ]
Aggregate results:
[ 49 39 35 31 37 41 33 29 25 19 17 23 27 21 15 13 43 0 ]
[ 0.000267 0.000089 0.008508 0.052317 0.004827 0.001025 0.023590 0.098791 0.182566 0.040992 0.016405 0.175603 0.191174 0.098477 0.002328 0.001979 0.000063 0.100997 ]
3
Num Evals 3809
GenUC: 2.243995e-03
GenUB: 1.258286e-03
Optimisation 1.470778e+02
Total Time: 1.470813e+02
2 Flipped
Graph 1:
0 0 1 0 1 0 0 
0 1 1 1 1 1 0 
0 0 1 0 0 0 0 
1 0 1 0 1 1 1 
1 0 1 1 0 1 0 
1 1 0 0 1 1 1 
0 1 0 1 0 1 1 
Graph 2:
0 0 1 0 1 0 0 
0 1 1 1 1 1 0 
0 0 0 0 1 0 0 
1 1 1 0 1 0 1 
0 1 0 1 1 0 1 
1 1 1 0 0 1 1 
1 1 0 1 0 1 0 
Solution: 39 54
Classic Expectation: 24.523810
Initial Expecation: 15.087891
Gbest: 33.000000
Expectation: 24.075261
Final Parameters:
Gammas:
[ 3.316342 3.123402 3.333776 2.375403 ]
Betas:
[ 2.397988 1.002128 1.723898 1.622965 ]
Aggregate results:
[ 35 33 31 29 27 25 21 23 17 19 39 15 37 13 11 0 ]
[ 0.027580 0.060650 0.128422 0.174811 0.181278 0.144194 0.045446 0.086201 0.005442 0.011270 0.001640 0.002735 0.005110 0.001278 0.000384 0.123558 ]
3
Num Evals 1360
GenUC: 5.330966e-03
GenUB: 1.393878e-03
Optimisation 5.175231e+01
Total Time: 5.175904e+01
3 Add 7
Graph 1:
0 0 1 0 1 0 0 
0 1 1 1 1 1 0 
0 0 1 0 0 0 0 
1 0 1 0 1 1 1 
1 0 1 1 0 1 0 
1 1 0 0 1 1 1 
0 1 0 1 0 1 1 
Graph 2:
0 0 1 0 1 0 1 
1 1 1 1 1 1 0 
1 0 1 0 1 0 0 
1 0 1 0 1 1 1 
1 0 1 1 1 1 0 
1 1 0 1 1 1 1 
0 1 1 1 0 1 1 
Solution: 42 0
Classic Expectation: 25.047619
Initial Expecation: 15.410156
Gbest: 34.000000
Expectation: 24.318830
Final Parameters:
Gammas:
[ 3.060109 3.222521 3.449698 3.029884 ]
Betas:
[ 0.513773 2.192867 1.384094 1.934494 ]
Aggregate results:
[ 42 34 32 28 36 30 26 24 22 18 20 16 38 14 0 ]
[ 0.000202 0.023574 0.070381 0.231240 0.007259 0.158079 0.208032 0.100002 0.042893 0.018749 0.031260 0.002563 0.000484 0.000254 0.105026 ]
3
Num Evals 3851
GenUC: 5.331394e-03
GenUB: 1.391780e-03
Optimisation 1.359939e+02
Total Time: 1.360006e+02
4 Rem 7
Graph 1:
0 0 1 0 1 0 0 
0 1 1 1 1 1 0 
0 0 1 0 0 0 0 
1 0 1 0 1 1 1 
1 0 1 1 0 1 0 
1 1 0 0 1 1 1 
0 1 0 1 0 1 1 
Graph 2:
0 0 1 0 1 0 0 
0 0 1 1 0 1 0 
0 0 1 0 0 0 0 
0 0 1 0 1 1 1 
0 0 1 1 0 1 0 
1 1 0 0 1 0 1 
0 0 0 1 0 1 1 
Solution: 43 0
Classic Expectation: 24.142857
Initial Expecation: 14.853516
Gbest: 33.000000
Expectation: 23.185864
Final Parameters:
Gammas:
[ 3.301151 3.339999 3.300174 3.224838 ]
Betas:
[ 2.518056 0.868360 0.604451 2.707391 ]
Aggregate results:
[ 43 33 31 27 37 35 29 25 21 17 19 15 23 39 11 13 0 ]
[ 0.001385 0.036418 0.061417 0.170224 0.005877 0.014205 0.132645 0.177799 0.083186 0.014514 0.039585 0.004432 0.148124 0.004348 0.001309 0.001168 0.103364 ]
3
Num Evals 2393
GenUC: 5.335230e-03
GenUB: 1.354075e-03
Optimisation 9.032252e+01
Total Time: 9.032921e+01
5 Add/Rem 7
Graph 1:
0 0 1 0 1 0 0 
0 1 1 1 1 1 0 
0 0 1 0 0 0 0 
1 0 1 0 1 1 1 
1 0 1 1 0 1 0 
1 1 0 0 1 1 1 
0 1 0 1 0 1 1 
Graph 2:
0 1 1 0 1 1 1 
0 0 1 1 0 1 1 
1 0 1 0 0 0 0 
0 0 0 0 1 1 1 
1 0 1 0 0 1 0 
1 1 0 0 0 1 1 
0 1 0 1 1 1 1 
Solution: 37 0
Classic Expectation: 24.523810
Initial Expecation: 15.087891
Gbest: 37.000000
Expectation: 24.229859
Final Parameters:
Gammas:
[ 2.876205 3.457739 2.958507 3.140371 ]
Betas:
[ 3.102574 0.768141 0.943745 2.049919 ]
Aggregate results:
[ 37 33 29 27 31 25 23 19 21 17 35 15 13 11 0 ]
[ 0.002517 0.035938 0.163497 0.223089 0.092141 0.193598 0.112145 0.019256 0.050111 0.006821 0.008815 0.003994 0.000465 0.000150 0.087462 ]
3
Num Evals 1705
GenUC: 5.332408e-03
GenUB: 1.353235e-03
Optimisation 6.498698e+01
Total Time: 6.499366e+01
