Clock Speed: 3.610445
Num threads: 4
Trotterisation: 2
Graph Size: 8
Num Qubits: 16
Space Dimension: 65536
Run-Type: 0
Num_samples: 10
1 Isomorphic
Graph 1:
0 1 0 1 1 1 0 0 
1 0 1 0 0 0 1 0 
1 1 1 1 1 0 1 0 
0 1 1 1 0 1 1 1 
1 1 0 0 1 1 1 1 
0 0 1 0 1 1 1 1 
0 0 0 1 1 0 0 0 
1 0 1 0 0 0 1 1 
Graph 2:
0 1 0 1 1 1 0 0 
1 0 1 0 0 0 1 0 
1 1 1 1 1 0 1 0 
0 1 1 1 0 1 1 1 
1 1 0 0 1 1 1 1 
0 0 1 0 1 1 1 1 
0 0 0 1 1 0 0 0 
1 0 1 0 0 0 1 1 
Solution: 0 0
Gbest: -22.000000
Expectation: -31.704332
Final Parameters:
Gammas:
[ 3.174002 3.172218 ]
Betas:
[ 3.073216 0.599094 2.034731 ]
Aggregate results:
[ -1 13 19 21 25 17 23 29 33 31 15 27 37 5 11 35 9 39 41 43 45 7 47 63 ]
[ 0.000056 0.000518 0.007334 0.023401 0.080359 0.003295 0.043116 0.164275 0.157134 0.179778 0.001308 0.130995 0.057403 0.000055 0.000272 0.104172 0.000124 0.023504 0.007357 0.001581 0.000168 0.000092 0.000055 0.013648 ]
5
Num Evals 800
GenUC: 3.616108e-03
GenUB: 1.640310e-02
Optimisation 1.653743e+02
Total Time: 1.656039e+02
2 Flipped
Graph 1:
0 1 0 1 1 1 0 0 
1 0 1 0 0 0 1 0 
1 1 1 1 1 0 1 0 
0 1 1 1 0 1 1 1 
1 1 0 0 1 1 1 1 
0 0 1 0 1 1 1 1 
0 0 0 1 1 0 0 0 
1 0 1 0 0 0 1 1 
Graph 2:
0 0 1 1 1 0 1 0 
0 1 0 0 0 1 0 1 
0 1 0 1 1 1 1 1 
1 1 1 0 1 1 1 0 
1 1 1 1 0 0 1 1 
1 1 1 1 0 1 0 0 
0 0 0 1 1 0 0 0 
1 1 0 0 0 1 0 1 
Solution: -18 281
Gbest: -26.000000
Expectation: -33.010074
Final Parameters:
Gammas:
[ 3.187320 3.483516 ]
Betas:
[ 3.068346 1.040655 1.509076 ]
Aggregate results:
[ 31 29 27 25 33 35 23 21 19 17 37 39 41 43 45 47 63 ]
[ 0.197628 0.189669 0.138055 0.068414 0.160906 0.097174 0.026514 0.007696 0.001530 0.000095 0.045354 0.015181 0.003879 0.000613 0.000128 0.000021 0.047142 ]
3
Num Evals 1585
GenUC: 2.414086e-03
GenUB: 1.690513e-02
Optimisation 1.669670e+02
Total Time: 1.671973e+02
3 Add 8
Graph 1:
0 1 0 1 1 1 0 0 
1 0 1 0 0 0 1 0 
1 1 1 1 1 0 1 0 
0 1 1 1 0 1 1 1 
1 1 0 0 1 1 1 1 
0 0 1 0 1 1 1 1 
0 0 0 1 1 0 0 0 
1 0 1 0 0 0 1 1 
Graph 2:
0 1 0 1 1 1 1 0 
1 0 1 1 0 0 1 1 
1 1 1 1 1 0 1 0 
0 1 1 1 0 1 1 1 
1 1 0 0 1 1 1 1 
0 0 1 0 1 1 1 1 
1 0 0 1 1 0 0 0 
1 0 1 0 0 1 1 1 
Solution: -5 0
Gbest: -27.000000
Expectation: -32.037232
Final Parameters:
Gammas:
[ 3.195102 3.095763 ]
Betas:
[ 2.398097 2.047238 1.870316 ]
Aggregate results:
[ 4 14 20 16 22 26 24 28 18 32 30 36 10 34 12 38 40 42 44 46 63 ]
[ 0.000055 0.000480 0.012687 0.001375 0.032570 0.113874 0.069160 0.163460 0.004491 0.165599 0.178538 0.066432 0.000065 0.116704 0.000204 0.028721 0.007682 0.001923 0.000208 0.000026 0.035748 ]
5
Num Evals 2385
GenUC: 2.866381e-03
GenUB: 1.682275e-02
Optimisation 1.846836e+02
Total Time: 1.849326e+02
4 Rem 8
Graph 1:
0 1 0 1 1 1 0 0 
1 0 1 0 0 0 1 0 
1 1 1 1 1 0 1 0 
0 1 1 1 0 1 1 1 
1 1 0 0 1 1 1 1 
0 0 1 0 1 1 1 1 
0 0 0 1 1 0 0 0 
1 0 1 0 0 0 1 1 
Graph 2:
0 1 0 1 1 1 0 0 
1 0 1 0 0 0 1 0 
1 0 1 0 0 0 1 0 
0 1 1 1 0 1 0 1 
0 1 0 0 1 1 1 1 
0 0 1 0 1 1 0 1 
0 0 0 1 1 0 0 0 
1 0 1 0 0 0 1 1 
Solution: -6 0
Gbest: -26.000000
Expectation: -37.293551
Final Parameters:
Gammas:
[ 2.899785 3.437532 ]
Betas:
[ 1.653255 1.916455 1.337314 ]
Aggregate results:
[ 5 19 23 15 17 25 21 29 27 37 35 33 31 9 39 13 41 43 45 47 11 63 ]
[ 0.000013 0.008830 0.055196 0.000940 0.002704 0.101184 0.025648 0.133577 0.130173 0.042111 0.058232 0.081073 0.112558 0.000023 0.025177 0.000389 0.013603 0.004610 0.000658 0.000060 0.000023 0.203220 ]
5
Num Evals 3185
GenUC: 2.877254e-03
GenUB: 1.677747e-02
Optimisation 1.582867e+02
Total Time: 1.585016e+02
5 Add/Rem 8
Graph 1:
0 1 0 1 1 1 0 0 
1 0 1 0 0 0 1 0 
1 1 1 1 1 0 1 0 
0 1 1 1 0 1 1 1 
1 1 0 0 1 1 1 1 
0 0 1 0 1 1 1 1 
0 0 0 1 1 0 0 0 
1 0 1 0 0 0 1 1 
Graph 2:
0 1 0 1 0 1 0 0 
1 0 1 1 0 1 1 0 
0 0 1 1 1 1 1 0 
0 1 1 1 0 0 1 0 
1 1 0 1 0 1 1 1 
1 1 1 1 1 1 0 1 
0 0 0 1 1 0 0 0 
1 0 1 0 0 0 1 1 
Solution: -14 0
Gbest: -24.000000
Expectation: -31.606724
Final Parameters:
Gammas:
[ 3.174634 3.177160 ]
Betas:
[ 3.130434 0.654529 1.980461 ]
Aggregate results:
[ 13 21 23 27 25 19 17 31 29 35 33 37 15 39 41 43 45 47 63 ]
[ 0.000049 0.014816 0.041604 0.142683 0.081428 0.005218 0.001986 0.193067 0.180541 0.100427 0.155196 0.048541 0.000060 0.016167 0.004468 0.000761 0.000089 0.000005 0.012892 ]
5
Num Evals 3985
GenUC: 3.034888e-03
GenUB: 1.694197e-02
Optimisation 1.724432e+02
Total Time: 1.726746e+02
