Clock Speed: 3.689123
Num threads: 4
Trotterisation: 3
Graph Size: 4
Num Qubits: 5
Space Dimension: 32
Run-Type: 0
Num_samples: 10
1 Isomorphic
Graph 1:
0 1 0 1 
1 0 1 1 
0 0 0 1 
1 1 0 1 
Graph 2:
0 1 0 1 
1 0 1 1 
0 0 0 1 
1 1 0 1 
Solution: 0 0
Gbest: -6.000000
Expectation: -9.125000
Final Parameters:
Gammas:
[ 3.298672 3.141593 3.141593 ]
Betas:
[ 2.277655 1.570796 1.570796 1.570796 ]
Aggregate results:
[ -1 1 5 7 3 9 15 ]
[ 0.031250 0.031250 0.187500 0.343750 0.062500 0.093750 0.250000 ]
3
Num Evals 18
GenUC: 1.483844e-04
GenUB: 1.295681e-05
Optimisation 4.983151e-03
Total Time: 5.465197e-03
2 Flipped
Graph 1:
0 1 0 1 
1 0 1 1 
0 0 0 1 
1 1 0 1 
Graph 2:
1 0 1 0 
1 1 0 1 
1 0 0 0 
1 0 1 1 
Solution: -6 2
Gbest: -6.000000
Expectation: -7.659222
Final Parameters:
Gammas:
[ 3.046154 3.358534 3.115113 ]
Betas:
[ 2.818334 0.476927 1.828251 1.053360 ]
Aggregate results:
[ 9 7 5 15 ]
[ 0.232354 0.279504 0.471062 0.017080 ]
5
Num Evals 418
GenUC: 9.108306e-06
GenUB: 7.894138e-06
Optimisation 1.099628e-01
Total Time: 1.102405e-01
3 Add 4
Graph 1:
0 1 0 1 
1 0 1 1 
0 0 0 1 
1 1 0 1 
Graph 2:
0 1 1 1 
1 0 1 1 
1 0 1 1 
1 1 0 1 
Solution: -3 0
Gbest: -3.000000
Expectation: -6.527281
Final Parameters:
Gammas:
[ 4.678782 3.241104 2.683579 ]
Betas:
[ 2.554890 0.934221 1.135165 1.096491 ]
Aggregate results:
[ 2 4 6 8 15 ]
[ 0.214496 0.049869 0.664525 0.022142 0.048969 ]
3
Num Evals 779
GenUC: 8.709263e-06
GenUB: 7.651193e-06
Optimisation 1.072569e-01
Total Time: 1.075367e-01
4 Rem 4
Graph 1:
0 1 0 1 
1 0 1 1 
0 0 0 1 
1 1 0 1 
Graph 2:
0 1 0 1 
0 0 0 1 
0 0 0 0 
1 0 0 1 
Solution: -4 0
Gbest: -4.000000
Expectation: -6.425725
Final Parameters:
Gammas:
[ 3.384037 2.717895 1.272238 ]
Betas:
[ 2.612985 1.133583 1.646694 0.110703 ]
Aggregate results:
[ 3 5 7 11 9 15 ]
[ 0.359355 0.385159 0.078106 0.051637 0.096505 0.029238 ]
3
Num Evals 1068
GenUC: 1.119629e-05
GenUB: 8.165269e-06
Optimisation 7.204295e-02
Total Time: 7.231316e-02
5 Add/Rem 4
Graph 1:
0 1 0 1 
1 0 1 1 
0 0 0 1 
1 1 0 1 
Graph 2:
0 1 0 1 
0 0 0 1 
1 0 0 1 
0 0 1 1 
Solution: -2 2
Gbest: -6.000000
Expectation: -9.625000
Final Parameters:
Gammas:
[ 3.141593 3.141593 3.141593 ]
Betas:
[ 0.644997 1.930627 1.639616 1.587708 ]
Aggregate results:
[ 5 1 3 9 7 15 ]
[ 0.187500 0.031250 0.062500 0.218750 0.250000 0.250000 ]
3
Num Evals 1085
GenUC: 9.049050e-06
GenUB: 7.738054e-06
Optimisation 4.447070e-03
Total Time: 4.738208e-03
