Clock Speed: 3.688214
Num threads: 4
Trotterisation: 4
Graph Size: 5
Num Qubits: 7
Space Dimension: 128
Run-Type: 0
Num_samples: 10
1 Isomorphic
Graph 1:
1 1 1 0 0 
0 1 1 0 0 
1 0 1 1 1 
1 1 1 1 0 
1 0 1 0 1 
Graph 2:
1 1 1 0 0 
0 1 1 0 0 
1 0 1 1 1 
1 1 1 1 0 
1 0 1 0 1 
Solution: 0 0
Gbest: -2.000000
Expectation: -9.322473
Final Parameters:
Gammas:
[ 5.230782 3.995380 4.593471 1.085702 ]
Betas:
[ 2.892622 3.018676 0.381466 0.028394 0.042949 ]
Aggregate results:
[ -1 5 7 9 13 3 11 1 24 ]
[ 0.025126 0.234211 0.246134 0.207963 0.141118 0.013195 0.071096 0.023565 0.037592 ]
5
Num Evals 500
GenUC: 1.545163e-04
GenUB: 3.194576e-05
Optimisation 2.865258e-01
Total Time: 2.872125e-01
2 Flipped
Graph 1:
1 1 1 0 0 
0 1 1 0 0 
1 0 1 1 1 
1 1 1 1 0 
1 0 1 0 1 
Graph 2:
0 0 1 1 1 
0 0 1 1 0 
1 1 1 0 1 
0 1 1 1 1 
1 0 1 0 1 
Solution: -6 15
Gbest: -8.000000
Expectation: -11.388179
Final Parameters:
Gammas:
[ 5.754160 3.218113 5.529744 0.757470 ]
Betas:
[ 2.773036 0.495140 0.056039 0.166195 2.783795 ]
Aggregate results:
[ 9 11 13 7 15 5 24 ]
[ 0.283941 0.231333 0.100398 0.242135 0.057020 0.032185 0.052987 ]
5
Num Evals 1000
GenUC: 2.555386e-05
GenUB: 1.724006e-05
Optimisation 2.683914e-01
Total Time: 2.689208e-01
3 Add 5
Graph 1:
1 1 1 0 0 
0 1 1 0 0 
1 0 1 1 1 
1 1 1 1 0 
1 0 1 0 1 
Graph 2:
1 1 1 1 0 
0 1 1 0 1 
1 1 1 1 1 
1 1 1 1 0 
1 1 1 0 1 
Solution: -4 0
Gbest: -4.000000
Expectation: -9.165126
Final Parameters:
Gammas:
[ 2.418911 6.224056 6.028653 5.269063 ]
Betas:
[ 1.651187 0.870886 0.401517 2.134491 0.091579 ]
Aggregate results:
[ 3 5 7 9 11 13 24 ]
[ 0.026558 0.148544 0.406451 0.250290 0.132136 0.006642 0.029381 ]
5
Num Evals 1500
GenUC: 1.982506e-05
GenUB: 1.709815e-05
Optimisation 2.826620e-01
Total Time: 2.831643e-01
4 Rem 5
Graph 1:
1 1 1 0 0 
0 1 1 0 0 
1 0 1 1 1 
1 1 1 1 0 
1 0 1 0 1 
Graph 2:
1 0 0 0 0 
0 1 0 0 0 
1 0 1 0 1 
1 1 0 1 0 
1 0 1 0 1 
Solution: -5 0
Gbest: -7.000000
Expectation: -9.740958
Final Parameters:
Gammas:
[ 3.074940 3.239081 3.515270 3.156835 ]
Betas:
[ 0.518362 1.193001 2.425234 2.306065 0.646626 ]
Aggregate results:
[ 4 8 10 6 12 14 24 ]
[ 0.061124 0.520252 0.205888 0.131908 0.029894 0.009703 0.041231 ]
5
Num Evals 2000
GenUC: 2.066081e-05
GenUB: 1.695193e-05
Optimisation 2.719408e-01
Total Time: 2.725229e-01
5 Add/Rem 5
Graph 1:
1 1 1 0 0 
0 1 1 0 0 
1 0 1 1 1 
1 1 1 1 0 
1 0 1 0 1 
Graph 2:
1 1 1 1 1 
1 1 1 0 1 
1 1 1 1 1 
0 0 1 1 0 
1 0 0 0 0 
Solution: -5 75
Gbest: -9.000000
Expectation: -10.596424
Final Parameters:
Gammas:
[ 3.216666 6.013821 5.364290 1.416540 ]
Betas:
[ 0.991810 1.342040 1.406463 0.502519 2.875547 ]
Aggregate results:
[ 8 10 12 6 14 4 16 24 ]
[ 0.253758 0.322260 0.164839 0.157335 0.050843 0.023046 0.006544 0.021374 ]
5
Num Evals 2500
GenUC: 2.130517e-05
GenUB: 1.708814e-05
Optimisation 2.917604e-01
Total Time: 2.923507e-01
