Clock Speed: 3.688936
Num threads: 4
Trotterisation: 4
Graph Size: 5
Num Qubits: 7
Space Dimension: 128
Run-Type: 0
Num_samples: 10
1 Isomorphic
Graph 1:
0 1 1 1 1 
0 1 1 0 1 
1 1 1 0 0 
1 0 1 0 0 
0 0 1 0 0 
Graph 2:
0 1 1 1 1 
0 1 1 0 1 
1 1 1 0 0 
1 0 1 0 0 
0 0 1 0 0 
Solution: 0 0
Gbest: 0.000000
Expectation: -11.959024
Final Parameters:
Gammas:
[ 5.445751 1.861478 5.212514 1.203704 ]
Betas:
[ 1.137140 0.650413 2.439479 2.406096 2.408227 ]
Aggregate results:
[ -1 7 11 9 13 5 15 17 3 19 24 ]
[ 0.053934 0.082257 0.368112 0.128634 0.198268 0.033299 0.035916 0.017811 0.014259 0.003662 0.063848 ]
5
Num Evals 500
GenUC: 1.303384e-04
GenUB: 3.012072e-05
Optimisation 2.933585e-01
Total Time: 2.941548e-01
2 Flipped
Graph 1:
0 1 1 1 1 
0 1 1 0 1 
1 1 1 0 0 
1 0 1 0 0 
0 0 1 0 0 
Graph 2:
1 1 1 1 0 
1 0 1 1 0 
0 0 1 1 1 
0 0 1 0 1 
0 0 1 0 0 
Solution: -6 15
Gbest: -8.000000
Expectation: -11.859999
Final Parameters:
Gammas:
[ 0.526458 2.462411 5.514991 1.457271 ]
Betas:
[ 2.593110 0.501975 0.122759 1.416311 2.453745 ]
Aggregate results:
[ 11 9 13 15 7 5 17 24 ]
[ 0.272320 0.144188 0.227936 0.068178 0.228442 0.012181 0.028739 0.018016 ]
5
Num Evals 1000
GenUC: 2.562546e-05
GenUB: 1.685158e-05
Optimisation 2.637495e-01
Total Time: 2.643202e-01
3 Add 5
Graph 1:
0 1 1 1 1 
0 1 1 0 1 
1 1 1 0 0 
1 0 1 0 0 
0 0 1 0 0 
Graph 2:
0 1 1 1 1 
0 1 1 1 1 
1 1 1 0 0 
1 0 1 1 0 
1 0 1 0 1 
Solution: -4 0
Gbest: -10.000000
Expectation: -12.253823
Final Parameters:
Gammas:
[ 2.259757 2.678210 2.993081 1.420646 ]
Betas:
[ 2.333510 1.602281 2.240150 2.406823 1.776696 ]
Aggregate results:
[ 3 9 15 11 13 7 17 24 ]
[ 0.040043 0.203671 0.102711 0.285896 0.260610 0.077653 0.003195 0.026222 ]
5
Num Evals 1500
GenUC: 2.092018e-05
GenUB: 1.656753e-05
Optimisation 2.807995e-01
Total Time: 2.815008e-01
4 Rem 5
Graph 1:
0 1 1 1 1 
0 1 1 0 1 
1 1 1 0 0 
1 0 1 0 0 
0 0 1 0 0 
Graph 2:
0 1 0 0 0 
0 0 0 0 1 
1 1 1 0 0 
1 0 1 0 0 
0 0 1 0 0 
Solution: -5 0
Gbest: -9.000000
Expectation: -12.289461
Final Parameters:
Gammas:
[ 0.841499 3.799761 5.463462 1.350915 ]
Betas:
[ 1.714843 2.731044 1.482746 0.775647 0.916795 ]
Aggregate results:
[ 4 8 12 10 14 16 18 24 ]
[ 0.007133 0.163061 0.218176 0.380280 0.175983 0.017533 0.019464 0.018371 ]
5
Num Evals 2000
GenUC: 2.423697e-05
GenUB: 1.684995e-05
Optimisation 2.667485e-01
Total Time: 2.673459e-01
5 Add/Rem 5
Graph 1:
0 1 1 1 1 
0 1 1 0 1 
1 1 1 0 0 
1 0 1 0 0 
0 0 1 0 0 
Graph 2:
1 0 1 1 1 
0 1 0 0 1 
0 1 1 1 0 
1 1 0 0 0 
0 0 1 0 0 
Solution: -5 21
Gbest: -9.000000
Expectation: -12.220738
Final Parameters:
Gammas:
[ 3.399043 0.384690 0.859877 0.804312 ]
Betas:
[ 2.989116 0.011692 1.150910 0.068648 1.513986 ]
Aggregate results:
[ 6 8 12 10 14 4 16 20 18 24 ]
[ 0.036859 0.215875 0.216882 0.258175 0.161738 0.015460 0.053377 0.021336 0.000971 0.019326 ]
5
Num Evals 2500
GenUC: 2.405385e-05
GenUB: 1.636578e-05
Optimisation 2.750080e-01
Total Time: 2.755146e-01
