Clock Speed: 3.688763
Num threads: 4
Trotterisation: 3
Graph Size: 7
Num Qubits: 13
Space Dimension: 8192
Run-Type: 0
Num_samples: 10
1 Isomorphic
Graph 1:
1 0 0 1 1 1 1 
1 1 0 0 0 0 0 
1 1 0 0 1 0 0 
1 0 0 0 1 1 1 
1 1 1 0 0 1 0 
1 1 1 1 0 1 1 
1 1 0 1 1 0 1 
Graph 2:
1 0 0 1 1 1 1 
1 1 0 0 0 0 0 
1 1 0 0 1 0 0 
1 0 0 0 1 1 1 
1 1 1 0 0 1 0 
1 1 1 1 0 1 1 
1 1 0 1 1 0 1 
Solution: 0 0
Gbest: -18.000000
Expectation: -27.207232
Final Parameters:
Gammas:
[ 3.141593 3.141593 1.047198 ]
Betas:
[ 1.570796 1.570796 2.617994 1.570796 ]
Aggregate results:
[ -1 11 17 7 21 15 19 13 23 27 25 9 29 31 5 33 48 ]
[ 0.000082 0.003889 0.041694 0.001685 0.168637 0.020025 0.116725 0.005804 0.204385 0.085060 0.161870 0.000253 0.040009 0.005108 0.000082 0.000114 0.144577 ]
3
Num Evals 25
GenUC: 1.369550e-03
GenUB: 1.882045e-03
Optimisation 2.361696e-01
Total Time: 2.492308e-01
2 Flipped
Graph 1:
1 0 0 1 1 1 1 
1 1 0 0 0 0 0 
1 1 0 0 1 0 0 
1 0 0 0 1 1 1 
1 1 1 0 0 1 0 
1 1 1 1 0 1 1 
1 1 0 1 1 0 1 
Graph 2:
1 1 1 1 0 0 1 
0 0 0 0 0 1 1 
0 0 1 0 0 1 1 
1 1 1 0 0 0 1 
0 1 0 0 1 1 1 
1 1 0 1 1 1 1 
1 0 1 1 0 1 1 
Solution: -10 1602
Gbest: -20.000000
Expectation: -27.112119
Final Parameters:
Gammas:
[ 3.141593 3.141593 1.047198 ]
Betas:
[ 1.570796 1.570796 2.617994 1.570796 ]
Aggregate results:
[ 27 25 21 23 29 19 17 15 31 13 11 33 9 48 ]
[ 0.094307 0.165094 0.161038 0.185660 0.030889 0.115864 0.056749 0.029305 0.007059 0.006960 0.001812 0.000412 0.000274 0.144577 ]
3
Num Evals 50
GenUC: 1.126140e-03
GenUB: 1.561757e-03
Optimisation 2.217723e-01
Total Time: 2.340581e-01
3 Add 7
Graph 1:
1 0 0 1 1 1 1 
1 1 0 0 0 0 0 
1 1 0 0 1 0 0 
1 0 0 0 1 1 1 
1 1 1 0 0 1 0 
1 1 1 1 0 1 1 
1 1 0 1 1 0 1 
Graph 2:
1 0 1 1 1 1 1 
1 1 1 0 0 0 1 
1 1 0 0 1 0 0 
1 0 1 0 1 1 1 
1 1 1 0 0 1 0 
1 1 1 1 0 1 1 
1 1 0 1 1 1 1 
Solution: -5 0
Gbest: -17.000000
Expectation: -31.789527
Final Parameters:
Gammas:
[ 5.235988 3.141593 3.141593 ]
Betas:
[ 1.570796 1.570796 1.570796 2.617994 ]
Aggregate results:
[ 4 14 16 10 18 20 22 12 24 26 30 28 8 32 6 48 ]
[ 0.000145 0.010977 0.022135 0.000891 0.086680 0.148265 0.146562 0.003370 0.131124 0.077698 0.003738 0.022970 0.000156 0.000438 0.000206 0.344644 ]
3
Num Evals 71
GenUC: 1.073431e-03
GenUB: 1.555942e-03
Optimisation 1.961455e-01
Total Time: 2.092384e-01
4 Rem 7
Graph 1:
1 0 0 1 1 1 1 
1 1 0 0 0 0 0 
1 1 0 0 1 0 0 
1 0 0 0 1 1 1 
1 1 1 0 0 1 0 
1 1 1 1 0 1 1 
1 1 0 1 1 0 1 
Graph 2:
1 0 0 1 1 1 1 
1 1 0 0 0 0 0 
0 1 0 0 1 0 0 
1 0 0 0 1 0 0 
0 1 1 0 0 1 0 
1 1 1 1 0 1 1 
1 0 0 1 0 0 1 
Solution: -6 0
Gbest: -22.000000
Expectation: -28.086415
Final Parameters:
Gammas:
[ 3.141593 3.141593 1.047198 ]
Betas:
[ 1.570796 1.570796 2.617994 1.570796 ]
Aggregate results:
[ 5 17 19 11 21 15 13 23 25 9 27 29 31 33 7 35 48 ]
[ 0.000082 0.027475 0.080164 0.001369 0.149623 0.010258 0.003375 0.191270 0.188810 0.000282 0.119305 0.066546 0.013179 0.003520 0.000082 0.000082 0.144577 ]
3
Num Evals 96
GenUC: 1.147688e-03
GenUB: 1.902913e-03
Optimisation 2.230451e-01
Total Time: 2.358594e-01
5 Add/Rem 7
Graph 1:
1 0 0 1 1 1 1 
1 1 0 0 0 0 0 
1 1 0 0 1 0 0 
1 0 0 0 1 1 1 
1 1 1 0 0 1 0 
1 1 1 1 0 1 1 
1 1 0 1 1 0 1 
Graph 2:
1 0 1 1 0 1 1 
1 1 0 0 0 1 1 
0 1 0 0 1 0 0 
0 0 1 0 1 1 1 
1 1 1 0 1 1 0 
1 1 0 1 1 1 0 
1 1 0 1 1 0 1 
Solution: -11 0
Gbest: -21.000000
Expectation: -32.333541
Final Parameters:
Gammas:
[ 1.047198 3.141593 3.141593 ]
Betas:
[ 1.570796 1.570796 1.570796 2.617994 ]
Aggregate results:
[ 10 14 18 20 22 24 26 16 12 28 30 32 34 48 ]
[ 0.000218 0.003819 0.069013 0.096439 0.171955 0.131984 0.082620 0.029636 0.001018 0.049554 0.016294 0.001988 0.000025 0.345436 ]
3
Num Evals 117
GenUC: 1.141965e-03
GenUB: 1.592238e-03
Optimisation 1.852535e-01
Total Time: 1.977572e-01
