Clock Speed: 3.689074
Num threads: 4
Trotterisation: 1
Graph Size: 4
Num Qubits: 5
Space Dimension: 32
Run-Type: 0
Num_samples: 10
1 Isomorphic
Graph 1:
1 1 1 1 
1 1 0 0 
0 0 1 0 
1 0 0 1 
Graph 2:
1 1 1 1 
1 1 0 0 
0 0 1 0 
1 0 0 1 
Solution: 0 0
Gbest: 0.000000
Expectation: -7.111294
Final Parameters:
Gammas:
[ 5.825396 ]
Betas:
[ 2.541951 2.177691 ]
Aggregate results:
[ -1 5 7 1 9 15 ]
[ 0.085381 0.339074 0.324325 0.100160 0.022504 0.128556 ]
3
Num Evals 301
GenUC: 2.250732e-04
GenUB: 1.212058e-05
Optimisation 4.723781e-02
Total Time: 4.765855e-02
2 Flipped
Graph 1:
1 1 1 1 
1 1 0 0 
0 0 1 0 
1 0 0 1 
Graph 2:
1 1 1 1 
0 0 1 1 
0 1 0 0 
1 0 0 1 
Solution: -6 0
Gbest: -6.000000
Expectation: -8.703143
Final Parameters:
Gammas:
[ 3.815101 ]
Betas:
[ 3.037717 0.881622 ]
Aggregate results:
[ 5 7 9 15 ]
[ 0.316014 0.418557 0.131376 0.134052 ]
5
Num Evals 701
GenUC: 9.231560e-06
GenUB: 8.469273e-06
Optimisation 5.361582e-02
Total Time: 5.377393e-02
3 Add 4
Graph 1:
1 1 1 1 
1 1 0 0 
0 0 1 0 
1 0 0 1 
Graph 2:
1 1 1 1 
1 1 1 1 
1 0 1 0 
1 1 0 1 
Solution: -4 0
Gbest: -4.000000
Expectation: -6.773840
Final Parameters:
Gammas:
[ 5.752285 ]
Betas:
[ 2.391609 2.250461 ]
Aggregate results:
[ 3 9 5 7 15 ]
[ 0.343747 0.018223 0.208405 0.363476 0.066149 ]
3
Num Evals 1093
GenUC: 8.827832e-06
GenUB: 8.398842e-06
Optimisation 7.067603e-02
Total Time: 7.085164e-02
4 Rem 4
Graph 1:
1 1 1 1 
1 1 0 0 
0 0 1 0 
1 0 0 1 
Graph 2:
1 0 1 1 
0 1 0 0 
0 0 0 0 
0 0 0 1 
Solution: -4 0
Gbest: -4.000000
Expectation: -6.859199
Final Parameters:
Gammas:
[ 3.676656 ]
Betas:
[ 2.336979 0.754933 ]
Aggregate results:
[ 3 7 5 15 ]
[ 0.252174 0.377372 0.309573 0.060880 ]
3
Num Evals 1395
GenUC: 1.112936e-05
GenUB: 8.451636e-06
Optimisation 3.874961e-02
Total Time: 3.889325e-02
5 Add/Rem 4
Graph 1:
1 1 1 1 
1 1 0 0 
0 0 1 0 
1 0 0 1 
Graph 2:
1 0 0 0 
1 1 0 1 
0 1 1 0 
0 1 0 1 
Solution: -1 4
Gbest: -1.000000
Expectation: -6.956337
Final Parameters:
Gammas:
[ 4.028217 ]
Betas:
[ 3.093594 0.519035 ]
Aggregate results:
[ 6 2 8 0 4 15 ]
[ 0.298189 0.266063 0.151013 0.047029 0.103510 0.134195 ]
5
Num Evals 1795
GenUC: 9.331910e-06
GenUB: 7.963448e-06
Optimisation 5.178338e-02
Total Time: 5.193374e-02
