Clock Speed: 3.688860
Num threads: 4
Trotterisation: 1
Graph Size: 4
Num Qubits: 5
Space Dimension: 32
Run-Type: 0
Num_samples: 10
1 Isomorphic
Graph 1:
0 0 0 0 
1 1 0 0 
1 1 0 0 
0 0 0 0 
Graph 2:
0 0 0 0 
1 1 0 0 
1 1 0 0 
0 0 0 0 
Solution: 0 0
Gbest: -4.000000
Expectation: -6.541785
Final Parameters:
Gammas:
[ 5.500812 ]
Betas:
[ 3.092234 0.443415 ]
Aggregate results:
[ -1 3 5 7 15 ]
[ 0.029960 0.328289 0.397319 0.133274 0.111158 ]
3
Num Evals 383
GenUC: 1.179252e-04
GenUB: 1.213641e-05
Optimisation 5.057915e-02
Total Time: 5.087205e-02
2 Flipped
Graph 1:
0 0 0 0 
1 1 0 0 
1 1 0 0 
0 0 0 0 
Graph 2:
0 0 0 0 
0 0 1 1 
0 0 1 1 
0 0 0 0 
Solution: 0 18
Gbest: -6.000000
Expectation: -6.534336
Final Parameters:
Gammas:
[ 5.754393 ]
Betas:
[ 2.989961 2.483290 ]
Aggregate results:
[ 7 5 3 -1 15 ]
[ 0.193648 0.614679 0.100349 0.035344 0.055980 ]
5
Num Evals 783
GenUC: 9.157025e-06
GenUB: 7.948132e-06
Optimisation 6.570388e-02
Total Time: 6.589903e-02
3 Add 4
Graph 1:
0 0 0 0 
1 1 0 0 
1 1 0 0 
0 0 0 0 
Graph 2:
0 0 0 0 
1 1 1 1 
1 1 1 0 
0 0 1 0 
Solution: -4 0
Gbest: -4.000000
Expectation: -7.986954
Final Parameters:
Gammas:
[ 5.242633 ]
Betas:
[ 2.559729 2.534558 ]
Aggregate results:
[ 3 7 11 5 9 15 ]
[ 0.143161 0.239349 0.013869 0.377136 0.092248 0.134237 ]
5
Num Evals 1183
GenUC: 8.523828e-06
GenUB: 8.486852e-06
Optimisation 6.460229e-02
Total Time: 6.478141e-02
4 Rem 4
Graph 1:
0 0 0 0 
1 1 0 0 
1 1 0 0 
0 0 0 0 
Graph 2:
0 0 0 0 
0 0 0 0 
1 1 0 0 
0 0 0 0 
Solution: -2 0
Gbest: -6.000000
Expectation: -7.437583
Final Parameters:
Gammas:
[ 0.550825 ]
Betas:
[ 1.031324 1.769326 ]
Aggregate results:
[ 1 5 3 15 ]
[ 0.061206 0.340011 0.358786 0.239998 ]
3
Num Evals 1568
GenUC: 8.393545e-06
GenUB: 8.180526e-06
Optimisation 4.498093e-02
Total Time: 4.511893e-02
5 Add/Rem 4
Graph 1:
0 0 0 0 
1 1 0 0 
1 1 0 0 
0 0 0 0 
Graph 2:
0 0 0 0 
0 0 0 1 
1 0 1 1 
0 0 1 0 
Solution: -3 12
Gbest: -5.000000
Expectation: -7.027348
Final Parameters:
Gammas:
[ 5.683252 ]
Betas:
[ 3.127396 2.217188 ]
Aggregate results:
[ 6 8 4 2 15 ]
[ 0.275421 0.092700 0.405542 0.106462 0.119876 ]
5
Num Evals 1968
GenUC: 9.107142e-06
GenUB: 8.173483e-06
Optimisation 6.334838e-02
Total Time: 6.353221e-02
