Clock Speed: 3.684964
Num threads: 4
Trotterisation: 1
Graph Size: 4
Num Qubits: 5
Space Dimension: 32
Run-Type: 0
Num_samples: 10
1 Isomorphic
Graph 1:
1 0 0 0 
0 0 1 1 
0 0 1 0 
0 1 1 0 
Graph 2:
1 0 0 0 
0 0 1 1 
0 0 1 0 
0 1 1 0 
Solution: 0 0
Gbest: 0.000000
Expectation: -5.538179
Final Parameters:
Gammas:
[ 2.949512 ]
Betas:
[ 2.750675 0.383270 ]
Aggregate results:
[ -1 7 5 3 11 15 ]
[ 0.264918 0.378462 0.165947 0.118284 0.029137 0.043251 ]
5
Num Evals 400
GenUC: 1.473602e-04
GenUB: 1.176319e-05
Optimisation 5.162957e-02
Total Time: 5.195402e-02
2 Flipped
Graph 1:
1 0 0 0 
0 0 1 1 
0 0 1 0 
0 1 1 0 
Graph 2:
0 0 0 1 
1 1 0 0 
0 1 0 0 
0 1 1 0 
Solution: -4 3
Gbest: -4.000000
Expectation: -7.331527
Final Parameters:
Gammas:
[ 5.299996 ]
Betas:
[ 2.710362 0.607752 ]
Aggregate results:
[ 7 5 3 9 15 ]
[ 0.331442 0.143758 0.322545 0.118135 0.084119 ]
5
Num Evals 800
GenUC: 9.562529e-06
GenUB: 8.358911e-06
Optimisation 5.065704e-02
Total Time: 5.080624e-02
3 Add 4
Graph 1:
1 0 0 0 
0 0 1 1 
0 0 1 0 
0 1 1 0 
Graph 2:
1 0 0 0 
1 0 1 1 
1 0 1 1 
0 1 1 1 
Solution: -4 0
Gbest: -6.000000
Expectation: -8.350912
Final Parameters:
Gammas:
[ 4.785954 ]
Betas:
[ 1.784429 2.546589 ]
Aggregate results:
[ 3 11 7 5 9 15 ]
[ 0.023025 0.031242 0.202120 0.480066 0.138368 0.125180 ]
3
Num Evals 1197
GenUC: 8.931675e-06
GenUB: 7.889408e-06
Optimisation 6.979439e-02
Total Time: 6.996606e-02
4 Rem 4
Graph 1:
1 0 0 0 
0 0 1 1 
0 0 1 0 
0 1 1 0 
Graph 2:
1 0 0 0 
0 0 1 0 
0 0 1 0 
0 0 0 0 
Solution: -3 0
Gbest: -3.000000
Expectation: -5.614341
Final Parameters:
Gammas:
[ 3.603038 ]
Betas:
[ 3.111208 2.739005 ]
Aggregate results:
[ 2 6 4 8 15 ]
[ 0.234845 0.208343 0.484447 0.018382 0.053983 ]
5
Num Evals 1597
GenUC: 1.053023e-05
GenUB: 8.092495e-06
Optimisation 7.041403e-02
Total Time: 7.061469e-02
5 Add/Rem 4
Graph 1:
1 0 0 0 
0 0 1 1 
0 0 1 0 
0 1 1 0 
Graph 2:
1 0 0 0 
0 1 1 1 
1 0 0 0 
0 0 1 0 
Solution: -4 0
Gbest: -4.000000
Expectation: -8.292359
Final Parameters:
Gammas:
[ 4.276792 ]
Betas:
[ 3.097701 1.017224 ]
Aggregate results:
[ 3 7 9 5 15 ]
[ 0.220402 0.297672 0.151031 0.177525 0.153370 ]
3
Num Evals 1898
GenUC: 9.070151e-06
GenUB: 8.192845e-06
Optimisation 4.112979e-02
Total Time: 4.128666e-02
