Clock Speed: 3.689434
Num threads: 4
Trotterisation: 6
Num Qubits: 5
Space Dimension: 32
Run-Type: 0
Num_samples: 4
Optimiser Method: 29
1 Isomorphic
Graph 1:
0 0 1 1 
0 0 0 0 
1 0 0 0 
1 0 0 0 
Graph 2:
0 0 1 1 
0 0 0 0 
1 0 0 0 
1 0 0 0 
Solution: 16 0
Classic Expectation: 10.666667
Initial Expecation: 8.000000
Gbest: 16.000000
Expectation: 13.714243
Final Parameters:
Gammas:
[ 4.523859 4.796619 3.191785 2.824905 4.390042 6.037269 ]
Betas:
[ 1.217501 3.141593 1.118161 2.401426 1.488414 1.295107 ]
Aggregate results:
[ 16 12 8 0 ]
[ 0.471316 0.501348 0.019626 0.007710 ]
5
Num Evals 4800
GenUC: 8.179981e-06
GenUB: 9.159383e-06
Optimisation 2.515307e+00
Total Time: 2.515352e+00
2 Flipped
Graph 1:
0 0 1 1 
0 0 0 0 
1 0 0 0 
1 0 0 0 
Graph 2:
1 1 0 0 
0 0 0 0 
0 0 0 1 
0 0 0 1 
Solution: 10 2
Classic Expectation: 9.333333
Initial Expecation: 7.000000
Gbest: 10.000000
Expectation: 9.999269
Final Parameters:
Gammas:
[ 3.769609 3.702069 3.132075 2.860346 6.230154 3.182754 ]
Betas:
[ 1.622531 0.979338 1.490483 1.546347 1.810221 2.407222 ]
Aggregate results:
[ 8 10 0 ]
[ 0.000352 0.999646 0.000003 ]
5
Num Evals 4800
GenUC: 1.094275e-05
GenUB: 1.847977e-06
Optimisation 2.438292e+00
Total Time: 2.438308e+00
3 Add 4
Graph 1:
0 0 1 1 
0 0 0 0 
1 0 0 0 
1 0 0 0 
Graph 2:
0 1 1 1 
1 1 1 1 
1 1 0 0 
1 1 0 0 
Solution: 9 0
Classic Expectation: 7.666667
Initial Expecation: 5.750000
Gbest: 9.000000
Expectation: 8.999751
Final Parameters:
Gammas:
[ 2.503862 4.720333 4.720843 5.541098 3.611689 3.655869 ]
Betas:
[ 1.344987 1.373203 1.789512 1.027249 1.309321 1.408135 ]
Aggregate results:
[ 9 5 0 ]
[ 0.999940 0.000059 0.000002 ]
5
Num Evals 4800
GenUC: 9.620038e-06
GenUB: 1.582084e-06
Optimisation 2.294370e+00
Total Time: 2.294384e+00
4 Rem 4
Graph 1:
0 0 1 1 
0 0 0 0 
1 0 0 0 
1 0 0 0 
Graph 2:
0 0 0 0 
0 0 0 0 
0 0 0 0 
0 0 0 0 
Solution: 12 0
Classic Expectation: 12.000000
Initial Expecation: 9.000000
Gbest: 12.000000
Expectation: 12.000000
Final Parameters:
Gammas:
[ 3.535668 4.910769 3.141595 4.712389 3.141443 4.123340 ]
Betas:
[ 1.374435 2.354848 1.245748 2.359154 1.902264 0.583744 ]
Aggregate results:
[ 12 0 ]
[ 1.000000 0.000000 ]
4
Num Evals 990
GenUC: 9.466894e-06
GenUB: 1.452398e-06
Optimisation 5.055662e-01
Total Time: 5.055801e-01
5 Add/Rem 4
Graph 1:
0 0 1 1 
0 0 0 0 
1 0 0 0 
1 0 0 0 
Graph 2:
0 1 0 0 
1 0 1 1 
0 1 0 0 
0 1 0 0 
Solution: 14 6
Classic Expectation: 10.000000
Initial Expecation: 7.500000
Gbest: 14.000000
Expectation: 11.609647
Final Parameters:
Gammas:
[ 2.749401 2.925664 3.194839 3.182137 0.397978 3.856804 ]
Betas:
[ 0.745034 0.936220 2.650524 2.308884 0.714809 1.553425 ]
Aggregate results:
[ 6 10 14 0 ]
[ 0.038952 0.483351 0.467316 0.010381 ]
5
Num Evals 4800
GenUC: 9.317824e-06
GenUB: 1.314562e-06
Optimisation 2.258775e+00
Total Time: 2.258788e+00
