Clock Speed: 3.689209
Num threads: 4
Trotterisation: 6
Num Qubits: 5
Space Dimension: 32
Run-Type: 0
Num_samples: 6399
Optimiser Method: 29
1 Isomorphic
Graph 1:
1 1 0 0 
1 1 1 0 
0 1 0 1 
0 1 1 0 
Graph 2:
1 1 0 0 
1 1 1 0 
0 1 0 1 
0 1 1 0 
Solution: 16 0
Classic Expectation: 8.166667
Initial Expecation: 6.125000
Gbest: 16.000000
Expectation: 11.052908
Final Parameters:
Gammas:
[ 2.781280 3.487985 3.041046 2.965307 2.142338 2.713257 ]
Betas:
[ 2.853579 1.343828 2.457499 2.626752 1.480588 1.504936 ]
Aggregate results:
[ 16 14 8 10 6 4 0 ]
[ 0.259538 0.083318 0.313597 0.312448 0.010694 0.009107 0.011298 ]
5
Num Evals 4800
GenUC: 8.610077e-06
GenUB: 9.420561e-06
Optimisation 2.692541e+00
Total Time: 2.692586e+00
2 Flipped
Graph 1:
1 1 0 0 
1 1 1 0 
0 1 0 1 
0 1 1 0 
Graph 2:
0 0 1 1 
0 1 1 1 
1 0 1 0 
0 1 1 0 
Solution: 12 2
Classic Expectation: 8.166667
Initial Expecation: 6.125000
Gbest: 12.000000
Expectation: 9.655054
Final Parameters:
Gammas:
[ 2.667494 3.595924 2.971824 4.146547 6.283185 4.363947 ]
Betas:
[ 1.291995 2.420752 1.836395 2.501761 1.606013 2.065290 ]
Aggregate results:
[ 6 12 10 8 4 0 ]
[ 0.086060 0.310084 0.427379 0.136908 0.012156 0.027412 ]
5
Num Evals 4800
GenUC: 9.451644e-06
GenUB: 1.902576e-06
Optimisation 2.690396e+00
Total Time: 2.690411e+00
3 Add 4
Graph 1:
1 1 0 0 
1 1 1 0 
0 1 0 1 
0 1 1 0 
Graph 2:
1 1 0 0 
1 1 1 0 
1 1 0 1 
1 1 1 0 
Solution: 14 0
Classic Expectation: 8.500000
Initial Expecation: 6.375000
Gbest: 14.000000
Expectation: 10.615330
Final Parameters:
Gammas:
[ 2.965202 2.919035 5.649079 3.336733 0.334675 3.709166 ]
Betas:
[ 1.637261 2.633844 0.886742 2.164512 2.184557 0.595954 ]
Aggregate results:
[ 14 12 8 6 10 0 ]
[ 0.240846 0.185967 0.293179 0.007214 0.262317 0.010477 ]
3
Num Evals 4352
GenUC: 9.817828e-06
GenUB: 1.704786e-06
Optimisation 2.301382e+00
Total Time: 2.301396e+00
4 Rem 4
Graph 1:
1 1 0 0 
1 1 1 0 
0 1 0 1 
0 1 1 0 
Graph 2:
1 1 0 0 
0 0 1 0 
0 1 0 1 
0 1 0 0 
Solution: 13 0
Classic Expectation: 7.833333
Initial Expecation: 5.875000
Gbest: 13.000000
Expectation: 9.245271
Final Parameters:
Gammas:
[ 3.600778 4.598308 3.318102 3.117400 4.485124 3.235105 ]
Betas:
[ 2.047153 0.998387 1.277813 2.263419 1.204029 2.070866 ]
Aggregate results:
[ 13 11 9 7 5 0 ]
[ 0.141494 0.110159 0.601873 0.073773 0.052165 0.020535 ]
5
Num Evals 4800
GenUC: 9.553682e-06
GenUB: 1.464156e-06
Optimisation 2.519007e+00
Total Time: 2.519021e+00
5 Add/Rem 4
Graph 1:
1 1 0 0 
1 1 1 0 
0 1 0 1 
0 1 1 0 
Graph 2:
0 0 1 1 
1 1 1 0 
1 1 0 1 
0 1 0 1 
Solution: 11 10
Classic Expectation: 8.333333
Initial Expecation: 6.250000
Gbest: 11.000000
Expectation: 9.485277
Final Parameters:
Gammas:
[ 3.525203 4.021854 5.144278 1.650637 4.804004 3.071343 ]
Betas:
[ 2.315344 1.872559 1.579118 1.069225 1.529474 2.336897 ]
Aggregate results:
[ 9 7 11 5 0 ]
[ 0.288605 0.105782 0.546260 0.027700 0.031653 ]
5
Num Evals 4800
GenUC: 9.744486e-06
GenUB: 1.462991e-06
Optimisation 2.506041e+00
Total Time: 2.506055e+00
