Clock Speed: 3.689140
Num threads: 4
Trotterisation: 6
Num Qubits: 5
Space Dimension: 32
Run-Type: 0
Num_samples: 6399
Optimiser Method: 29
1 Isomorphic
Graph 1:
0 1 1 1 
1 0 1 0 
0 1 1 1 
0 0 0 1 
Graph 2:
0 1 1 1 
1 0 1 0 
0 1 1 1 
0 0 0 1 
Solution: 16 0
Classic Expectation: 8.166667
Initial Expecation: 6.125000
Gbest: 16.000000
Expectation: 10.475620
Final Parameters:
Gammas:
[ 3.360291 3.121136 3.449742 3.210632 3.516970 2.786699 ]
Betas:
[ 2.836780 0.900689 1.222138 2.461375 1.818783 1.763704 ]
Aggregate results:
[ 16 10 8 12 6 4 0 ]
[ 0.351256 0.039443 0.247396 0.099682 0.173778 0.060770 0.027676 ]
5
Num Evals 4800
GenUC: 8.273229e-06
GenUB: 9.436975e-06
Optimisation 2.608800e+00
Total Time: 2.608835e+00
2 Flipped
Graph 1:
0 1 1 1 
1 0 1 0 
0 1 1 1 
0 0 0 1 
Graph 2:
1 1 1 0 
0 1 0 1 
1 1 1 0 
1 0 0 0 
Solution: 10 2
Classic Expectation: 8.000000
Initial Expecation: 6.000000
Gbest: 10.000000
Expectation: 9.433381
Final Parameters:
Gammas:
[ 2.757053 3.032755 3.435664 3.258418 3.365657 2.180826 ]
Betas:
[ 1.679891 1.661754 1.407822 0.833304 1.845393 1.607253 ]
Aggregate results:
[ 6 10 8 0 ]
[ 0.046092 0.786293 0.161738 0.005878 ]
5
Num Evals 4800
GenUC: 9.533192e-06
GenUB: 4.865462e-06
Optimisation 2.383577e+00
Total Time: 2.383602e+00
3 Add 4
Graph 1:
0 1 1 1 
1 0 1 0 
0 1 1 1 
0 0 0 1 
Graph 2:
0 1 1 1 
1 1 1 0 
1 1 1 1 
0 1 1 1 
Solution: 12 0
Classic Expectation: 8.666667
Initial Expecation: 6.500000
Gbest: 12.000000
Expectation: 10.293089
Final Parameters:
Gammas:
[ 3.300987 2.588321 3.973683 2.570790 0.174970 2.439655 ]
Betas:
[ 2.579984 2.711282 1.824142 2.380387 1.278568 1.931214 ]
Aggregate results:
[ 12 10 8 6 0 ]
[ 0.224545 0.713708 0.046887 0.014396 0.000464 ]
5
Num Evals 4800
GenUC: 1.012586e-05
GenUB: 1.752866e-06
Optimisation 2.802494e+00
Total Time: 2.802508e+00
4 Rem 4
Graph 1:
0 1 1 1 
1 0 1 0 
0 1 1 1 
0 0 0 1 
Graph 2:
0 0 1 0 
0 0 1 0 
0 1 0 1 
0 0 0 1 
Solution: 12 0
Classic Expectation: 7.666667
Initial Expecation: 5.750000
Gbest: 12.000000
Expectation: 8.846300
Final Parameters:
Gammas:
[ 3.292043 2.892429 3.787568 3.197754 3.682910 3.597495 ]
Betas:
[ 0.876307 2.879358 1.667661 1.731610 1.784057 1.644540 ]
Aggregate results:
[ 12 6 10 8 4 0 ]
[ 0.168752 0.164481 0.310961 0.330829 0.019537 0.005440 ]
5
Num Evals 4800
GenUC: 9.732670e-06
GenUB: 1.421315e-06
Optimisation 2.477884e+00
Total Time: 2.477897e+00
5 Add/Rem 4
Graph 1:
0 1 1 1 
1 0 1 0 
0 1 1 1 
0 0 0 1 
Graph 2:
1 1 1 0 
1 1 1 1 
0 1 0 1 
1 0 0 1 
Solution: 12 9
Classic Expectation: 8.333333
Initial Expecation: 6.250000
Gbest: 12.000000
Expectation: 9.725331
Final Parameters:
Gammas:
[ 3.598909 2.750713 3.263845 3.510837 3.733667 3.342041 ]
Betas:
[ 2.956861 2.705127 1.128863 0.339892 1.556235 1.772046 ]
Aggregate results:
[ 10 6 8 12 4 0 ]
[ 0.368342 0.019188 0.306842 0.289093 0.000733 0.015802 ]
5
Num Evals 4800
GenUC: 9.824231e-06
GenUB: 1.435983e-06
Optimisation 2.553178e+00
Total Time: 2.553192e+00
