Clock Speed: 3.688284
Num threads: 4
Trotterisation: 6
Num Qubits: 5
Space Dimension: 32
Run-Type: 0
Num_samples: 6399
Optimiser Method: 29
1 Isomorphic
Graph 1:
0 1 0 0 
0 0 1 0 
0 0 0 1 
0 0 1 1 
Graph 2:
0 1 0 0 
0 0 1 0 
0 0 0 1 
0 0 1 1 
Solution: 16 0
Classic Expectation: 9.166667
Initial Expecation: 6.875000
Gbest: 16.000000
Expectation: 12.481270
Final Parameters:
Gammas:
[ 3.039903 3.238983 2.947522 2.825930 3.313567 2.623497 ]
Betas:
[ 1.983840 0.591489 2.651259 2.434698 0.242564 2.914300 ]
Aggregate results:
[ 16 12 8 10 6 0 ]
[ 0.447048 0.022333 0.049211 0.463715 0.004944 0.012749 ]
5
Num Evals 4800
GenUC: 8.550182e-06
GenUB: 9.192852e-06
Optimisation 2.586197e+00
Total Time: 2.586233e+00
2 Flipped
Graph 1:
0 1 0 0 
0 0 1 0 
0 0 0 1 
0 0 1 1 
Graph 2:
0 0 1 0 
0 1 0 0 
1 0 0 0 
1 1 0 0 
Solution: 12 3
Classic Expectation: 9.166667
Initial Expecation: 6.875000
Gbest: 12.000000
Expectation: 11.525592
Final Parameters:
Gammas:
[ 3.002843 3.388158 3.191188 3.252579 3.685882 3.367542 ]
Betas:
[ 2.421158 2.378688 2.404610 1.974247 1.598298 1.774800 ]
Aggregate results:
[ 6 10 12 8 0 ]
[ 0.002707 0.139809 0.832933 0.014507 0.010043 ]
5
Num Evals 4800
GenUC: 9.557290e-06
GenUB: 1.918932e-06
Optimisation 2.828339e+00
Total Time: 2.828353e+00
3 Add 4
Graph 1:
0 1 0 0 
0 0 1 0 
0 0 0 1 
0 0 1 1 
Graph 2:
1 1 0 0 
0 1 1 0 
0 0 1 1 
0 1 1 1 
Solution: 12 0
Classic Expectation: 7.333333
Initial Expecation: 5.500000
Gbest: 12.000000
Expectation: 8.725677
Final Parameters:
Gammas:
[ 2.968723 4.554268 3.305528 3.827704 0.277311 4.747826 ]
Betas:
[ 2.011826 2.040209 1.417941 2.840098 1.583978 1.021842 ]
Aggregate results:
[ 12 10 6 8 4 0 ]
[ 0.227038 0.268101 0.084969 0.346718 0.009162 0.064011 ]
5
Num Evals 4800
GenUC: 1.032074e-05
GenUB: 1.769338e-06
Optimisation 2.621399e+00
Total Time: 2.621414e+00
4 Rem 4
Graph 1:
0 1 0 0 
0 0 1 0 
0 0 0 1 
0 0 1 1 
Graph 2:
0 1 0 0 
0 0 1 0 
0 0 0 0 
0 0 0 0 
Solution: 13 0
Classic Expectation: 10.333333
Initial Expecation: 7.750000
Gbest: 13.000000
Expectation: 12.155050
Final Parameters:
Gammas:
[ 2.506818 3.923884 3.560412 3.656481 0.907479 4.730956 ]
Betas:
[ 1.584726 1.236826 0.822754 1.730475 1.800787 1.876560 ]
Aggregate results:
[ 13 11 9 0 ]
[ 0.736571 0.207515 0.032997 0.022918 ]
5
Num Evals 4800
GenUC: 1.000206e-05
GenUB: 1.422537e-06
Optimisation 2.354168e+00
Total Time: 2.354182e+00
5 Add/Rem 4
Graph 1:
0 1 0 0 
0 0 1 0 
0 0 0 1 
0 0 1 1 
Graph 2:
1 0 1 0 
0 1 1 1 
0 0 0 0 
0 0 1 1 
Solution: 12 11
Classic Expectation: 8.166667
Initial Expecation: 6.125000
Gbest: 12.000000
Expectation: 8.928413
Final Parameters:
Gammas:
[ 2.617918 4.114025 3.632669 5.176922 1.547836 3.115538 ]
Betas:
[ 2.674575 1.673045 1.406673 2.068575 0.680904 2.639122 ]
Aggregate results:
[ 10 8 6 12 0 ]
[ 0.512523 0.197742 0.110222 0.129993 0.049520 ]
5
Num Evals 4800
GenUC: 9.743264e-06
GenUB: 1.499371e-06
Optimisation 2.707006e+00
Total Time: 2.707019e+00
