Clock Speed: 3.688613
Num threads: 4
Trotterisation: 6
Num Qubits: 7
Space Dimension: 128
Run-Type: 0
Num_samples: 15624
Optimiser Method: 0
1 Isomorphic
Graph 1:
0 0 1 0 0 
1 0 1 1 0 
0 0 1 0 0 
1 1 0 1 1 
1 1 1 1 0 
Graph 2:
0 0 1 0 0 
1 0 1 1 0 
0 0 1 0 0 
1 1 0 1 1 
1 1 1 1 0 
Solution: 25 0
Classic Expectation: 12.700000
Initial Expecation: 11.906250
Gbest: 25.000000
Expectation: 12.341531
Final Parameters:
Gammas:
[ 5.235988 2.443461 3.839724 2.443461 3.141593 3.141593 ]
Betas:
[ 2.617994 1.570796 2.617994 1.570796 1.570796 1.570796 ]
Aggregate results:
[ 25 19 17 11 9 13 23 15 21 5 7 0 ]
[ 0.006603 0.049068 0.063371 0.238424 0.125423 0.293545 0.003416 0.150180 0.000832 0.008069 0.030031 0.031038 ]
3
Num Evals 185
GenUC: 4.275452e-05
GenUB: 1.504942e-05
Optimisation 1.650510e-01
Total Time: 1.651378e-01
2 Flipped
Graph 1:
0 0 1 0 0 
1 0 1 1 0 
0 0 1 0 0 
1 1 0 1 1 
1 1 1 1 0 
Graph 2:
0 0 1 0 0 
0 1 1 0 1 
0 0 1 0 0 
1 1 0 1 1 
0 1 1 1 1 
Solution: 19 0
Classic Expectation: 12.100000
Initial Expecation: 11.343750
Gbest: 19.000000
Expectation: 11.343750
Final Parameters:
Gammas:
[ 1.047198 5.235988 3.141593 3.141593 3.141593 3.141593 ]
Betas:
[ 1.570796 1.570796 1.570796 1.570796 1.570796 1.570796 ]
Aggregate results:
[ 19 11 9 13 17 7 15 0 ]
[ 0.039062 0.320312 0.132812 0.265625 0.054687 0.046875 0.078125 0.062500 ]
3
Num Evals 29
GenUC: 4.601793e-05
GenUB: 2.946472e-06
Optimisation 2.377095e-02
Total Time: 2.382309e-02
3 Add 5
Graph 1:
0 0 1 0 0 
1 0 1 1 0 
0 0 1 0 0 
1 1 0 1 1 
1 1 1 1 0 
Graph 2:
1 1 1 0 0 
1 0 1 1 0 
0 0 1 1 0 
1 1 1 1 1 
1 1 1 1 0 
Solution: 21 0
Classic Expectation: 12.800000
Initial Expecation: 12.000000
Gbest: 21.000000
Expectation: 12.000000
Final Parameters:
Gammas:
[ 1.047198 3.141593 3.141593 5.235988 5.235988 3.141593 ]
Betas:
[ 1.570796 1.570796 1.570796 1.570796 1.570796 1.570796 ]
Aggregate results:
[ 21 17 13 9 11 15 19 7 0 ]
[ 0.007813 0.117188 0.203125 0.171875 0.195312 0.179688 0.031250 0.031250 0.062500 ]
3
Num Evals 47
GenUC: 4.526030e-05
GenUB: 2.495828e-06
Optimisation 3.837800e-02
Total Time: 3.842785e-02
4 Rem 5
Graph 1:
0 0 1 0 0 
1 0 1 1 0 
0 0 1 0 0 
1 1 0 1 1 
1 1 1 1 0 
Graph 2:
0 0 1 0 0 
0 0 0 1 0 
0 0 1 0 0 
0 0 0 1 1 
1 1 0 1 0 
Solution: 20 0
Classic Expectation: 12.200000
Initial Expecation: 11.437500
Gbest: 20.000000
Expectation: 11.437500
Final Parameters:
Gammas:
[ 1.047198 3.141593 3.141593 1.047198 3.141593 3.141593 ]
Betas:
[ 1.570796 1.570796 1.570796 1.570796 1.570796 1.570796 ]
Aggregate results:
[ 20 16 12 8 14 10 18 6 0 ]
[ 0.007813 0.125000 0.296875 0.101562 0.156250 0.210937 0.031250 0.007812 0.062500 ]
3
Num Evals 35
GenUC: 4.550559e-05
GenUB: 2.583256e-06
Optimisation 2.893429e-02
Total Time: 2.898465e-02
5 Add/Rem 5
Graph 1:
0 0 1 0 0 
1 0 1 1 0 
0 0 1 0 0 
1 1 0 1 1 
1 1 1 1 0 
Graph 2:
0 1 1 0 0 
0 1 1 0 0 
0 0 0 1 0 
1 1 1 1 0 
1 1 1 1 0 
Solution: 19 6
Classic Expectation: 12.700000
Initial Expecation: 11.906250
Gbest: 19.000000
Expectation: 12.353485
Final Parameters:
Gammas:
[ 3.141593 1.047198 5.235988 3.141593 3.141593 3.141593 ]
Betas:
[ 1.570796 1.570796 1.570796 0.523599 1.570796 1.570796 ]
Aggregate results:
[ 17 15 11 9 19 13 7 5 0 ]
[ 0.134552 0.272827 0.212387 0.083809 0.043617 0.144432 0.019493 0.008072 0.080811 ]
3
Num Evals 69
GenUC: 4.404027e-05
GenUB: 2.373185e-06
Optimisation 5.675286e-02
Total Time: 5.680127e-02
