Clock Speed: 3.689238
Num threads: 4
Trotterisation: 5
Graph Size: 6
Num Qubits: 10
Space Dimension: 1024
Run-Type: 0
Num_samples: 10
1 Isomorphic
Graph 1:
1 1 1 1 0 1 
0 1 1 0 0 1 
1 1 0 0 0 1 
0 1 0 0 1 0 
1 0 0 0 1 0 
1 0 0 0 1 1 
Graph 2:
1 1 1 1 0 1 
0 1 1 0 0 1 
1 1 0 0 0 1 
0 1 0 0 1 0 
1 0 0 0 1 0 
1 0 0 0 1 1 
Solution: 0 0
Gbest: -14.000000
Expectation: -18.680489
Final Parameters:
Gammas:
[ 3.081607 2.834693 3.037969 2.923585 2.755165 ]
Betas:
[ 1.048925 0.808115 1.407042 1.266577 1.503176 1.194986 ]
Aggregate results:
[ -1 9 11 5 15 17 13 7 19 23 21 27 25 35 ]
[ 0.003962 0.035975 0.071007 0.001268 0.213932 0.168478 0.147883 0.005697 0.157188 0.038684 0.053167 0.002612 0.003067 0.097079 ]
5
Num Evals 600
GenUC: 2.794663e-04
GenUB: 1.976459e-04
Optimisation 1.509819e+00
Total Time: 1.512512e+00
2 Flipped
Graph 1:
1 1 1 1 0 1 
0 1 1 0 0 1 
1 1 0 0 0 1 
0 1 0 0 1 0 
1 0 0 0 1 0 
1 0 0 0 1 1 
Graph 2:
1 0 1 1 1 1 
1 0 0 1 1 0 
1 0 0 0 1 1 
0 1 0 0 1 0 
0 1 0 0 0 1 
1 1 0 0 0 1 
Solution: -6 33
Gbest: -12.000000
Expectation: -18.762447
Final Parameters:
Gammas:
[ 2.971747 2.954144 2.759435 3.179421 3.140445 ]
Betas:
[ 0.645439 0.282230 0.835311 1.499186 2.477843 2.486744 ]
Aggregate results:
[ 15 13 21 17 19 23 27 9 5 11 25 7 35 ]
[ 0.299891 0.180013 0.049031 0.146080 0.062698 0.027888 0.010203 0.003400 0.002383 0.091334 0.014931 0.001533 0.110616 ]
5
Num Evals 1200
GenUC: 1.360666e-04
GenUB: 1.436439e-04
Optimisation 1.545243e+00
Total Time: 1.547710e+00
3 Add 6
Graph 1:
1 1 1 1 0 1 
0 1 1 0 0 1 
1 1 0 0 0 1 
0 1 0 0 1 0 
1 0 0 0 1 0 
1 0 0 0 1 1 
Graph 2:
1 1 1 1 0 1 
0 1 1 1 1 1 
1 1 1 0 0 1 
0 1 0 0 1 0 
1 0 0 0 1 0 
1 1 1 1 1 1 
Solution: -6 0
Gbest: -12.000000
Expectation: -19.578805
Final Parameters:
Gammas:
[ 3.067345 3.199864 3.912261 3.143114 2.947741 ]
Betas:
[ 1.559815 1.639955 1.820455 1.761920 2.615804 1.472181 ]
Aggregate results:
[ 5 11 13 9 19 15 17 23 21 27 25 7 35 ]
[ 0.002343 0.059672 0.119991 0.024679 0.173626 0.177376 0.225553 0.006766 0.078453 0.000484 0.006785 0.000021 0.124251 ]
5
Num Evals 1800
GenUC: 1.231181e-04
GenUB: 1.672377e-04
Optimisation 1.838573e+00
Total Time: 1.841425e+00
4 Rem 6
Graph 1:
1 1 1 1 0 1 
0 1 1 0 0 1 
1 1 0 0 0 1 
0 1 0 0 1 0 
1 0 0 0 1 0 
1 0 0 0 1 1 
Graph 2:
1 1 1 1 0 1 
0 1 1 0 0 1 
0 1 0 0 0 0 
0 0 0 0 1 0 
1 0 0 0 0 0 
0 0 0 0 1 1 
Solution: -5 0
Gbest: -13.000000
Expectation: -16.182951
Final Parameters:
Gammas:
[ 3.125757 3.139472 3.111119 3.384975 3.179810 ]
Betas:
[ 1.567403 1.956158 2.404220 1.518495 1.488653 1.470496 ]
Aggregate results:
[ 4 10 12 6 14 18 8 20 16 22 24 26 35 ]
[ 0.010063 0.037690 0.166044 0.009380 0.309188 0.133635 0.013264 0.023140 0.255275 0.008424 0.002667 0.001417 0.029813 ]
5
Num Evals 2400
GenUC: 1.240558e-04
GenUB: 1.726941e-04
Optimisation 1.638281e+00
Total Time: 1.641150e+00
5 Add/Rem 6
Graph 1:
1 1 1 1 0 1 
0 1 1 0 0 1 
1 1 0 0 0 1 
0 1 0 0 1 0 
1 0 0 0 1 0 
1 0 0 0 1 1 
Graph 2:
0 1 1 1 0 1 
1 1 1 0 0 0 
0 0 0 0 0 1 
1 1 0 0 1 1 
1 1 0 0 1 1 
0 0 0 1 1 1 
Solution: -7 159
Gbest: -9.000000
Expectation: -16.536787
Final Parameters:
Gammas:
[ 3.134208 3.146836 3.163757 3.364703 3.142122 ]
Betas:
[ 1.344719 1.943010 2.436308 1.553548 1.510526 1.445456 ]
Aggregate results:
[ 10 12 16 14 18 20 22 6 24 26 8 35 ]
[ 0.042689 0.181868 0.255540 0.285689 0.119915 0.046329 0.008279 0.004026 0.004332 0.003683 0.011839 0.035812 ]
5
Num Evals 3000
GenUC: 1.325702e-04
GenUB: 1.662413e-04
Optimisation 1.488284e+00
Total Time: 1.491171e+00
