Clock Speed: 3.498647
Num threads: 16
Trotterisation: 3
Num Qubits: 13
Space Dimension: 8192
Run-Type: 0
Num_samples: 49
Optimiser Method: 20
1 Isomorphic
Graph 1:
0 1 1 0 1 0 0 
1 0 0 0 0 1 1 
1 1 1 0 0 1 1 
1 0 0 0 0 1 0 
0 1 1 1 1 0 1 
1 1 0 0 1 0 1 
0 0 0 1 0 0 0 
Graph 2:
0 1 1 0 1 0 0 
1 0 0 0 0 1 1 
1 1 1 0 0 1 1 
1 0 0 0 0 1 0 
0 1 1 1 1 0 1 
1 1 0 0 1 0 1 
0 0 0 1 0 0 0 
Solution: 49 0
Classic Expectation: 25.142857
Initial Expecation: 15.468750
Gbest: 39.000000
Expectation: 20.457000
Final Parameters:
Gammas:
[ 6.214339 1.111308 5.177093 ]
Betas:
[ 0.610299 2.023033 3.141593 ]
Aggregate results:
[ 49 35 31 27 29 33 37 19 23 39 21 17 25 15 13 43 41 11 0 ]
[ 0.000017 0.006412 0.052894 0.145612 0.107998 0.019412 0.003527 0.047389 0.146449 0.000883 0.100250 0.015470 0.158051 0.006027 0.001300 0.000638 0.000001 0.000003 0.187667 ]
5
Num Evals 4200
GenUC: 2.271566e-03
GenUB: 1.242280e-03
Optimisation 1.182218e+02
Total Time: 1.182253e+02
2 Flipped
Graph 1:
0 1 1 0 1 0 0 
1 0 0 0 0 1 1 
1 1 1 0 0 1 1 
1 0 0 0 0 1 0 
0 1 1 1 1 0 1 
1 1 0 0 1 0 1 
0 0 0 1 0 0 0 
Graph 2:
0 0 1 0 1 1 0 
1 1 0 0 0 0 1 
1 1 0 0 1 1 1 
0 1 0 0 0 0 1 
1 0 1 1 1 1 0 
1 0 1 0 0 1 1 
0 0 0 1 0 0 0 
Solution: 39 200
Classic Expectation: 24.714286
Initial Expecation: 15.205078
Gbest: 33.000000
Expectation: 20.206683
Final Parameters:
Gammas:
[ 6.212991 6.283185 1.135797 ]
Betas:
[ 0.021489 1.338510 1.182941 ]
Aggregate results:
[ 31 29 27 21 23 25 19 17 35 33 37 39 15 11 0 ]
[ 0.036889 0.098783 0.145315 0.104095 0.164861 0.189807 0.039436 0.011704 0.003254 0.013806 0.000060 0.000205 0.001589 0.000013 0.190183 ]
5
Num Evals 4200
GenUC: 2.757218e-03
GenUB: 1.111240e-03
Optimisation 7.510235e+01
Total Time: 7.510622e+01
3 Add 7
Graph 1:
0 1 1 0 1 0 0 
1 0 0 0 0 1 1 
1 1 1 0 0 1 1 
1 0 0 0 0 1 0 
0 1 1 1 1 0 1 
1 1 0 0 1 0 1 
0 0 0 1 0 0 0 
Graph 2:
0 1 1 0 1 0 0 
1 0 0 0 0 1 1 
1 1 1 0 0 1 1 
1 0 0 1 0 1 0 
1 1 1 1 1 0 1 
1 1 1 0 1 1 1 
0 1 0 1 1 0 0 
Solution: 43 0
Classic Expectation: 24.285714
Initial Expecation: 14.941406
Gbest: 31.000000
Expectation: 18.369178
Final Parameters:
Gammas:
[ 5.579653 2.837540 0.804966 ]
Betas:
[ 1.380071 2.718842 1.054781 ]
Aggregate results:
[ 43 33 31 29 25 27 35 17 23 21 37 19 15 39 13 11 0 ]
[ 0.000120 0.008268 0.031517 0.072162 0.158885 0.128691 0.002692 0.023299 0.144946 0.120542 0.000912 0.053541 0.009515 0.000236 0.001037 0.000257 0.243381 ]
5
Num Evals 4200
GenUC: 2.809894e-03
GenUB: 1.210639e-03
Optimisation 1.153254e+02
Total Time: 1.153294e+02
4 Rem 7
Graph 1:
0 1 1 0 1 0 0 
1 0 0 0 0 1 1 
1 1 1 0 0 1 1 
1 0 0 0 0 1 0 
0 1 1 1 1 0 1 
1 1 0 0 1 0 1 
0 0 0 1 0 0 0 
Graph 2:
0 0 1 0 1 0 0 
1 0 0 0 0 1 1 
1 1 1 0 0 1 1 
0 0 0 0 0 0 0 
0 1 1 1 0 0 0 
0 1 0 0 1 0 0 
0 0 0 1 0 0 0 
Solution: 42 0
Classic Expectation: 25.571429
Initial Expecation: 15.732422
Gbest: 34.000000
Expectation: 22.977718
Final Parameters:
Gammas:
[ 3.206383 2.853146 5.625554 ]
Betas:
[ 0.712805 1.444129 1.531156 ]
Aggregate results:
[ 42 36 30 28 32 26 34 20 24 18 22 16 14 38 12 40 0 ]
[ 0.000128 0.007981 0.189981 0.216690 0.090950 0.159943 0.029424 0.027088 0.052392 0.019584 0.024104 0.008340 0.000687 0.000443 0.000308 0.000084 0.171872 ]
5
Num Evals 4200
GenUC: 2.819658e-03
GenUB: 1.080588e-03
Optimisation 9.748873e+01
Total Time: 9.749263e+01
5 Add/Rem 7
Graph 1:
0 1 1 0 1 0 0 
1 0 0 0 0 1 1 
1 1 1 0 0 1 1 
1 0 0 0 0 1 0 
0 1 1 1 1 0 1 
1 1 0 0 1 0 1 
0 0 0 1 0 0 0 
Graph 2:
0 1 1 0 1 0 0 
0 0 0 0 1 0 1 
1 1 0 1 0 1 0 
0 0 0 0 1 1 0 
0 0 0 1 1 0 1 
1 1 0 0 1 0 1 
0 1 0 1 1 0 0 
Solution: 37 0
Classic Expectation: 25.571429
Initial Expecation: 15.732422
Gbest: 33.000000
Expectation: 22.238021
Final Parameters:
Gammas:
[ 3.067183 3.668595 2.389922 ]
Betas:
[ 0.964544 0.170333 2.566005 ]
Aggregate results:
[ 37 27 25 35 29 31 23 21 17 33 19 15 13 0 ]
[ 0.000260 0.192131 0.200076 0.001195 0.130882 0.061835 0.158664 0.069779 0.005977 0.016626 0.026628 0.000886 0.000040 0.135020 ]
5
Num Evals 4200
GenUC: 2.818429e-03
GenUB: 1.188369e-03
Optimisation 9.321013e+01
Total Time: 9.321414e+01
