Clock Speed: 3.689317
Num threads: 4
Trotterisation: 1
Num Qubits: 3
Space Dimension: 8
Run-Type: 0
Num_samples: 2024
Optimiser Method: 29
1 Isomorphic
Graph 1:
1 0 1 
0 1 1 
1 1 1 
Graph 2:
1 0 1 
0 1 1 
1 1 1 
Solution: 9 0
Classic Expectation: 6.333333
Initial Expecation: 4.750000
Gbest: 9.000000
Expectation: 6.967456
Final Parameters:
Gammas:
[ 5.942507 ]
Betas:
[ 2.356180 ]
Aggregate results:
[ 9 5 0 ]
[ 0.494607 0.503198 0.002195 ]
3
Num Evals 116
GenUC: 2.732326e-06
GenUB: 7.847790e-06
Optimisation 9.179793e-03
Total Time: 9.208581e-03
2 Flipped
Graph 1:
1 0 1 
0 1 1 
1 1 1 
Graph 2:
1 0 1 
1 1 0 
1 1 1 
Solution: 7 0
Classic Expectation: 6.333333
Initial Expecation: 4.750000
Gbest: 7.000000
Expectation: 6.299019
Final Parameters:
Gammas:
[ 3.898975 ]
Betas:
[ 0.668228 ]
Aggregate results:
[ 7 5 0 ]
[ 0.839001 0.085203 0.075796 ]
3
Num Evals 102
GenUC: 2.407178e-06
GenUB: 8.767238e-07
Optimisation 4.434176e-03
Total Time: 4.438843e-03
3 Add 3
Graph 1:
1 0 1 
0 1 1 
1 1 1 
Graph 2:
1 1 1 
1 1 1 
1 1 1 
Solution: 7 0
Classic Expectation: 7.000000
Initial Expecation: 5.250000
Gbest: 7.000000
Expectation: 7.000000
Final Parameters:
Gammas:
[ 4.712389 ]
Betas:
[ 0.785398 ]
Aggregate results:
[ 7 0 ]
[ 1.000000 0.000000 ]
3
Num Evals 117
GenUC: 2.678309e-06
GenUB: 7.142080e-07
Optimisation 5.562279e-03
Total Time: 5.567050e-03
4 Rem 3
Graph 1:
1 0 1 
0 1 1 
1 1 1 
Graph 2:
1 0 0 
0 1 1 
0 1 1 
Solution: 7 0
Classic Expectation: 5.666667
Initial Expecation: 4.250000
Gbest: 7.000000
Expectation: 4.654757
Final Parameters:
Gammas:
[ 2.925851 ]
Betas:
[ 1.164774 ]
Aggregate results:
[ 7 3 0 ]
[ 0.492257 0.402985 0.104757 ]
3
Num Evals 91
GenUC: 2.410146e-06
GenUB: 6.877817e-07
Optimisation 4.804949e-03
Total Time: 4.809328e-03
5 Add/Rem 3
Graph 1:
1 0 1 
0 1 1 
1 1 1 
Graph 2:
1 1 0 
1 1 0 
1 0 1 
Solution: 8 3
Classic Expectation: 6.000000
Initial Expecation: 4.500000
Gbest: 8.000000
Expectation: 6.891563
Final Parameters:
Gammas:
[ 3.389720 ]
Betas:
[ 0.754678 ]
Aggregate results:
[ 4 6 8 0 ]
[ 0.086118 0.336212 0.566227 0.011443 ]
3
Num Evals 110
GenUC: 2.350833e-06
GenUB: 7.083290e-07
Optimisation 5.822360e-03
Total Time: 5.826610e-03
