Clock Speed: 3.688905
Num threads: 4
Trotterisation: 1
Num Qubits: 3
Space Dimension: 8
Run-Type: 0
Num_samples: 2024
Optimiser Method: 29
1 Isomorphic
Graph 1:
0 1 0 
0 1 0 
0 0 1 
Graph 2:
0 1 0 
0 1 0 
0 0 1 
Solution: 9 0
Classic Expectation: 6.000000
Initial Expecation: 4.500000
Gbest: 9.000000
Expectation: 5.504383
Final Parameters:
Gammas:
[ 4.694892 ]
Betas:
[ 2.361983 ]
Aggregate results:
[ 9 7 5 0 ]
[ 0.000256 0.254112 0.744660 0.000973 ]
3
Num Evals 98
GenUC: 2.554501e-06
GenUB: 6.499817e-06
Optimisation 7.324666e-03
Total Time: 7.353394e-03
2 Flipped
Graph 1:
0 1 0 
0 1 0 
0 0 1 
Graph 2:
0 1 0 
0 1 0 
1 0 0 
Solution: 7 0
Classic Expectation: 5.000000
Initial Expecation: 3.750000
Gbest: 7.000000
Expectation: 5.812744
Final Parameters:
Gammas:
[ 3.874654 ]
Betas:
[ 0.742926 ]
Aggregate results:
[ 7 5 3 0 ]
[ 0.691469 0.134343 0.100249 0.073940 ]
3
Num Evals 110
GenUC: 2.389017e-06
GenUB: 8.714560e-07
Optimisation 5.175358e-03
Total Time: 5.179898e-03
3 Add 3
Graph 1:
0 1 0 
0 1 0 
0 0 1 
Graph 2:
1 1 0 
1 1 0 
0 0 1 
Solution: 7 0
Classic Expectation: 5.666667
Initial Expecation: 4.250000
Gbest: 7.000000
Expectation: 5.516012
Final Parameters:
Gammas:
[ 4.744457 ]
Betas:
[ 2.356189 ]
Aggregate results:
[ 7 5 0 ]
[ 0.266023 0.730771 0.003207 ]
3
Num Evals 108
GenUC: 2.498156e-06
GenUB: 5.839102e-07
Optimisation 7.587285e-03
Total Time: 7.591508e-03
4 Rem 3
Graph 1:
0 1 0 
0 1 0 
0 0 1 
Graph 2:
0 0 0 
0 1 0 
0 0 0 
Solution: 7 0
Classic Expectation: 6.333333
Initial Expecation: 4.750000
Gbest: 7.000000
Expectation: 6.987746
Final Parameters:
Gammas:
[ 3.817331 ]
Betas:
[ 0.785395 ]
Aggregate results:
[ 7 5 0 ]
[ 0.993972 0.005989 0.000040 ]
3
Num Evals 110
GenUC: 2.406043e-06
GenUB: 6.097252e-07
Optimisation 5.001523e-03
Total Time: 5.005476e-03
5 Add/Rem 3
Graph 1:
0 1 0 
0 1 0 
0 0 1 
Graph 2:
0 0 1 
0 1 0 
0 0 0 
Solution: 8 1
Classic Expectation: 5.666667
Initial Expecation: 4.250000
Gbest: 8.000000
Expectation: 6.404529
Final Parameters:
Gammas:
[ 3.435814 ]
Betas:
[ 0.759378 ]
Aggregate results:
[ 6 8 4 0 ]
[ 0.646665 0.282847 0.065440 0.005048 ]
3
Num Evals 117
GenUC: 2.119050e-06
GenUB: 5.404581e-07
Optimisation 5.639671e-03
Total Time: 5.643194e-03
