Clock Speed: 3.688995
Num threads: 4
Trotterisation: 1
Num Qubits: 3
Space Dimension: 8
Run-Type: 0
Num_samples: 2024
Optimiser Method: 29
1 Isomorphic
Graph 1:
0 1 0 
1 0 0 
1 1 0 
Graph 2:
0 1 0 
1 0 0 
1 1 0 
Solution: 9 0
Classic Expectation: 6.333333
Initial Expecation: 4.750000
Gbest: 9.000000
Expectation: 6.967456
Final Parameters:
Gammas:
[ 5.942507 ]
Betas:
[ 2.356180 ]
Aggregate results:
[ 9 5 0 ]
[ 0.494607 0.503198 0.002195 ]
3
Num Evals 116
GenUC: 2.888439e-06
GenUB: 7.643539e-06
Optimisation 8.991232e-03
Total Time: 9.021810e-03
2 Flipped
Graph 1:
0 1 0 
1 0 0 
1 1 0 
Graph 2:
0 1 0 
0 0 1 
0 1 1 
Solution: 7 3
Classic Expectation: 5.000000
Initial Expecation: 3.750000
Gbest: 7.000000
Expectation: 5.118184
Final Parameters:
Gammas:
[ 4.789588 ]
Betas:
[ 0.769436 ]
Aggregate results:
[ 5 3 7 0 ]
[ 0.250000 0.308239 0.420495 0.021266 ]
3
Num Evals 103
GenUC: 2.425397e-06
GenUB: 8.761999e-07
Optimisation 4.627763e-03
Total Time: 4.632461e-03
3 Add 3
Graph 1:
0 1 0 
1 0 0 
1 1 0 
Graph 2:
0 1 1 
1 0 1 
1 1 0 
Solution: 7 0
Classic Expectation: 7.000000
Initial Expecation: 5.250000
Gbest: 7.000000
Expectation: 7.000000
Final Parameters:
Gammas:
[ 4.712389 ]
Betas:
[ 0.785398 ]
Aggregate results:
[ 7 0 ]
[ 1.000000 0.000000 ]
3
Num Evals 117
GenUC: 2.417190e-06
GenUB: 6.232294e-07
Optimisation 5.254028e-03
Total Time: 5.258202e-03
4 Rem 3
Graph 1:
0 1 0 
1 0 0 
1 1 0 
Graph 2:
0 1 0 
0 0 0 
1 0 0 
Solution: 7 0
Classic Expectation: 5.666667
Initial Expecation: 4.250000
Gbest: 7.000000
Expectation: 5.516012
Final Parameters:
Gammas:
[ 4.744457 ]
Betas:
[ 2.356189 ]
Aggregate results:
[ 7 5 0 ]
[ 0.266023 0.730771 0.003207 ]
3
Num Evals 108
GenUC: 2.372020e-06
GenUB: 6.132177e-07
Optimisation 7.676216e-03
Total Time: 7.680178e-03
5 Add/Rem 3
Graph 1:
0 1 0 
1 0 0 
1 1 0 
Graph 2:
0 0 1 
1 0 0 
0 1 1 
Solution: 5 0
Classic Expectation: 5.000000
Initial Expecation: 3.750000
Gbest: 5.000000
Expectation: 5.000000
Final Parameters:
Gammas:
[ 4.712389 ]
Betas:
[ 2.356194 ]
Aggregate results:
[ 5 0 ]
[ 1.000000 0.000000 ]
3
Num Evals 95
GenUC: 2.132554e-06
GenUB: 5.228212e-07
Optimisation 6.520452e-03
Total Time: 6.524112e-03
