Clock Speed: 3.689402
Num threads: 4
Trotterisation: 1
Num Qubits: 3
Space Dimension: 8
Run-Type: 0
Num_samples: 2024
Optimiser Method: 29
1 Isomorphic
Graph 1:
0 0 0 
0 1 1 
1 0 0 
Graph 2:
0 0 0 
0 1 1 
1 0 0 
Solution: 9 0
Classic Expectation: 5.000000
Initial Expecation: 3.750000
Gbest: 9.000000
Expectation: 5.767669
Final Parameters:
Gammas:
[ 3.575100 ]
Betas:
[ 2.153258 ]
Aggregate results:
[ 9 3 5 0 ]
[ 0.272692 0.011532 0.655770 0.060007 ]
3
Num Evals 115
GenUC: 2.769288e-06
GenUB: 8.233357e-06
Optimisation 2.708520e-02
Total Time: 2.711412e-02
2 Flipped
Graph 1:
0 0 0 
0 1 1 
1 0 0 
Graph 2:
0 0 0 
1 1 0 
0 0 1 
Solution: 7 1
Classic Expectation: 5.000000
Initial Expecation: 3.750000
Gbest: 7.000000
Expectation: 5.000000
Final Parameters:
Gammas:
[ 4.712389 ]
Betas:
[ 0.785398 ]
Aggregate results:
[ 5 7 3 0 ]
[ 0.250000 0.375000 0.375000 0.000000 ]
3
Num Evals 104
GenUC: 2.607296e-06
GenUB: 1.001754e-06
Optimisation 5.127096e-03
Total Time: 5.132508e-03
3 Add 3
Graph 1:
0 0 0 
0 1 1 
1 0 0 
Graph 2:
1 0 1 
1 1 1 
1 0 0 
Solution: 6 0
Classic Expectation: 4.000000
Initial Expecation: 3.000000
Gbest: 6.000000
Expectation: 5.094707
Final Parameters:
Gammas:
[ 5.927842 ]
Betas:
[ 2.397359 ]
Aggregate results:
[ 6 2 4 0 ]
[ 0.635591 0.045543 0.297518 0.021347 ]
3
Num Evals 111
GenUC: 2.633780e-06
GenUB: 7.135677e-07
Optimisation 7.927317e-03
Total Time: 7.932042e-03
4 Rem 3
Graph 1:
0 0 0 
0 1 1 
1 0 0 
Graph 2:
0 0 0 
0 1 0 
0 0 0 
Solution: 7 0
Classic Expectation: 5.666667
Initial Expecation: 4.250000
Gbest: 7.000000
Expectation: 5.981226
Final Parameters:
Gammas:
[ 6.009839 ]
Betas:
[ 2.407852 ]
Aggregate results:
[ 7 5 0 ]
[ 0.518462 0.470398 0.011140 ]
3
Num Evals 115
GenUC: 2.342626e-06
GenUB: 6.249757e-07
Optimisation 1.187033e-02
Total Time: 1.187440e-02
5 Add/Rem 3
Graph 1:
0 0 0 
0 1 1 
1 0 0 
Graph 2:
0 0 1 
0 1 0 
0 1 1 
Solution: 6 1
Classic Expectation: 4.666667
Initial Expecation: 3.500000
Gbest: 6.000000
Expectation: 5.034042
Final Parameters:
Gammas:
[ 3.508911 ]
Betas:
[ 0.578045 ]
Aggregate results:
[ 4 6 2 0 ]
[ 0.126405 0.735849 0.056666 0.081081 ]
3
Num Evals 105
GenUC: 2.335582e-06
GenUB: 6.085029e-07
Optimisation 4.397642e-03
Total Time: 4.402035e-03
