Clock Speed: 3.688901
Num threads: 4
Trotterisation: 1
Num Qubits: 3
Space Dimension: 8
Run-Type: 0
Num_samples: 2024
Optimiser Method: 29
1 Isomorphic
Graph 1:
1 0 0 
0 1 1 
0 1 1 
Graph 2:
1 0 0 
0 1 1 
0 1 1 
Solution: 9 0
Classic Expectation: 6.333333
Initial Expecation: 4.750000
Gbest: 9.000000
Expectation: 6.967456
Final Parameters:
Gammas:
[ 5.942507 ]
Betas:
[ 2.356180 ]
Aggregate results:
[ 9 5 0 ]
[ 0.494607 0.503198 0.002195 ]
3
Num Evals 116
GenUC: 2.670684e-06
GenUB: 7.773226e-06
Optimisation 8.549863e-03
Total Time: 8.588666e-03
2 Flipped
Graph 1:
1 0 0 
0 1 1 
0 1 1 
Graph 2:
0 0 1 
1 1 0 
1 1 0 
Solution: 5 2
Classic Expectation: 3.666667
Initial Expecation: 2.750000
Gbest: 5.000000
Expectation: 3.091789
Final Parameters:
Gammas:
[ 2.717405 ]
Betas:
[ 0.785343 ]
Aggregate results:
[ 3 5 0 ]
[ 0.926516 0.062448 0.011036 ]
3
Num Evals 95
GenUC: 2.357352e-06
GenUB: 9.043142e-07
Optimisation 4.186020e-03
Total Time: 4.190909e-03
3 Add 3
Graph 1:
1 0 0 
0 1 1 
0 1 1 
Graph 2:
1 1 1 
0 1 1 
0 1 1 
Solution: 7 0
Classic Expectation: 5.666667
Initial Expecation: 4.250000
Gbest: 7.000000
Expectation: 5.516012
Final Parameters:
Gammas:
[ 4.744457 ]
Betas:
[ 2.356189 ]
Aggregate results:
[ 7 5 0 ]
[ 0.266023 0.730771 0.003207 ]
3
Num Evals 108
GenUC: 2.428947e-06
GenUB: 5.780603e-07
Optimisation 8.485393e-03
Total Time: 8.489582e-03
4 Rem 3
Graph 1:
1 0 0 
0 1 1 
0 1 1 
Graph 2:
0 0 0 
0 1 0 
0 0 1 
Solution: 6 0
Classic Expectation: 6.000000
Initial Expecation: 4.500000
Gbest: 6.000000
Expectation: 6.000000
Final Parameters:
Gammas:
[ 2.356194 ]
Betas:
[ 0.785398 ]
Aggregate results:
[ 6 0 ]
[ 1.000000 0.000000 ]
3
Num Evals 100
GenUC: 2.298679e-06
GenUB: 6.637420e-07
Optimisation 4.494957e-03
Total Time: 4.498930e-03
5 Add/Rem 3
Graph 1:
1 0 0 
0 1 1 
0 1 1 
Graph 2:
0 1 0 
0 0 1 
1 1 0 
Solution: 4 0
Classic Expectation: 2.666667
Initial Expecation: 2.000000
Gbest: 4.000000
Expectation: 3.000000
Final Parameters:
Gammas:
[ 3.926991 ]
Betas:
[ 0.785398 ]
Aggregate results:
[ 4 2 0 ]
[ 0.500000 0.500000 0.000000 ]
3
Num Evals 102
GenUC: 2.161309e-06
GenUB: 5.539623e-07
Optimisation 4.554105e-03
Total Time: 4.557768e-03
