Clock Speed: 3.688837
Num threads: 4
Trotterisation: 1
Num Qubits: 13
Space Dimension: 8192
Run-Type: 0
Num_samples: 60024
Optimiser Method: 29
1 Isomorphic
Graph 1:
0 1 1 0 1 0 0 
1 0 0 1 0 1 1 
0 0 1 0 1 0 0 
0 0 0 0 1 0 0 
1 0 0 1 0 0 1 
1 1 0 0 0 0 0 
0 1 1 0 0 0 1 
Graph 2:
0 1 1 0 1 0 0 
1 0 0 1 0 1 1 
0 0 1 0 1 0 0 
0 0 0 0 1 0 0 
1 0 0 1 0 0 1 
1 1 0 0 0 0 0 
0 1 1 0 0 0 1 
Solution: 49 0
Classic Expectation: 26.333333
Initial Expecation: 16.201172
Gbest: 49.000000
Expectation: 20.882952
Final Parameters:
Gammas:
[ 3.190905 ]
Betas:
[ 2.605630 ]
Aggregate results:
[ 49 41 35 29 39 33 31 37 25 27 23 21 19 17 43 15 0 ]
[ 0.000183 0.000797 0.011906 0.124105 0.002340 0.026906 0.069806 0.004263 0.167317 0.167385 0.122300 0.068904 0.022257 0.006210 0.000594 0.000565 0.204162 ]
3
Num Evals 131
GenUC: 2.109233e-03
GenUB: 8.426903e-04
Optimisation 5.965644e-01
Total Time: 5.995343e-01
2 Flipped
Graph 1:
0 1 1 0 1 0 0 
1 0 0 1 0 1 1 
0 0 1 0 1 0 0 
0 0 0 0 1 0 0 
1 0 0 1 0 0 1 
1 1 0 0 0 0 0 
0 1 1 0 0 0 1 
Graph 2:
0 0 1 0 1 1 0 
1 1 0 1 0 0 1 
0 0 1 0 1 0 0 
0 0 1 0 0 0 0 
1 0 0 1 0 0 1 
0 0 0 0 0 1 1 
1 0 0 0 1 1 0 
Solution: 39 2945
Classic Expectation: 26.142857
Initial Expecation: 16.083984
Gbest: 39.000000
Expectation: 20.440436
Final Parameters:
Gammas:
[ 2.956874 ]
Betas:
[ 2.517081 ]
Aggregate results:
[ 33 35 29 27 25 23 31 21 37 19 17 15 39 0 ]
[ 0.033508 0.005739 0.125092 0.169421 0.163542 0.124816 0.076364 0.051547 0.000993 0.022095 0.003798 0.000006 0.000039 0.223041 ]
3
Num Evals 135
GenUC: 2.192639e-03
GenUB: 7.560608e-04
Optimisation 5.978928e-01
Total Time: 6.008442e-01
3 Add 7
Graph 1:
0 1 1 0 1 0 0 
1 0 0 1 0 1 1 
0 0 1 0 1 0 0 
0 0 0 0 1 0 0 
1 0 0 1 0 0 1 
1 1 0 0 0 0 0 
0 1 1 0 0 0 1 
Graph 2:
0 1 1 0 1 0 1 
1 1 0 1 0 1 1 
1 0 1 0 1 0 0 
0 0 0 0 1 0 0 
1 1 0 1 0 0 1 
1 1 0 1 1 0 0 
0 1 1 0 1 0 1 
Solution: 42 0
Classic Expectation: 24.476190
Initial Expecation: 15.058594
Gbest: 42.000000
Expectation: 17.325138
Final Parameters:
Gammas:
[ 0.430656 ]
Betas:
[ 2.511530 ]
Aggregate results:
[ 42 34 32 28 26 30 36 24 22 20 18 16 14 38 0 ]
[ 0.000388 0.006681 0.016045 0.096516 0.142370 0.042261 0.001430 0.166829 0.121905 0.068187 0.029179 0.013739 0.001006 0.000952 0.292511 ]
3
Num Evals 131
GenUC: 2.308552e-03
GenUB: 8.123484e-04
Optimisation 5.970070e-01
Total Time: 6.001308e-01
4 Rem 7
Graph 1:
0 1 1 0 1 0 0 
1 0 0 1 0 1 1 
0 0 1 0 1 0 0 
0 0 0 0 1 0 0 
1 0 0 1 0 0 1 
1 1 0 0 0 0 0 
0 1 1 0 0 0 1 
Graph 2:
0 0 1 0 0 0 0 
1 0 0 0 0 0 0 
0 0 1 0 1 0 0 
0 0 0 0 1 0 0 
0 0 0 1 0 0 1 
1 1 0 0 0 0 0 
0 1 0 0 0 0 1 
Solution: 42 0
Classic Expectation: 28.000000
Initial Expecation: 17.226563
Gbest: 42.000000
Expectation: 18.935869
Final Parameters:
Gammas:
[ 2.367770 ]
Betas:
[ 2.444038 ]
Aggregate results:
[ 42 36 32 30 28 38 34 26 24 22 40 20 0 ]
[ 0.000194 0.006304 0.068075 0.132557 0.176336 0.001560 0.025513 0.158113 0.081977 0.024191 0.000277 0.002993 0.321910 ]
3
Num Evals 111
GenUC: 2.129806e-03
GenUB: 7.888755e-04
Optimisation 4.849877e-01
Total Time: 4.879088e-01
5 Add/Rem 7
Graph 1:
0 1 1 0 1 0 0 
1 0 0 1 0 1 1 
0 0 1 0 1 0 0 
0 0 0 0 1 0 0 
1 0 0 1 0 0 1 
1 1 0 0 0 0 0 
0 1 1 0 0 0 1 
Graph 2:
0 1 1 1 1 0 0 
1 0 0 1 1 0 1 
0 0 1 0 1 0 0 
0 0 0 0 0 0 1 
1 0 0 1 0 0 1 
0 0 0 0 0 1 0 
1 0 1 1 0 0 1 
Solution: 38 0
Classic Expectation: 25.904762
Initial Expecation: 15.937500
Gbest: 38.000000
Expectation: 17.617927
Final Parameters:
Gammas:
[ 0.649151 ]
Betas:
[ 2.422927 ]
Aggregate results:
[ 38 36 32 28 34 30 26 24 22 18 20 16 14 0 ]
[ 0.000243 0.001086 0.038973 0.121507 0.009117 0.082173 0.150699 0.132789 0.093429 0.012396 0.036172 0.002253 0.000136 0.319027 ]
3
Num Evals 108
GenUC: 2.152271e-03
GenUB: 7.579809e-04
Optimisation 4.739651e-01
Total Time: 4.768778e-01
