Clock Speed: 3.689403
Num threads: 4
Trotterisation: 1
Num Qubits: 13
Space Dimension: 8192
Run-Type: 0
Num_samples: 60024
Optimiser Method: 29
1 Isomorphic
Graph 1:
1 0 1 1 0 1 1 
0 0 0 0 1 0 0 
1 1 1 1 0 1 1 
1 0 0 0 1 0 0 
0 0 0 0 1 1 0 
1 1 1 0 1 1 1 
0 0 1 1 0 1 1 
Graph 2:
1 0 1 1 0 1 1 
0 0 0 0 1 0 0 
1 1 1 1 0 1 1 
1 0 0 0 1 0 0 
0 0 0 0 1 1 0 
1 1 1 0 1 1 1 
0 0 1 1 0 1 1 
Solution: 49 0
Classic Expectation: 25.142857
Initial Expecation: 15.468750
Gbest: 49.000000
Expectation: 19.279782
Final Parameters:
Gammas:
[ 2.947586 ]
Betas:
[ 2.546550 ]
Aggregate results:
[ 49 39 31 29 37 27 33 25 35 23 21 43 45 17 19 41 15 13 0 ]
[ 0.000226 0.002914 0.050817 0.100209 0.005717 0.129901 0.024015 0.136454 0.008595 0.139764 0.079088 0.000600 0.000214 0.013898 0.061119 0.000314 0.008230 0.000423 0.237503 ]
3
Num Evals 120
GenUC: 2.122788e-03
GenUB: 7.996483e-04
Optimisation 5.241413e-01
Total Time: 5.270832e-01
2 Flipped
Graph 1:
1 0 1 1 0 1 1 
0 0 0 0 1 0 0 
1 1 1 1 0 1 1 
1 0 0 0 1 0 0 
0 0 0 0 1 1 0 
1 1 1 0 1 1 1 
0 0 1 1 0 1 1 
Graph 2:
1 1 0 1 1 0 1 
0 0 1 0 0 0 0 
1 1 0 1 1 1 1 
0 0 1 0 0 0 1 
0 1 1 0 0 0 0 
1 1 1 0 1 1 1 
1 1 0 1 1 0 0 
Solution: 35 450
Classic Expectation: 23.857143
Initial Expecation: 14.677734
Gbest: 35.000000
Expectation: 17.763101
Final Parameters:
Gammas:
[ 3.448308 ]
Betas:
[ 2.626257 ]
Aggregate results:
[ 27 25 29 21 23 31 19 33 17 35 15 13 11 0 ]
[ 0.119351 0.170252 0.077882 0.110288 0.153318 0.019049 0.049629 0.002537 0.019510 0.000243 0.008676 0.006201 0.001386 0.261677 ]
3
Num Evals 115
GenUC: 2.276833e-03
GenUB: 7.597844e-04
Optimisation 5.045930e-01
Total Time: 5.076322e-01
3 Add 7
Graph 1:
1 0 1 1 0 1 1 
0 0 0 0 1 0 0 
1 1 1 1 0 1 1 
1 0 0 0 1 0 0 
0 0 0 0 1 1 0 
1 1 1 0 1 1 1 
0 0 1 1 0 1 1 
Graph 2:
1 0 1 1 0 1 1 
1 0 0 0 1 1 1 
1 1 1 1 0 1 1 
1 0 0 0 1 0 1 
0 0 0 1 1 1 1 
1 1 1 0 1 1 1 
0 0 1 1 0 1 1 
Solution: 43 0
Classic Expectation: 25.142857
Initial Expecation: 15.468750
Gbest: 43.000000
Expectation: 20.032376
Final Parameters:
Gammas:
[ 3.190571 ]
Betas:
[ 2.576386 ]
Aggregate results:
[ 43 35 29 37 27 25 31 23 21 33 39 19 17 15 41 0 ]
[ 0.000071 0.004331 0.090758 0.001472 0.152089 0.188845 0.042909 0.161261 0.091534 0.014665 0.000590 0.037764 0.009034 0.000639 0.000360 0.203679 ]
3
Num Evals 134
GenUC: 2.125524e-03
GenUB: 7.577211e-04
Optimisation 5.885963e-01
Total Time: 5.914820e-01
4 Rem 7
Graph 1:
1 0 1 1 0 1 1 
0 0 0 0 1 0 0 
1 1 1 1 0 1 1 
1 0 0 0 1 0 0 
0 0 0 0 1 1 0 
1 1 1 0 1 1 1 
0 0 1 1 0 1 1 
Graph 2:
0 0 1 1 0 1 0 
0 0 0 0 0 0 0 
1 1 0 1 0 1 1 
1 0 0 0 1 0 0 
0 0 0 0 0 1 0 
1 1 1 0 1 1 0 
0 0 1 0 0 1 1 
Solution: 42 0
Classic Expectation: 23.857143
Initial Expecation: 14.677734
Gbest: 42.000000
Expectation: 16.083760
Final Parameters:
Gammas:
[ 1.511111 ]
Betas:
[ 2.414509 ]
Aggregate results:
[ 42 34 28 26 30 36 32 24 22 20 38 18 16 14 12 40 0 ]
[ 0.000293 0.005216 0.084063 0.116962 0.042087 0.002096 0.023267 0.123956 0.113266 0.080797 0.000400 0.046546 0.022790 0.007347 0.000862 0.000078 0.329975 ]
3
Num Evals 101
GenUC: 2.267666e-03
GenUB: 7.594658e-04
Optimisation 4.303355e-01
Total Time: 4.333655e-01
5 Add/Rem 7
Graph 1:
1 0 1 1 0 1 1 
0 0 0 0 1 0 0 
1 1 1 1 0 1 1 
1 0 0 0 1 0 0 
0 0 0 0 1 1 0 
1 1 1 0 1 1 1 
0 0 1 1 0 1 1 
Graph 2:
0 0 1 1 0 1 0 
1 0 0 1 1 0 0 
1 1 0 1 0 1 1 
0 1 0 1 0 1 0 
1 0 0 0 0 1 0 
1 1 1 0 1 0 1 
1 0 1 1 0 1 1 
Solution: 37 4473
Classic Expectation: 23.857143
Initial Expecation: 14.677734
Gbest: 37.000000
Expectation: 18.498003
Final Parameters:
Gammas:
[ 2.938856 ]
Betas:
[ 2.533840 ]
Aggregate results:
[ 35 27 23 21 31 25 29 19 17 33 15 13 37 0 ]
[ 0.000116 0.120406 0.173604 0.126599 0.023300 0.160891 0.066950 0.065652 0.021011 0.007142 0.003298 0.000603 0.000210 0.230216 ]
3
Num Evals 131
GenUC: 2.278423e-03
GenUB: 7.598420e-04
Optimisation 5.748095e-01
Total Time: 5.778502e-01
