Clock Speed: 3.689058
Num threads: 4
Trotterisation: 4
Num Qubits: 3
Space Dimension: 8
Run-Type: 0
Num_samples: 3
Optimiser Method: 20
1 Isomorphic
Graph 1:
0 1 0 
1 0 0 
0 0 0 
Graph 2:
0 1 0 
1 0 0 
0 0 0 
Solution: 9 0
Classic Expectation: 6.333333
Initial Expecation: 4.750000
Gbest: 5.000000
Expectation: 7.000000
Final Parameters:
Gammas:
[ 1.823086 2.490024 3.274954 2.899318 ]
Betas:
[ 2.447260 1.513094 1.971915 1.180887 ]
Aggregate results:
[ 9 5 0 ]
[ 0.500000 0.500000 0.000000 ]
5
Num Evals 2400
GenUC: 2.570931e-06
GenUB: 7.237482e-06
Optimisation 2.001425e+01
Total Time: 2.001429e+01
2 Flipped
Graph 1:
0 1 0 
1 0 0 
0 0 0 
Graph 2:
0 1 0 
0 0 1 
0 0 0 
Solution: 7 0
Classic Expectation: 6.333333
Initial Expecation: 4.750000
Gbest: 7.000000
Expectation: 6.983993
Final Parameters:
Gammas:
[ 2.226560 6.283185 0.921484 5.322231 ]
Betas:
[ 0.258353 1.282690 0.799035 3.141593 ]
Aggregate results:
[ 7 5 0 ]
[ 0.992064 0.007908 0.000027 ]
5
Num Evals 2400
GenUC: 2.856730e-06
GenUB: 1.061009e-06
Optimisation 1.909812e+01
Total Time: 1.909813e+01
3 Add 3
Graph 1:
0 1 0 
1 0 0 
0 0 0 
Graph 2:
0 1 1 
1 1 0 
1 0 0 
Solution: 6 0
Classic Expectation: 4.666667
Initial Expecation: 3.500000
Gbest: 6.000000
Expectation: 5.995422
Final Parameters:
Gammas:
[ 3.949125 2.916140 1.143303 3.642416 ]
Betas:
[ 1.774303 0.680229 0.925596 0.852322 ]
Aggregate results:
[ 6 2 0 ]
[ 0.998914 0.000970 0.000116 ]
5
Num Evals 2400
GenUC: 2.830915e-06
GenUB: 8.931675e-07
Optimisation 1.679598e+01
Total Time: 1.679598e+01
4 Rem 3
Graph 1:
0 1 0 
1 0 0 
0 0 0 
Graph 2:
0 0 0 
0 0 0 
0 0 0 
Solution: 7 0
Classic Expectation: 7.000000
Initial Expecation: 5.250000
Gbest: 7.000000
Expectation: 7.000000
Final Parameters:
Gammas:
[ 3.427778 1.970465 1.153031 6.123920 ]
Betas:
[ 1.941272 2.427014 0.610514 1.225082 ]
Aggregate results:
[ 7 0 ]
[ 1.000000 0.000000 ]
5
Num Evals 2400
GenUC: 2.689485e-06
GenUB: 1.161359e-06
Optimisation 2.099978e+01
Total Time: 2.099979e+01
5 Add/Rem 3
Graph 1:
0 1 0 
1 0 0 
0 0 0 
Graph 2:
1 0 1 
0 1 0 
1 0 0 
Solution: 7 1
Classic Expectation: 4.333333
Initial Expecation: 3.250000
Gbest: 7.000000
Expectation: 6.894614
Final Parameters:
Gammas:
[ 4.907891 2.731571 2.823122 3.657828 ]
Betas:
[ 3.141522 1.143057 1.700917 0.558773 ]
Aggregate results:
[ 3 7 0 ]
[ 0.019014 0.976796 0.004190 ]
5
Num Evals 2400
GenUC: 2.715897e-06
GenUB: 8.949282e-07
Optimisation 1.955309e+01
Total Time: 1.955310e+01
