Clock Speed: 3.689428
Num threads: 4
Trotterisation: 4
Num Qubits: 3
Space Dimension: 8
Run-Type: 0
Num_samples: 3
Optimiser Method: 20
1 Isomorphic
Graph 1:
0 1 0 
1 0 1 
0 1 0 
Graph 2:
0 1 0 
1 0 1 
0 1 0 
Solution: 9 0
Classic Expectation: 6.333333
Initial Expecation: 4.750000
Gbest: 9.000000
Expectation: 8.728801
Final Parameters:
Gammas:
[ 6.008175 1.915108 6.283185 2.146068 ]
Betas:
[ 2.145827 1.838887 3.109163 1.900127 ]
Aggregate results:
[ 9 5 0 ]
[ 0.940785 0.052348 0.006867 ]
5
Num Evals 2400
GenUC: 2.599729e-06
GenUB: 7.931143e-06
Optimisation 6.780287e-01
Total Time: 6.780674e-01
2 Flipped
Graph 1:
0 1 0 
1 0 1 
0 1 0 
Graph 2:
0 1 0 
1 0 1 
0 1 0 
Solution: 9 0
Classic Expectation: 6.333333
Initial Expecation: 4.750000
Gbest: 9.000000
Expectation: 8.913989
Final Parameters:
Gammas:
[ 0.256510 2.014558 5.586056 3.938325 ]
Betas:
[ 0.876318 0.251969 1.007989 1.928862 ]
Aggregate results:
[ 9 5 0 ]
[ 0.980502 0.017895 0.001604 ]
5
Num Evals 2400
GenUC: 2.603803e-06
GenUB: 9.277719e-07
Optimisation 4.750494e-01
Total Time: 4.750552e-01
3 Add 3
Graph 1:
0 1 0 
1 0 1 
0 1 0 
Graph 2:
1 1 1 
1 1 1 
1 1 0 
Solution: 5 0
Classic Expectation: 5.000000
Initial Expecation: 3.750000
Gbest: 5.000000
Expectation: 5.000000
Final Parameters:
Gammas:
[ 6.272958 0.785557 0.762452 4.745855 ]
Betas:
[ 2.775761 0.760803 1.302121 2.856711 ]
Aggregate results:
[ 5 0 ]
[ 1.000000 0.000000 ]
5
Num Evals 2400
GenUC: 2.738147e-06
GenUB: 8.502975e-07
Optimisation 5.846994e-01
Total Time: 5.847057e-01
4 Rem 3
Graph 1:
0 1 0 
1 0 1 
0 1 0 
Graph 2:
0 0 0 
0 0 0 
0 0 0 
Solution: 5 0
Classic Expectation: 5.000000
Initial Expecation: 3.750000
Gbest: 5.000000
Expectation: 5.000000
Final Parameters:
Gammas:
[ 1.884350 0.652646 0.878809 2.957141 ]
Betas:
[ 1.751338 0.938781 2.278331 2.917597 ]
Aggregate results:
[ 5 0 ]
[ 1.000000 0.000000 ]
5
Num Evals 2400
GenUC: 2.526329e-06
GenUB: 6.942428e-07
Optimisation 6.792908e-01
Total Time: 6.792957e-01
5 Add/Rem 3
Graph 1:
0 1 0 
1 0 1 
0 1 0 
Graph 2:
1 0 1 
0 1 0 
1 0 0 
Solution: 5 1
Classic Expectation: 3.666667
Initial Expecation: 2.750000
Gbest: 5.000000
Expectation: 4.999597
Final Parameters:
Gammas:
[ 0.523540 4.695001 4.879856 3.716238 ]
Betas:
[ 2.788060 2.724463 1.771513 0.577244 ]
Aggregate results:
[ 1 5 0 ]
[ 0.000091 0.999901 0.000008 ]
5
Num Evals 2400
GenUC: 2.365559e-06
GenUB: 7.076887e-07
Optimisation 6.312927e-01
Total Time: 6.312976e-01
