Clock Speed: 3.689392
Num threads: 4
Trotterisation: 4
Graph Size: 5
Num Qubits: 7
Space Dimension: 128
Run-Type: 0
Num_samples: 10
1 Isomorphic
Graph 1:
0 0 0 0 0 
1 1 0 1 0 
0 0 1 1 1 
0 0 1 1 0 
0 1 1 1 0 
Graph 2:
0 0 0 0 0 
1 1 0 1 0 
0 0 1 1 1 
0 0 1 1 0 
0 1 1 1 0 
Solution: 0 0
Gbest: -8.000000
Expectation: -10.186067
Final Parameters:
Gammas:
[ 2.802969 3.250867 2.863215 3.051149 ]
Betas:
[ 1.584116 1.721712 0.962720 1.982896 1.909328 ]
Aggregate results:
[ -1 7 11 5 13 9 3 15 19 24 ]
[ 0.052588 0.184149 0.298455 0.111046 0.098078 0.190450 0.000439 0.045159 0.005535 0.014102 ]
5
Num Evals 501
GenUC: 2.371469e-04
GenUB: 2.984310e-05
Optimisation 3.117594e-01
Total Time: 3.126498e-01
2 Flipped
Graph 1:
0 0 0 0 0 
1 1 0 1 0 
0 0 1 1 1 
0 0 1 1 0 
0 1 1 1 0 
Graph 2:
0 0 0 0 0 
0 1 0 1 1 
1 1 1 0 0 
0 1 1 0 0 
0 1 1 1 0 
Solution: -4 3
Gbest: -10.000000
Expectation: -10.558516
Final Parameters:
Gammas:
[ 3.115409 3.172429 2.960605 3.118295 ]
Betas:
[ 1.278339 1.623373 1.324875 1.628934 1.787738 ]
Aggregate results:
[ 7 13 9 3 5 11 15 17 24 ]
[ 0.073723 0.129583 0.333756 0.102895 0.034294 0.264968 0.053267 0.002870 0.004645 ]
5
Num Evals 1002
GenUC: 2.483561e-05
GenUB: 1.767324e-05
Optimisation 2.834625e-01
Total Time: 2.840738e-01
3 Add 5
Graph 1:
0 0 0 0 0 
1 1 0 1 0 
0 0 1 1 1 
0 0 1 1 0 
0 1 1 1 0 
Graph 2:
0 1 0 0 0 
1 1 1 1 0 
1 0 1 1 1 
1 0 1 1 0 
1 1 1 1 0 
Solution: -5 0
Gbest: -5.000000
Expectation: -11.075535
Final Parameters:
Gammas:
[ 2.994723 3.279356 3.226146 3.263585 ]
Betas:
[ 1.635502 1.372677 1.908510 1.917794 2.215524 ]
Aggregate results:
[ 4 8 14 12 10 6 16 18 24 ]
[ 0.085828 0.208419 0.066766 0.283874 0.329586 0.006331 0.006364 0.003327 0.009504 ]
5
Num Evals 1503
GenUC: 2.246245e-05
GenUB: 2.054876e-05
Optimisation 3.219952e-01
Total Time: 3.226536e-01
4 Rem 5
Graph 1:
0 0 0 0 0 
1 1 0 1 0 
0 0 1 1 1 
0 0 1 1 0 
0 1 1 1 0 
Graph 2:
0 0 0 0 0 
1 1 0 1 0 
0 0 1 0 0 
0 0 1 0 0 
0 0 1 1 0 
Solution: -4 0
Gbest: -4.000000
Expectation: -9.485807
Final Parameters:
Gammas:
[ 3.204526 3.165687 3.090595 3.421322 ]
Betas:
[ 2.728625 1.116789 2.472086 0.815604 2.855132 ]
Aggregate results:
[ 3 9 11 7 5 13 17 15 24 ]
[ 0.123796 0.354717 0.188571 0.200013 0.049005 0.062025 0.000839 0.013646 0.007387 ]
5
Num Evals 2008
GenUC: 2.320655e-05
GenUB: 1.701538e-05
Optimisation 3.219399e-01
Total Time: 3.226338e-01
5 Add/Rem 5
Graph 1:
0 0 0 0 0 
1 1 0 1 0 
0 0 1 1 1 
0 0 1 1 0 
0 1 1 1 0 
Graph 2:
0 0 1 0 0 
0 1 1 0 0 
0 0 1 0 1 
0 0 1 1 1 
0 1 1 0 1 
Solution: -6 11
Gbest: -8.000000
Expectation: -10.264293
Final Parameters:
Gammas:
[ 3.107926 2.880731 2.990969 3.460254 ]
Betas:
[ 1.639487 1.437136 1.505007 1.653357 1.762318 ]
Aggregate results:
[ 7 11 13 15 9 5 24 ]
[ 0.280162 0.268318 0.091576 0.014020 0.271921 0.066973 0.007030 ]
5
Num Evals 2523
GenUC: 2.428514e-05
GenUB: 1.750365e-05
Optimisation 2.936063e-01
Total Time: 2.942346e-01
