Clock Speed: 3.688854
Num threads: 4
Trotterisation: 1
Graph Size: 5
Num Qubits: 7
Space Dimension: 128
Run-Type: 0
Num_samples: 10
1 Isomorphic
Graph 1:
1 0 0 1 0 
1 1 1 0 1 
1 1 1 1 0 
1 1 0 0 1 
1 0 0 1 1 
Graph 2:
1 0 0 1 0 
1 1 1 0 1 
1 1 1 1 0 
1 1 0 0 1 
1 0 0 1 1 
Solution: 0 0
Gbest: -8.000000
Expectation: -11.604940
Final Parameters:
Gammas:
[ 0.349066 ]
Betas:
[ 2.268928 0.523599 ]
Aggregate results:
[ -1 9 11 5 7 13 3 17 15 24 ]
[ 0.001667 0.342447 0.242468 0.042482 0.105817 0.169817 0.019818 0.005108 0.015405 0.054972 ]
3
Num Evals 43
GenUC: 1.288701e-04
GenUB: 3.041932e-05
Optimisation 1.050989e-02
Total Time: 1.091481e-02
2 Flipped
Graph 1:
1 0 0 1 0 
1 1 1 0 1 
1 1 1 1 0 
1 1 0 0 1 
1 0 0 1 1 
Graph 2:
0 1 0 0 1 
1 0 1 1 1 
0 1 1 1 1 
1 0 0 1 1 
1 1 0 0 1 
Solution: -4 106
Gbest: -6.000000
Expectation: -11.838689
Final Parameters:
Gammas:
[ 5.934119 ]
Betas:
[ 2.268928 2.617994 ]
Aggregate results:
[ 11 15 13 7 5 9 3 24 ]
[ 0.363744 0.088393 0.138258 0.123965 0.097400 0.124212 0.014051 0.049977 ]
3
Num Evals 84
GenUC: 2.262380e-05
GenUB: 1.712865e-05
Optimisation 9.354388e-03
Total Time: 9.662924e-03
3 Add 5
Graph 1:
1 0 0 1 0 
1 1 1 0 1 
1 1 1 1 0 
1 1 0 0 1 
1 0 0 1 1 
Graph 2:
1 1 0 1 1 
1 1 1 0 1 
1 1 1 1 1 
1 1 0 1 1 
1 0 1 1 1 
Solution: -5 0
Gbest: -7.000000
Expectation: -10.750000
Final Parameters:
Gammas:
[ 3.141593 ]
Betas:
[ 2.617994 2.617994 ]
Aggregate results:
[ 4 10 8 12 6 24 ]
[ 0.031250 0.328125 0.359375 0.109375 0.109375 0.062500 ]
3
Num Evals 97
GenUC: 1.817499e-05
GenUB: 1.912797e-05
Optimisation 2.688360e-03
Total Time: 3.006816e-03
4 Rem 5
Graph 1:
1 0 0 1 0 
1 1 1 0 1 
1 1 1 1 0 
1 1 0 0 1 
1 0 0 1 1 
Graph 2:
1 0 0 1 0 
1 1 1 0 1 
1 0 1 1 0 
0 1 0 0 1 
0 0 0 0 0 
Solution: -5 0
Gbest: -7.000000
Expectation: -13.375000
Final Parameters:
Gammas:
[ 3.141593 ]
Betas:
[ 2.617994 2.617994 ]
Aggregate results:
[ 4 12 10 6 14 16 8 24 ]
[ 0.007812 0.281250 0.273437 0.031250 0.226562 0.054687 0.062500 0.062500 ]
3
Num Evals 110
GenUC: 2.246827e-05
GenUB: 1.675240e-05
Optimisation 2.693341e-03
Total Time: 3.010912e-03
5 Add/Rem 5
Graph 1:
1 0 0 1 0 
1 1 1 0 1 
1 1 1 1 0 
1 1 0 0 1 
1 0 0 1 1 
Graph 2:
1 0 1 0 0 
1 1 0 0 1 
1 0 1 1 1 
1 1 1 0 0 
0 0 0 1 1 
Solution: -6 32
Gbest: -10.000000
Expectation: -12.200334
Final Parameters:
Gammas:
[ 3.839724 ]
Betas:
[ 2.268928 1.221730 ]
Aggregate results:
[ 7 9 13 11 15 5 24 ]
[ 0.064525 0.267751 0.168367 0.300031 0.086362 0.060884 0.052081 ]
3
Num Evals 155
GenUC: 2.219656e-05
GenUB: 1.690385e-05
Optimisation 1.050039e-02
Total Time: 1.075705e-02
