Clock Speed: 3.689369
Num threads: 4
Trotterisation: 6
Num Qubits: 7
Space Dimension: 128
Run-Type: 0
Num_samples: 15624
Optimiser Method: 20
1 Isomorphic
Graph 1:
1 1 1 1 0 
0 0 0 1 1 
1 1 1 0 1 
0 0 1 0 0 
1 0 1 1 0 
Graph 2:
1 1 1 1 0 
0 0 0 1 1 
1 1 1 0 1 
0 0 1 0 0 
1 0 1 1 0 
Solution: 25 0
Classic Expectation: 13.000000
Initial Expecation: 12.187500
Gbest: 25.000000
Expectation: 14.477875
Final Parameters:
Gammas:
[ 4.187764 6.072815 2.992078 0.541169 0.043593 0.494184 ]
Betas:
[ 1.109438 0.981814 1.354618 1.331126 3.141590 3.090343 ]
Aggregate results:
[ 25 17 13 7 15 19 11 5 21 9 0 ]
[ 0.032087 0.060713 0.332277 0.006116 0.182521 0.044482 0.097260 0.020585 0.139707 0.065729 0.018523 ]
5
Num Evals 6000
GenUC: 4.133396e-05
GenUB: 1.451955e-05
Optimisation 5.324495e+00
Total Time: 5.324571e+00
2 Flipped
Graph 1:
1 1 1 1 0 
0 0 0 1 1 
1 1 1 0 1 
0 0 1 0 0 
1 0 1 1 0 
Graph 2:
0 1 1 1 1 
1 1 0 0 0 
1 0 1 1 1 
0 0 1 0 0 
0 1 1 0 1 
Solution: 19 105
Classic Expectation: 12.600000
Initial Expecation: 11.812500
Gbest: 19.000000
Expectation: 13.207659
Final Parameters:
Gammas:
[ 2.334146 6.268459 0.509836 5.984808 5.517374 3.946460 ]
Betas:
[ 0.956413 0.385703 1.111270 2.360606 0.808532 0.439280 ]
Aggregate results:
[ 13 7 11 15 9 17 19 0 ]
[ 0.316010 0.013970 0.178129 0.324163 0.057089 0.095162 0.002543 0.012934 ]
5
Num Evals 6000
GenUC: 4.432217e-05
GenUB: 2.931862e-06
Optimisation 3.909570e+00
Total Time: 3.909620e+00
3 Add 5
Graph 1:
1 1 1 1 0 
0 0 0 1 1 
1 1 1 0 1 
0 0 1 0 0 
1 0 1 1 0 
Graph 2:
1 1 1 1 0 
0 0 1 1 1 
1 1 1 1 1 
1 1 1 0 0 
1 1 1 1 0 
Solution: 20 0
Classic Expectation: 14.000000
Initial Expecation: 13.125000
Gbest: 20.000000
Expectation: 14.903333
Final Parameters:
Gammas:
[ 4.535408 5.937722 1.337429 3.784081 1.410821 1.903752 ]
Betas:
[ 1.397675 0.056004 2.972682 0.236469 1.917692 0.414912 ]
Aggregate results:
[ 20 16 14 12 18 10 0 ]
[ 0.052999 0.266978 0.369269 0.159660 0.133819 0.007727 0.009548 ]
5
Num Evals 6000
GenUC: 4.454749e-05
GenUB: 2.860848e-06
Optimisation 4.024662e+00
Total Time: 4.024712e+00
4 Rem 5
Graph 1:
1 1 1 1 0 
0 0 0 1 1 
1 1 1 0 1 
0 0 1 0 0 
1 0 1 1 0 
Graph 2:
0 1 1 1 0 
0 0 0 1 1 
0 1 1 0 1 
0 0 1 0 0 
1 0 1 0 0 
Solution: 22 0
Classic Expectation: 12.800000
Initial Expecation: 12.000000
Gbest: 22.000000
Expectation: 14.480517
Final Parameters:
Gammas:
[ 0.904099 2.727648 3.331500 4.311888 0.936310 0.116163 ]
Betas:
[ 0.106503 2.797280 0.739015 0.393478 2.696492 0.373619 ]
Aggregate results:
[ 22 16 12 10 8 14 18 6 4 20 0 ]
[ 0.037674 0.168461 0.257307 0.080149 0.012263 0.216813 0.087670 0.001482 0.004726 0.116389 0.017065 ]
5
Num Evals 6000
GenUC: 4.450057e-05
GenUB: 2.695946e-06
Optimisation 4.155407e+00
Total Time: 4.155456e+00
5 Add/Rem 5
Graph 1:
1 1 1 1 0 
0 0 0 1 1 
1 1 1 0 1 
0 0 1 0 0 
1 0 1 1 0 
Graph 2:
1 1 0 1 1 
0 0 1 1 0 
1 1 0 0 0 
0 1 1 0 0 
0 1 1 1 0 
Solution: 18 13
Classic Expectation: 13.200000
Initial Expecation: 12.375000
Gbest: 18.000000
Expectation: 14.546746
Final Parameters:
Gammas:
[ 5.789380 3.472980 4.211070 5.550348 0.435019 4.534670 ]
Betas:
[ 0.176215 0.944143 2.054732 1.603810 1.241232 2.880391 ]
Aggregate results:
[ 16 14 12 18 10 8 0 ]
[ 0.198448 0.294387 0.126196 0.263137 0.073944 0.032487 0.011401 ]
5
Num Evals 6000
GenUC: 4.452752e-05
GenUB: 2.613175e-06
Optimisation 4.680884e+00
Total Time: 4.680934e+00
