Clock Speed: 3.688423
Num threads: 4
Trotterisation: 6
Num Qubits: 7
Space Dimension: 128
Run-Type: 0
Num_samples: 15624
Optimiser Method: 20
1 Isomorphic
Graph 1:
0 0 1 1 0 
0 0 0 0 1 
0 1 1 0 1 
0 1 0 1 0 
1 0 0 0 1 
Graph 2:
0 0 1 1 0 
0 0 0 0 1 
0 1 1 0 1 
0 1 0 1 0 
1 0 0 0 1 
Solution: 25 0
Classic Expectation: 13.500000
Initial Expecation: 12.656250
Gbest: 25.000000
Expectation: 14.621686
Final Parameters:
Gammas:
[ 0.214121 3.122542 4.795937 0.582365 2.029915 3.815997 ]
Betas:
[ 0.123088 2.601944 2.988028 2.256033 0.723125 0.329229 ]
Aggregate results:
[ 25 15 23 17 9 13 19 11 7 0 ]
[ 0.068403 0.216516 0.020183 0.163451 0.017461 0.314556 0.033804 0.118299 0.033010 0.014318 ]
5
Num Evals 6000
GenUC: 4.112901e-05
GenUB: 1.378363e-05
Optimisation 4.656239e+00
Total Time: 4.656312e+00
2 Flipped
Graph 1:
0 0 1 1 0 
0 0 0 0 1 
0 1 1 0 1 
0 1 0 1 0 
1 0 0 0 1 
Graph 2:
0 1 1 0 0 
1 0 0 0 0 
1 0 1 1 0 
0 1 0 1 0 
1 0 0 0 1 
Solution: 19 25
Classic Expectation: 13.500000
Initial Expecation: 12.656250
Gbest: 19.000000
Expectation: 14.031669
Final Parameters:
Gammas:
[ 0.153111 4.293344 3.254926 1.355685 5.011558 1.240616 ]
Betas:
[ 2.869834 0.517233 2.545527 2.426925 0.456288 2.379920 ]
Aggregate results:
[ 17 15 13 11 19 9 7 0 ]
[ 0.114530 0.280734 0.398509 0.048831 0.085613 0.053025 0.007429 0.011328 ]
5
Num Evals 6000
GenUC: 4.506204e-05
GenUB: 2.801535e-06
Optimisation 5.939125e+00
Total Time: 5.939175e+00
3 Add 5
Graph 1:
0 0 1 1 0 
0 0 0 0 1 
0 1 1 0 1 
0 1 0 1 0 
1 0 0 0 1 
Graph 2:
0 0 1 1 0 
1 1 0 0 1 
0 1 1 0 1 
0 1 1 1 0 
1 0 1 1 1 
Solution: 20 0
Classic Expectation: 12.500000
Initial Expecation: 11.718750
Gbest: 20.000000
Expectation: 13.529709
Final Parameters:
Gammas:
[ 0.217758 4.897379 3.565810 3.894233 5.665262 1.677868 ]
Betas:
[ 1.708331 2.825813 3.038252 2.807475 1.791115 1.551075 ]
Aggregate results:
[ 20 10 18 12 16 8 14 6 4 0 ]
[ 0.050921 0.110505 0.117378 0.212534 0.184948 0.056319 0.227308 0.024084 0.001623 0.014380 ]
5
Num Evals 6000
GenUC: 4.491943e-05
GenUB: 2.955901e-06
Optimisation 6.110249e+00
Total Time: 6.110300e+00
4 Rem 5
Graph 1:
0 0 1 1 0 
0 0 0 0 1 
0 1 1 0 1 
0 1 0 1 0 
1 0 0 0 1 
Graph 2:
0 0 1 0 0 
0 0 0 0 1 
0 1 0 0 0 
0 1 0 0 0 
1 0 0 0 1 
Solution: 21 0
Classic Expectation: 13.700000
Initial Expecation: 12.843750
Gbest: 21.000000
Expectation: 15.361950
Final Parameters:
Gammas:
[ 0.335332 6.152888 4.447457 5.792098 4.307183 4.919219 ]
Betas:
[ 0.683965 2.678418 1.648658 1.497243 1.462027 1.710118 ]
Aggregate results:
[ 21 15 13 11 17 19 9 0 ]
[ 0.059043 0.290002 0.137746 0.060988 0.314971 0.084123 0.039733 0.013394 ]
5
Num Evals 6000
GenUC: 4.435843e-05
GenUB: 2.650719e-06
Optimisation 6.411211e+00
Total Time: 6.411261e+00
5 Add/Rem 5
Graph 1:
0 0 1 1 0 
0 0 0 0 1 
0 1 1 0 1 
0 1 0 1 0 
1 0 0 0 1 
Graph 2:
0 1 1 1 1 
0 1 0 0 1 
1 0 0 1 1 
0 0 0 1 0 
0 0 0 0 0 
Solution: 19 20
Classic Expectation: 13.000000
Initial Expecation: 12.187500
Gbest: 19.000000
Expectation: 14.833810
Final Parameters:
Gammas:
[ 2.822622 3.820477 3.938376 2.449779 5.781143 2.938021 ]
Betas:
[ 0.194427 1.673095 1.588328 1.443883 0.718894 2.802522 ]
Aggregate results:
[ 15 13 11 17 19 9 7 0 ]
[ 0.326359 0.180985 0.070139 0.320498 0.063401 0.011457 0.008272 0.018890 ]
5
Num Evals 6000
GenUC: 4.499807e-05
GenUB: 2.819754e-06
Optimisation 5.622143e+00
Total Time: 5.622194e+00
