Clock Speed: 3.498630
Num threads: 24
Trotterisation: 3
Graph Size: 8
Num Qubits: 16
Space Dimension: 65536
Run-Type: 0
Num_samples: 1
1 Isomorphic
Graph 1:
0 0 0 1 0 1 0 1 
0 0 0 0 1 0 0 1 
0 0 0 1 1 0 0 0 
0 1 0 1 0 1 1 1 
0 1 0 1 1 1 0 1 
0 1 0 1 1 0 1 0 
0 1 1 1 1 0 0 1 
0 0 1 1 0 0 0 1 
Graph 2:
0 0 0 1 0 1 0 1 
0 0 0 0 1 0 0 1 
0 0 0 1 1 0 0 0 
0 1 0 1 0 1 1 1 
0 1 0 1 1 1 0 1 
0 1 0 1 1 0 1 0 
0 1 1 1 1 0 0 1 
0 0 1 1 0 0 0 1 
Solution: 0 0
Expectation: -41.973750
Final Parameters:
Gammas:
[ 5.580340 5.598787 5.896447 ]
Betas:
[ 2.881948 2.845996 2.135575 1.532737 ]
Aggregate results:
[ 0 14 18 12 10 24 26 20 28 30 16 32 22 34 38 36 40 42 44 8 46 48 50 64 ]
[ 0.000007 0.000319 0.001384 0.000052 0.000070 0.032516 0.052438 0.005791 0.087369 0.109578 0.001002 0.111838 0.016023 0.090088 0.055516 0.074273 0.028192 0.010536 0.003061 0.000036 0.001114 0.000201 0.000015 0.318582 ]
3
Num Evals 655
GenUC: 8.315085e-03
GenUB: 2.899005e-02
Optimisation 5.084253e+01
Total Time: 5.095835e+01
2 Flipped
Graph 1:
0 0 0 1 0 1 0 1 
0 0 0 0 1 0 0 1 
0 0 0 1 1 0 0 0 
0 1 0 1 0 1 1 1 
0 1 0 1 1 1 0 1 
0 1 0 1 1 0 1 0 
0 1 1 1 1 0 0 1 
0 0 1 1 0 0 0 1 
Graph 2:
1 0 1 0 1 0 0 0 
1 0 0 1 0 0 0 0 
0 0 0 1 1 0 0 0 
1 1 1 0 1 0 1 0 
1 0 1 1 1 0 1 0 
0 1 0 1 1 0 1 0 
1 0 0 1 1 1 1 0 
1 0 0 0 1 1 0 0 
Solution: -10 38517
Expectation: -40.915676
Final Parameters:
Gammas:
[ 5.784930 5.826610 6.193425 ]
Betas:
[ 3.064908 2.901340 2.047473 1.912453 ]
Aggregate results:
[ 34 28 30 36 40 38 32 42 26 22 24 44 20 46 50 48 18 16 14 12 10 64 ]
[ 0.100233 0.091560 0.107132 0.078456 0.025097 0.049794 0.116452 0.011832 0.063260 0.016841 0.036605 0.003732 0.006089 0.000745 0.000025 0.000031 0.001999 0.000473 0.000141 0.000052 0.000028 0.289422 ]
3
Num Evals 1220
GenUC: 6.529680e-03
GenUB: 2.027947e-02
Optimisation 4.498146e+01
Total Time: 4.508868e+01
3 Add 8
Graph 1:
0 0 0 1 0 1 0 1 
0 0 0 0 1 0 0 1 
0 0 0 1 1 0 0 0 
0 1 0 1 0 1 1 1 
0 1 0 1 1 1 0 1 
0 1 0 1 1 0 1 0 
0 1 1 1 1 0 0 1 
0 0 1 1 0 0 0 1 
Graph 2:
0 1 0 1 0 1 0 1 
1 0 0 0 1 0 1 1 
0 0 0 1 1 0 1 0 
1 1 1 1 0 1 1 1 
0 1 0 1 1 1 0 1 
0 1 0 1 1 0 1 0 
0 1 1 1 1 0 0 1 
1 1 1 1 0 0 0 1 
Solution: -8 0
Expectation: -36.004587
Final Parameters:
Gammas:
[ 4.463553 4.764686 6.037482 ]
Betas:
[ 2.902653 3.042034 2.127492 1.533443 ]
Aggregate results:
[ 8 20 22 16 26 30 24 34 28 18 32 36 38 40 42 44 14 46 48 64 ]
[ 0.000026 0.002222 0.009047 0.000246 0.061228 0.145466 0.027972 0.142158 0.109713 0.000812 0.169035 0.108250 0.059074 0.025706 0.009472 0.002423 0.000053 0.000458 0.000033 0.126606 ]
5
Num Evals 2020
GenUC: 6.091237e-03
GenUB: 1.993707e-02
Optimisation 6.285233e+01
Total Time: 6.295786e+01
4 Rem 8
Graph 1:
0 0 0 1 0 1 0 1 
0 0 0 0 1 0 0 1 
0 0 0 1 1 0 0 0 
0 1 0 1 0 1 1 1 
0 1 0 1 1 1 0 1 
0 1 0 1 1 0 1 0 
0 1 1 1 1 0 0 1 
0 0 1 1 0 0 0 1 
Graph 2:
0 0 0 1 0 1 0 1 
0 0 0 0 1 0 0 1 
0 0 0 0 1 0 0 0 
0 1 0 0 0 1 0 1 
0 1 0 1 1 1 0 1 
0 1 0 1 1 0 0 0 
0 1 1 0 0 0 0 0 
0 0 0 1 0 0 0 1 
Solution: -8 0
Expectation: -31.955690
Final Parameters:
Gammas:
[ 4.721577 4.666596 5.235709 ]
Betas:
[ 3.103383 3.121066 2.101658 1.566059 ]
Aggregate results:
[ 8 22 24 16 30 28 32 20 26 18 34 36 38 14 40 42 12 44 46 64 ]
[ 0.000040 0.026703 0.055316 0.000628 0.173644 0.149854 0.164843 0.007633 0.104092 0.002487 0.127541 0.081867 0.041989 0.000219 0.015313 0.004013 0.000033 0.000928 0.000061 0.042794 ]
5
Num Evals 2820
GenUC: 6.125088e-03
GenUB: 2.021098e-02
Optimisation 6.365225e+01
Total Time: 6.375900e+01
5 Add/Rem 8
Graph 1:
0 0 0 1 0 1 0 1 
0 0 0 0 1 0 0 1 
0 0 0 1 1 0 0 0 
0 1 0 1 0 1 1 1 
0 1 0 1 1 1 0 1 
0 1 0 1 1 0 1 0 
0 1 1 1 1 0 0 1 
0 0 1 1 0 0 0 1 
Graph 2:
0 0 0 1 0 1 0 1 
0 1 0 0 0 1 0 1 
1 0 0 0 0 0 1 0 
1 1 0 0 0 1 1 1 
0 1 0 1 1 0 0 1 
0 0 0 1 1 1 1 0 
0 1 1 1 1 1 0 1 
0 0 1 0 1 0 0 0 
Solution: -16 0
Expectation: -35.509621
Final Parameters:
Gammas:
[ 5.985004 6.146933 4.850356 ]
Betas:
[ 2.761268 2.843093 2.006250 1.541408 ]
Aggregate results:
[ 16 22 28 24 26 30 20 32 18 34 36 38 40 42 44 46 64 ]
[ 0.000060 0.017569 0.184918 0.056677 0.129480 0.168405 0.003476 0.103690 0.000520 0.057910 0.048133 0.036712 0.019340 0.006538 0.001572 0.000306 0.164692 ]
5
Num Evals 3620
GenUC: 6.118499e-03
GenUB: 2.013689e-02
Optimisation 6.134202e+01
Total Time: 6.144541e+01
