Clock Speed: 3.498795
Num threads: 24
Trotterisation: 3
Graph Size: 8
Num Qubits: 16
Space Dimension: 65536
Run-Type: 0
Num_samples: 1
1 Isomorphic
Graph 1:
0 0 0 0 1 0 0 1 
1 1 1 1 0 0 0 1 
1 0 0 0 0 1 0 1 
1 1 1 0 1 1 0 0 
0 0 0 1 0 1 0 0 
1 1 1 1 0 0 1 0 
0 1 0 1 1 0 0 0 
0 0 1 1 0 1 0 0 
Graph 2:
0 0 0 0 1 0 0 1 
1 1 1 1 0 0 0 1 
1 0 0 0 0 1 0 1 
1 1 1 0 1 1 0 0 
0 0 0 1 0 1 0 0 
1 1 1 1 0 0 1 0 
0 1 0 1 1 0 0 0 
0 0 1 1 0 1 0 0 
Solution: 0 0
Expectation: -37.810348
Final Parameters:
Gammas:
[ 4.419963 4.668336 5.506754 ]
Betas:
[ 2.974390 2.973411 2.089948 1.562228 ]
Aggregate results:
[ 0 14 16 12 8 18 22 26 24 20 28 30 32 34 36 38 40 10 42 48 44 64 ]
[ 0.000030 0.000124 0.000633 0.000136 0.000009 0.002181 0.025111 0.101196 0.055675 0.008064 0.137240 0.150974 0.119164 0.087075 0.043189 0.023049 0.008031 0.000021 0.002396 0.000028 0.000321 0.235352 ]
5
Num Evals 800
GenUC: 3.186695e-02
GenUB: 3.060199e-02
Optimisation 6.192975e+01
Total Time: 6.207139e+01
2 Flipped
Graph 1:
0 0 0 0 1 0 0 1 
1 1 1 1 0 0 0 1 
1 0 0 0 0 1 0 1 
1 1 1 0 1 1 0 0 
0 0 0 1 0 1 0 0 
1 1 1 1 0 0 1 0 
0 1 0 1 1 0 0 0 
0 0 1 1 0 1 0 0 
Graph 2:
1 0 0 1 0 0 0 0 
1 0 0 0 1 1 1 1 
1 0 1 0 0 0 0 1 
0 0 1 1 0 1 1 1 
0 0 1 0 1 0 0 0 
0 1 0 0 1 1 1 1 
0 0 0 1 1 0 1 0 
0 0 1 0 1 1 0 0 
Solution: -18 10889
Expectation: -33.448640
Final Parameters:
Gammas:
[ 6.123251 6.044814 5.237198 ]
Betas:
[ 2.520466 2.591079 1.683594 1.572080 ]
Aggregate results:
[ 32 30 36 34 28 26 24 38 40 42 44 22 20 18 46 48 64 ]
[ 0.207224 0.238787 0.039398 0.110097 0.165601 0.077044 0.023936 0.020802 0.017229 0.009722 0.003808 0.006122 0.000659 0.000097 0.000641 0.000133 0.078701 ]
3
Num Evals 1564
GenUC: 6.582762e-03
GenUB: 2.053124e-02
Optimisation 5.563066e+01
Total Time: 5.573133e+01
3 Add 8
Graph 1:
0 0 0 0 1 0 0 1 
1 1 1 1 0 0 0 1 
1 0 0 0 0 1 0 1 
1 1 1 0 1 1 0 0 
0 0 0 1 0 1 0 0 
1 1 1 1 0 0 1 0 
0 1 0 1 1 0 0 0 
0 0 1 1 0 1 0 0 
Graph 2:
1 0 1 0 1 0 0 1 
1 1 1 1 0 0 0 1 
1 0 0 0 0 1 0 1 
1 1 1 0 1 1 0 0 
1 0 0 1 1 1 0 0 
1 1 1 1 0 1 1 0 
0 1 0 1 1 1 0 0 
0 1 1 1 0 1 0 0 
Solution: -7 0
Expectation: -33.639389
Final Parameters:
Gammas:
[ 3.090427 4.879454 2.957742 ]
Betas:
[ 2.748480 1.051115 3.134196 1.561960 ]
Aggregate results:
[ 7 17 23 13 25 29 27 19 21 35 31 33 37 39 15 41 43 47 45 49 64 ]
[ 0.000038 0.000608 0.013714 0.000041 0.036714 0.140474 0.081353 0.001347 0.004854 0.149988 0.184611 0.190010 0.088265 0.040491 0.000108 0.014002 0.003371 0.000098 0.000527 0.000022 0.049364 ]
5
Num Evals 2364
GenUC: 6.124173e-03
GenUB: 2.079161e-02
Optimisation 5.591843e+01
Total Time: 5.601928e+01
4 Rem 8
Graph 1:
0 0 0 0 1 0 0 1 
1 1 1 1 0 0 0 1 
1 0 0 0 0 1 0 1 
1 1 1 0 1 1 0 0 
0 0 0 1 0 1 0 0 
1 1 1 1 0 0 1 0 
0 1 0 1 1 0 0 0 
0 0 1 1 0 1 0 0 
Graph 2:
0 0 0 0 0 0 0 1 
1 0 0 1 0 0 0 1 
1 0 0 0 0 0 0 1 
1 1 1 0 1 1 0 0 
0 0 0 0 0 1 0 0 
1 1 1 0 0 0 1 0 
0 1 0 1 0 0 0 0 
0 0 1 0 0 1 0 0 
Solution: -8 0
Expectation: -29.048277
Final Parameters:
Gammas:
[ 6.257202 6.255774 6.139714 ]
Betas:
[ 1.691058 2.601640 2.552744 1.660736 ]
Aggregate results:
[ 8 16 18 14 12 20 24 22 26 28 30 32 34 36 38 40 42 64 ]
[ 0.000056 0.001388 0.004995 0.000295 0.000199 0.017288 0.098268 0.048020 0.158528 0.195403 0.191933 0.138805 0.084897 0.034351 0.012206 0.002376 0.000438 0.010553 ]
5
Num Evals 3164
GenUC: 6.157607e-03
GenUB: 2.083695e-02
Optimisation 6.237910e+01
Total Time: 6.248099e+01
5 Add/Rem 8
Graph 1:
0 0 0 0 1 0 0 1 
1 1 1 1 0 0 0 1 
1 0 0 0 0 1 0 1 
1 1 1 0 1 1 0 0 
0 0 0 1 0 1 0 0 
1 1 1 1 0 0 1 0 
0 1 0 1 1 0 0 0 
0 0 1 1 0 1 0 0 
Graph 2:
0 1 0 0 1 1 0 1 
1 1 0 0 0 0 1 1 
1 0 1 0 0 1 1 1 
0 0 1 0 1 1 0 0 
0 0 0 0 0 1 0 0 
1 1 0 1 0 0 1 0 
0 1 1 1 0 0 0 0 
0 0 1 1 0 1 1 1 
Solution: -13 15506
Expectation: -29.455553
Final Parameters:
Gammas:
[ 3.196203 6.071224 3.190650 ]
Betas:
[ 1.710492 0.422535 1.706345 1.547369 ]
Aggregate results:
[ 15 23 27 19 21 25 29 31 33 35 37 39 41 43 17 45 47 13 64 ]
[ 0.000539 0.087536 0.221343 0.008472 0.032966 0.170093 0.205892 0.129402 0.047112 0.013724 0.011525 0.012602 0.008263 0.002862 0.001596 0.000811 0.000139 0.000056 0.045067 ]
5
Num Evals 3964
GenUC: 6.150130e-03
GenUB: 2.086039e-02
Optimisation 4.696939e+01
Total Time: 4.705303e+01
