Clock Speed: 3.498567
Num threads: 24
Trotterisation: 4
Graph Size: 8
Num Qubits: 16
Space Dimension: 65536
Run-Type: 1
Num_samples: 1
1 Isomorphic
Graph 1:
0 0 1 0 1 1 1 0 
1 1 1 1 1 1 1 0 
0 1 0 1 1 0 0 0 
0 0 0 0 0 0 0 1 
1 0 1 0 1 1 1 1 
1 1 0 0 0 0 1 1 
1 1 0 1 0 1 1 0 
0 1 1 0 0 0 1 1 
Graph 2:
0 0 1 0 1 1 1 0 
1 1 1 1 1 1 1 0 
0 1 0 1 1 0 0 0 
0 0 0 0 0 0 0 1 
1 0 1 0 1 1 1 1 
1 1 0 0 0 0 1 1 
1 1 0 1 0 1 1 0 
0 1 1 0 0 0 1 1 
Solution: 0 0
Expectation: -39.976631
Final Parameters:
Gammas:
[ 4.523882 3.228774 2.898183 4.672823 ]
Betas:
[ 2.165224 2.210800 2.162704 1.795474 1.473393 ]
Aggregate results:
[ 0 12 18 16 20 28 26 24 36 30 32 22 14 38 34 40 10 42 8 44 48 46 52 64 ]
[ 0.000001 0.000118 0.002458 0.000817 0.006184 0.100552 0.069224 0.035183 0.072339 0.123207 0.121090 0.015765 0.000259 0.047385 0.104088 0.021865 0.000093 0.008945 0.000037 0.003529 0.000386 0.000569 0.000021 0.265883 ]
5
Num Evals 800
GenUC: 9.456746e-03
GenUB: 3.217508e-02
Optimisation 7.150494e+01
Total Time: 7.163802e+01
