Clock Speed: 3.498653
Num threads: 24
Trotterisation: 5
Graph Size: 8
Num Qubits: 16
Space Dimension: 65536
Run-Type: 1
Num_samples: 1
1 Isomorphic
Graph 1:
0 1 0 1 0 1 0 0 
0 1 0 1 0 0 1 1 
1 1 1 1 0 0 1 1 
0 0 1 1 1 0 0 1 
0 1 0 1 1 1 1 0 
0 0 1 0 0 1 0 1 
0 1 1 1 0 1 1 0 
1 0 0 1 1 1 0 0 
Graph 2:
0 1 0 1 0 1 0 0 
0 1 0 1 0 0 1 1 
1 1 1 1 0 0 1 1 
0 0 1 1 1 0 0 1 
0 1 0 1 1 1 1 0 
0 0 1 0 0 1 0 1 
0 1 1 1 0 1 1 0 
1 0 0 1 1 1 0 0 
Solution: 0 0
Expectation: -32.316210
Final Parameters:
Gammas:
[ 4.603011 4.794432 5.199170 6.086569 5.823285 ]
Betas:
[ 2.768865 3.101762 2.360903 1.726119 1.508767 1.741213 ]
Aggregate results:
[ 0 16 22 12 18 24 26 28 34 10 20 32 30 36 38 8 6 14 40 42 44 46 48 64 ]
[ 0.000009 0.004652 0.055562 0.001041 0.012354 0.089877 0.142596 0.174691 0.058156 0.000483 0.021823 0.105599 0.159446 0.030973 0.017707 0.000152 0.000041 0.001248 0.008200 0.002633 0.000586 0.000123 0.000026 0.112022 ]
5
Num Evals 800
GenUC: 8.176497e-03
GenUB: 2.626787e-02
Optimisation 9.076976e+01
Total Time: 9.091745e+01
