Clock Speed: 3.499052
Num threads: 24
Trotterisation: 5
Graph Size: 8
Num Qubits: 16
Space Dimension: 65536
Run-Type: 0
Num_samples: 1
1 Isomorphic
Graph 1:
1 0 0 0 0 0 0 0 
1 1 0 0 0 1 0 0 
1 0 0 1 0 0 0 0 
0 1 1 1 0 0 0 1 
1 0 0 1 1 0 1 1 
0 0 0 0 0 0 1 1 
0 0 0 1 0 1 1 1 
0 0 0 0 1 1 0 0 
Graph 2:
1 0 0 0 0 0 0 0 
1 1 0 0 0 1 0 0 
1 0 0 1 0 0 0 0 
0 1 1 1 0 0 0 1 
1 0 0 1 1 0 1 1 
0 0 0 0 0 0 1 1 
0 0 0 1 0 1 1 1 
0 0 0 0 1 1 0 0 
Solution: 0 0
Expectation: -36.950348
Final Parameters:
Gammas:
[ 3.852495 3.072563 3.082058 2.754318 4.206203 ]
Betas:
[ 2.230674 2.179807 1.367213 2.252261 1.693973 1.545892 ]
Aggregate results:
[ 0 10 14 6 12 16 18 26 24 22 20 30 28 32 34 36 38 40 42 64 ]
[ 0.000012 0.000131 0.000998 0.000033 0.000185 0.002462 0.008257 0.142266 0.099202 0.059577 0.025948 0.115258 0.144341 0.081079 0.040911 0.015256 0.003520 0.000348 0.000014 0.260202 ]
5
Num Evals 800
GenUC: 1.842627e-02
GenUB: 2.890884e-02
Optimisation 8.118242e+01
Total Time: 8.133232e+01
2 Flipped
Graph 1:
1 0 0 0 0 0 0 0 
1 1 0 0 0 1 0 0 
1 0 0 1 0 0 0 0 
0 1 1 1 0 0 0 1 
1 0 0 1 1 0 1 1 
0 0 0 0 0 0 1 1 
0 0 0 1 0 1 1 1 
0 0 0 0 1 1 0 0 
Graph 2:
0 0 0 0 0 0 0 1 
0 0 1 0 0 0 1 1 
0 0 0 0 1 0 0 1 
1 0 0 0 1 1 1 0 
1 1 0 1 1 0 0 1 
1 1 0 0 0 0 0 0 
1 1 1 0 1 0 0 0 
0 0 1 1 0 0 0 0 
Solution: -16 2902
Expectation: -38.010899
Final Parameters:
Gammas:
[ 4.281704 3.069547 3.078125 2.894787 6.221974 ]
Betas:
[ 2.011635 2.143663 1.400040 2.274206 1.570495 1.718964 ]
Aggregate results:
[ 38 36 34 30 32 28 26 40 24 22 20 18 16 42 44 46 64 ]
[ 0.015908 0.041334 0.079393 0.168304 0.124705 0.140037 0.102677 0.003917 0.054662 0.020068 0.004115 0.000979 0.000342 0.000578 0.000056 0.000041 0.242884 ]
5
Num Evals 1600
GenUC: 6.522829e-03
GenUB: 2.021696e-02
Optimisation 8.112960e+01
Total Time: 8.125761e+01
3 Add 8
Graph 1:
1 0 0 0 0 0 0 0 
1 1 0 0 0 1 0 0 
1 0 0 1 0 0 0 0 
0 1 1 1 0 0 0 1 
1 0 0 1 1 0 1 1 
0 0 0 0 0 0 1 1 
0 0 0 1 0 1 1 1 
0 0 0 0 1 1 0 0 
Graph 2:
1 0 1 0 0 0 0 0 
1 1 0 1 0 1 0 0 
1 1 1 1 0 0 0 0 
0 1 1 1 1 0 0 1 
1 0 0 1 1 0 1 1 
0 0 0 1 0 0 1 1 
0 0 0 1 0 1 1 1 
1 0 0 1 1 1 0 0 
Solution: -8 0
Expectation: -38.340274
Final Parameters:
Gammas:
[ 4.013210 3.076947 3.082631 2.932017 5.972440 ]
Betas:
[ 2.558934 2.212904 1.415430 2.045478 1.733757 1.548894 ]
Aggregate results:
[ 8 16 10 18 20 22 14 28 30 26 24 32 34 36 38 40 42 44 64 ]
[ 0.000213 0.001819 0.000193 0.004156 0.013493 0.031310 0.000212 0.129521 0.129674 0.112507 0.070767 0.106041 0.072448 0.039252 0.016742 0.005480 0.001123 0.000231 0.264818 ]
5
Num Evals 2400
GenUC: 6.140633e-03
GenUB: 2.034607e-02
Optimisation 8.214050e+01
Total Time: 8.227123e+01
4 Rem 8
Graph 1:
1 0 0 0 0 0 0 0 
1 1 0 0 0 1 0 0 
1 0 0 1 0 0 0 0 
0 1 1 1 0 0 0 1 
1 0 0 1 1 0 1 1 
0 0 0 0 0 0 1 1 
0 0 0 1 0 1 1 1 
0 0 0 0 1 1 0 0 
Graph 2:
0 0 0 0 0 0 0 0 
1 1 0 0 0 1 0 0 
1 0 0 0 0 0 0 0 
0 0 1 1 0 0 0 1 
1 0 0 0 0 0 1 1 
0 0 0 0 0 0 1 1 
0 0 0 1 0 0 1 1 
0 0 0 0 1 0 0 0 
Solution: -7 0
Expectation: -25.932474
Final Parameters:
Gammas:
[ 3.181662 3.173453 3.188177 3.014883 4.557115 ]
Betas:
[ 2.135809 1.580282 2.086422 1.544400 1.719773 1.565624 ]
Aggregate results:
[ 7 15 19 11 17 21 27 25 23 29 13 31 33 35 37 39 64 ]
[ 0.000027 0.002822 0.046222 0.000035 0.014508 0.119844 0.191856 0.244589 0.207260 0.100312 0.000248 0.032679 0.007551 0.001148 0.000207 0.000018 0.030674 ]
5
Num Evals 3200
GenUC: 6.103937e-03
GenUB: 2.032352e-02
Optimisation 8.164986e+01
Total Time: 8.177850e+01
5 Add/Rem 8
Graph 1:
1 0 0 0 0 0 0 0 
1 1 0 0 0 1 0 0 
1 0 0 1 0 0 0 0 
0 1 1 1 0 0 0 1 
1 0 0 1 1 0 1 1 
0 0 0 0 0 0 1 1 
0 0 0 1 0 1 1 1 
0 0 0 0 1 1 0 0 
Graph 2:
1 0 0 0 0 1 1 0 
0 0 0 0 0 1 0 0 
0 0 0 0 0 0 0 1 
0 1 1 1 0 0 0 1 
1 0 0 1 1 0 0 0 
0 0 0 0 0 1 1 1 
0 0 1 1 0 1 1 1 
0 0 0 0 1 1 0 1 
Solution: -12 0
Expectation: -30.967725
Final Parameters:
Gammas:
[ 4.484731 4.755871 4.112967 4.792095 4.563764 ]
Betas:
[ 2.602275 3.069896 2.105442 1.569315 1.580852 1.578764 ]
Aggregate results:
[ 12 16 14 20 18 22 24 26 30 28 32 34 36 38 40 64 ]
[ 0.000042 0.000918 0.000067 0.018373 0.003817 0.056868 0.124819 0.193383 0.156073 0.214750 0.089344 0.035809 0.009043 0.001591 0.000149 0.094954 ]
5
Num Evals 4000
GenUC: 5.816501e-03
GenUB: 2.072946e-02
Optimisation 8.907763e+01
Total Time: 8.921535e+01
