Clock Speed: 3.498801
Num threads: 24
Trotterisation: 6
Graph Size: 8
Num Qubits: 16
Space Dimension: 65536
Run-Type: 1
Num_samples: 1
1 Isomorphic
Graph 1:
1 0 1 1 0 0 1 1 
1 1 0 1 1 0 1 0 
1 1 1 1 1 1 1 1 
0 0 1 0 0 1 0 0 
0 0 1 0 0 1 0 1 
0 0 0 0 0 0 0 1 
1 0 1 1 1 0 0 0 
1 1 0 1 0 1 1 1 
Graph 2:
1 0 1 1 0 0 1 1 
1 1 0 1 1 0 1 0 
1 1 1 1 1 1 1 1 
0 0 1 0 0 1 0 0 
0 0 1 0 0 1 0 1 
0 0 0 0 0 0 0 1 
1 0 1 1 1 0 0 0 
1 1 0 1 0 1 1 1 
Solution: 0 0
Expectation: -40.543952
Final Parameters:
Gammas:
[ 5.204827 4.230585 3.890331 3.024588 5.490110 5.185326 ]
Betas:
[ 2.717379 2.185059 1.602026 1.579122 1.546398 1.576086 2.186380 ]
Aggregate results:
[ 0 10 16 14 20 24 22 26 18 32 30 28 6 12 40 34 36 38 46 44 48 42 8 50 52 54 64 ]
[ 0.000010 0.000035 0.000900 0.000259 0.005176 0.027159 0.012782 0.054355 0.002406 0.122970 0.110973 0.088233 0.000049 0.000084 0.029716 0.113044 0.087282 0.058308 0.001865 0.005447 0.000774 0.011617 0.000014 0.000174 0.000028 0.000010 0.266330 ]
5
Num Evals 800
GenUC: 4.313370e-02
GenUB: 3.432689e-02
Optimisation 9.450993e+01
Total Time: 9.470769e+01
