Clock Speed: 3.498921
Num threads: 24
Trotterisation: 6
Graph Size: 8
Num Qubits: 16
Space Dimension: 65536
Run-Type: 0
Num_samples: 1
1 Isomorphic
Graph 1:
0 1 1 0 1 1 0 1 
0 0 1 0 1 1 0 1 
0 0 0 1 1 1 0 1 
1 0 1 0 1 0 0 1 
0 0 0 1 1 0 1 1 
1 1 0 1 0 0 0 1 
0 0 1 1 0 1 0 0 
0 0 1 1 1 1 1 1 
Graph 2:
0 1 1 0 1 1 0 1 
0 0 1 0 1 1 0 1 
0 0 0 1 1 1 0 1 
1 0 1 0 1 0 0 1 
0 0 0 1 1 0 1 1 
1 1 0 1 0 0 0 1 
0 0 1 1 0 1 0 0 
0 0 1 1 1 1 1 1 
Solution: 0 0
Expectation: -39.798761
Final Parameters:
Gammas:
[ 4.856070 4.633820 4.186922 2.686723 5.011789 5.102232 ]
Betas:
[ 2.513685 3.097816 2.022302 1.843237 1.832157 1.883530 1.956224 ]
Aggregate results:
[ 0 4 14 12 16 18 20 22 30 28 32 24 26 10 34 36 42 38 46 40 44 48 6 64 ]
[ 0.000010 0.000021 0.000935 0.000192 0.001568 0.002182 0.006640 0.018767 0.131586 0.109703 0.126654 0.046577 0.076404 0.000066 0.099370 0.056793 0.003971 0.026251 0.000419 0.010945 0.001330 0.000096 0.000016 0.279505 ]
5
Num Evals 800
GenUC: 8.112531e-03
GenUB: 2.775709e-02
Optimisation 9.923744e+01
Total Time: 9.940033e+01
2 Flipped
Graph 1:
0 1 1 0 1 1 0 1 
0 0 1 0 1 1 0 1 
0 0 0 1 1 1 0 1 
1 0 1 0 1 0 0 1 
0 0 0 1 1 0 1 1 
1 1 0 1 0 0 0 1 
0 0 1 1 0 1 0 0 
0 0 1 1 1 1 1 1 
Graph 2:
1 0 1 1 0 1 1 0 
1 0 1 1 0 1 0 0 
1 0 1 1 1 0 0 0 
1 0 0 1 0 1 0 1 
1 1 0 1 1 0 0 0 
1 0 0 0 1 0 1 1 
0 0 1 0 1 1 0 0 
1 1 1 1 1 1 0 0 
Solution: -14 37650
Expectation: -32.313726
Final Parameters:
Gammas:
[ 6.247134 6.142969 5.943841 2.793607 5.967042 5.413600 ]
Betas:
[ 2.478056 1.973673 1.743564 1.664256 1.602767 1.550929 1.605584 ]
Aggregate results:
[ 32 38 36 34 30 26 28 24 22 40 44 42 46 20 18 48 16 14 64 ]
[ 0.124921 0.040112 0.053945 0.073648 0.175183 0.128788 0.183608 0.068974 0.027327 0.027465 0.005509 0.014511 0.001805 0.007144 0.002064 0.000159 0.000503 0.000044 0.064290 ]
5
Num Evals 1600
GenUC: 6.177997e-03
GenUB: 2.079566e-02
Optimisation 9.643879e+01
Total Time: 9.658522e+01
3 Add 8
Graph 1:
0 1 1 0 1 1 0 1 
0 0 1 0 1 1 0 1 
0 0 0 1 1 1 0 1 
1 0 1 0 1 0 0 1 
0 0 0 1 1 0 1 1 
1 1 0 1 0 0 0 1 
0 0 1 1 0 1 0 0 
0 0 1 1 1 1 1 1 
Graph 2:
0 1 1 1 1 1 1 1 
0 0 1 1 1 1 0 1 
0 0 0 1 1 1 1 1 
1 0 1 0 1 0 0 1 
0 1 0 1 1 0 1 1 
1 1 0 1 0 1 0 1 
0 0 1 1 0 1 0 1 
0 0 1 1 1 1 1 1 
Solution: -7 0
Expectation: -27.900221
Final Parameters:
Gammas:
[ 3.147095 3.154494 2.986271 3.193815 2.951672 3.059713 ]
Betas:
[ 2.424764 1.459573 2.344085 1.780565 1.509508 1.621323 1.614261 ]
Aggregate results:
[ 7 11 19 17 23 21 15 27 33 31 25 29 35 37 41 39 45 13 43 47 64 ]
[ 0.000005 0.000009 0.023818 0.007728 0.161880 0.080291 0.001603 0.209478 0.027489 0.061699 0.230313 0.122915 0.013047 0.004615 0.000340 0.001257 0.000059 0.000508 0.000148 0.000018 0.052779 ]
5
Num Evals 2400
GenUC: 6.122011e-03
GenUB: 2.073795e-02
Optimisation 9.279843e+01
Total Time: 9.294209e+01
4 Rem 8
Graph 1:
0 1 1 0 1 1 0 1 
0 0 1 0 1 1 0 1 
0 0 0 1 1 1 0 1 
1 0 1 0 1 0 0 1 
0 0 0 1 1 0 1 1 
1 1 0 1 0 0 0 1 
0 0 1 1 0 1 0 0 
0 0 1 1 1 1 1 1 
Graph 2:
0 1 1 0 1 0 0 1 
0 0 1 0 1 1 0 0 
0 0 0 1 1 1 0 1 
1 0 1 0 0 0 0 1 
0 0 0 1 1 0 1 1 
0 1 0 1 0 0 0 1 
0 0 1 0 0 1 0 0 
0 0 1 0 1 1 0 1 
Solution: -7 0
Expectation: -29.101881
Final Parameters:
Gammas:
[ 3.142760 3.145383 2.986278 3.082943 2.960477 3.188770 ]
Betas:
[ 2.463662 1.529160 2.379994 1.649287 1.641844 1.466319 1.754911 ]
Aggregate results:
[ 7 11 21 19 17 25 15 23 13 33 31 27 29 37 35 39 43 41 45 47 49 64 ]
[ 0.000005 0.000006 0.054798 0.017430 0.006835 0.187267 0.000943 0.120199 0.000751 0.046496 0.098651 0.204121 0.161209 0.012579 0.023671 0.005260 0.000643 0.002207 0.000264 0.000056 0.000005 0.056605 ]
5
Num Evals 3200
GenUC: 6.125147e-03
GenUB: 2.080227e-02
Optimisation 9.205711e+01
Total Time: 9.220044e+01
5 Add/Rem 8
Graph 1:
0 1 1 0 1 1 0 1 
0 0 1 0 1 1 0 1 
0 0 0 1 1 1 0 1 
1 0 1 0 1 0 0 1 
0 0 0 1 1 0 1 1 
1 1 0 1 0 0 0 1 
0 0 1 1 0 1 0 0 
0 0 1 1 1 1 1 1 
Graph 2:
0 1 1 0 1 0 0 1 
0 1 1 0 1 1 0 1 
1 0 1 0 1 0 0 1 
1 0 1 0 1 0 1 1 
0 1 0 1 1 0 0 1 
0 1 0 1 0 0 1 1 
0 0 1 0 1 1 0 0 
0 0 1 1 1 1 1 1 
Solution: -13 0
Expectation: -29.898606
Final Parameters:
Gammas:
[ 3.067322 3.097311 3.013334 3.084605 2.959854 5.294706 ]
Betas:
[ 2.596195 1.588131 2.629684 1.565225 1.719714 1.658729 1.576776 ]
Aggregate results:
[ 13 17 23 21 25 29 27 19 35 33 31 15 37 39 41 43 45 47 49 64 ]
[ 0.000193 0.004494 0.113708 0.048027 0.171062 0.169667 0.192789 0.014401 0.026325 0.055066 0.112757 0.000657 0.012609 0.005416 0.002081 0.000458 0.000122 0.000100 0.000080 0.069989 ]
5
Num Evals 4000
GenUC: 6.306819e-03
GenUB: 2.053705e-02
Optimisation 9.423563e+01
Total Time: 9.438229e+01
