Clock Speed: 3.498642
Num threads: 24
Trotterisation: 6
Graph Size: 8
Num Qubits: 16
Space Dimension: 65536
Run-Type: 0
Num_samples: 1
1 Isomorphic
Graph 1:
1 0 0 0 0 0 0 0 
1 1 0 0 0 1 0 0 
1 0 0 1 0 0 0 0 
0 1 1 1 0 0 0 1 
1 0 0 1 1 0 1 1 
0 0 0 0 0 0 1 1 
0 0 0 1 0 1 1 1 
0 0 0 0 1 1 0 0 
Graph 2:
1 0 0 0 0 0 0 0 
1 1 0 0 0 1 0 0 
1 0 0 1 0 0 0 0 
0 1 1 1 0 0 0 1 
1 0 0 1 1 0 1 1 
0 0 0 0 0 0 1 1 
0 0 0 1 0 1 1 1 
0 0 0 0 1 1 0 0 
Solution: 0 0
Expectation: -38.603860
Final Parameters:
Gammas:
[ 4.874291 4.460582 4.076110 2.954404 5.133576 5.205091 ]
Betas:
[ 2.745868 2.363936 1.680607 1.582182 1.582159 1.513767 1.810599 ]
Aggregate results:
[ 0 10 14 6 12 16 18 26 24 22 20 30 28 32 34 36 38 40 42 64 ]
[ 0.000045 0.000649 0.002666 0.000017 0.000543 0.004018 0.011762 0.125214 0.089184 0.057062 0.027228 0.114915 0.132342 0.074913 0.035605 0.011466 0.002900 0.000350 0.000004 0.309118 ]
5
Num Evals 800
GenUC: 8.168831e-03
GenUB: 2.746881e-02
Optimisation 1.014540e+02
Total Time: 1.016180e+02
2 Flipped
Graph 1:
1 0 0 0 0 0 0 0 
1 1 0 0 0 1 0 0 
1 0 0 1 0 0 0 0 
0 1 1 1 0 0 0 1 
1 0 0 1 1 0 1 1 
0 0 0 0 0 0 1 1 
0 0 0 1 0 1 1 1 
0 0 0 0 1 1 0 0 
Graph 2:
0 0 0 0 0 0 0 1 
0 0 1 0 0 0 1 1 
0 0 0 0 1 0 0 1 
1 0 0 0 1 1 1 0 
1 1 0 1 1 0 0 1 
1 1 0 0 0 0 0 0 
1 1 1 0 1 0 0 0 
0 0 1 1 0 0 0 0 
Solution: -16 2902
Expectation: -35.404079
Final Parameters:
Gammas:
[ 4.357385 4.750678 4.705946 2.786821 4.938300 6.215618 ]
Betas:
[ 3.072832 3.107816 2.605221 1.490604 1.617622 1.533902 1.484740 ]
Aggregate results:
[ 38 36 34 30 32 28 26 40 24 22 20 18 16 42 44 46 64 ]
[ 0.014690 0.038408 0.081041 0.173052 0.129565 0.166110 0.118954 0.003573 0.063076 0.027748 0.006870 0.001602 0.000321 0.000500 0.000033 0.000001 0.174457 ]
5
Num Evals 1600
GenUC: 6.232440e-03
GenUB: 2.046904e-02
Optimisation 1.022167e+02
Total Time: 1.023717e+02
3 Add 8
Graph 1:
1 0 0 0 0 0 0 0 
1 1 0 0 0 1 0 0 
1 0 0 1 0 0 0 0 
0 1 1 1 0 0 0 1 
1 0 0 1 1 0 1 1 
0 0 0 0 0 0 1 1 
0 0 0 1 0 1 1 1 
0 0 0 0 1 1 0 0 
Graph 2:
1 0 1 0 0 0 0 0 
1 1 0 1 0 1 0 0 
1 1 1 1 0 0 0 0 
0 1 1 1 1 0 0 1 
1 0 0 1 1 0 1 1 
0 0 0 1 0 0 1 1 
0 0 0 1 0 1 1 1 
1 0 0 1 1 1 0 0 
Solution: -8 0
Expectation: -28.758927
Final Parameters:
Gammas:
[ 6.242156 6.104658 6.227105 2.846238 6.029381 5.973956 ]
Betas:
[ 2.509553 2.222049 1.553270 1.709017 1.593324 1.669220 1.586696 ]
Aggregate results:
[ 8 16 10 18 20 22 14 28 30 26 24 32 34 36 38 40 42 44 64 ]
[ 0.000192 0.004176 0.000196 0.011718 0.037769 0.080744 0.000680 0.195894 0.132381 0.207792 0.156587 0.066246 0.028652 0.014666 0.007949 0.002833 0.000643 0.000079 0.050803 ]
5
Num Evals 2400
GenUC: 6.176131e-03
GenUB: 2.035272e-02
Optimisation 9.223998e+01
Total Time: 9.238188e+01
4 Rem 8
Graph 1:
1 0 0 0 0 0 0 0 
1 1 0 0 0 1 0 0 
1 0 0 1 0 0 0 0 
0 1 1 1 0 0 0 1 
1 0 0 1 1 0 1 1 
0 0 0 0 0 0 1 1 
0 0 0 1 0 1 1 1 
0 0 0 0 1 1 0 0 
Graph 2:
0 0 0 0 0 0 0 0 
1 1 0 0 0 1 0 0 
1 0 0 0 0 0 0 0 
0 0 1 1 0 0 0 1 
1 0 0 0 0 0 1 1 
0 0 0 0 0 0 1 1 
0 0 0 1 0 0 1 1 
0 0 0 0 1 0 0 0 
Solution: -7 0
Expectation: -26.432420
Final Parameters:
Gammas:
[ 3.178812 3.175503 3.157235 3.168696 3.180088 3.126827 ]
Betas:
[ 2.146449 1.596404 2.041328 1.579047 1.702175 1.534180 1.435109 ]
Aggregate results:
[ 7 15 19 11 17 21 27 25 23 29 13 31 33 35 37 39 64 ]
[ 0.000012 0.001433 0.027639 0.000022 0.007787 0.081231 0.229199 0.230454 0.164595 0.154998 0.000104 0.065179 0.016856 0.002264 0.000254 0.000006 0.017966 ]
5
Num Evals 3200
GenUC: 6.104844e-03
GenUB: 2.038525e-02
Optimisation 9.088087e+01
Total Time: 9.102109e+01
5 Add/Rem 8
Graph 1:
1 0 0 0 0 0 0 0 
1 1 0 0 0 1 0 0 
1 0 0 1 0 0 0 0 
0 1 1 1 0 0 0 1 
1 0 0 1 1 0 1 1 
0 0 0 0 0 0 1 1 
0 0 0 1 0 1 1 1 
0 0 0 0 1 1 0 0 
Graph 2:
1 0 0 0 0 1 1 0 
0 0 0 0 0 1 0 0 
0 0 0 0 0 0 0 1 
0 1 1 1 0 0 0 1 
1 0 0 1 1 0 0 0 
0 0 0 0 0 1 1 1 
0 0 1 1 0 1 1 1 
0 0 0 0 1 1 0 1 
Solution: -12 0
Expectation: -38.540270
Final Parameters:
Gammas:
[ 5.056985 4.896017 4.454350 2.918480 4.762060 4.631973 ]
Betas:
[ 2.538356 2.277653 1.526420 1.581196 1.566341 1.601180 1.783398 ]
Aggregate results:
[ 12 16 14 20 18 22 24 26 30 28 32 34 36 38 40 64 ]
[ 0.000090 0.001229 0.000115 0.023929 0.006228 0.060885 0.108688 0.148440 0.106158 0.142808 0.056119 0.025097 0.006157 0.001263 0.000047 0.312747 ]
5
Num Evals 4000
GenUC: 6.272261e-03
GenUB: 2.025103e-02
Optimisation 9.180702e+01
Total Time: 9.194974e+01
