Clock Speed: 3.688383
Num threads: 4
Trotterisation: 1
Graph Size: 7
Num Qubits: 13
Space Dimension: 8192
Run-Type: 0
Num_samples: 10
1 Isomorphic
Graph 1:
0 0 0 1 1 1 0 
1 0 0 1 0 0 1 
0 1 1 0 1 1 1 
0 1 1 1 1 0 0 
1 1 1 0 1 0 1 
0 0 0 1 1 0 1 
1 0 1 0 0 0 0 
Graph 2:
0 0 0 1 1 1 0 
1 0 0 1 0 0 1 
0 1 1 0 1 1 1 
0 1 1 1 1 0 0 
1 1 1 0 1 0 1 
0 0 0 1 1 0 1 
1 0 1 0 0 0 0 
Solution: 0 0
Gbest: -14.000000
Expectation: -25.479141
Final Parameters:
Gammas:
[ 3.207717 ]
Betas:
[ 1.487446 0.449713 ]
Aggregate results:
[ -1 13 15 11 17 21 19 29 27 23 25 9 33 31 35 37 7 48 ]
[ 0.000244 0.008296 0.026362 0.002925 0.055472 0.158052 0.115824 0.067024 0.114986 0.197695 0.155653 0.001275 0.009440 0.025429 0.003284 0.000371 0.000329 0.057339 ]
3
Num Evals 160
GenUC: 1.408478e-03
GenUB: 1.837926e-03
Optimisation 5.971273e-01
Total Time: 6.038407e-01
2 Flipped
Graph 1:
0 0 0 1 1 1 0 
1 0 0 1 0 0 1 
0 1 1 0 1 1 1 
0 1 1 1 1 0 0 
1 1 1 0 1 0 1 
0 0 0 1 1 0 1 
1 0 1 0 0 0 0 
Graph 2:
0 1 1 1 0 0 0 
1 0 0 1 0 0 1 
1 1 1 0 1 1 0 
0 0 1 1 1 1 0 
1 0 1 0 1 1 1 
1 0 1 1 0 0 0 
0 0 0 0 1 0 1 
Solution: -10 304
Gbest: -20.000000
Expectation: -25.685091
Final Parameters:
Gammas:
[ 3.208270 ]
Betas:
[ 3.122389 0.450153 ]
Aggregate results:
[ 17 19 23 27 25 21 31 29 15 13 11 9 33 35 37 48 ]
[ 0.045380 0.102718 0.201699 0.124661 0.186492 0.171589 0.024676 0.062285 0.014454 0.002202 0.001942 0.000445 0.005710 0.000771 0.000441 0.054534 ]
3
Num Evals 331
GenUC: 1.231647e-03
GenUB: 1.754376e-03
Optimisation 7.807926e-01
Total Time: 7.886360e-01
3 Add 7
Graph 1:
0 0 0 1 1 1 0 
1 0 0 1 0 0 1 
0 1 1 0 1 1 1 
0 1 1 1 1 0 0 
1 1 1 0 1 0 1 
0 0 0 1 1 0 1 
1 0 1 0 0 0 0 
Graph 2:
0 0 1 1 1 1 1 
1 0 1 1 0 0 1 
1 1 1 1 1 1 1 
0 1 1 1 1 0 1 
1 1 1 0 1 0 1 
0 0 0 1 1 1 1 
1 0 1 0 0 0 0 
Solution: -7 0
Gbest: -19.000000
Expectation: -26.314271
Final Parameters:
Gammas:
[ 3.333525 ]
Betas:
[ 0.075330 0.439964 ]
Aggregate results:
[ 6 16 14 12 18 20 22 24 28 26 30 32 34 36 48 ]
[ 0.000072 0.027196 0.005538 0.001343 0.083543 0.153000 0.199168 0.203505 0.067402 0.127691 0.024535 0.006314 0.001080 0.000663 0.098948 ]
3
Num Evals 499
GenUC: 1.121415e-03
GenUB: 1.607982e-03
Optimisation 4.678355e-01
Total Time: 4.726106e-01
4 Rem 7
Graph 1:
0 0 0 1 1 1 0 
1 0 0 1 0 0 1 
0 1 1 0 1 1 1 
0 1 1 1 1 0 0 
1 1 1 0 1 0 1 
0 0 0 1 1 0 1 
1 0 1 0 0 0 0 
Graph 2:
0 0 0 0 1 1 0 
1 0 0 1 0 0 1 
0 1 1 0 0 0 1 
0 0 1 1 0 0 0 
1 1 1 0 1 0 1 
0 0 0 1 0 0 1 
1 0 1 0 0 0 0 
Solution: -6 0
Gbest: -22.000000
Expectation: -30.947875
Final Parameters:
Gammas:
[ 2.700626 ]
Betas:
[ 1.566893 0.586205 ]
Aggregate results:
[ 5 17 21 15 13 23 29 25 19 27 11 33 31 35 37 9 48 ]
[ 0.000024 0.026413 0.124056 0.009305 0.002099 0.164581 0.048860 0.162888 0.076896 0.098844 0.000331 0.005513 0.017395 0.000732 0.000146 0.000141 0.261777 ]
3
Num Evals 630
GenUC: 1.208235e-03
GenUB: 1.627876e-03
Optimisation 5.157476e-01
Total Time: 5.223201e-01
5 Add/Rem 7
Graph 1:
0 0 0 1 1 1 0 
1 0 0 1 0 0 1 
0 1 1 0 1 1 1 
0 1 1 1 1 0 0 
1 1 1 0 1 0 1 
0 0 0 1 1 0 1 
1 0 1 0 0 0 0 
Graph 2:
1 0 0 1 1 1 1 
0 0 0 1 0 0 1 
0 1 1 0 1 1 1 
0 1 1 1 0 0 0 
0 1 1 0 0 0 1 
0 1 0 0 1 0 1 
0 0 1 1 0 0 1 
Solution: -11 0
Gbest: -19.000000
Expectation: -29.216078
Final Parameters:
Gammas:
[ 3.334355 ]
Betas:
[ 3.136890 0.927505 ]
Aggregate results:
[ 10 18 22 20 16 24 30 14 28 26 32 34 12 36 48 ]
[ 0.000997 0.054993 0.164335 0.115207 0.020609 0.177929 0.030769 0.008257 0.081351 0.133189 0.013316 0.002969 0.000560 0.000118 0.195401 ]
3
Num Evals 713
GenUC: 1.220864e-03
GenUB: 1.805275e-03
Optimisation 2.470784e-01
Total Time: 2.554986e-01
