Clock Speed: 3.688865
Num threads: 4
Trotterisation: 1
Graph Size: 7
Num Qubits: 13
Space Dimension: 8192
Run-Type: 0
Num_samples: 10
1 Isomorphic
Graph 1:
1 0 0 1 0 1 1 
1 1 1 1 1 0 0 
1 1 1 0 1 1 0 
1 1 1 1 0 1 0 
1 0 1 0 0 1 0 
1 1 0 0 0 1 1 
0 1 0 1 0 1 0 
Graph 2:
1 0 0 1 0 1 1 
1 1 1 1 1 0 0 
1 1 1 0 1 1 0 
1 1 1 1 0 1 0 
1 0 1 0 0 1 0 
1 1 0 0 0 1 1 
0 1 0 1 0 1 0 
Solution: 0 0
Gbest: -20.000000
Expectation: -31.357638
Final Parameters:
Gammas:
[ 3.693044 ]
Betas:
[ 3.045741 0.574941 ]
Aggregate results:
[ -1 13 17 9 11 21 23 19 25 15 5 27 29 31 7 35 33 48 ]
[ 0.000013 0.008341 0.048060 0.001144 0.002359 0.131238 0.162420 0.087648 0.111413 0.023135 0.000031 0.066959 0.030965 0.011647 0.000438 0.000493 0.002550 0.311148 ]
3
Num Evals 152
GenUC: 1.528628e-03
GenUB: 2.056026e-03
Optimisation 6.723094e-01
Total Time: 6.807271e-01
2 Flipped
Graph 1:
1 0 0 1 0 1 1 
1 1 1 1 1 0 0 
1 1 1 0 1 1 0 
1 1 1 1 0 1 0 
1 0 1 0 0 1 0 
1 1 0 0 0 1 1 
0 1 0 1 0 1 0 
Graph 2:
1 1 0 1 0 0 1 
0 0 1 1 1 1 1 
0 1 1 0 1 1 1 
0 1 0 1 1 1 1 
0 1 0 0 1 0 1 
1 1 0 0 0 1 1 
0 1 0 1 0 1 0 
Solution: -12 4861
Gbest: -18.000000
Expectation: -24.693648
Final Parameters:
Gammas:
[ 3.205728 ]
Betas:
[ 1.580862 0.480289 ]
Aggregate results:
[ 17 21 23 19 25 27 15 29 31 13 35 33 11 48 ]
[ 0.042414 0.244028 0.261927 0.128787 0.168883 0.071197 0.006917 0.020535 0.004457 0.000792 0.000111 0.000655 0.000193 0.049104 ]
3
Num Evals 284
GenUC: 1.101349e-03
GenUB: 1.744567e-03
Optimisation 5.122654e-01
Total Time: 5.190478e-01
3 Add 7
Graph 1:
1 0 0 1 0 1 1 
1 1 1 1 1 0 0 
1 1 1 0 1 1 0 
1 1 1 1 0 1 0 
1 0 1 0 0 1 0 
1 1 0 0 0 1 1 
0 1 0 1 0 1 0 
Graph 2:
1 1 1 1 0 1 1 
1 1 1 1 1 1 0 
1 1 1 0 1 1 0 
1 1 1 1 0 1 0 
1 0 1 0 0 1 0 
1 1 0 1 0 1 1 
0 1 1 1 0 1 1 
Solution: -6 0
Gbest: -16.000000
Expectation: -23.616722
Final Parameters:
Gammas:
[ 3.080549 ]
Betas:
[ 0.753821 2.651440 ]
Aggregate results:
[ 5 13 17 11 15 19 9 21 25 23 27 29 7 31 48 ]
[ 0.000290 0.016477 0.098830 0.006897 0.048525 0.175433 0.000941 0.214646 0.126918 0.183619 0.051418 0.016075 0.000659 0.001902 0.057370 ]
3
Num Evals 411
GenUC: 1.131827e-03
GenUB: 1.658456e-03
Optimisation 6.461590e-01
Total Time: 6.537093e-01
4 Rem 7
Graph 1:
1 0 0 1 0 1 1 
1 1 1 1 1 0 0 
1 1 1 0 1 1 0 
1 1 1 1 0 1 0 
1 0 1 0 0 1 0 
1 1 0 0 0 1 1 
0 1 0 1 0 1 0 
Graph 2:
1 0 0 1 0 1 1 
1 0 1 1 1 0 0 
0 0 1 0 1 1 0 
0 1 1 0 0 1 0 
1 0 1 0 0 1 0 
1 1 0 0 0 1 1 
0 0 0 1 0 1 0 
Solution: -6 0
Gbest: -20.000000
Expectation: -26.111848
Final Parameters:
Gammas:
[ 3.209337 ]
Betas:
[ 1.504611 0.473521 ]
Aggregate results:
[ 5 17 13 21 23 25 15 19 9 27 29 31 35 33 11 37 48 ]
[ 0.000162 0.040745 0.004691 0.152587 0.183245 0.198491 0.015626 0.086967 0.000367 0.137242 0.075767 0.032512 0.003423 0.012698 0.000612 0.000337 0.054529 ]
3
Num Evals 506
GenUC: 1.268338e-03
GenUB: 1.876186e-03
Optimisation 3.725688e-01
Total Time: 3.792632e-01
5 Add/Rem 7
Graph 1:
1 0 0 1 0 1 1 
1 1 1 1 1 0 0 
1 1 1 0 1 1 0 
1 1 1 1 0 1 0 
1 0 1 0 0 1 0 
1 1 0 0 0 1 1 
0 1 0 1 0 1 0 
Graph 2:
0 0 0 1 0 1 1 
1 0 1 1 0 1 1 
1 1 0 1 1 1 1 
1 1 1 0 1 1 0 
1 1 1 1 0 1 0 
1 1 0 0 0 1 1 
0 0 0 1 0 1 0 
Solution: -13 0
Gbest: -17.000000
Expectation: -28.175067
Final Parameters:
Gammas:
[ 3.456480 ]
Betas:
[ 2.295080 2.574809 ]
Aggregate results:
[ 12 16 20 14 18 22 24 26 28 30 32 34 48 ]
[ 0.000803 0.013104 0.116491 0.002577 0.049984 0.205128 0.205453 0.152433 0.068322 0.025452 0.005254 0.000101 0.154897 ]
3
Num Evals 613
GenUC: 1.013006e-03
GenUB: 1.668354e-03
Optimisation 6.208424e-01
Total Time: 6.297102e-01
